{"events": {"event": [
    {
      "eventDateTime": "2016-09-07T06:00:00",
      "eventActual": "45.71B",
      "eventCountry": "South Africa",
      "eventExpectedVolatility": "Low",
      "eventName": "Foreign Reserves (USD) (Aug)",
      "eventTimeZone": "GMT",
      "eventPrevious": "46.16B",
      "eventCurrency": "ZAR",
      "eventForecast": "45.98B"
    },
    {
      "eventDateTime": "2016-09-07T06:00:00",
      "eventActual": "40.790B",
      "eventCountry": "South Africa",
      "eventExpectedVolatility": "Low",
      "eventName": "Net FX Reserves (USD) (Aug)",
      "eventTimeZone": "GMT",
      "eventPrevious": "40.901B",
      "eventCurrency": "ZAR",
      "eventForecast": "40.900B"
    },
    {
      "eventDateTime": "2016-09-07T09:30:00",
      "eventActual": "92.9",
      "eventCountry": "South Africa",
      "eventExpectedVolatility": "Low",
      "eventName": "Business Confidence (Aug)",
      "eventTimeZone": "GMT",
      "eventPrevious": "96.0",
      "eventCurrency": "ZAR",
      "eventForecast": ""
    }
  ]}}
