"Auto Production (MoM) (Nov)";"Brazil";"BRL";"2010-12-01T09:00:00";"GMT";"5.43%";"";"2.85%";"Low"
"Auto Sales (MoM) (Nov)";"Brazil";"BRL";"2010-12-01T09:00:00";"GMT";"-1.27%";"";"8.35%";"Low"
"Bank lending (MoM) (Nov)";"Brazil";"BRL";"2010-12-01T09:00:00";"GMT";"1.87%";"";"2.05%";"Low"
"Budget Balance (Nov)";"Brazil";"BRL";"2010-12-01T09:00:00";"GMT";"-6.37B";"";"-14.36B";"Low"
"Budget Surplus (Nov)";"Brazil";"BRL";"2010-12-01T09:00:00";"GMT";"9.74B";"";"4.17B";"Low"
"CAGED Net Payroll Jobs (Nov)";"Brazil";"BRL";"2010-12-01T09:00:00";"GMT";"205.00K";"";"138.00K";"Moderate"
"CNI Factory Utilization (Nov)";"Brazil";"BRL";"2010-12-01T09:00:00";"GMT";"83.30%";"";"83.60%";"Low"
"CPI (MoM) (Nov)";"Brazil";"BRL";"2010-12-01T09:00:00";"GMT";"0.75%";"";"0.83%";"Moderate"
"Debt-to-GDP ratio (Nov)";"Brazil";"BRL";"2010-12-01T09:00:00";"GMT";"37.90%";"";"37.70%";"Low"
"FGV Consumer confidence (Nov)";"Brazil";"BRL";"2010-12-01T09:00:00";"GMT";"120.70";"";"124.20";"Low"
"Federal Tax Revenue (Nov)";"Brazil";"BRL";"2010-12-01T09:00:00";"GMT";"76.00B";"";"70.00B";"Low"
"Foreign direct investment (USD) (Nov)";"Brazil";"BRL";"2010-12-01T09:00:00";"GMT";"6.82B";"";"3.74B";"Low"
"IBC-Br Economic Activity (Nov)";"Brazil";"BRL";"2010-12-01T09:00:00";"GMT";"0.49%";"";"0.37%";"Low"
"IGP-DI Inflation Index (MoM) (Nov)";"Brazil";"BRL";"2010-12-01T09:00:00";"GMT";"1.03%";"";"1.58%";"Low"
"IGP-M Inflation Index (MoM) (Nov)";"Brazil";"BRL";"2010-12-01T09:00:00";"GMT";"1.01%";"";"1.45%";"Low"
"IPC-Fipe Inflation Index (MoM) (Nov)";"Brazil";"BRL";"2010-12-01T09:00:00";"GMT";"1.04%";"";"0.72%";"Moderate"
"Industrial Production (MoM) (Nov)";"Brazil";"BRL";"2010-12-01T09:00:00";"GMT";"0.00%";"";"0.30%";"Low"
"Industrial Production (YoY) (Nov)";"Brazil";"BRL";"2010-12-01T09:00:00";"GMT";"1.99%";"";"5.33%";"Moderate"
"Mid-Month CPI (MoM) (Nov)";"Brazil";"BRL";"2010-12-01T09:00:00";"GMT";"0.62%";"";"0.86%";"Low"
"Mid-Month CPI (YoY) (Nov)";"Brazil";"BRL";"2010-12-01T09:00:00";"GMT";"5.03%";"";"5.47%";"Low"
"Retail Sales (MoM) (Nov)";"Brazil";"BRL";"2010-12-01T09:00:00";"GMT";"0.00%";"";"0.63%";"Moderate"
"Trade Balance (Nov)";"Brazil";"BRL";"2010-12-01T09:00:00";"GMT";"1.83B";"";"0.29B";"Low"
