{"events": {"event": {
    "eventDateTime": "2016-01-26T21:00:00",
    "eventActual": "100",
    "eventCountry": "South Korea",
    "eventExpectedVolatility": "Low",
    "eventName": "Consumer Confidence (Jan)",
    "eventTimeZone": "GMT",
    "eventPrevious": "103",
    "eventCurrency": "KRW",
    "eventForecast": ""
  }}}
