{"events": {"event": [
    {
      "eventDateTime": "2019-02-11T06:30:00",
      "eventActual": "54.5%",
      "eventCountry": "Euro Zone",
      "eventExpectedVolatility": "Moderate",
      "eventName": "Investing.com EUR/USD Index",
      "eventTimeZone": "GMT",
      "eventPrevious": "39.4%",
      "eventCurrency": "EUR",
      "eventForecast": ""
    },
    {
      "eventDateTime": "2019-02-11T08:00:00",
      "eventActual": "",
      "eventCountry": "Euro Zone",
      "eventExpectedVolatility": "Moderate",
      "eventName": "ECB's De Guindos Speaks",
      "eventTimeZone": "GMT",
      "eventPrevious": "",
      "eventCurrency": "EUR",
      "eventForecast": ""
    },
    {
      "eventDateTime": "2019-02-11T10:00:00",
      "eventActual": "",
      "eventCountry": "Euro Zone",
      "eventExpectedVolatility": "Moderate",
      "eventName": "Eurogroup Meetings",
      "eventTimeZone": "GMT",
      "eventPrevious": "",
      "eventCurrency": "EUR",
      "eventForecast": ""
    },
    {
      "eventDateTime": "2019-02-11T14:00:00",
      "eventActual": "-0.499%",
      "eventCountry": "France",
      "eventExpectedVolatility": "Low",
      "eventName": "French 12-Month BTF Auction",
      "eventTimeZone": "GMT",
      "eventPrevious": "-0.518%",
      "eventCurrency": "EUR",
      "eventForecast": ""
    },
    {
      "eventDateTime": "2019-02-11T14:00:00",
      "eventActual": "-0.503%",
      "eventCountry": "France",
      "eventExpectedVolatility": "Low",
      "eventName": "French 3-Month BTF Auction",
      "eventTimeZone": "GMT",
      "eventPrevious": "-0.525%",
      "eventCurrency": "EUR",
      "eventForecast": ""
    },
    {
      "eventDateTime": "2019-02-11T14:00:00",
      "eventActual": "-0.494%",
      "eventCountry": "France",
      "eventExpectedVolatility": "Low",
      "eventName": "French 6-Month BTF Auction",
      "eventTimeZone": "GMT",
      "eventPrevious": "-0.522%",
      "eventCurrency": "EUR",
      "eventForecast": ""
    }
  ]}}
