"CPI (MoM)";"Canada";"CAD";"2011-04-19T11:00:00";"GMT";"0.3%";"0.7%";"1.1%";"Moderate"
"Core CPI (MoM)";"Canada";"CAD";"2011-04-19T11:00:00";"GMT";"0.2%";"0.3%";"0.7%";"High"
"Leading Indicators (MoM)";"Canada";"CAD";"2011-04-19T12:30:00";"GMT";"1.1%";"0.5%";"0.8%";"Moderate"
"Wholesale Sales (MoM)";"Canada";"CAD";"2011-04-19T12:30:00";"GMT";"1.6%";"0.3%";"-0.6%";"Moderate"
