{"events": {"event": [
    {
      "eventDateTime": "2019-06-05T11:00:00",
      "eventActual": "4.23%",
      "eventCountry": "United States",
      "eventExpectedVolatility": "Low",
      "eventName": "MBA 30-Year Mortgage Rate",
      "eventTimeZone": "GMT",
      "eventPrevious": "4.33%",
      "eventCurrency": "USD",
      "eventForecast": ""
    },
    {
      "eventDateTime": "2019-06-05T11:00:00",
      "eventActual": "1.5%",
      "eventCountry": "United States",
      "eventExpectedVolatility": "Low",
      "eventName": "MBA Mortgage Applications (WoW)",
      "eventTimeZone": "GMT",
      "eventPrevious": "-3.3%",
      "eventCurrency": "USD",
      "eventForecast": ""
    },
    {
      "eventDateTime": "2019-06-05T11:00:00",
      "eventActual": "253.1",
      "eventCountry": "United States",
      "eventExpectedVolatility": "Low",
      "eventName": "MBA Purchase Index",
      "eventTimeZone": "GMT",
      "eventPrevious": "259.4",
      "eventCurrency": "USD",
      "eventForecast": ""
    },
    {
      "eventDateTime": "2019-06-05T11:00:00",
      "eventActual": "417.8",
      "eventCountry": "United States",
      "eventExpectedVolatility": "Low",
      "eventName": "Mortgage Market Index",
      "eventTimeZone": "GMT",
      "eventPrevious": "411.5",
      "eventCurrency": "USD",
      "eventForecast": ""
    },
    {
      "eventDateTime": "2019-06-05T11:00:00",
      "eventActual": "1,335.6",
      "eventCountry": "United States",
      "eventExpectedVolatility": "Low",
      "eventName": "Mortgage Refinance Index",
      "eventTimeZone": "GMT",
      "eventPrevious": "1,255.4",
      "eventCurrency": "USD",
      "eventForecast": ""
    },
    {
      "eventDateTime": "2019-06-05T12:15:00",
      "eventActual": "27K",
      "eventCountry": "United States",
      "eventExpectedVolatility": "High",
      "eventName": "ADP Nonfarm Employment Change (May)",
      "eventTimeZone": "GMT",
      "eventPrevious": "271K",
      "eventCurrency": "USD",
      "eventForecast": "180K"
    },
    {
      "eventDateTime": "2019-06-05T13:45:00",
      "eventActual": "",
      "eventCountry": "United States",
      "eventExpectedVolatility": "Moderate",
      "eventName": "FOMC Member Clarida Speaks",
      "eventTimeZone": "GMT",
      "eventPrevious": "",
      "eventCurrency": "USD",
      "eventForecast": ""
    },
    {
      "eventDateTime": "2019-06-05T13:45:00",
      "eventActual": "50.9",
      "eventCountry": "United States",
      "eventExpectedVolatility": "Moderate",
      "eventName": "Markit Composite PMI (May)",
      "eventTimeZone": "GMT",
      "eventPrevious": "50.9",
      "eventCurrency": "USD",
      "eventForecast": "50.9"
    },
    {
      "eventDateTime": "2019-06-05T13:45:00",
      "eventActual": "50.9",
      "eventCountry": "United States",
      "eventExpectedVolatility": "Moderate",
      "eventName": "Services PMI (May)",
      "eventTimeZone": "GMT",
      "eventPrevious": "50.9",
      "eventCurrency": "USD",
      "eventForecast": "50.9"
    },
    {
      "eventDateTime": "2019-06-05T14:00:00",
      "eventActual": "",
      "eventCountry": "United States",
      "eventExpectedVolatility": "Moderate",
      "eventName": "FOMC Member Bowman Speaks",
      "eventTimeZone": "GMT",
      "eventPrevious": "",
      "eventCurrency": "USD",
      "eventForecast": ""
    },
    {
      "eventDateTime": "2019-06-05T14:00:00",
      "eventActual": "61.2",
      "eventCountry": "United States",
      "eventExpectedVolatility": "Low",
      "eventName": "ISM Non-Manufacturing Business Activity (May)",
      "eventTimeZone": "GMT",
      "eventPrevious": "59.5",
      "eventCurrency": "USD",
      "eventForecast": "58.5"
    },
    {
      "eventDateTime": "2019-06-05T14:00:00",
      "eventActual": "58.1",
      "eventCountry": "United States",
      "eventExpectedVolatility": "Moderate",
      "eventName": "ISM Non-Manufacturing Employment (May)",
      "eventTimeZone": "GMT",
      "eventPrevious": "53.7",
      "eventCurrency": "USD",
      "eventForecast": ""
    },
    {
      "eventDateTime": "2019-06-05T14:00:00",
      "eventActual": "58.6",
      "eventCountry": "United States",
      "eventExpectedVolatility": "Low",
      "eventName": "ISM Non-Manufacturing New Orders (May)",
      "eventTimeZone": "GMT",
      "eventPrevious": "58.1",
      "eventCurrency": "USD",
      "eventForecast": ""
    },
    {
      "eventDateTime": "2019-06-05T14:00:00",
      "eventActual": "56.9",
      "eventCountry": "United States",
      "eventExpectedVolatility": "High",
      "eventName": "ISM Non-Manufacturing PMI (May)",
      "eventTimeZone": "GMT",
      "eventPrevious": "55.5",
      "eventCurrency": "USD",
      "eventForecast": "55.5"
    },
    {
      "eventDateTime": "2019-06-05T14:00:00",
      "eventActual": "55.4",
      "eventCountry": "United States",
      "eventExpectedVolatility": "Low",
      "eventName": "ISM Non-Manufacturing Prices (May)",
      "eventTimeZone": "GMT",
      "eventPrevious": "55.7",
      "eventCurrency": "USD",
      "eventForecast": ""
    },
    {
      "eventDateTime": "2019-06-05T14:30:00",
      "eventActual": "1.084M",
      "eventCountry": "United States",
      "eventExpectedVolatility": "Low",
      "eventName": "Crude Oil Imports",
      "eventTimeZone": "GMT",
      "eventPrevious": "-0.476M",
      "eventCurrency": "USD",
      "eventForecast": ""
    },
    {
      "eventDateTime": "2019-06-05T14:30:00",
      "eventActual": "6.771M",
      "eventCountry": "United States",
      "eventExpectedVolatility": "High",
      "eventName": "Crude Oil Inventories",
      "eventTimeZone": "GMT",
      "eventPrevious": "-0.282M",
      "eventCurrency": "USD",
      "eventForecast": "-0.849M"
    },
    {
      "eventDateTime": "2019-06-05T14:30:00",
      "eventActual": "1.791M",
      "eventCountry": "United States",
      "eventExpectedVolatility": "Moderate",
      "eventName": "Cushing Crude Oil Inventories",
      "eventTimeZone": "GMT",
      "eventPrevious": "-0.016M",
      "eventCurrency": "USD",
      "eventForecast": ""
    },
    {
      "eventDateTime": "2019-06-05T14:30:00",
      "eventActual": "0.222M",
      "eventCountry": "United States",
      "eventExpectedVolatility": "Low",
      "eventName": "Distillate Fuel Production",
      "eventTimeZone": "GMT",
      "eventPrevious": "-0.024M",
      "eventCurrency": "USD",
      "eventForecast": ""
    },
    {
      "eventDateTime": "2019-06-05T14:30:00",
      "eventActual": "4.572M",
      "eventCountry": "United States",
      "eventExpectedVolatility": "Low",
      "eventName": "EIA Weekly Distillates Stocks",
      "eventTimeZone": "GMT",
      "eventPrevious": "-1.615M",
      "eventCurrency": "USD",
      "eventForecast": "0.499M"
    },
    {
      "eventDateTime": "2019-06-05T14:30:00",
      "eventActual": "3.205M",
      "eventCountry": "United States",
      "eventExpectedVolatility": "Low",
      "eventName": "Gasoline Inventories",
      "eventTimeZone": "GMT",
      "eventPrevious": "2.204M",
      "eventCurrency": "USD",
      "eventForecast": "0.630M"
    },
    {
      "eventDateTime": "2019-06-05T14:30:00",
      "eventActual": "0.186M",
      "eventCountry": "United States",
      "eventExpectedVolatility": "Low",
      "eventName": "Gasoline Production",
      "eventTimeZone": "GMT",
      "eventPrevious": "-0.020M",
      "eventCurrency": "USD",
      "eventForecast": ""
    },
    {
      "eventDateTime": "2019-06-05T14:30:00",
      "eventActual": "0.077M",
      "eventCountry": "United States",
      "eventExpectedVolatility": "Low",
      "eventName": "Heating Oil Stockpiles",
      "eventTimeZone": "GMT",
      "eventPrevious": "-0.347M",
      "eventCurrency": "USD",
      "eventForecast": ""
    },
    {
      "eventDateTime": "2019-06-05T15:00:00",
      "eventActual": "",
      "eventCountry": "United States",
      "eventExpectedVolatility": "Moderate",
      "eventName": "FOMC Member Bostic Speaks",
      "eventTimeZone": "GMT",
      "eventPrevious": "",
      "eventCurrency": "USD",
      "eventForecast": ""
    },
    {
      "eventDateTime": "2019-06-05T18:00:00",
      "eventActual": "",
      "eventCountry": "United States",
      "eventExpectedVolatility": "Moderate",
      "eventName": "Beige Book",
      "eventTimeZone": "GMT",
      "eventPrevious": "",
      "eventCurrency": "USD",
      "eventForecast": ""
    }
  ]}}
