{"events": {"event": {
    "eventDateTime": "2020-01-29T09:00:00",
    "eventActual": "8.3",
    "eventCountry": "Switzerland",
    "eventExpectedVolatility": "Low",
    "eventName": "ZEW Expectations (Jan)",
    "eventTimeZone": "GMT",
    "eventPrevious": "12.5",
    "eventCurrency": "CHF",
    "eventForecast": ""
  }}}
