{"events": {"event": {
    "eventDateTime": "2008-06-30T13:45:00",
    "eventActual": "49.6",
    "eventCountry": "United States",
    "eventExpectedVolatility": "Moderate",
    "eventName": "Chicago PMI",
    "eventTimeZone": "GMT",
    "eventPrevious": "49.1",
    "eventCurrency": "USD",
    "eventForecast": "48.2"
  }}}
