{"events": {"event": [
    {
      "eventDateTime": "2018-11-27T06:30:00",
      "eventActual": "48.3%",
      "eventCountry": "United Kingdom",
      "eventExpectedVolatility": "Moderate",
      "eventName": "Investing.com GBP/USD Index",
      "eventTimeZone": "GMT",
      "eventPrevious": "49.6%",
      "eventCurrency": "GBP",
      "eventForecast": ""
    },
    {
      "eventDateTime": "2018-11-27T11:00:00",
      "eventActual": "19",
      "eventCountry": "United Kingdom",
      "eventExpectedVolatility": "Low",
      "eventName": "CBI Distributive Trades Survey (Nov)",
      "eventTimeZone": "GMT",
      "eventPrevious": "5",
      "eventCurrency": "GBP",
      "eventForecast": "10"
    }
  ]}}
