"CPI (MoM) (Jul)";"China";"CNY";"2017-08-09T01:30:00";"GMT";"-0.2%";"0.2%";"0.1%";"Moderate"
"CPI (YoY) (Jul)";"China";"CNY";"2017-08-09T01:30:00";"GMT";"1.5%";"1.5%";"1.4%";"Moderate"
"PPI (YoY) (Jul)";"China";"CNY";"2017-08-09T01:30:00";"GMT";"5.5%";"5.5%";"5.5%";"Moderate"
