"Continuing Jobless Claims";"United States";"USD";"2012-09-27T12:30:00";"GMT";"3,275K";"3,285K";"3,271K";"Low"
"Core Durable Goods Orders (MoM)";"United States";"USD";"2012-09-27T12:30:00";"GMT";"-1.3%";"0.3%";"-1.6%";"High"
"Durable Goods Orders (MoM)";"United States";"USD";"2012-09-27T12:30:00";"GMT";"3.3%";"-5.0%";"-13.2%";"Moderate"
"GDP (QoQ)";"United States";"USD";"2012-09-27T12:30:00";"GMT";"1.7%";"1.7%";"1.3%";"High"
"GDP Price Index (QoQ)";"United States";"USD";"2012-09-27T12:30:00";"GMT";"1.6%";"1.6%";"1.6%";"Moderate"
"Initial Jobless Claims";"United States";"USD";"2012-09-27T12:30:00";"GMT";"385K";"378K";"359K";"Moderate"
"Bloomberg Consumer Confidence";"United States";"USD";"2012-09-27T13:50:00";"GMT";"29.6";"";"30.2";"Low"
"Pending Home Sales (MoM)";"United States";"USD";"2012-09-27T14:00:00";"GMT";"2.6%";"-0.7%";"-2.6%";"High"
"Natural Gas Storage";"United States";"USD";"2012-09-27T14:30:00";"GMT";"67B";"76B";"80B";"Low"
"KC Fed Composite Index";"United States";"USD";"2012-09-27T15:00:00";"GMT";"8.00";"5.00";"2.00";"Low"
"7-Year Note Auction";"United States";"USD";"2012-09-27T17:00:00";"GMT";"1.081%";"";"1.055%";"Low"
