{"events": {"event": [
    {
      "eventDateTime": "2013-03-22T07:45:00",
      "eventActual": "90",
      "eventCountry": "France",
      "eventExpectedVolatility": "Low",
      "eventName": "French Business Survey",
      "eventTimeZone": "GMT",
      "eventPrevious": "90",
      "eventCurrency": "EUR",
      "eventForecast": "91"
    },
    {
      "eventDateTime": "2013-03-22T09:00:00",
      "eventActual": "103.6",
      "eventCountry": "Germany",
      "eventExpectedVolatility": "Moderate",
      "eventName": "German Business Expectations",
      "eventTimeZone": "GMT",
      "eventPrevious": "104.6",
      "eventCurrency": "EUR",
      "eventForecast": "104.9"
    },
    {
      "eventDateTime": "2013-03-22T09:00:00",
      "eventActual": "109.9",
      "eventCountry": "Germany",
      "eventExpectedVolatility": "Moderate",
      "eventName": "German Current Assessment",
      "eventTimeZone": "GMT",
      "eventPrevious": "110.2",
      "eventCurrency": "EUR",
      "eventForecast": "110.4"
    },
    {
      "eventDateTime": "2013-03-22T09:00:00",
      "eventActual": "97.8",
      "eventCountry": "Germany",
      "eventExpectedVolatility": "High",
      "eventName": "German Ifo Business Climate Index",
      "eventTimeZone": "GMT",
      "eventPrevious": "97.6",
      "eventCurrency": "EUR",
      "eventForecast": ""
    },
    {
      "eventDateTime": "2013-03-22T09:00:00",
      "eventActual": "0.4%",
      "eventCountry": "Spain",
      "eventExpectedVolatility": "Low",
      "eventName": "Spanish industrial New Orders (YoY)",
      "eventTimeZone": "GMT",
      "eventPrevious": "0.4%",
      "eventCurrency": "EUR",
      "eventForecast": "-0.5%"
    },
    {
      "eventDateTime": "2013-03-22T19:30:00",
      "eventActual": "-44.9K",
      "eventCountry": "Euro Zone",
      "eventExpectedVolatility": "Moderate",
      "eventName": "CFTC EUR speculative net positions",
      "eventTimeZone": "GMT",
      "eventPrevious": "-24.8K",
      "eventCurrency": "EUR",
      "eventForecast": ""
    }
  ]}}
