{"events": {"event": [
    {
      "eventDateTime": "2012-11-02T11:30:00",
      "eventActual": "16.00%",
      "eventCountry": "India",
      "eventExpectedVolatility": "Low",
      "eventName": "Bank Loan Growth",
      "eventTimeZone": "GMT",
      "eventPrevious": "15.90%",
      "eventCurrency": "INR",
      "eventForecast": ""
    },
    {
      "eventDateTime": "2012-11-02T11:30:00",
      "eventActual": "295.29B",
      "eventCountry": "India",
      "eventExpectedVolatility": "Low",
      "eventName": "FX Reserves, USD",
      "eventTimeZone": "GMT",
      "eventPrevious": "295.24B",
      "eventCurrency": "INR",
      "eventForecast": ""
    }
  ]}}
