{"events": {"event": {
    "eventDateTime": "2015-09-21T05:30:00",
    "eventActual": "46.3%",
    "eventCountry": "Switzerland",
    "eventExpectedVolatility": "Moderate",
    "eventName": "Investing.com USD/CHF Index",
    "eventTimeZone": "GMT",
    "eventPrevious": "49.0%",
    "eventCurrency": "CHF",
    "eventForecast": ""
  }}}
