{"events": {"event": [
    {
      "eventDateTime": "2016-10-17T21:45:00",
      "eventActual": "0.2%",
      "eventCountry": "New Zealand",
      "eventExpectedVolatility": "High",
      "eventName": "CPI (QoQ) (Q3)",
      "eventTimeZone": "GMT",
      "eventPrevious": "0.4%",
      "eventCurrency": "NZD",
      "eventForecast": "0.0%"
    },
    {
      "eventDateTime": "2016-10-17T21:45:00",
      "eventActual": "0.2%",
      "eventCountry": "New Zealand",
      "eventExpectedVolatility": "Moderate",
      "eventName": "CPI (YoY) (Q3)",
      "eventTimeZone": "GMT",
      "eventPrevious": "0.4%",
      "eventCurrency": "NZD",
      "eventForecast": "0.1%"
    }
  ]}}
