{"events": {"event": [
    {
      "eventDateTime": "2014-06-19T12:30:00",
      "eventActual": "2,561K",
      "eventCountry": "United States",
      "eventExpectedVolatility": "Low",
      "eventName": "Continuing Jobless Claims",
      "eventTimeZone": "GMT",
      "eventPrevious": "2,615K",
      "eventCurrency": "USD",
      "eventForecast": "2,600K"
    },
    {
      "eventDateTime": "2014-06-19T12:30:00",
      "eventActual": "312K",
      "eventCountry": "United States",
      "eventExpectedVolatility": "Moderate",
      "eventName": "Initial Jobless Claims",
      "eventTimeZone": "GMT",
      "eventPrevious": "318K",
      "eventCurrency": "USD",
      "eventForecast": "314K"
    },
    {
      "eventDateTime": "2014-06-19T12:30:00",
      "eventActual": "311.75K",
      "eventCountry": "United States",
      "eventExpectedVolatility": "Low",
      "eventName": "Jobless Claims 4-Week Avg.",
      "eventTimeZone": "GMT",
      "eventPrevious": "315.50K",
      "eventCurrency": "USD",
      "eventForecast": ""
    },
    {
      "eventDateTime": "2014-06-19T14:00:00",
      "eventActual": "17.8",
      "eventCountry": "United States",
      "eventExpectedVolatility": "High",
      "eventName": "Philadelphia Fed Manufacturing Index",
      "eventTimeZone": "GMT",
      "eventPrevious": "15.4",
      "eventCurrency": "USD",
      "eventForecast": "14.0"
    },
    {
      "eventDateTime": "2014-06-19T14:00:00",
      "eventActual": "52.0",
      "eventCountry": "United States",
      "eventExpectedVolatility": "Low",
      "eventName": "Philly Fed Business Conditions",
      "eventTimeZone": "GMT",
      "eventPrevious": "37.4",
      "eventCurrency": "USD",
      "eventForecast": ""
    },
    {
      "eventDateTime": "2014-06-19T14:00:00",
      "eventActual": "11.9",
      "eventCountry": "United States",
      "eventExpectedVolatility": "Moderate",
      "eventName": "Philly Fed Employment",
      "eventTimeZone": "GMT",
      "eventPrevious": "7.8",
      "eventCurrency": "USD",
      "eventForecast": ""
    },
    {
      "eventDateTime": "2014-06-19T14:30:00",
      "eventActual": "113B",
      "eventCountry": "United States",
      "eventExpectedVolatility": "Low",
      "eventName": "Natural Gas Storage",
      "eventTimeZone": "GMT",
      "eventPrevious": "107B",
      "eventCurrency": "USD",
      "eventForecast": "110B"
    }
  ]}}
