{"events": {"event": {
    "eventDateTime": "2013-02-27T07:00:00",
    "eventActual": "1.18",
    "eventCountry": "Switzerland",
    "eventExpectedVolatility": "Low",
    "eventName": "Consumption Indicator",
    "eventTimeZone": "GMT",
    "eventPrevious": "1.32",
    "eventCurrency": "CHF",
    "eventForecast": ""
  }}}
