{"events": {"event": [
    {
      "eventDateTime": "2011-07-21T05:00:00",
      "eventActual": "-3.40B",
      "eventCountry": "Spain",
      "eventExpectedVolatility": "Low",
      "eventName": "Spanish Trade Balance",
      "eventTimeZone": "GMT",
      "eventPrevious": "-4.00B",
      "eventCurrency": "EUR",
      "eventForecast": "-3.80B"
    },
    {
      "eventDateTime": "2011-07-21T07:00:00",
      "eventActual": "50.1",
      "eventCountry": "France",
      "eventExpectedVolatility": "Moderate",
      "eventName": "French Manufacturing PMI",
      "eventTimeZone": "GMT",
      "eventPrevious": "52.5",
      "eventCurrency": "EUR",
      "eventForecast": "52.0"
    },
    {
      "eventDateTime": "2011-07-21T07:00:00",
      "eventActual": "54.2",
      "eventCountry": "France",
      "eventExpectedVolatility": "Moderate",
      "eventName": "French Services PMI",
      "eventTimeZone": "GMT",
      "eventPrevious": "56.1",
      "eventCurrency": "EUR",
      "eventForecast": "55.5"
    },
    {
      "eventDateTime": "2011-07-21T07:30:00",
      "eventActual": "52.1",
      "eventCountry": "Germany",
      "eventExpectedVolatility": "High",
      "eventName": "German Manufacturing PMI",
      "eventTimeZone": "GMT",
      "eventPrevious": "54.7",
      "eventCurrency": "EUR",
      "eventForecast": "54.1"
    },
    {
      "eventDateTime": "2011-07-21T07:30:00",
      "eventActual": "52.9",
      "eventCountry": "Germany",
      "eventExpectedVolatility": "Moderate",
      "eventName": "German Services PMI",
      "eventTimeZone": "GMT",
      "eventPrevious": "56.7",
      "eventCurrency": "EUR",
      "eventForecast": "56.1"
    },
    {
      "eventDateTime": "2011-07-21T08:00:00",
      "eventActual": "-5.2B",
      "eventCountry": "Euro Zone",
      "eventExpectedVolatility": "Low",
      "eventName": "Current Account",
      "eventTimeZone": "GMT",
      "eventPrevious": "-5.4B",
      "eventCurrency": "EUR",
      "eventForecast": "-4.7B"
    },
    {
      "eventDateTime": "2011-07-21T08:00:00",
      "eventActual": "50.4",
      "eventCountry": "Euro Zone",
      "eventExpectedVolatility": "Moderate",
      "eventName": "Manufacturing PMI",
      "eventTimeZone": "GMT",
      "eventPrevious": "52.0",
      "eventCurrency": "EUR",
      "eventForecast": "51.5"
    },
    {
      "eventDateTime": "2011-07-21T08:00:00",
      "eventActual": "51.4",
      "eventCountry": "Euro Zone",
      "eventExpectedVolatility": "Moderate",
      "eventName": "Services PMI",
      "eventTimeZone": "GMT",
      "eventPrevious": "53.7",
      "eventCurrency": "EUR",
      "eventForecast": "53.2"
    }
  ]}}
