{"events": {"event": {
    "eventDateTime": "2009-01-16T20:30:00",
    "eventActual": "-12.2K",
    "eventCountry": "Canada",
    "eventExpectedVolatility": "Low",
    "eventName": "CFTC CAD speculative net positions",
    "eventTimeZone": "GMT",
    "eventPrevious": "-13.9K",
    "eventCurrency": "CAD",
    "eventForecast": ""
  }}}
