{"events": {"event": {
    "eventDateTime": "2015-08-25T21:00:00",
    "eventActual": "102",
    "eventCountry": "South Korea",
    "eventExpectedVolatility": "Low",
    "eventName": "Consumer Confidence (Aug)",
    "eventTimeZone": "GMT",
    "eventPrevious": "100",
    "eventCurrency": "KRW",
    "eventForecast": "99"
  }}}
