{"events": {"event": [
    {
      "eventDateTime": "2015-06-21T22:00:00",
      "eventActual": "113.0",
      "eventCountry": "New Zealand",
      "eventExpectedVolatility": "Moderate",
      "eventName": "Westpac Consumer Sentiment (Q2)",
      "eventTimeZone": "GMT",
      "eventPrevious": "117.4",
      "eventCurrency": "NZD",
      "eventForecast": ""
    },
    {
      "eventDateTime": "2015-06-21T22:45:00",
      "eventActual": "9.50%",
      "eventCountry": "New Zealand",
      "eventExpectedVolatility": "Low",
      "eventName": "External Migration andamp: Visitors (May)",
      "eventTimeZone": "GMT",
      "eventPrevious": "6.10%",
      "eventCurrency": "NZD",
      "eventForecast": ""
    },
    {
      "eventDateTime": "2015-06-21T22:45:00",
      "eventActual": "5,140",
      "eventCountry": "New Zealand",
      "eventExpectedVolatility": "Low",
      "eventName": "Permanent/Long-Term Migration (May)",
      "eventTimeZone": "GMT",
      "eventPrevious": "4,740",
      "eventCurrency": "NZD",
      "eventForecast": ""
    },
    {
      "eventDateTime": "2015-06-21T22:45:00",
      "eventActual": "0.1%",
      "eventCountry": "New Zealand",
      "eventExpectedVolatility": "Low",
      "eventName": "Visitor Arrivals (MoM)",
      "eventTimeZone": "GMT",
      "eventPrevious": "1.5%",
      "eventCurrency": "NZD",
      "eventForecast": ""
    }
  ]}}
