{"events": {"event": [
    {
      "eventDateTime": "2003-05-23T17:00:00",
      "eventActual": "164",
      "eventCountry": "United States",
      "eventExpectedVolatility": "Moderate",
      "eventName": "U.S. Baker Hughes Oil Rig Count",
      "eventTimeZone": "GMT",
      "eventPrevious": "168",
      "eventCurrency": "USD",
      "eventForecast": ""
    },
    {
      "eventDateTime": "2003-05-23T20:30:00",
      "eventActual": "-18.3k",
      "eventCountry": "United States",
      "eventExpectedVolatility": "Moderate",
      "eventName": "CFTC Crude Oil speculative net positions",
      "eventTimeZone": "GMT",
      "eventPrevious": "-25.4k",
      "eventCurrency": "USD",
      "eventForecast": ""
    }
  ]}}
