{"events": {"event": [
    {
      "eventDateTime": "2011-03-01T00:30:00",
      "eventActual": "-7.3B",
      "eventCountry": "Australia",
      "eventExpectedVolatility": "Moderate",
      "eventName": "Current Account",
      "eventTimeZone": "GMT",
      "eventPrevious": "-6.5B",
      "eventCurrency": "AUD",
      "eventForecast": "-6.9B"
    },
    {
      "eventDateTime": "2011-03-01T00:30:00",
      "eventActual": "0.4%",
      "eventCountry": "Australia",
      "eventExpectedVolatility": "High",
      "eventName": "Retail Sales (MoM)",
      "eventTimeZone": "GMT",
      "eventPrevious": "0.2%",
      "eventCurrency": "AUD",
      "eventForecast": "0.3%"
    },
    {
      "eventDateTime": "2011-03-01T03:30:00",
      "eventActual": "4.75%",
      "eventCountry": "Australia",
      "eventExpectedVolatility": "High",
      "eventName": "RBA Interest Rate Decision",
      "eventTimeZone": "GMT",
      "eventPrevious": "4.75%",
      "eventCurrency": "AUD",
      "eventForecast": "4.75%"
    },
    {
      "eventDateTime": "2011-03-01T03:30:00",
      "eventActual": "",
      "eventCountry": "Australia",
      "eventExpectedVolatility": "High",
      "eventName": "RBA Rate Statement",
      "eventTimeZone": "GMT",
      "eventPrevious": "",
      "eventCurrency": "AUD",
      "eventForecast": ""
    },
    {
      "eventDateTime": "2011-03-01T05:30:00",
      "eventActual": "47.8%",
      "eventCountry": "Australia",
      "eventExpectedVolatility": "Low",
      "eventName": "Commodity Prices (YoY)",
      "eventTimeZone": "GMT",
      "eventPrevious": "48.7%",
      "eventCurrency": "AUD",
      "eventForecast": ""
    },
    {
      "eventDateTime": "2011-03-01T09:00:00",
      "eventActual": "-4.80%",
      "eventCountry": "Australia",
      "eventExpectedVolatility": "Low",
      "eventName": "ANZ Internet Job Ads (MoM) (Feb)",
      "eventTimeZone": "GMT",
      "eventPrevious": "-0.50%",
      "eventCurrency": "AUD",
      "eventForecast": ""
    },
    {
      "eventDateTime": "2011-03-01T09:00:00",
      "eventActual": "4.00%",
      "eventCountry": "Australia",
      "eventExpectedVolatility": "Low",
      "eventName": "ANZ Newspaper Job Ads (MoM) (Feb)",
      "eventTimeZone": "GMT",
      "eventPrevious": "1.10%",
      "eventCurrency": "AUD",
      "eventForecast": ""
    },
    {
      "eventDateTime": "2011-03-01T09:00:00",
      "eventActual": "-1.60%",
      "eventCountry": "Australia",
      "eventExpectedVolatility": "Low",
      "eventName": "Exports (MoM) (Feb)",
      "eventTimeZone": "GMT",
      "eventPrevious": "-2.30%",
      "eventCurrency": "AUD",
      "eventForecast": ""
    },
    {
      "eventDateTime": "2011-03-01T09:00:00",
      "eventActual": "49.00K",
      "eventCountry": "Australia",
      "eventExpectedVolatility": "Moderate",
      "eventName": "Full Employment Change (Feb)",
      "eventTimeZone": "GMT",
      "eventPrevious": "-10.90K",
      "eventCurrency": "AUD",
      "eventForecast": ""
    },
    {
      "eventDateTime": "2011-03-01T09:00:00",
      "eventActual": "0.50%",
      "eventCountry": "Australia",
      "eventExpectedVolatility": "Low",
      "eventName": "Housing Credit (Feb)",
      "eventTimeZone": "GMT",
      "eventPrevious": "0.50%",
      "eventCurrency": "AUD",
      "eventForecast": ""
    },
    {
      "eventDateTime": "2011-03-01T09:00:00",
      "eventActual": "4.60%",
      "eventCountry": "Australia",
      "eventExpectedVolatility": "Low",
      "eventName": "Imports (MoM) (Feb)",
      "eventTimeZone": "GMT",
      "eventPrevious": "-1.70%",
      "eventCurrency": "AUD",
      "eventForecast": ""
    },
    {
      "eventDateTime": "2011-03-01T09:00:00",
      "eventActual": "-1.70%",
      "eventCountry": "Australia",
      "eventExpectedVolatility": "Low",
      "eventName": "Invest Housing Finance (MoM) (Feb)",
      "eventTimeZone": "GMT",
      "eventPrevious": "-5.60%",
      "eventCurrency": "AUD",
      "eventForecast": ""
    },
    {
      "eventDateTime": "2011-03-01T09:00:00",
      "eventActual": "-1.00",
      "eventCountry": "Australia",
      "eventExpectedVolatility": "Low",
      "eventName": "NAB Business Survey (Feb)",
      "eventTimeZone": "GMT",
      "eventPrevious": "-2.50",
      "eventCurrency": "AUD",
      "eventForecast": ""
    },
    {
      "eventDateTime": "2011-03-01T09:00:00",
      "eventActual": "65.50%",
      "eventCountry": "Australia",
      "eventExpectedVolatility": "Low",
      "eventName": "Participation Rate (Feb)",
      "eventTimeZone": "GMT",
      "eventPrevious": "65.70%",
      "eventCurrency": "AUD",
      "eventForecast": ""
    },
    {
      "eventDateTime": "2011-03-01T09:00:00",
      "eventActual": "-0.40%",
      "eventCountry": "Australia",
      "eventExpectedVolatility": "Low",
      "eventName": "Private House Approvals (Feb)",
      "eventTimeZone": "GMT",
      "eventPrevious": "-2.10%",
      "eventCurrency": "AUD",
      "eventForecast": ""
    }
  ]}}
