{"events": {"event": {
    "eventDateTime": "2018-11-25T10:00:00",
    "eventActual": "",
    "eventCountry": "Euro Zone",
    "eventExpectedVolatility": "High",
    "eventName": "EU Leaders Summit",
    "eventTimeZone": "GMT",
    "eventPrevious": "",
    "eventCurrency": "EUR",
    "eventForecast": ""
  }}}
