{"events": {"event": [
    {
      "eventDateTime": "2006-06-01T09:00:00",
      "eventActual": "-0.10%",
      "eventCountry": "China",
      "eventExpectedVolatility": "Moderate",
      "eventName": "CPI (MoM) (May)",
      "eventTimeZone": "GMT",
      "eventPrevious": "0.20%",
      "eventCurrency": "CNY",
      "eventForecast": ""
    },
    {
      "eventDateTime": "2006-06-01T09:00:00",
      "eventActual": "1.40%",
      "eventCountry": "China",
      "eventExpectedVolatility": "Moderate",
      "eventName": "CPI (YoY) (May)",
      "eventTimeZone": "GMT",
      "eventPrevious": "1.20%",
      "eventCurrency": "CNY",
      "eventForecast": ""
    },
    {
      "eventDateTime": "2006-06-01T09:00:00",
      "eventActual": "25.10%",
      "eventCountry": "China",
      "eventExpectedVolatility": "Moderate",
      "eventName": "Exports (YoY) (May)",
      "eventTimeZone": "GMT",
      "eventPrevious": "23.70%",
      "eventCurrency": "CNY",
      "eventForecast": ""
    },
    {
      "eventDateTime": "2006-06-01T09:00:00",
      "eventActual": "2.78%",
      "eventCountry": "China",
      "eventExpectedVolatility": "Low",
      "eventName": "FDI (May)",
      "eventTimeZone": "GMT",
      "eventPrevious": "5.76%",
      "eventCurrency": "CNY",
      "eventForecast": ""
    },
    {
      "eventDateTime": "2006-06-01T09:00:00",
      "eventActual": "30.30%",
      "eventCountry": "China",
      "eventExpectedVolatility": "Moderate",
      "eventName": "Fixed Asset Investment (YoY) (May)",
      "eventTimeZone": "GMT",
      "eventPrevious": "29.60%",
      "eventCurrency": "CNY",
      "eventForecast": ""
    },
    {
      "eventDateTime": "2006-06-01T09:00:00",
      "eventActual": "21.70%",
      "eventCountry": "China",
      "eventExpectedVolatility": "Moderate",
      "eventName": "Imports (YoY) (May)",
      "eventTimeZone": "GMT",
      "eventPrevious": "15.30%",
      "eventCurrency": "CNY",
      "eventForecast": ""
    },
    {
      "eventDateTime": "2006-06-01T09:00:00",
      "eventActual": "17.90%",
      "eventCountry": "China",
      "eventExpectedVolatility": "High",
      "eventName": "Industrial Production (YoY) (May)",
      "eventTimeZone": "GMT",
      "eventPrevious": "16.60%",
      "eventCurrency": "CNY",
      "eventForecast": ""
    },
    {
      "eventDateTime": "2006-06-01T09:00:00",
      "eventActual": "19.00%",
      "eventCountry": "China",
      "eventExpectedVolatility": "Low",
      "eventName": "M2 Money Stock (YoY) (May)",
      "eventTimeZone": "GMT",
      "eventPrevious": "18.90%",
      "eventCurrency": "CNY",
      "eventForecast": ""
    },
    {
      "eventDateTime": "2006-06-01T09:00:00",
      "eventActual": "54.80",
      "eventCountry": "China",
      "eventExpectedVolatility": "High",
      "eventName": "Manufacturing PMI (May)",
      "eventTimeZone": "GMT",
      "eventPrevious": "58.10",
      "eventCurrency": "CNY",
      "eventForecast": ""
    },
    {
      "eventDateTime": "2006-06-01T09:00:00",
      "eventActual": "209.40B",
      "eventCountry": "China",
      "eventExpectedVolatility": "Moderate",
      "eventName": "New Loans (May)",
      "eventTimeZone": "GMT",
      "eventPrevious": "317.20B",
      "eventCurrency": "CNY",
      "eventForecast": ""
    },
    {
      "eventDateTime": "2006-06-01T09:00:00",
      "eventActual": "16.00%",
      "eventCountry": "China",
      "eventExpectedVolatility": "Low",
      "eventName": "Outstanding Loan Growth (YoY) (May)",
      "eventTimeZone": "GMT",
      "eventPrevious": "15.50%",
      "eventCurrency": "CNY",
      "eventForecast": ""
    },
    {
      "eventDateTime": "2006-06-01T09:00:00",
      "eventActual": "2.25%",
      "eventCountry": "China",
      "eventExpectedVolatility": "Moderate",
      "eventName": "PBoC Deposit Rate (May)",
      "eventTimeZone": "GMT",
      "eventPrevious": "2.25%",
      "eventCurrency": "CNY",
      "eventForecast": ""
    },
    {
      "eventDateTime": "2006-06-01T09:00:00",
      "eventActual": "5.85%",
      "eventCountry": "China",
      "eventExpectedVolatility": "High",
      "eventName": "PBoC Interest Rate (May)",
      "eventTimeZone": "GMT",
      "eventPrevious": "5.59%",
      "eventCurrency": "CNY",
      "eventForecast": ""
    },
    {
      "eventDateTime": "2006-06-01T09:00:00",
      "eventActual": "7.50%",
      "eventCountry": "China",
      "eventExpectedVolatility": "Moderate",
      "eventName": "PBoC Reserve Requirement Ratio (May)",
      "eventTimeZone": "GMT",
      "eventPrevious": "7.50%",
      "eventCurrency": "CNY",
      "eventForecast": ""
    },
    {
      "eventDateTime": "2006-06-01T09:00:00",
      "eventActual": "2.40%",
      "eventCountry": "China",
      "eventExpectedVolatility": "Moderate",
      "eventName": "PPI (YoY) (May)",
      "eventTimeZone": "GMT",
      "eventPrevious": "1.90%",
      "eventCurrency": "CNY",
      "eventForecast": ""
    },
    {
      "eventDateTime": "2006-06-01T09:00:00",
      "eventActual": "14.20%",
      "eventCountry": "China",
      "eventExpectedVolatility": "Low",
      "eventName": "Retail Sales (YoY) (May)",
      "eventTimeZone": "GMT",
      "eventPrevious": "13.60%",
      "eventCurrency": "CNY",
      "eventForecast": ""
    },
    {
      "eventDateTime": "2006-06-01T09:00:00",
      "eventActual": "12.95B",
      "eventCountry": "China",
      "eventExpectedVolatility": "Moderate",
      "eventName": "Trade Balance (USD) (May)",
      "eventTimeZone": "GMT",
      "eventPrevious": "10.38B",
      "eventCurrency": "CNY",
      "eventForecast": ""
    }
  ]}}
