{"events": {"event": [
    {
      "eventDateTime": "2019-04-26T15:00:00",
      "eventActual": "4.31B",
      "eventCountry": "Canada",
      "eventExpectedVolatility": "Low",
      "eventName": "Budget Balance (Feb)",
      "eventTimeZone": "GMT",
      "eventPrevious": "-1.54B",
      "eventCurrency": "CAD",
      "eventForecast": ""
    },
    {
      "eventDateTime": "2019-04-26T15:00:00",
      "eventActual": "3.09B",
      "eventCountry": "Canada",
      "eventExpectedVolatility": "Low",
      "eventName": "Budget Balance (YoY) (Feb)",
      "eventTimeZone": "GMT",
      "eventPrevious": "-1.21B",
      "eventCurrency": "CAD",
      "eventForecast": ""
    },
    {
      "eventDateTime": "2019-04-26T19:30:00",
      "eventActual": "-47.5K",
      "eventCountry": "Canada",
      "eventExpectedVolatility": "Low",
      "eventName": "CFTC CAD speculative net positions",
      "eventTimeZone": "GMT",
      "eventPrevious": "-49.2K",
      "eventCurrency": "CAD",
      "eventForecast": ""
    }
  ]}}
