{"events": {"event": [
    {
      "eventDateTime": "2007-05-01T09:00:00",
      "eventActual": "-19.40%",
      "eventCountry": "New Zealand",
      "eventExpectedVolatility": "Moderate",
      "eventName": "ANZ Business Confidence (Apr)",
      "eventTimeZone": "GMT",
      "eventPrevious": "-12.50%",
      "eventCurrency": "NZD",
      "eventForecast": ""
    },
    {
      "eventDateTime": "2007-05-01T09:00:00",
      "eventActual": "-3.10%",
      "eventCountry": "New Zealand",
      "eventExpectedVolatility": "Moderate",
      "eventName": "Building Consents (MoM) (Apr)",
      "eventTimeZone": "GMT",
      "eventPrevious": "2.60%",
      "eventCurrency": "NZD",
      "eventForecast": ""
    },
    {
      "eventDateTime": "2007-05-01T09:00:00",
      "eventActual": "0.80%",
      "eventCountry": "New Zealand",
      "eventExpectedVolatility": "Moderate",
      "eventName": "Electronic Card Retail Sales (MoM) (Apr)",
      "eventTimeZone": "GMT",
      "eventPrevious": "0.40%",
      "eventCurrency": "NZD",
      "eventForecast": ""
    },
    {
      "eventDateTime": "2007-05-01T09:00:00",
      "eventActual": "7.40%",
      "eventCountry": "New Zealand",
      "eventExpectedVolatility": "Low",
      "eventName": "Electronic Card Retail Sales (YoY) (Apr)",
      "eventTimeZone": "GMT",
      "eventPrevious": "9.70%",
      "eventCurrency": "NZD",
      "eventForecast": ""
    },
    {
      "eventDateTime": "2007-05-01T09:00:00",
      "eventActual": "3.17B",
      "eventCountry": "New Zealand",
      "eventExpectedVolatility": "Low",
      "eventName": "Exports (Apr)",
      "eventTimeZone": "GMT",
      "eventPrevious": "3.31B",
      "eventCurrency": "NZD",
      "eventForecast": ""
    },
    {
      "eventDateTime": "2007-05-01T09:00:00",
      "eventActual": "0.82%",
      "eventCountry": "New Zealand",
      "eventExpectedVolatility": "Low",
      "eventName": "External Migration andamp; Visitors (Apr)",
      "eventTimeZone": "GMT",
      "eventPrevious": "5.39%",
      "eventCurrency": "NZD",
      "eventForecast": ""
    },
    {
      "eventDateTime": "2007-05-01T09:00:00",
      "eventActual": "0.20%",
      "eventCountry": "New Zealand",
      "eventExpectedVolatility": "Low",
      "eventName": "FPI (MoM) (Apr)",
      "eventTimeZone": "GMT",
      "eventPrevious": "0.00%",
      "eventCurrency": "NZD",
      "eventForecast": ""
    },
    {
      "eventDateTime": "2007-05-01T09:00:00",
      "eventActual": "3.20%",
      "eventCountry": "New Zealand",
      "eventExpectedVolatility": "Low",
      "eventName": "Government Monthly Debt (Apr)",
      "eventTimeZone": "GMT",
      "eventPrevious": "2.80%",
      "eventCurrency": "NZD",
      "eventForecast": ""
    },
    {
      "eventDateTime": "2007-05-01T09:00:00",
      "eventActual": "3.39B",
      "eventCountry": "New Zealand",
      "eventExpectedVolatility": "Low",
      "eventName": "Imports (Apr)",
      "eventTimeZone": "GMT",
      "eventPrevious": "3.26B",
      "eventCurrency": "NZD",
      "eventForecast": ""
    },
    {
      "eventDateTime": "2007-05-01T09:00:00",
      "eventActual": "22.50%",
      "eventCountry": "New Zealand",
      "eventExpectedVolatility": "Low",
      "eventName": "NBNZ Own Activity (Apr)",
      "eventTimeZone": "GMT",
      "eventPrevious": "24.10%",
      "eventCurrency": "NZD",
      "eventForecast": ""
    },
    {
      "eventDateTime": "2007-05-01T09:00:00",
      "eventActual": "240.00",
      "eventCountry": "New Zealand",
      "eventExpectedVolatility": "Low",
      "eventName": "Permanent/Long-Term Migration (Apr)",
      "eventTimeZone": "GMT",
      "eventPrevious": "460.00",
      "eventCurrency": "NZD",
      "eventForecast": ""
    },
    {
      "eventDateTime": "2007-05-01T09:00:00",
      "eventActual": "7.54%",
      "eventCountry": "New Zealand",
      "eventExpectedVolatility": "High",
      "eventName": "RBNZ Interest Rate Decision (Apr)",
      "eventTimeZone": "GMT",
      "eventPrevious": "7.44%",
      "eventCurrency": "NZD",
      "eventForecast": ""
    },
    {
      "eventDateTime": "2007-05-01T09:00:00",
      "eventActual": "60.80%",
      "eventCountry": "New Zealand",
      "eventExpectedVolatility": "Low",
      "eventName": "RBNZ Offshore Holdings (Apr)",
      "eventTimeZone": "GMT",
      "eventPrevious": "63.10%",
      "eventCurrency": "NZD",
      "eventForecast": ""
    },
    {
      "eventDateTime": "2007-05-01T09:00:00",
      "eventActual": "1.20%",
      "eventCountry": "New Zealand",
      "eventExpectedVolatility": "Low",
      "eventName": "REINZ House Price Index (MoM) (Apr)",
      "eventTimeZone": "GMT",
      "eventPrevious": "2.70%",
      "eventCurrency": "NZD",
      "eventForecast": ""
    },
    {
      "eventDateTime": "2007-05-01T09:00:00",
      "eventActual": "14.40%",
      "eventCountry": "New Zealand",
      "eventExpectedVolatility": "Low",
      "eventName": "REINZ House Price Index (YoY) (Apr)",
      "eventTimeZone": "GMT",
      "eventPrevious": "14.20%",
      "eventCurrency": "NZD",
      "eventForecast": ""
    },
    {
      "eventDateTime": "2007-05-01T09:00:00",
      "eventActual": "-216.20M",
      "eventCountry": "New Zealand",
      "eventExpectedVolatility": "Moderate",
      "eventName": "Trade Balance (MoM) (Apr)",
      "eventTimeZone": "GMT",
      "eventPrevious": "57.30M",
      "eventCurrency": "NZD",
      "eventForecast": ""
    },
    {
      "eventDateTime": "2007-05-01T09:00:00",
      "eventActual": "-6,030.00M",
      "eventCountry": "New Zealand",
      "eventExpectedVolatility": "Moderate",
      "eventName": "Trade Balance (YoY) (Apr)",
      "eventTimeZone": "GMT",
      "eventPrevious": "-5,780.00M",
      "eventCurrency": "NZD",
      "eventForecast": ""
    }
  ]}}
