"German Trade Balance";"Germany";"EUR";"2010-10-08T06:00:00";"GMT";"12.6B";"12.2B";"11.7B";"Moderate"
"French Government Budget Balance";"France";"EUR";"2010-10-08T06:45:00";"GMT";"-93.1B";"";"-122.1B";"Low"
"CFTC EUR speculative net positions";"Euro Zone";"EUR";"2010-10-08T19:30:00";"GMT";"35.3K";"";"48.2K";"Moderate"
