{"events": {"event": [
    {
      "eventDateTime": "2019-06-13T11:00:00",
      "eventActual": "",
      "eventCountry": "United States",
      "eventExpectedVolatility": "Moderate",
      "eventName": "OPEC Monthly Report",
      "eventTimeZone": "GMT",
      "eventPrevious": "",
      "eventCurrency": "USD",
      "eventForecast": ""
    },
    {
      "eventDateTime": "2019-06-13T12:30:00",
      "eventActual": "1,695K",
      "eventCountry": "United States",
      "eventExpectedVolatility": "Low",
      "eventName": "Continuing Jobless Claims",
      "eventTimeZone": "GMT",
      "eventPrevious": "1,693K",
      "eventCurrency": "USD",
      "eventForecast": "1,680K"
    },
    {
      "eventDateTime": "2019-06-13T12:30:00",
      "eventActual": "-0.2%",
      "eventCountry": "United States",
      "eventExpectedVolatility": "Moderate",
      "eventName": "Export Price Index (MoM) (May)",
      "eventTimeZone": "GMT",
      "eventPrevious": "0.1%",
      "eventCurrency": "USD",
      "eventForecast": "-0.1%"
    },
    {
      "eventDateTime": "2019-06-13T12:30:00",
      "eventActual": "-0.7%",
      "eventCountry": "United States",
      "eventExpectedVolatility": "Low",
      "eventName": "Export Price Index (YoY)",
      "eventTimeZone": "GMT",
      "eventPrevious": "0.2%",
      "eventCurrency": "USD",
      "eventForecast": "-0.5%"
    },
    {
      "eventDateTime": "2019-06-13T12:30:00",
      "eventActual": "-0.3%",
      "eventCountry": "United States",
      "eventExpectedVolatility": "Moderate",
      "eventName": "Import Price Index (MoM) (May)",
      "eventTimeZone": "GMT",
      "eventPrevious": "0.1%",
      "eventCurrency": "USD",
      "eventForecast": "-0.2%"
    },
    {
      "eventDateTime": "2019-06-13T12:30:00",
      "eventActual": "-1.5%",
      "eventCountry": "United States",
      "eventExpectedVolatility": "Low",
      "eventName": "Import Price Index (YoY)",
      "eventTimeZone": "GMT",
      "eventPrevious": "-0.3%",
      "eventCurrency": "USD",
      "eventForecast": "-1.4%"
    },
    {
      "eventDateTime": "2019-06-13T12:30:00",
      "eventActual": "222K",
      "eventCountry": "United States",
      "eventExpectedVolatility": "Moderate",
      "eventName": "Initial Jobless Claims",
      "eventTimeZone": "GMT",
      "eventPrevious": "219K",
      "eventCurrency": "USD",
      "eventForecast": "216K"
    },
    {
      "eventDateTime": "2019-06-13T12:30:00",
      "eventActual": "217.75K",
      "eventCountry": "United States",
      "eventExpectedVolatility": "Low",
      "eventName": "Jobless Claims 4-Week Avg.",
      "eventTimeZone": "GMT",
      "eventPrevious": "215.25K",
      "eventCurrency": "USD",
      "eventForecast": ""
    },
    {
      "eventDateTime": "2019-06-13T14:30:00",
      "eventActual": "102B",
      "eventCountry": "United States",
      "eventExpectedVolatility": "Low",
      "eventName": "Natural Gas Storage",
      "eventTimeZone": "GMT",
      "eventPrevious": "119B",
      "eventCurrency": "USD",
      "eventForecast": "109B"
    },
    {
      "eventDateTime": "2019-06-13T15:30:00",
      "eventActual": "2.215%",
      "eventCountry": "United States",
      "eventExpectedVolatility": "Low",
      "eventName": "4-Week Bill Auction",
      "eventTimeZone": "GMT",
      "eventPrevious": "2.290%",
      "eventCurrency": "USD",
      "eventForecast": ""
    },
    {
      "eventDateTime": "2019-06-13T15:30:00",
      "eventActual": "2.200%",
      "eventCountry": "United States",
      "eventExpectedVolatility": "Low",
      "eventName": "8-Week Bill Auction",
      "eventTimeZone": "GMT",
      "eventPrevious": "2.300%",
      "eventCurrency": "USD",
      "eventForecast": ""
    },
    {
      "eventDateTime": "2019-06-13T17:00:00",
      "eventActual": "2.607%",
      "eventCountry": "United States",
      "eventExpectedVolatility": "Low",
      "eventName": "30-Year Bond Auction",
      "eventTimeZone": "GMT",
      "eventPrevious": "2.892%",
      "eventCurrency": "USD",
      "eventForecast": ""
    }
  ]}}
