"German Import Price Index (MoM)";"Germany";"EUR";"2012-02-29T07:00:00";"GMT";"0.3%";"0.6%";"1.3%";"Low"
"French Consumer Spending (MoM)";"France";"EUR";"2012-02-29T07:45:00";"GMT";"-0.2%";"0.3%";"-0.4%";"Moderate"
"German Unemployment Change";"Germany";"EUR";"2012-02-29T08:55:00";"GMT";"-26K";"-5K";"0K";"High"
"German Unemployment Rate";"Germany";"EUR";"2012-02-29T08:55:00";"GMT";"6.8%";"6.7%";"6.8%";"Moderate"
"CPI (YoY)";"Euro Zone";"EUR";"2012-02-29T10:00:00";"GMT";"2.7%";"2.7%";"2.6%";"High"
"Core CPI (YoY)";"Euro Zone";"EUR";"2012-02-29T10:00:00";"GMT";"1.6%";"1.8%";"1.5%";"Moderate"
"German 10-Year Bund Auction";"Germany";"EUR";"2012-02-29T10:30:00";"GMT";"1.820%";"";"1.830%";"Moderate"
