{"events": {"event": [
    {
      "eventDateTime": "2013-02-14T13:30:00",
      "eventActual": "3,114K",
      "eventCountry": "United States",
      "eventExpectedVolatility": "Low",
      "eventName": "Continuing Jobless Claims",
      "eventTimeZone": "GMT",
      "eventPrevious": "3,244K",
      "eventCurrency": "USD",
      "eventForecast": "3,200K"
    },
    {
      "eventDateTime": "2013-02-14T13:30:00",
      "eventActual": "341K",
      "eventCountry": "United States",
      "eventExpectedVolatility": "Moderate",
      "eventName": "Initial Jobless Claims",
      "eventTimeZone": "GMT",
      "eventPrevious": "368K",
      "eventCurrency": "USD",
      "eventForecast": "360K"
    },
    {
      "eventDateTime": "2013-02-14T14:45:00",
      "eventActual": "32.05",
      "eventCountry": "United States",
      "eventExpectedVolatility": "Low",
      "eventName": "Bloomberg Consumer Confidence",
      "eventTimeZone": "GMT",
      "eventPrevious": "31.85",
      "eventCurrency": "USD",
      "eventForecast": ""
    },
    {
      "eventDateTime": "2013-02-14T15:30:00",
      "eventActual": "-157B",
      "eventCountry": "United States",
      "eventExpectedVolatility": "Low",
      "eventName": "Natural Gas Storage",
      "eventTimeZone": "GMT",
      "eventPrevious": "-118B",
      "eventCurrency": "USD",
      "eventForecast": "-162B"
    },
    {
      "eventDateTime": "2013-02-14T18:00:00",
      "eventActual": "3.180%",
      "eventCountry": "United States",
      "eventExpectedVolatility": "Low",
      "eventName": "30-Year Bond Auction",
      "eventTimeZone": "GMT",
      "eventPrevious": "3.070%",
      "eventCurrency": "USD",
      "eventForecast": ""
    }
  ]}}
