{"events": {"event": [
    {
      "eventDateTime": "2009-08-01T09:00:00",
      "eventActual": "3.13%",
      "eventCountry": "United States",
      "eventExpectedVolatility": "Moderate",
      "eventName": "10-Year Note Auction (Jul)",
      "eventTimeZone": "GMT",
      "eventPrevious": "3.13%",
      "eventCurrency": "USD",
      "eventForecast": ""
    },
    {
      "eventDateTime": "2009-08-01T09:00:00",
      "eventActual": "1.50%",
      "eventCountry": "United States",
      "eventExpectedVolatility": "Low",
      "eventName": "3-Year Note Auction (Jul)",
      "eventTimeZone": "GMT",
      "eventPrevious": "1.88%",
      "eventCurrency": "USD",
      "eventForecast": ""
    },
    {
      "eventDateTime": "2009-08-01T09:00:00",
      "eventActual": "4.25%",
      "eventCountry": "United States",
      "eventExpectedVolatility": "Low",
      "eventName": "30-Year Bond Auction (Jul)",
      "eventTimeZone": "GMT",
      "eventPrevious": "4.25%",
      "eventCurrency": "USD",
      "eventForecast": ""
    },
    {
      "eventDateTime": "2009-08-01T09:00:00",
      "eventActual": "2.63%",
      "eventCountry": "United States",
      "eventExpectedVolatility": "Low",
      "eventName": "5-Year Note Auction (Jul)",
      "eventTimeZone": "GMT",
      "eventPrevious": "2.63%",
      "eventCurrency": "USD",
      "eventForecast": ""
    },
    {
      "eventDateTime": "2009-08-01T09:00:00",
      "eventActual": "3.25%",
      "eventCountry": "United States",
      "eventExpectedVolatility": "Low",
      "eventName": "7-Year Note Auction (Jul)",
      "eventTimeZone": "GMT",
      "eventPrevious": "3.25%",
      "eventCurrency": "USD",
      "eventForecast": ""
    },
    {
      "eventDateTime": "2009-08-01T09:00:00",
      "eventActual": "6.24M",
      "eventCountry": "United States",
      "eventExpectedVolatility": "Low",
      "eventName": "All Car Sales (Jul)",
      "eventTimeZone": "GMT",
      "eventPrevious": "5.16M",
      "eventCurrency": "USD",
      "eventForecast": ""
    },
    {
      "eventDateTime": "2009-08-01T09:00:00",
      "eventActual": "5.13M",
      "eventCountry": "United States",
      "eventExpectedVolatility": "Low",
      "eventName": "All Truck Sales (Jul)",
      "eventTimeZone": "GMT",
      "eventPrevious": "4.79M",
      "eventCurrency": "USD",
      "eventForecast": ""
    },
    {
      "eventDateTime": "2009-08-01T09:00:00",
      "eventActual": "-1.80%",
      "eventCountry": "United States",
      "eventExpectedVolatility": "Moderate",
      "eventName": "Building Permits (MoM) (Jul)",
      "eventTimeZone": "GMT",
      "eventPrevious": "8.70%",
      "eventCurrency": "USD",
      "eventForecast": ""
    },
    {
      "eventDateTime": "2009-08-01T09:00:00",
      "eventActual": "91.30",
      "eventCountry": "United States",
      "eventExpectedVolatility": "Low",
      "eventName": "CB Employment Trends Index (Jul)",
      "eventTimeZone": "GMT",
      "eventPrevious": "91.40",
      "eventCurrency": "USD",
      "eventForecast": ""
    },
    {
      "eventDateTime": "2009-08-01T09:00:00",
      "eventActual": "-2.10%",
      "eventCountry": "United States",
      "eventExpectedVolatility": "Low",
      "eventName": "CPI (YoY) (Jul)",
      "eventTimeZone": "GMT",
      "eventPrevious": "-1.40%",
      "eventCurrency": "USD",
      "eventForecast": ""
    },
    {
      "eventDateTime": "2009-08-01T09:00:00",
      "eventActual": "215.35",
      "eventCountry": "United States",
      "eventExpectedVolatility": "Low",
      "eventName": "CPI Index, n.s.a. (Jul)",
      "eventTimeZone": "GMT",
      "eventPrevious": "215.69",
      "eventCurrency": "USD",
      "eventForecast": ""
    },
    {
      "eventDateTime": "2009-08-01T09:00:00",
      "eventActual": "-5.00%",
      "eventCountry": "United States",
      "eventExpectedVolatility": "Low",
      "eventName": "Chain Store Sales (MoM) (Jul)",
      "eventTimeZone": "GMT",
      "eventPrevious": "-5.10%",
      "eventCurrency": "USD",
      "eventForecast": ""
    },
    {
      "eventDateTime": "2009-08-01T09:00:00",
      "eventActual": "0.10%",
      "eventCountry": "United States",
      "eventExpectedVolatility": "Low",
      "eventName": "Chain Store Sales (WoW) (Jul)",
      "eventTimeZone": "GMT",
      "eventPrevious": "0.28%",
      "eventCurrency": "USD",
      "eventForecast": ""
    },
    {
      "eventDateTime": "2009-08-01T09:00:00",
      "eventActual": "-0.41%",
      "eventCountry": "United States",
      "eventExpectedVolatility": "Low",
      "eventName": "Chain Store Sales (YoY) (Jul)",
      "eventTimeZone": "GMT",
      "eventPrevious": "-0.55%",
      "eventCurrency": "USD",
      "eventForecast": ""
    },
    {
      "eventDateTime": "2009-08-01T09:00:00",
      "eventActual": "97.37K",
      "eventCountry": "United States",
      "eventExpectedVolatility": "Low",
      "eventName": "Challenger Job Cuts (Jul)",
      "eventTimeZone": "GMT",
      "eventPrevious": "74.39K",
      "eventCurrency": "USD",
      "eventForecast": ""
    },
    {
      "eventDateTime": "2009-08-01T09:00:00",
      "eventActual": "-0.10",
      "eventCountry": "United States",
      "eventExpectedVolatility": "Low",
      "eventName": "Chicago Fed National Activity (Jul)",
      "eventTimeZone": "GMT",
      "eventPrevious": "-1.65",
      "eventCurrency": "USD",
      "eventForecast": ""
    },
    {
      "eventDateTime": "2009-08-01T09:00:00",
      "eventActual": "0.00%",
      "eventCountry": "United States",
      "eventExpectedVolatility": "Low",
      "eventName": "Cleveland CPI (MoM) (Jul)",
      "eventTimeZone": "GMT",
      "eventPrevious": "0.10%",
      "eventCurrency": "USD",
      "eventForecast": ""
    },
    {
      "eventDateTime": "2009-08-01T09:00:00",
      "eventActual": "6,132.39K",
      "eventCountry": "United States",
      "eventExpectedVolatility": "Low",
      "eventName": "Continuing Jobless Claims (Jul)",
      "eventTimeZone": "GMT",
      "eventPrevious": "6,498.86K",
      "eventCurrency": "USD",
      "eventForecast": ""
    },
    {
      "eventDateTime": "2009-08-01T09:00:00",
      "eventActual": "1.50%",
      "eventCountry": "United States",
      "eventExpectedVolatility": "Moderate",
      "eventName": "Core CPI (YoY) (Jul)",
      "eventTimeZone": "GMT",
      "eventPrevious": "1.70%",
      "eventCurrency": "USD",
      "eventForecast": ""
    },
    {
      "eventDateTime": "2009-08-01T09:00:00",
      "eventActual": "219.26",
      "eventCountry": "United States",
      "eventExpectedVolatility": "Low",
      "eventName": "Core CPI Index (Jul)",
      "eventTimeZone": "GMT",
      "eventPrevious": "219.11",
      "eventCurrency": "USD",
      "eventForecast": ""
    },
    {
      "eventDateTime": "2009-08-01T09:00:00",
      "eventActual": "1.00%",
      "eventCountry": "United States",
      "eventExpectedVolatility": "Moderate",
      "eventName": "Core PCE Price Index (YoY) (Jul)",
      "eventTimeZone": "GMT",
      "eventPrevious": "1.10%",
      "eventCurrency": "USD",
      "eventForecast": ""
    },
    {
      "eventDateTime": "2009-08-01T09:00:00",
      "eventActual": "-18.90",
      "eventCountry": "United States",
      "eventExpectedVolatility": "Low",
      "eventName": "Dallas Fed Mfg Business Index (Jul)",
      "eventTimeZone": "GMT",
      "eventPrevious": "-21.90",
      "eventCurrency": "USD",
      "eventForecast": ""
    },
    {
      "eventDateTime": "2009-08-01T09:00:00",
      "eventActual": "0.30%",
      "eventCountry": "United States",
      "eventExpectedVolatility": "Low",
      "eventName": "Dallas Fed PCE (Jul)",
      "eventTimeZone": "GMT",
      "eventPrevious": "1.60%",
      "eventCurrency": "USD",
      "eventForecast": ""
    },
    {
      "eventDateTime": "2009-08-01T09:00:00",
      "eventActual": "-1.10",
      "eventCountry": "United States",
      "eventExpectedVolatility": "Low",
      "eventName": "Dallas Fed Services Revenues (Jul)",
      "eventTimeZone": "GMT",
      "eventPrevious": "4.40",
      "eventCurrency": "USD",
      "eventForecast": ""
    },
    {
      "eventDateTime": "2009-08-01T09:00:00",
      "eventActual": "4.23M",
      "eventCountry": "United States",
      "eventExpectedVolatility": "Low",
      "eventName": "Domestic Truck Sales (Jul)",
      "eventTimeZone": "GMT",
      "eventPrevious": "4.00M",
      "eventCurrency": "USD",
      "eventForecast": ""
    },
    {
      "eventDateTime": "2009-08-01T09:00:00",
      "eventActual": "4.30%",
      "eventCountry": "United States",
      "eventExpectedVolatility": "Low",
      "eventName": "Durables Excluding Defense (MoM) (Jul)",
      "eventTimeZone": "GMT",
      "eventPrevious": "-0.60%",
      "eventCurrency": "USD",
      "eventForecast": ""
    },
    {
      "eventDateTime": "2009-08-01T09:00:00",
      "eventActual": "1.08M",
      "eventCountry": "United States",
      "eventExpectedVolatility": "Low",
      "eventName": "EIA Weekly Distillates Stocks (Jul)",
      "eventTimeZone": "GMT",
      "eventPrevious": "1.47M",
      "eventCurrency": "USD",
      "eventForecast": ""
    },
    {
      "eventDateTime": "2009-08-01T09:00:00",
      "eventActual": "6.60%",
      "eventCountry": "United States",
      "eventExpectedVolatility": "Moderate",
      "eventName": "Existing Home Sales (MoM) (Jul)",
      "eventTimeZone": "GMT",
      "eventPrevious": "2.50%",
      "eventCurrency": "USD",
      "eventForecast": ""
    },
    {
      "eventDateTime": "2009-08-01T09:00:00",
      "eventActual": "-0.30%",
      "eventCountry": "United States",
      "eventExpectedVolatility": "Moderate",
      "eventName": "Export Price Index (MoM) (Jul)",
      "eventTimeZone": "GMT",
      "eventPrevious": "1.00%",
      "eventCurrency": "USD",
      "eventForecast": ""
    },
    {
      "eventDateTime": "2009-08-01T09:00:00",
      "eventActual": "-0.10%",
      "eventCountry": "United States",
      "eventExpectedVolatility": "Low",
      "eventName": "Factory orders ex transportation (MoM) (Jul)",
      "eventTimeZone": "GMT",
      "eventPrevious": "3.70%",
      "eventCurrency": "USD",
      "eventForecast": ""
    },
    {
      "eventDateTime": "2009-08-01T09:00:00",
      "eventActual": "0.19M",
      "eventCountry": "United States",
      "eventExpectedVolatility": "Low",
      "eventName": "Gasoline Inventories (Jul)",
      "eventTimeZone": "GMT",
      "eventPrevious": "2.00M",
      "eventCurrency": "USD",
      "eventForecast": ""
    },
    {
      "eventDateTime": "2009-08-01T09:00:00",
      "eventActual": "-0.30%",
      "eventCountry": "United States",
      "eventExpectedVolatility": "Low",
      "eventName": "Goods Orders Non Defense Ex Air (MoM) (Jul)",
      "eventTimeZone": "GMT",
      "eventPrevious": "1.40%",
      "eventCurrency": "USD",
      "eventForecast": ""
    },
    {
      "eventDateTime": "2009-08-01T09:00:00",
      "eventActual": "-55.00K",
      "eventCountry": "United States",
      "eventExpectedVolatility": "Low",
      "eventName": "Government Payrolls (Jul)",
      "eventTimeZone": "GMT",
      "eventPrevious": "-41.00K",
      "eventCurrency": "USD",
      "eventForecast": ""
    },
    {
      "eventDateTime": "2009-08-01T09:00:00",
      "eventActual": "193.50",
      "eventCountry": "United States",
      "eventExpectedVolatility": "Low",
      "eventName": "House Price Index (Jul)",
      "eventTimeZone": "GMT",
      "eventPrevious": "194.00",
      "eventCurrency": "USD",
      "eventForecast": ""
    },
    {
      "eventDateTime": "2009-08-01T09:00:00",
      "eventActual": "-5.70%",
      "eventCountry": "United States",
      "eventExpectedVolatility": "Low",
      "eventName": "House Price Index (YoY) (Jul)",
      "eventTimeZone": "GMT",
      "eventPrevious": "-6.30%",
      "eventCurrency": "USD",
      "eventForecast": ""
    },
    {
      "eventDateTime": "2009-08-01T09:00:00",
      "eventActual": "1.50%",
      "eventCountry": "United States",
      "eventExpectedVolatility": "Moderate",
      "eventName": "Housing Starts (MoM) (Jul)",
      "eventTimeZone": "GMT",
      "eventPrevious": "8.30%",
      "eventCurrency": "USD",
      "eventForecast": ""
    },
    {
      "eventDateTime": "2009-08-01T09:00:00",
      "eventActual": "47.10",
      "eventCountry": "United States",
      "eventExpectedVolatility": "Moderate",
      "eventName": "ISM Manufacturing Employment (Jul)",
      "eventTimeZone": "GMT",
      "eventPrevious": "40.70",
      "eventCurrency": "USD",
      "eventForecast": ""
    },
    {
      "eventDateTime": "2009-08-01T09:00:00",
      "eventActual": "57.60",
      "eventCountry": "United States",
      "eventExpectedVolatility": "Low",
      "eventName": "ISM Manufacturing New Orders Index (Jul)",
      "eventTimeZone": "GMT",
      "eventPrevious": "51.70",
      "eventCurrency": "USD",
      "eventForecast": ""
    },
    {
      "eventDateTime": "2009-08-01T09:00:00",
      "eventActual": "47.00",
      "eventCountry": "United States",
      "eventExpectedVolatility": "Low",
      "eventName": "ISM Non-Manufacturing Business Activity (Jul)",
      "eventTimeZone": "GMT",
      "eventPrevious": "50.10",
      "eventCurrency": "USD",
      "eventForecast": ""
    },
    {
      "eventDateTime": "2009-08-01T09:00:00",
      "eventActual": "41.30",
      "eventCountry": "United States",
      "eventExpectedVolatility": "Moderate",
      "eventName": "ISM Non-Manufacturing Employment (Jul)",
      "eventTimeZone": "GMT",
      "eventPrevious": "41.50",
      "eventCurrency": "USD",
      "eventForecast": ""
    },
    {
      "eventDateTime": "2009-08-01T09:00:00",
      "eventActual": "49.70",
      "eventCountry": "United States",
      "eventExpectedVolatility": "Low",
      "eventName": "ISM Non-Manufacturing New Orders (Jul)",
      "eventTimeZone": "GMT",
      "eventPrevious": "49.60",
      "eventCurrency": "USD",
      "eventForecast": ""
    },
    {
      "eventDateTime": "2009-08-01T09:00:00",
      "eventActual": "42.70",
      "eventCountry": "United States",
      "eventExpectedVolatility": "Low",
      "eventName": "ISM Non-Manufacturing Prices (Jul)",
      "eventTimeZone": "GMT",
      "eventPrevious": "54.50",
      "eventCurrency": "USD",
      "eventForecast": ""
    },
    {
      "eventDateTime": "2009-08-01T09:00:00",
      "eventActual": "353.50",
      "eventCountry": "United States",
      "eventExpectedVolatility": "Low",
      "eventName": "ISM-New York Index (Jul)",
      "eventTimeZone": "GMT",
      "eventPrevious": "352.30",
      "eventCurrency": "USD",
      "eventForecast": ""
    },
    {
      "eventDateTime": "2009-08-01T09:00:00",
      "eventActual": "2.15M",
      "eventCountry": "United States",
      "eventExpectedVolatility": "High",
      "eventName": "JOLTs Job Openings (Jul)",
      "eventTimeZone": "GMT",
      "eventPrevious": "2.39M",
      "eventCurrency": "USD",
      "eventForecast": ""
    },
    {
      "eventDateTime": "2009-08-01T09:00:00",
      "eventActual": "572.28K",
      "eventCountry": "United States",
      "eventExpectedVolatility": "Low",
      "eventName": "Jobless Claims 4-Week Avg. (Jul)",
      "eventTimeZone": "GMT",
      "eventPrevious": "601.14K",
      "eventCurrency": "USD",
      "eventForecast": ""
    },
    {
      "eventDateTime": "2009-08-01T09:00:00",
      "eventActual": "-6.00",
      "eventCountry": "United States",
      "eventExpectedVolatility": "Low",
      "eventName": "KC Fed Composite Index (Jul)",
      "eventTimeZone": "GMT",
      "eventPrevious": "-6.00",
      "eventCurrency": "USD",
      "eventForecast": ""
    },
    {
      "eventDateTime": "2009-08-01T09:00:00",
      "eventActual": "2.00",
      "eventCountry": "United States",
      "eventExpectedVolatility": "Low",
      "eventName": "KC Fed Manufacturing Index (Jul)",
      "eventTimeZone": "GMT",
      "eventPrevious": "1.00",
      "eventCurrency": "USD",
      "eventForecast": ""
    },
    {
      "eventDateTime": "2009-08-01T09:00:00",
      "eventActual": "5.24%",
      "eventCountry": "United States",
      "eventExpectedVolatility": "Low",
      "eventName": "MBA 30-Year Mortgage Rate (Jul)",
      "eventTimeZone": "GMT",
      "eventPrevious": "5.45%",
      "eventCurrency": "USD",
      "eventForecast": ""
    },
    {
      "eventDateTime": "2009-08-01T09:00:00",
      "eventActual": "264.93",
      "eventCountry": "United States",
      "eventExpectedVolatility": "Low",
      "eventName": "MBA Purchase Index (Jul)",
      "eventTimeZone": "GMT",
      "eventPrevious": "271.40",
      "eventCurrency": "USD",
      "eventForecast": ""
    },
    {
      "eventDateTime": "2009-08-01T09:00:00",
      "eventActual": "-58.00K",
      "eventCountry": "United States",
      "eventExpectedVolatility": "Low",
      "eventName": "Manufacturing Payrolls (Jul)",
      "eventTimeZone": "GMT",
      "eventPrevious": "-136.00K",
      "eventCurrency": "USD",
      "eventForecast": ""
    },
    {
      "eventDateTime": "2009-08-01T09:00:00",
      "eventActual": "1.40%",
      "eventCountry": "United States",
      "eventExpectedVolatility": "Low",
      "eventName": "Manufacturing Production (MoM) (Jul)",
      "eventTimeZone": "GMT",
      "eventPrevious": "-0.30%",
      "eventCurrency": "USD",
      "eventForecast": ""
    },
    {
      "eventDateTime": "2009-08-01T09:00:00",
      "eventActual": "3.00%",
      "eventCountry": "United States",
      "eventExpectedVolatility": "Low",
      "eventName": "Michigan 5-Year Inflation Expectations (Jul)",
      "eventTimeZone": "GMT",
      "eventPrevious": "3.10%",
      "eventCurrency": "USD",
      "eventForecast": ""
    },
    {
      "eventDateTime": "2009-08-01T09:00:00",
      "eventActual": "60.90",
      "eventCountry": "United States",
      "eventExpectedVolatility": "Moderate",
      "eventName": "Michigan Consumer Expectations (Jul)",
      "eventTimeZone": "GMT",
      "eventPrevious": "69.20",
      "eventCurrency": "USD",
      "eventForecast": ""
    },
    {
      "eventDateTime": "2009-08-01T09:00:00",
      "eventActual": "70.50",
      "eventCountry": "United States",
      "eventExpectedVolatility": "Low",
      "eventName": "Michigan Current Conditions (Jul)",
      "eventTimeZone": "GMT",
      "eventPrevious": "74.50",
      "eventCurrency": "USD",
      "eventForecast": ""
    },
    {
      "eventDateTime": "2009-08-01T09:00:00",
      "eventActual": "2.90%",
      "eventCountry": "United States",
      "eventExpectedVolatility": "Low",
      "eventName": "Michigan Inflation Expectations (Jul)",
      "eventTimeZone": "GMT",
      "eventPrevious": "3.10%",
      "eventCurrency": "USD",
      "eventForecast": ""
    },
    {
      "eventDateTime": "2009-08-01T09:00:00",
      "eventActual": "69.40",
      "eventCountry": "United States",
      "eventExpectedVolatility": "Low",
      "eventName": "Midwest Manufacturing (Jul)",
      "eventTimeZone": "GMT",
      "eventPrevious": "68.00",
      "eventCurrency": "USD",
      "eventForecast": ""
    },
    {
      "eventDateTime": "2009-08-01T09:00:00",
      "eventActual": "511.27",
      "eventCountry": "United States",
      "eventExpectedVolatility": "Low",
      "eventName": "Mortgage Market Index (Jul)",
      "eventTimeZone": "GMT",
      "eventPrevious": "526.28",
      "eventCurrency": "USD",
      "eventForecast": ""
    },
    {
      "eventDateTime": "2009-08-01T09:00:00",
      "eventActual": "1,952.72",
      "eventCountry": "United States",
      "eventExpectedVolatility": "Low",
      "eventName": "Mortgage Refinance Index (Jul)",
      "eventTimeZone": "GMT",
      "eventPrevious": "2,019.40",
      "eventCurrency": "USD",
      "eventForecast": ""
    },
    {
      "eventDateTime": "2009-08-01T09:00:00",
      "eventActual": "86.50",
      "eventCountry": "United States",
      "eventExpectedVolatility": "Low",
      "eventName": "NFIB Small Business Optimism (Jul)",
      "eventTimeZone": "GMT",
      "eventPrevious": "87.80",
      "eventCurrency": "USD",
      "eventForecast": ""
    },
    {
      "eventDateTime": "2009-08-01T09:00:00",
      "eventActual": "4.60%",
      "eventCountry": "United States",
      "eventExpectedVolatility": "Moderate",
      "eventName": "New Home Sales (MoM) (Jul)",
      "eventTimeZone": "GMT",
      "eventPrevious": "4.50%",
      "eventCurrency": "USD",
      "eventForecast": ""
    },
    {
      "eventDateTime": "2009-08-01T09:00:00",
      "eventActual": "-67.80B",
      "eventCountry": "United States",
      "eventExpectedVolatility": "Low",
      "eventName": "Overall Net Capital Flow (Jul)",
      "eventTimeZone": "GMT",
      "eventPrevious": "-92.90B",
      "eventCurrency": "USD",
      "eventForecast": ""
    },
    {
      "eventDateTime": "2009-08-01T09:00:00",
      "eventActual": "99.40",
      "eventCountry": "United States",
      "eventExpectedVolatility": "Low",
      "eventName": "Pending Home Sales Index (Jul)",
      "eventTimeZone": "GMT",
      "eventPrevious": "94.40",
      "eventCurrency": "USD",
      "eventForecast": ""
    },
    {
      "eventDateTime": "2009-08-01T09:00:00",
      "eventActual": "49.80",
      "eventCountry": "United States",
      "eventExpectedVolatility": "Low",
      "eventName": "Philly Fed Business Conditions (Jul)",
      "eventTimeZone": "GMT",
      "eventPrevious": "52.40",
      "eventCurrency": "USD",
      "eventForecast": ""
    },
    {
      "eventDateTime": "2009-08-01T09:00:00",
      "eventActual": "0.90",
      "eventCountry": "United States",
      "eventExpectedVolatility": "Low",
      "eventName": "Philly Fed CAPEX Index (Jul)",
      "eventTimeZone": "GMT",
      "eventPrevious": "1.90",
      "eventCurrency": "USD",
      "eventForecast": ""
    },
    {
      "eventDateTime": "2009-08-01T09:00:00",
      "eventActual": "-22.40",
      "eventCountry": "United States",
      "eventExpectedVolatility": "Moderate",
      "eventName": "Philly Fed Employment (Jul)",
      "eventTimeZone": "GMT",
      "eventPrevious": "-23.40",
      "eventCurrency": "USD",
      "eventForecast": ""
    },
    {
      "eventDateTime": "2009-08-01T09:00:00",
      "eventActual": "-2.70",
      "eventCountry": "United States",
      "eventExpectedVolatility": "Low",
      "eventName": "Philly Fed New Orders (Jul)",
      "eventTimeZone": "GMT",
      "eventPrevious": "-9.20",
      "eventCurrency": "USD",
      "eventForecast": ""
    },
    {
      "eventDateTime": "2009-08-01T09:00:00",
      "eventActual": "-2.30",
      "eventCountry": "United States",
      "eventExpectedVolatility": "Low",
      "eventName": "Philly Fed Prices Paid (Jul)",
      "eventTimeZone": "GMT",
      "eventPrevious": "-10.20",
      "eventCurrency": "USD",
      "eventForecast": ""
    },
    {
      "eventDateTime": "2009-08-01T09:00:00",
      "eventActual": "-270.00K",
      "eventCountry": "United States",
      "eventExpectedVolatility": "Moderate",
      "eventName": "Private Nonfarm Payrolls (Jul)",
      "eventTimeZone": "GMT",
      "eventPrevious": "-426.00K",
      "eventCurrency": "USD",
      "eventForecast": ""
    },
    {
      "eventDateTime": "2009-08-01T09:00:00",
      "eventActual": "0.50%",
      "eventCountry": "United States",
      "eventExpectedVolatility": "Low",
      "eventName": "Real Earnings (MoM) (Jul)",
      "eventTimeZone": "GMT",
      "eventPrevious": "-0.90%",
      "eventCurrency": "USD",
      "eventForecast": ""
    },
    {
      "eventDateTime": "2009-08-01T09:00:00",
      "eventActual": "0.30%",
      "eventCountry": "United States",
      "eventExpectedVolatility": "Low",
      "eventName": "Real Personal Consumption (MoM) (Jul)",
      "eventTimeZone": "GMT",
      "eventPrevious": "-0.10%",
      "eventCurrency": "USD",
      "eventForecast": ""
    },
    {
      "eventDateTime": "2009-08-01T09:00:00",
      "eventActual": "-2.00%",
      "eventCountry": "United States",
      "eventExpectedVolatility": "Low",
      "eventName": "Redbook (MoM) (Jul)",
      "eventTimeZone": "GMT",
      "eventPrevious": "-4.39%",
      "eventCurrency": "USD",
      "eventForecast": ""
    },
    {
      "eventDateTime": "2009-08-01T09:00:00",
      "eventActual": "-5.42%",
      "eventCountry": "United States",
      "eventExpectedVolatility": "Low",
      "eventName": "Redbook (YoY) (Jul)",
      "eventTimeZone": "GMT",
      "eventPrevious": "-4.40%",
      "eventCurrency": "USD",
      "eventForecast": ""
    },
    {
      "eventDateTime": "2009-08-01T09:00:00",
      "eventActual": "0.00%",
      "eventCountry": "United States",
      "eventExpectedVolatility": "Low",
      "eventName": "Retail Control (MoM) (Jul)",
      "eventTimeZone": "GMT",
      "eventPrevious": "0.00%",
      "eventCurrency": "USD",
      "eventForecast": ""
    },
    {
      "eventDateTime": "2009-08-01T09:00:00",
      "eventActual": "-0.10%",
      "eventCountry": "United States",
      "eventExpectedVolatility": "Low",
      "eventName": "Retail Sales Ex Gas/Autos (MoM) (Jul)",
      "eventTimeZone": "GMT",
      "eventPrevious": "0.00%",
      "eventCurrency": "USD",
      "eventForecast": ""
    },
    {
      "eventDateTime": "2009-08-01T09:00:00",
      "eventActual": "-1.00",
      "eventCountry": "United States",
      "eventExpectedVolatility": "Low",
      "eventName": "Richmond Manufacturing Shipments (Jul)",
      "eventTimeZone": "GMT",
      "eventPrevious": "-17.00",
      "eventCurrency": "USD",
      "eventForecast": ""
    },
    {
      "eventDateTime": "2009-08-01T09:00:00",
      "eventActual": "-16.00",
      "eventCountry": "United States",
      "eventExpectedVolatility": "Low",
      "eventName": "Richmond Services Index (Jul)",
      "eventTimeZone": "GMT",
      "eventPrevious": "-25.00",
      "eventCurrency": "USD",
      "eventForecast": ""
    },
    {
      "eventDateTime": "2009-08-01T09:00:00",
      "eventActual": "1.70%",
      "eventCountry": "United States",
      "eventExpectedVolatility": "Low",
      "eventName": "Sandamp;P/CS HPI Composite - 20 n.s.a. (MoM) (Jul)",
      "eventTimeZone": "GMT",
      "eventPrevious": "1.40%",
      "eventCurrency": "USD",
      "eventForecast": ""
    },
    {
      "eventDateTime": "2009-08-01T09:00:00",
      "eventActual": "0.70%",
      "eventCountry": "United States",
      "eventExpectedVolatility": "Low",
      "eventName": "Sandamp;P/CS HPI Composite - 20 s.a. (MoM) (Jul)",
      "eventTimeZone": "GMT",
      "eventPrevious": "0.40%",
      "eventCurrency": "USD",
      "eventForecast": ""
    },
    {
      "eventDateTime": "2009-08-01T09:00:00",
      "eventActual": "-2.50B",
      "eventCountry": "United States",
      "eventExpectedVolatility": "Low",
      "eventName": "TIC Net Long-Term Transactions including Swaps (Jul)",
      "eventTimeZone": "GMT",
      "eventPrevious": "70.30B",
      "eventCurrency": "USD",
      "eventForecast": ""
    },
    {
      "eventDateTime": "2009-08-01T09:00:00",
      "eventActual": "-13.80",
      "eventCountry": "United States",
      "eventExpectedVolatility": "Low",
      "eventName": "Texas Services Sector Outlook (Jul)",
      "eventTimeZone": "GMT",
      "eventPrevious": "-13.00",
      "eventCurrency": "USD",
      "eventForecast": ""
    },
    {
      "eventDateTime": "2009-08-01T09:00:00",
      "eventActual": "31.30B",
      "eventCountry": "United States",
      "eventExpectedVolatility": "Low",
      "eventName": "US Foreign Buying, T-bonds (Jul)",
      "eventTimeZone": "GMT",
      "eventPrevious": "100.50B",
      "eventCurrency": "USD",
      "eventForecast": ""
    }
  ]}}
