"French Unemployment Rate (Q3)";"France";"EUR";"2014-12-04T06:30:00";"GMT";"10.1%";"10.3%";"10.4%";"Low"
"Retail PMI";"Euro Zone";"EUR";"2014-12-04T09:10:00";"GMT";"47.0";"";"48.9";"Low"
"Spanish 10-Year Obligacion Auction";"Spain";"EUR";"2014-12-04T09:45:00";"GMT";"2.123%";"";"1.840%";"Moderate"
"Spanish 3-Year Bonos Auction";"Spain";"EUR";"2014-12-04T09:45:00";"GMT";"0.638%";"";"0.584%";"Low"
"Spanish 6-Year Obligacion Auction";"Spain";"EUR";"2014-12-04T09:45:00";"GMT";"0.946%";"";"0.918%";"Low"
"French 10-Year OAT Auction";"France";"EUR";"2014-12-04T10:00:00";"GMT";"1.18%";"";"1.11%";"Low"
"French 15-Year OAT Auction";"France";"EUR";"2014-12-04T10:00:00";"GMT";"1.81%";"";"1.61%";"Low"
"ECB Interest Rate Decision (Dec)";"Euro Zone";"EUR";"2014-12-04T12:45:00";"GMT";"0.05%";"0.05%";"0.05%";"High"
"ECB Press Conference";"Euro Zone";"EUR";"2014-12-04T13:30:00";"GMT";" ";"";"";"High"
