"German Import Price Index (MoM)";"Germany";"EUR";"2010-03-01T07:00:00";"GMT";"0.5%";"0.8%";"1.7%";"Low"
"German Manufacturing PMI";"Germany";"EUR";"2010-03-01T08:00:00";"GMT";"57.1";"57.1";"57.2";"High"
"Business Climate (Feb)";"Euro Zone";"EUR";"2010-03-01T09:00:00";"GMT";"-0.77";"";"-0.54";"Low"
"Business and Consumer Survey (Feb)";"Euro Zone";"EUR";"2010-03-01T09:00:00";"GMT";"95.80";"";"96.20";"Low"
"CPI (MoM) (Feb)";"Euro Zone";"EUR";"2010-03-01T09:00:00";"GMT";"-0.80%";"";"0.30%";"Moderate"
"CPI ex Tobacco (MoM) (Feb)";"Euro Zone";"EUR";"2010-03-01T09:00:00";"GMT";"-0.85%";"";"0.32%";"Low"
"CPI ex Tobacco (YoY) (Feb)";"Euro Zone";"EUR";"2010-03-01T09:00:00";"GMT";"0.81%";"";"0.72%";"Low"
"Consumer Inflation Expectation (Feb)";"Euro Zone";"EUR";"2010-03-01T09:00:00";"GMT";"-2.30";"";"-0.20";"Low"
"Core CPI (MoM) (Feb)";"Euro Zone";"EUR";"2010-03-01T09:00:00";"GMT";"-1.60%";"";"0.40%";"Low"
"Current Account n.s.a. (Feb)";"Euro Zone";"EUR";"2010-03-01T09:00:00";"GMT";"-14.40B";"";"-4.30B";"Low"
"French Business Survey (Feb)";"France";"EUR";"2010-03-01T09:00:00";"GMT";"91.00";"";"90.00";"Low"
"French Consumer Confidence (Feb)";"France";"EUR";"2010-03-01T09:00:00";"GMT";"94.00";"";"92.00";"Low"
"French Current Account (Feb)";"France";"EUR";"2010-03-01T09:00:00";"GMT";"-3.00B";"";"-2.20B";"Low"
"French Exports (Feb)";"France";"EUR";"2010-03-01T09:00:00";"GMT";"30.14B";"";"30.41B";"Low"
"French HICP (MoM) (Feb)";"France";"EUR";"2010-03-01T09:00:00";"GMT";"-0.20%";"";"0.60%";"Moderate"
"French HICP (YoY) (Feb)";"France";"EUR";"2010-03-01T09:00:00";"GMT";"1.22%";"";"1.41%";"Low"
"French Imports (Feb)";"France";"EUR";"2010-03-01T09:00:00";"GMT";"34.04B";"";"33.93B";"Low"
"French PPI (MoM) (Feb)";"France";"EUR";"2010-03-01T09:00:00";"GMT";"0.50%";"";"0.10%";"Low"
"German Business Expectations (Feb)";"Germany";"EUR";"2010-03-01T09:00:00";"GMT";"102.80";"";"103.50";"Moderate"
"German CPI (YoY) (Feb)";"Germany";"EUR";"2010-03-01T09:00:00";"GMT";"0.70%";"";"0.50%";"Low"
"German Current Assessment (Feb)";"Germany";"EUR";"2010-03-01T09:00:00";"GMT";"94.70";"";"93.90";"Moderate"
"German Exports (MoM) (Feb)";"Germany";"EUR";"2010-03-01T09:00:00";"GMT";"-3.45%";"";"4.32%";"Low"
"German HICP (MoM) (Feb)";"Germany";"EUR";"2010-03-01T09:00:00";"GMT";"-0.70%";"";"0.20%";"Low"
"German HICP (YoY) (Feb)";"Germany";"EUR";"2010-03-01T09:00:00";"GMT";"0.70%";"";"0.30%";"Low"
"German Import Price Index (YoY) (Feb)";"Germany";"EUR";"2010-03-01T09:00:00";"GMT";"1.40%";"";"2.40%";"Low"
"German Imports (MoM) (Feb)";"Germany";"EUR";"2010-03-01T09:00:00";"GMT";"2.50%";"";"-0.10%";"Low"
"German PPI (YoY) (Feb)";"Germany";"EUR";"2010-03-01T09:00:00";"GMT";"-3.50%";"";"-3.00%";"Low"
"German Retail Sales (YoY) (Feb)";"Germany";"EUR";"2010-03-01T09:00:00";"GMT";"-5.00%";"";"0.90%";"Low"
"German Unemployment (Feb)";"Germany";"EUR";"2010-03-01T09:00:00";"GMT";"3.38M";"";"3.38M";"Low"
"German Unemployment n.s.a. (Feb)";"Germany";"EUR";"2010-03-01T09:00:00";"GMT";"3.60M";"";"3.60M";"Low"
"German WPI (YoY) (Feb)";"Germany";"EUR";"2010-03-01T09:00:00";"GMT";"1.90%";"";"2.10%";"Low"
"German ZEW Current Conditions (Feb)";"Germany";"EUR";"2010-03-01T09:00:00";"GMT";"-56.60";"";"-54.80";"Moderate"
"Industrial Production (YoY) (Feb)";"Euro Zone";"EUR";"2010-03-01T09:00:00";"GMT";"2.20%";"";"4.30%";"Low"
"Industrial Sentiment (Feb)";"Euro Zone";"EUR";"2010-03-01T09:00:00";"GMT";"-13.90";"";"-12.40";"Low"
"Italian Business Confidence (Feb)";"Italy";"EUR";"2010-03-01T09:00:00";"GMT";"94.20";"";"95.80";"Low"
"Italian CPI (YoY) (Feb)";"Italy";"EUR";"2010-03-01T09:00:00";"GMT";"1.30%";"";"1.10%";"Low"
"Italian Consumer Confidence (Feb)";"Italy";"EUR";"2010-03-01T09:00:00";"GMT";"104.70";"";"99.80";"Low"
"Italian HICP (MoM) (Feb)";"Italy";"EUR";"2010-03-01T09:00:00";"GMT";"-1.40%";"";"0.00%";"Low"
"Italian HICP (YoY) (Feb)";"Italy";"EUR";"2010-03-01T09:00:00";"GMT";"1.40%";"";"1.10%";"Low"
"Italian Industrial New Orders (MoM) (Feb)";"Italy";"EUR";"2010-03-01T09:00:00";"GMT";"2.18%";"";"0.75%";"Low"
"Italian Industrial New Orders (YoY) (Feb)";"Italy";"EUR";"2010-03-01T09:00:00";"GMT";"5.05%";"";"7.48%";"Low"
"Italian Industrial Production (YoY) (Feb)";"Italy";"EUR";"2010-03-01T09:00:00";"GMT";"0.30%";"";"3.40%";"Low"
"Italian Industrial Sales (MoM) (Feb)";"Italy";"EUR";"2010-03-01T09:00:00";"GMT";"5.41%";"";"-3.62%";"Low"
"Italian Industrial Sales (YoY) (Feb)";"Italy";"EUR";"2010-03-01T09:00:00";"GMT";"2.89%";"";"5.18%";"Low"
"Italian PPI (MoM) (Feb)";"Italy";"EUR";"2010-03-01T09:00:00";"GMT";"1.10%";"";"0.10%";"Low"
"Italian PPI (YoY) (Feb)";"Italy";"EUR";"2010-03-01T09:00:00";"GMT";"0.30%";"";"0.80%";"Low"
"Italian Retail Sales (YoY) (Feb)";"Italy";"EUR";"2010-03-01T09:00:00";"GMT";"3.86%";"";"-2.37%";"Low"
"Italian Trade Balance EU (Feb)";"Italy";"EUR";"2010-03-01T09:00:00";"GMT";"-0.86B";"";"-1.28B";"Low"
"Italian Trade Balance Non-EU (Feb)";"Italy";"EUR";"2010-03-01T09:00:00";"GMT";"-3.44B";"";"-1.65B";"Low"
"Italian Wage Inflation (MoM) (Feb)";"Italy";"EUR";"2010-03-01T09:00:00";"GMT";"0.41%";"";"0.00%";"Low"
"Italian Wage Inflation (YoY) (Feb)";"Italy";"EUR";"2010-03-01T09:00:00";"GMT";"2.40%";"";"2.10%";"Low"
"Manufacturing PMI";"Euro Zone";"EUR";"2010-03-01T09:00:00";"GMT";"54.1";"54.1";"54.2";"Moderate"
"Money-M3 3-Month-Moving Average (Feb)";"Euro Zone";"EUR";"2010-03-01T09:00:00";"GMT";"-0.10%";"";"-0.10%";"Low"
"Net Investment Flow (Feb)";"Euro Zone";"EUR";"2010-03-01T09:00:00";"GMT";"-18.40B";"";"17.70B";"Low"
"PPI (YoY) (Feb)";"Euro Zone";"EUR";"2010-03-01T09:00:00";"GMT";"-1.20%";"";"-0.60%";"Low"
"Retail Sales (YoY) (Feb)";"Euro Zone";"EUR";"2010-03-01T09:00:00";"GMT";"0.00%";"";"-0.60%";"Low"
"Selling Price Expectations (Feb)";"Euro Zone";"EUR";"2010-03-01T09:00:00";"GMT";"-6.80";"";"-3.80";"Low"
"Services Sentiment (Feb)";"Euro Zone";"EUR";"2010-03-01T09:00:00";"GMT";"-1.50";"";"0.00";"Low"
"Spanish CPI (MoM) (Feb)";"Spain";"EUR";"2010-03-01T09:00:00";"GMT";"-1.00%";"";"-0.20%";"Low"
"Spanish CPI (YoY) (Feb)";"Spain";"EUR";"2010-03-01T09:00:00";"GMT";"1.00%";"";"0.80%";"Moderate"
"Spanish Current account (Feb)";"Spain";"EUR";"2010-03-01T09:00:00";"GMT";"-4.96B";"";"-5.49B";"Low"
"Spanish HICP (MoM) (Feb)";"Spain";"EUR";"2010-03-01T09:00:00";"GMT";"-1.50%";"";"-0.20%";"Low"
"Spanish HICP (YoY) (Feb)";"Spain";"EUR";"2010-03-01T09:00:00";"GMT";"0.70%";"";"0.90%";"Moderate"
"Spanish Industrial Production (YoY) (Feb)";"Spain";"EUR";"2010-03-01T09:00:00";"GMT";"-2.60%";"";"-1.90%";"Low"
"Spanish Retail Sales (YoY) (Feb)";"Spain";"EUR";"2010-03-01T09:00:00";"GMT";"-2.90%";"";"-1.20%";"Low"
"Unemployment Rate";"Euro Zone";"EUR";"2010-03-01T10:00:00";"GMT";"9.9%";"10.1%";"9.9%";"Moderate"
"Italian Monthly Unemployment Rate";"Italy";"EUR";"2010-03-01T11:00:00";"GMT";"8.5%";"8.6%";"8.6%";"Low"
