{"events": {"event": {
    "eventDateTime": "2012-10-30T05:30:00",
    "eventActual": "8.00%",
    "eventCountry": "India",
    "eventExpectedVolatility": "High",
    "eventName": "Interest Rate Decision",
    "eventTimeZone": "GMT",
    "eventPrevious": "8.00%",
    "eventCurrency": "INR",
    "eventForecast": "8.00%"
  }}}
