{"events": {"event": [
    {
      "eventDateTime": "2017-05-30T21:00:00",
      "eventActual": "",
      "eventCountry": "New Zealand",
      "eventExpectedVolatility": "Moderate",
      "eventName": "RBNZ Financial Stability Report",
      "eventTimeZone": "GMT",
      "eventPrevious": "",
      "eventCurrency": "NZD",
      "eventForecast": ""
    },
    {
      "eventDateTime": "2017-05-30T23:00:00",
      "eventActual": "",
      "eventCountry": "New Zealand",
      "eventExpectedVolatility": "High",
      "eventName": "RBNZ Gov Wheeler Speaks",
      "eventTimeZone": "GMT",
      "eventPrevious": "",
      "eventCurrency": "NZD",
      "eventForecast": ""
    }
  ]}}
