{"events": {"event": [
    {
      "eventDateTime": "2019-10-31T08:30:00",
      "eventActual": "-3.2%",
      "eventCountry": "Hong Kong",
      "eventExpectedVolatility": "Low",
      "eventName": "GDP (QoQ)",
      "eventTimeZone": "GMT",
      "eventPrevious": "-0.4%",
      "eventCurrency": "HKD",
      "eventForecast": ""
    },
    {
      "eventDateTime": "2019-10-31T08:30:00",
      "eventActual": "-2.9%",
      "eventCountry": "Hong Kong",
      "eventExpectedVolatility": "Low",
      "eventName": "GDP (YoY)",
      "eventTimeZone": "GMT",
      "eventPrevious": "0.5%",
      "eventCurrency": "HKD",
      "eventForecast": ""
    },
    {
      "eventDateTime": "2019-10-31T08:30:00",
      "eventActual": "1.8%",
      "eventCountry": "Hong Kong",
      "eventExpectedVolatility": "Low",
      "eventName": "M3 Money Supply (Sep)",
      "eventTimeZone": "GMT",
      "eventPrevious": "1.9%",
      "eventCurrency": "HKD",
      "eventForecast": ""
    }
  ]}}
