{"events": {"event": [
    {
      "eventDateTime": "2017-05-21T21:00:00",
      "eventActual": "-0.1%",
      "eventCountry": "South Korea",
      "eventExpectedVolatility": "Low",
      "eventName": "PPI (MoM) (Apr)",
      "eventTimeZone": "GMT",
      "eventPrevious": "-0.1%",
      "eventCurrency": "KRW",
      "eventForecast": ""
    },
    {
      "eventDateTime": "2017-05-21T21:00:00",
      "eventActual": "4.0%",
      "eventCountry": "South Korea",
      "eventExpectedVolatility": "Low",
      "eventName": "PPI (YoY) (Apr)",
      "eventTimeZone": "GMT",
      "eventPrevious": "4.3%",
      "eventCurrency": "KRW",
      "eventForecast": ""
    }
  ]}}
