{"events": {"event": [
    {
      "eventDateTime": "2017-02-23T07:00:00",
      "eventActual": "0.4%",
      "eventCountry": "Germany",
      "eventExpectedVolatility": "High",
      "eventName": "German GDP (QoQ) (Q4)",
      "eventTimeZone": "GMT",
      "eventPrevious": "0.4%",
      "eventCurrency": "EUR",
      "eventForecast": "0.4%"
    },
    {
      "eventDateTime": "2017-02-23T07:00:00",
      "eventActual": "1.2%",
      "eventCountry": "Germany",
      "eventExpectedVolatility": "Moderate",
      "eventName": "German GDP (YoY) (Q4)",
      "eventTimeZone": "GMT",
      "eventPrevious": "1.2%",
      "eventCurrency": "EUR",
      "eventForecast": "1.2%"
    },
    {
      "eventDateTime": "2017-02-23T07:00:00",
      "eventActual": "10.0",
      "eventCountry": "Germany",
      "eventExpectedVolatility": "Moderate",
      "eventName": "GfK German Consumer Climate (Mar)",
      "eventTimeZone": "GMT",
      "eventPrevious": "10.2",
      "eventCurrency": "EUR",
      "eventForecast": "10.1"
    },
    {
      "eventDateTime": "2017-02-23T07:45:00",
      "eventActual": "107",
      "eventCountry": "France",
      "eventExpectedVolatility": "Low",
      "eventName": "French Business Survey (Feb)",
      "eventTimeZone": "GMT",
      "eventPrevious": "106",
      "eventCurrency": "EUR",
      "eventForecast": "106"
    },
    {
      "eventDateTime": "2017-02-23T09:00:00",
      "eventActual": "-0.5%",
      "eventCountry": "Italy",
      "eventExpectedVolatility": "Low",
      "eventName": "Italian Retail Sales (MoM) (Dec)",
      "eventTimeZone": "GMT",
      "eventPrevious": "-0.7%",
      "eventCurrency": "EUR",
      "eventForecast": "0.2%"
    },
    {
      "eventDateTime": "2017-02-23T09:00:00",
      "eventActual": "-0.2%",
      "eventCountry": "Italy",
      "eventExpectedVolatility": "Low",
      "eventName": "Italian Retail Sales (YoY) (Dec)",
      "eventTimeZone": "GMT",
      "eventPrevious": "0.8%",
      "eventCurrency": "EUR",
      "eventForecast": "0.8%"
    },
    {
      "eventDateTime": "2017-02-23T10:20:00",
      "eventActual": "-0.029%",
      "eventCountry": "Italy",
      "eventExpectedVolatility": "Low",
      "eventName": "Italian 2-Year CTZ Auction",
      "eventTimeZone": "GMT",
      "eventPrevious": "-0.071%",
      "eventCurrency": "EUR",
      "eventForecast": ""
    }
  ]}}
