"French Manufacturing PMI";"France";"EUR";"2012-10-24T06:58:00";"GMT";"42.7";"44.0";"43.5";"Moderate"
"French Services PMI";"France";"EUR";"2012-10-24T06:58:00";"GMT";"45.0";"45.7";"46.2";"Moderate"
"German Manufacturing PMI";"Germany";"EUR";"2012-10-24T07:28:00";"GMT";"47.4";"48.0";"45.7";"High"
"German Services PMI";"Germany";"EUR";"2012-10-24T07:28:00";"GMT";"49.7";"50.0";"49.3";"Moderate"
"German Business Expectations";"Germany";"EUR";"2012-10-24T08:00:00";"GMT";"93.2";"93.7";"93.2";"Moderate"
"German Current Assessment";"Germany";"EUR";"2012-10-24T08:00:00";"GMT";"110.3";"109.8";"107.3";"Moderate"
"German Ifo Business Climate Index";"Germany";"EUR";"2012-10-24T08:00:00";"GMT";"94.7";"";"95.1";"High"
"Italian Consumer Confidence";"Italy";"EUR";"2012-10-24T08:00:00";"GMT";"86.2";"86.5";"86.4";"Low"
"Manufacturing PMI";"Euro Zone";"EUR";"2012-10-24T08:00:00";"GMT";"46.1";"46.6";"45.3";"Moderate"
"Services PMI";"Euro Zone";"EUR";"2012-10-24T08:00:00";"GMT";"46.1";"46.5";"46.2";"Moderate"
"German 10-Year Bund Auction";"Germany";"EUR";"2012-10-24T09:35:00";"GMT";"1.520%";"";"1.560%";"Moderate"
"ECB President Draghi Speaks";"Euro Zone";"EUR";"2012-10-24T11:45:00";"GMT";" ";"";"";"High"
"ECB President Draghi Speaks";"Euro Zone";"EUR";"2012-10-24T14:00:00";"GMT";" ";"";"";"High"
