"NY Empire State Manufacturing Index";"United States";"USD";"2008-08-15T12:30:00";"GMT";"-4.9";"-4.3";"2.8";"Moderate"
"TIC Net Long-Term Transactions";"United States";"USD";"2008-08-15T13:00:00";"GMT";"67.0B";"55.0B";"53.4B";"Moderate"
"Capacity Utilization Rate";"United States";"USD";"2008-08-15T13:15:00";"GMT";"79.9%";"79.8%";"79.9%";"Low"
"Industrial Production (MoM)";"United States";"USD";"2008-08-15T13:15:00";"GMT";"0.5%";"";"0.2%";"Moderate"
"Michigan Consumer Sentiment";"United States";"USD";"2008-08-15T14:00:00";"GMT";"61.2";"62.0";"61.7";"Moderate"
"U.S. Baker Hughes Oil Rig Count";"United States";"USD";"2008-08-15T17:00:00";"GMT";"387";"";"395";"Moderate"
"CFTC Gold speculative net positions";"United States";"USD";"2008-08-15T19:30:00";"GMT";"163.7K";"";"130.7K";"Moderate"
"CFTC Silver speculative net positions";"United States";"USD";"2008-08-15T19:30:00";"GMT";"37.2K";"";"36.0K";"Low"
"CFTC Crude Oil speculative net positions";"United States";"USD";"2008-08-15T20:30:00";"GMT";"-5.6k";"";"-9.1k";"Moderate"
