{"events": {"event": {
    "eventDateTime": "2012-07-18T15:30:00",
    "eventActual": "-0.21B",
    "eventCountry": "Brazil",
    "eventExpectedVolatility": "Low",
    "eventName": "Foreign Exchange Flows",
    "eventTimeZone": "GMT",
    "eventPrevious": "0.40B",
    "eventCurrency": "BRL",
    "eventForecast": ""
  }}}
