"German CPI (MoM) (Jun)";"Germany";"EUR";"2018-07-12T06:00:00";"GMT";"0.1%";"0.1%";"0.1%";"Moderate"
"German CPI (YoY) (Jun)";"Germany";"EUR";"2018-07-12T06:00:00";"GMT";"2.1%";"2.1%";"2.1%";"Low"
"German HICP (MoM) (Jun)";"Germany";"EUR";"2018-07-12T06:00:00";"GMT";"0.1%";"0.1%";"0.1%";"Low"
"German HICP (YoY) (Jun)";"Germany";"EUR";"2018-07-12T06:00:00";"GMT";"2.1%";"2.1%";"2.1%";"Low"
"French CPI (MoM) (Jun)";"France";"EUR";"2018-07-12T06:45:00";"GMT";"0.1%";"0.1%";"0.0%";"Moderate"
"French CPI (YoY)";"France";"EUR";"2018-07-12T06:45:00";"GMT";"2.1%";"2.1%";"2.0%";"Low"
"French HICP (MoM) (Jun)";"France";"EUR";"2018-07-12T06:45:00";"GMT";"0.1%";"0.1%";"0.0%";"Moderate"
"French HICP (YoY) (Jun)";"France";"EUR";"2018-07-12T06:45:00";"GMT";"2.4%";"2.4%";"2.3%";"Low"
"Eurogroup Meetings";"Euro Zone";"EUR";"2018-07-12T09:00:00";"GMT";" ";"";"";"Moderate"
"Industrial Production (MoM) (May)";"Euro Zone";"EUR";"2018-07-12T09:00:00";"GMT";"-0.8%";"1.2%";"1.3%";"Moderate"
"Industrial Production (YoY) (May)";"Euro Zone";"EUR";"2018-07-12T09:00:00";"GMT";"1.7%";"2.1%";"2.4%";"Low"
"Italian 15-Year BTP Auction";"Italy";"EUR";"2018-07-12T09:25:00";"GMT";"2.63%";"";"3.04%";"Low"
"Italian 3-Year BTP Auction";"Italy";"EUR";"2018-07-12T09:25:00";"GMT";"1.16%";"";"1.10%";"Low"
"Italian 30-Year BTP Auction";"Italy";"EUR";"2018-07-12T09:25:00";"GMT";"3.540%";"";"3.280%";"Low"
"Italian 7-Year BTP Auction";"Italy";"EUR";"2018-07-12T09:25:00";"GMT";"2.37%";"";"2.31%";"Low"
"ECB Publishes Account of Monetary Policy Meeting";"Euro Zone";"EUR";"2018-07-12T11:30:00";"GMT";" ";"";"";"High"
