{"events": {"event": {
    "eventDateTime": "2010-01-22T20:30:00",
    "eventActual": "16.4K",
    "eventCountry": "New Zealand",
    "eventExpectedVolatility": "Low",
    "eventName": "CFTC NZD speculative net positions",
    "eventTimeZone": "GMT",
    "eventPrevious": "15.7K",
    "eventCurrency": "NZD",
    "eventForecast": ""
  }}}
