{"events": {"event": {
    "eventDateTime": "2017-02-24T20:30:00",
    "eventActual": "33.5K",
    "eventCountry": "Australia",
    "eventExpectedVolatility": "Moderate",
    "eventName": "CFTC AUD speculative net positions",
    "eventTimeZone": "GMT",
    "eventPrevious": "24.2K",
    "eventCurrency": "AUD",
    "eventForecast": ""
  }}}
