"Exports (MoM) (Apr)";"Hong Kong";"HKD";"2016-05-26T08:30:00";"GMT";"-7.0%";"-7.8%";"-2.3%";"Low"
"Imports (MoM) (Apr)";"Hong Kong";"HKD";"2016-05-26T08:30:00";"GMT";"-5.8%";"-6.0%";"-4.5%";"Low"
"Trade Balance";"Hong Kong";"HKD";"2016-05-26T08:30:00";"GMT";"-47.0B";"-38.6B";"-31.0B";"Low"
