"Spanish Manufacturing PMI (Feb)";"Spain";"EUR";"2016-03-01T08:15:00";"GMT";"55.4";"54.4";"54.1";"Moderate"
"Italian Manufacturing PMI (Feb)";"Italy";"EUR";"2016-03-01T08:45:00";"GMT";"53.2";"52.5";"52.2";"Moderate"
"French Manufacturing PMI (Feb)";"France";"EUR";"2016-03-01T08:50:00";"GMT";"50.3";"50.3";"50.2";"Moderate"
"German Manufacturing PMI (Feb)";"Germany";"EUR";"2016-03-01T08:55:00";"GMT";"50.2";"50.2";"50.5";"High"
"German Unemployment (Feb)";"Germany";"EUR";"2016-03-01T08:55:00";"GMT";"2.700M";"";"2.700M";"Low"
"German Unemployment Change (Feb)";"Germany";"EUR";"2016-03-01T08:55:00";"GMT";"-19K";"-10K";"-10K";"High"
"German Unemployment Rate (Feb)";"Germany";"EUR";"2016-03-01T08:55:00";"GMT";"6.2%";"6.2%";"6.2%";"Moderate"
"German Unemployment n.s.a. (Feb)";"Germany";"EUR";"2016-03-01T08:55:00";"GMT";"2.920M";"2.900M";"2.900M";"Low"
"Italian Monthly Unemployment Rate (Jan)";"Italy";"EUR";"2016-03-01T09:00:00";"GMT";"11.6%";"11.4%";"11.5%";"Low"
"Manufacturing PMI (Feb)";"Euro Zone";"EUR";"2016-03-01T09:00:00";"GMT";"51.0";"51.0";"51.2";"Moderate"
"Unemployment Rate (Jan)";"Euro Zone";"EUR";"2016-03-01T10:00:00";"GMT";"10.4%";"10.4%";"10.3%";"Moderate"
