{"events": {"event": [
    {
      "eventDateTime": "2008-05-23T07:45:00",
      "eventActual": "-0.8%",
      "eventCountry": "France",
      "eventExpectedVolatility": "Moderate",
      "eventName": "French Consumer Spending (MoM)",
      "eventTimeZone": "GMT",
      "eventPrevious": "-1.7%",
      "eventCurrency": "EUR",
      "eventForecast": "0.4%"
    },
    {
      "eventDateTime": "2008-05-23T08:30:00",
      "eventActual": "53.5",
      "eventCountry": "Germany",
      "eventExpectedVolatility": "High",
      "eventName": "German Manufacturing PMI",
      "eventTimeZone": "GMT",
      "eventPrevious": "53.6",
      "eventCurrency": "EUR",
      "eventForecast": "53.3"
    },
    {
      "eventDateTime": "2008-05-23T08:30:00",
      "eventActual": "53.7",
      "eventCountry": "Germany",
      "eventExpectedVolatility": "Moderate",
      "eventName": "German Services PMI",
      "eventTimeZone": "GMT",
      "eventPrevious": "54.9",
      "eventCurrency": "EUR",
      "eventForecast": "54.0"
    },
    {
      "eventDateTime": "2008-05-23T09:00:00",
      "eventActual": "50.5",
      "eventCountry": "Euro Zone",
      "eventExpectedVolatility": "Moderate",
      "eventName": "Manufacturing PMI",
      "eventTimeZone": "GMT",
      "eventPrevious": "50.7",
      "eventCurrency": "EUR",
      "eventForecast": "50.5"
    },
    {
      "eventDateTime": "2008-05-23T09:00:00",
      "eventActual": "50.6",
      "eventCountry": "Euro Zone",
      "eventExpectedVolatility": "Moderate",
      "eventName": "Services PMI",
      "eventTimeZone": "GMT",
      "eventPrevious": "52.0",
      "eventCurrency": "EUR",
      "eventForecast": "51.7"
    },
    {
      "eventDateTime": "2008-05-23T10:00:00",
      "eventActual": "0.4%",
      "eventCountry": "Italy",
      "eventExpectedVolatility": "Low",
      "eventName": "Italian GDP (QoQ)",
      "eventTimeZone": "GMT",
      "eventPrevious": "",
      "eventCurrency": "EUR",
      "eventForecast": ""
    },
    {
      "eventDateTime": "2008-05-23T19:30:00",
      "eventActual": "6.8K",
      "eventCountry": "Euro Zone",
      "eventExpectedVolatility": "Moderate",
      "eventName": "CFTC EUR speculative net positions",
      "eventTimeZone": "GMT",
      "eventPrevious": "-9.5K",
      "eventCurrency": "EUR",
      "eventForecast": ""
    }
  ]}}
