"RBI Financial Stability Report";"India";"INR";"2017-06-30T04:30:00";"GMT";" ";"";"";"Moderate"
"Federal Fiscal Deficit (May)";"India";"INR";"2017-06-30T10:00:00";"GMT";"5,350.68B";"";"3,733.61B";"Low"
"FX Reserves, USD";"India";"INR";"2017-06-30T11:30:00";"GMT";"381.96B";"";"382.53B";"Low"
"Infrastructure Output (YoY) (May)";"India";"INR";"2017-06-30T11:30:00";"GMT";"2.5%";"";"3.6%";"Low"
"Foreign Debt (USD) (Q1)";"India";"INR";"2017-06-30T12:10:00";"GMT";"456.1B";"";"471.9B";"Low"
