"Employment Change (Sep)";"Australia";"AUD";"2017-10-19T00:30:00";"GMT";"53.0K";"15.0K";"19.8K";"High"
"Full Employment Change (Sep)";"Australia";"AUD";"2017-10-19T00:30:00";"GMT";"39.5K";"";"6.1K";"Moderate"
"NAB Quarterly Business Confidence";"Australia";"AUD";"2017-10-19T00:30:00";"GMT";"8";"";"7";"Moderate"
"Participation Rate (Sep)";"Australia";"AUD";"2017-10-19T00:30:00";"GMT";"65.2%";"65.2%";"65.2%";"Low"
"Unemployment Rate (Sep)";"Australia";"AUD";"2017-10-19T00:30:00";"GMT";"5.6%";"5.6%";"5.5%";"Moderate"
