"WPI Food (YoY) (Mar)";"India";"INR";"2019-04-15T06:30:00";"GMT";"4.28%";"";"5.68%";"Low"
"WPI Fuel (YoY) (Mar)";"India";"INR";"2019-04-15T06:30:00";"GMT";"2.23%";"";"5.41%";"Low"
"WPI Inflation (YoY) (Mar)";"India";"INR";"2019-04-15T06:30:00";"GMT";"2.93%";"3.20%";"3.18%";"Moderate"
"WPI Manufacturing Inflation (YoY) (Mar)";"India";"INR";"2019-04-15T06:30:00";"GMT";"2.25%";"";"2.16%";"Low"
"Exports (USD) (Mar)";"India";"INR";"2019-04-15T12:57:00";"GMT";"26.67B";"";"32.55B";"Low"
"Imports (USD) (Mar)";"India";"INR";"2019-04-15T12:57:00";"GMT";"36.26B";"";"43.44B";"Low"
"Trade Balance (Mar)";"India";"INR";"2019-04-15T12:58:00";"GMT";"-9.60B";"-10.30B";"-10.89B";"Low"
