"Machine Tool Orders (YoY)";"Japan";"JPY";"2013-07-09T06:00:00";"GMT";"-7.4%";"";"-12.4%";"Low"
"PPI (MoM)";"Japan";"JPY";"2013-07-09T23:50:00";"GMT";"0.1%";"0.0%";"0.1%";"Low"
"PPI (YoY)";"Japan";"JPY";"2013-07-09T23:50:00";"GMT";"0.6%";"1.2%";"1.2%";"Low"
"Tertiary Industry Activity Index (MoM)";"Japan";"JPY";"2013-07-09T23:50:00";"GMT";"-0.5%";"0.9%";"1.2%";"Moderate"
