{"events": {"event": {
    "eventDateTime": "2008-06-11T07:45:00",
    "eventActual": "0.5%",
    "eventCountry": "France",
    "eventExpectedVolatility": "Moderate",
    "eventName": "French CPI (MoM)",
    "eventTimeZone": "GMT",
    "eventPrevious": "0.3%",
    "eventCurrency": "EUR",
    "eventForecast": "0.4%"
  }}}
