"Economy Watchers Current Index";"Japan";"JPY";"2009-10-08T05:00:00";"GMT";"41.7";"42.5";"43.1";"Low"
"Machine Tool Orders (YoY)";"Japan";"JPY";"2009-10-08T06:00:00";"GMT";"-71.5%";"";"-61.9%";"Low"
"Core Machinery Orders (MoM)";"Japan";"JPY";"2009-10-08T23:50:00";"GMT";"-9.3%";"2.2%";"0.5%";"Low"
