"Business Confidence (Oct)";"South Africa";"ZAR";"2007-11-01T09:00:00";"GMT";"116.40";"";"114.30";"Low"
"CPI (MoM) (Oct)";"South Africa";"ZAR";"2007-11-01T09:00:00";"GMT";"0.83%";"";"0.83%";"Moderate"
"CPI (YoY) (Oct)";"South Africa";"ZAR";"2007-11-01T09:00:00";"GMT";"7.25%";"";"7.98%";"Low"
"Foreign Reserves (USD) (Oct)";"South Africa";"ZAR";"2007-11-01T09:00:00";"GMT";"30.52B";"";"31.76B";"Low"
"Gold Production (YoY) (Oct)";"South Africa";"ZAR";"2007-11-01T09:00:00";"GMT";"-6.18%";"";"-6.14%";"Low"
"Interest Rate Decision (Oct)";"South Africa";"ZAR";"2007-11-01T09:00:00";"GMT";"10.00%";"";"10.50%";"Moderate"
"M3 Money Supply (YoY) (Oct)";"South Africa";"ZAR";"2007-11-01T09:00:00";"GMT";"24.94%";"";"23.34%";"Low"
"Mining Production (Oct)";"South Africa";"ZAR";"2007-11-01T09:00:00";"GMT";"-0.92%";"";"-3.29%";"Low"
"Net FX Reserves (USD) (Oct)";"South Africa";"ZAR";"2007-11-01T09:00:00";"GMT";"28.42B";"";"29.93B";"Low"
"Prime Rate (Oct)";"South Africa";"ZAR";"2007-11-01T09:00:00";"GMT";"13.50%";"";"14.00%";"Low"
"Private Sector Credit (Oct)";"South Africa";"ZAR";"2007-11-01T09:00:00";"GMT";"22.59%";"";"22.38%";"Low"
"Retail Sales (YoY) (Oct)";"South Africa";"ZAR";"2007-11-01T09:00:00";"GMT";"2.30%";"";"3.50%";"Low"
"Total Vehicle Sales (Oct)";"South Africa";"ZAR";"2007-11-01T09:00:00";"GMT";"54.38K";"";"60.40K";"Low"
"Total Vehicle Sales (YoY) (Oct)";"South Africa";"ZAR";"2007-11-01T09:00:00";"GMT";"-13.10%";"";"-4.10%";"Low"
