{"events": {"event": {
    "eventDateTime": "2019-07-03T13:00:00",
    "eventActual": "49.6",
    "eventCountry": "Singapore",
    "eventExpectedVolatility": "Low",
    "eventName": "Manufacturing PMI (Jun)",
    "eventTimeZone": "GMT",
    "eventPrevious": "49.9",
    "eventCurrency": "SGD",
    "eventForecast": ""
  }}}
