"Current Account (Apr)";"Euro Zone";"EUR";"2018-06-19T08:00:00";"GMT";"32.8B";"30.3B";"28.4B";"Low"
"Current Account n.s.a. (Apr)";"Euro Zone";"EUR";"2018-06-19T08:00:00";"GMT";"41.3B";"";"26.2B";"Low"
"ECB President Draghi Speaks";"Euro Zone";"EUR";"2018-06-19T08:00:00";"GMT";" ";"";"";"High"
"ECB's Praet Speaks";"Euro Zone";"EUR";"2018-06-19T08:30:00";"GMT";" ";"";"";"Moderate"
"Spanish 3-Month Letras Auction";"Spain";"EUR";"2018-06-19T08:40:00";"GMT";"-0.502%";"";"-0.510%";"Low"
"German 2-Year Schatz Auction";"Germany";"EUR";"2018-06-19T09:40:00";"GMT";"-0.580%";"";"-0.630%";"Low"
"ECB's Praet Speaks";"Euro Zone";"EUR";"2018-06-19T11:00:00";"GMT";" ";"";"";"Moderate"
