{"events": {"event": [
    {
      "eventDateTime": "2018-06-19T08:00:00",
      "eventActual": "28.4B",
      "eventCountry": "Euro Zone",
      "eventExpectedVolatility": "Low",
      "eventName": "Current Account (Apr)",
      "eventTimeZone": "GMT",
      "eventPrevious": "32.8B",
      "eventCurrency": "EUR",
      "eventForecast": "30.3B"
    },
    {
      "eventDateTime": "2018-06-19T08:00:00",
      "eventActual": "26.2B",
      "eventCountry": "Euro Zone",
      "eventExpectedVolatility": "Low",
      "eventName": "Current Account n.s.a. (Apr)",
      "eventTimeZone": "GMT",
      "eventPrevious": "41.3B",
      "eventCurrency": "EUR",
      "eventForecast": ""
    },
    {
      "eventDateTime": "2018-06-19T08:00:00",
      "eventActual": "",
      "eventCountry": "Euro Zone",
      "eventExpectedVolatility": "High",
      "eventName": "ECB President Draghi Speaks",
      "eventTimeZone": "GMT",
      "eventPrevious": "",
      "eventCurrency": "EUR",
      "eventForecast": ""
    },
    {
      "eventDateTime": "2018-06-19T08:30:00",
      "eventActual": "",
      "eventCountry": "Euro Zone",
      "eventExpectedVolatility": "Moderate",
      "eventName": "ECB's Praet Speaks",
      "eventTimeZone": "GMT",
      "eventPrevious": "",
      "eventCurrency": "EUR",
      "eventForecast": ""
    },
    {
      "eventDateTime": "2018-06-19T08:40:00",
      "eventActual": "-0.510%",
      "eventCountry": "Spain",
      "eventExpectedVolatility": "Low",
      "eventName": "Spanish 3-Month Letras Auction",
      "eventTimeZone": "GMT",
      "eventPrevious": "-0.502%",
      "eventCurrency": "EUR",
      "eventForecast": ""
    },
    {
      "eventDateTime": "2018-06-19T09:40:00",
      "eventActual": "-0.630%",
      "eventCountry": "Germany",
      "eventExpectedVolatility": "Low",
      "eventName": "German 2-Year Schatz Auction",
      "eventTimeZone": "GMT",
      "eventPrevious": "-0.580%",
      "eventCurrency": "EUR",
      "eventForecast": ""
    },
    {
      "eventDateTime": "2018-06-19T11:00:00",
      "eventActual": "",
      "eventCountry": "Euro Zone",
      "eventExpectedVolatility": "Moderate",
      "eventName": "ECB's Praet Speaks",
      "eventTimeZone": "GMT",
      "eventPrevious": "",
      "eventCurrency": "EUR",
      "eventForecast": ""
    }
  ]}}
