{"events": {"event": {
    "eventDateTime": "2014-08-14T12:30:00",
    "eventActual": "0.2%",
    "eventCountry": "Canada",
    "eventExpectedVolatility": "Moderate",
    "eventName": "New Housing Price Index (MoM)",
    "eventTimeZone": "GMT",
    "eventPrevious": "0.1%",
    "eventCurrency": "CAD",
    "eventForecast": "0.2%"
  }}}
