{"events": {"event": {
    "eventDateTime": "2014-06-25T06:00:00",
    "eventActual": "1.77",
    "eventCountry": "Switzerland",
    "eventExpectedVolatility": "Low",
    "eventName": "Consumption Indicator",
    "eventTimeZone": "GMT",
    "eventPrevious": "1.68",
    "eventCurrency": "CHF",
    "eventForecast": ""
  }}}
