"TIC Net Long-Term Transactions";"United States";"USD";"2010-10-18T13:00:00";"GMT";"61.2B";"47.5B";"128.7B";"Moderate"
"Capacity Utilization Rate";"United States";"USD";"2010-10-18T13:15:00";"GMT";"74.8%";"74.8%";"74.7%";"Low"
"Industrial Production (MoM)";"United States";"USD";"2010-10-18T13:15:00";"GMT";"0.2%";"0.2%";"-0.2%";"Moderate"
"NAHB Housing Market Index";"United States";"USD";"2010-10-18T14:00:00";"GMT";"13";"13";"16";"Low"
"Treasury Secretary Geithner Speaks";"United States";"USD";"2010-10-18T20:00:00";"GMT";" ";"";"";"Moderate"
