"PPI (MoM)";"Russia";"RUB";"2017-04-18T13:00:00";"GMT";"0.8%";"";"-0.3%";"Low"
"PPI (YoY)";"Russia";"RUB";"2017-04-18T13:00:00";"GMT";"15.1%";"";"11.3%";"Low"
"Retail Sales (YoY)";"Russia";"RUB";"2017-04-18T13:00:00";"GMT";"-2.6%";"-1.2%";"-0.4%";"Moderate"
"Unemployment Rate";"Russia";"RUB";"2017-04-18T13:00:00";"GMT";"5.6%";"5.6%";"5.4%";"Moderate"
