{"events": {"event": [
    {
      "eventDateTime": "2017-04-18T13:00:00",
      "eventActual": "-0.3%",
      "eventCountry": "Russia",
      "eventExpectedVolatility": "Low",
      "eventName": "PPI (MoM)",
      "eventTimeZone": "GMT",
      "eventPrevious": "0.8%",
      "eventCurrency": "RUB",
      "eventForecast": ""
    },
    {
      "eventDateTime": "2017-04-18T13:00:00",
      "eventActual": "11.3%",
      "eventCountry": "Russia",
      "eventExpectedVolatility": "Low",
      "eventName": "PPI (YoY)",
      "eventTimeZone": "GMT",
      "eventPrevious": "15.1%",
      "eventCurrency": "RUB",
      "eventForecast": ""
    },
    {
      "eventDateTime": "2017-04-18T13:00:00",
      "eventActual": "-0.4%",
      "eventCountry": "Russia",
      "eventExpectedVolatility": "Moderate",
      "eventName": "Retail Sales (YoY)",
      "eventTimeZone": "GMT",
      "eventPrevious": "-2.6%",
      "eventCurrency": "RUB",
      "eventForecast": "-1.2%"
    },
    {
      "eventDateTime": "2017-04-18T13:00:00",
      "eventActual": "5.4%",
      "eventCountry": "Russia",
      "eventExpectedVolatility": "Moderate",
      "eventName": "Unemployment Rate",
      "eventTimeZone": "GMT",
      "eventPrevious": "5.6%",
      "eventCurrency": "RUB",
      "eventForecast": "5.6%"
    }
  ]}}
