{"events": {"event": [
    {
      "eventDateTime": "2012-11-13T07:45:00",
      "eventActual": "-3.30B",
      "eventCountry": "France",
      "eventExpectedVolatility": "Low",
      "eventName": "French Current Account",
      "eventTimeZone": "GMT",
      "eventPrevious": "-3.60B",
      "eventCurrency": "EUR",
      "eventForecast": ""
    },
    {
      "eventDateTime": "2012-11-13T07:45:00",
      "eventActual": "-0.3%",
      "eventCountry": "France",
      "eventExpectedVolatility": "Moderate",
      "eventName": "French Non-Farm Payrolls (QoQ)",
      "eventTimeZone": "GMT",
      "eventPrevious": "-0.1%",
      "eventCurrency": "EUR",
      "eventForecast": "-0.2%"
    },
    {
      "eventDateTime": "2012-11-13T08:00:00",
      "eventActual": "0.8%",
      "eventCountry": "Spain",
      "eventExpectedVolatility": "Low",
      "eventName": "Spanish CPI (MoM)",
      "eventTimeZone": "GMT",
      "eventPrevious": "1.0%",
      "eventCurrency": "EUR",
      "eventForecast": "0.9%"
    },
    {
      "eventDateTime": "2012-11-13T09:00:00",
      "eventActual": "0.0%",
      "eventCountry": "Italy",
      "eventExpectedVolatility": "Moderate",
      "eventName": "Italian CPI (MoM)",
      "eventTimeZone": "GMT",
      "eventPrevious": "0.0%",
      "eventCurrency": "EUR",
      "eventForecast": "0.0%"
    },
    {
      "eventDateTime": "2012-11-13T09:00:00",
      "eventActual": "2.6%",
      "eventCountry": "Italy",
      "eventExpectedVolatility": "Low",
      "eventName": "Italian CPI (YoY)",
      "eventTimeZone": "GMT",
      "eventPrevious": "2.6%",
      "eventCurrency": "EUR",
      "eventForecast": "2.6%"
    },
    {
      "eventDateTime": "2012-11-13T10:00:00",
      "eventActual": "-15.7",
      "eventCountry": "Germany",
      "eventExpectedVolatility": "High",
      "eventName": "German ZEW Economic Sentiment",
      "eventTimeZone": "GMT",
      "eventPrevious": "-11.5",
      "eventCurrency": "EUR",
      "eventForecast": "-9.8"
    },
    {
      "eventDateTime": "2012-11-13T10:00:00",
      "eventActual": "-2.6",
      "eventCountry": "Euro Zone",
      "eventExpectedVolatility": "Moderate",
      "eventName": "ZEW Economic Sentiment",
      "eventTimeZone": "GMT",
      "eventPrevious": "-1.4",
      "eventCurrency": "EUR",
      "eventForecast": "0.2"
    },
    {
      "eventDateTime": "2012-11-13T10:10:00",
      "eventActual": "1.762%",
      "eventCountry": "Italy",
      "eventExpectedVolatility": "Low",
      "eventName": "Italian 12-Month BOT Auction",
      "eventTimeZone": "GMT",
      "eventPrevious": "1.941%",
      "eventCurrency": "EUR",
      "eventForecast": ""
    }
  ]}}
