"NFIB Small Business Optimism";"United States";"USD";"2012-01-10T12:30:00";"GMT";"92.0";"93.8";"93.8";"Low"
"IBD/TIPP Economic Optimism";"United States";"USD";"2012-01-10T15:00:00";"GMT";"42.8";"45.3";"47.5";"Low"
"Wholesale Inventories (MoM)";"United States";"USD";"2012-01-10T15:00:00";"GMT";"1.2%";"0.5%";"0.1%";"Low"
