{"events": {"event": [
    {
      "eventDateTime": "2003-11-01T09:00:00",
      "eventActual": "11.94%",
      "eventCountry": "India",
      "eventExpectedVolatility": "Low",
      "eventName": "Bank Loan Growth (Oct)",
      "eventTimeZone": "GMT",
      "eventPrevious": "11.46%",
      "eventCurrency": "INR",
      "eventForecast": ""
    },
    {
      "eventDateTime": "2003-11-01T09:00:00",
      "eventActual": "4.50%",
      "eventCountry": "India",
      "eventExpectedVolatility": "Low",
      "eventName": "Cash Reserve Ratio (Oct)",
      "eventTimeZone": "GMT",
      "eventPrevious": "4.50%",
      "eventCurrency": "INR",
      "eventForecast": ""
    },
    {
      "eventDateTime": "2003-11-01T09:00:00",
      "eventActual": "11.72%",
      "eventCountry": "India",
      "eventExpectedVolatility": "Low",
      "eventName": "Deposit Growth (Oct)",
      "eventTimeZone": "GMT",
      "eventPrevious": "11.97%",
      "eventCurrency": "INR",
      "eventForecast": ""
    },
    {
      "eventDateTime": "2003-11-01T09:00:00",
      "eventActual": "5.61B",
      "eventCountry": "India",
      "eventExpectedVolatility": "Low",
      "eventName": "Exports (USD) (Oct)",
      "eventTimeZone": "GMT",
      "eventPrevious": "5.48B",
      "eventCurrency": "INR",
      "eventForecast": ""
    },
    {
      "eventDateTime": "2003-11-01T09:00:00",
      "eventActual": "92.60B",
      "eventCountry": "India",
      "eventExpectedVolatility": "Low",
      "eventName": "FX Reserves, USD (Oct)",
      "eventTimeZone": "GMT",
      "eventPrevious": "87.74B",
      "eventCurrency": "INR",
      "eventForecast": ""
    },
    {
      "eventDateTime": "2003-11-01T09:00:00",
      "eventActual": "859.78B",
      "eventCountry": "India",
      "eventExpectedVolatility": "Low",
      "eventName": "Federal Fiscal Deficit (Oct)",
      "eventTimeZone": "GMT",
      "eventPrevious": "810.14B",
      "eventCurrency": "INR",
      "eventForecast": ""
    },
    {
      "eventDateTime": "2003-11-01T09:00:00",
      "eventActual": "7.02B",
      "eventCountry": "India",
      "eventExpectedVolatility": "Low",
      "eventName": "Imports (USD) (Oct)",
      "eventTimeZone": "GMT",
      "eventPrevious": "6.30B",
      "eventCurrency": "INR",
      "eventForecast": ""
    },
    {
      "eventDateTime": "2003-11-01T09:00:00",
      "eventActual": "4.50%",
      "eventCountry": "India",
      "eventExpectedVolatility": "High",
      "eventName": "Interest Rate Decision (Oct)",
      "eventTimeZone": "GMT",
      "eventPrevious": "4.50%",
      "eventCurrency": "INR",
      "eventForecast": ""
    },
    {
      "eventDateTime": "2003-11-01T09:00:00",
      "eventActual": "11.53%",
      "eventCountry": "India",
      "eventExpectedVolatility": "Low",
      "eventName": "M3 Money Supply (Oct)",
      "eventTimeZone": "GMT",
      "eventPrevious": "11.69%",
      "eventCurrency": "INR",
      "eventForecast": ""
    },
    {
      "eventDateTime": "2003-11-01T09:00:00",
      "eventActual": "7.00%",
      "eventCountry": "India",
      "eventExpectedVolatility": "Low",
      "eventName": "Reverse REPO Rate (Oct)",
      "eventTimeZone": "GMT",
      "eventPrevious": "7.00%",
      "eventCurrency": "INR",
      "eventForecast": ""
    },
    {
      "eventDateTime": "2003-11-01T09:00:00",
      "eventActual": "-1.41B",
      "eventCountry": "India",
      "eventExpectedVolatility": "Low",
      "eventName": "Trade Balance (Oct)",
      "eventTimeZone": "GMT",
      "eventPrevious": "-0.82B",
      "eventCurrency": "INR",
      "eventForecast": ""
    }
  ]}}
