{"events": {"event": {
    "eventDateTime": "2013-09-19T13:00:00",
    "eventActual": "5.00%",
    "eventCountry": "South Africa",
    "eventExpectedVolatility": "Moderate",
    "eventName": "Interest Rate Decision",
    "eventTimeZone": "GMT",
    "eventPrevious": "5.00%",
    "eventCurrency": "ZAR",
    "eventForecast": "5.00%"
  }}}
