{"events": {"event": {
    "eventDateTime": "2012-01-08T21:45:00",
    "eventActual": "-308M",
    "eventCountry": "New Zealand",
    "eventExpectedVolatility": "Moderate",
    "eventName": "Trade Balance (MoM)",
    "eventTimeZone": "GMT",
    "eventPrevious": "-228M",
    "eventCurrency": "NZD",
    "eventForecast": "-300M"
  }}}
