"Average Hourly Earnings (MoM)";"United States";"USD";"2014-04-04T12:30:00";"GMT";"0.4%";"0.2%";"0.0%";"Moderate"
"Average Weekly Hours";"United States";"USD";"2014-04-04T12:30:00";"GMT";"34.3";"34.4";"34.5";"Low"
"Nonfarm Payrolls";"United States";"USD";"2014-04-04T12:30:00";"GMT";"197K";"200K";"192K";"High"
"Private Nonfarm Payrolls";"United States";"USD";"2014-04-04T12:30:00";"GMT";"188K";"195K";"192K";"Moderate"
"U6 Unemployment Rate (Mar)";"United States";"USD";"2014-04-04T12:30:00";"GMT";"12.60%";"";"12.60%";"Low"
"Unemployment Rate";"United States";"USD";"2014-04-04T12:30:00";"GMT";"6.7%";"6.6%";"6.7%";"High"
"U.S. Baker Hughes Oil Rig Count";"United States";"USD";"2014-04-04T17:00:00";"GMT";"1487";"";"1498";"Moderate"
"CFTC Gold speculative net positions";"United States";"USD";"2014-04-04T19:30:00";"GMT";"117.3K";"";"100.1K";"Moderate"
"CFTC Silver speculative net positions";"United States";"USD";"2014-04-04T19:30:00";"GMT";"19.0K";"";"14.5K";"Low"
"Global Semiconductor Sales (MoM)";"United States";"USD";"2014-04-04T20:00:00";"GMT";"-1.4%";"";"-1.5%";"Low"
"CFTC Crude Oil speculative net positions";"United States";"USD";"2014-04-04T20:30:00";"GMT";"391.2k";"";"391.8k";"Moderate"
