{"events": {"event": {
    "eventDateTime": "2013-03-27T15:30:00",
    "eventActual": "0.26B",
    "eventCountry": "Brazil",
    "eventExpectedVolatility": "Low",
    "eventName": "Foreign Exchange Flows",
    "eventTimeZone": "GMT",
    "eventPrevious": "-0.99B",
    "eventCurrency": "BRL",
    "eventForecast": ""
  }}}
