{"events": {"event": {
    "eventDateTime": "2013-01-09T21:45:00",
    "eventActual": "-700M",
    "eventCountry": "New Zealand",
    "eventExpectedVolatility": "Moderate",
    "eventName": "Trade Balance (MoM)",
    "eventTimeZone": "GMT",
    "eventPrevious": "-718M",
    "eventCurrency": "NZD",
    "eventForecast": "-620M"
  }}}
