{"events": {"event": {
    "eventDateTime": "2011-02-15T23:00:00",
    "eventActual": "3.6%",
    "eventCountry": "South Korea",
    "eventExpectedVolatility": "Low",
    "eventName": "Unemployment Rate",
    "eventTimeZone": "GMT",
    "eventPrevious": "3.5%",
    "eventCurrency": "KRW",
    "eventForecast": "3.7%"
  }}}
