{"events": {"event": [
    {
      "eventDateTime": "2017-02-09T03:45:00",
      "eventActual": "0.907%",
      "eventCountry": "Japan",
      "eventExpectedVolatility": "Low",
      "eventName": "30-Year JGB Auction",
      "eventTimeZone": "GMT",
      "eventPrevious": "0.745%",
      "eventCurrency": "JPY",
      "eventForecast": ""
    },
    {
      "eventDateTime": "2017-02-09T06:00:00",
      "eventActual": "3.5%",
      "eventCountry": "Japan",
      "eventExpectedVolatility": "Low",
      "eventName": "Machine Tool Orders (YoY)",
      "eventTimeZone": "GMT",
      "eventPrevious": "4.4%",
      "eventCurrency": "JPY",
      "eventForecast": ""
    },
    {
      "eventDateTime": "2017-02-09T23:50:00",
      "eventActual": "0.6%",
      "eventCountry": "Japan",
      "eventExpectedVolatility": "Low",
      "eventName": "PPI (MoM) (Jan)",
      "eventTimeZone": "GMT",
      "eventPrevious": "0.6%",
      "eventCurrency": "JPY",
      "eventForecast": "0.2%"
    },
    {
      "eventDateTime": "2017-02-09T23:50:00",
      "eventActual": "0.5%",
      "eventCountry": "Japan",
      "eventExpectedVolatility": "Low",
      "eventName": "PPI (YoY) (Jan)",
      "eventTimeZone": "GMT",
      "eventPrevious": "-1.2%",
      "eventCurrency": "JPY",
      "eventForecast": "0.0%"
    }
  ]}}
