{"events": {"event": [
    {
      "eventDateTime": "2014-09-01T06:35:00",
      "eventActual": "65.0%",
      "eventCountry": "New Zealand",
      "eventExpectedVolatility": "Moderate",
      "eventName": "Investing.com NZD/USD Index",
      "eventTimeZone": "GMT",
      "eventPrevious": "64.8%",
      "eventCurrency": "NZD",
      "eventForecast": ""
    },
    {
      "eventDateTime": "2014-09-01T09:00:00",
      "eventActual": "65.00%",
      "eventCountry": "New Zealand",
      "eventExpectedVolatility": "Low",
      "eventName": "RBNZ Offshore Holdings (Aug)",
      "eventTimeZone": "GMT",
      "eventPrevious": "63.10%",
      "eventCurrency": "NZD",
      "eventForecast": ""
    },
    {
      "eventDateTime": "2014-09-01T09:00:00",
      "eventActual": "4.80%",
      "eventCountry": "New Zealand",
      "eventExpectedVolatility": "Low",
      "eventName": "REINZ House Price Index (YoY) (Aug)",
      "eventTimeZone": "GMT",
      "eventPrevious": "5.90%",
      "eventCurrency": "NZD",
      "eventForecast": ""
    }
  ]}}
