"Bank Loan Growth";"India";"INR";"2017-06-23T11:30:00";"GMT";"5.1%";"";"6.0%";"Low"
"Deposit Growth";"India";"INR";"2017-06-23T11:30:00";"GMT";"10.9%";"";"11.2%";"Low"
"FX Reserves, USD";"India";"INR";"2017-06-23T11:30:00";"GMT";"381.16B";"";"381.96B";"Low"
