{"events": {"event": [
    {
      "eventDateTime": "2012-06-11T05:00:00",
      "eventActual": "40.7",
      "eventCountry": "Japan",
      "eventExpectedVolatility": "Low",
      "eventName": "Household Confidence",
      "eventTimeZone": "GMT",
      "eventPrevious": "40.0",
      "eventCurrency": "JPY",
      "eventForecast": "39.9"
    },
    {
      "eventDateTime": "2012-06-11T06:00:00",
      "eventActual": "-2.9%",
      "eventCountry": "Japan",
      "eventExpectedVolatility": "Low",
      "eventName": "Machine Tool Orders (YoY)",
      "eventTimeZone": "GMT",
      "eventPrevious": "0.4%",
      "eventCurrency": "JPY",
      "eventForecast": ""
    },
    {
      "eventDateTime": "2012-06-11T23:50:00",
      "eventActual": "-0.5%",
      "eventCountry": "Japan",
      "eventExpectedVolatility": "Low",
      "eventName": "PPI (YoY)",
      "eventTimeZone": "GMT",
      "eventPrevious": "-0.2%",
      "eventCurrency": "JPY",
      "eventForecast": "-0.4%"
    },
    {
      "eventDateTime": "2012-06-11T23:50:00",
      "eventActual": "-0.3%",
      "eventCountry": "Japan",
      "eventExpectedVolatility": "Moderate",
      "eventName": "Tertiary Industry Activity Index (MoM)",
      "eventTimeZone": "GMT",
      "eventPrevious": "-0.6%",
      "eventCurrency": "JPY",
      "eventForecast": "0.4%"
    }
  ]}}
