"Unemployment Rate n.s.a. (Jun)";"Switzerland";"CHF";"2016-07-08T05:45:00";"GMT";"3.2%";"3.3%";"3.1%";"Moderate"
"Unemployment Rate s.a. (Jun)";"Switzerland";"CHF";"2016-07-08T05:45:00";"GMT";"3.3%";"3.5%";"3.3%";"Moderate"
"CFTC CHF speculative net positions";"Switzerland";"CHF";"2016-07-08T19:30:00";"GMT";"10.9K";"";"8.7K";"Low"
