"Services PMI (Jun)";"United Kingdom";"GBP";"2016-07-05T08:30:00";"GMT";"53.5";"52.7";"52.3";"High"
"BoE Financial Stability Report";"United Kingdom";"GBP";"2016-07-05T09:30:00";"GMT";" ";"";"";"Moderate"
"BoE Gov Carney Speaks";"United Kingdom";"GBP";"2016-07-05T10:00:00";"GMT";" ";"";"";"High"
"BRC Shop Price Index (YoY)";"United Kingdom";"GBP";"2016-07-05T23:01:00";"GMT";"-1.8%";"";"-2.0%";"Low"
