"AIG Manufacturing Index (Aug)";"Australia";"AUD";"2001-09-01T09:00:00";"GMT";"50.65";"";"53.90";"Moderate"
"ANZ Internet Job Ads (MoM) (Aug)";"Australia";"AUD";"2001-09-01T09:00:00";"GMT";"-0.60%";"";"-1.60%";"Low"
"ANZ Newspaper Job Ads (MoM) (Aug)";"Australia";"AUD";"2001-09-01T09:00:00";"GMT";"0.00%";"";"0.70%";"Low"
"Building Approvals (MoM) (Aug)";"Australia";"AUD";"2001-09-01T09:00:00";"GMT";"4.30%";"";"14.20%";"Moderate"
"Employment Change (Aug)";"Australia";"AUD";"2001-09-01T09:00:00";"GMT";"13.90K";"";"24.60K";"High"
"Exports (MoM) (Aug)";"Australia";"AUD";"2001-09-01T09:00:00";"GMT";"-0.20%";"";"-3.40%";"Low"
"Full Employment Change (Aug)";"Australia";"AUD";"2001-09-01T09:00:00";"GMT";"-25.00K";"";"13.60K";"Moderate"
"HIA New Home Sales (MoM) (Aug)";"Australia";"AUD";"2001-09-01T09:00:00";"GMT";"-0.30%";"";"-10.90%";"Moderate"
"Home Loans (MoM) (Aug)";"Australia";"AUD";"2001-09-01T09:00:00";"GMT";"1.50%";"";"-1.60%";"Moderate"
"Housing Credit (Aug)";"Australia";"AUD";"2001-09-01T09:00:00";"GMT";"1.20%";"";"1.40%";"Low"
"Imports (MoM) (Aug)";"Australia";"AUD";"2001-09-01T09:00:00";"GMT";"-1.90%";"";"2.10%";"Low"
"Invest Housing Finance (MoM) (Aug)";"Australia";"AUD";"2001-09-01T09:00:00";"GMT";"3.10%";"";"-4.00%";"Low"
"NAB Business Confidence (Aug)";"Australia";"AUD";"2001-09-01T09:00:00";"GMT";"11.00";"";"18.00";"Moderate"
"NAB Business Survey (Aug)";"Australia";"AUD";"2001-09-01T09:00:00";"GMT";"-1.40";"";"-2.60";"Low"
"Participation Rate (Aug)";"Australia";"AUD";"2001-09-01T09:00:00";"GMT";"63.40%";"";"63.50%";"Low"
"Private House Approvals (Aug)";"Australia";"AUD";"2001-09-01T09:00:00";"GMT";"7.90%";"";"8.40%";"Low"
"Private Sector Credit (MoM) (Aug)";"Australia";"AUD";"2001-09-01T09:00:00";"GMT";"0.00%";"";"0.70%";"Moderate"
"RBA Interest Rate Decision (Aug)";"Australia";"AUD";"2001-09-01T09:00:00";"GMT";"5.00%";"";"5.00%";"High"
"Retail Sales (MoM) (Aug)";"Australia";"AUD";"2001-09-01T09:00:00";"GMT";"0.60%";"";"0.10%";"High"
"Trade Balance (Aug)";"Australia";"AUD";"2001-09-01T09:00:00";"GMT";"1.01B";"";"0.29B";"Moderate"
"Unemployment Rate (Aug)";"Australia";"AUD";"2001-09-01T09:00:00";"GMT";"6.90%";"";"6.90%";"Moderate"
"Westpac Consumer Sentiment (Aug)";"Australia";"AUD";"2001-09-01T09:00:00";"GMT";"2.10%";"";"-2.80%";"Moderate"
