{"events": {"event": [
    {
      "eventDateTime": "2016-04-07T06:00:00",
      "eventActual": "46.77B",
      "eventCountry": "South Africa",
      "eventExpectedVolatility": "Low",
      "eventName": "Foreign Reserves (USD) (Mar)",
      "eventTimeZone": "GMT",
      "eventPrevious": "45.75B",
      "eventCurrency": "ZAR",
      "eventForecast": "45.95B"
    },
    {
      "eventDateTime": "2016-04-07T06:00:00",
      "eventActual": "41.170B",
      "eventCountry": "South Africa",
      "eventExpectedVolatility": "Low",
      "eventName": "Net FX Reserves (USD) (Mar)",
      "eventTimeZone": "GMT",
      "eventPrevious": "40.958B",
      "eventCurrency": "ZAR",
      "eventForecast": "40.950B"
    },
    {
      "eventDateTime": "2016-04-07T09:30:00",
      "eventActual": "81.2",
      "eventCountry": "South Africa",
      "eventExpectedVolatility": "Low",
      "eventName": "Business Confidence (Mar)",
      "eventTimeZone": "GMT",
      "eventPrevious": "80.1",
      "eventCurrency": "ZAR",
      "eventForecast": ""
    },
    {
      "eventDateTime": "2016-04-07T11:00:00",
      "eventActual": "1.3%",
      "eventCountry": "South Africa",
      "eventExpectedVolatility": "Low",
      "eventName": "Manufacturing Production (MoM) (Feb)",
      "eventTimeZone": "GMT",
      "eventPrevious": "-1.8%",
      "eventCurrency": "ZAR",
      "eventForecast": "-0.1%"
    }
  ]}}
