{"events": {"event": {
    "eventDateTime": "2008-12-04T06:45:00",
    "eventActual": "0.0%",
    "eventCountry": "Switzerland",
    "eventExpectedVolatility": "Moderate",
    "eventName": "GDP (QoQ)",
    "eventTimeZone": "GMT",
    "eventPrevious": "0.4%",
    "eventCurrency": "CHF",
    "eventForecast": "0.1%"
  }}}
