"FOMC Member Williams Speaks";"United States";"USD";"2019-07-02T10:35:00";"GMT";" ";"";"";"Moderate"
"Redbook (MoM)";"United States";"USD";"2019-07-02T12:55:00";"GMT";"-2.5%";"";"-2.4%";"Low"
"Redbook (YoY)";"United States";"USD";"2019-07-02T12:55:00";"GMT";"5.0%";"";"5.5%";"Low"
"ISM-New York Index (Jun)";"United States";"USD";"2019-07-02T13:45:00";"GMT";"882.1";"";"882.1";"Low"
"IBD/TIPP Economic Optimism";"United States";"USD";"2019-07-02T14:00:00";"GMT";"53.2";"";"56.6";"Low"
"FOMC Member Mester Speaks";"United States";"USD";"2019-07-02T15:00:00";"GMT";" ";"";"";"Moderate"
"API Weekly Crude Oil Stock";"United States";"USD";"2019-07-02T20:30:00";"GMT";"-7.550M";"";"-5.000M";"Moderate"
"Total Vehicle Sales";"United States";"USD";"2019-07-02T20:30:00";"GMT";"17.30M";"17.00M";"17.30M";"Low"
