{"events": {"event": [
    {
      "eventDateTime": "2003-03-01T09:00:00",
      "eventActual": "3.88%",
      "eventCountry": "United States",
      "eventExpectedVolatility": "Moderate",
      "eventName": "10-Year Note Auction (Feb)",
      "eventTimeZone": "GMT",
      "eventPrevious": "4.00%",
      "eventCurrency": "USD",
      "eventForecast": ""
    },
    {
      "eventDateTime": "2003-03-01T09:00:00",
      "eventActual": "3.00%",
      "eventCountry": "United States",
      "eventExpectedVolatility": "Low",
      "eventName": "5-Year Note Auction (Feb)",
      "eventTimeZone": "GMT",
      "eventPrevious": "3.00%",
      "eventCurrency": "USD",
      "eventForecast": ""
    },
    {
      "eventDateTime": "2003-03-01T09:00:00",
      "eventActual": "7.44M",
      "eventCountry": "United States",
      "eventExpectedVolatility": "Low",
      "eventName": "All Car Sales (Feb)",
      "eventTimeZone": "GMT",
      "eventPrevious": "8.06M",
      "eventCurrency": "USD",
      "eventForecast": ""
    },
    {
      "eventDateTime": "2003-03-01T09:00:00",
      "eventActual": "8.37M",
      "eventCountry": "United States",
      "eventExpectedVolatility": "Low",
      "eventName": "All Truck Sales (Feb)",
      "eventTimeZone": "GMT",
      "eventPrevious": "8.36M",
      "eventCurrency": "USD",
      "eventForecast": ""
    },
    {
      "eventDateTime": "2003-03-01T09:00:00",
      "eventActual": "0.80%",
      "eventCountry": "United States",
      "eventExpectedVolatility": "Moderate",
      "eventName": "Business Inventories (MoM) (Feb)",
      "eventTimeZone": "GMT",
      "eventPrevious": "0.10%",
      "eventCurrency": "USD",
      "eventForecast": ""
    },
    {
      "eventDateTime": "2003-03-01T09:00:00",
      "eventActual": "64.80",
      "eventCountry": "United States",
      "eventExpectedVolatility": "High",
      "eventName": "CB Consumer Confidence (Feb)",
      "eventTimeZone": "GMT",
      "eventPrevious": "78.80",
      "eventCurrency": "USD",
      "eventForecast": ""
    },
    {
      "eventDateTime": "2003-03-01T09:00:00",
      "eventActual": "110.70",
      "eventCountry": "United States",
      "eventExpectedVolatility": "Low",
      "eventName": "CB Employment Trends Index (Feb)",
      "eventTimeZone": "GMT",
      "eventPrevious": "112.20",
      "eventCurrency": "USD",
      "eventForecast": ""
    },
    {
      "eventDateTime": "2003-03-01T09:00:00",
      "eventActual": "0.50%",
      "eventCountry": "United States",
      "eventExpectedVolatility": "Moderate",
      "eventName": "CPI (MoM) (Feb)",
      "eventTimeZone": "GMT",
      "eventPrevious": "0.40%",
      "eventCurrency": "USD",
      "eventForecast": ""
    },
    {
      "eventDateTime": "2003-03-01T09:00:00",
      "eventActual": "3.00%",
      "eventCountry": "United States",
      "eventExpectedVolatility": "Low",
      "eventName": "CPI (YoY) (Feb)",
      "eventTimeZone": "GMT",
      "eventPrevious": "2.60%",
      "eventCurrency": "USD",
      "eventForecast": ""
    },
    {
      "eventDateTime": "2003-03-01T09:00:00",
      "eventActual": "183.10",
      "eventCountry": "United States",
      "eventExpectedVolatility": "Low",
      "eventName": "CPI Index, n.s.a. (Feb)",
      "eventTimeZone": "GMT",
      "eventPrevious": "181.70",
      "eventCurrency": "USD",
      "eventForecast": ""
    },
    {
      "eventDateTime": "2003-03-01T09:00:00",
      "eventActual": "76.00%",
      "eventCountry": "United States",
      "eventExpectedVolatility": "Low",
      "eventName": "Capacity Utilization Rate (Feb)",
      "eventTimeZone": "GMT",
      "eventPrevious": "75.80%",
      "eventCurrency": "USD",
      "eventForecast": ""
    },
    {
      "eventDateTime": "2003-03-01T09:00:00",
      "eventActual": "0.90%",
      "eventCountry": "United States",
      "eventExpectedVolatility": "Low",
      "eventName": "Chain Store Sales (MoM) (Feb)",
      "eventTimeZone": "GMT",
      "eventPrevious": "1.80%",
      "eventCurrency": "USD",
      "eventForecast": ""
    },
    {
      "eventDateTime": "2003-03-01T09:00:00",
      "eventActual": "-0.18%",
      "eventCountry": "United States",
      "eventExpectedVolatility": "Low",
      "eventName": "Chain Store Sales (WoW) (Feb)",
      "eventTimeZone": "GMT",
      "eventPrevious": "0.04%",
      "eventCurrency": "USD",
      "eventForecast": ""
    },
    {
      "eventDateTime": "2003-03-01T09:00:00",
      "eventActual": "-0.95%",
      "eventCountry": "United States",
      "eventExpectedVolatility": "Low",
      "eventName": "Chain Store Sales (YoY) (Feb)",
      "eventTimeZone": "GMT",
      "eventPrevious": "2.84%",
      "eventCurrency": "USD",
      "eventForecast": ""
    },
    {
      "eventDateTime": "2003-03-01T09:00:00",
      "eventActual": "138.18K",
      "eventCountry": "United States",
      "eventExpectedVolatility": "Low",
      "eventName": "Challenger Job Cuts (Feb)",
      "eventTimeZone": "GMT",
      "eventPrevious": "132.22K",
      "eventCurrency": "USD",
      "eventForecast": ""
    },
    {
      "eventDateTime": "2003-03-01T09:00:00",
      "eventActual": "-0.67",
      "eventCountry": "United States",
      "eventExpectedVolatility": "Low",
      "eventName": "Chicago Fed National Activity (Feb)",
      "eventTimeZone": "GMT",
      "eventPrevious": "0.42",
      "eventCurrency": "USD",
      "eventForecast": ""
    },
    {
      "eventDateTime": "2003-03-01T09:00:00",
      "eventActual": "53.70",
      "eventCountry": "United States",
      "eventExpectedVolatility": "Moderate",
      "eventName": "Chicago PMI (Feb)",
      "eventTimeZone": "GMT",
      "eventPrevious": "54.20",
      "eventCurrency": "USD",
      "eventForecast": ""
    },
    {
      "eventDateTime": "2003-03-01T09:00:00",
      "eventActual": "0.20%",
      "eventCountry": "United States",
      "eventExpectedVolatility": "Low",
      "eventName": "Cleveland CPI (MoM) (Feb)",
      "eventTimeZone": "GMT",
      "eventPrevious": "0.20%",
      "eventCurrency": "USD",
      "eventForecast": ""
    },
    {
      "eventDateTime": "2003-03-01T09:00:00",
      "eventActual": "-0.50%",
      "eventCountry": "United States",
      "eventExpectedVolatility": "Low",
      "eventName": "Construction Spending (MoM) (Feb)",
      "eventTimeZone": "GMT",
      "eventPrevious": "0.90%",
      "eventCurrency": "USD",
      "eventForecast": ""
    },
    {
      "eventDateTime": "2003-03-01T09:00:00",
      "eventActual": "10.84B",
      "eventCountry": "United States",
      "eventExpectedVolatility": "Low",
      "eventName": "Consumer Credit (Feb)",
      "eventTimeZone": "GMT",
      "eventPrevious": "10.45B",
      "eventCurrency": "USD",
      "eventForecast": ""
    },
    {
      "eventDateTime": "2003-03-01T09:00:00",
      "eventActual": "3,469.00K",
      "eventCountry": "United States",
      "eventExpectedVolatility": "Low",
      "eventName": "Continuing Jobless Claims (Feb)",
      "eventTimeZone": "GMT",
      "eventPrevious": "3,402.35K",
      "eventCurrency": "USD",
      "eventForecast": ""
    },
    {
      "eventDateTime": "2003-03-01T09:00:00",
      "eventActual": "0.10%",
      "eventCountry": "United States",
      "eventExpectedVolatility": "High",
      "eventName": "Core CPI (MoM) (Feb)",
      "eventTimeZone": "GMT",
      "eventPrevious": "0.20%",
      "eventCurrency": "USD",
      "eventForecast": ""
    },
    {
      "eventDateTime": "2003-03-01T09:00:00",
      "eventActual": "1.70%",
      "eventCountry": "United States",
      "eventExpectedVolatility": "Moderate",
      "eventName": "Core CPI (YoY) (Feb)",
      "eventTimeZone": "GMT",
      "eventPrevious": "1.90%",
      "eventCurrency": "USD",
      "eventForecast": ""
    },
    {
      "eventDateTime": "2003-03-01T09:00:00",
      "eventActual": "192.50",
      "eventCountry": "United States",
      "eventExpectedVolatility": "Low",
      "eventName": "Core CPI Index (Feb)",
      "eventTimeZone": "GMT",
      "eventPrevious": "192.40",
      "eventCurrency": "USD",
      "eventForecast": ""
    },
    {
      "eventDateTime": "2003-03-01T09:00:00",
      "eventActual": "0.10%",
      "eventCountry": "United States",
      "eventExpectedVolatility": "Moderate",
      "eventName": "Core PCE Price Index (MoM) (Feb)",
      "eventTimeZone": "GMT",
      "eventPrevious": "0.00%",
      "eventCurrency": "USD",
      "eventForecast": ""
    },
    {
      "eventDateTime": "2003-03-01T09:00:00",
      "eventActual": "1.70%",
      "eventCountry": "United States",
      "eventExpectedVolatility": "Moderate",
      "eventName": "Core PCE Price Index (YoY) (Feb)",
      "eventTimeZone": "GMT",
      "eventPrevious": "1.70%",
      "eventCurrency": "USD",
      "eventForecast": ""
    },
    {
      "eventDateTime": "2003-03-01T09:00:00",
      "eventActual": "-0.40%",
      "eventCountry": "United States",
      "eventExpectedVolatility": "High",
      "eventName": "Core Retail Sales (MoM) (Feb)",
      "eventTimeZone": "GMT",
      "eventPrevious": "0.70%",
      "eventCurrency": "USD",
      "eventForecast": ""
    },
    {
      "eventDateTime": "2003-03-01T09:00:00",
      "eventActual": "-0.18M",
      "eventCountry": "United States",
      "eventExpectedVolatility": "High",
      "eventName": "Crude Oil Inventories (Feb)",
      "eventTimeZone": "GMT",
      "eventPrevious": "-0.90M",
      "eventCurrency": "USD",
      "eventForecast": ""
    },
    {
      "eventDateTime": "2003-03-01T09:00:00",
      "eventActual": "1.60%",
      "eventCountry": "United States",
      "eventExpectedVolatility": "Low",
      "eventName": "Dallas Fed PCE (Feb)",
      "eventTimeZone": "GMT",
      "eventPrevious": "1.40%",
      "eventCurrency": "USD",
      "eventForecast": ""
    },
    {
      "eventDateTime": "2003-03-01T09:00:00",
      "eventActual": "7.24M",
      "eventCountry": "United States",
      "eventExpectedVolatility": "Low",
      "eventName": "Domestic Truck Sales (Feb)",
      "eventTimeZone": "GMT",
      "eventPrevious": "7.24M",
      "eventCurrency": "USD",
      "eventForecast": ""
    },
    {
      "eventDateTime": "2003-03-01T09:00:00",
      "eventActual": "0.70%",
      "eventCountry": "United States",
      "eventExpectedVolatility": "Low",
      "eventName": "Durables Excluding Defense (MoM) (Feb)",
      "eventTimeZone": "GMT",
      "eventPrevious": "4.50%",
      "eventCurrency": "USD",
      "eventForecast": ""
    },
    {
      "eventDateTime": "2003-03-01T09:00:00",
      "eventActual": "-3.88M",
      "eventCountry": "United States",
      "eventExpectedVolatility": "Low",
      "eventName": "EIA Weekly Distillates Stocks (Feb)",
      "eventTimeZone": "GMT",
      "eventPrevious": "-3.46M",
      "eventCurrency": "USD",
      "eventForecast": ""
    },
    {
      "eventDateTime": "2003-03-01T09:00:00",
      "eventActual": "6.02M",
      "eventCountry": "United States",
      "eventExpectedVolatility": "High",
      "eventName": "Existing Home Sales (Feb)",
      "eventTimeZone": "GMT",
      "eventPrevious": "6.03M",
      "eventCurrency": "USD",
      "eventForecast": ""
    },
    {
      "eventDateTime": "2003-03-01T09:00:00",
      "eventActual": "-0.20%",
      "eventCountry": "United States",
      "eventExpectedVolatility": "Moderate",
      "eventName": "Existing Home Sales (MoM) (Feb)",
      "eventTimeZone": "GMT",
      "eventPrevious": "1.00%",
      "eventCurrency": "USD",
      "eventForecast": ""
    },
    {
      "eventDateTime": "2003-03-01T09:00:00",
      "eventActual": "0.60%",
      "eventCountry": "United States",
      "eventExpectedVolatility": "Moderate",
      "eventName": "Export Price Index (MoM) (Feb)",
      "eventTimeZone": "GMT",
      "eventPrevious": "0.30%",
      "eventCurrency": "USD",
      "eventForecast": ""
    },
    {
      "eventDateTime": "2003-03-01T09:00:00",
      "eventActual": "1.80%",
      "eventCountry": "United States",
      "eventExpectedVolatility": "Moderate",
      "eventName": "Factory Orders (MoM) (Feb)",
      "eventTimeZone": "GMT",
      "eventPrevious": "2.20%",
      "eventCurrency": "USD",
      "eventForecast": ""
    },
    {
      "eventDateTime": "2003-03-01T09:00:00",
      "eventActual": "1.70%",
      "eventCountry": "United States",
      "eventExpectedVolatility": "Low",
      "eventName": "Factory orders ex transportation (MoM) (Feb)",
      "eventTimeZone": "GMT",
      "eventPrevious": "0.40%",
      "eventCurrency": "USD",
      "eventForecast": ""
    },
    {
      "eventDateTime": "2003-03-01T09:00:00",
      "eventActual": "-96.70B",
      "eventCountry": "United States",
      "eventExpectedVolatility": "Moderate",
      "eventName": "Federal Budget Balance (Feb)",
      "eventTimeZone": "GMT",
      "eventPrevious": "10.60B",
      "eventCurrency": "USD",
      "eventForecast": ""
    },
    {
      "eventDateTime": "2003-03-01T09:00:00",
      "eventActual": "-0.88M",
      "eventCountry": "United States",
      "eventExpectedVolatility": "Low",
      "eventName": "Gasoline Inventories (Feb)",
      "eventTimeZone": "GMT",
      "eventPrevious": "0.59M",
      "eventCurrency": "USD",
      "eventForecast": ""
    },
    {
      "eventDateTime": "2003-03-01T09:00:00",
      "eventActual": "-2.00K",
      "eventCountry": "United States",
      "eventExpectedVolatility": "Low",
      "eventName": "Government Payrolls (Feb)",
      "eventTimeZone": "GMT",
      "eventPrevious": "38.00K",
      "eventCurrency": "USD",
      "eventForecast": ""
    },
    {
      "eventDateTime": "2003-03-01T09:00:00",
      "eventActual": "169.80",
      "eventCountry": "United States",
      "eventExpectedVolatility": "Low",
      "eventName": "House Price Index (Feb)",
      "eventTimeZone": "GMT",
      "eventPrevious": "168.80",
      "eventCurrency": "USD",
      "eventForecast": ""
    },
    {
      "eventDateTime": "2003-03-01T09:00:00",
      "eventActual": "0.60%",
      "eventCountry": "United States",
      "eventExpectedVolatility": "Low",
      "eventName": "House Price Index (MoM) (Feb)",
      "eventTimeZone": "GMT",
      "eventPrevious": "0.60%",
      "eventCurrency": "USD",
      "eventForecast": ""
    },
    {
      "eventDateTime": "2003-03-01T09:00:00",
      "eventActual": "7.90%",
      "eventCountry": "United States",
      "eventExpectedVolatility": "Low",
      "eventName": "House Price Index (YoY) (Feb)",
      "eventTimeZone": "GMT",
      "eventPrevious": "7.80%",
      "eventCurrency": "USD",
      "eventForecast": ""
    },
    {
      "eventDateTime": "2003-03-01T09:00:00",
      "eventActual": "1.63M",
      "eventCountry": "United States",
      "eventExpectedVolatility": "Moderate",
      "eventName": "Housing Starts (Feb)",
      "eventTimeZone": "GMT",
      "eventPrevious": "1.85M",
      "eventCurrency": "USD",
      "eventForecast": ""
    },
    {
      "eventDateTime": "2003-03-01T09:00:00",
      "eventActual": "-12.10%",
      "eventCountry": "United States",
      "eventExpectedVolatility": "Moderate",
      "eventName": "Housing Starts (MoM) (Feb)",
      "eventTimeZone": "GMT",
      "eventPrevious": "3.60%",
      "eventCurrency": "USD",
      "eventForecast": ""
    },
    {
      "eventDateTime": "2003-03-01T09:00:00",
      "eventActual": "42.60",
      "eventCountry": "United States",
      "eventExpectedVolatility": "Moderate",
      "eventName": "ISM Manufacturing Employment (Feb)",
      "eventTimeZone": "GMT",
      "eventPrevious": "47.40",
      "eventCurrency": "USD",
      "eventForecast": ""
    },
    {
      "eventDateTime": "2003-03-01T09:00:00",
      "eventActual": "51.90",
      "eventCountry": "United States",
      "eventExpectedVolatility": "Low",
      "eventName": "ISM Manufacturing New Orders Index (Feb)",
      "eventTimeZone": "GMT",
      "eventPrevious": "58.20",
      "eventCurrency": "USD",
      "eventForecast": ""
    },
    {
      "eventDateTime": "2003-03-01T09:00:00",
      "eventActual": "48.80",
      "eventCountry": "United States",
      "eventExpectedVolatility": "High",
      "eventName": "ISM Manufacturing PMI (Feb)",
      "eventTimeZone": "GMT",
      "eventPrevious": "51.30",
      "eventCurrency": "USD",
      "eventForecast": ""
    },
    {
      "eventDateTime": "2003-03-01T09:00:00",
      "eventActual": "65.50",
      "eventCountry": "United States",
      "eventExpectedVolatility": "Low",
      "eventName": "ISM Manufacturing Prices (Feb)",
      "eventTimeZone": "GMT",
      "eventPrevious": "57.50",
      "eventCurrency": "USD",
      "eventForecast": ""
    },
    {
      "eventDateTime": "2003-03-01T09:00:00",
      "eventActual": "55.60",
      "eventCountry": "United States",
      "eventExpectedVolatility": "Low",
      "eventName": "ISM Non-Manufacturing Business Activity (Feb)",
      "eventTimeZone": "GMT",
      "eventPrevious": "56.20",
      "eventCurrency": "USD",
      "eventForecast": ""
    },
    {
      "eventDateTime": "2003-03-01T09:00:00",
      "eventActual": "48.50",
      "eventCountry": "United States",
      "eventExpectedVolatility": "Moderate",
      "eventName": "ISM Non-Manufacturing Employment (Feb)",
      "eventTimeZone": "GMT",
      "eventPrevious": "50.50",
      "eventCurrency": "USD",
      "eventForecast": ""
    },
    {
      "eventDateTime": "2003-03-01T09:00:00",
      "eventActual": "53.90",
      "eventCountry": "United States",
      "eventExpectedVolatility": "Low",
      "eventName": "ISM Non-Manufacturing New Orders (Feb)",
      "eventTimeZone": "GMT",
      "eventPrevious": "54.40",
      "eventCurrency": "USD",
      "eventForecast": ""
    },
    {
      "eventDateTime": "2003-03-01T09:00:00",
      "eventActual": "52.60",
      "eventCountry": "United States",
      "eventExpectedVolatility": "High",
      "eventName": "ISM Non-Manufacturing PMI (Feb)",
      "eventTimeZone": "GMT",
      "eventPrevious": "53.30",
      "eventCurrency": "USD",
      "eventForecast": ""
    },
    {
      "eventDateTime": "2003-03-01T09:00:00",
      "eventActual": "60.50",
      "eventCountry": "United States",
      "eventExpectedVolatility": "Low",
      "eventName": "ISM Non-Manufacturing Prices (Feb)",
      "eventTimeZone": "GMT",
      "eventPrevious": "58.00",
      "eventCurrency": "USD",
      "eventForecast": ""
    },
    {
      "eventDateTime": "2003-03-01T09:00:00",
      "eventActual": "241.90",
      "eventCountry": "United States",
      "eventExpectedVolatility": "Low",
      "eventName": "ISM-New York Index (Feb)",
      "eventTimeZone": "GMT",
      "eventPrevious": "250.20",
      "eventCurrency": "USD",
      "eventForecast": ""
    },
    {
      "eventDateTime": "2003-03-01T09:00:00",
      "eventActual": "1.70%",
      "eventCountry": "United States",
      "eventExpectedVolatility": "Moderate",
      "eventName": "Import Price Index (MoM) (Feb)",
      "eventTimeZone": "GMT",
      "eventPrevious": "1.80%",
      "eventCurrency": "USD",
      "eventForecast": ""
    },
    {
      "eventDateTime": "2003-03-01T09:00:00",
      "eventActual": "0.30%",
      "eventCountry": "United States",
      "eventExpectedVolatility": "Moderate",
      "eventName": "Industrial Production (MoM) (Feb)",
      "eventTimeZone": "GMT",
      "eventPrevious": "0.70%",
      "eventCurrency": "USD",
      "eventForecast": ""
    },
    {
      "eventDateTime": "2003-03-01T09:00:00",
      "eventActual": "416.75K",
      "eventCountry": "United States",
      "eventExpectedVolatility": "Moderate",
      "eventName": "Initial Jobless Claims (Feb)",
      "eventTimeZone": "GMT",
      "eventPrevious": "399.09K",
      "eventCurrency": "USD",
      "eventForecast": ""
    },
    {
      "eventDateTime": "2003-03-01T09:00:00",
      "eventActual": "3.40M",
      "eventCountry": "United States",
      "eventExpectedVolatility": "High",
      "eventName": "JOLTs Job Openings (Feb)",
      "eventTimeZone": "GMT",
      "eventPrevious": "3.69M",
      "eventCurrency": "USD",
      "eventForecast": ""
    },
    {
      "eventDateTime": "2003-03-01T09:00:00",
      "eventActual": "409.56K",
      "eventCountry": "United States",
      "eventExpectedVolatility": "Low",
      "eventName": "Jobless Claims 4-Week Avg. (Feb)",
      "eventTimeZone": "GMT",
      "eventPrevious": "397.34K",
      "eventCurrency": "USD",
      "eventForecast": ""
    },
    {
      "eventDateTime": "2003-03-01T09:00:00",
      "eventActual": "3.00",
      "eventCountry": "United States",
      "eventExpectedVolatility": "Low",
      "eventName": "KC Fed Composite Index (Feb)",
      "eventTimeZone": "GMT",
      "eventPrevious": "2.00",
      "eventCurrency": "USD",
      "eventForecast": ""
    },
    {
      "eventDateTime": "2003-03-01T09:00:00",
      "eventActual": "10.00",
      "eventCountry": "United States",
      "eventExpectedVolatility": "Low",
      "eventName": "KC Fed Manufacturing Index (Feb)",
      "eventTimeZone": "GMT",
      "eventPrevious": "12.00",
      "eventCurrency": "USD",
      "eventForecast": ""
    },
    {
      "eventDateTime": "2003-03-01T09:00:00",
      "eventActual": "5.65%",
      "eventCountry": "United States",
      "eventExpectedVolatility": "Low",
      "eventName": "MBA 30-Year Mortgage Rate (Feb)",
      "eventTimeZone": "GMT",
      "eventPrevious": "5.77%",
      "eventCurrency": "USD",
      "eventForecast": ""
    },
    {
      "eventDateTime": "2003-03-01T09:00:00",
      "eventActual": "329.45",
      "eventCountry": "United States",
      "eventExpectedVolatility": "Low",
      "eventName": "MBA Purchase Index (Feb)",
      "eventTimeZone": "GMT",
      "eventPrevious": "364.27",
      "eventCurrency": "USD",
      "eventForecast": ""
    },
    {
      "eventDateTime": "2003-03-01T09:00:00",
      "eventActual": "-85.00K",
      "eventCountry": "United States",
      "eventExpectedVolatility": "Low",
      "eventName": "Manufacturing Payrolls (Feb)",
      "eventTimeZone": "GMT",
      "eventPrevious": "-46.00K",
      "eventCurrency": "USD",
      "eventForecast": ""
    },
    {
      "eventDateTime": "2003-03-01T09:00:00",
      "eventActual": "0.10%",
      "eventCountry": "United States",
      "eventExpectedVolatility": "Low",
      "eventName": "Manufacturing Production (MoM) (Feb)",
      "eventTimeZone": "GMT",
      "eventPrevious": "0.50%",
      "eventCurrency": "USD",
      "eventForecast": ""
    },
    {
      "eventDateTime": "2003-03-01T09:00:00",
      "eventActual": "2.70%",
      "eventCountry": "United States",
      "eventExpectedVolatility": "Low",
      "eventName": "Michigan 5-Year Inflation Expectations (Feb)",
      "eventTimeZone": "GMT",
      "eventPrevious": "2.70%",
      "eventCurrency": "USD",
      "eventForecast": ""
    },
    {
      "eventDateTime": "2003-03-01T09:00:00",
      "eventActual": "68.80",
      "eventCountry": "United States",
      "eventExpectedVolatility": "Moderate",
      "eventName": "Michigan Consumer Expectations (Feb)",
      "eventTimeZone": "GMT",
      "eventPrevious": "72.80",
      "eventCurrency": "USD",
      "eventForecast": ""
    },
    {
      "eventDateTime": "2003-03-01T09:00:00",
      "eventActual": "79.90",
      "eventCountry": "United States",
      "eventExpectedVolatility": "Moderate",
      "eventName": "Michigan Consumer Sentiment (Feb)",
      "eventTimeZone": "GMT",
      "eventPrevious": "83.70",
      "eventCurrency": "USD",
      "eventForecast": ""
    },
    {
      "eventDateTime": "2003-03-01T09:00:00",
      "eventActual": "95.40",
      "eventCountry": "United States",
      "eventExpectedVolatility": "Low",
      "eventName": "Michigan Current Conditions (Feb)",
      "eventTimeZone": "GMT",
      "eventPrevious": "96.90",
      "eventCurrency": "USD",
      "eventForecast": ""
    },
    {
      "eventDateTime": "2003-03-01T09:00:00",
      "eventActual": "2.70%",
      "eventCountry": "United States",
      "eventExpectedVolatility": "Low",
      "eventName": "Michigan Inflation Expectations (Feb)",
      "eventTimeZone": "GMT",
      "eventPrevious": "2.50%",
      "eventCurrency": "USD",
      "eventForecast": ""
    },
    {
      "eventDateTime": "2003-03-01T09:00:00",
      "eventActual": "91.90",
      "eventCountry": "United States",
      "eventExpectedVolatility": "Low",
      "eventName": "Midwest Manufacturing (Feb)",
      "eventTimeZone": "GMT",
      "eventPrevious": "92.80",
      "eventCurrency": "USD",
      "eventForecast": ""
    },
    {
      "eventDateTime": "2003-03-01T09:00:00",
      "eventActual": "1,143.40",
      "eventCountry": "United States",
      "eventExpectedVolatility": "Low",
      "eventName": "Mortgage Market Index (Feb)",
      "eventTimeZone": "GMT",
      "eventPrevious": "1,147.08",
      "eventCurrency": "USD",
      "eventForecast": ""
    },
    {
      "eventDateTime": "2003-03-01T09:00:00",
      "eventActual": "5,878.00",
      "eventCountry": "United States",
      "eventExpectedVolatility": "Low",
      "eventName": "Mortgage Refinance Index (Feb)",
      "eventTimeZone": "GMT",
      "eventPrevious": "5,700.47",
      "eventCurrency": "USD",
      "eventForecast": ""
    },
    {
      "eventDateTime": "2003-03-01T09:00:00",
      "eventActual": "63.00",
      "eventCountry": "United States",
      "eventExpectedVolatility": "Low",
      "eventName": "NAHB Housing Market Index (Feb)",
      "eventTimeZone": "GMT",
      "eventPrevious": "62.00",
      "eventCurrency": "USD",
      "eventForecast": ""
    },
    {
      "eventDateTime": "2003-03-01T09:00:00",
      "eventActual": "96.10",
      "eventCountry": "United States",
      "eventExpectedVolatility": "Low",
      "eventName": "NFIB Small Business Optimism (Feb)",
      "eventTimeZone": "GMT",
      "eventPrevious": "99.20",
      "eventCurrency": "USD",
      "eventForecast": ""
    },
    {
      "eventDateTime": "2003-03-01T09:00:00",
      "eventActual": "-3.54",
      "eventCountry": "United States",
      "eventExpectedVolatility": "Moderate",
      "eventName": "NY Empire State Manufacturing Index (Feb)",
      "eventTimeZone": "GMT",
      "eventPrevious": "8.10",
      "eventCurrency": "USD",
      "eventForecast": ""
    },
    {
      "eventDateTime": "2003-03-01T09:00:00",
      "eventActual": "-170.75B",
      "eventCountry": "United States",
      "eventExpectedVolatility": "Low",
      "eventName": "Natural Gas Storage (Feb)",
      "eventTimeZone": "GMT",
      "eventPrevious": "-187.30B",
      "eventCurrency": "USD",
      "eventForecast": ""
    },
    {
      "eventDateTime": "2003-03-01T09:00:00",
      "eventActual": "936.00K",
      "eventCountry": "United States",
      "eventExpectedVolatility": "High",
      "eventName": "New Home Sales (Feb)",
      "eventTimeZone": "GMT",
      "eventPrevious": "999.00K",
      "eventCurrency": "USD",
      "eventForecast": ""
    },
    {
      "eventDateTime": "2003-03-01T09:00:00",
      "eventActual": "-6.30%",
      "eventCountry": "United States",
      "eventExpectedVolatility": "Moderate",
      "eventName": "New Home Sales (MoM) (Feb)",
      "eventTimeZone": "GMT",
      "eventPrevious": "-4.70%",
      "eventCurrency": "USD",
      "eventForecast": ""
    },
    {
      "eventDateTime": "2003-03-01T09:00:00",
      "eventActual": "112.50B",
      "eventCountry": "United States",
      "eventExpectedVolatility": "Low",
      "eventName": "Overall Net Capital Flow (Feb)",
      "eventTimeZone": "GMT",
      "eventPrevious": "-8.40B",
      "eventCurrency": "USD",
      "eventForecast": ""
    },
    {
      "eventDateTime": "2003-03-01T09:00:00",
      "eventActual": "-5.80%",
      "eventCountry": "United States",
      "eventExpectedVolatility": "High",
      "eventName": "Pending Home Sales (MoM) (Feb)",
      "eventTimeZone": "GMT",
      "eventPrevious": "2.20%",
      "eventCurrency": "USD",
      "eventForecast": ""
    },
    {
      "eventDateTime": "2003-03-01T09:00:00",
      "eventActual": "99.30",
      "eventCountry": "United States",
      "eventExpectedVolatility": "Low",
      "eventName": "Pending Home Sales Index (Feb)",
      "eventTimeZone": "GMT",
      "eventPrevious": "105.40",
      "eventCurrency": "USD",
      "eventForecast": ""
    },
    {
      "eventDateTime": "2003-03-01T09:00:00",
      "eventActual": "0.20%",
      "eventCountry": "United States",
      "eventExpectedVolatility": "Low",
      "eventName": "Personal Income (MoM) (Feb)",
      "eventTimeZone": "GMT",
      "eventPrevious": "0.10%",
      "eventCurrency": "USD",
      "eventForecast": ""
    },
    {
      "eventDateTime": "2003-03-01T09:00:00",
      "eventActual": "-0.10%",
      "eventCountry": "United States",
      "eventExpectedVolatility": "Moderate",
      "eventName": "Personal Spending (MoM) (Feb)",
      "eventTimeZone": "GMT",
      "eventPrevious": "0.40%",
      "eventCurrency": "USD",
      "eventForecast": ""
    },
    {
      "eventDateTime": "2003-03-01T09:00:00",
      "eventActual": "-1.50",
      "eventCountry": "United States",
      "eventExpectedVolatility": "High",
      "eventName": "Philadelphia Fed Manufacturing Index (Feb)",
      "eventTimeZone": "GMT",
      "eventPrevious": "6.00",
      "eventCurrency": "USD",
      "eventForecast": ""
    },
    {
      "eventDateTime": "2003-03-01T09:00:00",
      "eventActual": "27.50",
      "eventCountry": "United States",
      "eventExpectedVolatility": "Low",
      "eventName": "Philly Fed Business Conditions (Feb)",
      "eventTimeZone": "GMT",
      "eventPrevious": "39.60",
      "eventCurrency": "USD",
      "eventForecast": ""
    },
    {
      "eventDateTime": "2003-03-01T09:00:00",
      "eventActual": "12.10",
      "eventCountry": "United States",
      "eventExpectedVolatility": "Low",
      "eventName": "Philly Fed CAPEX Index (Feb)",
      "eventTimeZone": "GMT",
      "eventPrevious": "10.90",
      "eventCurrency": "USD",
      "eventForecast": ""
    },
    {
      "eventDateTime": "2003-03-01T09:00:00",
      "eventActual": "-2.90",
      "eventCountry": "United States",
      "eventExpectedVolatility": "Moderate",
      "eventName": "Philly Fed Employment (Feb)",
      "eventTimeZone": "GMT",
      "eventPrevious": "-6.20",
      "eventCurrency": "USD",
      "eventForecast": ""
    },
    {
      "eventDateTime": "2003-03-01T09:00:00",
      "eventActual": "9.00",
      "eventCountry": "United States",
      "eventExpectedVolatility": "Low",
      "eventName": "Philly Fed New Orders (Feb)",
      "eventTimeZone": "GMT",
      "eventPrevious": "10.40",
      "eventCurrency": "USD",
      "eventForecast": ""
    },
    {
      "eventDateTime": "2003-03-01T09:00:00",
      "eventActual": "16.90",
      "eventCountry": "United States",
      "eventExpectedVolatility": "Low",
      "eventName": "Philly Fed Prices Paid (Feb)",
      "eventTimeZone": "GMT",
      "eventPrevious": "12.40",
      "eventCurrency": "USD",
      "eventForecast": ""
    },
    {
      "eventDateTime": "2003-03-01T09:00:00",
      "eventActual": "-149.00K",
      "eventCountry": "United States",
      "eventExpectedVolatility": "Moderate",
      "eventName": "Private Nonfarm Payrolls (Feb)",
      "eventTimeZone": "GMT",
      "eventPrevious": "53.00K",
      "eventCurrency": "USD",
      "eventForecast": ""
    },
    {
      "eventDateTime": "2003-03-01T09:00:00",
      "eventActual": "-0.50%",
      "eventCountry": "United States",
      "eventExpectedVolatility": "Low",
      "eventName": "Real Personal Consumption (MoM) (Feb)",
      "eventTimeZone": "GMT",
      "eventPrevious": "0.10%",
      "eventCurrency": "USD",
      "eventForecast": ""
    },
    {
      "eventDateTime": "2003-03-01T09:00:00",
      "eventActual": "-0.30%",
      "eventCountry": "United States",
      "eventExpectedVolatility": "Low",
      "eventName": "Retail Control (MoM) (Feb)",
      "eventTimeZone": "GMT",
      "eventPrevious": "0.10%",
      "eventCurrency": "USD",
      "eventForecast": ""
    },
    {
      "eventDateTime": "2003-03-01T09:00:00",
      "eventActual": "-1.40%",
      "eventCountry": "United States",
      "eventExpectedVolatility": "High",
      "eventName": "Retail Sales (MoM) (Feb)",
      "eventTimeZone": "GMT",
      "eventPrevious": "0.50%",
      "eventCurrency": "USD",
      "eventForecast": ""
    },
    {
      "eventDateTime": "2003-03-01T09:00:00",
      "eventActual": "-0.90%",
      "eventCountry": "United States",
      "eventExpectedVolatility": "Low",
      "eventName": "Retail Sales Ex Gas/Autos (MoM) (Feb)",
      "eventTimeZone": "GMT",
      "eventPrevious": "0.50%",
      "eventCurrency": "USD",
      "eventForecast": ""
    },
    {
      "eventDateTime": "2003-03-01T09:00:00",
      "eventActual": "-11.00",
      "eventCountry": "United States",
      "eventExpectedVolatility": "Low",
      "eventName": "Richmond Manufacturing Index (Feb)",
      "eventTimeZone": "GMT",
      "eventPrevious": "7.00",
      "eventCurrency": "USD",
      "eventForecast": ""
    },
    {
      "eventDateTime": "2003-03-01T09:00:00",
      "eventActual": "-5.00",
      "eventCountry": "United States",
      "eventExpectedVolatility": "Low",
      "eventName": "Richmond Manufacturing Shipments (Feb)",
      "eventTimeZone": "GMT",
      "eventPrevious": "12.00",
      "eventCurrency": "USD",
      "eventForecast": ""
    },
    {
      "eventDateTime": "2003-03-01T09:00:00",
      "eventActual": "-28.00",
      "eventCountry": "United States",
      "eventExpectedVolatility": "Low",
      "eventName": "Richmond Services Index (Feb)",
      "eventTimeZone": "GMT",
      "eventPrevious": "8.00",
      "eventCurrency": "USD",
      "eventForecast": ""
    },
    {
      "eventDateTime": "2003-03-01T09:00:00",
      "eventActual": "0.40%",
      "eventCountry": "United States",
      "eventExpectedVolatility": "Low",
      "eventName": "Sandamp;P/CS HPI Composite - 20 n.s.a. (MoM) (Feb)",
      "eventTimeZone": "GMT",
      "eventPrevious": "0.40%",
      "eventCurrency": "USD",
      "eventForecast": ""
    },
    {
      "eventDateTime": "2003-03-01T09:00:00",
      "eventActual": "12.50%",
      "eventCountry": "United States",
      "eventExpectedVolatility": "Moderate",
      "eventName": "Sandamp;P/CS HPI Composite - 20 n.s.a. (YoY) (Feb)",
      "eventTimeZone": "GMT",
      "eventPrevious": "12.40%",
      "eventCurrency": "USD",
      "eventForecast": ""
    },
    {
      "eventDateTime": "2003-03-01T09:00:00",
      "eventActual": "0.70%",
      "eventCountry": "United States",
      "eventExpectedVolatility": "Low",
      "eventName": "Sandamp;P/CS HPI Composite - 20 s.a. (MoM) (Feb)",
      "eventTimeZone": "GMT",
      "eventPrevious": "0.80%",
      "eventCurrency": "USD",
      "eventForecast": ""
    },
    {
      "eventDateTime": "2003-03-01T09:00:00",
      "eventActual": "24.70B",
      "eventCountry": "United States",
      "eventExpectedVolatility": "Moderate",
      "eventName": "TIC Net Long-Term Transactions (Feb)",
      "eventTimeZone": "GMT",
      "eventPrevious": "44.60B",
      "eventCurrency": "USD",
      "eventForecast": ""
    },
    {
      "eventDateTime": "2003-03-01T09:00:00",
      "eventActual": "15.90B",
      "eventCountry": "United States",
      "eventExpectedVolatility": "Low",
      "eventName": "TIC Net Long-Term Transactions including Swaps (Feb)",
      "eventTimeZone": "GMT",
      "eventPrevious": "35.50B",
      "eventCurrency": "USD",
      "eventForecast": ""
    },
    {
      "eventDateTime": "2003-03-01T09:00:00",
      "eventActual": "-39.40B",
      "eventCountry": "United States",
      "eventExpectedVolatility": "Moderate",
      "eventName": "Trade Balance (Feb)",
      "eventTimeZone": "GMT",
      "eventPrevious": "-40.70B",
      "eventCurrency": "USD",
      "eventForecast": ""
    },
    {
      "eventDateTime": "2003-03-01T09:00:00",
      "eventActual": "-3.20B",
      "eventCountry": "United States",
      "eventExpectedVolatility": "Low",
      "eventName": "US Foreign Buying, T-bonds (Feb)",
      "eventTimeZone": "GMT",
      "eventPrevious": "1.80B",
      "eventCurrency": "USD",
      "eventForecast": ""
    },
    {
      "eventDateTime": "2003-03-01T09:00:00",
      "eventActual": "0.40%",
      "eventCountry": "United States",
      "eventExpectedVolatility": "Low",
      "eventName": "Wholesale Inventories (MoM) (Feb)",
      "eventTimeZone": "GMT",
      "eventPrevious": "0.00%",
      "eventCurrency": "USD",
      "eventForecast": ""
    },
    {
      "eventDateTime": "2003-03-01T12:15:00",
      "eventActual": "-68K",
      "eventCountry": "United States",
      "eventExpectedVolatility": "High",
      "eventName": "ADP Nonfarm Employment Change (Feb)",
      "eventTimeZone": "GMT",
      "eventPrevious": "0K",
      "eventCurrency": "USD",
      "eventForecast": ""
    },
    {
      "eventDateTime": "2003-03-01T12:30:00",
      "eventActual": "10.20%",
      "eventCountry": "United States",
      "eventExpectedVolatility": "Low",
      "eventName": "U6 Unemployment Rate (Feb)",
      "eventTimeZone": "GMT",
      "eventPrevious": "10.00%",
      "eventCurrency": "USD",
      "eventForecast": ""
    },
    {
      "eventDateTime": "2003-03-01T12:30:00",
      "eventActual": "5.9%",
      "eventCountry": "United States",
      "eventExpectedVolatility": "High",
      "eventName": "Unemployment Rate (Feb)",
      "eventTimeZone": "GMT",
      "eventPrevious": "5.8%",
      "eventCurrency": "USD",
      "eventForecast": ""
    }
  ]}}
