"Core PCE Price Index (MoM)";"United States";"USD";"2010-08-03T12:30:00";"GMT";"0.1%";"0.1%";"0.0%";"Moderate"
"Personal Income (MoM)";"United States";"USD";"2010-08-03T12:30:00";"GMT";"0.3%";"0.1%";"0.0%";"Low"
"Personal Spending (MoM)";"United States";"USD";"2010-08-03T12:30:00";"GMT";"0.1%";"0.0%";"0.0%";"Moderate"
"Factory Orders (MoM)";"United States";"USD";"2010-08-03T14:00:00";"GMT";"-1.8%";"-0.5%";"-1.2%";"Moderate"
"Pending Home Sales (MoM)";"United States";"USD";"2010-08-03T14:00:00";"GMT";"-29.9%";"-5.0%";"-2.6%";"High"
"Bloomberg Consumer Confidence";"United States";"USD";"2010-08-03T21:00:00";"GMT";"26";"";"25";"Low"
"Total Vehicle Sales";"United States";"USD";"2010-08-03T21:00:00";"GMT";"11.10M";"11.50M";"12.10M";"Low"
