"MI Inflation Gauge (MoM)";"Australia";"AUD";"2017-02-06T00:00:00";"GMT";"0.5%";"";"0.6%";"Low"
"ANZ Internet Job Ads (MoM) (Jan)";"Australia";"AUD";"2017-02-06T00:30:00";"GMT";"-1.9%";"";"4.0%";"Low"
"ANZ Job Advertisements (MoM)";"Australia";"AUD";"2017-02-06T00:30:00";"GMT";"-2.2%";"";"4.0%";"Low"
"Retail Sales (MoM) (Dec)";"Australia";"AUD";"2017-02-06T00:30:00";"GMT";"0.1%";"0.3%";"-0.1%";"High"
"Retail Sales (QoQ) (Q4)";"Australia";"AUD";"2017-02-06T00:30:00";"GMT";"-0.1%";"0.9%";"0.9%";"Low"
"Investing.com AUD/USD Index";"Australia";"AUD";"2017-02-06T06:30:00";"GMT";"41.6%";"";"42.7%";"Moderate"
"AIG Construction Index (Jan)";"Australia";"AUD";"2017-02-06T22:30:00";"GMT";"47.0";"";"47.7";"Low"
