{"events": {"event": {
    "eventDateTime": "2008-05-02T19:30:00",
    "eventActual": "5.5K",
    "eventCountry": "New Zealand",
    "eventExpectedVolatility": "Low",
    "eventName": "CFTC NZD speculative net positions",
    "eventTimeZone": "GMT",
    "eventPrevious": "7.9K",
    "eventCurrency": "NZD",
    "eventForecast": ""
  }}}
