{"events": {"event": {
    "eventDateTime": "2015-06-08T05:30:00",
    "eventActual": "53.3%",
    "eventCountry": "Switzerland",
    "eventExpectedVolatility": "Moderate",
    "eventName": "Investing.com USD/CHF Index",
    "eventTimeZone": "GMT",
    "eventPrevious": "44.9%",
    "eventCurrency": "CHF",
    "eventForecast": ""
  }}}
