{"events": {"event": [
    {
      "eventDateTime": "2017-02-07T07:00:00",
      "eventActual": "-3.0%",
      "eventCountry": "Germany",
      "eventExpectedVolatility": "Moderate",
      "eventName": "German Industrial Production (MoM) (Dec)",
      "eventTimeZone": "GMT",
      "eventPrevious": "0.5%",
      "eventCurrency": "EUR",
      "eventForecast": "0.3%"
    },
    {
      "eventDateTime": "2017-02-07T07:45:00",
      "eventActual": "-1.10B",
      "eventCountry": "France",
      "eventExpectedVolatility": "Low",
      "eventName": "French Current Account (Dec)",
      "eventTimeZone": "GMT",
      "eventPrevious": "-2.80B",
      "eventCurrency": "EUR",
      "eventForecast": "-1.40B"
    },
    {
      "eventDateTime": "2017-02-07T07:45:00",
      "eventActual": "40.4B",
      "eventCountry": "France",
      "eventExpectedVolatility": "Low",
      "eventName": "French Exports (Dec)",
      "eventTimeZone": "GMT",
      "eventPrevious": "38.9B",
      "eventCurrency": "EUR",
      "eventForecast": ""
    },
    {
      "eventDateTime": "2017-02-07T07:45:00",
      "eventActual": "-69.0B",
      "eventCountry": "France",
      "eventExpectedVolatility": "Low",
      "eventName": "French Government Budget Balance (Dec)",
      "eventTimeZone": "GMT",
      "eventPrevious": "-93.3B",
      "eventCurrency": "EUR",
      "eventForecast": ""
    },
    {
      "eventDateTime": "2017-02-07T07:45:00",
      "eventActual": "43.8B",
      "eventCountry": "France",
      "eventExpectedVolatility": "Low",
      "eventName": "French Imports (Dec)",
      "eventTimeZone": "GMT",
      "eventPrevious": "43.2B",
      "eventCurrency": "EUR",
      "eventForecast": ""
    },
    {
      "eventDateTime": "2017-02-07T07:45:00",
      "eventActual": "5.0%",
      "eventCountry": "France",
      "eventExpectedVolatility": "Low",
      "eventName": "French Industrial Investments (Q1)",
      "eventTimeZone": "GMT",
      "eventPrevious": "4.0%",
      "eventCurrency": "EUR",
      "eventForecast": ""
    },
    {
      "eventDateTime": "2017-02-07T07:45:00",
      "eventActual": "-3.4B",
      "eventCountry": "France",
      "eventExpectedVolatility": "Low",
      "eventName": "French Trade Balance (Dec)",
      "eventTimeZone": "GMT",
      "eventPrevious": "-4.4B",
      "eventCurrency": "EUR",
      "eventForecast": "-4.2B"
    },
    {
      "eventDateTime": "2017-02-07T16:35:00",
      "eventActual": "",
      "eventCountry": "Germany",
      "eventExpectedVolatility": "Moderate",
      "eventName": "German Buba President Weidmann Speaks",
      "eventTimeZone": "GMT",
      "eventPrevious": "",
      "eventCurrency": "EUR",
      "eventForecast": ""
    }
  ]}}
