"Exports (Nov)";"New Zealand";"NZD";"2019-12-18T21:45:00";"GMT";"5.01B";"";"5.23B";"Low"
"GDP (QoQ) (Q3)";"New Zealand";"NZD";"2019-12-18T21:45:00";"GMT";"0.1%";"0.6%";"0.7%";"High"
"GDP (YoY) (Q3)";"New Zealand";"NZD";"2019-12-18T21:45:00";"GMT";"2.1%";"2.4%";"2.3%";"Low"
"GDP Annual Average (Q3)";"New Zealand";"NZD";"2019-12-18T21:45:00";"GMT";"2.8%";"2.4%";"2.7%";"Low"
"GDP Expenditure (QoQ) (Q3)";"New Zealand";"NZD";"2019-12-18T21:45:00";"GMT";"0.5%";"0.5%";"0.6%";"Low"
"Imports (Nov)";"New Zealand";"NZD";"2019-12-18T21:45:00";"GMT";"6.05B";"";"5.98B";"Low"
"Trade Balance (MoM) (Nov)";"New Zealand";"NZD";"2019-12-18T21:45:00";"GMT";"-1,039M";"";"-753M";"Moderate"
"Trade Balance (YoY) (Nov)";"New Zealand";"NZD";"2019-12-18T21:45:00";"GMT";"-5,070M";"";"-4,820M";"Moderate"
