"MI Leading Index (MoM)";"Australia";"AUD";"2016-08-17T00:30:00";"GMT";"-0.2%";"";"0.1%";"Low"
"Wage Price Index (QoQ) (Q2)";"Australia";"AUD";"2016-08-17T01:30:00";"GMT";"0.5%";"0.5%";"0.5%";"Moderate"
"Wage Price Index (YoY) (Q2)";"Australia";"AUD";"2016-08-17T01:30:00";"GMT";"2.1%";"2.0%";"2.1%";"Low"
