{"events": {"event": [
    {
      "eventDateTime": "2013-10-01T00:00:00",
      "eventActual": "3.71B",
      "eventCountry": "South Korea",
      "eventExpectedVolatility": "Low",
      "eventName": "Trade Balance",
      "eventTimeZone": "GMT",
      "eventPrevious": "4.85B",
      "eventCurrency": "KRW",
      "eventForecast": "4.65B"
    },
    {
      "eventDateTime": "2013-10-01T09:00:00",
      "eventActual": "-4.70%",
      "eventCountry": "South Korea",
      "eventExpectedVolatility": "Low",
      "eventName": "Export Price Index (YoY) (Sep)",
      "eventTimeZone": "GMT",
      "eventPrevious": "-2.20%",
      "eventCurrency": "KRW",
      "eventForecast": ""
    },
    {
      "eventDateTime": "2013-10-01T09:00:00",
      "eventActual": "-1.70%",
      "eventCountry": "South Korea",
      "eventExpectedVolatility": "Low",
      "eventName": "Exports (YoY) (Sep)",
      "eventTimeZone": "GMT",
      "eventPrevious": "7.60%",
      "eventCurrency": "KRW",
      "eventForecast": ""
    },
    {
      "eventDateTime": "2013-10-01T09:00:00",
      "eventActual": "-8.10%",
      "eventCountry": "South Korea",
      "eventExpectedVolatility": "Low",
      "eventName": "Import Price Index (YoY) (Sep)",
      "eventTimeZone": "GMT",
      "eventPrevious": "-5.30%",
      "eventCurrency": "KRW",
      "eventForecast": ""
    },
    {
      "eventDateTime": "2013-10-01T09:00:00",
      "eventActual": "-3.50%",
      "eventCountry": "South Korea",
      "eventExpectedVolatility": "Low",
      "eventName": "Imports (YoY) (Sep)",
      "eventTimeZone": "GMT",
      "eventPrevious": "1.20%",
      "eventCurrency": "KRW",
      "eventForecast": ""
    }
  ]}}
