{"events": {"event": [
    {
      "eventDateTime": "2011-02-08T07:45:00",
      "eventActual": "-148.8B",
      "eventCountry": "France",
      "eventExpectedVolatility": "Low",
      "eventName": "French Government Budget Balance",
      "eventTimeZone": "GMT",
      "eventPrevious": "-140.7B",
      "eventCurrency": "EUR",
      "eventForecast": ""
    },
    {
      "eventDateTime": "2011-02-08T07:45:00",
      "eventActual": "-5.1B",
      "eventCountry": "France",
      "eventExpectedVolatility": "Low",
      "eventName": "French Trade Balance",
      "eventTimeZone": "GMT",
      "eventPrevious": "-4.1B",
      "eventCurrency": "EUR",
      "eventForecast": "-4.1B"
    },
    {
      "eventDateTime": "2011-02-08T11:00:00",
      "eventActual": "-1.5%",
      "eventCountry": "Germany",
      "eventExpectedVolatility": "Moderate",
      "eventName": "German Industrial Production (MoM)",
      "eventTimeZone": "GMT",
      "eventPrevious": "-0.6%",
      "eventCurrency": "EUR",
      "eventForecast": "0.2%"
    }
  ]}}
