{"events": {"event": {
    "eventDateTime": "2013-10-22T08:30:00",
    "eventActual": "9.37B",
    "eventCountry": "United Kingdom",
    "eventExpectedVolatility": "Low",
    "eventName": "Public Sector Net Borrowing",
    "eventTimeZone": "GMT",
    "eventPrevious": "10.81B",
    "eventCurrency": "GBP",
    "eventForecast": "10.30B"
  }}}
