{"events": {"event": [
    {
      "eventDateTime": "2019-03-05T07:30:00",
      "eventActual": "0.4%",
      "eventCountry": "Switzerland",
      "eventExpectedVolatility": "Moderate",
      "eventName": "CPI (MoM) (Feb)",
      "eventTimeZone": "GMT",
      "eventPrevious": "-0.3%",
      "eventCurrency": "CHF",
      "eventForecast": "0.4%"
    },
    {
      "eventDateTime": "2019-03-05T07:30:00",
      "eventActual": "0.6%",
      "eventCountry": "Switzerland",
      "eventExpectedVolatility": "Low",
      "eventName": "CPI (YoY) (Feb)",
      "eventTimeZone": "GMT",
      "eventPrevious": "0.6%",
      "eventCurrency": "CHF",
      "eventForecast": "0.6%"
    },
    {
      "eventDateTime": "2019-03-05T09:00:00",
      "eventActual": "",
      "eventCountry": "Switzerland",
      "eventExpectedVolatility": "Moderate",
      "eventName": "SNB Gov Board Member Zurbrugg Speaks",
      "eventTimeZone": "GMT",
      "eventPrevious": "",
      "eventCurrency": "CHF",
      "eventForecast": ""
    }
  ]}}
