{"events": {"event": {
    "eventDateTime": "2012-08-29T23:50:00",
    "eventActual": "-0.8%",
    "eventCountry": "Japan",
    "eventExpectedVolatility": "Moderate",
    "eventName": "Retail Sales (YoY)",
    "eventTimeZone": "GMT",
    "eventPrevious": "0.2%",
    "eventCurrency": "JPY",
    "eventForecast": "-0.2%"
  }}}
