{"events": {"event": [
    {
      "eventDateTime": "2014-12-03T15:00:00",
      "eventActual": "1.00%",
      "eventCountry": "Canada",
      "eventExpectedVolatility": "High",
      "eventName": "BoC Interest Rate Decision",
      "eventTimeZone": "GMT",
      "eventPrevious": "1.00%",
      "eventCurrency": "CAD",
      "eventForecast": "1.00%"
    },
    {
      "eventDateTime": "2014-12-03T22:30:00",
      "eventActual": "",
      "eventCountry": "Canada",
      "eventExpectedVolatility": "High",
      "eventName": "BoC Gov Poloz Speaks",
      "eventTimeZone": "GMT",
      "eventPrevious": "",
      "eventCurrency": "CAD",
      "eventForecast": ""
    }
  ]}}
