"ANZ Business Confidence";"New Zealand";"NZD";"2010-04-28T03:00:00";"GMT";"42.50";"";"49.50";"Moderate"
"RBNZ Interest Rate Decision";"New Zealand";"NZD";"2010-04-28T21:00:00";"GMT";"2.50%";"2.50%";"2.50%";"High"
"RBNZ Rate Statement";"New Zealand";"NZD";"2010-04-28T21:00:00";"GMT";" ";"";"";"High"
"Trade Balance (MoM)";"New Zealand";"NZD";"2010-04-28T22:45:00";"GMT";"335M";"372M";"567M";"Moderate"
