{"events": {"event": {
    "eventDateTime": "2013-02-26T08:15:00",
    "eventActual": "4.12M",
    "eventCountry": "Switzerland",
    "eventExpectedVolatility": "Moderate",
    "eventName": "Employment Level",
    "eventTimeZone": "GMT",
    "eventPrevious": "4.12M",
    "eventCurrency": "CHF",
    "eventForecast": "4.11M"
  }}}
