"Business Confidence (Aug)";"South Africa";"ZAR";"2004-09-01T09:00:00";"GMT";"113.70";"";"118.60";"Low"
"CPI (YoY) (Aug)";"South Africa";"ZAR";"2004-09-01T09:00:00";"GMT";"1.48%";"";"1.15%";"Low"
"Foreign Reserves (USD) (Aug)";"South Africa";"ZAR";"2004-09-01T09:00:00";"GMT";"11.80B";"";"12.04B";"Low"
"Gold Production (YoY) (Aug)";"South Africa";"ZAR";"2004-09-01T09:00:00";"GMT";"-8.68%";"";"-7.24%";"Low"
"Interest Rate Decision (Aug)";"South Africa";"ZAR";"2004-09-01T09:00:00";"GMT";"8.00%";"";"7.50%";"Moderate"
"M3 Money Supply (YoY) (Aug)";"South Africa";"ZAR";"2004-09-01T09:00:00";"GMT";"10.96%";"";"13.97%";"Low"
"Mining Production (Aug)";"South Africa";"ZAR";"2004-09-01T09:00:00";"GMT";"8.40%";"";"4.69%";"Low"
"Net FX Reserves (USD) (Aug)";"South Africa";"ZAR";"2004-09-01T09:00:00";"GMT";"8.38B";"";"8.55B";"Low"
"Prime Rate (Aug)";"South Africa";"ZAR";"2004-09-01T09:00:00";"GMT";"11.50%";"";"11.00%";"Low"
"Private Sector Credit (Aug)";"South Africa";"ZAR";"2004-09-01T09:00:00";"GMT";"6.23%";"";"8.19%";"Low"
"Retail Sales (YoY) (Aug)";"South Africa";"ZAR";"2004-09-01T09:00:00";"GMT";"13.10%";"";"10.20%";"Low"
"Total Vehicle Sales (Aug)";"South Africa";"ZAR";"2004-09-01T09:00:00";"GMT";"39.20K";"";"41.14K";"Low"
"Total Vehicle Sales (YoY) (Aug)";"South Africa";"ZAR";"2004-09-01T09:00:00";"GMT";"15.00%";"";"18.80%";"Low"
