{"events": {"event": {
    "eventDateTime": "2014-08-28T11:05:00",
    "eventActual": "466.10B",
    "eventCountry": "Russia",
    "eventExpectedVolatility": "Moderate",
    "eventName": "Central Bank reserves (USD)",
    "eventTimeZone": "GMT",
    "eventPrevious": "468.60B",
    "eventCurrency": "RUB",
    "eventForecast": ""
  }}}
