"Investing.com EUR/USD Index";"Euro Zone";"EUR";"2018-05-28T05:30:00";"GMT";"67.0%";"";"63.9%";"Moderate"
"Italian PPI (MoM) (Apr)";"Italy";"EUR";"2018-05-28T08:00:00";"GMT";"0.2%";"";"-0.4%";"Low"
"Italian PPI (YoY) (Apr)";"Italy";"EUR";"2018-05-28T08:00:00";"GMT";"1.8%";"";"1.3%";"Low"
"France Jobseekers Total";"France";"EUR";"2018-05-28T10:00:00";"GMT";"3,421.8K";"";"3,434.2K";"Moderate"
"French 12-Month BTF Auction";"France";"EUR";"2018-05-28T13:00:00";"GMT";"-0.567%";"";"-0.567%";"Low"
"French 3-Month BTF Auction";"France";"EUR";"2018-05-28T13:00:00";"GMT";"-0.568%";"";"-0.583%";"Low"
"French 6-Month BTF Auction";"France";"EUR";"2018-05-28T13:00:00";"GMT";"-0.573%";"";"-0.580%";"Low"
