"German PPI (MoM) (Mar)";"Germany";"EUR";"2017-04-20T06:00:00";"GMT";"0.2%";"0.1%";"0.0%";"Moderate"
"German PPI (YoY) (Mar)";"Germany";"EUR";"2017-04-20T06:00:00";"GMT";"3.1%";"3.2%";"3.1%";"Low"
"Spanish 10-Year Obligacion Auction";"Spain";"EUR";"2017-04-20T08:50:00";"GMT";"1.610%";"";"1.683%";"Moderate"
"Spanish 30-Year Obligacion Auction";"Spain";"EUR";"2017-04-20T08:50:00";"GMT";"2.761%";"";"2.957%";"Low"
"Spanish 5-Year Bonos Auction";"Spain";"EUR";"2017-04-20T08:50:00";"GMT";"0.548%";"";"0.439%";"Low"
"French 3-Year BTAN Auction";"France";"EUR";"2017-04-20T09:00:00";"GMT";"-0.29%";"";"-0.32%";"Low"
"French 5-Year BTAN Auction";"France";"EUR";"2017-04-20T09:00:00";"GMT";"0.18%";"";"0.09%";"Low"
"Consumer Confidence (Mar)";"Euro Zone";"EUR";"2017-04-20T14:00:00";"GMT";"-5.0";"-4.8";"-3.6";"Low"
