{"events": {"event": {
    "eventDateTime": "2014-11-28T08:30:00",
    "eventActual": "10.3%",
    "eventCountry": "Hong Kong",
    "eventExpectedVolatility": "Low",
    "eventName": "M3 Money Supply (Oct)",
    "eventTimeZone": "GMT",
    "eventPrevious": "9.7%",
    "eventCurrency": "HKD",
    "eventForecast": ""
  }}}
