{"events": {"event": {
    "eventDateTime": "2019-11-18T05:30:00",
    "eventActual": "55.3%",
    "eventCountry": "Switzerland",
    "eventExpectedVolatility": "Moderate",
    "eventName": "Investing.com USD/CHF Index",
    "eventTimeZone": "GMT",
    "eventPrevious": "48.0%",
    "eventCurrency": "CHF",
    "eventForecast": ""
  }}}
