{"events": {"event": [
    {
      "eventDateTime": "2012-03-09T12:00:00",
      "eventActual": "-2.8K",
      "eventCountry": "Canada",
      "eventExpectedVolatility": "High",
      "eventName": "Employment Change",
      "eventTimeZone": "GMT",
      "eventPrevious": "2.3K",
      "eventCurrency": "CAD",
      "eventForecast": "13.8K"
    },
    {
      "eventDateTime": "2012-03-09T12:00:00",
      "eventActual": "7.4%",
      "eventCountry": "Canada",
      "eventExpectedVolatility": "Moderate",
      "eventName": "Unemployment Rate",
      "eventTimeZone": "GMT",
      "eventPrevious": "7.6%",
      "eventCurrency": "CAD",
      "eventForecast": "7.6%"
    },
    {
      "eventDateTime": "2012-03-09T13:30:00",
      "eventActual": "0.7%",
      "eventCountry": "Canada",
      "eventExpectedVolatility": "Moderate",
      "eventName": "Labor Productivity (QoQ)",
      "eventTimeZone": "GMT",
      "eventPrevious": "0.6%",
      "eventCurrency": "CAD",
      "eventForecast": "0.6%"
    },
    {
      "eventDateTime": "2012-03-09T13:30:00",
      "eventActual": "2.1B",
      "eventCountry": "Canada",
      "eventExpectedVolatility": "Moderate",
      "eventName": "Trade Balance",
      "eventTimeZone": "GMT",
      "eventPrevious": "2.9B",
      "eventCurrency": "CAD",
      "eventForecast": "2.0B"
    },
    {
      "eventDateTime": "2012-03-09T20:30:00",
      "eventActual": "26.0K",
      "eventCountry": "Canada",
      "eventExpectedVolatility": "Low",
      "eventName": "CFTC CAD speculative net positions",
      "eventTimeZone": "GMT",
      "eventPrevious": "22.5K",
      "eventCurrency": "CAD",
      "eventForecast": ""
    }
  ]}}
