"Investing.com EUR/USD Index";"Euro Zone";"EUR";"2014-12-08T01:00:00";"GMT";"33.8%";"";"41.7%";"Moderate"
"German Industrial Production (MoM) (Oct)";"Germany";"EUR";"2014-12-08T07:00:00";"GMT";"1.1%";"0.2%";"0.2%";"Moderate"
"Sentix Investor Confidence (Dec)";"Euro Zone";"EUR";"2014-12-08T09:30:00";"GMT";"-11.9";"-9.7";"-2.5";"Low"
"French 12-Month BTF Auction";"France";"EUR";"2014-12-08T14:00:00";"GMT";"-0.007%";"";"-0.006%";"Low"
"French 3-Month BTF Auction";"France";"EUR";"2014-12-08T14:00:00";"GMT";"-0.017%";"";"-0.013%";"Low"
"French 6-Month BTF Auction";"France";"EUR";"2014-12-08T14:00:00";"GMT";"-0.015%";"";"-0.009%";"Low"
