"Retail Sales (YoY)";"Russia";"RUB";"2019-08-19T13:00:00";"GMT";"1.4%";"1.5%";"1.0%";"Moderate"
"Russian Real Wage Growth (YoY) (Jul)";"Russia";"RUB";"2019-08-19T13:00:00";"GMT";"2.9%";"2.3%";"3.5%";"Low"
"Unemployment Rate (Jul)";"Russia";"RUB";"2019-08-19T13:00:00";"GMT";"4.4%";"4.5%";"4.5%";"Moderate"
"GDP Monthly (YoY)";"Russia";"RUB";"2019-08-19T14:00:00";"GMT";"0.7%";"";"1.7%";"Moderate"
