{"events": {"event": [
    {
      "eventDateTime": "2012-02-15T20:00:00",
      "eventActual": "-3.70%",
      "eventCountry": "New Zealand",
      "eventExpectedVolatility": "Moderate",
      "eventName": "GlobalDairyTrade Price Index",
      "eventTimeZone": "GMT",
      "eventPrevious": "-1.40%",
      "eventCurrency": "NZD",
      "eventForecast": ""
    },
    {
      "eventDateTime": "2012-02-15T21:30:00",
      "eventActual": "50.5",
      "eventCountry": "New Zealand",
      "eventExpectedVolatility": "Moderate",
      "eventName": "Business NZ PMI",
      "eventTimeZone": "GMT",
      "eventPrevious": "51.6",
      "eventCurrency": "NZD",
      "eventForecast": ""
    }
  ]}}
