"Machine Tool Orders (YoY)";"Japan";"JPY";"2009-12-09T06:00:00";"GMT";"-42.5%";"";"-8.6%";"Low"
"Core Machinery Orders (MoM)";"Japan";"JPY";"2009-12-09T23:50:00";"GMT";"10.5%";"-4.5%";"-4.5%";"Low"
"PPI (YoY)";"Japan";"JPY";"2009-12-09T23:50:00";"GMT";"-6.8%";"-5.0%";"-4.9%";"Low"
