"GDP (MoM)";"Canada";"CAD";"2009-11-30T13:30:00";"GMT";"-0.1%";"0.4%";"0.4%";"High"
"IPPI (MoM)";"Canada";"CAD";"2009-11-30T13:30:00";"GMT";"-0.4%";"0.5%";"-0.3%";"Low"
"RMPI (MoM)";"Canada";"CAD";"2009-11-30T13:30:00";"GMT";"-1.0%";"3.0%";"2.5%";"Moderate"
