{"events": {"event": [
    {
      "eventDateTime": "2011-02-09T12:00:00",
      "eventActual": "-5.5%",
      "eventCountry": "United States",
      "eventExpectedVolatility": "Low",
      "eventName": "MBA Mortgage Applications (WoW)",
      "eventTimeZone": "GMT",
      "eventPrevious": "11.3%",
      "eventCurrency": "USD",
      "eventForecast": ""
    },
    {
      "eventDateTime": "2011-02-09T15:00:00",
      "eventActual": "",
      "eventCountry": "United States",
      "eventExpectedVolatility": "High",
      "eventName": "Fed Chairman Bernanke Testifies",
      "eventTimeZone": "GMT",
      "eventPrevious": "",
      "eventCurrency": "USD",
      "eventForecast": ""
    },
    {
      "eventDateTime": "2011-02-09T15:30:00",
      "eventActual": "1.900M",
      "eventCountry": "United States",
      "eventExpectedVolatility": "High",
      "eventName": "Crude Oil Inventories",
      "eventTimeZone": "GMT",
      "eventPrevious": "2.600M",
      "eventCurrency": "USD",
      "eventForecast": "2.250M"
    },
    {
      "eventDateTime": "2011-02-09T15:30:00",
      "eventActual": "4.700M",
      "eventCountry": "United States",
      "eventExpectedVolatility": "Low",
      "eventName": "Gasoline Inventories",
      "eventTimeZone": "GMT",
      "eventPrevious": "6.200M",
      "eventCurrency": "USD",
      "eventForecast": "3.000M"
    }
  ]}}
