{"events": {"event": [
    {
      "eventDateTime": "2009-05-07T12:30:00",
      "eventActual": "601K",
      "eventCountry": "United States",
      "eventExpectedVolatility": "Moderate",
      "eventName": "Initial Jobless Claims",
      "eventTimeZone": "GMT",
      "eventPrevious": "635K",
      "eventCurrency": "USD",
      "eventForecast": "639K"
    },
    {
      "eventDateTime": "2009-05-07T12:30:00",
      "eventActual": "0.8%",
      "eventCountry": "United States",
      "eventExpectedVolatility": "Moderate",
      "eventName": "Nonfarm Productivity (QoQ)",
      "eventTimeZone": "GMT",
      "eventPrevious": "-0.6%",
      "eventCurrency": "USD",
      "eventForecast": "0.9%"
    },
    {
      "eventDateTime": "2009-05-07T12:30:00",
      "eventActual": "3.3%",
      "eventCountry": "United States",
      "eventExpectedVolatility": "Moderate",
      "eventName": "Unit Labor Costs (QoQ)",
      "eventTimeZone": "GMT",
      "eventPrevious": "5.7%",
      "eventCurrency": "USD",
      "eventForecast": "2.6%"
    },
    {
      "eventDateTime": "2009-05-07T13:30:00",
      "eventActual": "",
      "eventCountry": "United States",
      "eventExpectedVolatility": "High",
      "eventName": "Fed Chairman Bernanke Speaks",
      "eventTimeZone": "GMT",
      "eventPrevious": "",
      "eventCurrency": "USD",
      "eventForecast": ""
    },
    {
      "eventDateTime": "2009-05-07T19:00:00",
      "eventActual": "-11.10B",
      "eventCountry": "United States",
      "eventExpectedVolatility": "Low",
      "eventName": "Consumer Credit",
      "eventTimeZone": "GMT",
      "eventPrevious": "-8.10B",
      "eventCurrency": "USD",
      "eventForecast": "-4.10B"
    },
    {
      "eventDateTime": "2009-05-07T20:15:00",
      "eventActual": "",
      "eventCountry": "United States",
      "eventExpectedVolatility": "High",
      "eventName": "Fed Chairman Bernanke Speaks",
      "eventTimeZone": "GMT",
      "eventPrevious": "",
      "eventCurrency": "USD",
      "eventForecast": ""
    }
  ]}}
