{"events": {"event": {
    "eventDateTime": "2017-09-07T22:45:00",
    "eventActual": "1.0%",
    "eventCountry": "New Zealand",
    "eventExpectedVolatility": "Low",
    "eventName": "Manufacturing Sales Volume (QoQ) (Q2)",
    "eventTimeZone": "GMT",
    "eventPrevious": "-0.3%",
    "eventCurrency": "NZD",
    "eventForecast": ""
  }}}
