"5-Year Treasury Gilt Auction";"United Kingdom";"GBP";"2018-06-06T09:45:00";"GMT";"1.117%";"";"1.042%";"Low"
"MPC Member Tenreyro Speaks";"United Kingdom";"GBP";"2018-06-06T10:00:00";"GMT";" ";"";"";"Moderate"
"BoE MPC Member McCafferty Speaks";"United Kingdom";"GBP";"2018-06-06T16:00:00";"GMT";" ";"";"";"Moderate"
