"Building Approvals (MoM)";"Australia";"AUD";"2012-12-04T00:30:00";"GMT";"9.5%";"-2.0%";"-7.6%";"Moderate"
"Current Account";"Australia";"AUD";"2012-12-04T00:30:00";"GMT";"-12.4B";"-14.8B";"-14.9B";"Moderate"
"RBA Interest Rate Decision";"Australia";"AUD";"2012-12-04T03:30:00";"GMT";"3.25%";"3.00%";"3.00%";"High"
"RBA Rate Statement";"Australia";"AUD";"2012-12-04T03:30:00";"GMT";" ";"";"";"High"
"AIG Services Index";"Australia";"AUD";"2012-12-04T22:30:00";"GMT";"42.8";"";"47.1";"Low"
