"Core Machinery Orders (MoM) (Nov)";"Japan";"JPY";"2017-01-15T23:50:00";"GMT";"4.1%";"-1.7%";"-5.1%";"Low"
"Core Machinery Orders (YoY) (Nov)";"Japan";"JPY";"2017-01-15T23:50:00";"GMT";"-5.6%";"8.1%";"10.4%";"Low"
"PPI (MoM) (Dec)";"Japan";"JPY";"2017-01-15T23:50:00";"GMT";"0.4%";"0.3%";"0.6%";"Low"
"PPI (YoY) (Dec)";"Japan";"JPY";"2017-01-15T23:50:00";"GMT";"-2.2%";"-1.5%";"-1.2%";"Low"
