"Investing.com USD/CHF Index";"Switzerland";"CHF";"2015-07-07T05:30:00";"GMT";"52.2%";"";"53.0%";"Moderate"
"Unemployment Rate n.s.a. (Jun)";"Switzerland";"CHF";"2015-07-07T05:45:00";"GMT";"3.2%";"3.1%";"3.1%";"Moderate"
"Unemployment Rate s.a. (Jun)";"Switzerland";"CHF";"2015-07-07T05:45:00";"GMT";"3.3%";"3.3%";"3.3%";"Moderate"
