{"events": {"event": [
    {
      "eventDateTime": "2017-04-17T06:30:00",
      "eventActual": "3.12%",
      "eventCountry": "India",
      "eventExpectedVolatility": "Low",
      "eventName": "WPI Food (YoY) (Mar)",
      "eventTimeZone": "GMT",
      "eventPrevious": "2.69%",
      "eventCurrency": "INR",
      "eventForecast": ""
    },
    {
      "eventDateTime": "2017-04-17T06:30:00",
      "eventActual": "18.16%",
      "eventCountry": "India",
      "eventExpectedVolatility": "Low",
      "eventName": "WPI Fuel (YoY) (Mar)",
      "eventTimeZone": "GMT",
      "eventPrevious": "21.02%",
      "eventCurrency": "INR",
      "eventForecast": ""
    },
    {
      "eventDateTime": "2017-04-17T06:30:00",
      "eventActual": "5.70%",
      "eventCountry": "India",
      "eventExpectedVolatility": "Moderate",
      "eventName": "WPI Inflation (YoY) (Mar)",
      "eventTimeZone": "GMT",
      "eventPrevious": "6.55%",
      "eventCurrency": "INR",
      "eventForecast": "5.98%"
    },
    {
      "eventDateTime": "2017-04-17T06:30:00",
      "eventActual": "2.99%",
      "eventCountry": "India",
      "eventExpectedVolatility": "Low",
      "eventName": "WPI Manufacturing Inflation (YoY) (Mar)",
      "eventTimeZone": "GMT",
      "eventPrevious": "3.66%",
      "eventCurrency": "INR",
      "eventForecast": ""
    }
  ]}}
