{"events": {"event": {
    "eventDateTime": "2014-07-21T05:00:00",
    "eventActual": "70.6%",
    "eventCountry": "Japan",
    "eventExpectedVolatility": "Moderate",
    "eventName": "Investing.com USD/JPY Index",
    "eventTimeZone": "GMT",
    "eventPrevious": "77.2%",
    "eventCurrency": "JPY",
    "eventForecast": ""
  }}}
