{"events": {"event": [
    {
      "eventDateTime": "2019-02-28T12:00:00",
      "eventActual": "0.1%",
      "eventCountry": "Brazil",
      "eventExpectedVolatility": "Moderate",
      "eventName": "GDP (QoQ) (Q4)",
      "eventTimeZone": "GMT",
      "eventPrevious": "0.8%",
      "eventCurrency": "BRL",
      "eventForecast": "0.2%"
    },
    {
      "eventDateTime": "2019-02-28T12:00:00",
      "eventActual": "1.1%",
      "eventCountry": "Brazil",
      "eventExpectedVolatility": "Moderate",
      "eventName": "GDP (YoY) (Q4)",
      "eventTimeZone": "GMT",
      "eventPrevious": "1.3%",
      "eventCurrency": "BRL",
      "eventForecast": "1.3%"
    },
    {
      "eventDateTime": "2019-02-28T13:30:00",
      "eventActual": "26.044B",
      "eventCountry": "Brazil",
      "eventExpectedVolatility": "Low",
      "eventName": "Budget Balance (Jan)",
      "eventTimeZone": "GMT",
      "eventPrevious": "-68.042B",
      "eventCurrency": "BRL",
      "eventForecast": "-7.100B"
    },
    {
      "eventDateTime": "2019-02-28T13:30:00",
      "eventActual": "46.900B",
      "eventCountry": "Brazil",
      "eventExpectedVolatility": "Low",
      "eventName": "Budget Surplus (Jan)",
      "eventTimeZone": "GMT",
      "eventPrevious": "-41.133B",
      "eventCurrency": "BRL",
      "eventForecast": "34.300B"
    },
    {
      "eventDateTime": "2019-02-28T13:30:00",
      "eventActual": "54.0%",
      "eventCountry": "Brazil",
      "eventExpectedVolatility": "Low",
      "eventName": "Debt-to-GDP ratio (Jan)",
      "eventTimeZone": "GMT",
      "eventPrevious": "53.8%",
      "eventCurrency": "BRL",
      "eventForecast": "53.8%"
    },
    {
      "eventDateTime": "2019-02-28T17:35:00",
      "eventActual": "34.31K",
      "eventCountry": "Brazil",
      "eventExpectedVolatility": "Moderate",
      "eventName": "CAGED Net Payroll Jobs (Jan)",
      "eventTimeZone": "GMT",
      "eventPrevious": "-334.40K",
      "eventCurrency": "BRL",
      "eventForecast": "82.50K"
    }
  ]}}
