"Bank Loan Growth";"India";"INR";"2019-02-15T11:30:00";"GMT";"14.6%";"";"14.5%";"Low"
"Deposit Growth";"India";"INR";"2019-02-15T11:30:00";"GMT";"9.7%";"";"9.6%";"Low"
"FX Reserves, USD";"India";"INR";"2019-02-15T11:30:00";"GMT";"400.24B";"";"398.12B";"Low"
"Exports (USD) (Jan)";"India";"INR";"2019-02-15T12:31:00";"GMT";"27.93B";"";"26.36B";"Low"
"Imports (USD) (Jan)";"India";"INR";"2019-02-15T12:31:00";"GMT";"41.01B";"";"41.09B";"Low"
"Trade Balance (Jan)";"India";"INR";"2019-02-15T12:31:00";"GMT";"-13.08B";"-13.80B";"-14.73B";"Low"
