{"events": {"event": [
    {
      "eventDateTime": "2018-07-13T00:00:00",
      "eventActual": "1.0%",
      "eventCountry": "Singapore",
      "eventExpectedVolatility": "Low",
      "eventName": "GDP (QoQ) (Q2)",
      "eventTimeZone": "GMT",
      "eventPrevious": "1.5%",
      "eventCurrency": "SGD",
      "eventForecast": "1.2%"
    },
    {
      "eventDateTime": "2018-07-13T00:00:00",
      "eventActual": "3.8%",
      "eventCountry": "Singapore",
      "eventExpectedVolatility": "Low",
      "eventName": "GDP (YoY) (Q2)",
      "eventTimeZone": "GMT",
      "eventPrevious": "4.3%",
      "eventCurrency": "SGD",
      "eventForecast": "4.0%"
    }
  ]}}
