"All Industries Activity Index (MoM)";"Japan";"JPY";"2014-03-19T04:30:00";"GMT";"-0.1%";"1.3%";"1.0%";"Low"
"BoJ Governor Kuroda Speaks";"Japan";"JPY";"2014-03-19T05:00:00";"GMT";" ";"";"";"Moderate"
"Foreign Bonds Buying";"Japan";"JPY";"2014-03-19T23:50:00";"GMT";"-617.9B";"";"143.1B";"Low"
