{"events": {"event": [
    {
      "eventDateTime": "2011-01-20T02:00:00",
      "eventActual": "4.6%",
      "eventCountry": "China",
      "eventExpectedVolatility": "Moderate",
      "eventName": "CPI (YoY)",
      "eventTimeZone": "GMT",
      "eventPrevious": "5.1%",
      "eventCurrency": "CNY",
      "eventForecast": "4.7%"
    },
    {
      "eventDateTime": "2011-01-20T02:00:00",
      "eventActual": "24.5%",
      "eventCountry": "China",
      "eventExpectedVolatility": "Moderate",
      "eventName": "Fixed Asset Investment (YoY)",
      "eventTimeZone": "GMT",
      "eventPrevious": "24.9%",
      "eventCurrency": "CNY",
      "eventForecast": "24.0%"
    },
    {
      "eventDateTime": "2011-01-20T02:00:00",
      "eventActual": "9.8%",
      "eventCountry": "China",
      "eventExpectedVolatility": "High",
      "eventName": "GDP (YoY)",
      "eventTimeZone": "GMT",
      "eventPrevious": "9.6%",
      "eventCurrency": "CNY",
      "eventForecast": "9.5%"
    },
    {
      "eventDateTime": "2011-01-20T02:00:00",
      "eventActual": "13.5%",
      "eventCountry": "China",
      "eventExpectedVolatility": "High",
      "eventName": "Industrial Production (YoY)",
      "eventTimeZone": "GMT",
      "eventPrevious": "13.3%",
      "eventCurrency": "CNY",
      "eventForecast": "13.3%"
    },
    {
      "eventDateTime": "2011-01-20T02:00:00",
      "eventActual": "5.9%",
      "eventCountry": "China",
      "eventExpectedVolatility": "Moderate",
      "eventName": "PPI (YoY)",
      "eventTimeZone": "GMT",
      "eventPrevious": "6.1%",
      "eventCurrency": "CNY",
      "eventForecast": "5.8%"
    },
    {
      "eventDateTime": "2011-01-20T02:00:00",
      "eventActual": "19.1%",
      "eventCountry": "China",
      "eventExpectedVolatility": "Low",
      "eventName": "Retail Sales (YoY)",
      "eventTimeZone": "GMT",
      "eventPrevious": "18.7%",
      "eventCurrency": "CNY",
      "eventForecast": "18.7%"
    }
  ]}}
