{"events": {"event": {
    "eventDateTime": "2018-09-17T05:30:00",
    "eventActual": "54.6%",
    "eventCountry": "New Zealand",
    "eventExpectedVolatility": "Moderate",
    "eventName": "Investing.com NZD/USD Index",
    "eventTimeZone": "GMT",
    "eventPrevious": "54.8%",
    "eventCurrency": "NZD",
    "eventForecast": ""
  }}}
