"URA Property Index (QoQ) (Q4)";"Singapore";"SGD";"2017-01-26T00:30:00";"GMT";"-0.40%";"";"-0.50%";"Low"
"Unemployment Rate (Q4)";"Singapore";"SGD";"2017-01-26T02:30:00";"GMT";"2.1%";"2.2%";"2.2%";"Low"
"Industrial Production (MoM) (Dec)";"Singapore";"SGD";"2017-01-26T05:00:00";"GMT";"6.0%";"-5.8%";"6.4%";"Low"
"Industrial Production (YoY) (Dec)";"Singapore";"SGD";"2017-01-26T05:00:00";"GMT";"11.8%";"9.5%";"21.3%";"Low"
