{"events": {"event": {
    "eventDateTime": "2017-10-16T05:30:00",
    "eventActual": "47.9%",
    "eventCountry": "United Kingdom",
    "eventExpectedVolatility": "Moderate",
    "eventName": "Investing.com GBP/USD Index",
    "eventTimeZone": "GMT",
    "eventPrevious": "58.6%",
    "eventCurrency": "GBP",
    "eventForecast": ""
  }}}
