"FOMC Member Williams Speaks";"United States";"USD";"2017-09-22T10:00:00";"GMT";" ";"";"";"Moderate"
"FOMC Member George Speaks";"United States";"USD";"2017-09-22T13:30:00";"GMT";" ";"";"";"Moderate"
"Manufacturing PMI (Sep)";"United States";"USD";"2017-09-22T13:45:00";"GMT";"52.8";"53.0";"53.0";"Moderate"
"Markit Composite PMI";"United States";"USD";"2017-09-22T13:45:00";"GMT";"55.3";"";"54.6";"Moderate"
"Services PMI (Sep)";"United States";"USD";"2017-09-22T13:45:00";"GMT";"56.0";"55.9";"55.1";"Moderate"
"U.S. Baker Hughes Oil Rig Count";"United States";"USD";"2017-09-22T17:00:00";"GMT";"749";"";"744";"Moderate"
"FOMC Member Kaplan Speaks";"United States";"USD";"2017-09-22T17:30:00";"GMT";" ";"";"";"Moderate"
"CFTC Copper speculative net positions";"United States";"USD";"2017-09-22T19:30:00";"GMT";"46.6K";"";"32.6K";"Low"
"CFTC Crude Oil speculative net positions";"United States";"USD";"2017-09-22T19:30:00";"GMT";"374.5K";"";"418.1K";"Moderate"
"CFTC Gold speculative net positions";"United States";"USD";"2017-09-22T19:30:00";"GMT";"254.8K";"";"236.1K";"Moderate"
"CFTC Sandamp:P 500 speculative net positions";"United States";"USD";"2017-09-22T19:30:00";"GMT";"188.0K";"";"101.3K";"Moderate"
"CFTC Silver speculative net positions";"United States";"USD";"2017-09-22T19:30:00";"GMT";"75.0K";"";"67.8K";"Low"
