{"events": {"event": [
    {
      "eventDateTime": "2013-07-11T01:00:00",
      "eventActual": "2.6%",
      "eventCountry": "Australia",
      "eventExpectedVolatility": "Low",
      "eventName": "MI Inflation Expectations",
      "eventTimeZone": "GMT",
      "eventPrevious": "2.3%",
      "eventCurrency": "AUD",
      "eventForecast": ""
    },
    {
      "eventDateTime": "2013-07-11T01:30:00",
      "eventActual": "10.3K",
      "eventCountry": "Australia",
      "eventExpectedVolatility": "High",
      "eventName": "Employment Change",
      "eventTimeZone": "GMT",
      "eventPrevious": "-0.7K",
      "eventCurrency": "AUD",
      "eventForecast": "-2.5K"
    },
    {
      "eventDateTime": "2013-07-11T01:30:00",
      "eventActual": "5.7%",
      "eventCountry": "Australia",
      "eventExpectedVolatility": "Moderate",
      "eventName": "Unemployment Rate",
      "eventTimeZone": "GMT",
      "eventPrevious": "5.6%",
      "eventCurrency": "AUD",
      "eventForecast": "5.6%"
    }
  ]}}
