{"events": {"event": {
    "eventDateTime": "2019-04-19T19:30:00",
    "eventActual": "-49.2K",
    "eventCountry": "Canada",
    "eventExpectedVolatility": "Low",
    "eventName": "CFTC CAD speculative net positions",
    "eventTimeZone": "GMT",
    "eventPrevious": "-43.2K",
    "eventCurrency": "CAD",
    "eventForecast": ""
  }}}
