"PPI (MoM)";"Russia";"RUB";"2014-01-27T12:00:00";"GMT";"-1.5%";"0.4%";"1.0%";"Low"
"PPI (YoY)";"Russia";"RUB";"2014-01-27T12:00:00";"GMT";"1.6%";"2.0%";"3.7%";"Low"
"Retail Sales (YoY)";"Russia";"RUB";"2014-01-27T12:00:00";"GMT";"4.5%";"4.0%";"4.0%";"Moderate"
