"Unemployment Rate (Q1)";"Singapore";"SGD";"2015-06-15T02:30:00";"GMT";"1.8%";"1.8%";"1.8%";"Low"
"Retail Sales (MoM) (Apr)";"Singapore";"SGD";"2015-06-15T05:00:00";"GMT";"1.1%";"1.2%";"0.8%";"Low"
"Retail Sales (YoY) (Apr)";"Singapore";"SGD";"2015-06-15T05:00:00";"GMT";"2.1%";"6.0%";"5.0%";"Low"
