{"events": {"event": {
    "eventDateTime": "2008-05-09T19:30:00",
    "eventActual": "-30.4K",
    "eventCountry": "United Kingdom",
    "eventExpectedVolatility": "Moderate",
    "eventName": "CFTC GBP speculative net positions",
    "eventTimeZone": "GMT",
    "eventPrevious": "-24.8K",
    "eventCurrency": "GBP",
    "eventForecast": ""
  }}}
