{"events": {"event": [
    {
      "eventDateTime": "2013-12-01T00:00:00",
      "eventActual": "4.80B",
      "eventCountry": "South Korea",
      "eventExpectedVolatility": "Low",
      "eventName": "Trade Balance",
      "eventTimeZone": "GMT",
      "eventPrevious": "4.90B",
      "eventCurrency": "KRW",
      "eventForecast": "4.55B"
    },
    {
      "eventDateTime": "2013-12-01T09:00:00",
      "eventActual": "-2.50%",
      "eventCountry": "South Korea",
      "eventExpectedVolatility": "Low",
      "eventName": "Export Price Index (YoY) (Nov)",
      "eventTimeZone": "GMT",
      "eventPrevious": "-4.50%",
      "eventCurrency": "KRW",
      "eventForecast": ""
    },
    {
      "eventDateTime": "2013-12-01T09:00:00",
      "eventActual": "0.20%",
      "eventCountry": "South Korea",
      "eventExpectedVolatility": "Low",
      "eventName": "Exports (YoY) (Nov)",
      "eventTimeZone": "GMT",
      "eventPrevious": "7.20%",
      "eventCurrency": "KRW",
      "eventForecast": ""
    },
    {
      "eventDateTime": "2013-12-01T09:00:00",
      "eventActual": "-4.90%",
      "eventCountry": "South Korea",
      "eventExpectedVolatility": "Low",
      "eventName": "Import Price Index (YoY) (Nov)",
      "eventTimeZone": "GMT",
      "eventPrevious": "-7.30%",
      "eventCurrency": "KRW",
      "eventForecast": ""
    },
    {
      "eventDateTime": "2013-12-01T09:00:00",
      "eventActual": "-0.60%",
      "eventCountry": "South Korea",
      "eventExpectedVolatility": "Low",
      "eventName": "Imports (YoY) (Nov)",
      "eventTimeZone": "GMT",
      "eventPrevious": "5.10%",
      "eventCurrency": "KRW",
      "eventForecast": ""
    },
    {
      "eventDateTime": "2013-12-01T23:00:00",
      "eventActual": "-0.1%",
      "eventCountry": "South Korea",
      "eventExpectedVolatility": "Low",
      "eventName": "CPI (MoM)",
      "eventTimeZone": "GMT",
      "eventPrevious": "-0.3%",
      "eventCurrency": "KRW",
      "eventForecast": "0.1%"
    },
    {
      "eventDateTime": "2013-12-01T23:00:00",
      "eventActual": "0.9%",
      "eventCountry": "South Korea",
      "eventExpectedVolatility": "Moderate",
      "eventName": "CPI (YoY)",
      "eventTimeZone": "GMT",
      "eventPrevious": "0.7%",
      "eventCurrency": "KRW",
      "eventForecast": "1.1%"
    }
  ]}}
