"Employment Change";"Australia";"AUD";"2013-11-07T00:30:00";"GMT";"3.3K";"10.0K";"1.1K";"High"
"Full Employment Change";"Australia";"AUD";"2013-11-07T00:30:00";"GMT";"-1.8K";"";"-27.9K";"Moderate"
"Participation Rate";"Australia";"AUD";"2013-11-07T00:30:00";"GMT";"64.8%";"64.9%";"64.8%";"Low"
"Unemployment Rate";"Australia";"AUD";"2013-11-07T00:30:00";"GMT";"5.7%";"5.7%";"5.7%";"Moderate"
