{"events": {"event": [
    {
      "eventDateTime": "2013-11-07T00:30:00",
      "eventActual": "1.1K",
      "eventCountry": "Australia",
      "eventExpectedVolatility": "High",
      "eventName": "Employment Change",
      "eventTimeZone": "GMT",
      "eventPrevious": "3.3K",
      "eventCurrency": "AUD",
      "eventForecast": "10.0K"
    },
    {
      "eventDateTime": "2013-11-07T00:30:00",
      "eventActual": "-27.9K",
      "eventCountry": "Australia",
      "eventExpectedVolatility": "Moderate",
      "eventName": "Full Employment Change",
      "eventTimeZone": "GMT",
      "eventPrevious": "-1.8K",
      "eventCurrency": "AUD",
      "eventForecast": ""
    },
    {
      "eventDateTime": "2013-11-07T00:30:00",
      "eventActual": "64.8%",
      "eventCountry": "Australia",
      "eventExpectedVolatility": "Low",
      "eventName": "Participation Rate",
      "eventTimeZone": "GMT",
      "eventPrevious": "64.8%",
      "eventCurrency": "AUD",
      "eventForecast": "64.9%"
    },
    {
      "eventDateTime": "2013-11-07T00:30:00",
      "eventActual": "5.7%",
      "eventCountry": "Australia",
      "eventExpectedVolatility": "Moderate",
      "eventName": "Unemployment Rate",
      "eventTimeZone": "GMT",
      "eventPrevious": "5.7%",
      "eventCurrency": "AUD",
      "eventForecast": "5.7%"
    }
  ]}}
