{"events": {"event": [
    {
      "eventDateTime": "2012-10-12T06:45:00",
      "eventActual": "-4.00B",
      "eventCountry": "France",
      "eventExpectedVolatility": "Low",
      "eventName": "French Current Account",
      "eventTimeZone": "GMT",
      "eventPrevious": "-2.60B",
      "eventCurrency": "EUR",
      "eventForecast": ""
    },
    {
      "eventDateTime": "2012-10-12T09:00:00",
      "eventActual": "0.6%",
      "eventCountry": "Euro Zone",
      "eventExpectedVolatility": "Moderate",
      "eventName": "Industrial Production (MoM)",
      "eventTimeZone": "GMT",
      "eventPrevious": "0.6%",
      "eventCurrency": "EUR",
      "eventForecast": "-0.4%"
    },
    {
      "eventDateTime": "2012-10-12T19:30:00",
      "eventActual": "-72.6K",
      "eventCountry": "Euro Zone",
      "eventExpectedVolatility": "Moderate",
      "eventName": "CFTC EUR speculative net positions",
      "eventTimeZone": "GMT",
      "eventPrevious": "-50.3K",
      "eventCurrency": "EUR",
      "eventForecast": ""
    }
  ]}}
