"Continuing Jobless Claims";"United States";"USD";"2013-07-11T12:30:00";"GMT";"2,953K";"2,950K";"2,977K";"Low"
"Import Price Index (MoM)";"United States";"USD";"2013-07-11T12:30:00";"GMT";"-0.7%";"0.1%";"-0.2%";"Moderate"
"Initial Jobless Claims";"United States";"USD";"2013-07-11T12:30:00";"GMT";"344K";"340K";"360K";"Moderate"
"Bloomberg Consumer Confidence";"United States";"USD";"2013-07-11T13:45:00";"GMT";"36.25";"";"36.35";"Low"
"Natural Gas Storage";"United States";"USD";"2013-07-11T14:30:00";"GMT";"72B";"82B";"82B";"Low"
"30-Year Bond Auction";"United States";"USD";"2013-07-11T17:00:00";"GMT";"3.355%";"";"3.660%";"Low"
"Federal Budget Balance";"United States";"USD";"2013-07-11T18:00:00";"GMT";"-139.0B";"39.5B";"116.5B";"Moderate"
