"Building Permits (Apr)";"United States";"USD";"2015-05-19T12:30:00";"GMT";"1.038M";"1.060M";"1.143M";"High"
"Building Permits (MoM) (Apr)";"United States";"USD";"2015-05-19T12:30:00";"GMT";"-5.5%";"2.2%";"10.1%";"Moderate"
"Housing Starts (Apr)";"United States";"USD";"2015-05-19T12:30:00";"GMT";"0.944M";"1.019M";"1.135M";"Moderate"
"Housing Starts (MoM) (Apr)";"United States";"USD";"2015-05-19T12:30:00";"GMT";"4.9%";"9.9%";"20.2%";"Moderate"
"Redbook (MoM)";"United States";"USD";"2015-05-19T12:55:00";"GMT";"0.0%";"";"-0.2%";"Low"
"Redbook (YoY)";"United States";"USD";"2015-05-19T12:55:00";"GMT";"2.1%";"";"1.8%";"Low"
"4-Week Bill Auction";"United States";"USD";"2015-05-19T15:30:00";"GMT";"0.010%";"";"0.015%";"Low"
"API Weekly Crude Oil Stock";"United States";"USD";"2015-05-19T20:30:00";"GMT";"-2.000M";"";"-5.200M";"Moderate"
"API Weekly Gasoline Stock";"United States";"USD";"2015-05-19T20:30:00";"GMT";"-1.600M";"";"-1.200M";"Low"
