{"events": {"event": [
    {
      "eventDateTime": "2013-04-02T00:00:00",
      "eventActual": "7.4%",
      "eventCountry": "New Zealand",
      "eventExpectedVolatility": "Low",
      "eventName": "ANZ Commodity Price Index (MoM)",
      "eventTimeZone": "GMT",
      "eventPrevious": "1.1%",
      "eventCurrency": "NZD",
      "eventForecast": ""
    },
    {
      "eventDateTime": "2013-04-02T20:00:00",
      "eventActual": "11.20%",
      "eventCountry": "New Zealand",
      "eventExpectedVolatility": "Moderate",
      "eventName": "GlobalDairyTrade Price Index",
      "eventTimeZone": "GMT",
      "eventPrevious": "14.70%",
      "eventCurrency": "NZD",
      "eventForecast": ""
    }
  ]}}
