{"events": {"event": [
    {
      "eventDateTime": "2017-06-02T01:00:00",
      "eventActual": "0.8%",
      "eventCountry": "Australia",
      "eventExpectedVolatility": "Moderate",
      "eventName": "HIA New Home Sales (MoM) (Apr)",
      "eventTimeZone": "GMT",
      "eventPrevious": "-1.1%",
      "eventCurrency": "AUD",
      "eventForecast": ""
    },
    {
      "eventDateTime": "2017-06-02T19:30:00",
      "eventActual": "3.1K",
      "eventCountry": "Australia",
      "eventExpectedVolatility": "Moderate",
      "eventName": "CFTC AUD speculative net positions",
      "eventTimeZone": "GMT",
      "eventPrevious": "2.6K",
      "eventCurrency": "AUD",
      "eventForecast": ""
    }
  ]}}
