{"events": {"event": {
    "eventDateTime": "2016-05-12T01:00:00",
    "eventActual": "3.2%",
    "eventCountry": "Australia",
    "eventExpectedVolatility": "Low",
    "eventName": "MI Inflation Expectations",
    "eventTimeZone": "GMT",
    "eventPrevious": "3.6%",
    "eventCurrency": "AUD",
    "eventForecast": ""
  }}}
