{"events": {"event": [
    {
      "eventDateTime": "2019-08-29T11:00:00",
      "eventActual": "-0.67%",
      "eventCountry": "Brazil",
      "eventExpectedVolatility": "Low",
      "eventName": "IGP-M Inflation Index (MoM) (Aug)",
      "eventTimeZone": "GMT",
      "eventPrevious": "0.40%",
      "eventCurrency": "BRL",
      "eventForecast": "-0.66%"
    },
    {
      "eventDateTime": "2019-08-29T12:00:00",
      "eventActual": "",
      "eventCountry": "Brazil",
      "eventExpectedVolatility": "Moderate",
      "eventName": "BCB National Monetary Council Meeting",
      "eventTimeZone": "GMT",
      "eventPrevious": "",
      "eventCurrency": "BRL",
      "eventForecast": ""
    },
    {
      "eventDateTime": "2019-08-29T12:00:00",
      "eventActual": "-1.24%",
      "eventCountry": "Brazil",
      "eventExpectedVolatility": "Low",
      "eventName": "Brazilian PPI (MoM) (Jul)",
      "eventTimeZone": "GMT",
      "eventPrevious": "-1.14%",
      "eventCurrency": "BRL",
      "eventForecast": ""
    },
    {
      "eventDateTime": "2019-08-29T12:00:00",
      "eventActual": "0.4%",
      "eventCountry": "Brazil",
      "eventExpectedVolatility": "Moderate",
      "eventName": "GDP (QoQ) (Q2)",
      "eventTimeZone": "GMT",
      "eventPrevious": "-0.2%",
      "eventCurrency": "BRL",
      "eventForecast": "0.2%"
    },
    {
      "eventDateTime": "2019-08-29T12:00:00",
      "eventActual": "1.0%",
      "eventCountry": "Brazil",
      "eventExpectedVolatility": "Moderate",
      "eventName": "GDP (YoY) (Q2)",
      "eventTimeZone": "GMT",
      "eventPrevious": "0.5%",
      "eventCurrency": "BRL",
      "eventForecast": "0.7%"
    }
  ]}}
