"30-Year JGB Auction";"Japan";"JPY";"2013-11-12T03:45:00";"GMT";"1.630%";"";"1.616%";"Low"
"Household Confidence";"Japan";"JPY";"2013-11-12T05:00:00";"GMT";"45.4";"46.3";"41.2";"Low"
"Machine Tool Orders (YoY)";"Japan";"JPY";"2013-11-12T06:00:00";"GMT";"-6.3%";"";"8.4%";"Low"
"Core Machinery Orders (MoM)";"Japan";"JPY";"2013-11-12T23:50:00";"GMT";"5.4%";"-1.4%";"-2.1%";"Low"
"Core Machinery Orders (YoY)";"Japan";"JPY";"2013-11-12T23:50:00";"GMT";"10.3%";"12.6%";"11.4%";"Low"
"PPI (MoM)";"Japan";"JPY";"2013-11-12T23:50:00";"GMT";"0.3%";"-0.2%";"-0.1%";"Low"
"PPI (YoY)";"Japan";"JPY";"2013-11-12T23:50:00";"GMT";"2.3%";"2.5%";"2.5%";"Low"
