{"events": {"event": {
    "eventDateTime": "2009-12-25T20:30:00",
    "eventActual": "-4.6K",
    "eventCountry": "Switzerland",
    "eventExpectedVolatility": "Low",
    "eventName": "CFTC CHF speculative net positions",
    "eventTimeZone": "GMT",
    "eventPrevious": "0.5K",
    "eventCurrency": "CHF",
    "eventForecast": ""
  }}}
