"FGV Consumer confidence (Dec)";"Brazil";"BRL";"2018-12-21T10:00:00";"GMT";"93.2";"";"93.8";"Low"
"Mid-Month CPI (MoM) (Dec)";"Brazil";"BRL";"2018-12-21T11:00:00";"GMT";"0.19%";"-0.12%";"-0.16%";"Low"
"Mid-Month CPI (YoY) (Dec)";"Brazil";"BRL";"2018-12-21T11:00:00";"GMT";"4.39%";"3.90%";"3.86%";"Low"
"Current Account (USD) (Nov)";"Brazil";"BRL";"2018-12-21T12:30:00";"GMT";"0.34B";"-1.90B";"-0.80B";"Low"
"Foreign direct investment (USD) (Nov)";"Brazil";"BRL";"2018-12-21T12:30:00";"GMT";"10.38B";"11.00B";"10.27B";"Low"
"Federal Tax Revenue (Nov)";"Brazil";"BRL";"2018-12-21T16:00:00";"GMT";"131.88B";"122.60B";"119.42B";"Low"
"CFTC BRL speculative net positions";"Brazil";"BRL";"2018-12-21T20:30:00";"GMT";"0.0K";"";"0.2K";"Moderate"
