{"events": {"event": [
    {
      "eventDateTime": "2019-01-31T07:00:00",
      "eventActual": "-4.3%",
      "eventCountry": "Germany",
      "eventExpectedVolatility": "Moderate",
      "eventName": "German Retail Sales (MoM) (Dec)",
      "eventTimeZone": "GMT",
      "eventPrevious": "1.4%",
      "eventCurrency": "EUR",
      "eventForecast": "-0.5%"
    },
    {
      "eventDateTime": "2019-01-31T07:00:00",
      "eventActual": "-2.1%",
      "eventCountry": "Germany",
      "eventExpectedVolatility": "Low",
      "eventName": "German Retail Sales (YoY) (Dec)",
      "eventTimeZone": "GMT",
      "eventPrevious": "1.1%",
      "eventCurrency": "EUR",
      "eventForecast": ""
    },
    {
      "eventDateTime": "2019-01-31T07:45:00",
      "eventActual": "-0.5%",
      "eventCountry": "France",
      "eventExpectedVolatility": "Moderate",
      "eventName": "French CPI (MoM)",
      "eventTimeZone": "GMT",
      "eventPrevious": "0.0%",
      "eventCurrency": "EUR",
      "eventForecast": "-0.5%"
    },
    {
      "eventDateTime": "2019-01-31T07:45:00",
      "eventActual": "1.2%",
      "eventCountry": "France",
      "eventExpectedVolatility": "Low",
      "eventName": "French CPI (YoY)",
      "eventTimeZone": "GMT",
      "eventPrevious": "1.6%",
      "eventCurrency": "EUR",
      "eventForecast": ""
    },
    {
      "eventDateTime": "2019-01-31T07:45:00",
      "eventActual": "-0.6%",
      "eventCountry": "France",
      "eventExpectedVolatility": "Moderate",
      "eventName": "French HICP (MoM)",
      "eventTimeZone": "GMT",
      "eventPrevious": "0.1%",
      "eventCurrency": "EUR",
      "eventForecast": ""
    },
    {
      "eventDateTime": "2019-01-31T07:45:00",
      "eventActual": "1.4%",
      "eventCountry": "France",
      "eventExpectedVolatility": "Low",
      "eventName": "French HICP (YoY)",
      "eventTimeZone": "GMT",
      "eventPrevious": "1.9%",
      "eventCurrency": "EUR",
      "eventForecast": "1.4%"
    },
    {
      "eventDateTime": "2019-01-31T08:00:00",
      "eventActual": "",
      "eventCountry": "Euro Zone",
      "eventExpectedVolatility": "Moderate",
      "eventName": "ECB's Coeure Speaks",
      "eventTimeZone": "GMT",
      "eventPrevious": "",
      "eventCurrency": "EUR",
      "eventForecast": ""
    },
    {
      "eventDateTime": "2019-01-31T08:00:00",
      "eventActual": "-1.3%",
      "eventCountry": "Spain",
      "eventExpectedVolatility": "Low",
      "eventName": "Spanish CPI (MoM)",
      "eventTimeZone": "GMT",
      "eventPrevious": "-0.4%",
      "eventCurrency": "EUR",
      "eventForecast": ""
    },
    {
      "eventDateTime": "2019-01-31T08:00:00",
      "eventActual": "1.0%",
      "eventCountry": "Spain",
      "eventExpectedVolatility": "Moderate",
      "eventName": "Spanish CPI (YoY)",
      "eventTimeZone": "GMT",
      "eventPrevious": "1.2%",
      "eventCurrency": "EUR",
      "eventForecast": "1.1%"
    },
    {
      "eventDateTime": "2019-01-31T08:00:00",
      "eventActual": "0.7%",
      "eventCountry": "Spain",
      "eventExpectedVolatility": "Moderate",
      "eventName": "Spanish GDP (QoQ) (Q4)",
      "eventTimeZone": "GMT",
      "eventPrevious": "0.6%",
      "eventCurrency": "EUR",
      "eventForecast": "0.6%"
    },
    {
      "eventDateTime": "2019-01-31T08:00:00",
      "eventActual": "2.4%",
      "eventCountry": "Spain",
      "eventExpectedVolatility": "Low",
      "eventName": "Spanish GDP (YoY) (Q4)",
      "eventTimeZone": "GMT",
      "eventPrevious": "2.4%",
      "eventCurrency": "EUR",
      "eventForecast": "2.3%"
    },
    {
      "eventDateTime": "2019-01-31T08:00:00",
      "eventActual": "-1.7%",
      "eventCountry": "Spain",
      "eventExpectedVolatility": "Low",
      "eventName": "Spanish HICP (MoM)",
      "eventTimeZone": "GMT",
      "eventPrevious": "-0.5%",
      "eventCurrency": "EUR",
      "eventForecast": "-1.6%"
    },
    {
      "eventDateTime": "2019-01-31T08:00:00",
      "eventActual": "1.0%",
      "eventCountry": "Spain",
      "eventExpectedVolatility": "Moderate",
      "eventName": "Spanish HICP (YoY)",
      "eventTimeZone": "GMT",
      "eventPrevious": "1.2%",
      "eventCurrency": "EUR",
      "eventForecast": "1.1%"
    },
    {
      "eventDateTime": "2019-01-31T08:00:00",
      "eventActual": "1.0%",
      "eventCountry": "Spain",
      "eventExpectedVolatility": "Moderate",
      "eventName": "Spanish HICP (YoY) (Jan)",
      "eventTimeZone": "GMT",
      "eventPrevious": "1.2%",
      "eventCurrency": "EUR",
      "eventForecast": "1.1%"
    },
    {
      "eventDateTime": "2019-01-31T08:55:00",
      "eventActual": "2.263M",
      "eventCountry": "Germany",
      "eventExpectedVolatility": "Low",
      "eventName": "German Unemployment (Jan)",
      "eventTimeZone": "GMT",
      "eventPrevious": "2.265M",
      "eventCurrency": "EUR",
      "eventForecast": ""
    },
    {
      "eventDateTime": "2019-01-31T08:55:00",
      "eventActual": "-2K",
      "eventCountry": "Germany",
      "eventExpectedVolatility": "High",
      "eventName": "German Unemployment Change (Jan)",
      "eventTimeZone": "GMT",
      "eventPrevious": "-14K",
      "eventCurrency": "EUR",
      "eventForecast": "-11K"
    },
    {
      "eventDateTime": "2019-01-31T08:55:00",
      "eventActual": "5.0%",
      "eventCountry": "Germany",
      "eventExpectedVolatility": "Moderate",
      "eventName": "German Unemployment Rate (Jan)",
      "eventTimeZone": "GMT",
      "eventPrevious": "5.0%",
      "eventCurrency": "EUR",
      "eventForecast": "5.0%"
    },
    {
      "eventDateTime": "2019-01-31T08:55:00",
      "eventActual": "2.406M",
      "eventCountry": "Germany",
      "eventExpectedVolatility": "Low",
      "eventName": "German Unemployment n.s.a. (Jan)",
      "eventTimeZone": "GMT",
      "eventPrevious": "2.210M",
      "eventCurrency": "EUR",
      "eventForecast": ""
    },
    {
      "eventDateTime": "2019-01-31T09:00:00",
      "eventActual": "10.3%",
      "eventCountry": "Italy",
      "eventExpectedVolatility": "Low",
      "eventName": "Italian Monthly Unemployment Rate (Dec)",
      "eventTimeZone": "GMT",
      "eventPrevious": "10.5%",
      "eventCurrency": "EUR",
      "eventForecast": "10.6%"
    },
    {
      "eventDateTime": "2019-01-31T09:00:00",
      "eventActual": "1.77B",
      "eventCountry": "Spain",
      "eventExpectedVolatility": "Low",
      "eventName": "Spanish Current account (Nov)",
      "eventTimeZone": "GMT",
      "eventPrevious": "0.30B",
      "eventCurrency": "EUR",
      "eventForecast": ""
    },
    {
      "eventDateTime": "2019-01-31T10:00:00",
      "eventActual": "0.2%",
      "eventCountry": "Euro Zone",
      "eventExpectedVolatility": "Moderate",
      "eventName": "GDP (QoQ)",
      "eventTimeZone": "GMT",
      "eventPrevious": "0.2%",
      "eventCurrency": "EUR",
      "eventForecast": "0.2%"
    },
    {
      "eventDateTime": "2019-01-31T10:00:00",
      "eventActual": "1.2%",
      "eventCountry": "Euro Zone",
      "eventExpectedVolatility": "Moderate",
      "eventName": "GDP (YoY)",
      "eventTimeZone": "GMT",
      "eventPrevious": "1.6%",
      "eventCurrency": "EUR",
      "eventForecast": "1.2%"
    },
    {
      "eventDateTime": "2019-01-31T10:00:00",
      "eventActual": "-0.2%",
      "eventCountry": "Italy",
      "eventExpectedVolatility": "Low",
      "eventName": "Italian GDP (QoQ) (Q4)",
      "eventTimeZone": "GMT",
      "eventPrevious": "-0.1%",
      "eventCurrency": "EUR",
      "eventForecast": "-0.1%"
    },
    {
      "eventDateTime": "2019-01-31T10:00:00",
      "eventActual": "0.1%",
      "eventCountry": "Italy",
      "eventExpectedVolatility": "Low",
      "eventName": "Italian GDP (YoY) (Q4)",
      "eventTimeZone": "GMT",
      "eventPrevious": "0.6%",
      "eventCurrency": "EUR",
      "eventForecast": "0.3%"
    },
    {
      "eventDateTime": "2019-01-31T10:00:00",
      "eventActual": "7.9%",
      "eventCountry": "Euro Zone",
      "eventExpectedVolatility": "Moderate",
      "eventName": "Unemployment Rate (Dec)",
      "eventTimeZone": "GMT",
      "eventPrevious": "7.9%",
      "eventCurrency": "EUR",
      "eventForecast": "7.9%"
    },
    {
      "eventDateTime": "2019-01-31T10:15:00",
      "eventActual": "",
      "eventCountry": "Euro Zone",
      "eventExpectedVolatility": "Moderate",
      "eventName": "ECB's Mersch Speaks",
      "eventTimeZone": "GMT",
      "eventPrevious": "",
      "eventCurrency": "EUR",
      "eventForecast": ""
    },
    {
      "eventDateTime": "2019-01-31T16:00:00",
      "eventActual": "",
      "eventCountry": "Germany",
      "eventExpectedVolatility": "Moderate",
      "eventName": "German Buba President Weidmann Speaks",
      "eventTimeZone": "GMT",
      "eventPrevious": "",
      "eventCurrency": "EUR",
      "eventForecast": ""
    }
  ]}}
