{"events": {"event": [
    {
      "eventDateTime": "2019-12-29T23:00:00",
      "eventActual": "-0.5%",
      "eventCountry": "South Korea",
      "eventExpectedVolatility": "Low",
      "eventName": "Industrial Production (MoM) (Nov)",
      "eventTimeZone": "GMT",
      "eventPrevious": "-1.7%",
      "eventCurrency": "KRW",
      "eventForecast": "0.5%"
    },
    {
      "eventDateTime": "2019-12-29T23:00:00",
      "eventActual": "-0.3%",
      "eventCountry": "South Korea",
      "eventExpectedVolatility": "Low",
      "eventName": "Industrial Production (YoY) (Nov)",
      "eventTimeZone": "GMT",
      "eventPrevious": "-2.1%",
      "eventCurrency": "KRW",
      "eventForecast": "-1.4%"
    },
    {
      "eventDateTime": "2019-12-29T23:00:00",
      "eventActual": "3.0%",
      "eventCountry": "South Korea",
      "eventExpectedVolatility": "Low",
      "eventName": "Retail Sales (MoM)",
      "eventTimeZone": "GMT",
      "eventPrevious": "-0.4%",
      "eventCurrency": "KRW",
      "eventForecast": ""
    },
    {
      "eventDateTime": "2019-12-29T23:00:00",
      "eventActual": "1.4%",
      "eventCountry": "South Korea",
      "eventExpectedVolatility": "Low",
      "eventName": "Service Sector Output (MoM) (Nov)",
      "eventTimeZone": "GMT",
      "eventPrevious": "0.3%",
      "eventCurrency": "KRW",
      "eventForecast": ""
    }
  ]}}
