{"events": {"event": [
    {
      "eventDateTime": "2015-06-04T01:30:00",
      "eventActual": "-6%",
      "eventCountry": "Australia",
      "eventExpectedVolatility": "Low",
      "eventName": "Exports (MoM) (Apr)",
      "eventTimeZone": "GMT",
      "eventPrevious": "-2%",
      "eventCurrency": "AUD",
      "eventForecast": ""
    },
    {
      "eventDateTime": "2015-06-04T01:30:00",
      "eventActual": "4%",
      "eventCountry": "Australia",
      "eventExpectedVolatility": "Low",
      "eventName": "Imports (MoM) (Apr)",
      "eventTimeZone": "GMT",
      "eventPrevious": "-2%",
      "eventCurrency": "AUD",
      "eventForecast": ""
    },
    {
      "eventDateTime": "2015-06-04T01:30:00",
      "eventActual": "0.0%",
      "eventCountry": "Australia",
      "eventExpectedVolatility": "High",
      "eventName": "Retail Sales (MoM) (Apr)",
      "eventTimeZone": "GMT",
      "eventPrevious": "0.2%",
      "eventCurrency": "AUD",
      "eventForecast": "0.4%"
    },
    {
      "eventDateTime": "2015-06-04T01:30:00",
      "eventActual": "-3.888B",
      "eventCountry": "Australia",
      "eventExpectedVolatility": "Moderate",
      "eventName": "Trade Balance (Apr)",
      "eventTimeZone": "GMT",
      "eventPrevious": "-1.231B",
      "eventCurrency": "AUD",
      "eventForecast": "-2.250B"
    },
    {
      "eventDateTime": "2015-06-04T23:30:00",
      "eventActual": "47.8",
      "eventCountry": "Australia",
      "eventExpectedVolatility": "Low",
      "eventName": "AIG Construction Index (May)",
      "eventTimeZone": "GMT",
      "eventPrevious": "47.0",
      "eventCurrency": "AUD",
      "eventForecast": ""
    }
  ]}}
