{"events": {"event": [
    {
      "eventDateTime": "2013-06-13T12:30:00",
      "eventActual": "81.1%",
      "eventCountry": "Canada",
      "eventExpectedVolatility": "Low",
      "eventName": "Capacity Utilization Rate",
      "eventTimeZone": "GMT",
      "eventPrevious": "80.5%",
      "eventCurrency": "CAD",
      "eventForecast": "82.0%"
    },
    {
      "eventDateTime": "2013-06-13T12:30:00",
      "eventActual": "0.2%",
      "eventCountry": "Canada",
      "eventExpectedVolatility": "Moderate",
      "eventName": "New Housing Price Index (MoM)",
      "eventTimeZone": "GMT",
      "eventPrevious": "0.1%",
      "eventCurrency": "CAD",
      "eventForecast": "0.3%"
    }
  ]}}
