"BoJ Monthly Report";"Japan";"JPY";"2010-11-08T05:00:00";"GMT";" ";"";"";"Moderate"
"Leading Index";"Japan";"JPY";"2010-11-08T05:00:00";"GMT";"99.5";"99.0";"98.9";"Low"
"Adjusted Current Account";"Japan";"JPY";"2010-11-08T23:50:00";"GMT";"1.18T";"1.23T";"1.66T";"Moderate"
"Bank Lending (YoY)";"Japan";"JPY";"2010-11-08T23:50:00";"GMT";"-1.8%";"";"-1.9%";"Low"
"M2 Money Stock (YoY)";"Japan";"JPY";"2010-11-08T23:50:00";"GMT";"2.8%";"2.8%";"2.7%";"Low"
