{"events": {"event": [
    {
      "eventDateTime": "2009-03-27T00:00:00",
      "eventActual": "-0.1%",
      "eventCountry": "Germany",
      "eventExpectedVolatility": "Moderate",
      "eventName": "German CPI (MoM)",
      "eventTimeZone": "GMT",
      "eventPrevious": "0.6%",
      "eventCurrency": "EUR",
      "eventForecast": "0.2%"
    },
    {
      "eventDateTime": "2009-03-27T07:00:00",
      "eventActual": "-0.5%",
      "eventCountry": "Germany",
      "eventExpectedVolatility": "Low",
      "eventName": "German Import Price Index (MoM)",
      "eventTimeZone": "GMT",
      "eventPrevious": "-4.0%",
      "eventCurrency": "EUR",
      "eventForecast": "-0.4%"
    },
    {
      "eventDateTime": "2009-03-27T10:00:00",
      "eventActual": "-3.4%",
      "eventCountry": "Euro Zone",
      "eventExpectedVolatility": "Moderate",
      "eventName": "Industrial New Orders (MoM)",
      "eventTimeZone": "GMT",
      "eventPrevious": "-5.2%",
      "eventCurrency": "EUR",
      "eventForecast": "-6.0%"
    },
    {
      "eventDateTime": "2009-03-27T19:30:00",
      "eventActual": "-5.5K",
      "eventCountry": "Euro Zone",
      "eventExpectedVolatility": "Moderate",
      "eventName": "CFTC EUR speculative net positions",
      "eventTimeZone": "GMT",
      "eventPrevious": "-9.0K",
      "eventCurrency": "EUR",
      "eventForecast": ""
    }
  ]}}
