"CPI (MoM) (Mar)";"Canada";"CAD";"2017-04-21T12:30:00";"GMT";"0.2%";"0.4%";"0.2%";"Moderate"
"CPI (YoY) (Mar)";"Canada";"CAD";"2017-04-21T12:30:00";"GMT";"2.0%";"1.8%";"1.6%";"Low"
"Core CPI (MoM) (Mar)";"Canada";"CAD";"2017-04-21T12:30:00";"GMT";"0.4%";"";"0.3%";"High"
"Core CPI (YoY) (Mar)";"Canada";"CAD";"2017-04-21T12:30:00";"GMT";"1.7%";"";"1.3%";"Moderate"
"CFTC CAD speculative net positions";"Canada";"CAD";"2017-04-21T19:30:00";"GMT";"-32.3K";"";"-33.3K";"Low"
