"Government Budget Balance";"Russia";"RUB";"2012-11-20T08:30:00";"GMT";"1.59T";"1.63T";"1.59T";"Low"
"Retail Sales (YoY)";"Russia";"RUB";"2012-11-20T12:00:00";"GMT";"4.4%";"4.5%";"3.8%";"Moderate"
"Unemployment Rate";"Russia";"RUB";"2012-11-20T12:00:00";"GMT";"5.2%";"5.3%";"5.3%";"Moderate"
