{"events": {"event": {
    "eventDateTime": "2019-01-20T23:00:00",
    "eventActual": "18",
    "eventCountry": "Japan",
    "eventExpectedVolatility": "Low",
    "eventName": "Reuters Tankan Index (Jan)",
    "eventTimeZone": "GMT",
    "eventPrevious": "23",
    "eventCurrency": "JPY",
    "eventForecast": ""
  }}}
