"CPI (MoM) (Oct)";"Switzerland";"CHF";"2002-11-01T09:00:00";"GMT";"0.20%";"";"0.60%";"Moderate"
"CPI (YoY) (Oct)";"Switzerland";"CHF";"2002-11-01T09:00:00";"GMT";"0.50%";"";"1.20%";"Low"
"Consumption Indicator (Oct)";"Switzerland";"CHF";"2002-11-01T09:00:00";"GMT";"1.30";"";"0.63";"Low"
"KOF Leading Indicators (Oct)";"Switzerland";"CHF";"2002-11-01T09:00:00";"GMT";"92.80";"";"94.50";"Moderate"
"PPI (MoM) (Oct)";"Switzerland";"CHF";"2002-11-01T09:00:00";"GMT";"0.20%";"";"0.00%";"Moderate"
"PPI (YoY) (Oct)";"Switzerland";"CHF";"2002-11-01T09:00:00";"GMT";"-1.20%";"";"-0.60%";"Low"
"Retail Sales (YoY) (Oct)";"Switzerland";"CHF";"2002-11-01T09:00:00";"GMT";"-3.30%";"";"0.70%";"Moderate"
"Trade Balance (Oct)";"Switzerland";"CHF";"2002-11-01T09:00:00";"GMT";"1.24B";"";"0.99B";"Low"
"Unemployment Rate n.s.a. (Oct)";"Switzerland";"CHF";"2002-11-01T09:00:00";"GMT";"2.60%";"";"2.80%";"Moderate"
"Unemployment Rate s.a. (Oct)";"Switzerland";"CHF";"2002-11-01T09:00:00";"GMT";"2.80%";"";"2.90%";"Moderate"
"procure.ch PMI (Oct)";"Switzerland";"CHF";"2002-11-01T09:00:00";"GMT";"45.80";"";"45.90";"Moderate"
