{"events": {"event": {
    "eventDateTime": "2012-06-10T03:00:00",
    "eventActual": "18.70B",
    "eventCountry": "China",
    "eventExpectedVolatility": "Moderate",
    "eventName": "Trade Balance (USD)",
    "eventTimeZone": "GMT",
    "eventPrevious": "18.40B",
    "eventCurrency": "CNY",
    "eventForecast": "16.30B"
  }}}
