{"events": {"event": [
    {
      "eventDateTime": "2015-07-14T02:05:00",
      "eventActual": "11.8%",
      "eventCountry": "China",
      "eventExpectedVolatility": "Low",
      "eventName": "M2 Money Stock (YoY)",
      "eventTimeZone": "GMT",
      "eventPrevious": "10.8%",
      "eventCurrency": "CNY",
      "eventForecast": "11.0%"
    },
    {
      "eventDateTime": "2015-07-14T02:05:00",
      "eventActual": "1,280.0B",
      "eventCountry": "China",
      "eventExpectedVolatility": "Moderate",
      "eventName": "New Loans (Jun)",
      "eventTimeZone": "GMT",
      "eventPrevious": "900.8B",
      "eventCurrency": "CNY",
      "eventForecast": "1,050.0B"
    }
  ]}}
