{"events": {"event": {
    "eventDateTime": "2010-04-22T01:30:00",
    "eventActual": "-2.7%",
    "eventCountry": "Australia",
    "eventExpectedVolatility": "Low",
    "eventName": "New Motor Vehicle Sales (MoM)",
    "eventTimeZone": "GMT",
    "eventPrevious": "-1.9%",
    "eventCurrency": "AUD",
    "eventForecast": ""
  }}}
