"CPI (MoM)";"Canada";"CAD";"2013-12-20T13:30:00";"GMT";"-0.2%";"-0.2%";"0.0%";"Moderate"
"CPI (YoY)";"Canada";"CAD";"2013-12-20T13:30:00";"GMT";"0.7%";"1.0%";"0.9%";"Low"
"Core CPI (MoM)";"Canada";"CAD";"2013-12-20T13:30:00";"GMT";"0.2%";"0.1%";"-0.1%";"High"
"Core CPI (YoY)";"Canada";"CAD";"2013-12-20T13:30:00";"GMT";"1.2%";"1.0%";"1.1%";"Moderate"
"Core Retail Sales (MoM)";"Canada";"CAD";"2013-12-20T13:30:00";"GMT";"0.2%";"0.0%";"0.4%";"High"
"Retail Sales (MoM)";"Canada";"CAD";"2013-12-20T13:30:00";"GMT";"1.0%";"0.3%";"-0.1%";"Moderate"
"CFTC CAD speculative net positions";"Canada";"CAD";"2013-12-20T20:30:00";"GMT";"-57.5K";"";"-65.5K";"Low"
