"Bank Lending (Aug)";"Singapore";"SGD";"2002-09-01T09:00:00";"GMT";"160.70B";"";"161.00B";"Low"
"CPI (YoY) (Aug)";"Singapore";"SGD";"2002-09-01T09:00:00";"GMT";"-0.43%";"";"-0.44%";"Moderate"
"Foreign Reserves USD (MoM) (Aug)";"Singapore";"SGD";"2002-09-01T09:00:00";"GMT";"80.20B";"";"80.80B";"Low"
"Industrial Production (MoM) (Aug)";"Singapore";"SGD";"2002-09-01T09:00:00";"GMT";"1.40%";"";"-3.80%";"Low"
"Industrial Production (YoY) (Aug)";"Singapore";"SGD";"2002-09-01T09:00:00";"GMT";"18.90%";"";"16.70%";"Low"
"Manufacturing PMI (Aug)";"Singapore";"SGD";"2002-09-01T09:00:00";"GMT";"52.30";"";"50.80";"Low"
"Non-Oil Exports (YoY) (Aug)";"Singapore";"SGD";"2002-09-01T09:00:00";"GMT";"16.80%";"";"14.70%";"Low"
"Retail Sales (MoM) (Aug)";"Singapore";"SGD";"2002-09-01T09:00:00";"GMT";"6.80%";"";"-1.50%";"Low"
"Retail Sales (YoY) (Aug)";"Singapore";"SGD";"2002-09-01T09:00:00";"GMT";"2.20%";"";"-8.20%";"Low"
