{"events": {"event": {
    "eventDateTime": "2020-01-05T21:00:00",
    "eventActual": "408.82B",
    "eventCountry": "South Korea",
    "eventExpectedVolatility": "Low",
    "eventName": "FX Reserves - USD",
    "eventTimeZone": "GMT",
    "eventPrevious": "407.46B",
    "eventCurrency": "KRW",
    "eventForecast": ""
  }}}
