{"events": {"event": {
    "eventDateTime": "2017-10-12T12:30:00",
    "eventActual": "0.1%",
    "eventCountry": "Canada",
    "eventExpectedVolatility": "Moderate",
    "eventName": "New Housing Price Index (MoM) (Aug)",
    "eventTimeZone": "GMT",
    "eventPrevious": "0.4%",
    "eventCurrency": "CAD",
    "eventForecast": "0.3%"
  }}}
