"Home Loans (MoM) (Mar)";"Australia";"AUD";"2017-05-15T01:30:00";"GMT";"-0.8%";"0.1%";"-0.5%";"Moderate"
"Invest Housing Finance (MoM) (Mar)";"Australia";"AUD";"2017-05-15T01:30:00";"GMT";"-5.9%";"";"0.8%";"Low"
"Investing.com AUD/USD Index";"Australia";"AUD";"2017-05-15T05:30:00";"GMT";"64.2%";"";"57.9%";"Moderate"
