"Core Retail Sales (MoM)";"United States";"USD";"2011-08-12T12:30:00";"GMT";"0.2%";"0.2%";"0.5%";"High"
"Retail Sales (MoM)";"United States";"USD";"2011-08-12T12:30:00";"GMT";"0.3%";"0.5%";"0.5%";"High"
"Michigan Consumer Sentiment";"United States";"USD";"2011-08-12T13:55:00";"GMT";"63.7";"63.0";"54.9";"Moderate"
"Michigan Inflation Expectations";"United States";"USD";"2011-08-12T13:55:00";"GMT";"3.4%";"";"3.4%";"Low"
"Business Inventories (MoM)";"United States";"USD";"2011-08-12T14:00:00";"GMT";"0.9%";"0.6%";"0.3%";"Moderate"
"U.S. Baker Hughes Oil Rig Count";"United States";"USD";"2011-08-12T17:00:00";"GMT";"1031";"";"1055";"Moderate"
"CFTC Gold speculative net positions";"United States";"USD";"2011-08-12T19:30:00";"GMT";"247.2K";"";"203.6K";"Moderate"
"CFTC Silver speculative net positions";"United States";"USD";"2011-08-12T19:30:00";"GMT";"24.9K";"";"18.4K";"Low"
"CFTC Crude Oil speculative net positions";"United States";"USD";"2011-08-12T20:30:00";"GMT";"147.4k";"";"135.7k";"Moderate"
