"Auto Production (MoM) (Aug)";"Brazil";"BRL";"2002-09-01T09:00:00";"GMT";"2.13%";"";"-4.55%";"Low"
"Auto Sales (MoM) (Aug)";"Brazil";"BRL";"2002-09-01T09:00:00";"GMT";"16.00%";"";"1.46%";"Low"
"Bank lending (MoM) (Aug)";"Brazil";"BRL";"2002-09-01T09:00:00";"GMT";"1.94%";"";"-1.29%";"Low"
"Budget Balance (Aug)";"Brazil";"BRL";"2002-09-01T09:00:00";"GMT";"-1.18B";"";"-8.11B";"Low"
"Budget Surplus (Aug)";"Brazil";"BRL";"2002-09-01T09:00:00";"GMT";"3.81B";"";"1.23B";"Low"
"CAGED Net Payroll Jobs (Aug)";"Brazil";"BRL";"2002-09-01T09:00:00";"GMT";"61.00K";"";"78.00K";"Moderate"
"CPI (MoM) (Aug)";"Brazil";"BRL";"2002-09-01T09:00:00";"GMT";"1.19%";"";"0.65%";"Moderate"
"CPI (YoY) (Aug)";"Brazil";"BRL";"2002-09-01T09:00:00";"GMT";"7.51%";"";"7.46%";"Moderate"
"Debt-to-GDP ratio (Aug)";"Brazil";"BRL";"2002-09-01T09:00:00";"GMT";"58.70%";"";"55.80%";"Low"
"Federal Tax Revenue (Aug)";"Brazil";"BRL";"2002-09-01T09:00:00";"GMT";"28.00B";"";"25.00B";"Low"
"Foreign direct investment (USD) (Aug)";"Brazil";"BRL";"2002-09-01T09:00:00";"GMT";"0.93B";"";"0.88B";"Low"
"IGP-DI Inflation Index (MoM) (Aug)";"Brazil";"BRL";"2002-09-01T09:00:00";"GMT";"2.05%";"";"2.36%";"Low"
"IGP-M Inflation Index (MoM) (Aug)";"Brazil";"BRL";"2002-09-01T09:00:00";"GMT";"1.95%";"";"2.32%";"Low"
"IPC-Fipe Inflation Index (MoM) (Aug)";"Brazil";"BRL";"2002-09-01T09:00:00";"GMT";"0.67%";"";"1.01%";"Moderate"
"Industrial Production (MoM) (Aug)";"Brazil";"BRL";"2002-09-01T09:00:00";"GMT";"0.00%";"";"-1.25%";"Low"
"Industrial Production (YoY) (Aug)";"Brazil";"BRL";"2002-09-01T09:00:00";"GMT";"2.40%";"";"-0.13%";"Moderate"
"Mid-Month CPI (MoM) (Aug)";"Brazil";"BRL";"2002-09-01T09:00:00";"GMT";"0.77%";"";"1.00%";"Low"
"Mid-Month CPI (YoY) (Aug)";"Brazil";"BRL";"2002-09-01T09:00:00";"GMT";"7.47%";"";"7.28%";"Low"
"Retail Sales (MoM) (Aug)";"Brazil";"BRL";"2002-09-01T09:00:00";"GMT";"1.42%";"";"0.70%";"Moderate"
"Retail Sales (YoY) (Aug)";"Brazil";"BRL";"2002-09-01T09:00:00";"GMT";"1.81%";"";"2.29%";"Moderate"
"Trade Balance (Aug)";"Brazil";"BRL";"2002-09-01T09:00:00";"GMT";"1.21B";"";"1.58B";"Low"
"Unemployment Rate (Aug)";"Brazil";"BRL";"2002-09-01T09:00:00";"GMT";"11.90%";"";"11.70%";"Moderate"
