{"events": {"event": [
    {
      "eventDateTime": "2018-10-24T06:45:00",
      "eventActual": "104",
      "eventCountry": "France",
      "eventExpectedVolatility": "Low",
      "eventName": "French Business Survey (Oct)",
      "eventTimeZone": "GMT",
      "eventPrevious": "107",
      "eventCurrency": "EUR",
      "eventForecast": "107"
    },
    {
      "eventDateTime": "2018-10-24T07:15:00",
      "eventActual": "51.2",
      "eventCountry": "France",
      "eventExpectedVolatility": "Moderate",
      "eventName": "French Manufacturing PMI (Oct)",
      "eventTimeZone": "GMT",
      "eventPrevious": "52.5",
      "eventCurrency": "EUR",
      "eventForecast": "52.4"
    },
    {
      "eventDateTime": "2018-10-24T07:15:00",
      "eventActual": "54.3",
      "eventCountry": "France",
      "eventExpectedVolatility": "Low",
      "eventName": "French Markit Composite PMI (Oct)",
      "eventTimeZone": "GMT",
      "eventPrevious": "54.0",
      "eventCurrency": "EUR",
      "eventForecast": "53.8"
    },
    {
      "eventDateTime": "2018-10-24T07:15:00",
      "eventActual": "55.6",
      "eventCountry": "France",
      "eventExpectedVolatility": "Moderate",
      "eventName": "French Services PMI (Oct)",
      "eventTimeZone": "GMT",
      "eventPrevious": "54.8",
      "eventCurrency": "EUR",
      "eventForecast": "54.7"
    },
    {
      "eventDateTime": "2018-10-24T07:30:00",
      "eventActual": "52.7",
      "eventCountry": "Germany",
      "eventExpectedVolatility": "Low",
      "eventName": "German Composite PMI (Oct)",
      "eventTimeZone": "GMT",
      "eventPrevious": "55.0",
      "eventCurrency": "EUR",
      "eventForecast": "54.8"
    },
    {
      "eventDateTime": "2018-10-24T07:30:00",
      "eventActual": "52.3",
      "eventCountry": "Germany",
      "eventExpectedVolatility": "High",
      "eventName": "German Manufacturing PMI (Oct)",
      "eventTimeZone": "GMT",
      "eventPrevious": "53.7",
      "eventCurrency": "EUR",
      "eventForecast": "53.5"
    },
    {
      "eventDateTime": "2018-10-24T07:30:00",
      "eventActual": "53.6",
      "eventCountry": "Germany",
      "eventExpectedVolatility": "Moderate",
      "eventName": "German Services PMI (Oct)",
      "eventTimeZone": "GMT",
      "eventPrevious": "55.9",
      "eventCurrency": "EUR",
      "eventForecast": "55.5"
    },
    {
      "eventDateTime": "2018-10-24T08:00:00",
      "eventActual": "0.08B",
      "eventCountry": "Italy",
      "eventExpectedVolatility": "Low",
      "eventName": "Italian Trade Balance Non-EU (Sep)",
      "eventTimeZone": "GMT",
      "eventPrevious": "3.00B",
      "eventCurrency": "EUR",
      "eventForecast": ""
    },
    {
      "eventDateTime": "2018-10-24T08:00:00",
      "eventActual": "3.5%",
      "eventCountry": "Euro Zone",
      "eventExpectedVolatility": "Low",
      "eventName": "M3 Money Supply (YoY) (Sep)",
      "eventTimeZone": "GMT",
      "eventPrevious": "3.5%",
      "eventCurrency": "EUR",
      "eventForecast": "3.5%"
    },
    {
      "eventDateTime": "2018-10-24T08:00:00",
      "eventActual": "52.1",
      "eventCountry": "Euro Zone",
      "eventExpectedVolatility": "Moderate",
      "eventName": "Manufacturing PMI (Oct)",
      "eventTimeZone": "GMT",
      "eventPrevious": "53.2",
      "eventCurrency": "EUR",
      "eventForecast": "53.0"
    },
    {
      "eventDateTime": "2018-10-24T08:00:00",
      "eventActual": "52.7",
      "eventCountry": "Euro Zone",
      "eventExpectedVolatility": "Moderate",
      "eventName": "Markit Composite PMI (Oct)",
      "eventTimeZone": "GMT",
      "eventPrevious": "54.1",
      "eventCurrency": "EUR",
      "eventForecast": "53.9"
    },
    {
      "eventDateTime": "2018-10-24T08:00:00",
      "eventActual": "3.1%",
      "eventCountry": "Euro Zone",
      "eventExpectedVolatility": "Low",
      "eventName": "Private Sector Loans (YoY)",
      "eventTimeZone": "GMT",
      "eventPrevious": "3.1%",
      "eventCurrency": "EUR",
      "eventForecast": "3.2%"
    },
    {
      "eventDateTime": "2018-10-24T08:00:00",
      "eventActual": "53.3",
      "eventCountry": "Euro Zone",
      "eventExpectedVolatility": "Moderate",
      "eventName": "Services PMI (Oct)",
      "eventTimeZone": "GMT",
      "eventPrevious": "54.7",
      "eventCurrency": "EUR",
      "eventForecast": "54.5"
    },
    {
      "eventDateTime": "2018-10-24T09:40:00",
      "eventActual": "-0.180%",
      "eventCountry": "Germany",
      "eventExpectedVolatility": "Low",
      "eventName": "German 5-Year Bobl Auction",
      "eventTimeZone": "GMT",
      "eventPrevious": "-0.040%",
      "eventCurrency": "EUR",
      "eventForecast": ""
    }
  ]}}
