"PPI (MoM) (Jun)";"Russia";"RUB";"2015-07-17T13:00:00";"GMT";"-1.2%";"";"0.7%";"Low"
"PPI (YoY) (Jun)";"Russia";"RUB";"2015-07-17T13:00:00";"GMT";"13.4%";"";"13.1%";"Low"
"Retail Sales (YoY)";"Russia";"RUB";"2015-07-17T13:00:00";"GMT";"-9.2%";"-8.8%";"-9.4%";"Moderate"
"Unemployment Rate (Jun)";"Russia";"RUB";"2015-07-17T13:00:00";"GMT";"5.6%";"5.7%";"5.4%";"Moderate"
"CFTC RUB speculative positions";"Russia";"RUB";"2015-07-17T19:30:00";"GMT";"1.0K";"";"-2.0K";"Moderate"
