"Continuing Jobless Claims";"United States";"USD";"2014-04-17T12:30:00";"GMT";"2,750K";"2,795K";"2,739K";"Low"
"Initial Jobless Claims";"United States";"USD";"2014-04-17T12:30:00";"GMT";"302K";"315K";"304K";"Moderate"
"Jobless Claims 4-Week Avg.";"United States";"USD";"2014-04-17T12:30:00";"GMT";"316.75K";"";"312.00K";"Low"
"Bloomberg Consumer Confidence";"United States";"USD";"2014-04-17T13:45:00";"GMT";"34.05";"";"35.45";"Low"
"Philadelphia Fed Manufacturing Index";"United States";"USD";"2014-04-17T14:00:00";"GMT";"9.0";"10.0";"16.6";"High"
"Philly Fed Business Conditions";"United States";"USD";"2014-04-17T14:00:00";"GMT";"35.4";"";"26.6";"Low"
"Philly Fed Employment";"United States";"USD";"2014-04-17T14:00:00";"GMT";"1.7";"";"6.9";"Moderate"
"Natural Gas Storage";"United States";"USD";"2014-04-17T14:30:00";"GMT";"4B";"34B";"24B";"Low"
"5-Year TIPS Auction";"United States";"USD";"2014-04-17T17:00:00";"GMT";" ";"";"-0.213%";"Low"
"U.S. Baker Hughes Oil Rig Count";"United States";"USD";"2014-04-17T17:00:00";"GMT";"1517";"";"1510";"Moderate"
