{"events": {"event": {
    "eventDateTime": "2019-03-22T19:30:00",
    "eventActual": "-1.1K",
    "eventCountry": "New Zealand",
    "eventExpectedVolatility": "Low",
    "eventName": "CFTC NZD speculative net positions",
    "eventTimeZone": "GMT",
    "eventPrevious": "4.6K",
    "eventCurrency": "NZD",
    "eventForecast": ""
  }}}
