"Public Sector Net Borrowing (May)";"United Kingdom";"GBP";"2017-06-21T08:30:00";"GMT";"8.68B";"7.00B";"5.99B";"Low"
"Public Sector Net Cash Requirement (May)";"United Kingdom";"GBP";"2017-06-21T08:30:00";"GMT";"-15.246B";"";"13.400B";"Low"
"BoE MPC Member Haldane Speaks";"United Kingdom";"GBP";"2017-06-21T11:00:00";"GMT";" ";"";"";"Moderate"
