{"events": {"event": [
    {
      "eventDateTime": "2009-11-04T00:01:00",
      "eventActual": "0.0%",
      "eventCountry": "United Kingdom",
      "eventExpectedVolatility": "Low",
      "eventName": "BRC Shop Price Index (YoY)",
      "eventTimeZone": "GMT",
      "eventPrevious": "-0.1%",
      "eventCurrency": "GBP",
      "eventForecast": ""
    },
    {
      "eventDateTime": "2009-11-04T00:01:00",
      "eventActual": "72",
      "eventCountry": "United Kingdom",
      "eventExpectedVolatility": "Moderate",
      "eventName": "Nationwide Consumer Confidence",
      "eventTimeZone": "GMT",
      "eventPrevious": "71",
      "eventCurrency": "GBP",
      "eventForecast": "72"
    },
    {
      "eventDateTime": "2009-11-04T09:30:00",
      "eventActual": "56.9",
      "eventCountry": "United Kingdom",
      "eventExpectedVolatility": "High",
      "eventName": "Services PMI",
      "eventTimeZone": "GMT",
      "eventPrevious": "55.3",
      "eventCurrency": "GBP",
      "eventForecast": "55.4"
    }
  ]}}
