{"events": {"event": [
    {
      "eventDateTime": "2018-04-12T00:30:00",
      "eventActual": "",
      "eventCountry": "Japan",
      "eventExpectedVolatility": "Moderate",
      "eventName": "BoJ Governor Kuroda Speaks",
      "eventTimeZone": "GMT",
      "eventPrevious": "",
      "eventCurrency": "JPY",
      "eventForecast": ""
    },
    {
      "eventDateTime": "2018-04-12T03:45:00",
      "eventActual": "0.710%",
      "eventCountry": "Japan",
      "eventExpectedVolatility": "Low",
      "eventName": "30-Year JGB Auction",
      "eventTimeZone": "GMT",
      "eventPrevious": "0.750%",
      "eventCurrency": "JPY",
      "eventForecast": ""
    }
  ]}}
