{"events": {"event": {
    "eventDateTime": "2019-02-25T06:30:00",
    "eventActual": "49.6%",
    "eventCountry": "New Zealand",
    "eventExpectedVolatility": "Moderate",
    "eventName": "Investing.com NZD/USD Index",
    "eventTimeZone": "GMT",
    "eventPrevious": "49.2%",
    "eventCurrency": "NZD",
    "eventForecast": ""
  }}}
