{"events": {"event": {
    "eventDateTime": "2010-09-03T19:30:00",
    "eventActual": "-4.8K",
    "eventCountry": "Canada",
    "eventExpectedVolatility": "Low",
    "eventName": "CFTC CAD speculative net positions",
    "eventTimeZone": "GMT",
    "eventPrevious": "16.1K",
    "eventCurrency": "CAD",
    "eventForecast": ""
  }}}
