{"events": {"event": [
    {
      "eventDateTime": "2019-11-28T11:00:00",
      "eventActual": "0.30%",
      "eventCountry": "Brazil",
      "eventExpectedVolatility": "Low",
      "eventName": "IGP-M Inflation Index (MoM) (Nov)",
      "eventTimeZone": "GMT",
      "eventPrevious": "0.68%",
      "eventCurrency": "BRL",
      "eventForecast": "0.10%"
    },
    {
      "eventDateTime": "2019-11-28T12:00:00",
      "eventActual": "",
      "eventCountry": "Brazil",
      "eventExpectedVolatility": "Moderate",
      "eventName": "BCB National Monetary Council Meeting",
      "eventTimeZone": "GMT",
      "eventPrevious": "",
      "eventCurrency": "BRL",
      "eventForecast": ""
    }
  ]}}
