{"events": {"event": {
    "eventDateTime": "2011-03-16T10:00:00",
    "eventActual": "-13.5",
    "eventCountry": "Switzerland",
    "eventExpectedVolatility": "Low",
    "eventName": "ZEW Expectations",
    "eventTimeZone": "GMT",
    "eventPrevious": "-17.2",
    "eventCurrency": "CHF",
    "eventForecast": ""
  }}}
