"National CPI (YoY) (Apr)";"Japan";"JPY";"2017-05-25T23:30:00";"GMT";"0.2%";"0.4%";"0.4%";"Low"
"National Core CPI (YoY) (Apr)";"Japan";"JPY";"2017-05-25T23:30:00";"GMT";"0.2%";"0.4%";"0.3%";"Moderate"
"Tokyo CPI (YoY) (May)";"Japan";"JPY";"2017-05-25T23:30:00";"GMT";"-0.1%";"0.0%";"0.2%";"Low"
"Tokyo Core CPI (YoY) (May)";"Japan";"JPY";"2017-05-25T23:30:00";"GMT";"-0.1%";"0.0%";"0.1%";"Moderate"
"Corporate Services Price Index (CSPI) (YoY)";"Japan";"JPY";"2017-05-25T23:50:00";"GMT";"0.8%";"0.9%";"0.7%";"Low"
