{"events": {"event": [
    {
      "eventDateTime": "2013-04-08T05:00:00",
      "eventActual": "57.3",
      "eventCountry": "Japan",
      "eventExpectedVolatility": "Low",
      "eventName": "Economy Watchers Current Index",
      "eventTimeZone": "GMT",
      "eventPrevious": "53.2",
      "eventCurrency": "JPY",
      "eventForecast": "56.3"
    },
    {
      "eventDateTime": "2013-04-08T23:50:00",
      "eventActual": "",
      "eventCountry": "Japan",
      "eventExpectedVolatility": "Moderate",
      "eventName": "Monetary Policy Meeting Minutes",
      "eventTimeZone": "GMT",
      "eventPrevious": "",
      "eventCurrency": "JPY",
      "eventForecast": ""
    }
  ]}}
