{"events": {"event": [
    {
      "eventDateTime": "2017-06-29T23:00:00",
      "eventActual": "0.2%",
      "eventCountry": "South Korea",
      "eventExpectedVolatility": "Low",
      "eventName": "Industrial Production (MoM) (May)",
      "eventTimeZone": "GMT",
      "eventPrevious": "-2.2%",
      "eventCurrency": "KRW",
      "eventForecast": "1.5%"
    },
    {
      "eventDateTime": "2017-06-29T23:00:00",
      "eventActual": "0.1%",
      "eventCountry": "South Korea",
      "eventExpectedVolatility": "Low",
      "eventName": "Industrial Production (YoY) (May)",
      "eventTimeZone": "GMT",
      "eventPrevious": "1.8%",
      "eventCurrency": "KRW",
      "eventForecast": "0.2%"
    },
    {
      "eventDateTime": "2017-06-29T23:00:00",
      "eventActual": "-0.9%",
      "eventCountry": "South Korea",
      "eventExpectedVolatility": "Low",
      "eventName": "Retail Sales (MoM)",
      "eventTimeZone": "GMT",
      "eventPrevious": "0.7%",
      "eventCurrency": "KRW",
      "eventForecast": ""
    },
    {
      "eventDateTime": "2017-06-29T23:00:00",
      "eventActual": "-0.3%",
      "eventCountry": "South Korea",
      "eventExpectedVolatility": "Low",
      "eventName": "Service Sector Output (MoM) (May)",
      "eventTimeZone": "GMT",
      "eventPrevious": "0.1%",
      "eventCurrency": "KRW",
      "eventForecast": ""
    }
  ]}}
