{"events": {"event": {
    "eventDateTime": "2018-03-02T20:30:00",
    "eventActual": "-1.0K",
    "eventCountry": "New Zealand",
    "eventExpectedVolatility": "Low",
    "eventName": "CFTC NZD speculative net positions",
    "eventTimeZone": "GMT",
    "eventPrevious": "0.9K",
    "eventCurrency": "NZD",
    "eventForecast": ""
  }}}
