{"events": {"event": [
    {
      "eventDateTime": "2014-09-19T12:00:00",
      "eventActual": "0.39%",
      "eventCountry": "Brazil",
      "eventExpectedVolatility": "Low",
      "eventName": "Mid-Month CPI (MoM)",
      "eventTimeZone": "GMT",
      "eventPrevious": "0.14%",
      "eventCurrency": "BRL",
      "eventForecast": "0.35%"
    },
    {
      "eventDateTime": "2014-09-19T12:00:00",
      "eventActual": "6.62%",
      "eventCountry": "Brazil",
      "eventExpectedVolatility": "Low",
      "eventName": "Mid-Month CPI (YoY)",
      "eventTimeZone": "GMT",
      "eventPrevious": "6.49%",
      "eventCurrency": "BRL",
      "eventForecast": "6.57%"
    }
  ]}}
