{"events": {"event": [
    {
      "eventDateTime": "2013-12-18T12:30:00",
      "eventActual": "-5.14B",
      "eventCountry": "Brazil",
      "eventExpectedVolatility": "Low",
      "eventName": "Current Account (USD)",
      "eventTimeZone": "GMT",
      "eventPrevious": "-7.13B",
      "eventCurrency": "BRL",
      "eventForecast": "-4.80B"
    },
    {
      "eventDateTime": "2013-12-18T12:30:00",
      "eventActual": "8.33B",
      "eventCountry": "Brazil",
      "eventExpectedVolatility": "Low",
      "eventName": "Foreign direct investment (USD)",
      "eventTimeZone": "GMT",
      "eventPrevious": "5.36B",
      "eventCurrency": "BRL",
      "eventForecast": "5.00B"
    },
    {
      "eventDateTime": "2013-12-18T14:30:00",
      "eventActual": "-4.23B",
      "eventCountry": "Brazil",
      "eventExpectedVolatility": "Low",
      "eventName": "Foreign Exchange Flows",
      "eventTimeZone": "GMT",
      "eventPrevious": "-2.65B",
      "eventCurrency": "BRL",
      "eventForecast": ""
    }
  ]}}
