{"events": {"event": {
    "eventDateTime": "2018-09-07T09:00:00",
    "eventActual": "289.5B",
    "eventCountry": "Singapore",
    "eventExpectedVolatility": "Low",
    "eventName": "Foreign Reserves USD (MoM) (Aug)",
    "eventTimeZone": "GMT",
    "eventPrevious": "289.2B",
    "eventCurrency": "SGD",
    "eventForecast": ""
  }}}
