{"events": {"event": [
    {
      "eventDateTime": "2017-08-01T00:00:00",
      "eventActual": "19.5%",
      "eventCountry": "South Korea",
      "eventExpectedVolatility": "Low",
      "eventName": "Exports (YoY) (Jul)",
      "eventTimeZone": "GMT",
      "eventPrevious": "13.6%",
      "eventCurrency": "KRW",
      "eventForecast": ""
    },
    {
      "eventDateTime": "2017-08-01T00:00:00",
      "eventActual": "14.5%",
      "eventCountry": "South Korea",
      "eventExpectedVolatility": "Low",
      "eventName": "Imports (YoY) (Jul)",
      "eventTimeZone": "GMT",
      "eventPrevious": "19.8%",
      "eventCurrency": "KRW",
      "eventForecast": ""
    },
    {
      "eventDateTime": "2017-08-01T00:00:00",
      "eventActual": "10.65B",
      "eventCountry": "South Korea",
      "eventExpectedVolatility": "Low",
      "eventName": "Trade Balance (Jul)",
      "eventTimeZone": "GMT",
      "eventPrevious": "10.77B",
      "eventCurrency": "KRW",
      "eventForecast": ""
    },
    {
      "eventDateTime": "2017-08-01T00:30:00",
      "eventActual": "49.1",
      "eventCountry": "South Korea",
      "eventExpectedVolatility": "Low",
      "eventName": "Nikkei Manufacturing PMI (Jul)",
      "eventTimeZone": "GMT",
      "eventPrevious": "50.1",
      "eventCurrency": "KRW",
      "eventForecast": ""
    }
  ]}}
