"CPI (YoY) (Jun)";"Hong Kong";"HKD";"2010-07-01T09:00:00";"GMT";"2.70%";"";"3.00%";"Low"
"Exports (MoM) (Jun)";"Hong Kong";"HKD";"2010-07-01T09:00:00";"GMT";"24.40%";"";"26.70%";"Low"
"Foreign Reserves (USD) (Jun)";"Hong Kong";"HKD";"2010-07-01T09:00:00";"GMT";"256.18B";"";"256.80B";"Low"
"Imports (MoM) (Jun)";"Hong Kong";"HKD";"2010-07-01T09:00:00";"GMT";"29.70%";"";"31.00%";"Low"
"M3 Money Supply (Jun)";"Hong Kong";"HKD";"2010-07-01T09:00:00";"GMT";"4.40%";"";"3.13%";"Low"
"Retail Sales (YoY) (Jun)";"Hong Kong";"HKD";"2010-07-01T09:00:00";"GMT";"19.60%";"";"15.30%";"Low"
"Unemployment Rate (Jun)";"Hong Kong";"HKD";"2010-07-01T09:00:00";"GMT";"4.60%";"";"4.60%";"Low"
