"Average Earnings Index +Bonus";"United Kingdom";"GBP";"2013-01-23T09:30:00";"GMT";"1.8%";"1.5%";"1.5%";"High"
"BoE MPC Meeting Minutes";"United Kingdom";"GBP";"2013-01-23T09:30:00";"GMT";" ";"";"";"High"
"Claimant Count Change";"United Kingdom";"GBP";"2013-01-23T09:30:00";"GMT";"-8.9K";"0.1K";"-12.1K";"High"
"Unemployment Rate";"United Kingdom";"GBP";"2013-01-23T09:30:00";"GMT";"7.8%";"7.8%";"7.7%";"Moderate"
