{"events": {"event": [
    {
      "eventDateTime": "2000-12-01T09:00:00",
      "eventActual": "-2.20%",
      "eventCountry": "Hong Kong",
      "eventExpectedVolatility": "Low",
      "eventName": "CPI (YoY) (Nov)",
      "eventTimeZone": "GMT",
      "eventPrevious": "-3.00%",
      "eventCurrency": "HKD",
      "eventForecast": ""
    },
    {
      "eventDateTime": "2000-12-01T09:00:00",
      "eventActual": "8.80%",
      "eventCountry": "Hong Kong",
      "eventExpectedVolatility": "Low",
      "eventName": "Exports (MoM) (Nov)",
      "eventTimeZone": "GMT",
      "eventPrevious": "23.40%",
      "eventCurrency": "HKD",
      "eventForecast": ""
    },
    {
      "eventDateTime": "2000-12-01T09:00:00",
      "eventActual": "104.22B",
      "eventCountry": "Hong Kong",
      "eventExpectedVolatility": "Low",
      "eventName": "Foreign Reserves (USD) (Nov)",
      "eventTimeZone": "GMT",
      "eventPrevious": "102.72B",
      "eventCurrency": "HKD",
      "eventForecast": ""
    },
    {
      "eventDateTime": "2000-12-01T09:00:00",
      "eventActual": "11.60%",
      "eventCountry": "Hong Kong",
      "eventExpectedVolatility": "Low",
      "eventName": "Imports (MoM) (Nov)",
      "eventTimeZone": "GMT",
      "eventPrevious": "25.30%",
      "eventCurrency": "HKD",
      "eventForecast": ""
    },
    {
      "eventDateTime": "2000-12-01T09:00:00",
      "eventActual": "5.33%",
      "eventCountry": "Hong Kong",
      "eventExpectedVolatility": "Low",
      "eventName": "M3 Money Supply (Nov)",
      "eventTimeZone": "GMT",
      "eventPrevious": "5.57%",
      "eventCurrency": "HKD",
      "eventForecast": ""
    },
    {
      "eventDateTime": "2000-12-01T09:00:00",
      "eventActual": "0.40%",
      "eventCountry": "Hong Kong",
      "eventExpectedVolatility": "Low",
      "eventName": "Retail Sales (YoY) (Nov)",
      "eventTimeZone": "GMT",
      "eventPrevious": "1.40%",
      "eventCurrency": "HKD",
      "eventForecast": ""
    },
    {
      "eventDateTime": "2000-12-01T09:00:00",
      "eventActual": "4.50%",
      "eventCountry": "Hong Kong",
      "eventExpectedVolatility": "Low",
      "eventName": "Unemployment Rate (Nov)",
      "eventTimeZone": "GMT",
      "eventPrevious": "4.70%",
      "eventCurrency": "HKD",
      "eventForecast": ""
    }
  ]}}
