{"events": {"event": {
    "eventDateTime": "2013-03-05T21:00:00",
    "eventActual": "327.40B",
    "eventCountry": "South Korea",
    "eventExpectedVolatility": "Low",
    "eventName": "FX Reserves - USD",
    "eventTimeZone": "GMT",
    "eventPrevious": "328.91B",
    "eventCurrency": "KRW",
    "eventForecast": ""
  }}}
