{"events": {"event": [
    {
      "eventDateTime": "2017-07-04T07:00:00",
      "eventActual": "-98.3K",
      "eventCountry": "Spain",
      "eventExpectedVolatility": "Moderate",
      "eventName": "Spanish Unemployment Change",
      "eventTimeZone": "GMT",
      "eventPrevious": "-111.9K",
      "eventCurrency": "EUR",
      "eventForecast": "-120.3K"
    },
    {
      "eventDateTime": "2017-07-04T09:00:00",
      "eventActual": "-0.4%",
      "eventCountry": "Euro Zone",
      "eventExpectedVolatility": "Low",
      "eventName": "PPI (MoM) (May)",
      "eventTimeZone": "GMT",
      "eventPrevious": "0.0%",
      "eventCurrency": "EUR",
      "eventForecast": "-0.2%"
    },
    {
      "eventDateTime": "2017-07-04T09:00:00",
      "eventActual": "3.3%",
      "eventCountry": "Euro Zone",
      "eventExpectedVolatility": "Low",
      "eventName": "PPI (YoY) (May)",
      "eventTimeZone": "GMT",
      "eventPrevious": "4.3%",
      "eventCurrency": "EUR",
      "eventForecast": "3.5%"
    },
    {
      "eventDateTime": "2017-07-04T12:30:00",
      "eventActual": "",
      "eventCountry": "Euro Zone",
      "eventExpectedVolatility": "Moderate",
      "eventName": "ECB's Praet Speaks",
      "eventTimeZone": "GMT",
      "eventPrevious": "",
      "eventCurrency": "EUR",
      "eventForecast": ""
    }
  ]}}
