{"events": {"event": {
    "eventDateTime": "2019-06-28T19:30:00",
    "eventActual": "28.7K",
    "eventCountry": "Russia",
    "eventExpectedVolatility": "Moderate",
    "eventName": "CFTC RUB speculative positions",
    "eventTimeZone": "GMT",
    "eventPrevious": "27.8K",
    "eventCurrency": "RUB",
    "eventForecast": ""
  }}}
