"CPI (MoM) (Oct)";"South Korea";"KRW";"2005-11-01T09:00:00";"GMT";"0.50%";"";"-0.20%";"Low"
"CPI (YoY) (Oct)";"South Korea";"KRW";"2005-11-01T09:00:00";"GMT";"2.50%";"";"2.30%";"Moderate"
"Current Account (Oct)";"South Korea";"KRW";"2005-11-01T09:00:00";"GMT";"-0.49B";"";"0.93B";"Low"
"Export Price Index (YoY) (Oct)";"South Korea";"KRW";"2005-11-01T09:00:00";"GMT";"-9.40%";"";"-10.20%";"Low"
"Exports (YoY) (Oct)";"South Korea";"KRW";"2005-11-01T09:00:00";"GMT";"17.70%";"";"11.90%";"Low"
"FX Reserves - USD (Oct)";"South Korea";"KRW";"2005-11-01T09:00:00";"GMT";"206.73B";"";"207.31B";"Low"
"Import Price Index (YoY) (Oct)";"South Korea";"KRW";"2005-11-01T09:00:00";"GMT";"4.10%";"";"0.60%";"Low"
"Imports (YoY) (Oct)";"South Korea";"KRW";"2005-11-01T09:00:00";"GMT";"24.90%";"";"11.00%";"Low"
"Industrial Production (MoM) (Oct)";"South Korea";"KRW";"2005-11-01T09:00:00";"GMT";"1.10%";"";"1.90%";"Low"
"Industrial Production (YoY) (Oct)";"South Korea";"KRW";"2005-11-01T09:00:00";"GMT";"6.20%";"";"6.60%";"Low"
"Interest Rate Decision (Oct)";"South Korea";"KRW";"2005-11-01T09:00:00";"GMT";"3.25%";"";"3.50%";"Low"
"M2 Money supply (Oct)";"South Korea";"KRW";"2005-11-01T09:00:00";"GMT";"7.90%";"";"8.30%";"Low"
"Manufacturing BSI Index (Oct)";"South Korea";"KRW";"2005-11-01T09:00:00";"GMT";"88.00";"";"87.00";"Low"
"PPI (MoM) (Oct)";"South Korea";"KRW";"2005-11-01T09:00:00";"GMT";"0.40%";"";"0.30%";"Low"
"PPI (YoY) (Oct)";"South Korea";"KRW";"2005-11-01T09:00:00";"GMT";"1.10%";"";"1.40%";"Low"
"Service Sector Output (MoM) (Oct)";"South Korea";"KRW";"2005-11-01T09:00:00";"GMT";"0.20%";"";"0.50%";"Low"
"Trade Balance (Oct)";"South Korea";"KRW";"2005-11-01T09:00:00";"GMT";"1.80B";"";"0.00B";"Low"
"Unemployment Rate (Oct)";"South Korea";"KRW";"2005-11-01T09:00:00";"GMT";"4.00%";"";"3.90%";"Low"
