"Core PPI (MoM)";"United States";"USD";"2013-04-12T12:30:00";"GMT";"0.2%";"0.2%";"0.2%";"Moderate"
"Core PPI (YoY)";"United States";"USD";"2013-04-12T12:30:00";"GMT";"1.7%";"1.7%";"1.7%";"Low"
"Core Retail Sales (MoM)";"United States";"USD";"2013-04-12T12:30:00";"GMT";"1.0%";"0.1%";"-0.4%";"High"
"PPI (MoM)";"United States";"USD";"2013-04-12T12:30:00";"GMT";"0.7%";"-0.2%";"-0.6%";"High"
"PPI (YoY)";"United States";"USD";"2013-04-12T12:30:00";"GMT";"1.7%";"1.4%";"1.1%";"Low"
"Retail Sales (MoM)";"United States";"USD";"2013-04-12T12:30:00";"GMT";"1.0%";"0.1%";"-0.4%";"High"
"Michigan Consumer Sentiment";"United States";"USD";"2013-04-12T13:55:00";"GMT";"78.6";"78.5";"72.3";"Moderate"
"Michigan Inflation Expectations";"United States";"USD";"2013-04-12T13:55:00";"GMT";"3.2%";"";"3.0%";"Low"
"Business Inventories (MoM)";"United States";"USD";"2013-04-12T14:00:00";"GMT";"0.9%";"0.4%";"0.1%";"Moderate"
"Fed Chairman Bernanke Speaks";"United States";"USD";"2013-04-12T16:30:00";"GMT";" ";"";"";"High"
"U.S. Baker Hughes Oil Rig Count";"United States";"USD";"2013-04-12T17:00:00";"GMT";"1357";"";"1387";"Moderate"
"CFTC Gold speculative net positions";"United States";"USD";"2013-04-12T19:30:00";"GMT";"120.2K";"";"119.4K";"Moderate"
"CFTC Silver speculative net positions";"United States";"USD";"2013-04-12T19:30:00";"GMT";"8.1K";"";"7.9K";"Low"
"CFTC Crude Oil speculative net positions";"United States";"USD";"2013-04-12T20:30:00";"GMT";"248.9k";"";"223.4k";"Moderate"
