"BoE MPC Member Saunders Speaks";"United Kingdom";"GBP";"2020-01-15T08:40:00";"GMT";" ";"";"";"Moderate"
"CPI (MoM) (Dec)";"United Kingdom";"GBP";"2020-01-15T09:30:00";"GMT";"0.2%";"0.2%";"0.0%";"Moderate"
"CPI (YoY) (Dec)";"United Kingdom";"GBP";"2020-01-15T09:30:00";"GMT";"1.5%";"1.5%";"1.3%";"High"
"CPI, n.s.a (Dec)";"United Kingdom";"GBP";"2020-01-15T09:30:00";"GMT";"108.55";"";"108.53";"Low"
"Core CPI (YoY) (Dec)";"United Kingdom";"GBP";"2020-01-15T09:30:00";"GMT";"1.7%";"1.7%";"1.4%";"Low"
"Core CPI MoM (MoM) (Dec)";"United Kingdom";"GBP";"2020-01-15T09:30:00";"GMT";"0.2%";"0.2%";"0.0%";"Low"
"Core PPI Output (MoM) (Dec)";"United Kingdom";"GBP";"2020-01-15T09:30:00";"GMT";"-0.1%";"0.1%";"-0.1%";"Low"
"Core PPI Output (YoY) (Dec)";"United Kingdom";"GBP";"2020-01-15T09:30:00";"GMT";"1.1%";"1.0%";"0.9%";"Low"
"Core RPI (MoM) (Dec)";"United Kingdom";"GBP";"2020-01-15T09:30:00";"GMT";"0.2%";"";"0.3%";"Low"
"Core RPI (YoY) (Dec)";"United Kingdom";"GBP";"2020-01-15T09:30:00";"GMT";"2.3%";"";"2.2%";"Low"
"PPI Input (MoM) (Dec)";"United Kingdom";"GBP";"2020-01-15T09:30:00";"GMT";"0.5%";"0.3%";"0.1%";"Moderate"
"PPI Input (YoY) (Dec)";"United Kingdom";"GBP";"2020-01-15T09:30:00";"GMT";"-1.9%";"-0.8%";"-0.1%";"Low"
"PPI Output (MoM) (Dec)";"United Kingdom";"GBP";"2020-01-15T09:30:00";"GMT";"-0.2%";"0.1%";"0.0%";"Low"
"PPI Output (YoY) (Dec)";"United Kingdom";"GBP";"2020-01-15T09:30:00";"GMT";"0.5%";"0.9%";"0.9%";"Low"
"RPI (MoM) (Dec)";"United Kingdom";"GBP";"2020-01-15T09:30:00";"GMT";"0.2%";"0.4%";"0.3%";"Low"
"RPI (YoY) (Dec)";"United Kingdom";"GBP";"2020-01-15T09:30:00";"GMT";"2.2%";"2.3%";"2.2%";"Low"
