{"events": {"event": [
    {
      "eventDateTime": "2015-07-06T14:30:00",
      "eventActual": "-12.5%",
      "eventCountry": "Brazil",
      "eventExpectedVolatility": "Low",
      "eventName": "Auto Production (MoM) (Jun)",
      "eventTimeZone": "GMT",
      "eventPrevious": "-3.4%",
      "eventCurrency": "BRL",
      "eventForecast": ""
    },
    {
      "eventDateTime": "2015-07-06T14:30:00",
      "eventActual": "-0.1%",
      "eventCountry": "Brazil",
      "eventExpectedVolatility": "Low",
      "eventName": "Auto Sales (MoM) (Jun)",
      "eventTimeZone": "GMT",
      "eventPrevious": "-3.0%",
      "eventCurrency": "BRL",
      "eventForecast": ""
    }
  ]}}
