{"events": {"event": [
    {
      "eventDateTime": "2010-03-03T12:00:00",
      "eventActual": "14.6%",
      "eventCountry": "United States",
      "eventExpectedVolatility": "Low",
      "eventName": "MBA Mortgage Applications (WoW)",
      "eventTimeZone": "GMT",
      "eventPrevious": "-8.5%",
      "eventCurrency": "USD",
      "eventForecast": ""
    },
    {
      "eventDateTime": "2010-03-03T12:30:00",
      "eventActual": "-77.4%",
      "eventCountry": "United States",
      "eventExpectedVolatility": "Low",
      "eventName": "Challenger Job Cuts (YoY)",
      "eventTimeZone": "GMT",
      "eventPrevious": "-70.4%",
      "eventCurrency": "USD",
      "eventForecast": ""
    },
    {
      "eventDateTime": "2010-03-03T13:15:00",
      "eventActual": "-20K",
      "eventCountry": "United States",
      "eventExpectedVolatility": "High",
      "eventName": "ADP Nonfarm Employment Change",
      "eventTimeZone": "GMT",
      "eventPrevious": "-60K",
      "eventCurrency": "USD",
      "eventForecast": "-10K"
    },
    {
      "eventDateTime": "2010-03-03T15:00:00",
      "eventActual": "53.0",
      "eventCountry": "United States",
      "eventExpectedVolatility": "High",
      "eventName": "ISM Non-Manufacturing PMI",
      "eventTimeZone": "GMT",
      "eventPrevious": "50.5",
      "eventCurrency": "USD",
      "eventForecast": "51.0"
    },
    {
      "eventDateTime": "2010-03-03T15:30:00",
      "eventActual": "4.100M",
      "eventCountry": "United States",
      "eventExpectedVolatility": "High",
      "eventName": "Crude Oil Inventories",
      "eventTimeZone": "GMT",
      "eventPrevious": "3.000M",
      "eventCurrency": "USD",
      "eventForecast": ""
    },
    {
      "eventDateTime": "2010-03-03T19:00:00",
      "eventActual": "",
      "eventCountry": "United States",
      "eventExpectedVolatility": "Moderate",
      "eventName": "Beige Book",
      "eventTimeZone": "GMT",
      "eventPrevious": "",
      "eventCurrency": "USD",
      "eventForecast": ""
    }
  ]}}
