{"events": {"event": {
    "eventDateTime": "2012-05-25T19:30:00",
    "eventActual": "11.3K",
    "eventCountry": "United Kingdom",
    "eventExpectedVolatility": "Moderate",
    "eventName": "CFTC GBP speculative net positions",
    "eventTimeZone": "GMT",
    "eventPrevious": "25.0K",
    "eventCurrency": "GBP",
    "eventForecast": ""
  }}}
