"BoJ Governor Kuroda Speaks";"Japan";"JPY";"2016-05-13T03:30:00";"GMT";" ";"";"";"Moderate"
"Tertiary Industry Activity Index (MoM)";"Japan";"JPY";"2016-05-13T04:30:00";"GMT";"-0.1%";"-0.2%";"-0.7%";"Moderate"
"CFTC JPY speculative net positions";"Japan";"JPY";"2016-05-13T19:30:00";"GMT";"61.5K";"";"59.0K";"Moderate"
