{"events": {"event": {
    "eventDateTime": "2008-06-18T00:30:00",
    "eventActual": "0.4%",
    "eventCountry": "Australia",
    "eventExpectedVolatility": "Low",
    "eventName": "MI Leading Index (MoM)",
    "eventTimeZone": "GMT",
    "eventPrevious": "0.2%",
    "eventCurrency": "AUD",
    "eventForecast": ""
  }}}
