{"events": {"event": [
    {
      "eventDateTime": "2016-03-21T02:00:00",
      "eventActual": "7.3%",
      "eventCountry": "New Zealand",
      "eventExpectedVolatility": "Low",
      "eventName": "Credit Card Spending (YoY)",
      "eventTimeZone": "GMT",
      "eventPrevious": "8.3%",
      "eventCurrency": "NZD",
      "eventForecast": ""
    },
    {
      "eventDateTime": "2016-03-21T07:30:00",
      "eventActual": "37.7%",
      "eventCountry": "New Zealand",
      "eventExpectedVolatility": "Moderate",
      "eventName": "Investing.com NZD/USD Index",
      "eventTimeZone": "GMT",
      "eventPrevious": "37.1%",
      "eventCurrency": "NZD",
      "eventForecast": ""
    }
  ]}}
