{"events": {"event": [
    {
      "eventDateTime": "2017-11-06T06:30:00",
      "eventActual": "52.8%",
      "eventCountry": "Euro Zone",
      "eventExpectedVolatility": "Moderate",
      "eventName": "Investing.com EUR/USD Index",
      "eventTimeZone": "GMT",
      "eventPrevious": "57.6%",
      "eventCurrency": "EUR",
      "eventForecast": ""
    },
    {
      "eventDateTime": "2017-11-06T07:00:00",
      "eventActual": "1.0%",
      "eventCountry": "Germany",
      "eventExpectedVolatility": "Moderate",
      "eventName": "German Factory Orders (MoM) (Sep)",
      "eventTimeZone": "GMT",
      "eventPrevious": "4.1%",
      "eventCurrency": "EUR",
      "eventForecast": "-1.5%"
    },
    {
      "eventDateTime": "2017-11-06T08:00:00",
      "eventActual": "",
      "eventCountry": "Euro Zone",
      "eventExpectedVolatility": "Moderate",
      "eventName": "ECB's Praet Speaks",
      "eventTimeZone": "GMT",
      "eventPrevious": "",
      "eventCurrency": "EUR",
      "eventForecast": ""
    },
    {
      "eventDateTime": "2017-11-06T08:15:00",
      "eventActual": "54.6",
      "eventCountry": "Spain",
      "eventExpectedVolatility": "Moderate",
      "eventName": "Spanish Services PMI (Oct)",
      "eventTimeZone": "GMT",
      "eventPrevious": "56.7",
      "eventCurrency": "EUR",
      "eventForecast": "55.5"
    },
    {
      "eventDateTime": "2017-11-06T08:45:00",
      "eventActual": "52.1",
      "eventCountry": "Italy",
      "eventExpectedVolatility": "Moderate",
      "eventName": "Italian Services PMI (Oct)",
      "eventTimeZone": "GMT",
      "eventPrevious": "53.2",
      "eventCurrency": "EUR",
      "eventForecast": "53.0"
    },
    {
      "eventDateTime": "2017-11-06T08:50:00",
      "eventActual": "57.4",
      "eventCountry": "France",
      "eventExpectedVolatility": "Low",
      "eventName": "French Markit Composite PMI (Oct)",
      "eventTimeZone": "GMT",
      "eventPrevious": "57.5",
      "eventCurrency": "EUR",
      "eventForecast": "57.5"
    },
    {
      "eventDateTime": "2017-11-06T08:50:00",
      "eventActual": "57.3",
      "eventCountry": "France",
      "eventExpectedVolatility": "Moderate",
      "eventName": "French Services PMI (Oct)",
      "eventTimeZone": "GMT",
      "eventPrevious": "57.4",
      "eventCurrency": "EUR",
      "eventForecast": "57.4"
    },
    {
      "eventDateTime": "2017-11-06T08:55:00",
      "eventActual": "56.6",
      "eventCountry": "Germany",
      "eventExpectedVolatility": "Low",
      "eventName": "German Composite PMI (Oct)",
      "eventTimeZone": "GMT",
      "eventPrevious": "56.9",
      "eventCurrency": "EUR",
      "eventForecast": "56.9"
    },
    {
      "eventDateTime": "2017-11-06T08:55:00",
      "eventActual": "54.7",
      "eventCountry": "Germany",
      "eventExpectedVolatility": "Moderate",
      "eventName": "German Services PMI (Oct)",
      "eventTimeZone": "GMT",
      "eventPrevious": "55.2",
      "eventCurrency": "EUR",
      "eventForecast": "55.2"
    },
    {
      "eventDateTime": "2017-11-06T09:00:00",
      "eventActual": "56.0",
      "eventCountry": "Euro Zone",
      "eventExpectedVolatility": "Moderate",
      "eventName": "Markit Composite PMI (Oct)",
      "eventTimeZone": "GMT",
      "eventPrevious": "55.9",
      "eventCurrency": "EUR",
      "eventForecast": "55.9"
    },
    {
      "eventDateTime": "2017-11-06T09:00:00",
      "eventActual": "55.0",
      "eventCountry": "Euro Zone",
      "eventExpectedVolatility": "Moderate",
      "eventName": "Services PMI (Oct)",
      "eventTimeZone": "GMT",
      "eventPrevious": "54.9",
      "eventCurrency": "EUR",
      "eventForecast": "54.9"
    },
    {
      "eventDateTime": "2017-11-06T09:30:00",
      "eventActual": "34.0",
      "eventCountry": "Euro Zone",
      "eventExpectedVolatility": "Low",
      "eventName": "Sentix Investor Confidence (Nov)",
      "eventTimeZone": "GMT",
      "eventPrevious": "29.7",
      "eventCurrency": "EUR",
      "eventForecast": "30.8"
    },
    {
      "eventDateTime": "2017-11-06T10:00:00",
      "eventActual": "",
      "eventCountry": "Euro Zone",
      "eventExpectedVolatility": "Moderate",
      "eventName": "Eurogroup Meetings",
      "eventTimeZone": "GMT",
      "eventPrevious": "",
      "eventCurrency": "EUR",
      "eventForecast": ""
    },
    {
      "eventDateTime": "2017-11-06T10:00:00",
      "eventActual": "0.6%",
      "eventCountry": "Euro Zone",
      "eventExpectedVolatility": "Low",
      "eventName": "PPI (MoM) (Sep)",
      "eventTimeZone": "GMT",
      "eventPrevious": "0.3%",
      "eventCurrency": "EUR",
      "eventForecast": "0.4%"
    },
    {
      "eventDateTime": "2017-11-06T10:00:00",
      "eventActual": "2.9%",
      "eventCountry": "Euro Zone",
      "eventExpectedVolatility": "Low",
      "eventName": "PPI (YoY) (Sep)",
      "eventTimeZone": "GMT",
      "eventPrevious": "2.5%",
      "eventCurrency": "EUR",
      "eventForecast": "2.8%"
    },
    {
      "eventDateTime": "2017-11-06T14:00:00",
      "eventActual": "-0.631%",
      "eventCountry": "France",
      "eventExpectedVolatility": "Low",
      "eventName": "French 12-Month BTF Auction",
      "eventTimeZone": "GMT",
      "eventPrevious": "-0.606%",
      "eventCurrency": "EUR",
      "eventForecast": ""
    },
    {
      "eventDateTime": "2017-11-06T14:00:00",
      "eventActual": "-0.687%",
      "eventCountry": "France",
      "eventExpectedVolatility": "Low",
      "eventName": "French 3-Month BTF Auction",
      "eventTimeZone": "GMT",
      "eventPrevious": "-0.691%",
      "eventCurrency": "EUR",
      "eventForecast": ""
    },
    {
      "eventDateTime": "2017-11-06T14:00:00",
      "eventActual": "-0.667%",
      "eventCountry": "France",
      "eventExpectedVolatility": "Low",
      "eventName": "French 6-Month BTF Auction",
      "eventTimeZone": "GMT",
      "eventPrevious": "-0.659%",
      "eventCurrency": "EUR",
      "eventForecast": ""
    }
  ]}}
