"IGP-DI Inflation Index (MoM) (May)";"Brazil";"BRL";"2019-06-07T11:00:00";"GMT";"0.90%";"0.30%";"0.40%";"Low"
"CPI (MoM) (May)";"Brazil";"BRL";"2019-06-07T12:00:00";"GMT";"0.57%";"0.20%";"0.13%";"Moderate"
"CPI (YoY) (May)";"Brazil";"BRL";"2019-06-07T12:00:00";"GMT";"4.94%";"4.72%";"4.66%";"Moderate"
"CFTC BRL speculative net positions";"Brazil";"BRL";"2019-06-07T19:30:00";"GMT";"-26.9K";"";"-30.7K";"Moderate"
