"Chicago Fed President Evans Speaks";"United States";"USD";"2016-06-03T07:45:00";"GMT";" ";"";"";"Low"
"Average Hourly Earnings (MoM) (May)";"United States";"USD";"2016-06-03T12:30:00";"GMT";"0.4%";"0.2%";"0.2%";"Moderate"
"Average Weekly Hours (May)";"United States";"USD";"2016-06-03T12:30:00";"GMT";"34.4";"34.5";"34.4";"Low"
"Government Payrolls (May)";"United States";"USD";"2016-06-03T12:30:00";"GMT";"-7.0K";"";"13.0K";"Low"
"Manufacturing Payrolls (May)";"United States";"USD";"2016-06-03T12:30:00";"GMT";"2.0K";"-1.0K";"-10.0K";"Low"
"Nonfarm Payrolls (May)";"United States";"USD";"2016-06-03T12:30:00";"GMT";"123K";"164K";"38K";"High"
"Participation Rate (May)";"United States";"USD";"2016-06-03T12:30:00";"GMT";"62.8%";"";"62.6%";"Moderate"
"Private Nonfarm Payrolls (May)";"United States";"USD";"2016-06-03T12:30:00";"GMT";"130K";"152K";"25K";"Moderate"
"Trade Balance (Apr)";"United States";"USD";"2016-06-03T12:30:00";"GMT";"-35.50B";"-41.30B";"-37.40B";"Moderate"
"U6 Unemployment Rate (May)";"United States";"USD";"2016-06-03T12:30:00";"GMT";"9.7%";"";"9.7%";"Low"
"Unemployment Rate (May)";"United States";"USD";"2016-06-03T12:30:00";"GMT";"5.0%";"4.9%";"4.7%";"High"
"Markit Composite PMI (May)";"United States";"USD";"2016-06-03T13:45:00";"GMT";"50.8";"";"50.9";"Moderate"
"Services PMI (May)";"United States";"USD";"2016-06-03T13:45:00";"GMT";"51.2";"51.2";"51.3";"Moderate"
"Factory Orders (MoM) (Apr)";"United States";"USD";"2016-06-03T14:00:00";"GMT";"1.7%";"0.9%";"1.9%";"Moderate"
"Factory orders ex transportation (MoM) (Apr)";"United States";"USD";"2016-06-03T14:00:00";"GMT";"1.0%";"";"0.5%";"Low"
"ISM Non-Manufacturing Business Activity (May)";"United States";"USD";"2016-06-03T14:00:00";"GMT";"58.8";"";"55.1";"Low"
"ISM Non-Manufacturing Employment (May)";"United States";"USD";"2016-06-03T14:00:00";"GMT";"53.0";"";"49.7";"Moderate"
"ISM Non-Manufacturing New Orders (May)";"United States";"USD";"2016-06-03T14:00:00";"GMT";"59.9";"";"54.2";"Low"
"ISM Non-Manufacturing PMI (May)";"United States";"USD";"2016-06-03T14:00:00";"GMT";"55.7";"55.5";"52.9";"High"
"ISM Non-Manufacturing Prices (May)";"United States";"USD";"2016-06-03T14:00:00";"GMT";"53.4";"";"55.6";"Low"
"FOMC Member Brainard Speaks";"United States";"USD";"2016-06-03T16:30:00";"GMT";" ";"";"";"Moderate"
"U.S. Baker Hughes Oil Rig Count";"United States";"USD";"2016-06-03T17:05:00";"GMT";"316";"";"325";"Moderate"
"CFTC Copper speculative net positions";"United States";"USD";"2016-06-03T19:30:00";"GMT";"-41.1K";"";"-38.8K";"Low"
"CFTC Crude Oil speculative net positions";"United States";"USD";"2016-06-03T19:30:00";"GMT";"348.1K";"";"347.0K";"Moderate"
"CFTC Gold speculative net positions";"United States";"USD";"2016-06-03T19:30:00";"GMT";"206.6K";"";"197.1K";"Moderate"
"CFTC Sandamp:P 500 speculative net positions";"United States";"USD";"2016-06-03T19:30:00";"GMT";"83.4K";"";"44.4K";"Moderate"
"CFTC Silver speculative net positions";"United States";"USD";"2016-06-03T19:30:00";"GMT";"65.9K";"";"61.6K";"Low"
