{"events": {"event": [
    {
      "eventDateTime": "2012-06-06T08:30:00",
      "eventActual": "54.4",
      "eventCountry": "United Kingdom",
      "eventExpectedVolatility": "High",
      "eventName": "Construction PMI",
      "eventTimeZone": "GMT",
      "eventPrevious": "55.8",
      "eventCurrency": "GBP",
      "eventForecast": "54.2"
    },
    {
      "eventDateTime": "2012-06-06T23:01:00",
      "eventActual": "1.3%",
      "eventCountry": "United Kingdom",
      "eventExpectedVolatility": "Moderate",
      "eventName": "BRC Retail Sales Monitor (YoY)",
      "eventTimeZone": "GMT",
      "eventPrevious": "-3.3%",
      "eventCurrency": "GBP",
      "eventForecast": "0.8%"
    }
  ]}}
