{"events": {"event": [
    {
      "eventDateTime": "2016-09-09T04:30:00",
      "eventActual": "0.3%",
      "eventCountry": "Japan",
      "eventExpectedVolatility": "Moderate",
      "eventName": "Tertiary Industry Activity Index (MoM)",
      "eventTimeZone": "GMT",
      "eventPrevious": "0.7%",
      "eventCurrency": "JPY",
      "eventForecast": "0.4%"
    },
    {
      "eventDateTime": "2016-09-09T19:30:00",
      "eventActual": "54.5K",
      "eventCountry": "Japan",
      "eventExpectedVolatility": "Moderate",
      "eventName": "CFTC JPY speculative net positions",
      "eventTimeZone": "GMT",
      "eventPrevious": "63.7K",
      "eventCurrency": "JPY",
      "eventForecast": ""
    }
  ]}}
