{"events": {"event": {
    "eventDateTime": "2012-05-24T06:00:00",
    "eventActual": "1.334B",
    "eventCountry": "Switzerland",
    "eventExpectedVolatility": "Low",
    "eventName": "Trade Balance",
    "eventTimeZone": "GMT",
    "eventPrevious": "1.582B",
    "eventCurrency": "CHF",
    "eventForecast": "1.900B"
  }}}
