"Chicago Fed National Activity (Nov)";"United States";"USD";"2016-12-22T13:30:00";"GMT";"-0.05";"-0.15";"-0.27";"Low"
"Continuing Jobless Claims";"United States";"USD";"2016-12-22T13:30:00";"GMT";"2,021K";"2,015K";"2,036K";"Low"
"Core Durable Goods Orders (MoM) (Nov)";"United States";"USD";"2016-12-22T13:30:00";"GMT";"0.9%";"0.2%";"0.5%";"High"
"Core PCE Prices (Q3)";"United States";"USD";"2016-12-22T13:30:00";"GMT";"1.70%";"1.70%";"1.70%";"Low"
"Corporate Profits (QoQ) (Q3)";"United States";"USD";"2016-12-22T13:30:00";"GMT";"7.6%";"";"6.7%";"Low"
"Durable Goods Orders (MoM) (Nov)";"United States";"USD";"2016-12-22T13:30:00";"GMT";"4.8%";"-4.7%";"-4.6%";"Moderate"
"Durables Excluding Defense (MoM) (Nov)";"United States";"USD";"2016-12-22T13:30:00";"GMT";"5.1%";"-0.1%";"-6.6%";"Low"
"GDP (QoQ) (Q3)";"United States";"USD";"2016-12-22T13:30:00";"GMT";"3.2%";"3.3%";"3.5%";"High"
"GDP Price Index (QoQ) (Q3)";"United States";"USD";"2016-12-22T13:30:00";"GMT";"1.4%";"1.4%";"1.4%";"Moderate"
"GDP Sales (Q3)";"United States";"USD";"2016-12-22T13:30:00";"GMT";"2.7%";"2.8%";"3.0%";"Low"
"Goods Orders Non Defense Ex Air (MoM) (Nov)";"United States";"USD";"2016-12-22T13:30:00";"GMT";"0.2%";"0.3%";"0.9%";"Low"
"Initial Jobless Claims";"United States";"USD";"2016-12-22T13:30:00";"GMT";"254K";"256K";"275K";"Moderate"
"Jobless Claims 4-Week Avg.";"United States";"USD";"2016-12-22T13:30:00";"GMT";"257.75K";"";"263.75K";"Low"
"PCE Prices (Q3)";"United States";"USD";"2016-12-22T13:30:00";"GMT";"1.4%";"1.4%";"1.5%";"Low"
"Real Consumer Spending (Q3)";"United States";"USD";"2016-12-22T13:30:00";"GMT";"2.8%";"2.8%";"3.0%";"Low"
"House Price Index (MoM) (Oct)";"United States";"USD";"2016-12-22T14:00:00";"GMT";"0.6%";"0.4%";"0.4%";"Low"
"House Price Index (Oct)";"United States";"USD";"2016-12-22T14:00:00";"GMT";"239.3";"";"240.2";"Low"
"House Price Index (YoY) (Oct)";"United States";"USD";"2016-12-22T14:00:00";"GMT";"6.2%";"";"6.2%";"Low"
"Bloomberg Consumer Confidence";"United States";"USD";"2016-12-22T14:50:00";"GMT";"45.5";"";"46.7";"Low"
"Core PCE Price Index (MoM) (Nov)";"United States";"USD";"2016-12-22T15:00:00";"GMT";"0.1%";"0.1%";"0.0%";"Moderate"
"Core PCE Price Index (YoY) (Nov)";"United States";"USD";"2016-12-22T15:00:00";"GMT";"1.8%";"";"1.6%";"Moderate"
"Personal Income (MoM) (Nov)";"United States";"USD";"2016-12-22T15:00:00";"GMT";"0.5%";"0.3%";"0.0%";"Low"
"Personal Spending (MoM) (Nov)";"United States";"USD";"2016-12-22T15:00:00";"GMT";"0.4%";"0.3%";"0.2%";"Moderate"
"Real Personal Consumption (MoM) (Nov)";"United States";"USD";"2016-12-22T15:00:00";"GMT";"0.1%";"";"0.1%";"Low"
"Natural Gas Storage";"United States";"USD";"2016-12-22T15:30:00";"GMT";"-147B";"-201B";"-209B";"Low"
"KC Fed Composite Index (Dec)";"United States";"USD";"2016-12-22T16:00:00";"GMT";"1";"";"11";"Low"
"KC Fed Manufacturing Index (Dec)";"United States";"USD";"2016-12-22T16:00:00";"GMT";"9";"";"24";"Low"
"Dallas Fed PCE (Nov)";"United States";"USD";"2016-12-22T18:00:00";"GMT";"2.20%";"";"1.10%";"Low"
"5-Year TIPS Auction";"United States";"USD";"2016-12-22T18:04:00";"GMT";" ";"";"0.120%";"Low"
