"Investing.com Gold Index";"United States";"USD";"2016-04-25T06:30:00";"GMT";"61.3%";"";"62.8%";"Moderate"
"Investing.com Sandamp:P 500 Index";"United States";"USD";"2016-04-25T06:30:00";"GMT";"27.1%";"";"27.2%";"Moderate"
"New Home Sales (Mar)";"United States";"USD";"2016-04-25T14:00:00";"GMT";"519K";"520K";"511K";"High"
"New Home Sales (MoM) (Mar)";"United States";"USD";"2016-04-25T14:00:00";"GMT";"-0.4%";"1.0%";"-1.5%";"Moderate"
"Dallas Fed Mfg Business Index (Apr)";"United States";"USD";"2016-04-25T14:30:00";"GMT";"-13.6";"";"-13.9";"Low"
"3-Month Bill Auction";"United States";"USD";"2016-04-25T15:30:00";"GMT";"0.220%";"";"0.250%";"Low"
"6-Month Bill Auction";"United States";"USD";"2016-04-25T15:30:00";"GMT";"0.350%";"";"0.400%";"Low"
"2-Year Note Auction";"United States";"USD";"2016-04-25T17:00:00";"GMT";"0.877%";"";"0.842%";"Low"
