"Investing.com Gold Index";"United States";"USD";"2019-07-01T05:30:00";"GMT";"66.6%";"";"67.7%";"Moderate"
"Investing.com Sandamp:P 500 Index";"United States";"USD";"2019-07-01T05:30:00";"GMT";"45.9%";"";"57.9%";"Moderate"
"FOMC Member Clarida Speaks";"United States";"USD";"2019-07-01T06:15:00";"GMT";" ";"";"";"Moderate"
"OPEC Meeting";"United States";"USD";"2019-07-01T10:00:00";"GMT";" ";"";"";"Moderate"
"Manufacturing PMI (Jun)";"United States";"USD";"2019-07-01T13:45:00";"GMT";"50.1";"50.1";"50.6";"Moderate"
"Construction Spending (MoM) (May)";"United States";"USD";"2019-07-01T14:00:00";"GMT";"0.4%";"0.1%";"-0.8%";"Low"
"ISM Manufacturing Employment (Jun)";"United States";"USD";"2019-07-01T14:00:00";"GMT";"53.7";"52.8";"54.5";"Moderate"
"ISM Manufacturing New Orders Index (Jun)";"United States";"USD";"2019-07-01T14:00:00";"GMT";"52.7";"52.5";"50.0";"Low"
"ISM Manufacturing PMI (Jun)";"United States";"USD";"2019-07-01T14:00:00";"GMT";"52.1";"51.0";"51.7";"High"
"ISM Manufacturing Prices (Jun)";"United States";"USD";"2019-07-01T14:00:00";"GMT";"53.2";"53.0";"47.9";"Low"
"3-Month Bill Auction";"United States";"USD";"2019-07-01T15:30:00";"GMT";"2.085%";"";"2.145%";"Low"
"6-Month Bill Auction";"United States";"USD";"2019-07-01T15:30:00";"GMT";"2.030%";"";"2.040%";"Low"
