"Average Earnings Index +Bonus (Jan)";"United Kingdom";"GBP";"2016-03-16T09:30:00";"GMT";"1.9%";"2.0%";"2.1%";"High"
"Average Earnings ex Bonus (Jan)";"United Kingdom";"GBP";"2016-03-16T09:30:00";"GMT";"2.0%";"2.1%";"2.2%";"Low"
"Claimant Count Change (Feb)";"United Kingdom";"GBP";"2016-03-16T09:30:00";"GMT";"-28.4K";"-9.1K";"-18.0K";"High"
"Unemployment Rate (Jan)";"United Kingdom";"GBP";"2016-03-16T09:30:00";"GMT";"5.1%";"5.1%";"5.1%";"Moderate"
"Annual Budget Release";"United Kingdom";"GBP";"2016-03-16T12:30:00";"GMT";" ";"";"";"High"
