"Employment Change (Apr)";"Canada";"CAD";"2016-05-06T12:30:00";"GMT";"40.6K";"1.0K";"-2.1K";"High"
"Full Employment Change (Apr)";"Canada";"CAD";"2016-05-06T12:30:00";"GMT";"35.3K";"";"-2.4K";"Low"
"Part Time Employment Change (Apr)";"Canada";"CAD";"2016-05-06T12:30:00";"GMT";"5.3K";"";"0.4K";"Low"
"Participation Rate (Apr)";"Canada";"CAD";"2016-05-06T12:30:00";"GMT";"65.9%";"";"65.8%";"Low"
"Unemployment Rate (Apr)";"Canada";"CAD";"2016-05-06T12:30:00";"GMT";"7.1%";"7.2%";"7.1%";"Moderate"
"Ivey PMI (Apr)";"Canada";"CAD";"2016-05-06T14:00:00";"GMT";"50.1";"52.5";"53.1";"High"
"Ivey PMI n.s.a (Apr)";"Canada";"CAD";"2016-05-06T14:00:00";"GMT";"57.9";"";"50.6";"Low"
"CFTC CAD speculative net positions";"Canada";"CAD";"2016-05-06T19:30:00";"GMT";"12.0K";"";"18.9K";"Low"
