{"events": {"event": [
    {
      "eventDateTime": "2014-08-12T21:00:00",
      "eventActual": "-9.40%",
      "eventCountry": "South Korea",
      "eventExpectedVolatility": "Low",
      "eventName": "Export Price Index (YoY)",
      "eventTimeZone": "GMT",
      "eventPrevious": "-10.60%",
      "eventCurrency": "KRW",
      "eventForecast": ""
    },
    {
      "eventDateTime": "2014-08-12T21:00:00",
      "eventActual": "-8.50%",
      "eventCountry": "South Korea",
      "eventExpectedVolatility": "Low",
      "eventName": "Import Price Index (YoY)",
      "eventTimeZone": "GMT",
      "eventPrevious": "-8.80%",
      "eventCurrency": "KRW",
      "eventForecast": ""
    },
    {
      "eventDateTime": "2014-08-12T23:00:00",
      "eventActual": "3.4%",
      "eventCountry": "South Korea",
      "eventExpectedVolatility": "Low",
      "eventName": "Unemployment Rate",
      "eventTimeZone": "GMT",
      "eventPrevious": "3.6%",
      "eventCurrency": "KRW",
      "eventForecast": "3.5%"
    }
  ]}}
