{"events": {"event": {
    "eventDateTime": "2019-10-24T13:00:00",
    "eventActual": "537.2B",
    "eventCountry": "Russia",
    "eventExpectedVolatility": "Moderate",
    "eventName": "Central Bank reserves (USD)",
    "eventTimeZone": "GMT",
    "eventPrevious": "535.4B",
    "eventCurrency": "RUB",
    "eventForecast": ""
  }}}
