{"events": {"event": {
    "eventDateTime": "2012-11-20T10:35:00",
    "eventActual": "0.787%",
    "eventCountry": "United Kingdom",
    "eventExpectedVolatility": "Low",
    "eventName": "5-Year Treasury Gilt Auction",
    "eventTimeZone": "GMT",
    "eventPrevious": "0.802%",
    "eventCurrency": "GBP",
    "eventForecast": ""
  }}}
