{"events": {"event": [
    {
      "eventDateTime": "2017-02-21T00:30:00",
      "eventActual": "",
      "eventCountry": "Australia",
      "eventExpectedVolatility": "High",
      "eventName": "RBA Meeting Minutes",
      "eventTimeZone": "GMT",
      "eventPrevious": "",
      "eventCurrency": "AUD",
      "eventForecast": ""
    },
    {
      "eventDateTime": "2017-02-21T21:30:00",
      "eventActual": "",
      "eventCountry": "Australia",
      "eventExpectedVolatility": "Moderate",
      "eventName": "RBA Governor Lowe Speaks",
      "eventTimeZone": "GMT",
      "eventPrevious": "",
      "eventCurrency": "AUD",
      "eventForecast": ""
    },
    {
      "eventDateTime": "2017-02-21T23:30:00",
      "eventActual": "0.0%",
      "eventCountry": "Australia",
      "eventExpectedVolatility": "Low",
      "eventName": "MI Leading Index (MoM)",
      "eventTimeZone": "GMT",
      "eventPrevious": "0.4%",
      "eventCurrency": "AUD",
      "eventForecast": ""
    }
  ]}}
