{"events": {"event": [
    {
      "eventDateTime": "2014-12-15T06:00:00",
      "eventActual": "63.3%",
      "eventCountry": "United States",
      "eventExpectedVolatility": "Moderate",
      "eventName": "Investing.com Gold Index",
      "eventTimeZone": "GMT",
      "eventPrevious": "62.1%",
      "eventCurrency": "USD",
      "eventForecast": ""
    },
    {
      "eventDateTime": "2014-12-15T06:00:00",
      "eventActual": "41.0%",
      "eventCountry": "United States",
      "eventExpectedVolatility": "Moderate",
      "eventName": "Investing.com Sandamp;P 500 Index",
      "eventTimeZone": "GMT",
      "eventPrevious": "42.8%",
      "eventCurrency": "USD",
      "eventForecast": ""
    },
    {
      "eventDateTime": "2014-12-15T13:30:00",
      "eventActual": "-3.58",
      "eventCountry": "United States",
      "eventExpectedVolatility": "Moderate",
      "eventName": "NY Empire State Manufacturing Index (Dec)",
      "eventTimeZone": "GMT",
      "eventPrevious": "10.16",
      "eventCurrency": "USD",
      "eventForecast": "12.52"
    },
    {
      "eventDateTime": "2014-12-15T14:15:00",
      "eventActual": "80.1%",
      "eventCountry": "United States",
      "eventExpectedVolatility": "Low",
      "eventName": "Capacity Utilization Rate (Nov)",
      "eventTimeZone": "GMT",
      "eventPrevious": "79.3%",
      "eventCurrency": "USD",
      "eventForecast": "79.3%"
    },
    {
      "eventDateTime": "2014-12-15T14:15:00",
      "eventActual": "1.3%",
      "eventCountry": "United States",
      "eventExpectedVolatility": "Moderate",
      "eventName": "Industrial Production (MoM) (Nov)",
      "eventTimeZone": "GMT",
      "eventPrevious": "0.1%",
      "eventCurrency": "USD",
      "eventForecast": "0.7%"
    },
    {
      "eventDateTime": "2014-12-15T14:15:00",
      "eventActual": "1.1%",
      "eventCountry": "United States",
      "eventExpectedVolatility": "Low",
      "eventName": "Manufacturing Production (MoM) (Nov)",
      "eventTimeZone": "GMT",
      "eventPrevious": "0.4%",
      "eventCurrency": "USD",
      "eventForecast": "0.5%"
    },
    {
      "eventDateTime": "2014-12-15T15:00:00",
      "eventActual": "57",
      "eventCountry": "United States",
      "eventExpectedVolatility": "Low",
      "eventName": "NAHB Housing Market Index (Dec)",
      "eventTimeZone": "GMT",
      "eventPrevious": "58",
      "eventCurrency": "USD",
      "eventForecast": "58"
    },
    {
      "eventDateTime": "2014-12-15T16:30:00",
      "eventActual": "0.035%",
      "eventCountry": "United States",
      "eventExpectedVolatility": "Low",
      "eventName": "3-Month Bill Auction",
      "eventTimeZone": "GMT",
      "eventPrevious": "0.025%",
      "eventCurrency": "USD",
      "eventForecast": ""
    },
    {
      "eventDateTime": "2014-12-15T16:30:00",
      "eventActual": "0.110%",
      "eventCountry": "United States",
      "eventExpectedVolatility": "Low",
      "eventName": "6-Month Bill Auction",
      "eventTimeZone": "GMT",
      "eventPrevious": "0.090%",
      "eventCurrency": "USD",
      "eventForecast": ""
    },
    {
      "eventDateTime": "2014-12-15T21:00:00",
      "eventActual": "178.40B",
      "eventCountry": "United States",
      "eventExpectedVolatility": "Low",
      "eventName": "Overall Net Capital Flow (Oct)",
      "eventTimeZone": "GMT",
      "eventPrevious": "-57.20B",
      "eventCurrency": "USD",
      "eventForecast": ""
    },
    {
      "eventDateTime": "2014-12-15T21:00:00",
      "eventActual": "-1.4B",
      "eventCountry": "United States",
      "eventExpectedVolatility": "Moderate",
      "eventName": "TIC Net Long-Term Transactions (Oct)",
      "eventTimeZone": "GMT",
      "eventPrevious": "164.3B",
      "eventCurrency": "USD",
      "eventForecast": "72.8B"
    },
    {
      "eventDateTime": "2014-12-15T21:00:00",
      "eventActual": "-14.90B",
      "eventCountry": "United States",
      "eventExpectedVolatility": "Low",
      "eventName": "TIC Net Long-Term Transactions including Swaps (Oct)",
      "eventTimeZone": "GMT",
      "eventPrevious": "152.70B",
      "eventCurrency": "USD",
      "eventForecast": ""
    },
    {
      "eventDateTime": "2014-12-15T21:00:00",
      "eventActual": "0.50B",
      "eventCountry": "United States",
      "eventExpectedVolatility": "Low",
      "eventName": "US Foreign Buying, T-bonds (Oct)",
      "eventTimeZone": "GMT",
      "eventPrevious": "48.10B",
      "eventCurrency": "USD",
      "eventForecast": ""
    }
  ]}}
