"Spanish Industrial Production (YoY) (Mar)";"Spain";"EUR";"2017-05-05T07:00:00";"GMT";"2.5%";"1.6%";"0.4%";"Low"
"Retail PMI";"Euro Zone";"EUR";"2017-05-05T08:10:00";"GMT";"49.5";"";"52.7";"Low"
"CFTC EUR speculative net positions";"Euro Zone";"EUR";"2017-05-05T19:30:00";"GMT";"-20.9K";"";"-1.7K";"Moderate"
