{"events": {"event": {
    "eventDateTime": "2019-12-04T05:00:00",
    "eventActual": "52.7",
    "eventCountry": "India",
    "eventExpectedVolatility": "Low",
    "eventName": "Nikkei Services PMI (Nov)",
    "eventTimeZone": "GMT",
    "eventPrevious": "49.2",
    "eventCurrency": "INR",
    "eventForecast": "49.8"
  }}}
