"Central Bank reserves (USD)";"Russia";"RUB";"2014-07-17T11:30:00";"GMT";"474.30B";"";"476.70B";"Moderate"
"Retail Sales (YoY)";"Russia";"RUB";"2014-07-17T12:00:00";"GMT";"2.1%";"1.8%";"0.7%";"Moderate"
"Unemployment Rate";"Russia";"RUB";"2014-07-17T12:00:00";"GMT";"4.9%";"5.0%";"4.9%";"Moderate"
