{"events": {"event": [
    {
      "eventDateTime": "2010-03-25T00:00:00",
      "eventActual": "",
      "eventCountry": "United States",
      "eventExpectedVolatility": "Moderate",
      "eventName": "Fed Governor Kohn Speaks",
      "eventTimeZone": "GMT",
      "eventPrevious": "",
      "eventCurrency": "USD",
      "eventForecast": ""
    },
    {
      "eventDateTime": "2010-03-25T12:30:00",
      "eventActual": "442K",
      "eventCountry": "United States",
      "eventExpectedVolatility": "Moderate",
      "eventName": "Initial Jobless Claims",
      "eventTimeZone": "GMT",
      "eventPrevious": "456K",
      "eventCurrency": "USD",
      "eventForecast": "450K"
    },
    {
      "eventDateTime": "2010-03-25T14:00:00",
      "eventActual": "",
      "eventCountry": "United States",
      "eventExpectedVolatility": "High",
      "eventName": "Fed Chairman Bernanke Testifies",
      "eventTimeZone": "GMT",
      "eventPrevious": "",
      "eventCurrency": "USD",
      "eventForecast": ""
    },
    {
      "eventDateTime": "2010-03-25T14:30:00",
      "eventActual": "11B",
      "eventCountry": "United States",
      "eventExpectedVolatility": "Low",
      "eventName": "Natural Gas Storage",
      "eventTimeZone": "GMT",
      "eventPrevious": "-11B",
      "eventCurrency": "USD",
      "eventForecast": ""
    },
    {
      "eventDateTime": "2010-03-25T17:30:00",
      "eventActual": "",
      "eventCountry": "United States",
      "eventExpectedVolatility": "Moderate",
      "eventName": "Treasury Secretary Geithner Speaks",
      "eventTimeZone": "GMT",
      "eventPrevious": "",
      "eventCurrency": "USD",
      "eventForecast": ""
    }
  ]}}
