{"events": {"event": [
    {
      "eventDateTime": "2019-09-11T11:00:00",
      "eventActual": "3.82%",
      "eventCountry": "United States",
      "eventExpectedVolatility": "Low",
      "eventName": "MBA 30-Year Mortgage Rate",
      "eventTimeZone": "GMT",
      "eventPrevious": "3.87%",
      "eventCurrency": "USD",
      "eventForecast": ""
    },
    {
      "eventDateTime": "2019-09-11T11:00:00",
      "eventActual": "2.0%",
      "eventCountry": "United States",
      "eventExpectedVolatility": "Low",
      "eventName": "MBA Mortgage Applications (WoW)",
      "eventTimeZone": "GMT",
      "eventPrevious": "-3.1%",
      "eventCurrency": "USD",
      "eventForecast": ""
    },
    {
      "eventDateTime": "2019-09-11T11:00:00",
      "eventActual": "253.5",
      "eventCountry": "United States",
      "eventExpectedVolatility": "Low",
      "eventName": "MBA Purchase Index",
      "eventTimeZone": "GMT",
      "eventPrevious": "242.6",
      "eventCurrency": "USD",
      "eventForecast": ""
    },
    {
      "eventDateTime": "2019-09-11T11:00:00",
      "eventActual": "569.8",
      "eventCountry": "United States",
      "eventExpectedVolatility": "Low",
      "eventName": "Mortgage Market Index",
      "eventTimeZone": "GMT",
      "eventPrevious": "558.5",
      "eventCurrency": "USD",
      "eventForecast": ""
    },
    {
      "eventDateTime": "2019-09-11T11:00:00",
      "eventActual": "2,377.5",
      "eventCountry": "United States",
      "eventExpectedVolatility": "Low",
      "eventName": "Mortgage Refinance Index",
      "eventTimeZone": "GMT",
      "eventPrevious": "2,367.2",
      "eventCurrency": "USD",
      "eventForecast": ""
    },
    {
      "eventDateTime": "2019-09-11T11:00:00",
      "eventActual": "",
      "eventCountry": "United States",
      "eventExpectedVolatility": "Moderate",
      "eventName": "OPEC Monthly Report",
      "eventTimeZone": "GMT",
      "eventPrevious": "",
      "eventCurrency": "USD",
      "eventForecast": ""
    },
    {
      "eventDateTime": "2019-09-11T12:30:00",
      "eventActual": "0.3%",
      "eventCountry": "United States",
      "eventExpectedVolatility": "Moderate",
      "eventName": "Core PPI (MoM) (Aug)",
      "eventTimeZone": "GMT",
      "eventPrevious": "-0.1%",
      "eventCurrency": "USD",
      "eventForecast": "0.2%"
    },
    {
      "eventDateTime": "2019-09-11T12:30:00",
      "eventActual": "2.3%",
      "eventCountry": "United States",
      "eventExpectedVolatility": "Low",
      "eventName": "Core PPI (YoY) (Aug)",
      "eventTimeZone": "GMT",
      "eventPrevious": "2.1%",
      "eventCurrency": "USD",
      "eventForecast": "2.2%"
    },
    {
      "eventDateTime": "2019-09-11T12:30:00",
      "eventActual": "0.1%",
      "eventCountry": "United States",
      "eventExpectedVolatility": "High",
      "eventName": "PPI (MoM) (Aug)",
      "eventTimeZone": "GMT",
      "eventPrevious": "0.2%",
      "eventCurrency": "USD",
      "eventForecast": "0.1%"
    },
    {
      "eventDateTime": "2019-09-11T12:30:00",
      "eventActual": "1.8%",
      "eventCountry": "United States",
      "eventExpectedVolatility": "Low",
      "eventName": "PPI (YoY) (Aug)",
      "eventTimeZone": "GMT",
      "eventPrevious": "1.7%",
      "eventCurrency": "USD",
      "eventForecast": "1.7%"
    },
    {
      "eventDateTime": "2019-09-11T14:00:00",
      "eventActual": "0.2%",
      "eventCountry": "United States",
      "eventExpectedVolatility": "Low",
      "eventName": "Wholesale Inventories (MoM)",
      "eventTimeZone": "GMT",
      "eventPrevious": "0.0%",
      "eventCurrency": "USD",
      "eventForecast": "0.2%"
    },
    {
      "eventDateTime": "2019-09-11T14:00:00",
      "eventActual": "0.3%",
      "eventCountry": "United States",
      "eventExpectedVolatility": "Low",
      "eventName": "Wholesale Trade Sales (MoM) (Jul)",
      "eventTimeZone": "GMT",
      "eventPrevious": "-0.3%",
      "eventCurrency": "USD",
      "eventForecast": "0.2%"
    },
    {
      "eventDateTime": "2019-09-11T14:30:00",
      "eventActual": "-0.413M",
      "eventCountry": "United States",
      "eventExpectedVolatility": "Low",
      "eventName": "Crude Oil Imports",
      "eventTimeZone": "GMT",
      "eventPrevious": "0.934M",
      "eventCurrency": "USD",
      "eventForecast": ""
    },
    {
      "eventDateTime": "2019-09-11T14:30:00",
      "eventActual": "-6.912M",
      "eventCountry": "United States",
      "eventExpectedVolatility": "High",
      "eventName": "Crude Oil Inventories",
      "eventTimeZone": "GMT",
      "eventPrevious": "-4.771M",
      "eventCurrency": "USD",
      "eventForecast": "-2.686M"
    },
    {
      "eventDateTime": "2019-09-11T14:30:00",
      "eventActual": "-0.798M",
      "eventCountry": "United States",
      "eventExpectedVolatility": "Moderate",
      "eventName": "Cushing Crude Oil Inventories",
      "eventTimeZone": "GMT",
      "eventPrevious": "-0.230M",
      "eventCurrency": "USD",
      "eventForecast": ""
    },
    {
      "eventDateTime": "2019-09-11T14:30:00",
      "eventActual": "0.187M",
      "eventCountry": "United States",
      "eventExpectedVolatility": "Low",
      "eventName": "Distillate Fuel Production",
      "eventTimeZone": "GMT",
      "eventPrevious": "-0.039M",
      "eventCurrency": "USD",
      "eventForecast": ""
    },
    {
      "eventDateTime": "2019-09-11T14:30:00",
      "eventActual": "2.704M",
      "eventCountry": "United States",
      "eventExpectedVolatility": "Low",
      "eventName": "EIA Weekly Distillates Stocks",
      "eventTimeZone": "GMT",
      "eventPrevious": "-2.538M",
      "eventCurrency": "USD",
      "eventForecast": "0.072M"
    },
    {
      "eventDateTime": "2019-09-11T14:30:00",
      "eventActual": "-0.682M",
      "eventCountry": "United States",
      "eventExpectedVolatility": "Low",
      "eventName": "Gasoline Inventories",
      "eventTimeZone": "GMT",
      "eventPrevious": "-2.396M",
      "eventCurrency": "USD",
      "eventForecast": "-0.847M"
    },
    {
      "eventDateTime": "2019-09-11T14:30:00",
      "eventActual": "0.088M",
      "eventCountry": "United States",
      "eventExpectedVolatility": "Low",
      "eventName": "Gasoline Production",
      "eventTimeZone": "GMT",
      "eventPrevious": "-0.388M",
      "eventCurrency": "USD",
      "eventForecast": ""
    },
    {
      "eventDateTime": "2019-09-11T14:30:00",
      "eventActual": "0.285M",
      "eventCountry": "United States",
      "eventExpectedVolatility": "Low",
      "eventName": "Heating Oil Stockpiles",
      "eventTimeZone": "GMT",
      "eventPrevious": "0.684M",
      "eventCurrency": "USD",
      "eventForecast": ""
    },
    {
      "eventDateTime": "2019-09-11T15:00:00",
      "eventActual": "58.94",
      "eventCountry": "United States",
      "eventExpectedVolatility": "Low",
      "eventName": "Thomson Reuters IPSOS PCSI (Sep)",
      "eventTimeZone": "GMT",
      "eventPrevious": "60.59",
      "eventCurrency": "USD",
      "eventForecast": ""
    },
    {
      "eventDateTime": "2019-09-11T17:00:00",
      "eventActual": "1.739%",
      "eventCountry": "United States",
      "eventExpectedVolatility": "Moderate",
      "eventName": "10-Year Note Auction",
      "eventTimeZone": "GMT",
      "eventPrevious": "1.670%",
      "eventCurrency": "USD",
      "eventForecast": ""
    }
  ]}}
