{"events": {"event": [
    {
      "eventDateTime": "2011-04-01T05:50:00",
      "eventActual": "8.7%",
      "eventCountry": "India",
      "eventExpectedVolatility": "Moderate",
      "eventName": "CPI (YoY)",
      "eventTimeZone": "GMT",
      "eventPrevious": "9.3%",
      "eventCurrency": "INR",
      "eventForecast": "9.8%"
    },
    {
      "eventDateTime": "2011-04-01T06:00:00",
      "eventActual": "-8.1B",
      "eventCountry": "India",
      "eventExpectedVolatility": "Low",
      "eventName": "Trade Balance",
      "eventTimeZone": "GMT",
      "eventPrevious": "-8.0B",
      "eventCurrency": "INR",
      "eventForecast": "-8.3B"
    },
    {
      "eventDateTime": "2011-04-01T09:00:00",
      "eventActual": "22.38%",
      "eventCountry": "India",
      "eventExpectedVolatility": "Low",
      "eventName": "Bank Loan Growth (Mar)",
      "eventTimeZone": "GMT",
      "eventPrevious": "23.64%",
      "eventCurrency": "INR",
      "eventForecast": ""
    },
    {
      "eventDateTime": "2011-04-01T09:00:00",
      "eventActual": "6.00%",
      "eventCountry": "India",
      "eventExpectedVolatility": "Low",
      "eventName": "Cash Reserve Ratio (Mar)",
      "eventTimeZone": "GMT",
      "eventPrevious": "6.00%",
      "eventCurrency": "INR",
      "eventForecast": ""
    },
    {
      "eventDateTime": "2011-04-01T09:00:00",
      "eventActual": "7.80%",
      "eventCountry": "India",
      "eventExpectedVolatility": "Low",
      "eventName": "Cumulative Industrial Production (Mar)",
      "eventTimeZone": "GMT",
      "eventPrevious": "7.80%",
      "eventCurrency": "INR",
      "eventForecast": ""
    },
    {
      "eventDateTime": "2011-04-01T09:00:00",
      "eventActual": "16.30%",
      "eventCountry": "India",
      "eventExpectedVolatility": "Low",
      "eventName": "Deposit Growth (Mar)",
      "eventTimeZone": "GMT",
      "eventPrevious": "16.77%",
      "eventCurrency": "INR",
      "eventForecast": ""
    },
    {
      "eventDateTime": "2011-04-01T09:00:00",
      "eventActual": "30.42B",
      "eventCountry": "India",
      "eventExpectedVolatility": "Low",
      "eventName": "Exports (USD) (Mar)",
      "eventTimeZone": "GMT",
      "eventPrevious": "23.24B",
      "eventCurrency": "INR",
      "eventForecast": ""
    },
    {
      "eventDateTime": "2011-04-01T09:00:00",
      "eventActual": "305.49B",
      "eventCountry": "India",
      "eventExpectedVolatility": "Low",
      "eventName": "FX Reserves, USD (Mar)",
      "eventTimeZone": "GMT",
      "eventPrevious": "302.59B",
      "eventCurrency": "INR",
      "eventForecast": ""
    },
    {
      "eventDateTime": "2011-04-01T09:00:00",
      "eventActual": "3,735.91B",
      "eventCountry": "India",
      "eventExpectedVolatility": "Low",
      "eventName": "Federal Fiscal Deficit (Mar)",
      "eventTimeZone": "GMT",
      "eventPrevious": "2,750.88B",
      "eventCurrency": "INR",
      "eventForecast": ""
    },
    {
      "eventDateTime": "2011-04-01T09:00:00",
      "eventActual": "34.27B",
      "eventCountry": "India",
      "eventExpectedVolatility": "Low",
      "eventName": "Imports (USD) (Mar)",
      "eventTimeZone": "GMT",
      "eventPrevious": "32.97B",
      "eventCurrency": "INR",
      "eventForecast": ""
    },
    {
      "eventDateTime": "2011-04-01T09:00:00",
      "eventActual": "6.47%",
      "eventCountry": "India",
      "eventExpectedVolatility": "Low",
      "eventName": "Infrastructure Output (YoY) (Mar)",
      "eventTimeZone": "GMT",
      "eventPrevious": "7.18%",
      "eventCurrency": "INR",
      "eventForecast": ""
    },
    {
      "eventDateTime": "2011-04-01T09:00:00",
      "eventActual": "6.62%",
      "eventCountry": "India",
      "eventExpectedVolatility": "High",
      "eventName": "Interest Rate Decision (Mar)",
      "eventTimeZone": "GMT",
      "eventPrevious": "6.50%",
      "eventCurrency": "INR",
      "eventForecast": ""
    },
    {
      "eventDateTime": "2011-04-01T09:00:00",
      "eventActual": "16.42%",
      "eventCountry": "India",
      "eventExpectedVolatility": "Low",
      "eventName": "M3 Money Supply (Mar)",
      "eventTimeZone": "GMT",
      "eventPrevious": "16.93%",
      "eventCurrency": "INR",
      "eventForecast": ""
    },
    {
      "eventDateTime": "2011-04-01T09:00:00",
      "eventActual": "11.00%",
      "eventCountry": "India",
      "eventExpectedVolatility": "Low",
      "eventName": "Manufacturing Output (MoM) (Mar)",
      "eventTimeZone": "GMT",
      "eventPrevious": "7.50%",
      "eventCurrency": "INR",
      "eventForecast": ""
    },
    {
      "eventDateTime": "2011-04-01T09:00:00",
      "eventActual": "5.62%",
      "eventCountry": "India",
      "eventExpectedVolatility": "Low",
      "eventName": "Reverse REPO Rate (Mar)",
      "eventTimeZone": "GMT",
      "eventPrevious": "5.50%",
      "eventCurrency": "INR",
      "eventForecast": ""
    },
    {
      "eventDateTime": "2011-04-01T09:00:00",
      "eventActual": "9.40%",
      "eventCountry": "India",
      "eventExpectedVolatility": "Low",
      "eventName": "WPI Food (YoY) (Mar)",
      "eventTimeZone": "GMT",
      "eventPrevious": "11.00%",
      "eventCurrency": "INR",
      "eventForecast": ""
    },
    {
      "eventDateTime": "2011-04-01T09:00:00",
      "eventActual": "12.50%",
      "eventCountry": "India",
      "eventExpectedVolatility": "Low",
      "eventName": "WPI Fuel (YoY) (Mar)",
      "eventTimeZone": "GMT",
      "eventPrevious": "12.40%",
      "eventCurrency": "INR",
      "eventForecast": ""
    },
    {
      "eventDateTime": "2011-04-01T09:00:00",
      "eventActual": "9.68%",
      "eventCountry": "India",
      "eventExpectedVolatility": "Moderate",
      "eventName": "WPI Inflation (YoY) (Mar)",
      "eventTimeZone": "GMT",
      "eventPrevious": "9.54%",
      "eventCurrency": "INR",
      "eventForecast": ""
    },
    {
      "eventDateTime": "2011-04-01T09:00:00",
      "eventActual": "7.45%",
      "eventCountry": "India",
      "eventExpectedVolatility": "Low",
      "eventName": "WPI Manufacturing Inflation (YoY) (Mar)",
      "eventTimeZone": "GMT",
      "eventPrevious": "6.26%",
      "eventCurrency": "INR",
      "eventForecast": ""
    }
  ]}}
