"PPI (MoM) (Oct)";"Switzerland";"CHF";"2016-11-14T08:15:00";"GMT";"0.3%";"0.2%";"0.1%";"Moderate"
"PPI (YoY) (Oct)";"Switzerland";"CHF";"2016-11-14T08:15:00";"GMT";"-0.1%";"";"-0.2%";"Low"
"CFTC CHF speculative net positions";"Switzerland";"CHF";"2016-11-14T20:30:00";"GMT";"-20.0K";"";"-23.3K";"Low"
