{"events": {"event": {
    "eventDateTime": "2018-08-29T22:45:00",
    "eventActual": "-10.3%",
    "eventCountry": "New Zealand",
    "eventExpectedVolatility": "Moderate",
    "eventName": "Building Consents (MoM) (Jul)",
    "eventTimeZone": "GMT",
    "eventPrevious": "-8.2%",
    "eventCurrency": "NZD",
    "eventForecast": ""
  }}}
