"Cash Reserve Ratio (Aug)";"India";"INR";"2013-09-01T09:00:00";"GMT";"4.00%";"";"4.00%";"Low"
"Cumulative Industrial Production (Aug)";"India";"INR";"2013-09-01T09:00:00";"GMT";"-0.20%";"";"0.10%";"Low"
"Deposit Growth (Aug)";"India";"INR";"2013-09-01T09:00:00";"GMT";"13.28%";"";"12.57%";"Low"
"Federal Fiscal Deficit (Aug)";"India";"INR";"2013-09-01T09:00:00";"GMT";"3,406.09B";"";"4,046.51B";"Low"
"Reverse REPO Rate (Aug)";"India";"INR";"2013-09-01T09:00:00";"GMT";"6.25%";"";"6.25%";"Low"
"WPI Food (YoY) (Aug)";"India";"INR";"2013-09-01T09:00:00";"GMT";"12.30%";"";"19.20%";"Low"
"WPI Fuel (YoY) (Aug)";"India";"INR";"2013-09-01T09:00:00";"GMT";"11.40%";"";"12.70%";"Low"
"WPI Manufacturing Inflation (YoY) (Aug)";"India";"INR";"2013-09-01T09:00:00";"GMT";"2.60%";"";"2.31%";"Low"
