{"events": {"event": [
    {
      "eventDateTime": "2016-07-21T12:30:00",
      "eventActual": "0.16",
      "eventCountry": "United States",
      "eventExpectedVolatility": "Low",
      "eventName": "Chicago Fed National Activity (Jun)",
      "eventTimeZone": "GMT",
      "eventPrevious": "-0.56",
      "eventCurrency": "USD",
      "eventForecast": "-0.20"
    },
    {
      "eventDateTime": "2016-07-21T12:30:00",
      "eventActual": "2,128K",
      "eventCountry": "United States",
      "eventExpectedVolatility": "Low",
      "eventName": "Continuing Jobless Claims",
      "eventTimeZone": "GMT",
      "eventPrevious": "2,153K",
      "eventCurrency": "USD",
      "eventForecast": "2,145K"
    },
    {
      "eventDateTime": "2016-07-21T12:30:00",
      "eventActual": "253K",
      "eventCountry": "United States",
      "eventExpectedVolatility": "Moderate",
      "eventName": "Initial Jobless Claims",
      "eventTimeZone": "GMT",
      "eventPrevious": "254K",
      "eventCurrency": "USD",
      "eventForecast": "265K"
    },
    {
      "eventDateTime": "2016-07-21T12:30:00",
      "eventActual": "257.75K",
      "eventCountry": "United States",
      "eventExpectedVolatility": "Low",
      "eventName": "Jobless Claims 4-Week Avg.",
      "eventTimeZone": "GMT",
      "eventPrevious": "259.00K",
      "eventCurrency": "USD",
      "eventForecast": ""
    },
    {
      "eventDateTime": "2016-07-21T12:30:00",
      "eventActual": "-2.9",
      "eventCountry": "United States",
      "eventExpectedVolatility": "High",
      "eventName": "Philadelphia Fed Manufacturing Index (Jul)",
      "eventTimeZone": "GMT",
      "eventPrevious": "4.7",
      "eventCurrency": "USD",
      "eventForecast": "5.0"
    },
    {
      "eventDateTime": "2016-07-21T12:30:00",
      "eventActual": "33.7",
      "eventCountry": "United States",
      "eventExpectedVolatility": "Low",
      "eventName": "Philly Fed Business Conditions (Jul)",
      "eventTimeZone": "GMT",
      "eventPrevious": "29.8",
      "eventCurrency": "USD",
      "eventForecast": ""
    },
    {
      "eventDateTime": "2016-07-21T12:30:00",
      "eventActual": "15.10",
      "eventCountry": "United States",
      "eventExpectedVolatility": "Low",
      "eventName": "Philly Fed CAPEX Index (Jul)",
      "eventTimeZone": "GMT",
      "eventPrevious": "7.10",
      "eventCurrency": "USD",
      "eventForecast": ""
    },
    {
      "eventDateTime": "2016-07-21T12:30:00",
      "eventActual": "-1.6",
      "eventCountry": "United States",
      "eventExpectedVolatility": "Moderate",
      "eventName": "Philly Fed Employment (Jul)",
      "eventTimeZone": "GMT",
      "eventPrevious": "-10.9",
      "eventCurrency": "USD",
      "eventForecast": ""
    },
    {
      "eventDateTime": "2016-07-21T12:30:00",
      "eventActual": "11.8",
      "eventCountry": "United States",
      "eventExpectedVolatility": "Low",
      "eventName": "Philly Fed New Orders (Jul)",
      "eventTimeZone": "GMT",
      "eventPrevious": "-3.0",
      "eventCurrency": "USD",
      "eventForecast": ""
    },
    {
      "eventDateTime": "2016-07-21T12:30:00",
      "eventActual": "9.90",
      "eventCountry": "United States",
      "eventExpectedVolatility": "Low",
      "eventName": "Philly Fed Prices Paid (Jul)",
      "eventTimeZone": "GMT",
      "eventPrevious": "23.00",
      "eventCurrency": "USD",
      "eventForecast": ""
    },
    {
      "eventDateTime": "2016-07-21T13:00:00",
      "eventActual": "234.3",
      "eventCountry": "United States",
      "eventExpectedVolatility": "Low",
      "eventName": "House Price Index (May)",
      "eventTimeZone": "GMT",
      "eventPrevious": "233.8",
      "eventCurrency": "USD",
      "eventForecast": ""
    },
    {
      "eventDateTime": "2016-07-21T13:00:00",
      "eventActual": "0.2%",
      "eventCountry": "United States",
      "eventExpectedVolatility": "Low",
      "eventName": "House Price Index (MoM) (May)",
      "eventTimeZone": "GMT",
      "eventPrevious": "0.3%",
      "eventCurrency": "USD",
      "eventForecast": "0.4%"
    },
    {
      "eventDateTime": "2016-07-21T13:00:00",
      "eventActual": "5.6%",
      "eventCountry": "United States",
      "eventExpectedVolatility": "Low",
      "eventName": "House Price Index (YoY) (May)",
      "eventTimeZone": "GMT",
      "eventPrevious": "5.9%",
      "eventCurrency": "USD",
      "eventForecast": ""
    },
    {
      "eventDateTime": "2016-07-21T13:45:00",
      "eventActual": "42.9",
      "eventCountry": "United States",
      "eventExpectedVolatility": "Low",
      "eventName": "Bloomberg Consumer Confidence",
      "eventTimeZone": "GMT",
      "eventPrevious": "44.7",
      "eventCurrency": "USD",
      "eventForecast": ""
    },
    {
      "eventDateTime": "2016-07-21T14:00:00",
      "eventActual": "5.57M",
      "eventCountry": "United States",
      "eventExpectedVolatility": "High",
      "eventName": "Existing Home Sales (Jun)",
      "eventTimeZone": "GMT",
      "eventPrevious": "5.51M",
      "eventCurrency": "USD",
      "eventForecast": "5.48M"
    },
    {
      "eventDateTime": "2016-07-21T14:00:00",
      "eventActual": "1.1%",
      "eventCountry": "United States",
      "eventExpectedVolatility": "Moderate",
      "eventName": "Existing Home Sales (MoM) (Jun)",
      "eventTimeZone": "GMT",
      "eventPrevious": "1.5%",
      "eventCurrency": "USD",
      "eventForecast": "-0.5%"
    },
    {
      "eventDateTime": "2016-07-21T14:30:00",
      "eventActual": "34B",
      "eventCountry": "United States",
      "eventExpectedVolatility": "Low",
      "eventName": "Natural Gas Storage",
      "eventTimeZone": "GMT",
      "eventPrevious": "64B",
      "eventCurrency": "USD",
      "eventForecast": "39B"
    },
    {
      "eventDateTime": "2016-07-21T17:00:00",
      "eventActual": "0.045%",
      "eventCountry": "United States",
      "eventExpectedVolatility": "Low",
      "eventName": "10-Year TIPS Auction",
      "eventTimeZone": "GMT",
      "eventPrevious": "0.275%",
      "eventCurrency": "USD",
      "eventForecast": ""
    }
  ]}}
