{"events": {"event": {
    "eventDateTime": "2012-05-11T19:30:00",
    "eventActual": "-16.5K",
    "eventCountry": "Switzerland",
    "eventExpectedVolatility": "Low",
    "eventName": "CFTC CHF speculative net positions",
    "eventTimeZone": "GMT",
    "eventPrevious": "-14.3K",
    "eventCurrency": "CHF",
    "eventForecast": ""
  }}}
