{"events": {"event": {
    "eventDateTime": "2015-07-27T05:30:00",
    "eventActual": "51.7%",
    "eventCountry": "Japan",
    "eventExpectedVolatility": "Moderate",
    "eventName": "Investing.com USD/JPY Index",
    "eventTimeZone": "GMT",
    "eventPrevious": "50.1%",
    "eventCurrency": "JPY",
    "eventForecast": ""
  }}}
