"Halifax House Price Index (MoM) (May)";"United Kingdom";"GBP";"2019-06-07T07:30:00";"GMT";"1.2%";"-0.2%";"0.5%";"Moderate"
"Halifax House Price Index (YoY) (May)";"United Kingdom";"GBP";"2019-06-07T07:30:00";"GMT";"5.0%";"4.9%";"5.2%";"Moderate"
"Inflation Expectations";"United Kingdom";"GBP";"2019-06-07T08:30:00";"GMT";"3.2%";"";"3.1%";"Low"
"CFTC GBP speculative net positions";"United Kingdom";"GBP";"2019-06-07T19:30:00";"GMT";"-32.0K";"";"-47.8K";"Moderate"
