"Investing.com EUR/USD Index";"Euro Zone";"EUR";"2015-07-13T05:30:00";"GMT";"27.4%";"";"27.9%";"Moderate"
"Italian 15-Year BTP Auction";"Italy";"EUR";"2015-07-13T09:30:00";"GMT";"2.77%";"";"2.63%";"Low"
"Italian 3-Year BTP Auction";"Italy";"EUR";"2015-07-13T09:30:00";"GMT";"0.50%";"";"0.48%";"Low"
"Italian 30-Year BTP Auction";"Italy";"EUR";"2015-07-13T09:30:00";"GMT";"3.360%";"";"3.240%";"Low"
"Italian 7-Year BTP Auction";"Italy";"EUR";"2015-07-13T09:30:00";"GMT";"1.76%";"";"1.60%";"Low"
"German 6-Month Bubill Auction";"Germany";"EUR";"2015-07-13T09:35:00";"GMT";"-0.220%";"";"-0.261%";"Low"
"Eurogroup Meetings";"Euro Zone";"EUR";"2015-07-13T13:00:00";"GMT";" ";"";"";"Moderate"
"French 12-Month BTF Auction";"France";"EUR";"2015-07-13T13:00:00";"GMT";"-0.177%";"";"-0.175%";"Low"
"French 3-Month BTF Auction";"France";"EUR";"2015-07-13T13:00:00";"GMT";"-0.195%";"";"-0.201%";"Low"
"French 6-Month BTF Auction";"France";"EUR";"2015-07-13T13:00:00";"GMT";"-0.184%";"";"-0.188%";"Low"
