{"events": {"event": {
    "eventDateTime": "2011-12-09T20:30:00",
    "eventActual": "38.3K",
    "eventCountry": "Japan",
    "eventExpectedVolatility": "Moderate",
    "eventName": "CFTC JPY speculative net positions",
    "eventTimeZone": "GMT",
    "eventPrevious": "40.5K",
    "eventCurrency": "JPY",
    "eventForecast": ""
  }}}
