"NFIB Small Business Optimism (May)";"United States";"USD";"2017-06-13T10:00:00";"GMT";"104.5";"105.2";"104.5";"Low"
"OPEC Monthly Report";"United States";"USD";"2017-06-13T10:50:00";"GMT";" ";"";"";"Moderate"
"Core PPI (MoM) (May)";"United States";"USD";"2017-06-13T12:30:00";"GMT";"0.4%";"0.2%";"0.3%";"Moderate"
"Core PPI (YoY) (May)";"United States";"USD";"2017-06-13T12:30:00";"GMT";"1.9%";"2.0%";"2.1%";"Low"
"PPI (MoM) (May)";"United States";"USD";"2017-06-13T12:30:00";"GMT";"0.5%";"0.1%";"0.0%";"High"
"PPI (YoY) (May)";"United States";"USD";"2017-06-13T12:30:00";"GMT";"2.5%";"2.3%";"2.4%";"Low"
"Redbook (MoM)";"United States";"USD";"2017-06-13T12:55:00";"GMT";"0.7%";"";"0.5%";"Low"
"Redbook (YoY)";"United States";"USD";"2017-06-13T12:55:00";"GMT";"2.5%";"";"2.1%";"Low"
"4-Week Bill Auction";"United States";"USD";"2017-06-13T15:30:00";"GMT";"0.840%";"";"0.885%";"Low"
"30-Year Bond Auction";"United States";"USD";"2017-06-13T17:00:00";"GMT";"3.050%";"";"2.870%";"Low"
"API Weekly Crude Oil Stock";"United States";"USD";"2017-06-13T20:35:00";"GMT";"-4.620M";"-2.700M";"2.750M";"Moderate"
