"IPC-Fipe Inflation Index (MoM) (Jan)";"Brazil";"BRL";"2017-02-03T07:00:00";"GMT";"0.72%";"0.51%";"0.32%";"Moderate"
"Markit Composite PMI (Jan)";"Brazil";"BRL";"2017-02-03T12:00:00";"GMT";"45.2";"46.0";"44.7";"Low"
"Markit Services PMI (Jan)";"Brazil";"BRL";"2017-02-03T12:00:00";"GMT";"45.1";"46.0";"45.1";"Low"
