{"events": {"event": [
    {
      "eventDateTime": "2019-09-05T03:35:00",
      "eventActual": "0.140%",
      "eventCountry": "Japan",
      "eventExpectedVolatility": "Low",
      "eventName": "30-Year JGB Auction",
      "eventTimeZone": "GMT",
      "eventPrevious": "0.290%",
      "eventCurrency": "JPY",
      "eventForecast": ""
    },
    {
      "eventDateTime": "2019-09-05T23:30:00",
      "eventActual": "-0.3%",
      "eventCountry": "Japan",
      "eventExpectedVolatility": "Low",
      "eventName": "Average Cash Earnings (YoY)",
      "eventTimeZone": "GMT",
      "eventPrevious": "0.4%",
      "eventCurrency": "JPY",
      "eventForecast": ""
    },
    {
      "eventDateTime": "2019-09-05T23:30:00",
      "eventActual": "-0.9%",
      "eventCountry": "Japan",
      "eventExpectedVolatility": "Moderate",
      "eventName": "Household Spending (MoM) (Jul)",
      "eventTimeZone": "GMT",
      "eventPrevious": "-2.8%",
      "eventCurrency": "JPY",
      "eventForecast": "-1.3%"
    },
    {
      "eventDateTime": "2019-09-05T23:30:00",
      "eventActual": "0.8%",
      "eventCountry": "Japan",
      "eventExpectedVolatility": "Moderate",
      "eventName": "Household Spending (YoY) (Jul)",
      "eventTimeZone": "GMT",
      "eventPrevious": "2.7%",
      "eventCurrency": "JPY",
      "eventForecast": "0.9%"
    },
    {
      "eventDateTime": "2019-09-05T23:30:00",
      "eventActual": "-0.3%",
      "eventCountry": "Japan",
      "eventExpectedVolatility": "Low",
      "eventName": "Overall wage income of employees (Jul)",
      "eventTimeZone": "GMT",
      "eventPrevious": "0.4%",
      "eventCurrency": "JPY",
      "eventForecast": "0.1%"
    },
    {
      "eventDateTime": "2019-09-05T23:30:00",
      "eventActual": "0.60%",
      "eventCountry": "Japan",
      "eventExpectedVolatility": "Low",
      "eventName": "Overtime Pay (YoY) (Jul)",
      "eventTimeZone": "GMT",
      "eventPrevious": "-0.20%",
      "eventCurrency": "JPY",
      "eventForecast": ""
    },
    {
      "eventDateTime": "2019-09-05T23:50:00",
      "eventActual": "1,331.6B",
      "eventCountry": "Japan",
      "eventExpectedVolatility": "Low",
      "eventName": "Foreign Reserves (USD) (Aug)",
      "eventTimeZone": "GMT",
      "eventPrevious": "1,316.5B",
      "eventCurrency": "JPY",
      "eventForecast": ""
    }
  ]}}
