{"events": {"event": {
    "eventDateTime": "2017-11-24T08:15:00",
    "eventActual": "5.5%",
    "eventCountry": "Switzerland",
    "eventExpectedVolatility": "Low",
    "eventName": "Industrial orders (Q3)",
    "eventTimeZone": "GMT",
    "eventPrevious": "1.8%",
    "eventCurrency": "CHF",
    "eventForecast": ""
  }}}
