"French CPI (MoM)";"France";"EUR";"2012-03-13T06:30:00";"GMT";"-0.4%";"0.4%";"0.4%";"Moderate"
"Italian CPI (MoM)";"Italy";"EUR";"2012-03-13T09:00:00";"GMT";"0.4%";"0.4%";"0.4%";"Moderate"
"German ZEW Economic Sentiment";"Germany";"EUR";"2012-03-13T10:00:00";"GMT";"5.4";"10.5";"22.3";"High"
"ZEW Economic Sentiment";"Euro Zone";"EUR";"2012-03-13T10:00:00";"GMT";"-8.1";"3.8";"11.0";"Moderate"
"ECB President Draghi Speaks";"Euro Zone";"EUR";"2012-03-13T11:30:00";"GMT";" ";"";"";"High"
