{"events": {"event": [
    {
      "eventDateTime": "2014-03-24T08:00:00",
      "eventActual": "51.9",
      "eventCountry": "France",
      "eventExpectedVolatility": "Moderate",
      "eventName": "French Manufacturing PMI",
      "eventTimeZone": "GMT",
      "eventPrevious": "49.7",
      "eventCurrency": "EUR",
      "eventForecast": "49.8"
    },
    {
      "eventDateTime": "2014-03-24T08:00:00",
      "eventActual": "51.4",
      "eventCountry": "France",
      "eventExpectedVolatility": "Moderate",
      "eventName": "French Services PMI",
      "eventTimeZone": "GMT",
      "eventPrevious": "47.2",
      "eventCurrency": "EUR",
      "eventForecast": "47.5"
    },
    {
      "eventDateTime": "2014-03-24T08:30:00",
      "eventActual": "53.8",
      "eventCountry": "Germany",
      "eventExpectedVolatility": "High",
      "eventName": "German Manufacturing PMI",
      "eventTimeZone": "GMT",
      "eventPrevious": "54.8",
      "eventCurrency": "EUR",
      "eventForecast": "54.6"
    },
    {
      "eventDateTime": "2014-03-24T08:30:00",
      "eventActual": "54.0",
      "eventCountry": "Germany",
      "eventExpectedVolatility": "Moderate",
      "eventName": "German Services PMI",
      "eventTimeZone": "GMT",
      "eventPrevious": "55.9",
      "eventCurrency": "EUR",
      "eventForecast": "55.5"
    },
    {
      "eventDateTime": "2014-03-24T09:00:00",
      "eventActual": "53.0",
      "eventCountry": "Euro Zone",
      "eventExpectedVolatility": "Moderate",
      "eventName": "Manufacturing PMI",
      "eventTimeZone": "GMT",
      "eventPrevious": "53.2",
      "eventCurrency": "EUR",
      "eventForecast": "53.0"
    },
    {
      "eventDateTime": "2014-03-24T09:00:00",
      "eventActual": "52.4",
      "eventCountry": "Euro Zone",
      "eventExpectedVolatility": "Moderate",
      "eventName": "Services PMI",
      "eventTimeZone": "GMT",
      "eventPrevious": "52.6",
      "eventCurrency": "EUR",
      "eventForecast": "52.6"
    },
    {
      "eventDateTime": "2014-03-24T10:35:00",
      "eventActual": "0.183%",
      "eventCountry": "Germany",
      "eventExpectedVolatility": "Low",
      "eventName": "German 12-Month Bubill Auction",
      "eventTimeZone": "GMT",
      "eventPrevious": "0.087%",
      "eventCurrency": "EUR",
      "eventForecast": ""
    },
    {
      "eventDateTime": "2014-03-24T14:00:00",
      "eventActual": "0.230%",
      "eventCountry": "France",
      "eventExpectedVolatility": "Low",
      "eventName": "French 12-Month BTF Auction",
      "eventTimeZone": "GMT",
      "eventPrevious": "0.200%",
      "eventCurrency": "EUR",
      "eventForecast": ""
    },
    {
      "eventDateTime": "2014-03-24T14:00:00",
      "eventActual": "0.209%",
      "eventCountry": "France",
      "eventExpectedVolatility": "Low",
      "eventName": "French 3-Month BTF Auction",
      "eventTimeZone": "GMT",
      "eventPrevious": "0.197%",
      "eventCurrency": "EUR",
      "eventForecast": ""
    },
    {
      "eventDateTime": "2014-03-24T14:00:00",
      "eventActual": "0.220%",
      "eventCountry": "France",
      "eventExpectedVolatility": "Low",
      "eventName": "French 6-Month BTF Auction",
      "eventTimeZone": "GMT",
      "eventPrevious": "0.197%",
      "eventCurrency": "EUR",
      "eventForecast": ""
    }
  ]}}
