{"events": {"event": [
    {
      "eventDateTime": "2014-05-27T06:45:00",
      "eventActual": "85",
      "eventCountry": "France",
      "eventExpectedVolatility": "Low",
      "eventName": "French Consumer Confidence",
      "eventTimeZone": "GMT",
      "eventPrevious": "85",
      "eventCurrency": "EUR",
      "eventForecast": "85"
    },
    {
      "eventDateTime": "2014-05-27T08:00:00",
      "eventActual": "106.3",
      "eventCountry": "Italy",
      "eventExpectedVolatility": "Low",
      "eventName": "Italian Consumer Confidence",
      "eventTimeZone": "GMT",
      "eventPrevious": "105.5",
      "eventCurrency": "EUR",
      "eventForecast": "105.0"
    },
    {
      "eventDateTime": "2014-05-27T09:10:00",
      "eventActual": "0.786%",
      "eventCountry": "Italy",
      "eventExpectedVolatility": "Low",
      "eventName": "Italian 2-Year CTZ Auction",
      "eventTimeZone": "GMT",
      "eventPrevious": "0.786%",
      "eventCurrency": "EUR",
      "eventForecast": ""
    },
    {
      "eventDateTime": "2014-05-27T13:30:00",
      "eventActual": "",
      "eventCountry": "Euro Zone",
      "eventExpectedVolatility": "High",
      "eventName": "ECB President Draghi Speaks",
      "eventTimeZone": "GMT",
      "eventPrevious": "",
      "eventCurrency": "EUR",
      "eventForecast": ""
    }
  ]}}
