{"events": {"event": [
    {
      "eventDateTime": "2019-05-08T11:00:00",
      "eventActual": "0.90%",
      "eventCountry": "Brazil",
      "eventExpectedVolatility": "Low",
      "eventName": "IGP-DI Inflation Index (MoM) (Apr)",
      "eventTimeZone": "GMT",
      "eventPrevious": "1.07%",
      "eventCurrency": "BRL",
      "eventForecast": "0.83%"
    },
    {
      "eventDateTime": "2019-05-08T15:30:00",
      "eventActual": "0.872B",
      "eventCountry": "Brazil",
      "eventExpectedVolatility": "Low",
      "eventName": "Foreign Exchange Flows",
      "eventTimeZone": "GMT",
      "eventPrevious": "-1.594B",
      "eventCurrency": "BRL",
      "eventForecast": ""
    },
    {
      "eventDateTime": "2019-05-08T21:00:00",
      "eventActual": "6.50%",
      "eventCountry": "Brazil",
      "eventExpectedVolatility": "Moderate",
      "eventName": "Interest Rate Decision",
      "eventTimeZone": "GMT",
      "eventPrevious": "6.50%",
      "eventCurrency": "BRL",
      "eventForecast": "6.50%"
    }
  ]}}
