{"events": {"event": [
    {
      "eventDateTime": "2014-10-15T01:30:00",
      "eventActual": "0.5%",
      "eventCountry": "China",
      "eventExpectedVolatility": "Moderate",
      "eventName": "CPI (MoM) (Sep)",
      "eventTimeZone": "GMT",
      "eventPrevious": "0.2%",
      "eventCurrency": "CNY",
      "eventForecast": "0.4%"
    },
    {
      "eventDateTime": "2014-10-15T01:30:00",
      "eventActual": "1.6%",
      "eventCountry": "China",
      "eventExpectedVolatility": "Moderate",
      "eventName": "CPI (YoY) (Sep)",
      "eventTimeZone": "GMT",
      "eventPrevious": "2.0%",
      "eventCurrency": "CNY",
      "eventForecast": "1.7%"
    },
    {
      "eventDateTime": "2014-10-15T01:30:00",
      "eventActual": "-1.8%",
      "eventCountry": "China",
      "eventExpectedVolatility": "Moderate",
      "eventName": "PPI (YoY) (Sep)",
      "eventTimeZone": "GMT",
      "eventPrevious": "-1.2%",
      "eventCurrency": "CNY",
      "eventForecast": "-1.6%"
    }
  ]}}
