{"events": {"event": {
    "eventDateTime": "2000-04-08T17:00:00",
    "eventActual": "186",
    "eventCountry": "United States",
    "eventExpectedVolatility": "Moderate",
    "eventName": "U.S. Baker Hughes Oil Rig Count",
    "eventTimeZone": "GMT",
    "eventPrevious": "173",
    "eventCurrency": "USD",
    "eventForecast": ""
  }}}
