{"events": {"event": [
    {
      "eventDateTime": "2012-08-06T07:00:00",
      "eventActual": "-0.6%",
      "eventCountry": "United Kingdom",
      "eventExpectedVolatility": "Moderate",
      "eventName": "Halifax House Price Index (MoM)",
      "eventTimeZone": "GMT",
      "eventPrevious": "0.8%",
      "eventCurrency": "GBP",
      "eventForecast": "-0.5%"
    },
    {
      "eventDateTime": "2012-08-06T23:01:00",
      "eventActual": "0.1%",
      "eventCountry": "United Kingdom",
      "eventExpectedVolatility": "Moderate",
      "eventName": "BRC Retail Sales Monitor (YoY)",
      "eventTimeZone": "GMT",
      "eventPrevious": "1.4%",
      "eventCurrency": "GBP",
      "eventForecast": "-0.2%"
    }
  ]}}
