{"events": {"event": {
    "eventDateTime": "2009-09-21T01:30:00",
    "eventActual": "0.3%",
    "eventCountry": "Australia",
    "eventExpectedVolatility": "Low",
    "eventName": "New Motor Vehicle Sales (MoM)",
    "eventTimeZone": "GMT",
    "eventPrevious": "-6.9%",
    "eventCurrency": "AUD",
    "eventForecast": ""
  }}}
