{"events": {"event": {
    "eventDateTime": "2008-09-12T19:30:00",
    "eventActual": "-47.5K",
    "eventCountry": "United Kingdom",
    "eventExpectedVolatility": "Moderate",
    "eventName": "CFTC GBP speculative net positions",
    "eventTimeZone": "GMT",
    "eventPrevious": "-47.3K",
    "eventCurrency": "GBP",
    "eventForecast": ""
  }}}
