{"events": {"event": [
    {
      "eventDateTime": "2019-03-13T04:30:00",
      "eventActual": "0.4%",
      "eventCountry": "Japan",
      "eventExpectedVolatility": "Moderate",
      "eventName": "Tertiary Industry Activity Index (MoM)",
      "eventTimeZone": "GMT",
      "eventPrevious": "-0.5%",
      "eventCurrency": "JPY",
      "eventForecast": "-0.3%"
    },
    {
      "eventDateTime": "2019-03-13T23:50:00",
      "eventActual": "245.7B",
      "eventCountry": "Japan",
      "eventExpectedVolatility": "Low",
      "eventName": "Foreign Bonds Buying",
      "eventTimeZone": "GMT",
      "eventPrevious": "456.1B",
      "eventCurrency": "JPY",
      "eventForecast": ""
    },
    {
      "eventDateTime": "2019-03-13T23:50:00",
      "eventActual": "-1,158.6B",
      "eventCountry": "Japan",
      "eventExpectedVolatility": "Low",
      "eventName": "Foreign Investments in Japanese Stocks",
      "eventTimeZone": "GMT",
      "eventPrevious": "-340.5B",
      "eventCurrency": "JPY",
      "eventForecast": ""
    }
  ]}}
