{"events": {"event": {
    "eventDateTime": "2014-06-23T04:30:00",
    "eventActual": "53.7%",
    "eventCountry": "Australia",
    "eventExpectedVolatility": "Moderate",
    "eventName": "Investing.com AUD/USD Index",
    "eventTimeZone": "GMT",
    "eventPrevious": "54.0%",
    "eventCurrency": "AUD",
    "eventForecast": ""
  }}}
