{"events": {"event": {
    "eventDateTime": "2001-03-21T09:00:00",
    "eventActual": "94.9",
    "eventCountry": "Germany",
    "eventExpectedVolatility": "High",
    "eventName": "German Ifo Business Climate Index",
    "eventTimeZone": "GMT",
    "eventPrevious": "97.5",
    "eventCurrency": "EUR",
    "eventForecast": "97"
  }}}
