{"events": {"event": {
    "eventDateTime": "2011-07-05T12:30:00",
    "eventActual": "0.2%",
    "eventCountry": "Russia",
    "eventExpectedVolatility": "Moderate",
    "eventName": "CPI (MoM)",
    "eventTimeZone": "GMT",
    "eventPrevious": "0.5%",
    "eventCurrency": "RUB",
    "eventForecast": "0.3%"
  }}}
