{"events": {"event": [
    {
      "eventDateTime": "2011-08-11T01:00:00",
      "eventActual": "2.7%",
      "eventCountry": "Australia",
      "eventExpectedVolatility": "Low",
      "eventName": "MI Inflation Expectations",
      "eventTimeZone": "GMT",
      "eventPrevious": "3.4%",
      "eventCurrency": "AUD",
      "eventForecast": ""
    },
    {
      "eventDateTime": "2011-08-11T01:30:00",
      "eventActual": "-0.1K",
      "eventCountry": "Australia",
      "eventExpectedVolatility": "High",
      "eventName": "Employment Change",
      "eventTimeZone": "GMT",
      "eventPrevious": "18.2K",
      "eventCurrency": "AUD",
      "eventForecast": "10.3K"
    },
    {
      "eventDateTime": "2011-08-11T01:30:00",
      "eventActual": "5.1%",
      "eventCountry": "Australia",
      "eventExpectedVolatility": "Moderate",
      "eventName": "Unemployment Rate",
      "eventTimeZone": "GMT",
      "eventPrevious": "4.9%",
      "eventCurrency": "AUD",
      "eventForecast": "4.9%"
    }
  ]}}
