{"events": {"event": [
    {
      "eventDateTime": "2017-12-01T05:00:00",
      "eventActual": "52.6",
      "eventCountry": "India",
      "eventExpectedVolatility": "Low",
      "eventName": "Nikkei Markit Manufacturing PMI (Nov)",
      "eventTimeZone": "GMT",
      "eventPrevious": "50.3",
      "eventCurrency": "INR",
      "eventForecast": "51.0"
    },
    {
      "eventDateTime": "2017-12-01T11:30:00",
      "eventActual": "400.74B",
      "eventCountry": "India",
      "eventExpectedVolatility": "Low",
      "eventName": "FX Reserves, USD",
      "eventTimeZone": "GMT",
      "eventPrevious": "399.53B",
      "eventCurrency": "INR",
      "eventForecast": ""
    }
  ]}}
