"Continuing Jobless Claims";"United States";"USD";"2017-08-17T12:30:00";"GMT";"1,956K";"1,953K";"1,953K";"Low"
"Initial Jobless Claims";"United States";"USD";"2017-08-17T12:30:00";"GMT";"244K";"240K";"232K";"Moderate"
"Jobless Claims 4-Week Avg.";"United States";"USD";"2017-08-17T12:30:00";"GMT";"241.00K";"";"240.50K";"Low"
"Philadelphia Fed Manufacturing Index (Aug)";"United States";"USD";"2017-08-17T12:30:00";"GMT";"19.5";"18.5";"18.9";"High"
"Philly Fed Business Conditions (Aug)";"United States";"USD";"2017-08-17T12:30:00";"GMT";"36.9";"";"42.3";"Low"
"Philly Fed CAPEX Index (Aug)";"United States";"USD";"2017-08-17T12:30:00";"GMT";"42.00";"";"39.20";"Low"
"Philly Fed Employment (Aug)";"United States";"USD";"2017-08-17T12:30:00";"GMT";"10.9";"";"10.1";"Moderate"
"Philly Fed New Orders (Aug)";"United States";"USD";"2017-08-17T12:30:00";"GMT";"2.1";"";"20.4";"Low"
"Philly Fed Prices Paid (Aug)";"United States";"USD";"2017-08-17T12:30:00";"GMT";"19.10";"";"21.10";"Low"
"Capacity Utilization Rate (Jul)";"United States";"USD";"2017-08-17T12:45:00";"GMT";"76.7%";"76.7%";"76.7%";"Low"
"Industrial Production (MoM) (Jul)";"United States";"USD";"2017-08-17T12:45:00";"GMT";"0.4%";"0.3%";"0.2%";"Moderate"
"Manufacturing Production (MoM) (Jul)";"United States";"USD";"2017-08-17T12:45:00";"GMT";"0.2%";"0.2%";"-0.1%";"Low"
"Bloomberg Consumer Confidence";"United States";"USD";"2017-08-17T13:55:00";"GMT";"51.4";"";"52.1";"Low"
"Natural Gas Storage";"United States";"USD";"2017-08-17T14:30:00";"GMT";"28B";"47B";"53B";"Low"
"FOMC Member Kaplan Speaks";"United States";"USD";"2017-08-17T17:00:00";"GMT";" ";"";"";"Moderate"
"FOMC Member Kashkari Speaks";"United States";"USD";"2017-08-17T17:45:00";"GMT";" ";"";"";"Moderate"
