{"events": {"event": {
    "eventDateTime": "2015-04-03T19:30:00",
    "eventActual": "0.7K",
    "eventCountry": "Switzerland",
    "eventExpectedVolatility": "Low",
    "eventName": "CFTC CHF speculative net positions",
    "eventTimeZone": "GMT",
    "eventPrevious": "-4.0K",
    "eventCurrency": "CHF",
    "eventForecast": ""
  }}}
