{"events": {"event": [
    {
      "eventDateTime": "2016-01-05T07:30:00",
      "eventActual": "53.1%",
      "eventCountry": "United States",
      "eventExpectedVolatility": "Moderate",
      "eventName": "Investing.com Gold Index",
      "eventTimeZone": "GMT",
      "eventPrevious": "58.4%",
      "eventCurrency": "USD",
      "eventForecast": ""
    },
    {
      "eventDateTime": "2016-01-05T07:30:00",
      "eventActual": "44.2%",
      "eventCountry": "United States",
      "eventExpectedVolatility": "Moderate",
      "eventName": "Investing.com Sandamp:P 500 Index",
      "eventTimeZone": "GMT",
      "eventPrevious": "31.2%",
      "eventCurrency": "USD",
      "eventForecast": ""
    },
    {
      "eventDateTime": "2016-01-05T13:55:00",
      "eventActual": "-0.3%",
      "eventCountry": "United States",
      "eventExpectedVolatility": "Low",
      "eventName": "Redbook (MoM)",
      "eventTimeZone": "GMT",
      "eventPrevious": "-0.5%",
      "eventCurrency": "USD",
      "eventForecast": ""
    },
    {
      "eventDateTime": "2016-01-05T13:55:00",
      "eventActual": "2.9%",
      "eventCountry": "United States",
      "eventExpectedVolatility": "Low",
      "eventName": "Redbook (YoY)",
      "eventTimeZone": "GMT",
      "eventPrevious": "2.5%",
      "eventCurrency": "USD",
      "eventForecast": ""
    },
    {
      "eventDateTime": "2016-01-05T14:45:00",
      "eventActual": "716.6",
      "eventCountry": "United States",
      "eventExpectedVolatility": "Low",
      "eventName": "ISM-New York Index (Dec)",
      "eventTimeZone": "GMT",
      "eventPrevious": "710.6",
      "eventCurrency": "USD",
      "eventForecast": ""
    },
    {
      "eventDateTime": "2016-01-05T16:30:00",
      "eventActual": "0.200%",
      "eventCountry": "United States",
      "eventExpectedVolatility": "Low",
      "eventName": "4-Week Bill Auction",
      "eventTimeZone": "GMT",
      "eventPrevious": "0.170%",
      "eventCurrency": "USD",
      "eventForecast": ""
    },
    {
      "eventDateTime": "2016-01-05T16:30:00",
      "eventActual": "0.670%",
      "eventCountry": "United States",
      "eventExpectedVolatility": "Low",
      "eventName": "52-Week Bill Auction",
      "eventTimeZone": "GMT",
      "eventPrevious": "0.740%",
      "eventCurrency": "USD",
      "eventForecast": ""
    },
    {
      "eventDateTime": "2016-01-05T18:30:00",
      "eventActual": "9.94M",
      "eventCountry": "United States",
      "eventExpectedVolatility": "Low",
      "eventName": "All Truck Sales (Dec)",
      "eventTimeZone": "GMT",
      "eventPrevious": "10.38M",
      "eventCurrency": "USD",
      "eventForecast": ""
    },
    {
      "eventDateTime": "2016-01-05T18:30:00",
      "eventActual": "8.34M",
      "eventCountry": "United States",
      "eventExpectedVolatility": "Low",
      "eventName": "Domestic Truck Sales (Dec)",
      "eventTimeZone": "GMT",
      "eventPrevious": "8.72M",
      "eventCurrency": "USD",
      "eventForecast": "8.55M"
    },
    {
      "eventDateTime": "2016-01-05T21:00:00",
      "eventActual": "7.40M",
      "eventCountry": "United States",
      "eventExpectedVolatility": "Low",
      "eventName": "All Car Sales",
      "eventTimeZone": "GMT",
      "eventPrevious": "7.81M",
      "eventCurrency": "USD",
      "eventForecast": ""
    },
    {
      "eventDateTime": "2016-01-05T21:00:00",
      "eventActual": "5.51M",
      "eventCountry": "United States",
      "eventExpectedVolatility": "Low",
      "eventName": "Domestic Car Sales",
      "eventTimeZone": "GMT",
      "eventPrevious": "5.71M",
      "eventCurrency": "USD",
      "eventForecast": ""
    },
    {
      "eventDateTime": "2016-01-05T21:00:00",
      "eventActual": "17.34M",
      "eventCountry": "United States",
      "eventExpectedVolatility": "Low",
      "eventName": "Total Vehicle Sales",
      "eventTimeZone": "GMT",
      "eventPrevious": "18.19M",
      "eventCurrency": "USD",
      "eventForecast": "18.10M"
    },
    {
      "eventDateTime": "2016-01-05T21:35:00",
      "eventActual": "-5.600M",
      "eventCountry": "United States",
      "eventExpectedVolatility": "Moderate",
      "eventName": "API Weekly Crude Oil Stock",
      "eventTimeZone": "GMT",
      "eventPrevious": "2.900M",
      "eventCurrency": "USD",
      "eventForecast": "2.750M"
    },
    {
      "eventDateTime": "2016-01-05T21:35:00",
      "eventActual": "5.600M",
      "eventCountry": "United States",
      "eventExpectedVolatility": "Low",
      "eventName": "API Weekly Distillates Stocks",
      "eventTimeZone": "GMT",
      "eventPrevious": "1.700M",
      "eventCurrency": "USD",
      "eventForecast": ""
    },
    {
      "eventDateTime": "2016-01-05T21:35:00",
      "eventActual": "7.100M",
      "eventCountry": "United States",
      "eventExpectedVolatility": "Low",
      "eventName": "API Weekly Gasoline Stock",
      "eventTimeZone": "GMT",
      "eventPrevious": "-3.200M",
      "eventCurrency": "USD",
      "eventForecast": ""
    }
  ]}}
