"German Factory Orders (MoM) (Jul)";"Germany";"EUR";"2016-09-06T06:00:00";"GMT";"-0.3%";"0.5%";"0.2%";"Moderate"
"Retail PMI";"Euro Zone";"EUR";"2016-09-06T08:10:00";"GMT";"48.9";"";"51.0";"Low"
"GDP (QoQ) (Q2)";"Euro Zone";"EUR";"2016-09-06T09:00:00";"GMT";"0.3%";"0.3%";"0.3%";"Moderate"
"GDP (YoY) (Q2)";"Euro Zone";"EUR";"2016-09-06T09:00:00";"GMT";"1.6%";"1.6%";"1.6%";"Moderate"
