"Foreign Bonds Buying";"Japan";"JPY";"2016-09-28T23:50:00";"GMT";"-607.6B";"";"1,178.6B";"Low"
"Foreign Investments in Japanese Stocks";"Japan";"JPY";"2016-09-28T23:50:00";"GMT";"-479.0B";"";"-211.7B";"Low"
"Retail Sales (YoY) (Aug)";"Japan";"JPY";"2016-09-28T23:50:00";"GMT";"-0.2%";"-1.8%";"-2.1%";"Moderate"
