"Current Account";"Euro Zone";"EUR";"2010-10-19T08:00:00";"GMT";"-4.1B";"-1.9B";"-7.5B";"Low"
"German ZEW Economic Sentiment";"Germany";"EUR";"2010-10-19T09:00:00";"GMT";"-4.3";"-7.0";"-7.2";"High"
"ZEW Economic Sentiment";"Euro Zone";"EUR";"2010-10-19T09:00:00";"GMT";"4.4";"-2.0";"1.8";"Moderate"
