"Leading Indicators (MoM)";"Canada";"CAD";"2011-09-20T12:30:00";"GMT";"0.1%";"0.2%";"0.0%";"Moderate"
"Wholesale Sales (MoM)";"Canada";"CAD";"2011-09-20T12:30:00";"GMT";"0.0%";"0.4%";"0.8%";"Moderate"
"BoC Gov Carney Speaks";"Canada";"CAD";"2011-09-20T15:45:00";"GMT";" ";"";"";"Moderate"
