{"events": {"event": [
    {
      "eventDateTime": "2003-07-01T09:00:00",
      "eventActual": "3.10%",
      "eventCountry": "Russia",
      "eventExpectedVolatility": "Low",
      "eventName": "Budget Balance % of GDP (Jun)",
      "eventTimeZone": "GMT",
      "eventPrevious": "",
      "eventCurrency": "RUB",
      "eventForecast": ""
    },
    {
      "eventDateTime": "2003-07-01T09:00:00",
      "eventActual": "0.80%",
      "eventCountry": "Russia",
      "eventExpectedVolatility": "Moderate",
      "eventName": "CPI (MoM) (Jun)",
      "eventTimeZone": "GMT",
      "eventPrevious": "0.80%",
      "eventCurrency": "RUB",
      "eventForecast": ""
    },
    {
      "eventDateTime": "2003-07-01T09:00:00",
      "eventActual": "13.90%",
      "eventCountry": "Russia",
      "eventExpectedVolatility": "Moderate",
      "eventName": "CPI (YoY) (Jun)",
      "eventTimeZone": "GMT",
      "eventPrevious": "13.60%",
      "eventCurrency": "RUB",
      "eventForecast": ""
    },
    {
      "eventDateTime": "2003-07-01T09:00:00",
      "eventActual": "64.90B",
      "eventCountry": "Russia",
      "eventExpectedVolatility": "Moderate",
      "eventName": "Central Bank reserves (USD) (Jun)",
      "eventTimeZone": "GMT",
      "eventPrevious": "64.70B",
      "eventCurrency": "RUB",
      "eventForecast": ""
    },
    {
      "eventDateTime": "2003-07-01T09:00:00",
      "eventActual": "9.10%",
      "eventCountry": "Russia",
      "eventExpectedVolatility": "Low",
      "eventName": "Industrial Production (YoY) (Jun)",
      "eventTimeZone": "GMT",
      "eventPrevious": "10.40%",
      "eventCurrency": "RUB",
      "eventForecast": ""
    },
    {
      "eventDateTime": "2003-07-01T09:00:00",
      "eventActual": "6.50%",
      "eventCountry": "Russia",
      "eventExpectedVolatility": "High",
      "eventName": "Interest Rate Decision (Jun)",
      "eventTimeZone": "GMT",
      "eventPrevious": "6.50%",
      "eventCurrency": "RUB",
      "eventForecast": ""
    },
    {
      "eventDateTime": "2003-07-01T09:00:00",
      "eventActual": "0.40%",
      "eventCountry": "Russia",
      "eventExpectedVolatility": "Low",
      "eventName": "PPI (MoM) (Jun)",
      "eventTimeZone": "GMT",
      "eventPrevious": "0.10%",
      "eventCurrency": "RUB",
      "eventForecast": ""
    },
    {
      "eventDateTime": "2003-07-01T09:00:00",
      "eventActual": "5.05B",
      "eventCountry": "Russia",
      "eventExpectedVolatility": "Low",
      "eventName": "Trade Balance (Jun)",
      "eventTimeZone": "GMT",
      "eventPrevious": "4.53B",
      "eventCurrency": "RUB",
      "eventForecast": ""
    },
    {
      "eventDateTime": "2003-07-01T09:00:00",
      "eventActual": "8.40%",
      "eventCountry": "Russia",
      "eventExpectedVolatility": "Moderate",
      "eventName": "Unemployment Rate (Jun)",
      "eventTimeZone": "GMT",
      "eventPrevious": "8.50%",
      "eventCurrency": "RUB",
      "eventForecast": ""
    }
  ]}}
