{"events": {"event": [
    {
      "eventDateTime": "2015-09-01T00:00:00",
      "eventActual": "-14.7%",
      "eventCountry": "South Korea",
      "eventExpectedVolatility": "Low",
      "eventName": "Exports (YoY) (Aug)",
      "eventTimeZone": "GMT",
      "eventPrevious": "-3.4%",
      "eventCurrency": "KRW",
      "eventForecast": "-10.0%"
    },
    {
      "eventDateTime": "2015-09-01T00:00:00",
      "eventActual": "-18.3%",
      "eventCountry": "South Korea",
      "eventExpectedVolatility": "Low",
      "eventName": "Imports (YoY) (Aug)",
      "eventTimeZone": "GMT",
      "eventPrevious": "-15.3%",
      "eventCurrency": "KRW",
      "eventForecast": "-14.9%"
    },
    {
      "eventDateTime": "2015-09-01T00:00:00",
      "eventActual": "4.30B",
      "eventCountry": "South Korea",
      "eventExpectedVolatility": "Low",
      "eventName": "Trade Balance (Aug)",
      "eventTimeZone": "GMT",
      "eventPrevious": "7.70B",
      "eventCurrency": "KRW",
      "eventForecast": "6.07B"
    },
    {
      "eventDateTime": "2015-09-01T01:40:00",
      "eventActual": "47.9",
      "eventCountry": "South Korea",
      "eventExpectedVolatility": "Low",
      "eventName": "Nikkei Manufacturing PMI (Aug)",
      "eventTimeZone": "GMT",
      "eventPrevious": "47.6",
      "eventCurrency": "KRW",
      "eventForecast": ""
    },
    {
      "eventDateTime": "2015-09-01T23:00:00",
      "eventActual": "",
      "eventCountry": "South Korea",
      "eventExpectedVolatility": "Low",
      "eventName": "Current Account (Jul)",
      "eventTimeZone": "GMT",
      "eventPrevious": "10.80B",
      "eventCurrency": "KRW",
      "eventForecast": ""
    }
  ]}}
