"Exports (YoY) (Nov)";"South Korea";"KRW";"2015-12-01T00:00:00";"GMT";"-15.9%";"-12.5%";"-4.7%";"Low"
"Imports (YoY) (Nov)";"South Korea";"KRW";"2015-12-01T00:00:00";"GMT";"-16.6%";"-15.0%";"-17.6%";"Low"
"Trade Balance (Nov)";"South Korea";"KRW";"2015-12-01T00:00:00";"GMT";"6.70B";"6.72B";"10.40B";"Low"
"Nikkei Manufacturing PMI (Nov)";"South Korea";"KRW";"2015-12-01T01:40:00";"GMT";"49.1";"";"49.1";"Low"
"Current Account (Oct)";"South Korea";"KRW";"2015-12-01T23:00:00";"GMT";"9.76B";"";"7.19B";"Low"
