{"events": {"event": [
    {
      "eventDateTime": "2015-12-18T00:00:00",
      "eventActual": "23.0",
      "eventCountry": "New Zealand",
      "eventExpectedVolatility": "Moderate",
      "eventName": "ANZ Business Confidence (Dec)",
      "eventTimeZone": "GMT",
      "eventPrevious": "14.6",
      "eventCurrency": "NZD",
      "eventForecast": ""
    },
    {
      "eventDateTime": "2015-12-18T00:00:00",
      "eventActual": "34.4%",
      "eventCountry": "New Zealand",
      "eventExpectedVolatility": "Low",
      "eventName": "NBNZ Own Activity (Dec)",
      "eventTimeZone": "GMT",
      "eventPrevious": "32.0%",
      "eventCurrency": "NZD",
      "eventForecast": ""
    },
    {
      "eventDateTime": "2015-12-18T20:30:00",
      "eventActual": "1.1K",
      "eventCountry": "New Zealand",
      "eventExpectedVolatility": "Low",
      "eventName": "CFTC NZD speculative net positions",
      "eventTimeZone": "GMT",
      "eventPrevious": "8.9K",
      "eventCurrency": "NZD",
      "eventForecast": ""
    }
  ]}}
