"BoJ Interest Rate Decision";"Japan";"JPY";"2012-08-09T04:00:00";"GMT";"0.10%";"0.10%";"0.10%";"Moderate"
"Household Confidence";"Japan";"JPY";"2012-08-09T05:00:00";"GMT";"40.4";"40.8";"39.7";"Low"
"Machine Tool Orders (YoY)";"Japan";"JPY";"2012-08-09T06:00:00";"GMT";"-15.5%";"";"-6.8%";"Low"
"BoJ Press Conference";"Japan";"JPY";"2012-08-09T07:15:00";"GMT";" ";"";"";"High"
"PPI (YoY)";"Japan";"JPY";"2012-08-09T23:50:00";"GMT";"-1.3%";"-1.6%";"-2.1%";"Low"
