"Housing Credit (Jan)";"Australia";"AUD";"2015-02-27T00:30:00";"GMT";"0.6%";"";"0.6%";"Low"
"Private Sector Credit (MoM) (Jan)";"Australia";"AUD";"2015-02-27T00:30:00";"GMT";"0.5%";"0.5%";"0.5%";"Moderate"
"CFTC AUD speculative net positions";"Australia";"AUD";"2015-02-27T20:30:00";"GMT";"-53.8K";"";"-63.2K";"Moderate"
