{"events": {"event": [
    {
      "eventDateTime": "2001-05-01T09:00:00",
      "eventActual": "-3.50%",
      "eventCountry": "Japan",
      "eventExpectedVolatility": "Low",
      "eventName": "Bank Lending (YoY) (Apr)",
      "eventTimeZone": "GMT",
      "eventPrevious": "-3.80%",
      "eventCurrency": "JPY",
      "eventForecast": ""
    },
    {
      "eventDateTime": "2001-05-01T09:00:00",
      "eventActual": "-1.20%",
      "eventCountry": "Japan",
      "eventExpectedVolatility": "Low",
      "eventName": "Capacity Utilization (MoM) (Apr)",
      "eventTimeZone": "GMT",
      "eventPrevious": "-1.00%",
      "eventCurrency": "JPY",
      "eventForecast": ""
    },
    {
      "eventDateTime": "2001-05-01T09:00:00",
      "eventActual": "-1.10%",
      "eventCountry": "Japan",
      "eventExpectedVolatility": "Low",
      "eventName": "Coincident Indicator (MoM) (Apr)",
      "eventTimeZone": "GMT",
      "eventPrevious": "-1.40%",
      "eventCurrency": "JPY",
      "eventForecast": ""
    },
    {
      "eventDateTime": "2001-05-01T09:00:00",
      "eventActual": "-12.30%",
      "eventCountry": "Japan",
      "eventExpectedVolatility": "Low",
      "eventName": "Construction Orders (YoY) (Apr)",
      "eventTimeZone": "GMT",
      "eventPrevious": "-17.90%",
      "eventCurrency": "JPY",
      "eventForecast": ""
    },
    {
      "eventDateTime": "2001-05-01T09:00:00",
      "eventActual": "-0.60%",
      "eventCountry": "Japan",
      "eventExpectedVolatility": "Low",
      "eventName": "Core Machinery Orders (MoM) (Apr)",
      "eventTimeZone": "GMT",
      "eventPrevious": "0.50%",
      "eventCurrency": "JPY",
      "eventForecast": ""
    },
    {
      "eventDateTime": "2001-05-01T09:00:00",
      "eventActual": "6.50%",
      "eventCountry": "Japan",
      "eventExpectedVolatility": "Low",
      "eventName": "Core Machinery Orders (YoY) (Apr)",
      "eventTimeZone": "GMT",
      "eventPrevious": "1.70%",
      "eventCurrency": "JPY",
      "eventForecast": ""
    },
    {
      "eventDateTime": "2001-05-01T09:00:00",
      "eventActual": "0.88T",
      "eventCountry": "Japan",
      "eventExpectedVolatility": "Moderate",
      "eventName": "Current Account n.s.a. (Apr)",
      "eventTimeZone": "GMT",
      "eventPrevious": "1.50T",
      "eventCurrency": "JPY",
      "eventForecast": ""
    },
    {
      "eventDateTime": "2001-05-01T09:00:00",
      "eventActual": "41.10",
      "eventCountry": "Japan",
      "eventExpectedVolatility": "Low",
      "eventName": "Economy Watchers Current Index (Apr)",
      "eventTimeZone": "GMT",
      "eventPrevious": "40.30",
      "eventCurrency": "JPY",
      "eventForecast": ""
    },
    {
      "eventDateTime": "2001-05-01T09:00:00",
      "eventActual": "-1.10%",
      "eventCountry": "Japan",
      "eventExpectedVolatility": "Moderate",
      "eventName": "Exports (YoY) (Apr)",
      "eventTimeZone": "GMT",
      "eventPrevious": "4.70%",
      "eventCurrency": "JPY",
      "eventForecast": ""
    },
    {
      "eventDateTime": "2001-05-01T09:00:00",
      "eventActual": "362.61B",
      "eventCountry": "Japan",
      "eventExpectedVolatility": "Low",
      "eventName": "Foreign Reserves (USD) (Apr)",
      "eventTimeZone": "GMT",
      "eventPrevious": "361.47B",
      "eventCurrency": "JPY",
      "eventForecast": ""
    },
    {
      "eventDateTime": "2001-05-01T09:00:00",
      "eventActual": "-4.30%",
      "eventCountry": "Japan",
      "eventExpectedVolatility": "Moderate",
      "eventName": "Household Spending (MoM) (Apr)",
      "eventTimeZone": "GMT",
      "eventPrevious": "-1.60%",
      "eventCurrency": "JPY",
      "eventForecast": ""
    },
    {
      "eventDateTime": "2001-05-01T09:00:00",
      "eventActual": "-4.00%",
      "eventCountry": "Japan",
      "eventExpectedVolatility": "Moderate",
      "eventName": "Household Spending (YoY) (Apr)",
      "eventTimeZone": "GMT",
      "eventPrevious": "2.30%",
      "eventCurrency": "JPY",
      "eventForecast": ""
    },
    {
      "eventDateTime": "2001-05-01T09:00:00",
      "eventActual": "-7.20%",
      "eventCountry": "Japan",
      "eventExpectedVolatility": "Low",
      "eventName": "Housing Starts (YoY) (Apr)",
      "eventTimeZone": "GMT",
      "eventPrevious": "-1.40%",
      "eventCurrency": "JPY",
      "eventForecast": ""
    },
    {
      "eventDateTime": "2001-05-01T09:00:00",
      "eventActual": "13.30%",
      "eventCountry": "Japan",
      "eventExpectedVolatility": "Low",
      "eventName": "Imports (YoY) (Apr)",
      "eventTimeZone": "GMT",
      "eventPrevious": "11.60%",
      "eventCurrency": "JPY",
      "eventForecast": ""
    },
    {
      "eventDateTime": "2001-05-01T09:00:00",
      "eventActual": "-1.00%",
      "eventCountry": "Japan",
      "eventExpectedVolatility": "Moderate",
      "eventName": "Industrial Production (MoM) (Apr)",
      "eventTimeZone": "GMT",
      "eventPrevious": "-1.70%",
      "eventCurrency": "JPY",
      "eventForecast": ""
    },
    {
      "eventDateTime": "2001-05-01T09:00:00",
      "eventActual": "0.62",
      "eventCountry": "Japan",
      "eventExpectedVolatility": "Moderate",
      "eventName": "Jobs/applications ratio (Apr)",
      "eventTimeZone": "GMT",
      "eventPrevious": "0.63",
      "eventCurrency": "JPY",
      "eventForecast": ""
    },
    {
      "eventDateTime": "2001-05-01T09:00:00",
      "eventActual": "-0.70%",
      "eventCountry": "Japan",
      "eventExpectedVolatility": "Low",
      "eventName": "Leading Index (MoM) (Apr)",
      "eventTimeZone": "GMT",
      "eventPrevious": "-0.90%",
      "eventCurrency": "JPY",
      "eventForecast": ""
    },
    {
      "eventDateTime": "2001-05-01T09:00:00",
      "eventActual": "-0.70%",
      "eventCountry": "Japan",
      "eventExpectedVolatility": "Low",
      "eventName": "National CPI (YoY) (Apr)",
      "eventTimeZone": "GMT",
      "eventPrevious": "-0.70%",
      "eventCurrency": "JPY",
      "eventForecast": ""
    },
    {
      "eventDateTime": "2001-05-01T09:00:00",
      "eventActual": "-0.80%",
      "eventCountry": "Japan",
      "eventExpectedVolatility": "Moderate",
      "eventName": "National Core CPI (YoY) (Apr)",
      "eventTimeZone": "GMT",
      "eventPrevious": "-0.90%",
      "eventCurrency": "JPY",
      "eventForecast": ""
    },
    {
      "eventDateTime": "2001-05-01T09:00:00",
      "eventActual": "-1.90%",
      "eventCountry": "Japan",
      "eventExpectedVolatility": "Low",
      "eventName": "Overtime Pay (YoY) (Apr)",
      "eventTimeZone": "GMT",
      "eventPrevious": "-1.10%",
      "eventCurrency": "JPY",
      "eventForecast": ""
    },
    {
      "eventDateTime": "2001-05-01T09:00:00",
      "eventActual": "-0.30%",
      "eventCountry": "Japan",
      "eventExpectedVolatility": "Low",
      "eventName": "PPI (MoM) (Apr)",
      "eventTimeZone": "GMT",
      "eventPrevious": "-0.20%",
      "eventCurrency": "JPY",
      "eventForecast": ""
    },
    {
      "eventDateTime": "2001-05-01T09:00:00",
      "eventActual": "-2.00%",
      "eventCountry": "Japan",
      "eventExpectedVolatility": "Low",
      "eventName": "PPI (YoY) (Apr)",
      "eventTimeZone": "GMT",
      "eventPrevious": "-1.90%",
      "eventCurrency": "JPY",
      "eventForecast": ""
    },
    {
      "eventDateTime": "2001-05-01T09:00:00",
      "eventActual": "-1.20%",
      "eventCountry": "Japan",
      "eventExpectedVolatility": "Moderate",
      "eventName": "Retail Sales (YoY) (Apr)",
      "eventTimeZone": "GMT",
      "eventPrevious": "1.70%",
      "eventCurrency": "JPY",
      "eventForecast": ""
    },
    {
      "eventDateTime": "2001-05-01T09:00:00",
      "eventActual": "-20.00",
      "eventCountry": "Japan",
      "eventExpectedVolatility": "Low",
      "eventName": "Reuters Tankan Index (Apr)",
      "eventTimeZone": "GMT",
      "eventPrevious": "-12.00",
      "eventCurrency": "JPY",
      "eventForecast": ""
    },
    {
      "eventDateTime": "2001-05-01T09:00:00",
      "eventActual": "-1.30%",
      "eventCountry": "Japan",
      "eventExpectedVolatility": "Low",
      "eventName": "Tokyo CPI (YoY) (Apr)",
      "eventTimeZone": "GMT",
      "eventPrevious": "-1.30%",
      "eventCurrency": "JPY",
      "eventForecast": ""
    },
    {
      "eventDateTime": "2001-05-01T09:00:00",
      "eventActual": "-1.40%",
      "eventCountry": "Japan",
      "eventExpectedVolatility": "Moderate",
      "eventName": "Tokyo Core CPI (YoY) (Apr)",
      "eventTimeZone": "GMT",
      "eventPrevious": "-1.50%",
      "eventCurrency": "JPY",
      "eventForecast": ""
    },
    {
      "eventDateTime": "2001-05-01T09:00:00",
      "eventActual": "660.90B",
      "eventCountry": "Japan",
      "eventExpectedVolatility": "Moderate",
      "eventName": "Trade Balance (Apr)",
      "eventTimeZone": "GMT",
      "eventPrevious": "908.00B",
      "eventCurrency": "JPY",
      "eventForecast": ""
    },
    {
      "eventDateTime": "2001-05-01T09:00:00",
      "eventActual": "4.80%",
      "eventCountry": "Japan",
      "eventExpectedVolatility": "Low",
      "eventName": "Unemployment Rate (Apr)",
      "eventTimeZone": "GMT",
      "eventPrevious": "4.80%",
      "eventCurrency": "JPY",
      "eventForecast": ""
    }
  ]}}
