{"events": {"event": {
    "eventDateTime": "2008-07-30T23:01:00",
    "eventActual": "-39",
    "eventCountry": "United Kingdom",
    "eventExpectedVolatility": "Low",
    "eventName": "GfK Consumer Confidence",
    "eventTimeZone": "GMT",
    "eventPrevious": "-34",
    "eventCurrency": "GBP",
    "eventForecast": "-37"
  }}}
