{"events": {"event": {
    "eventDateTime": "2012-06-27T15:30:00",
    "eventActual": "1.22B",
    "eventCountry": "Brazil",
    "eventExpectedVolatility": "Low",
    "eventName": "Foreign Exchange Flows",
    "eventTimeZone": "GMT",
    "eventPrevious": "0.52B",
    "eventCurrency": "BRL",
    "eventForecast": ""
  }}}
