{"events": {"event": [
    {
      "eventDateTime": "2018-10-26T10:30:00",
      "eventActual": "7.50%",
      "eventCountry": "Russia",
      "eventExpectedVolatility": "High",
      "eventName": "Interest Rate Decision (Oct)",
      "eventTimeZone": "GMT",
      "eventPrevious": "7.50%",
      "eventCurrency": "RUB",
      "eventForecast": "7.50%"
    },
    {
      "eventDateTime": "2018-10-26T19:30:00",
      "eventActual": "2.6K",
      "eventCountry": "Russia",
      "eventExpectedVolatility": "Moderate",
      "eventName": "CFTC RUB speculative positions",
      "eventTimeZone": "GMT",
      "eventPrevious": "2.8K",
      "eventCurrency": "RUB",
      "eventForecast": ""
    }
  ]}}
