"CPI (MoM) (Sep)";"Russia";"RUB";"2003-10-01T09:00:00";"GMT";"-0.40%";"";"0.30%";"Moderate"
"CPI (YoY) (Sep)";"Russia";"RUB";"2003-10-01T09:00:00";"GMT";"13.30%";"";"13.30%";"Moderate"
"Central Bank reserves (USD) (Sep)";"Russia";"RUB";"2003-10-01T09:00:00";"GMT";"62.70B";"";"62.40B";"Moderate"
"Industrial Production (YoY) (Sep)";"Russia";"RUB";"2003-10-01T09:00:00";"GMT";"5.70%";"";"9.10%";"Low"
"Interest Rate Decision (Sep)";"Russia";"RUB";"2003-10-01T09:00:00";"GMT";"6.50%";"";"6.50%";"High"
"PPI (MoM) (Sep)";"Russia";"RUB";"2003-10-01T09:00:00";"GMT";"1.80%";"";"1.40%";"Low"
"Trade Balance (Sep)";"Russia";"RUB";"2003-10-01T09:00:00";"GMT";"5.62B";"";"5.07B";"Low"
"Unemployment Rate (Sep)";"Russia";"RUB";"2003-10-01T09:00:00";"GMT";"8.20%";"";"8.20%";"Moderate"
