{"events": {"event": {
    "eventDateTime": "2013-03-18T08:30:00",
    "eventActual": "3.40%",
    "eventCountry": "Hong Kong",
    "eventExpectedVolatility": "Low",
    "eventName": "Unemployment Rate",
    "eventTimeZone": "GMT",
    "eventPrevious": "3.40%",
    "eventCurrency": "HKD",
    "eventForecast": "3.40%"
  }}}
