{"events": {"event": [
    {
      "eventDateTime": "2017-05-30T01:30:00",
      "eventActual": "4.4%",
      "eventCountry": "Australia",
      "eventExpectedVolatility": "Moderate",
      "eventName": "Building Approvals (MoM) (Apr)",
      "eventTimeZone": "GMT",
      "eventPrevious": "-10.3%",
      "eventCurrency": "AUD",
      "eventForecast": "3.0%"
    },
    {
      "eventDateTime": "2017-05-30T01:30:00",
      "eventActual": "0.5%",
      "eventCountry": "Australia",
      "eventExpectedVolatility": "Low",
      "eventName": "Private House Approvals (Apr)",
      "eventTimeZone": "GMT",
      "eventPrevious": "-2.7%",
      "eventCurrency": "AUD",
      "eventForecast": ""
    }
  ]}}
