{"events": {"event": [
    {
      "eventDateTime": "2014-12-02T07:00:00",
      "eventActual": "42.3%",
      "eventCountry": "United Kingdom",
      "eventExpectedVolatility": "Moderate",
      "eventName": "Investing.com GBP/USD Index",
      "eventTimeZone": "GMT",
      "eventPrevious": "48.4%",
      "eventCurrency": "GBP",
      "eventForecast": ""
    },
    {
      "eventDateTime": "2014-12-02T09:30:00",
      "eventActual": "59.4",
      "eventCountry": "United Kingdom",
      "eventExpectedVolatility": "High",
      "eventName": "Construction PMI (Nov)",
      "eventTimeZone": "GMT",
      "eventPrevious": "61.4",
      "eventCurrency": "GBP",
      "eventForecast": "61.2"
    }
  ]}}
