{"events": {"event": {
    "eventDateTime": "2011-12-16T20:30:00",
    "eventActual": "13.8K",
    "eventCountry": "Russia",
    "eventExpectedVolatility": "Moderate",
    "eventName": "CFTC RUB speculative positions",
    "eventTimeZone": "GMT",
    "eventPrevious": "12.5K",
    "eventCurrency": "RUB",
    "eventForecast": ""
  }}}
