"Services PMI (Jul)";"United Kingdom";"GBP";"2017-08-03T08:30:00";"GMT";"53.4";"53.6";"53.8";"High"
"BoE Inflation Report";"United Kingdom";"GBP";"2017-08-03T11:00:00";"GMT";" ";"";"";"High"
"BoE Interest Rate Decision (Jul)";"United Kingdom";"GBP";"2017-08-03T11:00:00";"GMT";"0.25%";"0.25%";"0.25%";"High"
"BoE MPC Meeting Minutes";"United Kingdom";"GBP";"2017-08-03T11:00:00";"GMT";" ";"";"";"High"
"BoE MPC vote cut (Aug)";"United Kingdom";"GBP";"2017-08-03T11:00:00";"GMT";"0";"0";"0";"Moderate"
"BoE MPC vote hike (Aug)";"United Kingdom";"GBP";"2017-08-03T11:00:00";"GMT";"3";"2";"2";"Moderate"
"BoE MPC vote unchanged (Aug)";"United Kingdom";"GBP";"2017-08-03T11:00:00";"GMT";"5";"6";"6";"Moderate"
"BoE QE Total (Jul)";"United Kingdom";"GBP";"2017-08-03T11:00:00";"GMT";"435B";"435B";"435B";"Moderate"
"BoE Gov Carney Speaks";"United Kingdom";"GBP";"2017-08-03T11:30:00";"GMT";" ";"";"";"High"
