{"events": {"event": [
    {
      "eventDateTime": "2018-11-23T11:00:00",
      "eventActual": "0.19%",
      "eventCountry": "Brazil",
      "eventExpectedVolatility": "Low",
      "eventName": "Mid-Month CPI (MoM) (Nov)",
      "eventTimeZone": "GMT",
      "eventPrevious": "0.58%",
      "eventCurrency": "BRL",
      "eventForecast": "0.24%"
    },
    {
      "eventDateTime": "2018-11-23T11:00:00",
      "eventActual": "4.39%",
      "eventCountry": "Brazil",
      "eventExpectedVolatility": "Low",
      "eventName": "Mid-Month CPI (YoY) (Nov)",
      "eventTimeZone": "GMT",
      "eventPrevious": "4.53%",
      "eventCurrency": "BRL",
      "eventForecast": "4.44%"
    }
  ]}}
