"GDP (QoQ) (Q3)";"Brazil";"BRL";"2015-12-01T11:00:00";"GMT";"-2.1%";"-1.2%";"-1.7%";"Moderate"
"GDP (YoY) (Q3)";"Brazil";"BRL";"2015-12-01T11:00:00";"GMT";"-2.6%";"-4.1%";"-4.5%";"Moderate"
"Markit Manufacturing PMI (Nov)";"Brazil";"BRL";"2015-12-01T12:00:00";"GMT";"44.1";"44.0";"43.8";"Low"
"Trade Balance (Nov)";"Brazil";"BRL";"2015-12-01T17:00:00";"GMT";"2.00B";"1.30B";"1.20B";"Low"
