{"events": {"event": {
    "eventDateTime": "2001-07-23T09:00:00",
    "eventActual": "89.5",
    "eventCountry": "Germany",
    "eventExpectedVolatility": "High",
    "eventName": "German Ifo Business Climate Index",
    "eventTimeZone": "GMT",
    "eventPrevious": "90.9",
    "eventCurrency": "EUR",
    "eventForecast": "90"
  }}}
