"RICS House Price Balance (Jan)";"United Kingdom";"GBP";"2017-02-09T00:01:00";"GMT";"23%";"22%";"25%";"Moderate"
"30-Year Treasury Gilt Auction";"United Kingdom";"GBP";"2017-02-09T10:35:00";"GMT";"1.956%";"";"1.863%";"Low"
"BoE Gov Carney Speaks";"United Kingdom";"GBP";"2017-02-09T18:30:00";"GMT";" ";"";"";"High"
