{"events": {"event": {
    "eventDateTime": "2016-02-04T06:45:00",
    "eventActual": "-14",
    "eventCountry": "Switzerland",
    "eventExpectedVolatility": "Moderate",
    "eventName": "SECO Consumer Climate (Q1)",
    "eventTimeZone": "GMT",
    "eventPrevious": "-18",
    "eventCurrency": "CHF",
    "eventForecast": "-15"
  }}}
