"Investing.com EUR/USD Index";"Euro Zone";"EUR";"2015-02-02T06:30:00";"GMT";"23.9%";"";"26.4%";"Moderate"
"Spanish Manufacturing PMI (Jan)";"Spain";"EUR";"2015-02-02T08:15:00";"GMT";"53.8";"54.0";"54.7";"Moderate"
"Italian Manufacturing PMI (Jan)";"Italy";"EUR";"2015-02-02T08:45:00";"GMT";"48.4";"48.8";"49.9";"Moderate"
"French Manufacturing PMI (Jan)";"France";"EUR";"2015-02-02T08:50:00";"GMT";"49.5";"49.5";"49.2";"Moderate"
"German Manufacturing PMI (Jan)";"Germany";"EUR";"2015-02-02T08:55:00";"GMT";"51.0";"51.0";"50.9";"High"
"Manufacturing PMI (Jan)";"Euro Zone";"EUR";"2015-02-02T09:00:00";"GMT";"51.0";"51.0";"51.0";"Moderate"
"French 12-Month BTF Auction";"France";"EUR";"2015-02-02T14:00:00";"GMT";"-0.120%";"";"-0.111%";"Low"
"French 3-Month BTF Auction";"France";"EUR";"2015-02-02T14:00:00";"GMT";"-0.122%";"";"-0.103%";"Low"
"French 6-Month BTF Auction";"France";"EUR";"2015-02-02T14:00:00";"GMT";"-0.120%";"";"-0.104%";"Low"
"ECB's Nowotny Speaks";"Euro Zone";"EUR";"2015-02-02T16:30:00";"GMT";" ";"";"";"Moderate"
