"French Non-Farm Payrolls (QoQ)";"France";"EUR";"2010-12-09T06:30:00";"GMT";"0.3%";"0.3%";"0.1%";"Moderate"
"German CPI (MoM)";"Germany";"EUR";"2010-12-09T07:00:00";"GMT";"0.1%";"0.1%";"0.1%";"Moderate"
"ECB Economic Bulletin";"Euro Zone";"EUR";"2010-12-09T09:30:00";"GMT";" ";"";"";"Moderate"
