{"events": {"event": [
    {
      "eventDateTime": "2009-10-19T01:00:00",
      "eventActual": "",
      "eventCountry": "United States",
      "eventExpectedVolatility": "High",
      "eventName": "Fed Chairman Bernanke Speaks",
      "eventTimeZone": "GMT",
      "eventPrevious": "",
      "eventCurrency": "USD",
      "eventForecast": ""
    },
    {
      "eventDateTime": "2009-10-19T15:00:00",
      "eventActual": "",
      "eventCountry": "United States",
      "eventExpectedVolatility": "High",
      "eventName": "Fed Chairman Bernanke Speaks",
      "eventTimeZone": "GMT",
      "eventPrevious": "",
      "eventCurrency": "USD",
      "eventForecast": ""
    },
    {
      "eventDateTime": "2009-10-19T17:00:00",
      "eventActual": "18",
      "eventCountry": "United States",
      "eventExpectedVolatility": "Low",
      "eventName": "NAHB Housing Market Index",
      "eventTimeZone": "GMT",
      "eventPrevious": "19",
      "eventCurrency": "USD",
      "eventForecast": "20"
    }
  ]}}
