"Business Investment (QoQ)";"United Kingdom";"GBP";"2011-12-22T09:30:00";"GMT";"-1.4%";"-1.3%";"0.3%";"Moderate"
"Current Account";"United Kingdom";"GBP";"2011-12-22T09:30:00";"GMT";"-7.4B";"-5.5B";"-15.2B";"Moderate"
"GDP (QoQ)";"United Kingdom";"GBP";"2011-12-22T09:30:00";"GMT";"0.5%";"0.5%";"0.6%";"High"
