{"events": {"event": {
    "eventDateTime": "2007-03-27T09:00:00",
    "eventActual": "107.7",
    "eventCountry": "Germany",
    "eventExpectedVolatility": "High",
    "eventName": "German Ifo Business Climate Index",
    "eventTimeZone": "GMT",
    "eventPrevious": "107",
    "eventCurrency": "EUR",
    "eventForecast": "106.5"
  }}}
