{"events": {"event": [
    {
      "eventDateTime": "2018-12-03T09:00:00",
      "eventActual": "49.5",
      "eventCountry": "South Africa",
      "eventExpectedVolatility": "Low",
      "eventName": "Manufacturing PMI",
      "eventTimeZone": "GMT",
      "eventPrevious": "42.4",
      "eventCurrency": "ZAR",
      "eventForecast": ""
    },
    {
      "eventDateTime": "2018-12-03T12:00:00",
      "eventActual": "47.49K",
      "eventCountry": "South Africa",
      "eventExpectedVolatility": "Low",
      "eventName": "Total Vehicle Sales (Nov)",
      "eventTimeZone": "GMT",
      "eventPrevious": "51.86K",
      "eventCurrency": "ZAR",
      "eventForecast": ""
    },
    {
      "eventDateTime": "2018-12-03T12:00:00",
      "eventActual": "-4.60%",
      "eventCountry": "South Africa",
      "eventExpectedVolatility": "Low",
      "eventName": "Total Vehicle Sales (YoY) (Nov)",
      "eventTimeZone": "GMT",
      "eventPrevious": "1.70%",
      "eventCurrency": "ZAR",
      "eventForecast": ""
    }
  ]}}
