"Investing.com NZD/USD Index";"New Zealand";"NZD";"2015-11-09T06:30:00";"GMT";"38.7%";"";"43.4%";"Moderate"
"Electronic Card Retail Sales (MoM) (Oct)";"New Zealand";"NZD";"2015-11-09T21:45:00";"GMT";"0.9%";"0.3%";"0.0%";"Moderate"
"Electronic Card Retail Sales (YoY) (Oct)";"New Zealand";"NZD";"2015-11-09T21:45:00";"GMT";"6.1%";"";"5.6%";"Low"
