"GDP (MoM) (Feb)";"Canada";"CAD";"2017-04-28T12:30:00";"GMT";"0.6%";"0.1%";"0.0%";"High"
"IPPI (MoM) (Mar)";"Canada";"CAD";"2017-04-28T12:30:00";"GMT";"0.3%";"";"0.8%";"Low"
"IPPI (YoY) (Mar)";"Canada";"CAD";"2017-04-28T12:30:00";"GMT";"3.6%";"";"5.1%";"Low"
"RMPI (MoM) (Mar)";"Canada";"CAD";"2017-04-28T12:30:00";"GMT";"1.3%";"";"-1.6%";"Moderate"
"RMPI (YoY) (Mar)";"Canada";"CAD";"2017-04-28T12:30:00";"GMT";"23.9%";"";"16.6%";"Low"
"CFTC CAD speculative net positions";"Canada";"CAD";"2017-04-28T19:30:00";"GMT";"-33.3K";"";"-42.6K";"Low"
