{"events": {"event": [
    {
      "eventDateTime": "2014-11-25T12:45:00",
      "eventActual": "2.2%",
      "eventCountry": "United States",
      "eventExpectedVolatility": "Low",
      "eventName": "Chain Store Sales (WoW)",
      "eventTimeZone": "GMT",
      "eventPrevious": "0.2%",
      "eventCurrency": "USD",
      "eventForecast": ""
    },
    {
      "eventDateTime": "2014-11-25T12:45:00",
      "eventActual": "1.7%",
      "eventCountry": "United States",
      "eventExpectedVolatility": "Low",
      "eventName": "Chain Store Sales (YoY)",
      "eventTimeZone": "GMT",
      "eventPrevious": "2.2%",
      "eventCurrency": "USD",
      "eventForecast": ""
    },
    {
      "eventDateTime": "2014-11-25T13:30:00",
      "eventActual": "3.2%",
      "eventCountry": "United States",
      "eventExpectedVolatility": "Low",
      "eventName": "Corporate Profits (QoQ) (Q3)",
      "eventTimeZone": "GMT",
      "eventPrevious": "8.6%",
      "eventCurrency": "USD",
      "eventForecast": ""
    },
    {
      "eventDateTime": "2014-11-25T13:30:00",
      "eventActual": "3.9%",
      "eventCountry": "United States",
      "eventExpectedVolatility": "High",
      "eventName": "GDP (QoQ) (Q3)",
      "eventTimeZone": "GMT",
      "eventPrevious": "3.5%",
      "eventCurrency": "USD",
      "eventForecast": "3.3%"
    },
    {
      "eventDateTime": "2014-11-25T13:30:00",
      "eventActual": "1.4%",
      "eventCountry": "United States",
      "eventExpectedVolatility": "Moderate",
      "eventName": "GDP Price Index (QoQ) (Q3)",
      "eventTimeZone": "GMT",
      "eventPrevious": "1.3%",
      "eventCurrency": "USD",
      "eventForecast": "1.3%"
    },
    {
      "eventDateTime": "2014-11-25T13:30:00",
      "eventActual": "2.2%",
      "eventCountry": "United States",
      "eventExpectedVolatility": "Low",
      "eventName": "Real Consumer Spending (Q3)",
      "eventTimeZone": "GMT",
      "eventPrevious": "1.8%",
      "eventCurrency": "USD",
      "eventForecast": "1.9%"
    },
    {
      "eventDateTime": "2014-11-25T13:55:00",
      "eventActual": "-0.8%",
      "eventCountry": "United States",
      "eventExpectedVolatility": "Low",
      "eventName": "Redbook (MoM)",
      "eventTimeZone": "GMT",
      "eventPrevious": "-0.9%",
      "eventCurrency": "USD",
      "eventForecast": ""
    },
    {
      "eventDateTime": "2014-11-25T13:55:00",
      "eventActual": "4.2%",
      "eventCountry": "United States",
      "eventExpectedVolatility": "Low",
      "eventName": "Redbook (YoY)",
      "eventTimeZone": "GMT",
      "eventPrevious": "3.9%",
      "eventCurrency": "USD",
      "eventForecast": ""
    },
    {
      "eventDateTime": "2014-11-25T14:00:00",
      "eventActual": "0.0%",
      "eventCountry": "United States",
      "eventExpectedVolatility": "Low",
      "eventName": "House Price Index (MoM) (Sep)",
      "eventTimeZone": "GMT",
      "eventPrevious": "0.4%",
      "eventCurrency": "USD",
      "eventForecast": "0.5%"
    },
    {
      "eventDateTime": "2014-11-25T14:00:00",
      "eventActual": "214.0",
      "eventCountry": "United States",
      "eventExpectedVolatility": "Low",
      "eventName": "House Price Index (Sep)",
      "eventTimeZone": "GMT",
      "eventPrevious": "213.9",
      "eventCurrency": "USD",
      "eventForecast": ""
    },
    {
      "eventDateTime": "2014-11-25T14:00:00",
      "eventActual": "4.3%",
      "eventCountry": "United States",
      "eventExpectedVolatility": "Low",
      "eventName": "House Price Index (YoY) (Sep)",
      "eventTimeZone": "GMT",
      "eventPrevious": "4.8%",
      "eventCurrency": "USD",
      "eventForecast": ""
    },
    {
      "eventDateTime": "2014-11-25T14:00:00",
      "eventActual": "0.0%",
      "eventCountry": "United States",
      "eventExpectedVolatility": "Low",
      "eventName": "Sandamp;P/CS HPI Composite - 20 n.s.a. (MoM) (Sep)",
      "eventTimeZone": "GMT",
      "eventPrevious": "0.2%",
      "eventCurrency": "USD",
      "eventForecast": "0.0%"
    },
    {
      "eventDateTime": "2014-11-25T14:00:00",
      "eventActual": "4.9%",
      "eventCountry": "United States",
      "eventExpectedVolatility": "Moderate",
      "eventName": "Sandamp;P/CS HPI Composite - 20 n.s.a. (YoY) (Sep)",
      "eventTimeZone": "GMT",
      "eventPrevious": "5.6%",
      "eventCurrency": "USD",
      "eventForecast": "4.7%"
    },
    {
      "eventDateTime": "2014-11-25T14:00:00",
      "eventActual": "0.3%",
      "eventCountry": "United States",
      "eventExpectedVolatility": "Low",
      "eventName": "Sandamp;P/CS HPI Composite - 20 s.a. (MoM) (Sep)",
      "eventTimeZone": "GMT",
      "eventPrevious": "-0.1%",
      "eventCurrency": "USD",
      "eventForecast": ""
    },
    {
      "eventDateTime": "2014-11-25T15:00:00",
      "eventActual": "88.7",
      "eventCountry": "United States",
      "eventExpectedVolatility": "High",
      "eventName": "CB Consumer Confidence (Nov)",
      "eventTimeZone": "GMT",
      "eventPrevious": "94.1",
      "eventCurrency": "USD",
      "eventForecast": "95.9"
    },
    {
      "eventDateTime": "2014-11-25T15:00:00",
      "eventActual": "4",
      "eventCountry": "United States",
      "eventExpectedVolatility": "Low",
      "eventName": "Richmond Manufacturing Index (Nov)",
      "eventTimeZone": "GMT",
      "eventPrevious": "20",
      "eventCurrency": "USD",
      "eventForecast": "17"
    },
    {
      "eventDateTime": "2014-11-25T15:00:00",
      "eventActual": "1",
      "eventCountry": "United States",
      "eventExpectedVolatility": "Low",
      "eventName": "Richmond Manufacturing Shipments (Nov)",
      "eventTimeZone": "GMT",
      "eventPrevious": "23",
      "eventCurrency": "USD",
      "eventForecast": ""
    },
    {
      "eventDateTime": "2014-11-25T15:00:00",
      "eventActual": "25",
      "eventCountry": "United States",
      "eventExpectedVolatility": "Low",
      "eventName": "Richmond Services Index (Nov)",
      "eventTimeZone": "GMT",
      "eventPrevious": "27",
      "eventCurrency": "USD",
      "eventForecast": ""
    },
    {
      "eventDateTime": "2014-11-25T15:30:00",
      "eventActual": "25.4",
      "eventCountry": "United States",
      "eventExpectedVolatility": "Low",
      "eventName": "Dallas Fed Services Revenues (Nov)",
      "eventTimeZone": "GMT",
      "eventPrevious": "14.0",
      "eventCurrency": "USD",
      "eventForecast": ""
    },
    {
      "eventDateTime": "2014-11-25T15:30:00",
      "eventActual": "17.3",
      "eventCountry": "United States",
      "eventExpectedVolatility": "Low",
      "eventName": "Texas Services Sector Outlook (Nov)",
      "eventTimeZone": "GMT",
      "eventPrevious": "18.0",
      "eventCurrency": "USD",
      "eventForecast": ""
    },
    {
      "eventDateTime": "2014-11-25T16:30:00",
      "eventActual": "0.060%",
      "eventCountry": "United States",
      "eventExpectedVolatility": "Low",
      "eventName": "4-Week Bill Auction",
      "eventTimeZone": "GMT",
      "eventPrevious": "0.035%",
      "eventCurrency": "USD",
      "eventForecast": ""
    },
    {
      "eventDateTime": "2014-11-25T18:00:00",
      "eventActual": "1.595%",
      "eventCountry": "United States",
      "eventExpectedVolatility": "Low",
      "eventName": "5-Year Note Auction",
      "eventTimeZone": "GMT",
      "eventPrevious": "1.567%",
      "eventCurrency": "USD",
      "eventForecast": ""
    },
    {
      "eventDateTime": "2014-11-25T21:30:00",
      "eventActual": "2.800M",
      "eventCountry": "United States",
      "eventExpectedVolatility": "Moderate",
      "eventName": "API Weekly Crude Oil Stock",
      "eventTimeZone": "GMT",
      "eventPrevious": "3.700M",
      "eventCurrency": "USD",
      "eventForecast": ""
    },
    {
      "eventDateTime": "2014-11-25T21:30:00",
      "eventActual": "-1.300M",
      "eventCountry": "United States",
      "eventExpectedVolatility": "Low",
      "eventName": "API Weekly Distillates Stocks",
      "eventTimeZone": "GMT",
      "eventPrevious": "-3.300M",
      "eventCurrency": "USD",
      "eventForecast": ""
    },
    {
      "eventDateTime": "2014-11-25T21:30:00",
      "eventActual": "0.043M",
      "eventCountry": "United States",
      "eventExpectedVolatility": "Low",
      "eventName": "API Weekly Gasoline Stock",
      "eventTimeZone": "GMT",
      "eventPrevious": "0.519M",
      "eventCurrency": "USD",
      "eventForecast": ""
    }
  ]}}
