{"events": {"event": {
    "eventDateTime": "2017-06-16T11:30:00",
    "eventActual": "381.16B",
    "eventCountry": "India",
    "eventExpectedVolatility": "Low",
    "eventName": "FX Reserves, USD",
    "eventTimeZone": "GMT",
    "eventPrevious": "378.76B",
    "eventCurrency": "INR",
    "eventForecast": ""
  }}}
