"IPC-Fipe Inflation Index (MoM) (Dec)";"Brazil";"BRL";"2015-01-08T07:01:00";"GMT";"0.69%";"0.48%";"0.30%";"Moderate"
"IGP-DI Inflation Index (MoM) (Dec)";"Brazil";"BRL";"2015-01-08T10:00:00";"GMT";"1.14%";"0.44%";"0.38%";"Low"
"Industrial Production (MoM) (Nov)";"Brazil";"BRL";"2015-01-08T11:00:00";"GMT";"0.0%";"0.5%";"-0.7%";"Low"
"Industrial Production (YoY) (Nov)";"Brazil";"BRL";"2015-01-08T11:00:00";"GMT";"-3.6%";"-4.0%";"-5.8%";"Moderate"
"Auto Production (MoM) (Dec)";"Brazil";"BRL";"2015-01-08T12:30:00";"GMT";"-9.7%";"";"-23.1%";"Low"
"Auto Sales (MoM) (Dec)";"Brazil";"BRL";"2015-01-08T12:30:00";"GMT";"-4.0%";"";"25.6%";"Low"
