{"events": {"event": {
    "eventDateTime": "2009-09-25T19:30:00",
    "eventActual": "45.6K",
    "eventCountry": "Japan",
    "eventExpectedVolatility": "Moderate",
    "eventName": "CFTC JPY speculative net positions",
    "eventTimeZone": "GMT",
    "eventPrevious": "37.1K",
    "eventCurrency": "JPY",
    "eventForecast": ""
  }}}
