{"events": {"event": {
    "eventDateTime": "2013-06-26T05:00:00",
    "eventActual": "2.1%",
    "eventCountry": "Singapore",
    "eventExpectedVolatility": "Low",
    "eventName": "Industrial Production (YoY)",
    "eventTimeZone": "GMT",
    "eventPrevious": "5.0%",
    "eventCurrency": "SGD",
    "eventForecast": "0.3%"
  }}}
