{"events": {"event": {
    "eventDateTime": "2011-06-08T05:45:00",
    "eventActual": "3.0%",
    "eventCountry": "Switzerland",
    "eventExpectedVolatility": "Moderate",
    "eventName": "Unemployment Rate s.a.",
    "eventTimeZone": "GMT",
    "eventPrevious": "3.1%",
    "eventCurrency": "CHF",
    "eventForecast": "3.0%"
  }}}
