"Nationwide Consumer Confidence";"United Kingdom";"GBP";"2008-03-05T00:00:00";"GMT";"81";"0";"78";"Moderate"
"Services PMI";"United Kingdom";"GBP";"2008-03-05T09:30:00";"GMT";"52.5";"52.0";"54.0";"High"
"BRC Shop Price Index (YoY)";"United Kingdom";"GBP";"2008-03-05T10:30:00";"GMT";"1.2%";"0.0%";"0.4%";"Low"
