"MBA Mortgage Applications (WoW)";"United States";"USD";"2013-05-15T11:00:00";"GMT";"7.0%";"";"-7.3%";"Low"
"Core PPI (MoM)";"United States";"USD";"2013-05-15T12:30:00";"GMT";"0.2%";"0.1%";"0.1%";"Moderate"
"Core PPI (YoY)";"United States";"USD";"2013-05-15T12:30:00";"GMT";"1.7%";"1.7%";"1.7%";"Low"
"NY Empire State Manufacturing Index";"United States";"USD";"2013-05-15T12:30:00";"GMT";"3.05";"4.00";"-1.43";"Moderate"
"PPI (MoM)";"United States";"USD";"2013-05-15T12:30:00";"GMT";"-0.6%";"-0.6%";"-0.7%";"High"
"PPI (YoY)";"United States";"USD";"2013-05-15T12:30:00";"GMT";"1.1%";"0.8%";"0.6%";"Low"
"Overall Net Capital Flow";"United States";"USD";"2013-05-15T13:00:00";"GMT";"61.90B";"";"2.10B";"Low"
"TIC Net Long-Term Transactions";"United States";"USD";"2013-05-15T13:00:00";"GMT";"-13.3B";"43.4B";"-13.5B";"Moderate"
"US Foreign Buying, T-bonds";"United States";"USD";"2013-05-15T13:00:00";"GMT";"2.60B";"";"5.30B";"Low"
"Capacity Utilization Rate";"United States";"USD";"2013-05-15T13:15:00";"GMT";"78.3%";"78.3%";"77.8%";"Low"
"Industrial Production (MoM)";"United States";"USD";"2013-05-15T13:15:00";"GMT";"0.3%";"-0.2%";"-0.5%";"Moderate"
"NAHB Housing Market Index";"United States";"USD";"2013-05-15T14:00:00";"GMT";"41";"43";"44";"Low"
"Crude Oil Inventories";"United States";"USD";"2013-05-15T14:30:00";"GMT";"0.230M";"0.330M";"-0.624M";"High"
"Gasoline Inventories";"United States";"USD";"2013-05-15T14:30:00";"GMT";"-0.910M";"-0.780M";"2.588M";"Low"
