"Investing.com USD/JPY Index";"Japan";"JPY";"2016-01-11T07:30:00";"GMT";"50.0%";"";"45.6%";"Moderate"
"Adjusted Current Account";"Japan";"JPY";"2016-01-11T23:50:00";"GMT";"1.49T";"1.52T";"1.42T";"Moderate"
"Bank Lending (YoY) (Dec)";"Japan";"JPY";"2016-01-11T23:50:00";"GMT";"2.3%";"2.3%";"2.2%";"Low"
"Current Account n.s.a. (Nov)";"Japan";"JPY";"2016-01-11T23:50:00";"GMT";"1.458T";"0.859T";"1.144T";"Moderate"
