{"events": {"event": [
    {
      "eventDateTime": "2011-12-21T03:20:00",
      "eventActual": "0.10%",
      "eventCountry": "Japan",
      "eventExpectedVolatility": "Moderate",
      "eventName": "BoJ Interest Rate Decision",
      "eventTimeZone": "GMT",
      "eventPrevious": "0.10%",
      "eventCurrency": "JPY",
      "eventForecast": "0.10%"
    },
    {
      "eventDateTime": "2011-12-21T07:10:00",
      "eventActual": "",
      "eventCountry": "Japan",
      "eventExpectedVolatility": "High",
      "eventName": "BoJ Press Conference",
      "eventTimeZone": "GMT",
      "eventPrevious": "",
      "eventCurrency": "JPY",
      "eventForecast": ""
    }
  ]}}
