"Average Earnings Index +Bonus (Aug)";"United Kingdom";"GBP";"2018-10-16T08:30:00";"GMT";"2.6%";"2.6%";"2.7%";"High"
"Average Earnings ex Bonus (Aug)";"United Kingdom";"GBP";"2018-10-16T08:30:00";"GMT";"2.9%";"2.9%";"3.1%";"Low"
"Claimant Count Change (Sep)";"United Kingdom";"GBP";"2018-10-16T08:30:00";"GMT";"14.2K";"4.5K";"18.5K";"High"
"Employment Change 3M/3M (MoM)";"United Kingdom";"GBP";"2018-10-16T08:30:00";"GMT";"3.0K";"11.0K";"-5.0K";"Moderate"
"Unemployment Rate (Aug)";"United Kingdom";"GBP";"2018-10-16T08:30:00";"GMT";"4.0%";"4.0%";"4.0%";"Moderate"
"BoE MPC Member Cunliffe Speaks";"United Kingdom";"GBP";"2018-10-16T13:15:00";"GMT";" ";"";"";"Moderate"
