{"events": {"event": [
    {
      "eventDateTime": "2017-06-09T08:30:00",
      "eventActual": "-1.6%",
      "eventCountry": "United Kingdom",
      "eventExpectedVolatility": "Low",
      "eventName": "Construction Output (MoM) (Apr)",
      "eventTimeZone": "GMT",
      "eventPrevious": "0.7%",
      "eventCurrency": "GBP",
      "eventForecast": "0.3%"
    },
    {
      "eventDateTime": "2017-06-09T08:30:00",
      "eventActual": "0.2%",
      "eventCountry": "United Kingdom",
      "eventExpectedVolatility": "Moderate",
      "eventName": "Industrial Production (MoM) (Apr)",
      "eventTimeZone": "GMT",
      "eventPrevious": "-0.5%",
      "eventCurrency": "GBP",
      "eventForecast": "0.8%"
    },
    {
      "eventDateTime": "2017-06-09T08:30:00",
      "eventActual": "-0.8%",
      "eventCountry": "United Kingdom",
      "eventExpectedVolatility": "Low",
      "eventName": "Industrial Production (YoY) (Apr)",
      "eventTimeZone": "GMT",
      "eventPrevious": "1.4%",
      "eventCurrency": "GBP",
      "eventForecast": "-0.2%"
    },
    {
      "eventDateTime": "2017-06-09T08:30:00",
      "eventActual": "2.8%",
      "eventCountry": "United Kingdom",
      "eventExpectedVolatility": "Low",
      "eventName": "Inflation Expectations",
      "eventTimeZone": "GMT",
      "eventPrevious": "2.9%",
      "eventCurrency": "GBP",
      "eventForecast": ""
    },
    {
      "eventDateTime": "2017-06-09T08:30:00",
      "eventActual": "0.2%",
      "eventCountry": "United Kingdom",
      "eventExpectedVolatility": "High",
      "eventName": "Manufacturing Production (MoM) (Apr)",
      "eventTimeZone": "GMT",
      "eventPrevious": "-0.6%",
      "eventCurrency": "GBP",
      "eventForecast": "0.9%"
    },
    {
      "eventDateTime": "2017-06-09T08:30:00",
      "eventActual": "0.0%",
      "eventCountry": "United Kingdom",
      "eventExpectedVolatility": "Low",
      "eventName": "Manufacturing Production (YoY) (Apr)",
      "eventTimeZone": "GMT",
      "eventPrevious": "2.2%",
      "eventCurrency": "GBP",
      "eventForecast": "0.7%"
    },
    {
      "eventDateTime": "2017-06-09T08:30:00",
      "eventActual": "-10.38B",
      "eventCountry": "United Kingdom",
      "eventExpectedVolatility": "Moderate",
      "eventName": "Trade Balance (Apr)",
      "eventTimeZone": "GMT",
      "eventPrevious": "-12.05B",
      "eventCurrency": "GBP",
      "eventForecast": "-12.00B"
    },
    {
      "eventDateTime": "2017-06-09T08:30:00",
      "eventActual": "-2.07B",
      "eventCountry": "United Kingdom",
      "eventExpectedVolatility": "Moderate",
      "eventName": "Trade Balance Non-EU (Apr)",
      "eventTimeZone": "GMT",
      "eventPrevious": "-3.89B",
      "eventCurrency": "GBP",
      "eventForecast": "-3.25B"
    },
    {
      "eventDateTime": "2017-06-09T08:30:00",
      "eventActual": "-0.6%",
      "eventCountry": "United Kingdom",
      "eventExpectedVolatility": "Low",
      "eventName": "U.K. Construction Output (YoY) (Apr)",
      "eventTimeZone": "GMT",
      "eventPrevious": "4.3%",
      "eventCurrency": "GBP",
      "eventForecast": "-0.4%"
    },
    {
      "eventDateTime": "2017-06-09T12:00:00",
      "eventActual": "0.2%",
      "eventCountry": "United Kingdom",
      "eventExpectedVolatility": "Moderate",
      "eventName": "NIESR GDP Estimate",
      "eventTimeZone": "GMT",
      "eventPrevious": "0.2%",
      "eventCurrency": "GBP",
      "eventForecast": ""
    },
    {
      "eventDateTime": "2017-06-09T19:30:00",
      "eventActual": "-36.7K",
      "eventCountry": "United Kingdom",
      "eventExpectedVolatility": "Moderate",
      "eventName": "CFTC GBP speculative net positions",
      "eventTimeZone": "GMT",
      "eventPrevious": "-29.7K",
      "eventCurrency": "GBP",
      "eventForecast": ""
    }
  ]}}
