"Spanish Manufacturing PMI (Apr)";"Spain";"EUR";"2017-05-02T07:15:00";"GMT";"53.9";"54.4";"54.5";"Moderate"
"Italian Manufacturing PMI (Apr)";"Italy";"EUR";"2017-05-02T07:45:00";"GMT";"55.7";"56.0";"56.2";"Moderate"
"French Manufacturing PMI (Apr)";"France";"EUR";"2017-05-02T07:50:00";"GMT";"55.1";"55.1";"55.1";"Moderate"
"German Manufacturing PMI (Apr)";"Germany";"EUR";"2017-05-02T07:55:00";"GMT";"58.2";"58.2";"58.2";"High"
"Italian Monthly Unemployment Rate (Mar)";"Italy";"EUR";"2017-05-02T08:00:00";"GMT";"11.5%";"11.5%";"11.7%";"Low"
"Manufacturing PMI (Apr)";"Euro Zone";"EUR";"2017-05-02T08:00:00";"GMT";"56.8";"56.8";"56.7";"Moderate"
"Unemployment Rate (Mar)";"Euro Zone";"EUR";"2017-05-02T09:00:00";"GMT";"9.5%";"9.4%";"9.5%";"Moderate"
"French 12-Month BTF Auction";"France";"EUR";"2017-05-02T13:00:00";"GMT";"-0.535%";"";"-0.541%";"Low"
"French 3-Month BTF Auction";"France";"EUR";"2017-05-02T13:00:00";"GMT";"-0.560%";"";"-0.549%";"Low"
"French 6-Month BTF Auction";"France";"EUR";"2017-05-02T13:00:00";"GMT";"-0.557%";"";"-0.532%";"Low"
