"Exports (YoY) (Sep)";"South Korea";"KRW";"2018-10-01T00:00:00";"GMT";"-8.2%";"-5.7%";"-8.2%";"Low"
"Imports (YoY) (Sep)";"South Korea";"KRW";"2018-10-01T00:00:00";"GMT";"-2.1%";"3.1%";"-2.1%";"Low"
"Trade Balance (Sep)";"South Korea";"KRW";"2018-10-01T00:00:00";"GMT";"9.70B";"";"9.70B";"Low"
"Nikkei Manufacturing PMI (Sep)";"South Korea";"KRW";"2018-10-01T00:30:00";"GMT";"49.9";"";"51.3";"Low"
"Manufacturing BSI Index (Oct)";"South Korea";"KRW";"2018-10-01T21:00:00";"GMT";"76";"";"78";"Low"
"Industrial Production (MoM) (Aug)";"South Korea";"KRW";"2018-10-01T23:00:00";"GMT";"0.5%";"0.3%";"1.4%";"Low"
"Industrial Production (YoY) (Aug)";"South Korea";"KRW";"2018-10-01T23:00:00";"GMT";"0.9%";"1.2%";"2.0%";"Low"
"Retail Sales (MoM)";"South Korea";"KRW";"2018-10-01T23:00:00";"GMT";"0.5%";"";"1.4%";"Low"
