"Employment Change (QoQ)";"Euro Zone";"EUR";"2013-09-13T09:00:00";"GMT";"-0.4%";"-0.2%";"-0.1%";"Low"
"Employment Change (YoY)";"Euro Zone";"EUR";"2013-09-13T09:00:00";"GMT";"-1.0%";"-0.9%";"-1.0%";"Low"
"CFTC EUR speculative net positions";"Euro Zone";"EUR";"2013-09-13T19:30:00";"GMT";"22.7K";"";"12.7K";"Moderate"
