"Redbook (MoM)";"United States";"USD";"2016-01-26T13:55:00";"GMT";"-1.2%";"";"-1.4%";"Low"
"Redbook (YoY)";"United States";"USD";"2016-01-26T13:55:00";"GMT";"1.4%";"";"1.0%";"Low"
"House Price Index (MoM) (Nov)";"United States";"USD";"2016-01-26T14:00:00";"GMT";"0.5%";"0.4%";"0.5%";"Low"
"House Price Index (Nov)";"United States";"USD";"2016-01-26T14:00:00";"GMT";"227.6";"";"228.8";"Low"
"House Price Index (YoY) (Nov)";"United States";"USD";"2016-01-26T14:00:00";"GMT";"6.1%";"";"5.9%";"Low"
"Sandamp:P/CS HPI Composite - 20 n.s.a. (MoM) (Nov)";"United States";"USD";"2016-01-26T14:00:00";"GMT";"0.1%";"0.1%";"0.1%";"Low"
"Sandamp:P/CS HPI Composite - 20 n.s.a. (YoY) (Nov)";"United States";"USD";"2016-01-26T14:00:00";"GMT";"5.5%";"5.7%";"5.8%";"Moderate"
"Sandamp:P/CS HPI Composite - 20 s.a. (MoM) (Nov)";"United States";"USD";"2016-01-26T14:00:00";"GMT";"0.8%";"0.8%";"0.9%";"Low"
"Services PMI (Jan)";"United States";"USD";"2016-01-26T14:45:00";"GMT";"54.3";"54.0";"53.7";"Moderate"
"CB Consumer Confidence (Jan)";"United States";"USD";"2016-01-26T15:00:00";"GMT";"96.3";"96.5";"98.1";"High"
"Richmond Manufacturing Index (Jan)";"United States";"USD";"2016-01-26T15:00:00";"GMT";"6";"3";"2";"Low"
"Richmond Manufacturing Shipments (Jan)";"United States";"USD";"2016-01-26T15:00:00";"GMT";"0";"";"-6";"Low"
"Richmond Services Index (Jan)";"United States";"USD";"2016-01-26T15:00:00";"GMT";"0";"";"10";"Low"
"Dallas Fed Services Revenues (Jan)";"United States";"USD";"2016-01-26T15:30:00";"GMT";"15.2";"";"10.0";"Low"
"Texas Services Sector Outlook (Jan)";"United States";"USD";"2016-01-26T15:30:00";"GMT";"2.3";"";"-10.4";"Low"
"4-Week Bill Auction";"United States";"USD";"2016-01-26T16:30:00";"GMT";"0.250%";"";"0.295%";"Low"
"2-Year Note Auction";"United States";"USD";"2016-01-26T18:00:00";"GMT";"1.056%";"";"0.860%";"Low"
"API Weekly Crude Oil Stock";"United States";"USD";"2016-01-26T21:35:00";"GMT";"4.600M";"3.500M";"11.400M";"Moderate"
"API Weekly Cushing Crude Oil Stock";"United States";"USD";"2016-01-26T21:35:00";"GMT";"0.063M";"";"-0.664M";"Moderate"
