{"events": {"event": [
    {
      "eventDateTime": "2012-04-02T07:15:00",
      "eventActual": "0.8%",
      "eventCountry": "Switzerland",
      "eventExpectedVolatility": "Moderate",
      "eventName": "Retail Sales (YoY)",
      "eventTimeZone": "GMT",
      "eventPrevious": "4.7%",
      "eventCurrency": "CHF",
      "eventForecast": "3.2%"
    },
    {
      "eventDateTime": "2012-04-02T07:30:00",
      "eventActual": "51.1",
      "eventCountry": "Switzerland",
      "eventExpectedVolatility": "Moderate",
      "eventName": "procure.ch PMI",
      "eventTimeZone": "GMT",
      "eventPrevious": "47.9",
      "eventCurrency": "CHF",
      "eventForecast": "49.5"
    }
  ]}}
