{"events": {"event": [
    {
      "eventDateTime": "2013-05-15T01:30:00",
      "eventActual": "-1.6%",
      "eventCountry": "Australia",
      "eventExpectedVolatility": "Low",
      "eventName": "New Motor Vehicle Sales (MoM)",
      "eventTimeZone": "GMT",
      "eventPrevious": "-0.5%",
      "eventCurrency": "AUD",
      "eventForecast": ""
    },
    {
      "eventDateTime": "2013-05-15T01:30:00",
      "eventActual": "0.7%",
      "eventCountry": "Australia",
      "eventExpectedVolatility": "Moderate",
      "eventName": "Wage Price Index (QoQ)",
      "eventTimeZone": "GMT",
      "eventPrevious": "0.8%",
      "eventCurrency": "AUD",
      "eventForecast": "0.8%"
    }
  ]}}
