{"events": {"event": {
    "eventDateTime": "2016-01-05T21:00:00",
    "eventActual": "367.96B",
    "eventCountry": "South Korea",
    "eventExpectedVolatility": "Low",
    "eventName": "FX Reserves - USD (Dec)",
    "eventTimeZone": "GMT",
    "eventPrevious": "368.46B",
    "eventCurrency": "KRW",
    "eventForecast": ""
  }}}
