"Budget Balance % of GDP (Jun)";"Russia";"RUB";"2008-07-01T09:00:00";"GMT";"8.50%";"";"7.20%";"Low"
"CPI (MoM) (Jun)";"Russia";"RUB";"2008-07-01T09:00:00";"GMT";"1.30%";"";"1.00%";"Moderate"
"CPI (YoY) (Jun)";"Russia";"RUB";"2008-07-01T09:00:00";"GMT";"15.10%";"";"15.10%";"Moderate"
"Central Bank reserves (USD) (Jun)";"Russia";"RUB";"2008-07-01T09:00:00";"GMT";"547.30B";"";"575.00B";"Moderate"
"GDP Monthly (YoY) (Jun)";"Russia";"RUB";"2008-07-01T09:00:00";"GMT";"8.30%";"";"6.50%";"Moderate"
"Industrial Production (YoY) (Jun)";"Russia";"RUB";"2008-07-01T09:00:00";"GMT";"4.50%";"";"2.80%";"Low"
"Interest Rate Decision (Jun)";"Russia";"RUB";"2008-07-01T09:00:00";"GMT";"7.00%";"";"7.25%";"High"
"PPI (MoM) (Jun)";"Russia";"RUB";"2008-07-01T09:00:00";"GMT";"3.50%";"";"4.90%";"Low"
"PPI (YoY) (Jun)";"Russia";"RUB";"2008-07-01T09:00:00";"GMT";"25.10%";"";"28.10%";"Low"
"Trade Balance (Jun)";"Russia";"RUB";"2008-07-01T09:00:00";"GMT";"18.19B";"";"17.71B";"Low"
"Unemployment Rate (Jun)";"Russia";"RUB";"2008-07-01T09:00:00";"GMT";"5.30%";"";"5.50%";"Moderate"
