"Cap Goods Ship Non Defense Ex Air (MoM)";"United States";"USD";"2019-05-24T12:30:00";"GMT";"-0.6%";"0.4%";"0.0%";"Moderate"
"Core Durable Goods Orders (MoM) (Apr)";"United States";"USD";"2019-05-24T12:30:00";"GMT";"-0.5%";"0.2%";"0.0%";"High"
"Durable Goods Orders (MoM) (Apr)";"United States";"USD";"2019-05-24T12:30:00";"GMT";"1.7%";"-2.0%";"-2.1%";"Moderate"
"Durables Excluding Defense (MoM) (Apr)";"United States";"USD";"2019-05-24T12:30:00";"GMT";"0.1%";"-2.0%";"-2.5%";"Low"
"Goods Orders Non Defense Ex Air (MoM) (Apr)";"United States";"USD";"2019-05-24T12:30:00";"GMT";"0.3%";"-0.3%";"-0.9%";"Low"
"U.S. Baker Hughes Oil Rig Count";"United States";"USD";"2019-05-24T17:00:00";"GMT";"802";"";"797";"Moderate"
"U.S. Baker Hughes Total Rig Count";"United States";"USD";"2019-05-24T17:00:00";"GMT";"987";"";"983";"Moderate"
"CFTC Aluminium speculative net positions";"United States";"USD";"2019-05-24T19:30:00";"GMT";"-95.3K";"";"-101.1K";"Low"
"CFTC Copper speculative net positions";"United States";"USD";"2019-05-24T19:30:00";"GMT";"-19.4K";"";"-21.7K";"Low"
"CFTC Corn speculative net positions";"United States";"USD";"2019-05-24T19:30:00";"GMT";"-183.9K";"";"3.2K";"Low"
"CFTC Crude Oil speculative net positions";"United States";"USD";"2019-05-24T19:30:00";"GMT";"487.8K";"";"478.4K";"Moderate"
"CFTC Gold speculative net positions";"United States";"USD";"2019-05-24T19:30:00";"GMT";"124.5K";"";"88.8K";"Moderate"
"CFTC Natural Gas speculative net positions";"United States";"USD";"2019-05-24T19:30:00";"GMT";"-73.9K";"";"-61.0K";"Low"
"CFTC Sandamp:P 500 speculative net positions";"United States";"USD";"2019-05-24T19:30:00";"GMT";"93.9K";"";"100.8K";"Moderate"
"CFTC Silver speculative net positions";"United States";"USD";"2019-05-24T19:30:00";"GMT";"-2.2K";"";"-14.7K";"Low"
"CFTC Soybeans speculative net positions";"United States";"USD";"2019-05-24T19:30:00";"GMT";"-123.4K";"";"-99.9K";"Low"
"CFTC Wheat speculative net positions";"United States";"USD";"2019-05-24T19:30:00";"GMT";"-43.4K";"";"-16.1K";"Low"
