"FGV Consumer confidence (Jan)";"Brazil";"BRL";"2016-01-27T10:00:00";"GMT";"65.4";"74.5";"67.9";"Low"
"Bank lending (MoM) (Dec)";"Brazil";"BRL";"2016-01-27T12:30:00";"GMT";"0.6%";"";"1.3%";"Low"
"Foreign Exchange Flows";"Brazil";"BRL";"2016-01-27T14:30:00";"GMT";"-0.84B";"";"1.81B";"Low"
