{"events": {"event": {
    "eventDateTime": "2018-08-01T08:30:00",
    "eventActual": "12.0%",
    "eventCountry": "Hong Kong",
    "eventExpectedVolatility": "Low",
    "eventName": "Retail Sales (YoY) (Jun)",
    "eventTimeZone": "GMT",
    "eventPrevious": "12.9%",
    "eventCurrency": "HKD",
    "eventForecast": ""
  }}}
