"German CPI (MoM) (Jun)";"Germany";"EUR";"2017-07-13T06:00:00";"GMT";"0.2%";"0.2%";"0.2%";"Moderate"
"German CPI (YoY) (Jun)";"Germany";"EUR";"2017-07-13T06:00:00";"GMT";"1.6%";"1.6%";"1.6%";"Low"
"German HICP (MoM) (Jun)";"Germany";"EUR";"2017-07-13T06:00:00";"GMT";"0.2%";"0.2%";"0.2%";"Low"
"German HICP (YoY) (Jun)";"Germany";"EUR";"2017-07-13T06:00:00";"GMT";"1.5%";"1.5%";"1.5%";"Low"
"French CPI (MoM) (Jun)";"France";"EUR";"2017-07-13T06:45:00";"GMT";"0.0%";"0.0%";"0.0%";"Moderate"
"French HICP (MoM) (Jun)";"France";"EUR";"2017-07-13T06:45:00";"GMT";"0.0%";"0.0%";"0.0%";"Moderate"
"French HICP (YoY) (Jun)";"France";"EUR";"2017-07-13T06:45:00";"GMT";"0.8%";"0.8%";"0.8%";"Low"
"Spanish CPI (MoM) (Jun)";"Spain";"EUR";"2017-07-13T07:00:00";"GMT";"0.0%";"0.0%";"0.0%";"Low"
"Spanish CPI (YoY) (Jun)";"Spain";"EUR";"2017-07-13T07:00:00";"GMT";"1.5%";"1.5%";"1.5%";"Moderate"
"Spanish HICP (MoM) (Jun)";"Spain";"EUR";"2017-07-13T07:00:00";"GMT";"0.0%";"0.0%";"0.1%";"Low"
"Spanish HICP (YoY) (Jun)";"Spain";"EUR";"2017-07-13T07:00:00";"GMT";"1.6%";"1.6%";"1.6%";"Moderate"
"Italian 3-Year BTP Auction";"Italy";"EUR";"2017-07-13T09:30:00";"GMT";"0.15%";"";"0.23%";"Low"
"Italian 30-Year BTP Auction";"Italy";"EUR";"2017-07-13T09:30:00";"GMT";"2.280%";"";"2.930%";"Low"
"Italian 7-Year BTP Auction";"Italy";"EUR";"2017-07-13T09:30:00";"GMT";"1.35%";"";"1.57%";"Low"
