"Adjusted Current Account";"Japan";"JPY";"2013-07-07T23:50:00";"GMT";"0.85T";"0.62T";"0.62T";"Moderate"
"Bank Lending (YoY)";"Japan";"JPY";"2013-07-07T23:50:00";"GMT";"1.8%";"";"1.9%";"Low"
"Current Account n.s.a.";"Japan";"JPY";"2013-07-07T23:50:00";"GMT";"0.750T";"0.604T";"0.541T";"Moderate"
