{"events": {"event": [
    {
      "eventDateTime": "2011-01-06T13:30:00",
      "eventActual": "4,103K",
      "eventCountry": "United States",
      "eventExpectedVolatility": "Low",
      "eventName": "Continuing Jobless Claims",
      "eventTimeZone": "GMT",
      "eventPrevious": "4,150K",
      "eventCurrency": "USD",
      "eventForecast": "4,070K"
    },
    {
      "eventDateTime": "2011-01-06T13:30:00",
      "eventActual": "409K",
      "eventCountry": "United States",
      "eventExpectedVolatility": "Moderate",
      "eventName": "Initial Jobless Claims",
      "eventTimeZone": "GMT",
      "eventPrevious": "391K",
      "eventCurrency": "USD",
      "eventForecast": "405K"
    },
    {
      "eventDateTime": "2011-01-06T15:30:00",
      "eventActual": "-135B",
      "eventCountry": "United States",
      "eventExpectedVolatility": "Low",
      "eventName": "Natural Gas Storage",
      "eventTimeZone": "GMT",
      "eventPrevious": "-136B",
      "eventCurrency": "USD",
      "eventForecast": "-135B"
    }
  ]}}
