{"events": {"event": [
    {
      "eventDateTime": "2016-04-11T01:30:00",
      "eventActual": "1.5%",
      "eventCountry": "Australia",
      "eventExpectedVolatility": "Moderate",
      "eventName": "Home Loans (MoM) (Feb)",
      "eventTimeZone": "GMT",
      "eventPrevious": "-4.4%",
      "eventCurrency": "AUD",
      "eventForecast": "2.0%"
    },
    {
      "eventDateTime": "2016-04-11T01:30:00",
      "eventActual": "4.1%",
      "eventCountry": "Australia",
      "eventExpectedVolatility": "Low",
      "eventName": "Invest Housing Finance (MoM) (Feb)",
      "eventTimeZone": "GMT",
      "eventPrevious": "-1.6%",
      "eventCurrency": "AUD",
      "eventForecast": ""
    },
    {
      "eventDateTime": "2016-04-11T06:30:00",
      "eventActual": "45.9%",
      "eventCountry": "Australia",
      "eventExpectedVolatility": "Moderate",
      "eventName": "Investing.com AUD/USD Index",
      "eventTimeZone": "GMT",
      "eventPrevious": "43.4%",
      "eventCurrency": "AUD",
      "eventForecast": ""
    }
  ]}}
