{"events": {"event": [
    {
      "eventDateTime": "2012-05-02T01:00:00",
      "eventActual": "-4.5%",
      "eventCountry": "New Zealand",
      "eventExpectedVolatility": "Low",
      "eventName": "ANZ Commodity Price Index (MoM)",
      "eventTimeZone": "GMT",
      "eventPrevious": "-1.7%",
      "eventCurrency": "NZD",
      "eventForecast": ""
    },
    {
      "eventDateTime": "2012-05-02T22:45:00",
      "eventActual": "0.4%",
      "eventCountry": "New Zealand",
      "eventExpectedVolatility": "High",
      "eventName": "Employment Change (QoQ)",
      "eventTimeZone": "GMT",
      "eventPrevious": "0.2%",
      "eventCurrency": "NZD",
      "eventForecast": "0.3%"
    },
    {
      "eventDateTime": "2012-05-02T22:45:00",
      "eventActual": "6.7%",
      "eventCountry": "New Zealand",
      "eventExpectedVolatility": "Moderate",
      "eventName": "Unemployment Rate",
      "eventTimeZone": "GMT",
      "eventPrevious": "6.4%",
      "eventCurrency": "NZD",
      "eventForecast": "6.3%"
    }
  ]}}
