{"events": {"event": {
    "eventDateTime": "2008-05-30T19:30:00",
    "eventActual": "-9.8K",
    "eventCountry": "Switzerland",
    "eventExpectedVolatility": "Low",
    "eventName": "CFTC CHF speculative net positions",
    "eventTimeZone": "GMT",
    "eventPrevious": "-4.9K",
    "eventCurrency": "CHF",
    "eventForecast": ""
  }}}
