"Bank Lending (YoY) (Aug)";"Japan";"JPY";"2007-09-01T09:00:00";"GMT";"0.30%";"";"0.50%";"Low"
"Capacity Utilization (MoM) (Aug)";"Japan";"JPY";"2007-09-01T09:00:00";"GMT";"-1.60%";"";"5.30%";"Low"
"Coincident Indicator (MoM) (Aug)";"Japan";"JPY";"2007-09-01T09:00:00";"GMT";"-1.40%";"";"1.40%";"Low"
"Construction Orders (YoY) (Aug)";"Japan";"JPY";"2007-09-01T09:00:00";"GMT";"-10.40%";"";"-14.20%";"Low"
"Core Machinery Orders (MoM) (Aug)";"Japan";"JPY";"2007-09-01T09:00:00";"GMT";"3.60%";"";"-2.00%";"Low"
"Core Machinery Orders (YoY) (Aug)";"Japan";"JPY";"2007-09-01T09:00:00";"GMT";"2.40%";"";"-4.60%";"Low"
"Current Account n.s.a. (Aug)";"Japan";"JPY";"2007-09-01T09:00:00";"GMT";"1.87T";"";"2.10T";"Moderate"
"Economy Watchers Current Index (Aug)";"Japan";"JPY";"2007-09-01T09:00:00";"GMT";"44.70";"";"44.10";"Low"
"Exports (YoY) (Aug)";"Japan";"JPY";"2007-09-01T09:00:00";"GMT";"11.70%";"";"14.60%";"Moderate"
"Foreign Bonds Buying (Aug)";"Japan";"JPY";"2007-09-01T09:00:00";"GMT";"-1,110.80B";"";"-5,640.20B";"Low"
"Foreign Investments in Japanese Stocks (Aug)";"Japan";"JPY";"2007-09-01T09:00:00";"GMT";"3,700.40B";"";"-6,429.90B";"Low"
"Foreign Reserves (USD) (Aug)";"Japan";"JPY";"2007-09-01T09:00:00";"GMT";"923.72B";"";"932.16B";"Low"
"Household Confidence (Aug)";"Japan";"JPY";"2007-09-01T09:00:00";"GMT";"44.10";"";"43.90";"Low"
"Household Spending (MoM) (Aug)";"Japan";"JPY";"2007-09-01T09:00:00";"GMT";"-2.50%";"";"2.10%";"Moderate"
"Household Spending (YoY) (Aug)";"Japan";"JPY";"2007-09-01T09:00:00";"GMT";"-0.10%";"";"1.60%";"Moderate"
"Housing Starts (YoY) (Aug)";"Japan";"JPY";"2007-09-01T09:00:00";"GMT";"-23.40%";"";"-43.30%";"Low"
"Imports (YoY) (Aug)";"Japan";"JPY";"2007-09-01T09:00:00";"GMT";"16.70%";"";"5.80%";"Low"
"Industrial Production (MoM) (Aug)";"Japan";"JPY";"2007-09-01T09:00:00";"GMT";"0.10%";"";"3.40%";"Moderate"
"Jobs/applications ratio (Aug)";"Japan";"JPY";"2007-09-01T09:00:00";"GMT";"1.06";"";"1.05";"Moderate"
"Leading Index (MoM) (Aug)";"Japan";"JPY";"2007-09-01T09:00:00";"GMT";"-0.60%";"";"-2.50%";"Low"
"National CPI (YoY) (Aug)";"Japan";"JPY";"2007-09-01T09:00:00";"GMT";"0.00%";"";"-0.20%";"Low"
"National Core CPI (YoY) (Aug)";"Japan";"JPY";"2007-09-01T09:00:00";"GMT";"-0.10%";"";"-0.10%";"Moderate"
"Overtime Pay (YoY) (Aug)";"Japan";"JPY";"2007-09-01T09:00:00";"GMT";"-1.10%";"";"0.30%";"Low"
"PPI (MoM) (Aug)";"Japan";"JPY";"2007-09-01T09:00:00";"GMT";"0.60%";"";"0.10%";"Low"
"PPI (YoY) (Aug)";"Japan";"JPY";"2007-09-01T09:00:00";"GMT";"1.80%";"";"1.60%";"Low"
"Retail Sales (YoY) (Aug)";"Japan";"JPY";"2007-09-01T09:00:00";"GMT";"-1.50%";"";"1.20%";"Moderate"
"Reuters Tankan Index (Aug)";"Japan";"JPY";"2007-09-01T09:00:00";"GMT";"28.00";"";"30.00";"Low"
"Tokyo CPI (YoY) (Aug)";"Japan";"JPY";"2007-09-01T09:00:00";"GMT";"-0.10%";"";"-0.30%";"Low"
"Tokyo Core CPI (YoY) (Aug)";"Japan";"JPY";"2007-09-01T09:00:00";"GMT";"-0.10%";"";"0.00%";"Moderate"
"Trade Balance (Aug)";"Japan";"JPY";"2007-09-01T09:00:00";"GMT";"682.00B";"";"743.60B";"Moderate"
"Unemployment Rate (Aug)";"Japan";"JPY";"2007-09-01T09:00:00";"GMT";"3.60%";"";"3.70%";"Low"
