"PPI Input (MoM)";"United Kingdom";"GBP";"2010-09-10T08:30:00";"GMT";"-1.0%";"0.2%";"-0.5%";"Moderate"
"PPI Output (MoM)";"United Kingdom";"GBP";"2010-09-10T08:30:00";"GMT";"0.1%";"0.1%";"0.0%";"Low"
"Construction Output (MoM) (Jul)";"United Kingdom";"GBP";"2010-09-10T09:30:00";"GMT";"0.90%";"";"-0.70%";"Low"
"CFTC GBP speculative net positions";"United Kingdom";"GBP";"2010-09-10T19:30:00";"GMT";"-15.3K";"";"-16.1K";"Moderate"
