{"events": {"event": {
    "eventDateTime": "2016-05-04T01:00:00",
    "eventActual": "-0.8%",
    "eventCountry": "New Zealand",
    "eventExpectedVolatility": "Low",
    "eventName": "ANZ Commodity Price Index (MoM)",
    "eventTimeZone": "GMT",
    "eventPrevious": "-1.3%",
    "eventCurrency": "NZD",
    "eventForecast": ""
  }}}
