{"events": {"event": [
    {
      "eventDateTime": "2004-02-01T09:00:00",
      "eventActual": "113.50",
      "eventCountry": "South Africa",
      "eventExpectedVolatility": "Low",
      "eventName": "Business Confidence (Jan)",
      "eventTimeZone": "GMT",
      "eventPrevious": "",
      "eventCurrency": "ZAR",
      "eventForecast": ""
    },
    {
      "eventDateTime": "2004-02-01T09:00:00",
      "eventActual": "0.17%",
      "eventCountry": "South Africa",
      "eventExpectedVolatility": "Low",
      "eventName": "CPI (YoY) (Jan)",
      "eventTimeZone": "GMT",
      "eventPrevious": "0.34%",
      "eventCurrency": "ZAR",
      "eventForecast": ""
    },
    {
      "eventDateTime": "2004-02-01T09:00:00",
      "eventActual": "8.05B",
      "eventCountry": "South Africa",
      "eventExpectedVolatility": "Low",
      "eventName": "Foreign Reserves (USD) (Jan)",
      "eventTimeZone": "GMT",
      "eventPrevious": "8.15B",
      "eventCurrency": "ZAR",
      "eventForecast": ""
    },
    {
      "eventDateTime": "2004-02-01T09:00:00",
      "eventActual": "-11.96%",
      "eventCountry": "South Africa",
      "eventExpectedVolatility": "Low",
      "eventName": "Gold Production (YoY) (Jan)",
      "eventTimeZone": "GMT",
      "eventPrevious": "-10.12%",
      "eventCurrency": "ZAR",
      "eventForecast": ""
    },
    {
      "eventDateTime": "2004-02-01T09:00:00",
      "eventActual": "8.00%",
      "eventCountry": "South Africa",
      "eventExpectedVolatility": "Moderate",
      "eventName": "Interest Rate Decision (Jan)",
      "eventTimeZone": "GMT",
      "eventPrevious": "8.00%",
      "eventCurrency": "ZAR",
      "eventForecast": ""
    },
    {
      "eventDateTime": "2004-02-01T09:00:00",
      "eventActual": "12.69%",
      "eventCountry": "South Africa",
      "eventExpectedVolatility": "Low",
      "eventName": "M3 Money Supply (YoY) (Jan)",
      "eventTimeZone": "GMT",
      "eventPrevious": "12.88%",
      "eventCurrency": "ZAR",
      "eventForecast": ""
    },
    {
      "eventDateTime": "2004-02-01T09:00:00",
      "eventActual": "16.51%",
      "eventCountry": "South Africa",
      "eventExpectedVolatility": "Low",
      "eventName": "Mining Production (Jan)",
      "eventTimeZone": "GMT",
      "eventPrevious": "5.27%",
      "eventCurrency": "ZAR",
      "eventForecast": ""
    },
    {
      "eventDateTime": "2004-02-01T09:00:00",
      "eventActual": "3.96B",
      "eventCountry": "South Africa",
      "eventExpectedVolatility": "Low",
      "eventName": "Net FX Reserves (USD) (Jan)",
      "eventTimeZone": "GMT",
      "eventPrevious": "4.77B",
      "eventCurrency": "ZAR",
      "eventForecast": ""
    },
    {
      "eventDateTime": "2004-02-01T09:00:00",
      "eventActual": "11.50%",
      "eventCountry": "South Africa",
      "eventExpectedVolatility": "Low",
      "eventName": "Prime Rate (Jan)",
      "eventTimeZone": "GMT",
      "eventPrevious": "11.50%",
      "eventCurrency": "ZAR",
      "eventForecast": ""
    },
    {
      "eventDateTime": "2004-02-01T09:00:00",
      "eventActual": "9.24%",
      "eventCountry": "South Africa",
      "eventExpectedVolatility": "Low",
      "eventName": "Private Sector Credit (Jan)",
      "eventTimeZone": "GMT",
      "eventPrevious": "19.18%",
      "eventCurrency": "ZAR",
      "eventForecast": ""
    },
    {
      "eventDateTime": "2004-02-01T09:00:00",
      "eventActual": "11.20%",
      "eventCountry": "South Africa",
      "eventExpectedVolatility": "Low",
      "eventName": "Retail Sales (YoY) (Jan)",
      "eventTimeZone": "GMT",
      "eventPrevious": "9.10%",
      "eventCurrency": "ZAR",
      "eventForecast": ""
    },
    {
      "eventDateTime": "2004-02-01T09:00:00",
      "eventActual": "33.60K",
      "eventCountry": "South Africa",
      "eventExpectedVolatility": "Low",
      "eventName": "Total Vehicle Sales (Jan)",
      "eventTimeZone": "GMT",
      "eventPrevious": "26.09K",
      "eventCurrency": "ZAR",
      "eventForecast": ""
    },
    {
      "eventDateTime": "2004-02-01T09:00:00",
      "eventActual": "5.50%",
      "eventCountry": "South Africa",
      "eventExpectedVolatility": "Low",
      "eventName": "Total Vehicle Sales (YoY) (Jan)",
      "eventTimeZone": "GMT",
      "eventPrevious": "9.10%",
      "eventCurrency": "ZAR",
      "eventForecast": ""
    }
  ]}}
