{"events": {"event": {
    "eventDateTime": "2008-04-08T23:00:00",
    "eventActual": "77",
    "eventCountry": "United Kingdom",
    "eventExpectedVolatility": "Moderate",
    "eventName": "Nationwide Consumer Confidence",
    "eventTimeZone": "GMT",
    "eventPrevious": "78",
    "eventCurrency": "GBP",
    "eventForecast": "76"
  }}}
