{"events": {"event": [
    {
      "eventDateTime": "2013-02-10T09:30:00",
      "eventActual": "-1.60%",
      "eventCountry": "United Kingdom",
      "eventExpectedVolatility": "Low",
      "eventName": "Construction Output (MoM) (Dec)",
      "eventTimeZone": "GMT",
      "eventPrevious": "1.60%",
      "eventCurrency": "GBP",
      "eventForecast": ""
    },
    {
      "eventDateTime": "2013-02-10T09:30:00",
      "eventActual": "-11.10%",
      "eventCountry": "United Kingdom",
      "eventExpectedVolatility": "Low",
      "eventName": "U.K. Construction Output (YoY) (Dec)",
      "eventTimeZone": "GMT",
      "eventPrevious": "-6.20%",
      "eventCurrency": "GBP",
      "eventForecast": ""
    }
  ]}}
