{"events": {"event": [
    {
      "eventDateTime": "2018-08-10T08:30:00",
      "eventActual": "-0.2%",
      "eventCountry": "Hong Kong",
      "eventExpectedVolatility": "Low",
      "eventName": "GDP (QoQ) (Q2)",
      "eventTimeZone": "GMT",
      "eventPrevious": "2.2%",
      "eventCurrency": "HKD",
      "eventForecast": ""
    },
    {
      "eventDateTime": "2018-08-10T08:30:00",
      "eventActual": "3.5%",
      "eventCountry": "Hong Kong",
      "eventExpectedVolatility": "Low",
      "eventName": "GDP (YoY) (Q2)",
      "eventTimeZone": "GMT",
      "eventPrevious": "4.7%",
      "eventCurrency": "HKD",
      "eventForecast": ""
    }
  ]}}
