{"events": {"event": {
    "eventDateTime": "2015-03-03T21:00:00",
    "eventActual": "362.37B",
    "eventCountry": "South Korea",
    "eventExpectedVolatility": "Low",
    "eventName": "FX Reserves - USD (Feb)",
    "eventTimeZone": "GMT",
    "eventPrevious": "362.19B",
    "eventCurrency": "KRW",
    "eventForecast": ""
  }}}
