"CPI (MoM)";"United Kingdom";"GBP";"2014-06-17T08:30:00";"GMT";"0.4%";"0.2%";"-0.1%";"Moderate"
"CPI (YoY)";"United Kingdom";"GBP";"2014-06-17T08:30:00";"GMT";"1.8%";"1.7%";"1.5%";"High"
"Core CPI (YoY)";"United Kingdom";"GBP";"2014-06-17T08:30:00";"GMT";"2.0%";"1.7%";"1.6%";"Low"
"Core PPI Output (MoM)";"United Kingdom";"GBP";"2014-06-17T08:30:00";"GMT";"0.0%";"0.1%";"0.0%";"Low"
"Core PPI Output (YoY)";"United Kingdom";"GBP";"2014-06-17T08:30:00";"GMT";"1.0%";"1.1%";"1.0%";"Low"
"Core RPI (MoM)";"United Kingdom";"GBP";"2014-06-17T08:30:00";"GMT";"0.4%";"0.2%";"0.1%";"Low"
"Core RPI (YoY)";"United Kingdom";"GBP";"2014-06-17T08:30:00";"GMT";"2.6%";"2.6%";"2.5%";"Low"
"House Price Index (YoY)";"United Kingdom";"GBP";"2014-06-17T08:30:00";"GMT";"8.0%";"9.1%";"9.9%";"Low"
"PPI Input (MoM)";"United Kingdom";"GBP";"2014-06-17T08:30:00";"GMT";"-0.9%";"0.2%";"-0.9%";"Moderate"
"PPI Input (YoY)";"United Kingdom";"GBP";"2014-06-17T08:30:00";"GMT";"-5.3%";"-4.1%";"-5.0%";"Low"
"PPI Output (MoM)";"United Kingdom";"GBP";"2014-06-17T08:30:00";"GMT";"0.1%";"0.1%";"-0.1%";"Low"
"PPI Output (YoY)";"United Kingdom";"GBP";"2014-06-17T08:30:00";"GMT";"0.6%";"0.7%";"0.5%";"Low"
"RPI (MoM)";"United Kingdom";"GBP";"2014-06-17T08:30:00";"GMT";"0.4%";"0.2%";"0.1%";"Low"
"RPI (YoY)";"United Kingdom";"GBP";"2014-06-17T08:30:00";"GMT";"2.5%";"2.5%";"2.4%";"Low"
