{"events": {"event": [
    {
      "eventDateTime": "2013-06-28T06:00:00",
      "eventActual": "0.3%",
      "eventCountry": "United Kingdom",
      "eventExpectedVolatility": "Moderate",
      "eventName": "Nationwide HPI (MoM)",
      "eventTimeZone": "GMT",
      "eventPrevious": "0.4%",
      "eventCurrency": "GBP",
      "eventForecast": "0.3%"
    },
    {
      "eventDateTime": "2013-06-28T08:30:00",
      "eventActual": "0.8%",
      "eventCountry": "United Kingdom",
      "eventExpectedVolatility": "Low",
      "eventName": "Index of Services",
      "eventTimeZone": "GMT",
      "eventPrevious": "0.5%",
      "eventCurrency": "GBP",
      "eventForecast": "0.2%"
    },
    {
      "eventDateTime": "2013-06-28T19:30:00",
      "eventActual": "-19.4K",
      "eventCountry": "United Kingdom",
      "eventExpectedVolatility": "Moderate",
      "eventName": "CFTC GBP speculative net positions",
      "eventTimeZone": "GMT",
      "eventPrevious": "-20.4K",
      "eventCurrency": "GBP",
      "eventForecast": ""
    }
  ]}}
