"Unemployment Rate (Q3)";"Singapore";"SGD";"2019-09-12T02:30:00";"GMT";"2.2%";"";"2.2%";"Low"
"Retail Sales (MoM) (Jul)";"Singapore";"SGD";"2019-09-12T05:00:00";"GMT";"-2.2%";"";"2.6%";"Low"
"Retail Sales (YoY) (Jul)";"Singapore";"SGD";"2019-09-12T05:00:00";"GMT";"-8.9%";"";"-1.8%";"Low"
