{"events": {"event": {
    "eventDateTime": "2014-03-13T11:00:00",
    "eventActual": "494.60B",
    "eventCountry": "Russia",
    "eventExpectedVolatility": "Moderate",
    "eventName": "Central Bank reserves (USD)",
    "eventTimeZone": "GMT",
    "eventPrevious": "493.30B",
    "eventCurrency": "RUB",
    "eventForecast": ""
  }}}
