{"events": {"event": [
    {
      "eventDateTime": "2012-07-01T00:00:00",
      "eventActual": "5.00B",
      "eventCountry": "South Korea",
      "eventExpectedVolatility": "Low",
      "eventName": "Trade Balance",
      "eventTimeZone": "GMT",
      "eventPrevious": "2.30B",
      "eventCurrency": "KRW",
      "eventForecast": ""
    },
    {
      "eventDateTime": "2012-07-01T09:00:00",
      "eventActual": "-0.50%",
      "eventCountry": "South Korea",
      "eventExpectedVolatility": "Low",
      "eventName": "Export Price Index (YoY) (Jun)",
      "eventTimeZone": "GMT",
      "eventPrevious": "-0.30%",
      "eventCurrency": "KRW",
      "eventForecast": ""
    },
    {
      "eventDateTime": "2012-07-01T09:00:00",
      "eventActual": "0.90%",
      "eventCountry": "South Korea",
      "eventExpectedVolatility": "Low",
      "eventName": "Exports (YoY) (Jun)",
      "eventTimeZone": "GMT",
      "eventPrevious": "-1.00%",
      "eventCurrency": "KRW",
      "eventForecast": ""
    },
    {
      "eventDateTime": "2012-07-01T09:00:00",
      "eventActual": "-1.30%",
      "eventCountry": "South Korea",
      "eventExpectedVolatility": "Low",
      "eventName": "Import Price Index (YoY) (Jun)",
      "eventTimeZone": "GMT",
      "eventPrevious": "1.80%",
      "eventCurrency": "KRW",
      "eventForecast": ""
    },
    {
      "eventDateTime": "2012-07-01T09:00:00",
      "eventActual": "-6.30%",
      "eventCountry": "South Korea",
      "eventExpectedVolatility": "Low",
      "eventName": "Imports (YoY) (Jun)",
      "eventTimeZone": "GMT",
      "eventPrevious": "-1.80%",
      "eventCurrency": "KRW",
      "eventForecast": ""
    },
    {
      "eventDateTime": "2012-07-01T23:00:00",
      "eventActual": "-0.2%",
      "eventCountry": "South Korea",
      "eventExpectedVolatility": "Low",
      "eventName": "CPI (MoM)",
      "eventTimeZone": "GMT",
      "eventPrevious": "0.2%",
      "eventCurrency": "KRW",
      "eventForecast": "0.2%"
    },
    {
      "eventDateTime": "2012-07-01T23:00:00",
      "eventActual": "2.2%",
      "eventCountry": "South Korea",
      "eventExpectedVolatility": "Moderate",
      "eventName": "CPI (YoY)",
      "eventTimeZone": "GMT",
      "eventPrevious": "2.5%",
      "eventCurrency": "KRW",
      "eventForecast": "2.5%"
    }
  ]}}
