{"events": {"event": [
    {
      "eventDateTime": "2017-12-18T21:00:00",
      "eventActual": "-0.1%",
      "eventCountry": "South Korea",
      "eventExpectedVolatility": "Low",
      "eventName": "PPI (MoM) (Nov)",
      "eventTimeZone": "GMT",
      "eventPrevious": "",
      "eventCurrency": "KRW",
      "eventForecast": ""
    },
    {
      "eventDateTime": "2017-12-18T21:00:00",
      "eventActual": "3.1%",
      "eventCountry": "South Korea",
      "eventExpectedVolatility": "Low",
      "eventName": "PPI (YoY) (Nov)",
      "eventTimeZone": "GMT",
      "eventPrevious": "3.6%",
      "eventCurrency": "KRW",
      "eventForecast": ""
    }
  ]}}
