"Manufacturing PMI";"South Africa";"ZAR";"2017-05-02T09:00:00";"GMT";"52.2";"";"44.7";"Low"
"Total Vehicle Sales (Apr)";"South Africa";"ZAR";"2017-05-02T12:15:00";"GMT";"48.53K";"";"34.96K";"Low"
"Total Vehicle Sales (YoY) (Apr)";"South Africa";"ZAR";"2017-05-02T12:15:00";"GMT";"2.10%";"";"-13.40%";"Low"
