"Spanish Services PMI";"Spain";"EUR";"2013-10-03T07:13:00";"GMT";"50.4";"51.0";"49.0";"Moderate"
"Italian Services PMI";"Italy";"EUR";"2013-10-03T07:43:00";"GMT";"48.8";"49.1";"52.7";"Moderate"
"French Markit Composite PMI";"France";"EUR";"2013-10-03T07:48:00";"GMT";"50.20";"";"50.50";"Low"
"French Services PMI";"France";"EUR";"2013-10-03T07:48:00";"GMT";"50.7";"50.7";"51.0";"Moderate"
"German Services PMI";"Germany";"EUR";"2013-10-03T07:53:00";"GMT";"54.4";"54.4";"53.7";"Moderate"
"Services PMI";"Euro Zone";"EUR";"2013-10-03T07:58:00";"GMT";"52.1";"52.1";"52.2";"Moderate"
"Spanish 10-Year Obligacion Auction";"Spain";"EUR";"2013-10-03T08:50:00";"GMT";"4.503%";"";"4.269%";"Moderate"
"Spanish 5-Year Bonos Auction";"Spain";"EUR";"2013-10-03T08:50:00";"GMT";"3.477%";"";"3.128%";"Low"
"Retail Sales (MoM)";"Euro Zone";"EUR";"2013-10-03T09:00:00";"GMT";"0.5%";"0.2%";"0.7%";"Moderate"
"French 10-Year OAT Auction";"France";"EUR";"2013-10-03T09:05:00";"GMT";"2.57%";"";"2.37%";"Low"
