{"events": {"event": [
    {
      "eventDateTime": "2019-11-19T07:00:00",
      "eventActual": "-58.3%",
      "eventCountry": "United Kingdom",
      "eventExpectedVolatility": "Low",
      "eventName": "Car Registration (MoM) (Oct)",
      "eventTimeZone": "GMT",
      "eventPrevious": "270.8%",
      "eventCurrency": "GBP",
      "eventForecast": ""
    },
    {
      "eventDateTime": "2019-11-19T07:00:00",
      "eventActual": "-6.7%",
      "eventCountry": "United Kingdom",
      "eventExpectedVolatility": "Low",
      "eventName": "Car Registration (YoY) (Oct)",
      "eventTimeZone": "GMT",
      "eventPrevious": "1.3%",
      "eventCurrency": "GBP",
      "eventForecast": ""
    },
    {
      "eventDateTime": "2019-11-19T11:00:00",
      "eventActual": "-26",
      "eventCountry": "United Kingdom",
      "eventExpectedVolatility": "Moderate",
      "eventName": "CBI Industrial Trends Orders (Nov)",
      "eventTimeZone": "GMT",
      "eventPrevious": "-37",
      "eventCurrency": "GBP",
      "eventForecast": "-31"
    }
  ]}}
