{"events": {"event": [
    {
      "eventDateTime": "2008-07-04T05:00:00",
      "eventActual": "92.6",
      "eventCountry": "Japan",
      "eventExpectedVolatility": "Low",
      "eventName": "Leading Index",
      "eventTimeZone": "GMT",
      "eventPrevious": "92.8",
      "eventCurrency": "JPY",
      "eventForecast": "93.0"
    },
    {
      "eventDateTime": "2008-07-04T19:30:00",
      "eventActual": "16.0K",
      "eventCountry": "Japan",
      "eventExpectedVolatility": "Moderate",
      "eventName": "CFTC JPY speculative net positions",
      "eventTimeZone": "GMT",
      "eventPrevious": "-12.7K",
      "eventCurrency": "JPY",
      "eventForecast": ""
    }
  ]}}
