{"events": {"event": [
    {
      "eventDateTime": "2001-05-01T09:00:00",
      "eventActual": "-2.90%",
      "eventCountry": "Australia",
      "eventExpectedVolatility": "Low",
      "eventName": "ANZ Internet Job Ads (MoM) (Apr)",
      "eventTimeZone": "GMT",
      "eventPrevious": "2.30%",
      "eventCurrency": "AUD",
      "eventForecast": ""
    },
    {
      "eventDateTime": "2001-05-01T09:00:00",
      "eventActual": "-3.00%",
      "eventCountry": "Australia",
      "eventExpectedVolatility": "Low",
      "eventName": "ANZ Newspaper Job Ads (MoM) (Apr)",
      "eventTimeZone": "GMT",
      "eventPrevious": "-6.30%",
      "eventCurrency": "AUD",
      "eventForecast": ""
    },
    {
      "eventDateTime": "2001-05-01T09:00:00",
      "eventActual": "6.80%",
      "eventCountry": "Australia",
      "eventExpectedVolatility": "Moderate",
      "eventName": "Building Approvals (MoM) (Apr)",
      "eventTimeZone": "GMT",
      "eventPrevious": "4.90%",
      "eventCurrency": "AUD",
      "eventForecast": ""
    },
    {
      "eventDateTime": "2001-05-01T09:00:00",
      "eventActual": "58.00K",
      "eventCountry": "Australia",
      "eventExpectedVolatility": "High",
      "eventName": "Employment Change (Apr)",
      "eventTimeZone": "GMT",
      "eventPrevious": "6.80K",
      "eventCurrency": "AUD",
      "eventForecast": ""
    },
    {
      "eventDateTime": "2001-05-01T09:00:00",
      "eventActual": "2.00%",
      "eventCountry": "Australia",
      "eventExpectedVolatility": "Low",
      "eventName": "Exports (MoM) (Apr)",
      "eventTimeZone": "GMT",
      "eventPrevious": "-1.00%",
      "eventCurrency": "AUD",
      "eventForecast": ""
    },
    {
      "eventDateTime": "2001-05-01T09:00:00",
      "eventActual": "-11.10K",
      "eventCountry": "Australia",
      "eventExpectedVolatility": "Moderate",
      "eventName": "Full Employment Change (Apr)",
      "eventTimeZone": "GMT",
      "eventPrevious": "15.90K",
      "eventCurrency": "AUD",
      "eventForecast": ""
    },
    {
      "eventDateTime": "2001-05-01T09:00:00",
      "eventActual": "-55.00%",
      "eventCountry": "Australia",
      "eventExpectedVolatility": "Moderate",
      "eventName": "HIA New Home Sales (MoM) (Apr)",
      "eventTimeZone": "GMT",
      "eventPrevious": "101.10%",
      "eventCurrency": "AUD",
      "eventForecast": ""
    },
    {
      "eventDateTime": "2001-05-01T09:00:00",
      "eventActual": "4.00%",
      "eventCountry": "Australia",
      "eventExpectedVolatility": "Moderate",
      "eventName": "Home Loans (MoM) (Apr)",
      "eventTimeZone": "GMT",
      "eventPrevious": "6.30%",
      "eventCurrency": "AUD",
      "eventForecast": ""
    },
    {
      "eventDateTime": "2001-05-01T09:00:00",
      "eventActual": "1.00%",
      "eventCountry": "Australia",
      "eventExpectedVolatility": "Low",
      "eventName": "Housing Credit (Apr)",
      "eventTimeZone": "GMT",
      "eventPrevious": "1.00%",
      "eventCurrency": "AUD",
      "eventForecast": ""
    },
    {
      "eventDateTime": "2001-05-01T09:00:00",
      "eventActual": "1.80%",
      "eventCountry": "Australia",
      "eventExpectedVolatility": "Low",
      "eventName": "Imports (MoM) (Apr)",
      "eventTimeZone": "GMT",
      "eventPrevious": "4.40%",
      "eventCurrency": "AUD",
      "eventForecast": ""
    },
    {
      "eventDateTime": "2001-05-01T09:00:00",
      "eventActual": "9.60%",
      "eventCountry": "Australia",
      "eventExpectedVolatility": "Low",
      "eventName": "Invest Housing Finance (MoM) (Apr)",
      "eventTimeZone": "GMT",
      "eventPrevious": "8.30%",
      "eventCurrency": "AUD",
      "eventForecast": ""
    },
    {
      "eventDateTime": "2001-05-01T09:00:00",
      "eventActual": "4.00",
      "eventCountry": "Australia",
      "eventExpectedVolatility": "Moderate",
      "eventName": "NAB Business Confidence (Apr)",
      "eventTimeZone": "GMT",
      "eventPrevious": "1.00",
      "eventCurrency": "AUD",
      "eventForecast": ""
    },
    {
      "eventDateTime": "2001-05-01T09:00:00",
      "eventActual": "-13.70",
      "eventCountry": "Australia",
      "eventExpectedVolatility": "Low",
      "eventName": "NAB Business Survey (Apr)",
      "eventTimeZone": "GMT",
      "eventPrevious": "-11.00",
      "eventCurrency": "AUD",
      "eventForecast": ""
    },
    {
      "eventDateTime": "2001-05-01T09:00:00",
      "eventActual": "63.50%",
      "eventCountry": "Australia",
      "eventExpectedVolatility": "Low",
      "eventName": "Participation Rate (Apr)",
      "eventTimeZone": "GMT",
      "eventPrevious": "62.90%",
      "eventCurrency": "AUD",
      "eventForecast": ""
    },
    {
      "eventDateTime": "2001-05-01T09:00:00",
      "eventActual": "9.70%",
      "eventCountry": "Australia",
      "eventExpectedVolatility": "Low",
      "eventName": "Private House Approvals (Apr)",
      "eventTimeZone": "GMT",
      "eventPrevious": "-1.50%",
      "eventCurrency": "AUD",
      "eventForecast": ""
    },
    {
      "eventDateTime": "2001-05-01T09:00:00",
      "eventActual": "0.00%",
      "eventCountry": "Australia",
      "eventExpectedVolatility": "Moderate",
      "eventName": "Private Sector Credit (MoM) (Apr)",
      "eventTimeZone": "GMT",
      "eventPrevious": "0.60%",
      "eventCurrency": "AUD",
      "eventForecast": ""
    },
    {
      "eventDateTime": "2001-05-01T09:00:00",
      "eventActual": "5.00%",
      "eventCountry": "Australia",
      "eventExpectedVolatility": "High",
      "eventName": "RBA Interest Rate Decision (Apr)",
      "eventTimeZone": "GMT",
      "eventPrevious": "5.50%",
      "eventCurrency": "AUD",
      "eventForecast": ""
    },
    {
      "eventDateTime": "2001-05-01T09:00:00",
      "eventActual": "0.60%",
      "eventCountry": "Australia",
      "eventExpectedVolatility": "High",
      "eventName": "Retail Sales (MoM) (Apr)",
      "eventTimeZone": "GMT",
      "eventPrevious": "0.70%",
      "eventCurrency": "AUD",
      "eventForecast": ""
    },
    {
      "eventDateTime": "2001-05-01T09:00:00",
      "eventActual": "0.33B",
      "eventCountry": "Australia",
      "eventExpectedVolatility": "Moderate",
      "eventName": "Trade Balance (Apr)",
      "eventTimeZone": "GMT",
      "eventPrevious": "0.31B",
      "eventCurrency": "AUD",
      "eventForecast": ""
    },
    {
      "eventDateTime": "2001-05-01T09:00:00",
      "eventActual": "6.80%",
      "eventCountry": "Australia",
      "eventExpectedVolatility": "Moderate",
      "eventName": "Unemployment Rate (Apr)",
      "eventTimeZone": "GMT",
      "eventPrevious": "6.50%",
      "eventCurrency": "AUD",
      "eventForecast": ""
    },
    {
      "eventDateTime": "2001-05-01T09:00:00",
      "eventActual": "1.30%",
      "eventCountry": "Australia",
      "eventExpectedVolatility": "Moderate",
      "eventName": "Westpac Consumer Sentiment (Apr)",
      "eventTimeZone": "GMT",
      "eventPrevious": "-13.20%",
      "eventCurrency": "AUD",
      "eventForecast": ""
    }
  ]}}
