{"events": {"event": [
    {
      "eventDateTime": "2018-01-30T06:30:00",
      "eventActual": "0.6%",
      "eventCountry": "France",
      "eventExpectedVolatility": "Moderate",
      "eventName": "French GDP (QoQ) (Q4)",
      "eventTimeZone": "GMT",
      "eventPrevious": "0.6%",
      "eventCurrency": "EUR",
      "eventForecast": "0.5%"
    },
    {
      "eventDateTime": "2018-01-30T07:45:00",
      "eventActual": "-1.2%",
      "eventCountry": "France",
      "eventExpectedVolatility": "Moderate",
      "eventName": "French Consumer Spending (MoM) (Dec)",
      "eventTimeZone": "GMT",
      "eventPrevious": "3.0%",
      "eventCurrency": "EUR",
      "eventForecast": "0.4%"
    },
    {
      "eventDateTime": "2018-01-30T08:00:00",
      "eventActual": "0.7%",
      "eventCountry": "Spain",
      "eventExpectedVolatility": "Moderate",
      "eventName": "Spanish GDP (QoQ) (Q4)",
      "eventTimeZone": "GMT",
      "eventPrevious": "0.8%",
      "eventCurrency": "EUR",
      "eventForecast": "0.7%"
    },
    {
      "eventDateTime": "2018-01-30T08:00:00",
      "eventActual": "3.1%",
      "eventCountry": "Spain",
      "eventExpectedVolatility": "Low",
      "eventName": "Spanish GDP (YoY) (Q4)",
      "eventTimeZone": "GMT",
      "eventPrevious": "3.1%",
      "eventCurrency": "EUR",
      "eventForecast": "3.2%"
    },
    {
      "eventDateTime": "2018-01-30T09:00:00",
      "eventActual": "109.9",
      "eventCountry": "Italy",
      "eventExpectedVolatility": "Low",
      "eventName": "Italian Business Confidence (Jan)",
      "eventTimeZone": "GMT",
      "eventPrevious": "110.3",
      "eventCurrency": "EUR",
      "eventForecast": "110.3"
    },
    {
      "eventDateTime": "2018-01-30T09:00:00",
      "eventActual": "115.5",
      "eventCountry": "Italy",
      "eventExpectedVolatility": "Low",
      "eventName": "Italian Consumer Confidence (Jan)",
      "eventTimeZone": "GMT",
      "eventPrevious": "116.5",
      "eventCurrency": "EUR",
      "eventForecast": "116.3"
    },
    {
      "eventDateTime": "2018-01-30T10:00:00",
      "eventActual": "1.54",
      "eventCountry": "Euro Zone",
      "eventExpectedVolatility": "Low",
      "eventName": "Business Climate (Jan)",
      "eventTimeZone": "GMT",
      "eventPrevious": "1.60",
      "eventCurrency": "EUR",
      "eventForecast": "1.69"
    },
    {
      "eventDateTime": "2018-01-30T10:00:00",
      "eventActual": "114.7",
      "eventCountry": "Euro Zone",
      "eventExpectedVolatility": "Low",
      "eventName": "Business and Consumer Survey (Jan)",
      "eventTimeZone": "GMT",
      "eventPrevious": "115.3",
      "eventCurrency": "EUR",
      "eventForecast": "116.3"
    },
    {
      "eventDateTime": "2018-01-30T10:00:00",
      "eventActual": "1.3",
      "eventCountry": "Euro Zone",
      "eventExpectedVolatility": "Low",
      "eventName": "Consumer Confidence (Jan)",
      "eventTimeZone": "GMT",
      "eventPrevious": "1.3",
      "eventCurrency": "EUR",
      "eventForecast": "1.3"
    },
    {
      "eventDateTime": "2018-01-30T10:00:00",
      "eventActual": "19.6",
      "eventCountry": "Euro Zone",
      "eventExpectedVolatility": "Low",
      "eventName": "Consumer Inflation Expectation (Jan)",
      "eventTimeZone": "GMT",
      "eventPrevious": "13.6",
      "eventCurrency": "EUR",
      "eventForecast": ""
    },
    {
      "eventDateTime": "2018-01-30T10:00:00",
      "eventActual": "0.6%",
      "eventCountry": "Euro Zone",
      "eventExpectedVolatility": "Moderate",
      "eventName": "GDP (QoQ)",
      "eventTimeZone": "GMT",
      "eventPrevious": "0.7%",
      "eventCurrency": "EUR",
      "eventForecast": "0.6%"
    },
    {
      "eventDateTime": "2018-01-30T10:00:00",
      "eventActual": "2.7%",
      "eventCountry": "Euro Zone",
      "eventExpectedVolatility": "Moderate",
      "eventName": "GDP (YoY)",
      "eventTimeZone": "GMT",
      "eventPrevious": "2.8%",
      "eventCurrency": "EUR",
      "eventForecast": "2.7%"
    },
    {
      "eventDateTime": "2018-01-30T10:00:00",
      "eventActual": "8.8",
      "eventCountry": "Euro Zone",
      "eventExpectedVolatility": "Low",
      "eventName": "Industrial Sentiment (Jan)",
      "eventTimeZone": "GMT",
      "eventPrevious": "8.8",
      "eventCurrency": "EUR",
      "eventForecast": "9.0"
    },
    {
      "eventDateTime": "2018-01-30T10:00:00",
      "eventActual": "12.4",
      "eventCountry": "Euro Zone",
      "eventExpectedVolatility": "Low",
      "eventName": "Selling Price Expectations (Jan)",
      "eventTimeZone": "GMT",
      "eventPrevious": "13.0",
      "eventCurrency": "EUR",
      "eventForecast": ""
    },
    {
      "eventDateTime": "2018-01-30T10:00:00",
      "eventActual": "16.7",
      "eventCountry": "Euro Zone",
      "eventExpectedVolatility": "Low",
      "eventName": "Services Sentiment (Jan)",
      "eventTimeZone": "GMT",
      "eventPrevious": "18.0",
      "eventCurrency": "EUR",
      "eventForecast": "18.6"
    },
    {
      "eventDateTime": "2018-01-30T10:15:00",
      "eventActual": "2.06%",
      "eventCountry": "Italy",
      "eventExpectedVolatility": "Moderate",
      "eventName": "Italian 10-Year BTP Auction",
      "eventTimeZone": "GMT",
      "eventPrevious": "1.86%",
      "eventCurrency": "EUR",
      "eventForecast": ""
    },
    {
      "eventDateTime": "2018-01-30T10:15:00",
      "eventActual": "0.66%",
      "eventCountry": "Italy",
      "eventExpectedVolatility": "Low",
      "eventName": "Italian 5-Year BTP Auction",
      "eventTimeZone": "GMT",
      "eventPrevious": "0.60%",
      "eventCurrency": "EUR",
      "eventForecast": ""
    },
    {
      "eventDateTime": "2018-01-30T10:20:00",
      "eventActual": "3.7",
      "eventCountry": "Spain",
      "eventExpectedVolatility": "Low",
      "eventName": "Spanish Business Confidence",
      "eventTimeZone": "GMT",
      "eventPrevious": "2.6",
      "eventCurrency": "EUR",
      "eventForecast": ""
    },
    {
      "eventDateTime": "2018-01-30T13:00:00",
      "eventActual": "-0.7%",
      "eventCountry": "Germany",
      "eventExpectedVolatility": "Moderate",
      "eventName": "German CPI (MoM) (Jan)",
      "eventTimeZone": "GMT",
      "eventPrevious": "0.6%",
      "eventCurrency": "EUR",
      "eventForecast": "-0.5%"
    },
    {
      "eventDateTime": "2018-01-30T13:00:00",
      "eventActual": "1.6%",
      "eventCountry": "Germany",
      "eventExpectedVolatility": "Low",
      "eventName": "German CPI (YoY) (Jan)",
      "eventTimeZone": "GMT",
      "eventPrevious": "1.7%",
      "eventCurrency": "EUR",
      "eventForecast": "1.7%"
    },
    {
      "eventDateTime": "2018-01-30T13:00:00",
      "eventActual": "-1.0%",
      "eventCountry": "Germany",
      "eventExpectedVolatility": "Low",
      "eventName": "German HICP (MoM) (Jan)",
      "eventTimeZone": "GMT",
      "eventPrevious": "0.8%",
      "eventCurrency": "EUR",
      "eventForecast": "-0.7%"
    },
    {
      "eventDateTime": "2018-01-30T13:00:00",
      "eventActual": "1.4%",
      "eventCountry": "Germany",
      "eventExpectedVolatility": "Low",
      "eventName": "German HICP (YoY) (Jan)",
      "eventTimeZone": "GMT",
      "eventPrevious": "1.6%",
      "eventCurrency": "EUR",
      "eventForecast": "1.6%"
    },
    {
      "eventDateTime": "2018-01-30T16:30:00",
      "eventActual": "",
      "eventCountry": "Euro Zone",
      "eventExpectedVolatility": "Moderate",
      "eventName": "ECB's Mersch Speaks",
      "eventTimeZone": "GMT",
      "eventPrevious": "",
      "eventCurrency": "EUR",
      "eventForecast": ""
    }
  ]}}
