"Average Hourly Earnings (MoM) (Jul)";"United States";"USD";"2015-08-07T12:30:00";"GMT";"0.0%";"0.2%";"0.2%";"Moderate"
"Average Weekly Hours (Jul)";"United States";"USD";"2015-08-07T12:30:00";"GMT";"34.5";"34.5";"34.6";"Low"
"Government Payrolls (Jul)";"United States";"USD";"2015-08-07T12:30:00";"GMT";"4.0K";"";"5.0K";"Low"
"Manufacturing Payrolls (Jul)";"United States";"USD";"2015-08-07T12:30:00";"GMT";"2.0K";"5.0K";"15.0K";"Low"
"Nonfarm Payrolls (Jul)";"United States";"USD";"2015-08-07T12:30:00";"GMT";"231K";"223K";"215K";"High"
"Participation Rate (Jul)";"United States";"USD";"2015-08-07T12:30:00";"GMT";"62.6%";"";"62.6%";"Moderate"
"Private Nonfarm Payrolls (Jul)";"United States";"USD";"2015-08-07T12:30:00";"GMT";"227K";"215K";"210K";"Moderate"
"U6 Unemployment Rate (Jul)";"United States";"USD";"2015-08-07T12:30:00";"GMT";"10.50%";"";"10.40%";"Low"
"Unemployment Rate (Jul)";"United States";"USD";"2015-08-07T12:30:00";"GMT";"5.3%";"5.3%";"5.3%";"High"
"Dallas Fed PCE (Jun)";"United States";"USD";"2015-08-07T17:00:00";"GMT";"2.20%";"";"";"Low"
"U.S. Baker Hughes Oil Rig Count";"United States";"USD";"2015-08-07T17:00:00";"GMT";"664";"";"670";"Moderate"
"Consumer Credit (Jun)";"United States";"USD";"2015-08-07T19:00:00";"GMT";"16.52B";"17.00B";"20.74B";"Low"
"CFTC Copper speculative net positions";"United States";"USD";"2015-08-07T19:30:00";"GMT";"-24.5K";"";"-32.3K";"Low"
"CFTC Gold speculative net positions";"United States";"USD";"2015-08-07T19:30:00";"GMT";"24.5K";"";"29.9K";"Moderate"
"CFTC Sandamp:P 500 speculative net positions";"United States";"USD";"2015-08-07T19:30:00";"GMT";"-93.1K";"";"-116.6K";"Moderate"
"CFTC Silver speculative net positions";"United States";"USD";"2015-08-07T19:30:00";"GMT";"6.3K";"";"8.4K";"Low"
"CFTC Crude Oil speculative net positions";"United States";"USD";"2015-08-07T20:30:00";"GMT";"243.4k";"";"247.1k";"Moderate"
