{"events": {"event": [
    {
      "eventDateTime": "2010-11-02T08:55:00",
      "eventActual": "56.6",
      "eventCountry": "Germany",
      "eventExpectedVolatility": "High",
      "eventName": "German Manufacturing PMI",
      "eventTimeZone": "GMT",
      "eventPrevious": "56.1",
      "eventCurrency": "EUR",
      "eventForecast": "56.1"
    },
    {
      "eventDateTime": "2010-11-02T09:00:00",
      "eventActual": "54.6",
      "eventCountry": "Euro Zone",
      "eventExpectedVolatility": "Moderate",
      "eventName": "Manufacturing PMI",
      "eventTimeZone": "GMT",
      "eventPrevious": "54.1",
      "eventCurrency": "EUR",
      "eventForecast": "54.1"
    }
  ]}}
