{"events": {"event": [
    {
      "eventDateTime": "2017-06-16T00:30:00",
      "eventActual": "8.10%",
      "eventCountry": "Singapore",
      "eventExpectedVolatility": "Low",
      "eventName": "Non-Oil Exports (MoM) (May)",
      "eventTimeZone": "GMT",
      "eventPrevious": "-9.00%",
      "eventCurrency": "SGD",
      "eventForecast": ""
    },
    {
      "eventDateTime": "2017-06-16T00:30:00",
      "eventActual": "-1.20%",
      "eventCountry": "Singapore",
      "eventExpectedVolatility": "Low",
      "eventName": "Non-Oil Exports (YoY) (May)",
      "eventTimeZone": "GMT",
      "eventPrevious": "-0.70%",
      "eventCurrency": "SGD",
      "eventForecast": "-3.70%"
    },
    {
      "eventDateTime": "2017-06-16T00:30:00",
      "eventActual": "5.400B",
      "eventCountry": "Singapore",
      "eventExpectedVolatility": "Low",
      "eventName": "Trade Balance",
      "eventTimeZone": "GMT",
      "eventPrevious": "5.400B",
      "eventCurrency": "SGD",
      "eventForecast": ""
    }
  ]}}
