{"events": {"event": [
    {
      "eventDateTime": "2013-04-30T12:30:00",
      "eventActual": "0.3%",
      "eventCountry": "United States",
      "eventExpectedVolatility": "Moderate",
      "eventName": "Employment Cost Index (QoQ)",
      "eventTimeZone": "GMT",
      "eventPrevious": "0.4%",
      "eventCurrency": "USD",
      "eventForecast": "0.5%"
    },
    {
      "eventDateTime": "2013-04-30T12:55:00",
      "eventActual": "-2.50%",
      "eventCountry": "United States",
      "eventExpectedVolatility": "Low",
      "eventName": "Redbook (MoM)",
      "eventTimeZone": "GMT",
      "eventPrevious": "-2.80%",
      "eventCurrency": "USD",
      "eventForecast": ""
    },
    {
      "eventDateTime": "2013-04-30T13:00:00",
      "eventActual": "9.3%",
      "eventCountry": "United States",
      "eventExpectedVolatility": "Moderate",
      "eventName": "Sandamp;P/CS HPI Composite - 20 n.s.a. (YoY)",
      "eventTimeZone": "GMT",
      "eventPrevious": "8.1%",
      "eventCurrency": "USD",
      "eventForecast": "9.0%"
    },
    {
      "eventDateTime": "2013-04-30T13:45:00",
      "eventActual": "49.0",
      "eventCountry": "United States",
      "eventExpectedVolatility": "Moderate",
      "eventName": "Chicago PMI",
      "eventTimeZone": "GMT",
      "eventPrevious": "52.4",
      "eventCurrency": "USD",
      "eventForecast": "52.5"
    },
    {
      "eventDateTime": "2013-04-30T14:00:00",
      "eventActual": "68.1",
      "eventCountry": "United States",
      "eventExpectedVolatility": "High",
      "eventName": "CB Consumer Confidence",
      "eventTimeZone": "GMT",
      "eventPrevious": "61.9",
      "eventCurrency": "USD",
      "eventForecast": "60.8"
    },
    {
      "eventDateTime": "2013-04-30T15:30:00",
      "eventActual": "0.025%",
      "eventCountry": "United States",
      "eventExpectedVolatility": "Low",
      "eventName": "4-Week Bill Auction",
      "eventTimeZone": "GMT",
      "eventPrevious": "0.045%",
      "eventCurrency": "USD",
      "eventForecast": ""
    },
    {
      "eventDateTime": "2013-04-30T15:30:00",
      "eventActual": "0.105%",
      "eventCountry": "United States",
      "eventExpectedVolatility": "Low",
      "eventName": "52-Week Bill Auction",
      "eventTimeZone": "GMT",
      "eventPrevious": "0.140%",
      "eventCurrency": "USD",
      "eventForecast": ""
    },
    {
      "eventDateTime": "2013-04-30T20:30:00",
      "eventActual": "5.18M",
      "eventCountry": "United States",
      "eventExpectedVolatility": "Moderate",
      "eventName": "API Weekly Crude Oil Stock",
      "eventTimeZone": "GMT",
      "eventPrevious": "-0.85M",
      "eventCurrency": "USD",
      "eventForecast": "0.85M"
    },
    {
      "eventDateTime": "2013-04-30T20:30:00",
      "eventActual": "-2.71M",
      "eventCountry": "United States",
      "eventExpectedVolatility": "Low",
      "eventName": "API Weekly Gasoline Stock",
      "eventTimeZone": "GMT",
      "eventPrevious": "-2.70M",
      "eventCurrency": "USD",
      "eventForecast": "-0.35M"
    }
  ]}}
