{"events": {"event": [
    {
      "eventDateTime": "2011-10-31T12:30:00",
      "eventActual": "0.3%",
      "eventCountry": "Canada",
      "eventExpectedVolatility": "High",
      "eventName": "GDP (MoM)",
      "eventTimeZone": "GMT",
      "eventPrevious": "0.4%",
      "eventCurrency": "CAD",
      "eventForecast": "0.2%"
    },
    {
      "eventDateTime": "2011-10-31T12:30:00",
      "eventActual": "0.4%",
      "eventCountry": "Canada",
      "eventExpectedVolatility": "Low",
      "eventName": "IPPI (MoM)",
      "eventTimeZone": "GMT",
      "eventPrevious": "0.4%",
      "eventCurrency": "CAD",
      "eventForecast": "0.1%"
    },
    {
      "eventDateTime": "2011-10-31T12:30:00",
      "eventActual": "1.4%",
      "eventCountry": "Canada",
      "eventExpectedVolatility": "Moderate",
      "eventName": "RMPI (MoM)",
      "eventTimeZone": "GMT",
      "eventPrevious": "-3.2%",
      "eventCurrency": "CAD",
      "eventForecast": "-2.4%"
    }
  ]}}
