{"events": {"event": [
    {
      "eventDateTime": "2020-01-08T11:00:00",
      "eventActual": "0.91%",
      "eventCountry": "Brazil",
      "eventExpectedVolatility": "Low",
      "eventName": "Brazilian PPI (MoM) (Nov)",
      "eventTimeZone": "GMT",
      "eventPrevious": "0.60%",
      "eventCurrency": "BRL",
      "eventForecast": ""
    },
    {
      "eventDateTime": "2020-01-08T11:00:00",
      "eventActual": "1.74%",
      "eventCountry": "Brazil",
      "eventExpectedVolatility": "Low",
      "eventName": "IGP-DI Inflation Index (MoM) (Dec)",
      "eventTimeZone": "GMT",
      "eventPrevious": "0.85%",
      "eventCurrency": "BRL",
      "eventForecast": "1.75%"
    },
    {
      "eventDateTime": "2020-01-08T16:00:00",
      "eventActual": "51.64",
      "eventCountry": "Brazil",
      "eventExpectedVolatility": "Low",
      "eventName": "Brazil Thomson Reuters IPSOS PCSI (Jan)",
      "eventTimeZone": "GMT",
      "eventPrevious": "48.70",
      "eventCurrency": "BRL",
      "eventForecast": ""
    },
    {
      "eventDateTime": "2020-01-08T17:30:00",
      "eventActual": "-0.855B",
      "eventCountry": "Brazil",
      "eventExpectedVolatility": "Low",
      "eventName": "Foreign Exchange Flows",
      "eventTimeZone": "GMT",
      "eventPrevious": "-16.097B",
      "eventCurrency": "BRL",
      "eventForecast": ""
    }
  ]}}
