{"events": {"event": [
    {
      "eventDateTime": "2014-03-07T13:30:00",
      "eventActual": "-7.0K",
      "eventCountry": "Canada",
      "eventExpectedVolatility": "High",
      "eventName": "Employment Change",
      "eventTimeZone": "GMT",
      "eventPrevious": "29.4K",
      "eventCurrency": "CAD",
      "eventForecast": "15.0K"
    },
    {
      "eventDateTime": "2014-03-07T13:30:00",
      "eventActual": "40.65B",
      "eventCountry": "Canada",
      "eventExpectedVolatility": "Low",
      "eventName": "Exports",
      "eventTimeZone": "GMT",
      "eventPrevious": "40.56B",
      "eventCurrency": "CAD",
      "eventForecast": "39.80B"
    },
    {
      "eventDateTime": "2014-03-07T13:30:00",
      "eventActual": "18.9K",
      "eventCountry": "Canada",
      "eventExpectedVolatility": "Low",
      "eventName": "Full Employment Change",
      "eventTimeZone": "GMT",
      "eventPrevious": "50.5K",
      "eventCurrency": "CAD",
      "eventForecast": ""
    },
    {
      "eventDateTime": "2014-03-07T13:30:00",
      "eventActual": "40.82B",
      "eventCountry": "Canada",
      "eventExpectedVolatility": "Low",
      "eventName": "Imports",
      "eventTimeZone": "GMT",
      "eventPrevious": "41.48B",
      "eventCurrency": "CAD",
      "eventForecast": "41.20B"
    },
    {
      "eventDateTime": "2014-03-07T13:30:00",
      "eventActual": "1.0%",
      "eventCountry": "Canada",
      "eventExpectedVolatility": "Moderate",
      "eventName": "Labor Productivity (QoQ)",
      "eventTimeZone": "GMT",
      "eventPrevious": "0.3%",
      "eventCurrency": "CAD",
      "eventForecast": "0.6%"
    },
    {
      "eventDateTime": "2014-03-07T13:30:00",
      "eventActual": "-25.9K",
      "eventCountry": "Canada",
      "eventExpectedVolatility": "Low",
      "eventName": "Part Time Employment Change",
      "eventTimeZone": "GMT",
      "eventPrevious": "-21.1K",
      "eventCurrency": "CAD",
      "eventForecast": ""
    },
    {
      "eventDateTime": "2014-03-07T13:30:00",
      "eventActual": "66.2%",
      "eventCountry": "Canada",
      "eventExpectedVolatility": "Low",
      "eventName": "Participation Rate",
      "eventTimeZone": "GMT",
      "eventPrevious": "66.3%",
      "eventCurrency": "CAD",
      "eventForecast": "66.4%"
    },
    {
      "eventDateTime": "2014-03-07T13:30:00",
      "eventActual": "-0.18B",
      "eventCountry": "Canada",
      "eventExpectedVolatility": "Moderate",
      "eventName": "Trade Balance",
      "eventTimeZone": "GMT",
      "eventPrevious": "-0.92B",
      "eventCurrency": "CAD",
      "eventForecast": "-1.60B"
    },
    {
      "eventDateTime": "2014-03-07T13:30:00",
      "eventActual": "7.0%",
      "eventCountry": "Canada",
      "eventExpectedVolatility": "Moderate",
      "eventName": "Unemployment Rate",
      "eventTimeZone": "GMT",
      "eventPrevious": "7.0%",
      "eventCurrency": "CAD",
      "eventForecast": "7.0%"
    },
    {
      "eventDateTime": "2014-03-07T20:30:00",
      "eventActual": "-61.1K",
      "eventCountry": "Canada",
      "eventExpectedVolatility": "Low",
      "eventName": "CFTC CAD speculative net positions",
      "eventTimeZone": "GMT",
      "eventPrevious": "-58.6K",
      "eventCurrency": "CAD",
      "eventForecast": ""
    }
  ]}}
