{"events": {"event": [
    {
      "eventDateTime": "2014-02-18T09:00:00",
      "eventActual": "21.3B",
      "eventCountry": "Euro Zone",
      "eventExpectedVolatility": "Low",
      "eventName": "Current Account",
      "eventTimeZone": "GMT",
      "eventPrevious": "23.3B",
      "eventCurrency": "EUR",
      "eventForecast": "21.0B"
    },
    {
      "eventDateTime": "2014-02-18T09:00:00",
      "eventActual": "33.2B",
      "eventCountry": "Euro Zone",
      "eventExpectedVolatility": "Low",
      "eventName": "Current Account n.s.a.",
      "eventTimeZone": "GMT",
      "eventPrevious": "27.2B",
      "eventCurrency": "EUR",
      "eventForecast": "20.0B"
    },
    {
      "eventDateTime": "2014-02-18T09:00:00",
      "eventActual": "3.620B",
      "eventCountry": "Italy",
      "eventExpectedVolatility": "Low",
      "eventName": "Italian Trade Balance",
      "eventTimeZone": "GMT",
      "eventPrevious": "3.091B",
      "eventCurrency": "EUR",
      "eventForecast": "2.790B"
    },
    {
      "eventDateTime": "2014-02-18T09:00:00",
      "eventActual": "0.21B",
      "eventCountry": "Italy",
      "eventExpectedVolatility": "Low",
      "eventName": "Italian Trade Balance EU",
      "eventTimeZone": "GMT",
      "eventPrevious": "0.71B",
      "eventCurrency": "EUR",
      "eventForecast": ""
    },
    {
      "eventDateTime": "2014-02-18T09:45:00",
      "eventActual": "0.681%",
      "eventCountry": "Spain",
      "eventExpectedVolatility": "Low",
      "eventName": "Spanish 12-Month Letras Auction",
      "eventTimeZone": "GMT",
      "eventPrevious": "0.726%",
      "eventCurrency": "EUR",
      "eventForecast": ""
    },
    {
      "eventDateTime": "2014-02-18T09:45:00",
      "eventActual": "0.382%",
      "eventCountry": "Spain",
      "eventExpectedVolatility": "Low",
      "eventName": "Spanish 6-Month Letras Auction",
      "eventTimeZone": "GMT",
      "eventPrevious": "0.510%",
      "eventCurrency": "EUR",
      "eventForecast": ""
    },
    {
      "eventDateTime": "2014-02-18T10:00:00",
      "eventActual": "-0.2%",
      "eventCountry": "Germany",
      "eventExpectedVolatility": "Low",
      "eventName": "German House Price Index (MoM)",
      "eventTimeZone": "GMT",
      "eventPrevious": "1.8%",
      "eventCurrency": "EUR",
      "eventForecast": ""
    },
    {
      "eventDateTime": "2014-02-18T10:00:00",
      "eventActual": "50.0",
      "eventCountry": "Germany",
      "eventExpectedVolatility": "Moderate",
      "eventName": "German ZEW Current Conditions",
      "eventTimeZone": "GMT",
      "eventPrevious": "41.2",
      "eventCurrency": "EUR",
      "eventForecast": "44.0"
    },
    {
      "eventDateTime": "2014-02-18T10:00:00",
      "eventActual": "55.7",
      "eventCountry": "Germany",
      "eventExpectedVolatility": "High",
      "eventName": "German ZEW Economic Sentiment",
      "eventTimeZone": "GMT",
      "eventPrevious": "61.7",
      "eventCurrency": "EUR",
      "eventForecast": "61.7"
    },
    {
      "eventDateTime": "2014-02-18T10:00:00",
      "eventActual": "68.5",
      "eventCountry": "Euro Zone",
      "eventExpectedVolatility": "Moderate",
      "eventName": "ZEW Economic Sentiment",
      "eventTimeZone": "GMT",
      "eventPrevious": "73.3",
      "eventCurrency": "EUR",
      "eventForecast": "73.9"
    }
  ]}}
