{"events": {"event": [
    {
      "eventDateTime": "2019-05-13T05:00:00",
      "eventActual": "-0.9%",
      "eventCountry": "Japan",
      "eventExpectedVolatility": "Low",
      "eventName": "Coincident Indicator (MoM) (Mar)",
      "eventTimeZone": "GMT",
      "eventPrevious": "0.8%",
      "eventCurrency": "JPY",
      "eventForecast": ""
    },
    {
      "eventDateTime": "2019-05-13T05:00:00",
      "eventActual": "96.3",
      "eventCountry": "Japan",
      "eventExpectedVolatility": "Low",
      "eventName": "Leading Index",
      "eventTimeZone": "GMT",
      "eventPrevious": "97.1",
      "eventCurrency": "JPY",
      "eventForecast": "96.4"
    },
    {
      "eventDateTime": "2019-05-13T05:00:00",
      "eventActual": "-0.8%",
      "eventCountry": "Japan",
      "eventExpectedVolatility": "Low",
      "eventName": "Leading Index (MoM) (Mar)",
      "eventTimeZone": "GMT",
      "eventPrevious": "0.7%",
      "eventCurrency": "JPY",
      "eventForecast": ""
    },
    {
      "eventDateTime": "2019-05-13T05:30:00",
      "eventActual": "71.3%",
      "eventCountry": "Japan",
      "eventExpectedVolatility": "Moderate",
      "eventName": "Investing.com USD/JPY Index",
      "eventTimeZone": "GMT",
      "eventPrevious": "70.2%",
      "eventCurrency": "JPY",
      "eventForecast": ""
    },
    {
      "eventDateTime": "2019-05-13T23:50:00",
      "eventActual": "1.27T",
      "eventCountry": "Japan",
      "eventExpectedVolatility": "Moderate",
      "eventName": "Adjusted Current Account",
      "eventTimeZone": "GMT",
      "eventPrevious": "1.96T",
      "eventCurrency": "JPY",
      "eventForecast": "1.71T"
    },
    {
      "eventDateTime": "2019-05-13T23:50:00",
      "eventActual": "2.4%",
      "eventCountry": "Japan",
      "eventExpectedVolatility": "Low",
      "eventName": "Bank Lending (YoY) (Apr)",
      "eventTimeZone": "GMT",
      "eventPrevious": "2.3%",
      "eventCurrency": "JPY",
      "eventForecast": "2.3%"
    },
    {
      "eventDateTime": "2019-05-13T23:50:00",
      "eventActual": "2.848T",
      "eventCountry": "Japan",
      "eventExpectedVolatility": "Moderate",
      "eventName": "Current Account n.s.a. (Mar)",
      "eventTimeZone": "GMT",
      "eventPrevious": "2.677T",
      "eventCurrency": "JPY",
      "eventForecast": "3.161T"
    }
  ]}}
