"CPI (YoY)";"India";"INR";"2014-03-12T12:00:00";"GMT";"8.79%";"8.35%";"8.10%";"Moderate"
"Industrial Production (YoY)";"India";"INR";"2014-03-12T12:00:00";"GMT";"-0.6%";"-0.6%";"0.1%";"Low"
"Manufacturing Output (MoM)";"India";"INR";"2014-03-12T12:00:00";"GMT";"-1.60%";"";"-0.70%";"Low"
