{"events": {"event": [
    {
      "eventDateTime": "2017-08-15T07:15:00",
      "eventActual": "0.0%",
      "eventCountry": "Switzerland",
      "eventExpectedVolatility": "Moderate",
      "eventName": "PPI (MoM) (Jul)",
      "eventTimeZone": "GMT",
      "eventPrevious": "-0.1%",
      "eventCurrency": "CHF",
      "eventForecast": "0.0%"
    },
    {
      "eventDateTime": "2017-08-15T07:15:00",
      "eventActual": "-0.1%",
      "eventCountry": "Switzerland",
      "eventExpectedVolatility": "Low",
      "eventName": "PPI (YoY) (Jul)",
      "eventTimeZone": "GMT",
      "eventPrevious": "-0.1%",
      "eventCurrency": "CHF",
      "eventForecast": "0.0%"
    }
  ]}}
