{"events": {"event": [
    {
      "eventDateTime": "2015-09-17T21:00:00",
      "eventActual": "-0.5%",
      "eventCountry": "South Korea",
      "eventExpectedVolatility": "Low",
      "eventName": "PPI (MoM) (Aug)",
      "eventTimeZone": "GMT",
      "eventPrevious": "-0.4%",
      "eventCurrency": "KRW",
      "eventForecast": ""
    },
    {
      "eventDateTime": "2015-09-17T21:00:00",
      "eventActual": "-4.4%",
      "eventCountry": "South Korea",
      "eventExpectedVolatility": "Low",
      "eventName": "PPI (YoY) (Aug)",
      "eventTimeZone": "GMT",
      "eventPrevious": "-4.0%",
      "eventCurrency": "KRW",
      "eventForecast": ""
    }
  ]}}
