"CPI (YoY)";"China";"CNY";"2012-03-09T01:30:00";"GMT";"4.5%";"3.6%";"3.2%";"Moderate"
"PPI (YoY)";"China";"CNY";"2012-03-09T01:30:00";"GMT";"0.7%";"0.0%";"0.0%";"Moderate"
"Fixed Asset Investment (YoY)";"China";"CNY";"2012-03-09T05:30:00";"GMT";"23.8%";"19.6%";"21.5%";"Moderate"
"Industrial Production (YoY)";"China";"CNY";"2012-03-09T05:30:00";"GMT";"12.8%";"12.4%";"11.4%";"High"
"Retail Sales (YoY)";"China";"CNY";"2012-03-09T05:30:00";"GMT";"18.1%";"17.4%";"14.7%";"Low"
"M2 Money Stock (YoY)";"China";"CNY";"2012-03-09T08:00:00";"GMT";"12.4%";"12.7%";"13.0%";"Low"
