{"events": {"event": {
    "eventDateTime": "2019-12-20T19:30:00",
    "eventActual": "-43.7K",
    "eventCountry": "Japan",
    "eventExpectedVolatility": "Moderate",
    "eventName": "CFTC JPY speculative net positions",
    "eventTimeZone": "GMT",
    "eventPrevious": "-39.6K",
    "eventCurrency": "JPY",
    "eventForecast": ""
  }}}
