{"events": {"event": [
    {
      "eventDateTime": "2016-12-22T13:30:00",
      "eventActual": "-0.4%",
      "eventCountry": "Canada",
      "eventExpectedVolatility": "Moderate",
      "eventName": "CPI (MoM) (Nov)",
      "eventTimeZone": "GMT",
      "eventPrevious": "0.2%",
      "eventCurrency": "CAD",
      "eventForecast": "-0.2%"
    },
    {
      "eventDateTime": "2016-12-22T13:30:00",
      "eventActual": "1.2%",
      "eventCountry": "Canada",
      "eventExpectedVolatility": "Low",
      "eventName": "CPI (YoY) (Nov)",
      "eventTimeZone": "GMT",
      "eventPrevious": "1.5%",
      "eventCurrency": "CAD",
      "eventForecast": "1.4%"
    },
    {
      "eventDateTime": "2016-12-22T13:30:00",
      "eventActual": "-0.5%",
      "eventCountry": "Canada",
      "eventExpectedVolatility": "High",
      "eventName": "Core CPI (MoM) (Nov)",
      "eventTimeZone": "GMT",
      "eventPrevious": "0.2%",
      "eventCurrency": "CAD",
      "eventForecast": "-0.1%"
    },
    {
      "eventDateTime": "2016-12-22T13:30:00",
      "eventActual": "1.5%",
      "eventCountry": "Canada",
      "eventExpectedVolatility": "Moderate",
      "eventName": "Core CPI (YoY) (Nov)",
      "eventTimeZone": "GMT",
      "eventPrevious": "1.7%",
      "eventCurrency": "CAD",
      "eventForecast": "1.8%"
    },
    {
      "eventDateTime": "2016-12-22T13:30:00",
      "eventActual": "1.4%",
      "eventCountry": "Canada",
      "eventExpectedVolatility": "High",
      "eventName": "Core Retail Sales (MoM) (Oct)",
      "eventTimeZone": "GMT",
      "eventPrevious": "0.3%",
      "eventCurrency": "CAD",
      "eventForecast": "0.7%"
    },
    {
      "eventDateTime": "2016-12-22T13:30:00",
      "eventActual": "1.1%",
      "eventCountry": "Canada",
      "eventExpectedVolatility": "Moderate",
      "eventName": "Retail Sales (MoM) (Oct)",
      "eventTimeZone": "GMT",
      "eventPrevious": "0.8%",
      "eventCurrency": "CAD",
      "eventForecast": "0.2%"
    }
  ]}}
