{"events": {"event": [
    {
      "eventDateTime": "2015-05-01T01:30:00",
      "eventActual": "0.1%",
      "eventCountry": "Japan",
      "eventExpectedVolatility": "Low",
      "eventName": "Average Cash Earnings (YoY)",
      "eventTimeZone": "GMT",
      "eventPrevious": "0.1%",
      "eventCurrency": "JPY",
      "eventForecast": "0.4%"
    },
    {
      "eventDateTime": "2015-05-01T01:30:00",
      "eventActual": "-2.30%",
      "eventCountry": "Japan",
      "eventExpectedVolatility": "Low",
      "eventName": "Overtime Pay (YoY) (Mar)",
      "eventTimeZone": "GMT",
      "eventPrevious": "0.40%",
      "eventCurrency": "JPY",
      "eventForecast": ""
    },
    {
      "eventDateTime": "2015-05-01T01:35:00",
      "eventActual": "49.9",
      "eventCountry": "Japan",
      "eventExpectedVolatility": "Low",
      "eventName": "Manufacturing PMI (Apr)",
      "eventTimeZone": "GMT",
      "eventPrevious": "49.7",
      "eventCurrency": "JPY",
      "eventForecast": "49.8"
    },
    {
      "eventDateTime": "2015-05-01T19:30:00",
      "eventActual": "-5.5K",
      "eventCountry": "Japan",
      "eventExpectedVolatility": "Moderate",
      "eventName": "CFTC JPY speculative net positions",
      "eventTimeZone": "GMT",
      "eventPrevious": "-14.4K",
      "eventCurrency": "JPY",
      "eventForecast": ""
    }
  ]}}
