"HIA New Home Sales (MoM) (Oct)";"Australia";"AUD";"2018-10-05T01:00:00";"GMT";"-3.1%";"";"-2.9%";"Moderate"
"Retail Sales (MoM) (Aug)";"Australia";"AUD";"2018-10-05T01:30:00";"GMT";"0.0%";"0.3%";"0.3%";"High"
"CFTC AUD speculative net positions";"Australia";"AUD";"2018-10-05T19:30:00";"GMT";"-72.1K";"";"-71.7K";"Moderate"
