{"events": {"event": {
    "eventDateTime": "2004-03-26T09:00:00",
    "eventActual": "95.4",
    "eventCountry": "Germany",
    "eventExpectedVolatility": "High",
    "eventName": "German Ifo Business Climate Index",
    "eventTimeZone": "GMT",
    "eventPrevious": "96.4",
    "eventCurrency": "EUR",
    "eventForecast": "95.7"
  }}}
