"Unemployment Rate (Q3)";"Singapore";"SGD";"2014-12-15T02:30:00";"GMT";"1.9%";"1.9%";"2.0%";"Low"
"Retail Sales (MoM) (Oct)";"Singapore";"SGD";"2014-12-15T05:00:00";"GMT";"-0.4%";"-1.6%";"-1.3%";"Low"
"Retail Sales (YoY) (Oct)";"Singapore";"SGD";"2014-12-15T05:00:00";"GMT";"5.5%";"7.2%";"8.1%";"Low"
