{"events": {"event": [
    {
      "eventDateTime": "2012-03-02T13:30:00",
      "eventActual": "0.4%",
      "eventCountry": "Canada",
      "eventExpectedVolatility": "High",
      "eventName": "GDP (MoM)",
      "eventTimeZone": "GMT",
      "eventPrevious": "-0.1%",
      "eventCurrency": "CAD",
      "eventForecast": "0.3%"
    },
    {
      "eventDateTime": "2012-03-02T20:30:00",
      "eventActual": "22.5K",
      "eventCountry": "Canada",
      "eventExpectedVolatility": "Low",
      "eventName": "CFTC CAD speculative net positions",
      "eventTimeZone": "GMT",
      "eventPrevious": "14.1K",
      "eventCurrency": "CAD",
      "eventForecast": ""
    }
  ]}}
