{"events": {"event": [
    {
      "eventDateTime": "2019-12-02T09:00:00",
      "eventActual": "47.7",
      "eventCountry": "South Africa",
      "eventExpectedVolatility": "Low",
      "eventName": "Manufacturing PMI",
      "eventTimeZone": "GMT",
      "eventPrevious": "48.1",
      "eventCurrency": "ZAR",
      "eventForecast": ""
    },
    {
      "eventDateTime": "2019-12-02T12:00:00",
      "eventActual": "44.74K",
      "eventCountry": "South Africa",
      "eventExpectedVolatility": "Low",
      "eventName": "Total Vehicle Sales (Nov)",
      "eventTimeZone": "GMT",
      "eventPrevious": "51.97K",
      "eventCurrency": "ZAR",
      "eventForecast": ""
    },
    {
      "eventDateTime": "2019-12-02T12:00:00",
      "eventActual": "-5.80%",
      "eventCountry": "South Africa",
      "eventExpectedVolatility": "Low",
      "eventName": "Total Vehicle Sales (YoY) (Nov)",
      "eventTimeZone": "GMT",
      "eventPrevious": "0.20%",
      "eventCurrency": "ZAR",
      "eventForecast": "-3.50%"
    }
  ]}}
