{"events": {"event": {
    "eventDateTime": "2008-12-09T14:00:00",
    "eventActual": "1.50%",
    "eventCountry": "Canada",
    "eventExpectedVolatility": "High",
    "eventName": "BoC Interest Rate Decision",
    "eventTimeZone": "GMT",
    "eventPrevious": "2.25%",
    "eventCurrency": "CAD",
    "eventForecast": "1.75%"
  }}}
