"Fed Chairman Bernanke Speaks";"United States";"USD";"2008-08-22T14:00:00";"GMT";" ";"";"";"High"
"U.S. Baker Hughes Oil Rig Count";"United States";"USD";"2008-08-22T17:00:00";"GMT";"395";"";"395";"Moderate"
"CFTC Gold speculative net positions";"United States";"USD";"2008-08-22T19:30:00";"GMT";"130.7K";"";"112.4K";"Moderate"
"CFTC Silver speculative net positions";"United States";"USD";"2008-08-22T19:30:00";"GMT";"36.0K";"";"31.6K";"Low"
"CFTC Crude Oil speculative net positions";"United States";"USD";"2008-08-22T20:30:00";"GMT";"-9.1k";"";"11.7k";"Moderate"
