{"events": {"event": [
    {
      "eventDateTime": "2014-08-20T08:00:00",
      "eventActual": "0.8%",
      "eventCountry": "South Africa",
      "eventExpectedVolatility": "Moderate",
      "eventName": "CPI (MoM)",
      "eventTimeZone": "GMT",
      "eventPrevious": "0.3%",
      "eventCurrency": "ZAR",
      "eventForecast": "0.9%"
    },
    {
      "eventDateTime": "2014-08-20T08:00:00",
      "eventActual": "6.3%",
      "eventCountry": "South Africa",
      "eventExpectedVolatility": "Low",
      "eventName": "CPI (YoY)",
      "eventTimeZone": "GMT",
      "eventPrevious": "6.6%",
      "eventCurrency": "ZAR",
      "eventForecast": "6.4%"
    },
    {
      "eventDateTime": "2014-08-20T08:00:00",
      "eventActual": "0.50%",
      "eventCountry": "South Africa",
      "eventExpectedVolatility": "Moderate",
      "eventName": "Core CPI (MoM)",
      "eventTimeZone": "GMT",
      "eventPrevious": "0.60%",
      "eventCurrency": "ZAR",
      "eventForecast": "0.50%"
    },
    {
      "eventDateTime": "2014-08-20T08:00:00",
      "eventActual": "5.70%",
      "eventCountry": "South Africa",
      "eventExpectedVolatility": "Low",
      "eventName": "Core CPI (YoY)",
      "eventTimeZone": "GMT",
      "eventPrevious": "5.60%",
      "eventCurrency": "ZAR",
      "eventForecast": "5.60%"
    }
  ]}}
