{"events": {"event": {
    "eventDateTime": "2017-04-18T01:30:00",
    "eventActual": "11.3%",
    "eventCountry": "China",
    "eventExpectedVolatility": "Low",
    "eventName": "House Prices (YoY) (Mar)",
    "eventTimeZone": "GMT",
    "eventPrevious": "11.8%",
    "eventCurrency": "CNY",
    "eventForecast": ""
  }}}
