{"events": {"event": [
    {
      "eventDateTime": "2014-09-18T13:00:00",
      "eventActual": "5.75%",
      "eventCountry": "South Africa",
      "eventExpectedVolatility": "Moderate",
      "eventName": "Interest Rate Decision",
      "eventTimeZone": "GMT",
      "eventPrevious": "5.75%",
      "eventCurrency": "ZAR",
      "eventForecast": "5.75%"
    },
    {
      "eventDateTime": "2014-09-18T13:00:00",
      "eventActual": "9.25%",
      "eventCountry": "South Africa",
      "eventExpectedVolatility": "Low",
      "eventName": "Prime Rate",
      "eventTimeZone": "GMT",
      "eventPrevious": "9.25%",
      "eventCurrency": "ZAR",
      "eventForecast": ""
    }
  ]}}
