{"events": {"event": {
    "eventDateTime": "2018-07-03T08:30:00",
    "eventActual": "12.9%",
    "eventCountry": "Hong Kong",
    "eventExpectedVolatility": "Low",
    "eventName": "Retail Sales (YoY) (May)",
    "eventTimeZone": "GMT",
    "eventPrevious": "12.3%",
    "eventCurrency": "HKD",
    "eventForecast": ""
  }}}
