{"events": {"event": [
    {
      "eventDateTime": "2012-02-13T07:00:00",
      "eventActual": "1.2%",
      "eventCountry": "Germany",
      "eventExpectedVolatility": "Low",
      "eventName": "German WPI (MoM)",
      "eventTimeZone": "GMT",
      "eventPrevious": "0.0%",
      "eventCurrency": "EUR",
      "eventForecast": "0.4%"
    },
    {
      "eventDateTime": "2012-02-13T10:30:00",
      "eventActual": "0.076%",
      "eventCountry": "Germany",
      "eventExpectedVolatility": "Low",
      "eventName": "German 6-Month Bubill Auction",
      "eventTimeZone": "GMT",
      "eventPrevious": "-0.012%",
      "eventCurrency": "EUR",
      "eventForecast": ""
    }
  ]}}
