{"events": {"event": {
    "eventDateTime": "2010-11-12T10:00:00",
    "eventActual": "11.8%",
    "eventCountry": "Brazil",
    "eventExpectedVolatility": "Moderate",
    "eventName": "Retail Sales (YoY)",
    "eventTimeZone": "GMT",
    "eventPrevious": "10.4%",
    "eventCurrency": "BRL",
    "eventForecast": "10.3%"
  }}}
