{"events": {"event": [
    {
      "eventDateTime": "2005-04-01T09:00:00",
      "eventActual": "12.00%",
      "eventCountry": "Russia",
      "eventExpectedVolatility": "Low",
      "eventName": "Budget Balance % of GDP (Mar)",
      "eventTimeZone": "GMT",
      "eventPrevious": "11.00%",
      "eventCurrency": "RUB",
      "eventForecast": ""
    },
    {
      "eventDateTime": "2005-04-01T09:00:00",
      "eventActual": "1.30%",
      "eventCountry": "Russia",
      "eventExpectedVolatility": "Moderate",
      "eventName": "CPI (MoM) (Mar)",
      "eventTimeZone": "GMT",
      "eventPrevious": "1.30%",
      "eventCurrency": "RUB",
      "eventForecast": ""
    },
    {
      "eventDateTime": "2005-04-01T09:00:00",
      "eventActual": "13.60%",
      "eventCountry": "Russia",
      "eventExpectedVolatility": "Moderate",
      "eventName": "CPI (YoY) (Mar)",
      "eventTimeZone": "GMT",
      "eventPrevious": "13.00%",
      "eventCurrency": "RUB",
      "eventForecast": ""
    },
    {
      "eventDateTime": "2005-04-01T09:00:00",
      "eventActual": "137.40B",
      "eventCountry": "Russia",
      "eventExpectedVolatility": "Moderate",
      "eventName": "Central Bank reserves (USD) (Mar)",
      "eventTimeZone": "GMT",
      "eventPrevious": "134.40B",
      "eventCurrency": "RUB",
      "eventForecast": ""
    },
    {
      "eventDateTime": "2005-04-01T09:00:00",
      "eventActual": "5.20%",
      "eventCountry": "Russia",
      "eventExpectedVolatility": "Low",
      "eventName": "Industrial Production (YoY) (Mar)",
      "eventTimeZone": "GMT",
      "eventPrevious": "6.20%",
      "eventCurrency": "RUB",
      "eventForecast": ""
    },
    {
      "eventDateTime": "2005-04-01T09:00:00",
      "eventActual": "6.50%",
      "eventCountry": "Russia",
      "eventExpectedVolatility": "High",
      "eventName": "Interest Rate Decision (Mar)",
      "eventTimeZone": "GMT",
      "eventPrevious": "6.50%",
      "eventCurrency": "RUB",
      "eventForecast": ""
    },
    {
      "eventDateTime": "2005-04-01T09:00:00",
      "eventActual": "2.50%",
      "eventCountry": "Russia",
      "eventExpectedVolatility": "Low",
      "eventName": "PPI (MoM) (Mar)",
      "eventTimeZone": "GMT",
      "eventPrevious": "1.30%",
      "eventCurrency": "RUB",
      "eventForecast": ""
    },
    {
      "eventDateTime": "2005-04-01T09:00:00",
      "eventActual": "19.40%",
      "eventCountry": "Russia",
      "eventExpectedVolatility": "Low",
      "eventName": "PPI (YoY) (Mar)",
      "eventTimeZone": "GMT",
      "eventPrevious": "17.30%",
      "eventCurrency": "RUB",
      "eventForecast": ""
    },
    {
      "eventDateTime": "2005-04-01T09:00:00",
      "eventActual": "9.53B",
      "eventCountry": "Russia",
      "eventExpectedVolatility": "Low",
      "eventName": "Trade Balance (Mar)",
      "eventTimeZone": "GMT",
      "eventPrevious": "7.52B",
      "eventCurrency": "RUB",
      "eventForecast": ""
    },
    {
      "eventDateTime": "2005-04-01T09:00:00",
      "eventActual": "8.00%",
      "eventCountry": "Russia",
      "eventExpectedVolatility": "Moderate",
      "eventName": "Unemployment Rate (Mar)",
      "eventTimeZone": "GMT",
      "eventPrevious": "8.30%",
      "eventCurrency": "RUB",
      "eventForecast": ""
    }
  ]}}
