"Investing.com USD/CAD Index";"Canada";"CAD";"2019-04-01T05:30:00";"GMT";"57.1%";"";"53.2%";"Moderate"
"RBC Manufacturing PMI (Mar)";"Canada";"CAD";"2019-04-01T13:30:00";"GMT";"52.6";"52.8";"50.5";"Low"
"BoC Gov Poloz Speaks";"Canada";"CAD";"2019-04-01T18:55:00";"GMT";" ";"";"";"High"
