"Unemployment Rate n.s.a. (Dec)";"Switzerland";"CHF";"2019-01-08T06:45:00";"GMT";"2.5%";"";"2.7%";"Moderate"
"Unemployment Rate s.a. (Dec)";"Switzerland";"CHF";"2019-01-08T06:45:00";"GMT";"2.4%";"2.4%";"2.4%";"Moderate"
"Retail Sales (YoY) (Nov)";"Switzerland";"CHF";"2019-01-08T07:30:00";"GMT";"1.0%";"-0.7%";"-0.5%";"Moderate"
