{"events": {"event": {
    "eventDateTime": "2016-09-02T19:30:00",
    "eventActual": "10.7K",
    "eventCountry": "Russia",
    "eventExpectedVolatility": "Moderate",
    "eventName": "CFTC RUB speculative positions",
    "eventTimeZone": "GMT",
    "eventPrevious": "8.9K",
    "eventCurrency": "RUB",
    "eventForecast": ""
  }}}
