"Core PCE Price Index (MoM) (Jul)";"United States";"USD";"2019-08-30T12:30:00";"GMT";"0.2%";"0.3%";"0.2%";"Moderate"
"Core PCE Price Index (YoY) (Jul)";"United States";"USD";"2019-08-30T12:30:00";"GMT";"1.6%";"1.6%";"1.6%";"Moderate"
"PCE Deflator (MoM)";"United States";"USD";"2019-08-30T12:30:00";"GMT";"0.1%";"";"0.2%";"Moderate"
"PCE Deflator (YoY)";"United States";"USD";"2019-08-30T12:30:00";"GMT";"1.3%";"";"1.4%";"Moderate"
"PCE Price index (YoY)";"United States";"USD";"2019-08-30T12:30:00";"GMT";"1.4";"";"1.4";"Moderate"
"PCE price index (MoM)";"United States";"USD";"2019-08-30T12:30:00";"GMT";"0.1%";"";"0.2%";"Moderate"
"Personal Income (MoM) (Jul)";"United States";"USD";"2019-08-30T12:30:00";"GMT";"0.5%";"0.3%";"0.1%";"Low"
"Personal Spending (MoM) (Jul)";"United States";"USD";"2019-08-30T12:30:00";"GMT";"0.3%";"0.5%";"0.6%";"Moderate"
"Real Personal Consumption (MoM) (Jul)";"United States";"USD";"2019-08-30T12:30:00";"GMT";"0.2%";"";"0.4%";"Low"
"Chicago PMI (Aug)";"United States";"USD";"2019-08-30T13:45:00";"GMT";"44.4";"48.1";"50.4";"Moderate"
"Michigan 5-Year Inflation Expectations (Aug)";"United States";"USD";"2019-08-30T14:00:00";"GMT";"2.60%";"2.60%";"2.60%";"Low"
"Michigan Consumer Expectations (Aug)";"United States";"USD";"2019-08-30T14:00:00";"GMT";"82.3";"82.3";"79.9";"Moderate"
"Michigan Consumer Sentiment (Aug)";"United States";"USD";"2019-08-30T14:00:00";"GMT";"92.1";"92.1";"89.8";"Moderate"
"Michigan Current Conditions (Aug)";"United States";"USD";"2019-08-30T14:00:00";"GMT";"107.4";"107.4";"105.3";"Low"
"Michigan Inflation Expectations (Aug)";"United States";"USD";"2019-08-30T14:00:00";"GMT";"2.7%";"2.7%";"2.7%";"Low"
"U.S. Baker Hughes Oil Rig Count";"United States";"USD";"2019-08-30T17:00:00";"GMT";"754";"";"742";"Moderate"
"U.S. Baker Hughes Total Rig Count";"United States";"USD";"2019-08-30T17:00:00";"GMT";"916";"";"904";"Moderate"
"CFTC Aluminium speculative net positions";"United States";"USD";"2019-08-30T19:30:00";"GMT";"-38.0K";"";"-38.8K";"Low"
"CFTC Copper speculative net positions";"United States";"USD";"2019-08-30T19:30:00";"GMT";"-48.9K";"";"-58.5K";"Low"
"CFTC Corn speculative net positions";"United States";"USD";"2019-08-30T19:30:00";"GMT";"94.1K";"";"38.9K";"Low"
"CFTC Crude Oil speculative net positions";"United States";"USD";"2019-08-30T19:30:00";"GMT";"414.6K";"";"391.6K";"Moderate"
"CFTC Gold speculative net positions";"United States";"USD";"2019-08-30T19:30:00";"GMT";"300.0K";"";"296.8K";"Moderate"
"CFTC Nasdaq 100 speculative positions";"United States";"USD";"2019-08-30T19:30:00";"GMT";"23.6K";"";"22.9K";"Moderate"
"CFTC Natural Gas speculative net positions";"United States";"USD";"2019-08-30T19:30:00";"GMT";"-196.2K";"";"-186.6K";"Low"
"CFTC Sandamp:P 500 speculative net positions";"United States";"USD";"2019-08-30T19:30:00";"GMT";"56.6K";"";"68.5K";"Moderate"
"CFTC Silver speculative net positions";"United States";"USD";"2019-08-30T19:30:00";"GMT";"46.7K";"";"59.9K";"Low"
"CFTC Soybeans speculative net positions";"United States";"USD";"2019-08-30T19:30:00";"GMT";"-21.7K";"";"-30.0K";"Low"
"CFTC Wheat speculative net positions";"United States";"USD";"2019-08-30T19:30:00";"GMT";"7.8K";"";"16.8K";"Low"
