"German Retail Sales (MoM)";"Germany";"EUR";"2009-12-01T07:00:00";"GMT";"-0.2%";"0.6%";"0.5%";"Moderate"
"French Manufacturing PMI";"France";"EUR";"2009-12-01T08:50:00";"GMT";"54.2";"54.2";"54.4";"Moderate"
"German Manufacturing PMI";"Germany";"EUR";"2009-12-01T08:55:00";"GMT";"52.0";"52.0";"52.4";"High"
"German Unemployment Change";"Germany";"EUR";"2009-12-01T08:55:00";"GMT";"-26K";"5K";"-7K";"High"
"Business Climate (Nov)";"Euro Zone";"EUR";"2009-12-01T09:00:00";"GMT";"-1.66";"";"-1.24";"Low"
"Business and Consumer Survey (Nov)";"Euro Zone";"EUR";"2009-12-01T09:00:00";"GMT";"89.20";"";"91.50";"Low"
"CPI (MoM) (Nov)";"Euro Zone";"EUR";"2009-12-01T09:00:00";"GMT";"0.20%";"";"0.10%";"Moderate"
"CPI ex Tobacco (MoM) (Nov)";"Euro Zone";"EUR";"2009-12-01T09:00:00";"GMT";"0.23%";"";"0.10%";"Low"
"CPI ex Tobacco (YoY) (Nov)";"Euro Zone";"EUR";"2009-12-01T09:00:00";"GMT";"-0.26%";"";"0.35%";"Low"
"Consumer Inflation Expectation (Nov)";"Euro Zone";"EUR";"2009-12-01T09:00:00";"GMT";"-13.80";"";"-11.20";"Low"
"Core CPI (MoM) (Nov)";"Euro Zone";"EUR";"2009-12-01T09:00:00";"GMT";"0.30%";"";"-0.10%";"Low"
"Current Account n.s.a. (Nov)";"Euro Zone";"EUR";"2009-12-01T09:00:00";"GMT";"1.30B";"";"3.40B";"Low"
"French Business Survey (Nov)";"France";"EUR";"2009-12-01T09:00:00";"GMT";"86.00";"";"89.00";"Low"
"French Consumer Confidence (Nov)";"France";"EUR";"2009-12-01T09:00:00";"GMT";"91.00";"";"93.00";"Low"
"French Current Account (Nov)";"France";"EUR";"2009-12-01T09:00:00";"GMT";"-0.30B";"";"-2.50B";"Low"
"French Exports (Nov)";"France";"EUR";"2009-12-01T09:00:00";"GMT";"29.42B";"";"29.15B";"Low"
"French HICP (MoM) (Nov)";"France";"EUR";"2009-12-01T09:00:00";"GMT";"0.10%";"";"0.20%";"Moderate"
"French HICP (YoY) (Nov)";"France";"EUR";"2009-12-01T09:00:00";"GMT";"-0.21%";"";"0.46%";"Low"
"French Imports (Nov)";"France";"EUR";"2009-12-01T09:00:00";"GMT";"33.44B";"";"34.36B";"Low"
"French PPI (MoM) (Nov)";"France";"EUR";"2009-12-01T09:00:00";"GMT";"0.70%";"";"0.20%";"Low"
"German Business Expectations (Nov)";"Germany";"EUR";"2009-12-01T09:00:00";"GMT";"101.60";"";"104.40";"Moderate"
"German CPI (YoY) (Nov)";"Germany";"EUR";"2009-12-01T09:00:00";"GMT";"0.00%";"";"0.40%";"Low"
"German Current Assessment (Nov)";"Germany";"EUR";"2009-12-01T09:00:00";"GMT";"90.00";"";"91.00";"Moderate"
"German Exports (MoM) (Nov)";"Germany";"EUR";"2009-12-01T09:00:00";"GMT";"-0.94%";"";"3.47%";"Low"
"German HICP (MoM) (Nov)";"Germany";"EUR";"2009-12-01T09:00:00";"GMT";"0.20%";"";"-0.10%";"Low"
"German HICP (YoY) (Nov)";"Germany";"EUR";"2009-12-01T09:00:00";"GMT";"0.00%";"";"0.40%";"Low"
"German Import Price Index (YoY) (Nov)";"Germany";"EUR";"2009-12-01T09:00:00";"GMT";"-8.10%";"";"-5.00%";"Low"
"German Imports (MoM) (Nov)";"Germany";"EUR";"2009-12-01T09:00:00";"GMT";"-3.80%";"";"-2.60%";"Low"
"German PPI (YoY) (Nov)";"Germany";"EUR";"2009-12-01T09:00:00";"GMT";"-7.50%";"";"-5.90%";"Low"
"German Retail Sales (YoY) (Nov)";"Germany";"EUR";"2009-12-01T09:00:00";"GMT";"-2.30%";"";"-3.30%";"Low"
"German Unemployment (Nov)";"Germany";"EUR";"2009-12-01T09:00:00";"GMT";"3.42M";"";"3.41M";"Low"
"German Unemployment n.s.a. (Nov)";"Germany";"EUR";"2009-12-01T09:00:00";"GMT";"3.20M";"";"3.20M";"Low"
"German WPI (YoY) (Nov)";"Germany";"EUR";"2009-12-01T09:00:00";"GMT";"-7.10%";"";"-3.10%";"Low"
"German ZEW Current Conditions (Nov)";"Germany";"EUR";"2009-12-01T09:00:00";"GMT";"-72.20";"";"-65.60";"Moderate"
"Industrial Production (YoY) (Nov)";"Euro Zone";"EUR";"2009-12-01T09:00:00";"GMT";"-11.40%";"";"-7.40%";"Low"
"Industrial Sentiment (Nov)";"Euro Zone";"EUR";"2009-12-01T09:00:00";"GMT";"-21.10";"";"-18.80";"Low"
"Italian Business Confidence (Nov)";"Italy";"EUR";"2009-12-01T09:00:00";"GMT";"90.60";"";"91.40";"Low"
"Italian CPI (YoY) (Nov)";"Italy";"EUR";"2009-12-01T09:00:00";"GMT";"0.30%";"";"0.60%";"Low"
"Italian Consumer Confidence (Nov)";"Italy";"EUR";"2009-12-01T09:00:00";"GMT";"103.90";"";"104.70";"Low"
"Italian HICP (MoM) (Nov)";"Italy";"EUR";"2009-12-01T09:00:00";"GMT";"0.50%";"";"0.10%";"Low"
"Italian HICP (YoY) (Nov)";"Italy";"EUR";"2009-12-01T09:00:00";"GMT";"0.40%";"";"0.80%";"Low"
"Italian Industrial New Orders (MoM) (Nov)";"Italy";"EUR";"2009-12-01T09:00:00";"GMT";"1.45%";"";"-0.11%";"Low"
"Italian Industrial New Orders (YoY) (Nov)";"Italy";"EUR";"2009-12-01T09:00:00";"GMT";"-16.53%";"";"0.67%";"Low"
"Italian Industrial Production (YoY) (Nov)";"Italy";"EUR";"2009-12-01T09:00:00";"GMT";"-12.80%";"";"-9.40%";"Low"
"Italian Industrial Sales (MoM) (Nov)";"Italy";"EUR";"2009-12-01T09:00:00";"GMT";"-1.95%";"";"1.65%";"Low"
"Italian Industrial Sales (YoY) (Nov)";"Italy";"EUR";"2009-12-01T09:00:00";"GMT";"-18.52%";"";"-5.34%";"Low"
"Italian Monthly Unemployment Rate (Nov)";"Italy";"EUR";"2009-12-01T09:00:00";"GMT";"8.00%";"";"8.20%";"Low"
"Italian PPI (MoM) (Nov)";"Italy";"EUR";"2009-12-01T09:00:00";"GMT";"0.10%";"";"0.30%";"Low"
"Italian PPI (YoY) (Nov)";"Italy";"EUR";"2009-12-01T09:00:00";"GMT";"-5.20%";"";"-3.10%";"Low"
"Italian Retail Sales (YoY) (Nov)";"Italy";"EUR";"2009-12-01T09:00:00";"GMT";"0.38%";"";"-1.52%";"Low"
"Italian Trade Balance EU (Nov)";"Italy";"EUR";"2009-12-01T09:00:00";"GMT";"-0.60B";"";"-0.85B";"Low"
"Italian Trade Balance Non-EU (Nov)";"Italy";"EUR";"2009-12-01T09:00:00";"GMT";"0.01B";"";"-0.15B";"Low"
"Italian Wage Inflation (MoM) (Nov)";"Italy";"EUR";"2009-12-01T09:00:00";"GMT";"0.20%";"";"0.00%";"Low"
"Italian Wage Inflation (YoY) (Nov)";"Italy";"EUR";"2009-12-01T09:00:00";"GMT";"3.30%";"";"3.10%";"Low"
"Manufacturing PMI";"Euro Zone";"EUR";"2009-12-01T09:00:00";"GMT";"51.0";"51.0";"51.2";"Moderate"
"Money-M3 3-Month-Moving Average (Nov)";"Euro Zone";"EUR";"2009-12-01T09:00:00";"GMT";"0.60%";"";"0.00%";"Low"
"Net Investment Flow (Nov)";"Euro Zone";"EUR";"2009-12-01T09:00:00";"GMT";"-39.30B";"";"12.00B";"Low"
"PPI (YoY) (Nov)";"Euro Zone";"EUR";"2009-12-01T09:00:00";"GMT";"-6.50%";"";"-4.40%";"Low"
"Retail Sales (YoY) (Nov)";"Euro Zone";"EUR";"2009-12-01T09:00:00";"GMT";"-1.80%";"";"-2.80%";"Low"
"Selling Price Expectations (Nov)";"Euro Zone";"EUR";"2009-12-01T09:00:00";"GMT";"-8.20";"";"-9.40";"Low"
"Services Sentiment (Nov)";"Euro Zone";"EUR";"2009-12-01T09:00:00";"GMT";"-8.60";"";"-5.80";"Low"
"Spanish CPI (MoM) (Nov)";"Spain";"EUR";"2009-12-01T09:00:00";"GMT";"0.70%";"";"0.50%";"Low"
"Spanish CPI (YoY) (Nov)";"Spain";"EUR";"2009-12-01T09:00:00";"GMT";"-0.70%";"";"0.30%";"Moderate"
"Spanish Current account (Nov)";"Spain";"EUR";"2009-12-01T09:00:00";"GMT";"-4.41B";"";"-4.36B";"Low"
"Spanish HICP (MoM) (Nov)";"Spain";"EUR";"2009-12-01T09:00:00";"GMT";"0.70%";"";"0.50%";"Low"
"Spanish HICP (YoY) (Nov)";"Spain";"EUR";"2009-12-01T09:00:00";"GMT";"-0.60%";"";"0.40%";"Moderate"
"Spanish Industrial Production (YoY) (Nov)";"Spain";"EUR";"2009-12-01T09:00:00";"GMT";"-9.00%";"";"-5.70%";"Low"
"Spanish Retail Sales (YoY) (Nov)";"Spain";"EUR";"2009-12-01T09:00:00";"GMT";"-3.30%";"";"-5.90%";"Low"
"Unemployment Rate";"Euro Zone";"EUR";"2009-12-01T10:00:00";"GMT";"9.8%";"9.8%";"9.8%";"Moderate"
