"CPI (YoY) (Jun)";"India";"INR";"2018-07-12T12:00:00";"GMT";"4.87%";"5.30%";"5.00%";"Moderate"
"Cumulative Industrial Production (May)";"India";"INR";"2018-07-12T12:00:00";"GMT";"4.30%";"";"4.00%";"Low"
"Industrial Production (YoY) (May)";"India";"INR";"2018-07-12T12:00:00";"GMT";"4.8%";"5.2%";"3.2%";"Low"
"Manufacturing Output (MoM) (May)";"India";"INR";"2018-07-12T12:00:00";"GMT";"5.3%";"";"2.8%";"Low"
