{"events": {"event": [
    {
      "eventDateTime": "2013-07-29T23:30:00",
      "eventActual": "-0.4%",
      "eventCountry": "Japan",
      "eventExpectedVolatility": "Moderate",
      "eventName": "Household Spending (YoY)",
      "eventTimeZone": "GMT",
      "eventPrevious": "-1.6%",
      "eventCurrency": "JPY",
      "eventForecast": "1.0%"
    },
    {
      "eventDateTime": "2013-07-29T23:30:00",
      "eventActual": "3.9%",
      "eventCountry": "Japan",
      "eventExpectedVolatility": "Low",
      "eventName": "Unemployment Rate",
      "eventTimeZone": "GMT",
      "eventPrevious": "4.1%",
      "eventCurrency": "JPY",
      "eventForecast": "4.0%"
    },
    {
      "eventDateTime": "2013-07-29T23:50:00",
      "eventActual": "-3.3%",
      "eventCountry": "Japan",
      "eventExpectedVolatility": "Moderate",
      "eventName": "Industrial Production (MoM)",
      "eventTimeZone": "GMT",
      "eventPrevious": "1.9%",
      "eventCurrency": "JPY",
      "eventForecast": "-1.8%"
    }
  ]}}
