"German GDP (QoQ)";"Germany";"EUR";"2009-11-24T07:00:00";"GMT";"0.7%";"0.7%";"0.7%";"High"
"French Consumer Spending (MoM)";"France";"EUR";"2009-11-24T07:50:00";"GMT";"2.4%";"0.5%";"1.1%";"Moderate"
"German Ifo Business Climate Index";"Germany";"EUR";"2009-11-24T09:00:00";"GMT";"89.6";"";"91.0";"High"
"Industrial New Orders (MoM)";"Euro Zone";"EUR";"2009-11-24T10:00:00";"GMT";"0.6%";"0.6%";"1.5%";"Moderate"
