{"events": {"event": [
    {
      "eventDateTime": "2019-06-17T05:30:00",
      "eventActual": "65.6%",
      "eventCountry": "United States",
      "eventExpectedVolatility": "Moderate",
      "eventName": "Investing.com Gold Index",
      "eventTimeZone": "GMT",
      "eventPrevious": "68.8%",
      "eventCurrency": "USD",
      "eventForecast": ""
    },
    {
      "eventDateTime": "2019-06-17T05:30:00",
      "eventActual": "40.6%",
      "eventCountry": "United States",
      "eventExpectedVolatility": "Moderate",
      "eventName": "Investing.com Sandamp:P 500 Index",
      "eventTimeZone": "GMT",
      "eventPrevious": "51.0%",
      "eventCurrency": "USD",
      "eventForecast": ""
    },
    {
      "eventDateTime": "2019-06-17T12:30:00",
      "eventActual": "-8.60",
      "eventCountry": "United States",
      "eventExpectedVolatility": "Moderate",
      "eventName": "NY Empire State Manufacturing Index (Jun)",
      "eventTimeZone": "GMT",
      "eventPrevious": "17.80",
      "eventCurrency": "USD",
      "eventForecast": "11.00"
    },
    {
      "eventDateTime": "2019-06-17T14:00:00",
      "eventActual": "64",
      "eventCountry": "United States",
      "eventExpectedVolatility": "Low",
      "eventName": "NAHB Housing Market Index (Jun)",
      "eventTimeZone": "GMT",
      "eventPrevious": "66",
      "eventCurrency": "USD",
      "eventForecast": "67"
    },
    {
      "eventDateTime": "2019-06-17T15:30:00",
      "eventActual": "2.170%",
      "eventCountry": "United States",
      "eventExpectedVolatility": "Low",
      "eventName": "3-Month Bill Auction",
      "eventTimeZone": "GMT",
      "eventPrevious": "2.240%",
      "eventCurrency": "USD",
      "eventForecast": ""
    },
    {
      "eventDateTime": "2019-06-17T15:30:00",
      "eventActual": "2.130%",
      "eventCountry": "United States",
      "eventExpectedVolatility": "Low",
      "eventName": "6-Month Bill Auction",
      "eventTimeZone": "GMT",
      "eventPrevious": "2.140%",
      "eventCurrency": "USD",
      "eventForecast": ""
    },
    {
      "eventDateTime": "2019-06-17T20:00:00",
      "eventActual": "-7.80B",
      "eventCountry": "United States",
      "eventExpectedVolatility": "Low",
      "eventName": "Overall Net Capital Flow (Apr)",
      "eventTimeZone": "GMT",
      "eventPrevious": "-5.60B",
      "eventCurrency": "USD",
      "eventForecast": "17.00B"
    },
    {
      "eventDateTime": "2019-06-17T20:00:00",
      "eventActual": "46.9B",
      "eventCountry": "United States",
      "eventExpectedVolatility": "Moderate",
      "eventName": "TIC Net Long-Term Transactions (Apr)",
      "eventTimeZone": "GMT",
      "eventPrevious": "-25.9B",
      "eventCurrency": "USD",
      "eventForecast": "6.5B"
    },
    {
      "eventDateTime": "2019-06-17T20:00:00",
      "eventActual": "40.80B",
      "eventCountry": "United States",
      "eventExpectedVolatility": "Low",
      "eventName": "TIC Net Long-Term Transactions including Swaps (Apr)",
      "eventTimeZone": "GMT",
      "eventPrevious": "-38.30B",
      "eventCurrency": "USD",
      "eventForecast": ""
    },
    {
      "eventDateTime": "2019-06-17T20:00:00",
      "eventActual": "16.90B",
      "eventCountry": "United States",
      "eventExpectedVolatility": "Low",
      "eventName": "US Foreign Buying, T-bonds (Apr)",
      "eventTimeZone": "GMT",
      "eventPrevious": "-12.50B",
      "eventCurrency": "USD",
      "eventForecast": ""
    }
  ]}}
