{"events": {"event": [
    {
      "eventDateTime": "2013-09-10T03:45:00",
      "eventActual": "1.803%",
      "eventCountry": "Japan",
      "eventExpectedVolatility": "Low",
      "eventName": "30-Year JGB Auction",
      "eventTimeZone": "GMT",
      "eventPrevious": "1.791%",
      "eventCurrency": "JPY",
      "eventForecast": ""
    },
    {
      "eventDateTime": "2013-09-10T06:00:00",
      "eventActual": "-1.8%",
      "eventCountry": "Japan",
      "eventExpectedVolatility": "Low",
      "eventName": "Machine Tool Orders (YoY)",
      "eventTimeZone": "GMT",
      "eventPrevious": "-12.1%",
      "eventCurrency": "JPY",
      "eventForecast": ""
    },
    {
      "eventDateTime": "2013-09-10T23:50:00",
      "eventActual": "15.2",
      "eventCountry": "Japan",
      "eventExpectedVolatility": "Moderate",
      "eventName": "BSI Large Manufacturing Conditions",
      "eventTimeZone": "GMT",
      "eventPrevious": "5.0",
      "eventCurrency": "JPY",
      "eventForecast": "7.2"
    },
    {
      "eventDateTime": "2013-09-10T23:50:00",
      "eventActual": "0.3%",
      "eventCountry": "Japan",
      "eventExpectedVolatility": "Low",
      "eventName": "PPI (MoM)",
      "eventTimeZone": "GMT",
      "eventPrevious": "0.5%",
      "eventCurrency": "JPY",
      "eventForecast": "0.4%"
    },
    {
      "eventDateTime": "2013-09-10T23:50:00",
      "eventActual": "2.4%",
      "eventCountry": "Japan",
      "eventExpectedVolatility": "Low",
      "eventName": "PPI (YoY)",
      "eventTimeZone": "GMT",
      "eventPrevious": "2.2%",
      "eventCurrency": "JPY",
      "eventForecast": "2.4%"
    }
  ]}}
