"CPI (YoY)";"China";"CNY";"2011-08-09T02:00:00";"GMT";"6.4%";"6.4%";"6.5%";"Moderate"
"PPI (YoY)";"China";"CNY";"2011-08-09T02:00:00";"GMT";"7.1%";"7.5%";"7.5%";"Moderate"
"Fixed Asset Investment (YoY)";"China";"CNY";"2011-08-09T07:40:00";"GMT";"25.6%";"25.5%";"25.4%";"Moderate"
"Industrial Production (YoY)";"China";"CNY";"2011-08-09T07:40:00";"GMT";"15.1%";"14.6%";"14.0%";"High"
"Retail Sales (YoY)";"China";"CNY";"2011-08-09T08:10:00";"GMT";"17.7%";"17.7%";"17.2%";"Low"
