{"events": {"event": [
    {
      "eventDateTime": "2014-05-29T09:30:00",
      "eventActual": "-2",
      "eventCountry": "Russia",
      "eventExpectedVolatility": "Low",
      "eventName": "Business Confidence",
      "eventTimeZone": "GMT",
      "eventPrevious": "-3",
      "eventCurrency": "RUB",
      "eventForecast": "-5"
    },
    {
      "eventDateTime": "2014-05-29T11:00:00",
      "eventActual": "468.40B",
      "eventCountry": "Russia",
      "eventExpectedVolatility": "Moderate",
      "eventName": "Central Bank reserves (USD)",
      "eventTimeZone": "GMT",
      "eventPrevious": "466.80B",
      "eventCurrency": "RUB",
      "eventForecast": ""
    }
  ]}}
