{"events": {"event": [
    {
      "eventDateTime": "2015-03-31T05:00:00",
      "eventActual": "1.0%",
      "eventCountry": "Japan",
      "eventExpectedVolatility": "Low",
      "eventName": "Construction Orders (YoY) (Feb)",
      "eventTimeZone": "GMT",
      "eventPrevious": "27.5%",
      "eventCurrency": "JPY",
      "eventForecast": ""
    },
    {
      "eventDateTime": "2015-03-31T05:00:00",
      "eventActual": "-3.1%",
      "eventCountry": "Japan",
      "eventExpectedVolatility": "Low",
      "eventName": "Housing Starts (YoY) (Feb)",
      "eventTimeZone": "GMT",
      "eventPrevious": "-13.0%",
      "eventCurrency": "JPY",
      "eventForecast": "-7.1%"
    },
    {
      "eventDateTime": "2015-03-31T23:50:00",
      "eventActual": "-1.2%",
      "eventCountry": "Japan",
      "eventExpectedVolatility": "Moderate",
      "eventName": "Tankan All Big Industry CAPEX (Q1)",
      "eventTimeZone": "GMT",
      "eventPrevious": "8.9%",
      "eventCurrency": "JPY",
      "eventForecast": "0.5%"
    },
    {
      "eventDateTime": "2015-03-31T23:50:00",
      "eventActual": "-21.2%",
      "eventCountry": "Japan",
      "eventExpectedVolatility": "Low",
      "eventName": "Tankan All Small Industry CAPEX (Q1)",
      "eventTimeZone": "GMT",
      "eventPrevious": "-6.7%",
      "eventCurrency": "JPY",
      "eventForecast": "-16.5%"
    },
    {
      "eventDateTime": "2015-03-31T23:50:00",
      "eventActual": "10",
      "eventCountry": "Japan",
      "eventExpectedVolatility": "Moderate",
      "eventName": "Tankan Big Manufacturing Outlook Index (Q1)",
      "eventTimeZone": "GMT",
      "eventPrevious": "9",
      "eventCurrency": "JPY",
      "eventForecast": "16"
    },
    {
      "eventDateTime": "2015-03-31T23:50:00",
      "eventActual": "12",
      "eventCountry": "Japan",
      "eventExpectedVolatility": "High",
      "eventName": "Tankan Large Manufacturers Index (Q1)",
      "eventTimeZone": "GMT",
      "eventPrevious": "12",
      "eventCurrency": "JPY",
      "eventForecast": "14"
    },
    {
      "eventDateTime": "2015-03-31T23:50:00",
      "eventActual": "17",
      "eventCountry": "Japan",
      "eventExpectedVolatility": "Low",
      "eventName": "Tankan Large Non-Manufacturers Diffusion Index (Q1)",
      "eventTimeZone": "GMT",
      "eventPrevious": "15",
      "eventCurrency": "JPY",
      "eventForecast": "17"
    },
    {
      "eventDateTime": "2015-03-31T23:50:00",
      "eventActual": "19",
      "eventCountry": "Japan",
      "eventExpectedVolatility": "High",
      "eventName": "Tankan Large Non-Manufacturers Index (Q1)",
      "eventTimeZone": "GMT",
      "eventPrevious": "16",
      "eventCurrency": "JPY",
      "eventForecast": "17"
    },
    {
      "eventDateTime": "2015-03-31T23:50:00",
      "eventActual": "0",
      "eventCountry": "Japan",
      "eventExpectedVolatility": "Low",
      "eventName": "Tankan Small Manufacturers Diffusion Index (Q1)",
      "eventTimeZone": "GMT",
      "eventPrevious": "-5",
      "eventCurrency": "JPY",
      "eventForecast": "4"
    },
    {
      "eventDateTime": "2015-03-31T23:50:00",
      "eventActual": "1",
      "eventCountry": "Japan",
      "eventExpectedVolatility": "Low",
      "eventName": "Tankan Small Manufacturing Index (Q1)",
      "eventTimeZone": "GMT",
      "eventPrevious": "1",
      "eventCurrency": "JPY",
      "eventForecast": "3"
    },
    {
      "eventDateTime": "2015-03-31T23:50:00",
      "eventActual": "-1",
      "eventCountry": "Japan",
      "eventExpectedVolatility": "Low",
      "eventName": "Tankan Small Non-Manufacturers Diffusion Index (Q1)",
      "eventTimeZone": "GMT",
      "eventPrevious": "-4",
      "eventCurrency": "JPY",
      "eventForecast": ""
    },
    {
      "eventDateTime": "2015-03-31T23:50:00",
      "eventActual": "3",
      "eventCountry": "Japan",
      "eventExpectedVolatility": "Low",
      "eventName": "Tankan Small Non-Manufacturing Index (Q1)",
      "eventTimeZone": "GMT",
      "eventPrevious": "-1",
      "eventCurrency": "JPY",
      "eventForecast": ""
    }
  ]}}
