"Federal Fiscal Deficit (Nov)";"India";"INR";"2016-12-30T10:30:00";"GMT";"4,235.07B";"";"4,579.96B";"Low"
"Foreign Debt (USD) (Q3)";"India";"INR";"2016-12-30T10:54:00";"GMT";"479.7B";"";"484.3B";"Low"
"FX Reserves, USD";"India";"INR";"2016-12-30T11:30:00";"GMT";"360.61B";"";"359.67B";"Low"
"Infrastructure Output (YoY) (Nov)";"India";"INR";"2016-12-30T11:30:00";"GMT";"6.6%";"";"4.9%";"Low"
