"MBA Mortgage Applications (WoW)";"United States";"USD";"2012-05-09T11:00:00";"GMT";"0.1%";"";"1.7%";"Low"
"Bankruptcy Filings (YoY)";"United States";"USD";"2012-05-09T12:00:00";"GMT";"-15.20%";"";"-11.80%";"Low"
"Wholesale Inventories (MoM)";"United States";"USD";"2012-05-09T14:00:00";"GMT";"0.9%";"0.6%";"0.3%";"Low"
"Crude Oil Inventories";"United States";"USD";"2012-05-09T14:30:00";"GMT";"2.840M";"1.971M";"3.652M";"High"
"Gasoline Inventories";"United States";"USD";"2012-05-09T14:30:00";"GMT";"-2.009M";"-0.046M";"-2.613M";"Low"
"10-Year Note Auction";"United States";"USD";"2012-05-09T17:00:00";"GMT";"2.043%";"";"1.855%";"Moderate"
