"PPI (QoQ) (Q3)";"Australia";"AUD";"2017-10-27T00:30:00";"GMT";"0.5%";"0.4%";"0.2%";"Moderate"
"PPI (YoY) (Q3)";"Australia";"AUD";"2017-10-27T00:30:00";"GMT";"1.7%";"";"1.6%";"Moderate"
"CFTC AUD speculative net positions";"Australia";"AUD";"2017-10-27T19:30:00";"GMT";"61.8K";"";"57.3K";"Moderate"
