{"events": {"event": [
    {
      "eventDateTime": "2019-02-01T13:30:00",
      "eventActual": "0.1%",
      "eventCountry": "United States",
      "eventExpectedVolatility": "Moderate",
      "eventName": "Average Hourly Earnings (MoM) (Jan)",
      "eventTimeZone": "GMT",
      "eventPrevious": "0.4%",
      "eventCurrency": "USD",
      "eventForecast": "0.3%"
    },
    {
      "eventDateTime": "2019-02-01T13:30:00",
      "eventActual": "3.2%",
      "eventCountry": "United States",
      "eventExpectedVolatility": "Moderate",
      "eventName": "Average Hourly Earnings (YoY) (YoY) (Jan)",
      "eventTimeZone": "GMT",
      "eventPrevious": "3.3%",
      "eventCurrency": "USD",
      "eventForecast": "3.2%"
    },
    {
      "eventDateTime": "2019-02-01T13:30:00",
      "eventActual": "34.5",
      "eventCountry": "United States",
      "eventExpectedVolatility": "Low",
      "eventName": "Average Weekly Hours (Jan)",
      "eventTimeZone": "GMT",
      "eventPrevious": "34.5",
      "eventCurrency": "USD",
      "eventForecast": "34.5"
    },
    {
      "eventDateTime": "2019-02-01T13:30:00",
      "eventActual": "8.0K",
      "eventCountry": "United States",
      "eventExpectedVolatility": "Low",
      "eventName": "Government Payrolls (Jan)",
      "eventTimeZone": "GMT",
      "eventPrevious": "16.0K",
      "eventCurrency": "USD",
      "eventForecast": ""
    },
    {
      "eventDateTime": "2019-02-01T13:30:00",
      "eventActual": "13K",
      "eventCountry": "United States",
      "eventExpectedVolatility": "Low",
      "eventName": "Manufacturing Payrolls (Jan)",
      "eventTimeZone": "GMT",
      "eventPrevious": "20K",
      "eventCurrency": "USD",
      "eventForecast": "17K"
    },
    {
      "eventDateTime": "2019-02-01T13:30:00",
      "eventActual": "304K",
      "eventCountry": "United States",
      "eventExpectedVolatility": "High",
      "eventName": "Nonfarm Payrolls (Jan)",
      "eventTimeZone": "GMT",
      "eventPrevious": "222K",
      "eventCurrency": "USD",
      "eventForecast": "165K"
    },
    {
      "eventDateTime": "2019-02-01T13:30:00",
      "eventActual": "63.2%",
      "eventCountry": "United States",
      "eventExpectedVolatility": "Moderate",
      "eventName": "Participation Rate (Jan)",
      "eventTimeZone": "GMT",
      "eventPrevious": "63.1%",
      "eventCurrency": "USD",
      "eventForecast": ""
    },
    {
      "eventDateTime": "2019-02-01T13:30:00",
      "eventActual": "-1.00",
      "eventCountry": "United States",
      "eventExpectedVolatility": "Low",
      "eventName": "Payrolls Benchmark",
      "eventTimeZone": "GMT",
      "eventPrevious": "146.00",
      "eventCurrency": "USD",
      "eventForecast": ""
    },
    {
      "eventDateTime": "2019-02-01T13:30:00",
      "eventActual": "-16.00K",
      "eventCountry": "United States",
      "eventExpectedVolatility": "Low",
      "eventName": "Payrolls Benchmark, n.s.a.",
      "eventTimeZone": "GMT",
      "eventPrevious": "138.00K",
      "eventCurrency": "USD",
      "eventForecast": ""
    },
    {
      "eventDateTime": "2019-02-01T13:30:00",
      "eventActual": "296K",
      "eventCountry": "United States",
      "eventExpectedVolatility": "Moderate",
      "eventName": "Private Nonfarm Payrolls (Jan)",
      "eventTimeZone": "GMT",
      "eventPrevious": "206K",
      "eventCurrency": "USD",
      "eventForecast": "170K"
    },
    {
      "eventDateTime": "2019-02-01T13:30:00",
      "eventActual": "8.1%",
      "eventCountry": "United States",
      "eventExpectedVolatility": "Low",
      "eventName": "U6 Unemployment Rate (Jan)",
      "eventTimeZone": "GMT",
      "eventPrevious": "7.6%",
      "eventCurrency": "USD",
      "eventForecast": ""
    },
    {
      "eventDateTime": "2019-02-01T13:30:00",
      "eventActual": "4.0%",
      "eventCountry": "United States",
      "eventExpectedVolatility": "High",
      "eventName": "Unemployment Rate (Jan)",
      "eventTimeZone": "GMT",
      "eventPrevious": "3.9%",
      "eventCurrency": "USD",
      "eventForecast": "3.9%"
    },
    {
      "eventDateTime": "2019-02-01T14:45:00",
      "eventActual": "",
      "eventCountry": "United States",
      "eventExpectedVolatility": "Moderate",
      "eventName": "FOMC Member Kaplan Speaks",
      "eventTimeZone": "GMT",
      "eventPrevious": "",
      "eventCurrency": "USD",
      "eventForecast": ""
    },
    {
      "eventDateTime": "2019-02-01T14:45:00",
      "eventActual": "54.9",
      "eventCountry": "United States",
      "eventExpectedVolatility": "Moderate",
      "eventName": "Manufacturing PMI (Jan)",
      "eventTimeZone": "GMT",
      "eventPrevious": "54.9",
      "eventCurrency": "USD",
      "eventForecast": "54.9"
    },
    {
      "eventDateTime": "2019-02-01T15:00:00",
      "eventActual": "0.8%",
      "eventCountry": "United States",
      "eventExpectedVolatility": "Low",
      "eventName": "Construction Spending (MoM) (Nov)",
      "eventTimeZone": "GMT",
      "eventPrevious": "0.1%",
      "eventCurrency": "USD",
      "eventForecast": "0.2%"
    },
    {
      "eventDateTime": "2019-02-01T15:00:00",
      "eventActual": "55.5",
      "eventCountry": "United States",
      "eventExpectedVolatility": "Moderate",
      "eventName": "ISM Manufacturing Employment (Jan)",
      "eventTimeZone": "GMT",
      "eventPrevious": "56.0",
      "eventCurrency": "USD",
      "eventForecast": ""
    },
    {
      "eventDateTime": "2019-02-01T15:00:00",
      "eventActual": "58.2",
      "eventCountry": "United States",
      "eventExpectedVolatility": "Low",
      "eventName": "ISM Manufacturing New Orders Index (Jan)",
      "eventTimeZone": "GMT",
      "eventPrevious": "51.3",
      "eventCurrency": "USD",
      "eventForecast": ""
    },
    {
      "eventDateTime": "2019-02-01T15:00:00",
      "eventActual": "56.6",
      "eventCountry": "United States",
      "eventExpectedVolatility": "High",
      "eventName": "ISM Manufacturing PMI (Jan)",
      "eventTimeZone": "GMT",
      "eventPrevious": "54.3",
      "eventCurrency": "USD",
      "eventForecast": "54.2"
    },
    {
      "eventDateTime": "2019-02-01T15:00:00",
      "eventActual": "49.6",
      "eventCountry": "United States",
      "eventExpectedVolatility": "Low",
      "eventName": "ISM Manufacturing Prices (Jan)",
      "eventTimeZone": "GMT",
      "eventPrevious": "54.9",
      "eventCurrency": "USD",
      "eventForecast": "54.5"
    },
    {
      "eventDateTime": "2019-02-01T15:00:00",
      "eventActual": "2.60%",
      "eventCountry": "United States",
      "eventExpectedVolatility": "Low",
      "eventName": "Michigan 5-Year Inflation Expectations (Jan)",
      "eventTimeZone": "GMT",
      "eventPrevious": "2.60%",
      "eventCurrency": "USD",
      "eventForecast": ""
    },
    {
      "eventDateTime": "2019-02-01T15:00:00",
      "eventActual": "79.9",
      "eventCountry": "United States",
      "eventExpectedVolatility": "Moderate",
      "eventName": "Michigan Consumer Expectations (Jan)",
      "eventTimeZone": "GMT",
      "eventPrevious": "78.3",
      "eventCurrency": "USD",
      "eventForecast": ""
    },
    {
      "eventDateTime": "2019-02-01T15:00:00",
      "eventActual": "91.2",
      "eventCountry": "United States",
      "eventExpectedVolatility": "Moderate",
      "eventName": "Michigan Consumer Sentiment (Jan)",
      "eventTimeZone": "GMT",
      "eventPrevious": "90.7",
      "eventCurrency": "USD",
      "eventForecast": "90.8"
    },
    {
      "eventDateTime": "2019-02-01T15:00:00",
      "eventActual": "108.8",
      "eventCountry": "United States",
      "eventExpectedVolatility": "Low",
      "eventName": "Michigan Current Conditions (Jan)",
      "eventTimeZone": "GMT",
      "eventPrevious": "110.0",
      "eventCurrency": "USD",
      "eventForecast": ""
    },
    {
      "eventDateTime": "2019-02-01T15:00:00",
      "eventActual": "2.7%",
      "eventCountry": "United States",
      "eventExpectedVolatility": "Low",
      "eventName": "Michigan Inflation Expectations (Jan)",
      "eventTimeZone": "GMT",
      "eventPrevious": "2.7%",
      "eventCurrency": "USD",
      "eventForecast": ""
    },
    {
      "eventDateTime": "2019-02-01T15:00:00",
      "eventActual": "0.3%",
      "eventCountry": "United States",
      "eventExpectedVolatility": "Low",
      "eventName": "Wholesale Inventories (MoM) (Nov)",
      "eventTimeZone": "GMT",
      "eventPrevious": "0.8%",
      "eventCurrency": "USD",
      "eventForecast": "0.5%"
    },
    {
      "eventDateTime": "2019-02-01T18:00:00",
      "eventActual": "847",
      "eventCountry": "United States",
      "eventExpectedVolatility": "Moderate",
      "eventName": "U.S. Baker Hughes Oil Rig Count",
      "eventTimeZone": "GMT",
      "eventPrevious": "862",
      "eventCurrency": "USD",
      "eventForecast": ""
    },
    {
      "eventDateTime": "2019-02-01T18:00:00",
      "eventActual": "1,045",
      "eventCountry": "United States",
      "eventExpectedVolatility": "Moderate",
      "eventName": "U.S. Baker Hughes Total Rig Count",
      "eventTimeZone": "GMT",
      "eventPrevious": "1,059",
      "eventCurrency": "USD",
      "eventForecast": ""
    },
    {
      "eventDateTime": "2019-02-01T20:30:00",
      "eventActual": "-58.5K",
      "eventCountry": "United States",
      "eventExpectedVolatility": "Low",
      "eventName": "CFTC Aluminium speculative net positions",
      "eventTimeZone": "GMT",
      "eventPrevious": "9.5K",
      "eventCurrency": "USD",
      "eventForecast": ""
    },
    {
      "eventDateTime": "2019-02-01T20:30:00",
      "eventActual": "-9.9K",
      "eventCountry": "United States",
      "eventExpectedVolatility": "Low",
      "eventName": "CFTC Copper speculative net positions",
      "eventTimeZone": "GMT",
      "eventPrevious": "-2.7K",
      "eventCurrency": "USD",
      "eventForecast": ""
    },
    {
      "eventDateTime": "2019-02-01T20:30:00",
      "eventActual": "183.8K",
      "eventCountry": "United States",
      "eventExpectedVolatility": "Low",
      "eventName": "CFTC Corn speculative net positions",
      "eventTimeZone": "GMT",
      "eventPrevious": "203.1K",
      "eventCurrency": "USD",
      "eventForecast": ""
    },
    {
      "eventDateTime": "2019-02-01T20:30:00",
      "eventActual": "306.3K",
      "eventCountry": "United States",
      "eventExpectedVolatility": "Moderate",
      "eventName": "CFTC Crude Oil speculative net positions",
      "eventTimeZone": "GMT",
      "eventPrevious": "309.6K",
      "eventCurrency": "USD",
      "eventForecast": ""
    },
    {
      "eventDateTime": "2019-02-01T20:30:00",
      "eventActual": "111.0K",
      "eventCountry": "United States",
      "eventExpectedVolatility": "Moderate",
      "eventName": "CFTC Gold speculative net positions",
      "eventTimeZone": "GMT",
      "eventPrevious": "76.0K",
      "eventCurrency": "USD",
      "eventForecast": ""
    },
    {
      "eventDateTime": "2019-02-01T20:30:00",
      "eventActual": "9.6K",
      "eventCountry": "United States",
      "eventExpectedVolatility": "Low",
      "eventName": "CFTC Natural Gas speculative net positions",
      "eventTimeZone": "GMT",
      "eventPrevious": "15.3K",
      "eventCurrency": "USD",
      "eventForecast": ""
    },
    {
      "eventDateTime": "2019-02-01T20:30:00",
      "eventActual": "170.2K",
      "eventCountry": "United States",
      "eventExpectedVolatility": "Moderate",
      "eventName": "CFTC Sandamp:P 500 speculative net positions",
      "eventTimeZone": "GMT",
      "eventPrevious": "210.3K",
      "eventCurrency": "USD",
      "eventForecast": ""
    },
    {
      "eventDateTime": "2019-02-01T20:30:00",
      "eventActual": "25.6K",
      "eventCountry": "United States",
      "eventExpectedVolatility": "Low",
      "eventName": "CFTC Silver speculative net positions",
      "eventTimeZone": "GMT",
      "eventPrevious": "19.8K",
      "eventCurrency": "USD",
      "eventForecast": ""
    },
    {
      "eventDateTime": "2019-02-01T20:30:00",
      "eventActual": "4.1K",
      "eventCountry": "United States",
      "eventExpectedVolatility": "Low",
      "eventName": "CFTC Soybeans speculative net positions",
      "eventTimeZone": "GMT",
      "eventPrevious": "14.5K",
      "eventCurrency": "USD",
      "eventForecast": ""
    },
    {
      "eventDateTime": "2019-02-01T20:30:00",
      "eventActual": "10.1K",
      "eventCountry": "United States",
      "eventExpectedVolatility": "Low",
      "eventName": "CFTC Wheat speculative net positions",
      "eventTimeZone": "GMT",
      "eventPrevious": "17.6K",
      "eventCurrency": "USD",
      "eventForecast": ""
    },
    {
      "eventDateTime": "2019-02-01T20:30:00",
      "eventActual": "16.70M",
      "eventCountry": "United States",
      "eventExpectedVolatility": "Low",
      "eventName": "Total Vehicle Sales",
      "eventTimeZone": "GMT",
      "eventPrevious": "17.55M",
      "eventCurrency": "USD",
      "eventForecast": "17.20M"
    }
  ]}}
