"U.S. Baker Hughes Oil Rig Count";"United States";"USD";"2010-05-21T17:00:00";"GMT";"544";"";"538";"Moderate"
"CFTC Gold speculative net positions";"United States";"USD";"2010-05-21T19:30:00";"GMT";"235.8K";"";"231.7K";"Moderate"
"CFTC Silver speculative net positions";"United States";"USD";"2010-05-21T19:30:00";"GMT";"37.6K";"";"42.8K";"Low"
"CFTC Crude Oil speculative net positions";"United States";"USD";"2010-05-21T20:30:00";"GMT";"92.9k";"";"67.4k";"Moderate"
