{"events": {"event": [
    {
      "eventDateTime": "2002-12-01T09:00:00",
      "eventActual": "-0.29",
      "eventCountry": "Euro Zone",
      "eventExpectedVolatility": "Low",
      "eventName": "Business Climate (Nov)",
      "eventTimeZone": "GMT",
      "eventPrevious": "-0.35",
      "eventCurrency": "EUR",
      "eventForecast": ""
    },
    {
      "eventDateTime": "2002-12-01T09:00:00",
      "eventActual": "94.90",
      "eventCountry": "Euro Zone",
      "eventExpectedVolatility": "Low",
      "eventName": "Business and Consumer Survey (Nov)",
      "eventTimeZone": "GMT",
      "eventPrevious": "95.40",
      "eventCurrency": "EUR",
      "eventForecast": ""
    },
    {
      "eventDateTime": "2002-12-01T09:00:00",
      "eventActual": "-0.10%",
      "eventCountry": "Euro Zone",
      "eventExpectedVolatility": "Moderate",
      "eventName": "CPI (MoM) (Nov)",
      "eventTimeZone": "GMT",
      "eventPrevious": "0.30%",
      "eventCurrency": "EUR",
      "eventForecast": ""
    },
    {
      "eventDateTime": "2002-12-01T09:00:00",
      "eventActual": "2.20%",
      "eventCountry": "Euro Zone",
      "eventExpectedVolatility": "High",
      "eventName": "CPI (YoY) (Nov)",
      "eventTimeZone": "GMT",
      "eventPrevious": "2.30%",
      "eventCurrency": "EUR",
      "eventForecast": ""
    },
    {
      "eventDateTime": "2002-12-01T09:00:00",
      "eventActual": "-0.06%",
      "eventCountry": "Euro Zone",
      "eventExpectedVolatility": "Low",
      "eventName": "CPI ex Tobacco (MoM) (Nov)",
      "eventTimeZone": "GMT",
      "eventPrevious": "0.23%",
      "eventCurrency": "EUR",
      "eventForecast": ""
    },
    {
      "eventDateTime": "2002-12-01T09:00:00",
      "eventActual": "2.22%",
      "eventCountry": "Euro Zone",
      "eventExpectedVolatility": "Low",
      "eventName": "CPI ex Tobacco (YoY) (Nov)",
      "eventTimeZone": "GMT",
      "eventPrevious": "2.22%",
      "eventCurrency": "EUR",
      "eventForecast": ""
    },
    {
      "eventDateTime": "2002-12-01T09:00:00",
      "eventActual": "-14.90",
      "eventCountry": "Euro Zone",
      "eventExpectedVolatility": "Low",
      "eventName": "Consumer Confidence (Nov)",
      "eventTimeZone": "GMT",
      "eventPrevious": "-13.00",
      "eventCurrency": "EUR",
      "eventForecast": ""
    },
    {
      "eventDateTime": "2002-12-01T09:00:00",
      "eventActual": "9.80",
      "eventCountry": "Euro Zone",
      "eventExpectedVolatility": "Low",
      "eventName": "Consumer Inflation Expectation (Nov)",
      "eventTimeZone": "GMT",
      "eventPrevious": "8.10",
      "eventCurrency": "EUR",
      "eventForecast": ""
    },
    {
      "eventDateTime": "2002-12-01T09:00:00",
      "eventActual": "0.10%",
      "eventCountry": "Euro Zone",
      "eventExpectedVolatility": "Low",
      "eventName": "Core CPI (MoM) (Nov)",
      "eventTimeZone": "GMT",
      "eventPrevious": "0.20%",
      "eventCurrency": "EUR",
      "eventForecast": ""
    },
    {
      "eventDateTime": "2002-12-01T09:00:00",
      "eventActual": "2.30%",
      "eventCountry": "Euro Zone",
      "eventExpectedVolatility": "Moderate",
      "eventName": "Core CPI (YoY) (Nov)",
      "eventTimeZone": "GMT",
      "eventPrevious": "2.30%",
      "eventCurrency": "EUR",
      "eventForecast": ""
    },
    {
      "eventDateTime": "2002-12-01T09:00:00",
      "eventActual": "7.80B",
      "eventCountry": "Euro Zone",
      "eventExpectedVolatility": "Low",
      "eventName": "Current Account n.s.a. (Nov)",
      "eventTimeZone": "GMT",
      "eventPrevious": "1.40B",
      "eventCurrency": "EUR",
      "eventForecast": ""
    },
    {
      "eventDateTime": "2002-12-01T09:00:00",
      "eventActual": "3.25%",
      "eventCountry": "Euro Zone",
      "eventExpectedVolatility": "High",
      "eventName": "ECB Interest Rate Decision (Nov)",
      "eventTimeZone": "GMT",
      "eventPrevious": "3.25%",
      "eventCurrency": "EUR",
      "eventForecast": ""
    },
    {
      "eventDateTime": "2002-12-01T09:00:00",
      "eventActual": "97.00",
      "eventCountry": "France",
      "eventExpectedVolatility": "Low",
      "eventName": "French Business Survey (Nov)",
      "eventTimeZone": "GMT",
      "eventPrevious": "96.00",
      "eventCurrency": "EUR",
      "eventForecast": ""
    },
    {
      "eventDateTime": "2002-12-01T09:00:00",
      "eventActual": "0.00%",
      "eventCountry": "France",
      "eventExpectedVolatility": "Moderate",
      "eventName": "French CPI (MoM) (Nov)",
      "eventTimeZone": "GMT",
      "eventPrevious": "0.20%",
      "eventCurrency": "EUR",
      "eventForecast": ""
    },
    {
      "eventDateTime": "2002-12-01T09:00:00",
      "eventActual": "107.00",
      "eventCountry": "France",
      "eventExpectedVolatility": "Low",
      "eventName": "French Consumer Confidence (Nov)",
      "eventTimeZone": "GMT",
      "eventPrevious": "107.00",
      "eventCurrency": "EUR",
      "eventForecast": ""
    },
    {
      "eventDateTime": "2002-12-01T09:00:00",
      "eventActual": "0.00%",
      "eventCountry": "France",
      "eventExpectedVolatility": "Moderate",
      "eventName": "French Consumer Spending (MoM) (Nov)",
      "eventTimeZone": "GMT",
      "eventPrevious": "0.60%",
      "eventCurrency": "EUR",
      "eventForecast": ""
    },
    {
      "eventDateTime": "2002-12-01T09:00:00",
      "eventActual": "27.27B",
      "eventCountry": "France",
      "eventExpectedVolatility": "Low",
      "eventName": "French Exports (Nov)",
      "eventTimeZone": "GMT",
      "eventPrevious": "27.08B",
      "eventCurrency": "EUR",
      "eventForecast": ""
    },
    {
      "eventDateTime": "2002-12-01T09:00:00",
      "eventActual": "-58.57B",
      "eventCountry": "France",
      "eventExpectedVolatility": "Low",
      "eventName": "French Government Budget Balance (Nov)",
      "eventTimeZone": "GMT",
      "eventPrevious": "-52.67B",
      "eventCurrency": "EUR",
      "eventForecast": ""
    },
    {
      "eventDateTime": "2002-12-01T09:00:00",
      "eventActual": "-0.10%",
      "eventCountry": "France",
      "eventExpectedVolatility": "Moderate",
      "eventName": "French HICP (MoM) (Nov)",
      "eventTimeZone": "GMT",
      "eventPrevious": "0.20%",
      "eventCurrency": "EUR",
      "eventForecast": ""
    },
    {
      "eventDateTime": "2002-12-01T09:00:00",
      "eventActual": "2.06%",
      "eventCountry": "France",
      "eventExpectedVolatility": "Low",
      "eventName": "French HICP (YoY) (Nov)",
      "eventTimeZone": "GMT",
      "eventPrevious": "1.87%",
      "eventCurrency": "EUR",
      "eventForecast": ""
    },
    {
      "eventDateTime": "2002-12-01T09:00:00",
      "eventActual": "27.62B",
      "eventCountry": "France",
      "eventExpectedVolatility": "Low",
      "eventName": "French Imports (Nov)",
      "eventTimeZone": "GMT",
      "eventPrevious": "26.96B",
      "eventCurrency": "EUR",
      "eventForecast": ""
    },
    {
      "eventDateTime": "2002-12-01T09:00:00",
      "eventActual": "0.50%",
      "eventCountry": "France",
      "eventExpectedVolatility": "Low",
      "eventName": "French Industrial Production (MoM) (Nov)",
      "eventTimeZone": "GMT",
      "eventPrevious": "-0.80%",
      "eventCurrency": "EUR",
      "eventForecast": ""
    },
    {
      "eventDateTime": "2002-12-01T09:00:00",
      "eventActual": "-0.30%",
      "eventCountry": "France",
      "eventExpectedVolatility": "Low",
      "eventName": "French PPI (MoM) (Nov)",
      "eventTimeZone": "GMT",
      "eventPrevious": "-0.10%",
      "eventCurrency": "EUR",
      "eventForecast": ""
    },
    {
      "eventDateTime": "2002-12-01T09:00:00",
      "eventActual": "-0.30B",
      "eventCountry": "France",
      "eventExpectedVolatility": "Low",
      "eventName": "French Trade Balance (Nov)",
      "eventTimeZone": "GMT",
      "eventPrevious": "0.10B",
      "eventCurrency": "EUR",
      "eventForecast": ""
    },
    {
      "eventDateTime": "2002-12-01T09:00:00",
      "eventActual": "93.30",
      "eventCountry": "Germany",
      "eventExpectedVolatility": "Moderate",
      "eventName": "German Business Expectations (Nov)",
      "eventTimeZone": "GMT",
      "eventPrevious": "97.30",
      "eventCurrency": "EUR",
      "eventForecast": ""
    },
    {
      "eventDateTime": "2002-12-01T09:00:00",
      "eventActual": "-0.30%",
      "eventCountry": "Germany",
      "eventExpectedVolatility": "Moderate",
      "eventName": "German CPI (MoM) (Nov)",
      "eventTimeZone": "GMT",
      "eventPrevious": "-0.10%",
      "eventCurrency": "EUR",
      "eventForecast": ""
    },
    {
      "eventDateTime": "2002-12-01T09:00:00",
      "eventActual": "1.10%",
      "eventCountry": "Germany",
      "eventExpectedVolatility": "Low",
      "eventName": "German CPI (YoY) (Nov)",
      "eventTimeZone": "GMT",
      "eventPrevious": "1.30%",
      "eventCurrency": "EUR",
      "eventForecast": ""
    },
    {
      "eventDateTime": "2002-12-01T09:00:00",
      "eventActual": "90.20",
      "eventCountry": "Germany",
      "eventExpectedVolatility": "Moderate",
      "eventName": "German Current Assessment (Nov)",
      "eventTimeZone": "GMT",
      "eventPrevious": "90.70",
      "eventCurrency": "EUR",
      "eventForecast": ""
    },
    {
      "eventDateTime": "2002-12-01T09:00:00",
      "eventActual": "3.22%",
      "eventCountry": "Germany",
      "eventExpectedVolatility": "Low",
      "eventName": "German Exports (MoM) (Nov)",
      "eventTimeZone": "GMT",
      "eventPrevious": "-2.13%",
      "eventCurrency": "EUR",
      "eventForecast": ""
    },
    {
      "eventDateTime": "2002-12-01T09:00:00",
      "eventActual": "1.60%",
      "eventCountry": "Germany",
      "eventExpectedVolatility": "Moderate",
      "eventName": "German Factory Orders (MoM) (Nov)",
      "eventTimeZone": "GMT",
      "eventPrevious": "-0.50%",
      "eventCurrency": "EUR",
      "eventForecast": ""
    },
    {
      "eventDateTime": "2002-12-01T09:00:00",
      "eventActual": "-0.40%",
      "eventCountry": "Germany",
      "eventExpectedVolatility": "Low",
      "eventName": "German HICP (MoM) (Nov)",
      "eventTimeZone": "GMT",
      "eventPrevious": "-0.10%",
      "eventCurrency": "EUR",
      "eventForecast": ""
    },
    {
      "eventDateTime": "2002-12-01T09:00:00",
      "eventActual": "1.20%",
      "eventCountry": "Germany",
      "eventExpectedVolatility": "Low",
      "eventName": "German HICP (YoY) (Nov)",
      "eventTimeZone": "GMT",
      "eventPrevious": "1.40%",
      "eventCurrency": "EUR",
      "eventForecast": ""
    },
    {
      "eventDateTime": "2002-12-01T09:00:00",
      "eventActual": "-1.10%",
      "eventCountry": "Germany",
      "eventExpectedVolatility": "Low",
      "eventName": "German Import Price Index (MoM) (Nov)",
      "eventTimeZone": "GMT",
      "eventPrevious": "0.00%",
      "eventCurrency": "EUR",
      "eventForecast": ""
    },
    {
      "eventDateTime": "2002-12-01T09:00:00",
      "eventActual": "-1.00%",
      "eventCountry": "Germany",
      "eventExpectedVolatility": "Low",
      "eventName": "German Import Price Index (YoY) (Nov)",
      "eventTimeZone": "GMT",
      "eventPrevious": "-0.10%",
      "eventCurrency": "EUR",
      "eventForecast": ""
    },
    {
      "eventDateTime": "2002-12-01T09:00:00",
      "eventActual": "-0.10%",
      "eventCountry": "Germany",
      "eventExpectedVolatility": "Low",
      "eventName": "German Imports (MoM) (Nov)",
      "eventTimeZone": "GMT",
      "eventPrevious": "-0.20%",
      "eventCurrency": "EUR",
      "eventForecast": ""
    },
    {
      "eventDateTime": "2002-12-01T09:00:00",
      "eventActual": "1.60%",
      "eventCountry": "Germany",
      "eventExpectedVolatility": "Moderate",
      "eventName": "German Industrial Production (MoM) (Nov)",
      "eventTimeZone": "GMT",
      "eventPrevious": "-1.00%",
      "eventCurrency": "EUR",
      "eventForecast": ""
    },
    {
      "eventDateTime": "2002-12-01T09:00:00",
      "eventActual": "-0.20%",
      "eventCountry": "Germany",
      "eventExpectedVolatility": "Moderate",
      "eventName": "German PPI (MoM) (Nov)",
      "eventTimeZone": "GMT",
      "eventPrevious": "0.20%",
      "eventCurrency": "EUR",
      "eventForecast": ""
    },
    {
      "eventDateTime": "2002-12-01T09:00:00",
      "eventActual": "0.20%",
      "eventCountry": "Germany",
      "eventExpectedVolatility": "Low",
      "eventName": "German PPI (YoY) (Nov)",
      "eventTimeZone": "GMT",
      "eventPrevious": "0.10%",
      "eventCurrency": "EUR",
      "eventForecast": ""
    },
    {
      "eventDateTime": "2002-12-01T09:00:00",
      "eventActual": "-0.40%",
      "eventCountry": "Germany",
      "eventExpectedVolatility": "Moderate",
      "eventName": "German Retail Sales (MoM) (Nov)",
      "eventTimeZone": "GMT",
      "eventPrevious": "-1.20%",
      "eventCurrency": "EUR",
      "eventForecast": ""
    },
    {
      "eventDateTime": "2002-12-01T09:00:00",
      "eventActual": "-3.90%",
      "eventCountry": "Germany",
      "eventExpectedVolatility": "Low",
      "eventName": "German Retail Sales (YoY) (Nov)",
      "eventTimeZone": "GMT",
      "eventPrevious": "0.60%",
      "eventCurrency": "EUR",
      "eventForecast": ""
    },
    {
      "eventDateTime": "2002-12-01T09:00:00",
      "eventActual": "13.00B",
      "eventCountry": "Germany",
      "eventExpectedVolatility": "Moderate",
      "eventName": "German Trade Balance (Nov)",
      "eventTimeZone": "GMT",
      "eventPrevious": "11.20B",
      "eventCurrency": "EUR",
      "eventForecast": ""
    },
    {
      "eventDateTime": "2002-12-01T09:00:00",
      "eventActual": "4.21M",
      "eventCountry": "Germany",
      "eventExpectedVolatility": "Low",
      "eventName": "German Unemployment (Nov)",
      "eventTimeZone": "GMT",
      "eventPrevious": "4.15M",
      "eventCurrency": "EUR",
      "eventForecast": ""
    },
    {
      "eventDateTime": "2002-12-01T09:00:00",
      "eventActual": "62.00K",
      "eventCountry": "Germany",
      "eventExpectedVolatility": "High",
      "eventName": "German Unemployment Change (Nov)",
      "eventTimeZone": "GMT",
      "eventPrevious": "41.00K",
      "eventCurrency": "EUR",
      "eventForecast": ""
    },
    {
      "eventDateTime": "2002-12-01T09:00:00",
      "eventActual": "10.10%",
      "eventCountry": "Germany",
      "eventExpectedVolatility": "Moderate",
      "eventName": "German Unemployment Rate (Nov)",
      "eventTimeZone": "GMT",
      "eventPrevious": "10.00%",
      "eventCurrency": "EUR",
      "eventForecast": ""
    },
    {
      "eventDateTime": "2002-12-01T09:00:00",
      "eventActual": "4.00M",
      "eventCountry": "Germany",
      "eventExpectedVolatility": "Low",
      "eventName": "German Unemployment n.s.a. (Nov)",
      "eventTimeZone": "GMT",
      "eventPrevious": "3.90M",
      "eventCurrency": "EUR",
      "eventForecast": ""
    },
    {
      "eventDateTime": "2002-12-01T09:00:00",
      "eventActual": "-0.80%",
      "eventCountry": "Germany",
      "eventExpectedVolatility": "Low",
      "eventName": "German WPI (MoM) (Nov)",
      "eventTimeZone": "GMT",
      "eventPrevious": "0.00%",
      "eventCurrency": "EUR",
      "eventForecast": ""
    },
    {
      "eventDateTime": "2002-12-01T09:00:00",
      "eventActual": "1.20%",
      "eventCountry": "Germany",
      "eventExpectedVolatility": "Low",
      "eventName": "German WPI (YoY) (Nov)",
      "eventTimeZone": "GMT",
      "eventPrevious": "1.10%",
      "eventCurrency": "EUR",
      "eventForecast": ""
    },
    {
      "eventDateTime": "2002-12-01T09:00:00",
      "eventActual": "-94.10",
      "eventCountry": "Germany",
      "eventExpectedVolatility": "Moderate",
      "eventName": "German ZEW Current Conditions (Nov)",
      "eventTimeZone": "GMT",
      "eventPrevious": "-90.50",
      "eventCurrency": "EUR",
      "eventForecast": ""
    },
    {
      "eventDateTime": "2002-12-01T09:00:00",
      "eventActual": "4.20",
      "eventCountry": "Germany",
      "eventExpectedVolatility": "High",
      "eventName": "German ZEW Economic Sentiment (Nov)",
      "eventTimeZone": "GMT",
      "eventPrevious": "23.40",
      "eventCurrency": "EUR",
      "eventForecast": ""
    },
    {
      "eventDateTime": "2002-12-01T09:00:00",
      "eventActual": "-2.90",
      "eventCountry": "Germany",
      "eventExpectedVolatility": "Moderate",
      "eventName": "GfK German Consumer Climate (Nov)",
      "eventTimeZone": "GMT",
      "eventPrevious": "-2.70",
      "eventCurrency": "EUR",
      "eventForecast": ""
    },
    {
      "eventDateTime": "2002-12-01T09:00:00",
      "eventActual": "0.50%",
      "eventCountry": "Euro Zone",
      "eventExpectedVolatility": "Moderate",
      "eventName": "Industrial Production (MoM) (Nov)",
      "eventTimeZone": "GMT",
      "eventPrevious": "-0.60%",
      "eventCurrency": "EUR",
      "eventForecast": ""
    },
    {
      "eventDateTime": "2002-12-01T09:00:00",
      "eventActual": "2.50%",
      "eventCountry": "Euro Zone",
      "eventExpectedVolatility": "Low",
      "eventName": "Industrial Production (YoY) (Nov)",
      "eventTimeZone": "GMT",
      "eventPrevious": "1.10%",
      "eventCurrency": "EUR",
      "eventForecast": ""
    },
    {
      "eventDateTime": "2002-12-01T09:00:00",
      "eventActual": "-8.80",
      "eventCountry": "Euro Zone",
      "eventExpectedVolatility": "Low",
      "eventName": "Industrial Sentiment (Nov)",
      "eventTimeZone": "GMT",
      "eventPrevious": "-8.80",
      "eventCurrency": "EUR",
      "eventForecast": ""
    },
    {
      "eventDateTime": "2002-12-01T09:00:00",
      "eventActual": "105.10",
      "eventCountry": "Italy",
      "eventExpectedVolatility": "Low",
      "eventName": "Italian Business Confidence (Nov)",
      "eventTimeZone": "GMT",
      "eventPrevious": "104.50",
      "eventCurrency": "EUR",
      "eventForecast": ""
    },
    {
      "eventDateTime": "2002-12-01T09:00:00",
      "eventActual": "0.20%",
      "eventCountry": "Italy",
      "eventExpectedVolatility": "Moderate",
      "eventName": "Italian CPI (MoM) (Nov)",
      "eventTimeZone": "GMT",
      "eventPrevious": "0.40%",
      "eventCurrency": "EUR",
      "eventForecast": ""
    },
    {
      "eventDateTime": "2002-12-01T09:00:00",
      "eventActual": "2.80%",
      "eventCountry": "Italy",
      "eventExpectedVolatility": "Low",
      "eventName": "Italian CPI (YoY) (Nov)",
      "eventTimeZone": "GMT",
      "eventPrevious": "2.80%",
      "eventCurrency": "EUR",
      "eventForecast": ""
    },
    {
      "eventDateTime": "2002-12-01T09:00:00",
      "eventActual": "101.70",
      "eventCountry": "Italy",
      "eventExpectedVolatility": "Low",
      "eventName": "Italian Consumer Confidence (Nov)",
      "eventTimeZone": "GMT",
      "eventPrevious": "100.70",
      "eventCurrency": "EUR",
      "eventForecast": ""
    },
    {
      "eventDateTime": "2002-12-01T09:00:00",
      "eventActual": "0.20%",
      "eventCountry": "Italy",
      "eventExpectedVolatility": "Low",
      "eventName": "Italian HICP (MoM) (Nov)",
      "eventTimeZone": "GMT",
      "eventPrevious": "0.50%",
      "eventCurrency": "EUR",
      "eventForecast": ""
    },
    {
      "eventDateTime": "2002-12-01T09:00:00",
      "eventActual": "2.80%",
      "eventCountry": "Italy",
      "eventExpectedVolatility": "Low",
      "eventName": "Italian HICP (YoY) (Nov)",
      "eventTimeZone": "GMT",
      "eventPrevious": "2.80%",
      "eventCurrency": "EUR",
      "eventForecast": ""
    },
    {
      "eventDateTime": "2002-12-01T09:00:00",
      "eventActual": "2.46%",
      "eventCountry": "Italy",
      "eventExpectedVolatility": "Low",
      "eventName": "Italian Industrial New Orders (MoM) (Nov)",
      "eventTimeZone": "GMT",
      "eventPrevious": "-3.31%",
      "eventCurrency": "EUR",
      "eventForecast": ""
    },
    {
      "eventDateTime": "2002-12-01T09:00:00",
      "eventActual": "1.08%",
      "eventCountry": "Italy",
      "eventExpectedVolatility": "Low",
      "eventName": "Italian Industrial New Orders (YoY) (Nov)",
      "eventTimeZone": "GMT",
      "eventPrevious": "1.31%",
      "eventCurrency": "EUR",
      "eventForecast": ""
    },
    {
      "eventDateTime": "2002-12-01T09:00:00",
      "eventActual": "1.30%",
      "eventCountry": "Italy",
      "eventExpectedVolatility": "Low",
      "eventName": "Italian Industrial Production (MoM) (Nov)",
      "eventTimeZone": "GMT",
      "eventPrevious": "-1.00%",
      "eventCurrency": "EUR",
      "eventForecast": ""
    },
    {
      "eventDateTime": "2002-12-01T09:00:00",
      "eventActual": "3.30%",
      "eventCountry": "Italy",
      "eventExpectedVolatility": "Low",
      "eventName": "Italian Industrial Production (YoY) (Nov)",
      "eventTimeZone": "GMT",
      "eventPrevious": "-0.40%",
      "eventCurrency": "EUR",
      "eventForecast": ""
    },
    {
      "eventDateTime": "2002-12-01T09:00:00",
      "eventActual": "0.75%",
      "eventCountry": "Italy",
      "eventExpectedVolatility": "Low",
      "eventName": "Italian Industrial Sales (MoM) (Nov)",
      "eventTimeZone": "GMT",
      "eventPrevious": "0.65%",
      "eventCurrency": "EUR",
      "eventForecast": ""
    },
    {
      "eventDateTime": "2002-12-01T09:00:00",
      "eventActual": "1.72%",
      "eventCountry": "Italy",
      "eventExpectedVolatility": "Low",
      "eventName": "Italian Industrial Sales (YoY) (Nov)",
      "eventTimeZone": "GMT",
      "eventPrevious": "2.91%",
      "eventCurrency": "EUR",
      "eventForecast": ""
    },
    {
      "eventDateTime": "2002-12-01T09:00:00",
      "eventActual": "-0.40%",
      "eventCountry": "Italy",
      "eventExpectedVolatility": "Low",
      "eventName": "Italian PPI (MoM) (Nov)",
      "eventTimeZone": "GMT",
      "eventPrevious": "0.10%",
      "eventCurrency": "EUR",
      "eventForecast": ""
    },
    {
      "eventDateTime": "2002-12-01T09:00:00",
      "eventActual": "0.70%",
      "eventCountry": "Italy",
      "eventExpectedVolatility": "Low",
      "eventName": "Italian PPI (YoY) (Nov)",
      "eventTimeZone": "GMT",
      "eventPrevious": "0.80%",
      "eventCurrency": "EUR",
      "eventForecast": ""
    },
    {
      "eventDateTime": "2002-12-01T09:00:00",
      "eventActual": "0.00%",
      "eventCountry": "Italy",
      "eventExpectedVolatility": "Low",
      "eventName": "Italian Retail Sales (MoM) (Nov)",
      "eventTimeZone": "GMT",
      "eventPrevious": "0.62%",
      "eventCurrency": "EUR",
      "eventForecast": ""
    },
    {
      "eventDateTime": "2002-12-01T09:00:00",
      "eventActual": "2.43%",
      "eventCountry": "Italy",
      "eventExpectedVolatility": "Low",
      "eventName": "Italian Retail Sales (YoY) (Nov)",
      "eventTimeZone": "GMT",
      "eventPrevious": "2.64%",
      "eventCurrency": "EUR",
      "eventForecast": ""
    },
    {
      "eventDateTime": "2002-12-01T09:00:00",
      "eventActual": "0.44B",
      "eventCountry": "Italy",
      "eventExpectedVolatility": "Low",
      "eventName": "Italian Trade Balance (Nov)",
      "eventTimeZone": "GMT",
      "eventPrevious": "1.52B",
      "eventCurrency": "EUR",
      "eventForecast": ""
    },
    {
      "eventDateTime": "2002-12-01T09:00:00",
      "eventActual": "-0.62B",
      "eventCountry": "Italy",
      "eventExpectedVolatility": "Low",
      "eventName": "Italian Trade Balance EU (Nov)",
      "eventTimeZone": "GMT",
      "eventPrevious": "0.30B",
      "eventCurrency": "EUR",
      "eventForecast": ""
    },
    {
      "eventDateTime": "2002-12-01T09:00:00",
      "eventActual": "1.05B",
      "eventCountry": "Italy",
      "eventExpectedVolatility": "Low",
      "eventName": "Italian Trade Balance Non-EU (Nov)",
      "eventTimeZone": "GMT",
      "eventPrevious": "1.22B",
      "eventCurrency": "EUR",
      "eventForecast": ""
    },
    {
      "eventDateTime": "2002-12-01T09:00:00",
      "eventActual": "0.10%",
      "eventCountry": "Italy",
      "eventExpectedVolatility": "Low",
      "eventName": "Italian Wage Inflation (MoM) (Nov)",
      "eventTimeZone": "GMT",
      "eventPrevious": "0.10%",
      "eventCurrency": "EUR",
      "eventForecast": ""
    },
    {
      "eventDateTime": "2002-12-01T09:00:00",
      "eventActual": "2.20%",
      "eventCountry": "Italy",
      "eventExpectedVolatility": "Low",
      "eventName": "Italian Wage Inflation (YoY) (Nov)",
      "eventTimeZone": "GMT",
      "eventPrevious": "2.10%",
      "eventCurrency": "EUR",
      "eventForecast": ""
    },
    {
      "eventDateTime": "2002-12-01T09:00:00",
      "eventActual": "7.10%",
      "eventCountry": "Euro Zone",
      "eventExpectedVolatility": "Low",
      "eventName": "M3 Money Supply (YoY) (Nov)",
      "eventTimeZone": "GMT",
      "eventPrevious": "6.90%",
      "eventCurrency": "EUR",
      "eventForecast": ""
    },
    {
      "eventDateTime": "2002-12-01T09:00:00",
      "eventActual": "7.00%",
      "eventCountry": "Euro Zone",
      "eventExpectedVolatility": "Low",
      "eventName": "Money-M3 3-Month-Moving Average (Nov)",
      "eventTimeZone": "GMT",
      "eventPrevious": "7.10%",
      "eventCurrency": "EUR",
      "eventForecast": ""
    },
    {
      "eventDateTime": "2002-12-01T09:00:00",
      "eventActual": "-0.40%",
      "eventCountry": "Euro Zone",
      "eventExpectedVolatility": "Low",
      "eventName": "PPI (MoM) (Nov)",
      "eventTimeZone": "GMT",
      "eventPrevious": "0.20%",
      "eventCurrency": "EUR",
      "eventForecast": ""
    },
    {
      "eventDateTime": "2002-12-01T09:00:00",
      "eventActual": "1.00%",
      "eventCountry": "Euro Zone",
      "eventExpectedVolatility": "Low",
      "eventName": "PPI (YoY) (Nov)",
      "eventTimeZone": "GMT",
      "eventPrevious": "0.90%",
      "eventCurrency": "EUR",
      "eventForecast": ""
    },
    {
      "eventDateTime": "2002-12-01T09:00:00",
      "eventActual": "4.40%",
      "eventCountry": "Euro Zone",
      "eventExpectedVolatility": "Low",
      "eventName": "Private Sector Loans (YoY) (Nov)",
      "eventTimeZone": "GMT",
      "eventPrevious": "5.00%",
      "eventCurrency": "EUR",
      "eventForecast": ""
    },
    {
      "eventDateTime": "2002-12-01T09:00:00",
      "eventActual": "-0.30%",
      "eventCountry": "Euro Zone",
      "eventExpectedVolatility": "Moderate",
      "eventName": "Retail Sales (MoM) (Nov)",
      "eventTimeZone": "GMT",
      "eventPrevious": "-0.10%",
      "eventCurrency": "EUR",
      "eventForecast": ""
    },
    {
      "eventDateTime": "2002-12-01T09:00:00",
      "eventActual": "0.50%",
      "eventCountry": "Euro Zone",
      "eventExpectedVolatility": "Low",
      "eventName": "Retail Sales (YoY) (Nov)",
      "eventTimeZone": "GMT",
      "eventPrevious": "2.90%",
      "eventCurrency": "EUR",
      "eventForecast": ""
    },
    {
      "eventDateTime": "2002-12-01T09:00:00",
      "eventActual": "-0.50",
      "eventCountry": "Euro Zone",
      "eventExpectedVolatility": "Low",
      "eventName": "Selling Price Expectations (Nov)",
      "eventTimeZone": "GMT",
      "eventPrevious": "1.50",
      "eventCurrency": "EUR",
      "eventForecast": ""
    },
    {
      "eventDateTime": "2002-12-01T09:00:00",
      "eventActual": "-5.80",
      "eventCountry": "Euro Zone",
      "eventExpectedVolatility": "Low",
      "eventName": "Services Sentiment (Nov)",
      "eventTimeZone": "GMT",
      "eventPrevious": "-5.70",
      "eventCurrency": "EUR",
      "eventForecast": ""
    },
    {
      "eventDateTime": "2002-12-01T09:00:00",
      "eventActual": "0.20%",
      "eventCountry": "Spain",
      "eventExpectedVolatility": "Low",
      "eventName": "Spanish CPI (MoM) (Nov)",
      "eventTimeZone": "GMT",
      "eventPrevious": "1.00%",
      "eventCurrency": "EUR",
      "eventForecast": ""
    },
    {
      "eventDateTime": "2002-12-01T09:00:00",
      "eventActual": "4.00%",
      "eventCountry": "Spain",
      "eventExpectedVolatility": "Moderate",
      "eventName": "Spanish CPI (YoY) (Nov)",
      "eventTimeZone": "GMT",
      "eventPrevious": "3.80%",
      "eventCurrency": "EUR",
      "eventForecast": ""
    },
    {
      "eventDateTime": "2002-12-01T09:00:00",
      "eventActual": "-1.02B",
      "eventCountry": "Spain",
      "eventExpectedVolatility": "Low",
      "eventName": "Spanish Current account (Nov)",
      "eventTimeZone": "GMT",
      "eventPrevious": "-1.82B",
      "eventCurrency": "EUR",
      "eventForecast": ""
    },
    {
      "eventDateTime": "2002-12-01T09:00:00",
      "eventActual": "0.20%",
      "eventCountry": "Spain",
      "eventExpectedVolatility": "Low",
      "eventName": "Spanish HICP (MoM) (Nov)",
      "eventTimeZone": "GMT",
      "eventPrevious": "0.90%",
      "eventCurrency": "EUR",
      "eventForecast": ""
    },
    {
      "eventDateTime": "2002-12-01T09:00:00",
      "eventActual": "3.90%",
      "eventCountry": "Spain",
      "eventExpectedVolatility": "Moderate",
      "eventName": "Spanish HICP (YoY) (Nov)",
      "eventTimeZone": "GMT",
      "eventPrevious": "4.00%",
      "eventCurrency": "EUR",
      "eventForecast": ""
    },
    {
      "eventDateTime": "2002-12-01T09:00:00",
      "eventActual": "3.00%",
      "eventCountry": "Spain",
      "eventExpectedVolatility": "Low",
      "eventName": "Spanish Industrial Production (YoY) (Nov)",
      "eventTimeZone": "GMT",
      "eventPrevious": "2.50%",
      "eventCurrency": "EUR",
      "eventForecast": ""
    },
    {
      "eventDateTime": "2002-12-01T09:00:00",
      "eventActual": "3.60%",
      "eventCountry": "Spain",
      "eventExpectedVolatility": "Low",
      "eventName": "Spanish Retail Sales (YoY) (Nov)",
      "eventTimeZone": "GMT",
      "eventPrevious": "4.90%",
      "eventCurrency": "EUR",
      "eventForecast": ""
    },
    {
      "eventDateTime": "2002-12-01T09:00:00",
      "eventActual": "7.50B",
      "eventCountry": "Euro Zone",
      "eventExpectedVolatility": "Moderate",
      "eventName": "Trade Balance (Nov)",
      "eventTimeZone": "GMT",
      "eventPrevious": "8.20B",
      "eventCurrency": "EUR",
      "eventForecast": ""
    },
    {
      "eventDateTime": "2002-12-01T09:00:00",
      "eventActual": "8.80%",
      "eventCountry": "Euro Zone",
      "eventExpectedVolatility": "Moderate",
      "eventName": "Unemployment Rate (Nov)",
      "eventTimeZone": "GMT",
      "eventPrevious": "8.80%",
      "eventCurrency": "EUR",
      "eventForecast": ""
    }
  ]}}
