{"events": {"event": [
    {
      "eventDateTime": "2015-10-07T06:00:00",
      "eventActual": "46.12B",
      "eventCountry": "South Africa",
      "eventExpectedVolatility": "Low",
      "eventName": "Foreign Reserves (USD) (Sep)",
      "eventTimeZone": "GMT",
      "eventPrevious": "46.08B",
      "eventCurrency": "ZAR",
      "eventForecast": "46.00B"
    },
    {
      "eventDateTime": "2015-10-07T06:00:00",
      "eventActual": "41.150B",
      "eventCountry": "South Africa",
      "eventExpectedVolatility": "Low",
      "eventName": "Net FX Reserves (USD) (Sep)",
      "eventTimeZone": "GMT",
      "eventPrevious": "41.244B",
      "eventCurrency": "ZAR",
      "eventForecast": "41.080B"
    }
  ]}}
