{"events": {"event": [
    {
      "eventDateTime": "2018-07-19T22:45:00",
      "eventActual": "-7.80%",
      "eventCountry": "New Zealand",
      "eventExpectedVolatility": "Low",
      "eventName": "External Migration andamp: Visitors (Jun)",
      "eventTimeZone": "GMT",
      "eventPrevious": "6.20%",
      "eventCurrency": "NZD",
      "eventForecast": ""
    },
    {
      "eventDateTime": "2018-07-19T22:45:00",
      "eventActual": "4,840",
      "eventCountry": "New Zealand",
      "eventExpectedVolatility": "Low",
      "eventName": "Permanent/Long-Term Migration (Jun)",
      "eventTimeZone": "GMT",
      "eventPrevious": "5,080",
      "eventCurrency": "NZD",
      "eventForecast": ""
    },
    {
      "eventDateTime": "2018-07-19T22:45:00",
      "eventActual": "-3.5%",
      "eventCountry": "New Zealand",
      "eventExpectedVolatility": "Low",
      "eventName": "Visitor Arrivals (MoM)",
      "eventTimeZone": "GMT",
      "eventPrevious": "2.4%",
      "eventCurrency": "NZD",
      "eventForecast": ""
    }
  ]}}
