{"events": {"event": [
    {
      "eventDateTime": "2014-11-12T00:30:00",
      "eventActual": "0.6%",
      "eventCountry": "Australia",
      "eventExpectedVolatility": "Moderate",
      "eventName": "Wage Price Index (QoQ) (Q3)",
      "eventTimeZone": "GMT",
      "eventPrevious": "0.6%",
      "eventCurrency": "AUD",
      "eventForecast": "0.6%"
    },
    {
      "eventDateTime": "2014-11-12T00:30:00",
      "eventActual": "2.6%",
      "eventCountry": "Australia",
      "eventExpectedVolatility": "Low",
      "eventName": "Wage Price Index (YoY) (Q3)",
      "eventTimeZone": "GMT",
      "eventPrevious": "2.6%",
      "eventCurrency": "AUD",
      "eventForecast": "2.6%"
    }
  ]}}
