{"events": {"event": {
    "eventDateTime": "2019-03-04T06:30:00",
    "eventActual": "53.2%",
    "eventCountry": "Japan",
    "eventExpectedVolatility": "Moderate",
    "eventName": "Investing.com USD/JPY Index",
    "eventTimeZone": "GMT",
    "eventPrevious": "54.8%",
    "eventCurrency": "JPY",
    "eventForecast": ""
  }}}
