{"events": {"event": {
    "eventDateTime": "2018-01-29T21:00:00",
    "eventActual": "80",
    "eventCountry": "South Korea",
    "eventExpectedVolatility": "Low",
    "eventName": "Manufacturing BSI Index (Feb)",
    "eventTimeZone": "GMT",
    "eventPrevious": "83",
    "eventCurrency": "KRW",
    "eventForecast": ""
  }}}
