{"events": {"event": [
    {
      "eventDateTime": "2011-06-07T14:00:00",
      "eventActual": "44.6",
      "eventCountry": "United States",
      "eventExpectedVolatility": "Low",
      "eventName": "IBD/TIPP Economic Optimism",
      "eventTimeZone": "GMT",
      "eventPrevious": "42.8",
      "eventCurrency": "USD",
      "eventForecast": "42.0"
    },
    {
      "eventDateTime": "2011-06-07T19:00:00",
      "eventActual": "6.20B",
      "eventCountry": "United States",
      "eventExpectedVolatility": "Low",
      "eventName": "Consumer Credit",
      "eventTimeZone": "GMT",
      "eventPrevious": "6.00B",
      "eventCurrency": "USD",
      "eventForecast": "5.20B"
    },
    {
      "eventDateTime": "2011-06-07T19:45:00",
      "eventActual": "",
      "eventCountry": "United States",
      "eventExpectedVolatility": "High",
      "eventName": "Fed Chairman Bernanke Speaks",
      "eventTimeZone": "GMT",
      "eventPrevious": "",
      "eventCurrency": "USD",
      "eventForecast": ""
    }
  ]}}
