{"events": {"event": {
    "eventDateTime": "2009-12-06T22:30:00",
    "eventActual": "47.6",
    "eventCountry": "Australia",
    "eventExpectedVolatility": "Low",
    "eventName": "AIG Construction Index",
    "eventTimeZone": "GMT",
    "eventPrevious": "50.9",
    "eventCurrency": "AUD",
    "eventForecast": ""
  }}}
