{"events": {"event": [
    {
      "eventDateTime": "2018-07-25T11:00:00",
      "eventActual": "4.77%",
      "eventCountry": "United States",
      "eventExpectedVolatility": "Low",
      "eventName": "MBA 30-Year Mortgage Rate",
      "eventTimeZone": "GMT",
      "eventPrevious": "4.77%",
      "eventCurrency": "USD",
      "eventForecast": ""
    },
    {
      "eventDateTime": "2018-07-25T11:00:00",
      "eventActual": "-0.2%",
      "eventCountry": "United States",
      "eventExpectedVolatility": "Low",
      "eventName": "MBA Mortgage Applications (WoW)",
      "eventTimeZone": "GMT",
      "eventPrevious": "-2.5%",
      "eventCurrency": "USD",
      "eventForecast": ""
    },
    {
      "eventDateTime": "2018-07-25T11:00:00",
      "eventActual": "245.5",
      "eventCountry": "United States",
      "eventExpectedVolatility": "Low",
      "eventName": "MBA Purchase Index",
      "eventTimeZone": "GMT",
      "eventPrevious": "247.9",
      "eventCurrency": "USD",
      "eventForecast": ""
    },
    {
      "eventDateTime": "2018-07-25T11:00:00",
      "eventActual": "362.4",
      "eventCountry": "United States",
      "eventExpectedVolatility": "Low",
      "eventName": "Mortgage Market Index",
      "eventTimeZone": "GMT",
      "eventPrevious": "363.3",
      "eventCurrency": "USD",
      "eventForecast": ""
    },
    {
      "eventDateTime": "2018-07-25T11:00:00",
      "eventActual": "988.6",
      "eventCountry": "United States",
      "eventExpectedVolatility": "Low",
      "eventName": "Mortgage Refinance Index",
      "eventTimeZone": "GMT",
      "eventPrevious": "979.6",
      "eventCurrency": "USD",
      "eventForecast": ""
    },
    {
      "eventDateTime": "2018-07-25T14:00:00",
      "eventActual": "631K",
      "eventCountry": "United States",
      "eventExpectedVolatility": "High",
      "eventName": "New Home Sales (Jun)",
      "eventTimeZone": "GMT",
      "eventPrevious": "666K",
      "eventCurrency": "USD",
      "eventForecast": "669K"
    },
    {
      "eventDateTime": "2018-07-25T14:00:00",
      "eventActual": "-5.3%",
      "eventCountry": "United States",
      "eventExpectedVolatility": "Moderate",
      "eventName": "New Home Sales (MoM) (Jun)",
      "eventTimeZone": "GMT",
      "eventPrevious": "3.9%",
      "eventCurrency": "USD",
      "eventForecast": "-2.8%"
    },
    {
      "eventDateTime": "2018-07-25T14:30:00",
      "eventActual": "-2.518M",
      "eventCountry": "United States",
      "eventExpectedVolatility": "Low",
      "eventName": "Crude Oil Imports",
      "eventTimeZone": "GMT",
      "eventPrevious": "2.201M",
      "eventCurrency": "USD",
      "eventForecast": ""
    },
    {
      "eventDateTime": "2018-07-25T14:30:00",
      "eventActual": "-6.147M",
      "eventCountry": "United States",
      "eventExpectedVolatility": "High",
      "eventName": "Crude Oil Inventories",
      "eventTimeZone": "GMT",
      "eventPrevious": "5.836M",
      "eventCurrency": "USD",
      "eventForecast": "-2.600M"
    },
    {
      "eventDateTime": "2018-07-25T14:30:00",
      "eventActual": "-1.127M",
      "eventCountry": "United States",
      "eventExpectedVolatility": "Moderate",
      "eventName": "Cushing Crude Oil Inventories",
      "eventTimeZone": "GMT",
      "eventPrevious": "-0.860M",
      "eventCurrency": "USD",
      "eventForecast": ""
    },
    {
      "eventDateTime": "2018-07-25T14:30:00",
      "eventActual": "-0.017M",
      "eventCountry": "United States",
      "eventExpectedVolatility": "Low",
      "eventName": "Distillate Fuel Production",
      "eventTimeZone": "GMT",
      "eventPrevious": "-0.268M",
      "eventCurrency": "USD",
      "eventForecast": ""
    },
    {
      "eventDateTime": "2018-07-25T14:30:00",
      "eventActual": "-0.101M",
      "eventCountry": "United States",
      "eventExpectedVolatility": "Low",
      "eventName": "EIA Weekly Distillates Stocks",
      "eventTimeZone": "GMT",
      "eventPrevious": "-0.371M",
      "eventCurrency": "USD",
      "eventForecast": "0.207M"
    },
    {
      "eventDateTime": "2018-07-25T14:30:00",
      "eventActual": "-2.328M",
      "eventCountry": "United States",
      "eventExpectedVolatility": "Low",
      "eventName": "Gasoline Inventories",
      "eventTimeZone": "GMT",
      "eventPrevious": "-3.165M",
      "eventCurrency": "USD",
      "eventForecast": "-0.713M"
    },
    {
      "eventDateTime": "2018-07-25T14:30:00",
      "eventActual": "-0.037M",
      "eventCountry": "United States",
      "eventExpectedVolatility": "Low",
      "eventName": "Gasoline Production",
      "eventTimeZone": "GMT",
      "eventPrevious": "-0.407M",
      "eventCurrency": "USD",
      "eventForecast": ""
    },
    {
      "eventDateTime": "2018-07-25T14:30:00",
      "eventActual": "-0.178M",
      "eventCountry": "United States",
      "eventExpectedVolatility": "Low",
      "eventName": "Heating Oil Stockpiles",
      "eventTimeZone": "GMT",
      "eventPrevious": "-0.319M",
      "eventCurrency": "USD",
      "eventForecast": ""
    },
    {
      "eventDateTime": "2018-07-25T17:00:00",
      "eventActual": "2.815%",
      "eventCountry": "United States",
      "eventExpectedVolatility": "Low",
      "eventName": "5-Year Note Auction",
      "eventTimeZone": "GMT",
      "eventPrevious": "2.719%",
      "eventCurrency": "USD",
      "eventForecast": ""
    }
  ]}}
