{"events": {"event": {
    "eventDateTime": "2020-01-13T05:30:00",
    "eventActual": "59.2%",
    "eventCountry": "Switzerland",
    "eventExpectedVolatility": "Moderate",
    "eventName": "Investing.com USD/CHF Index",
    "eventTimeZone": "GMT",
    "eventPrevious": "57.8%",
    "eventCurrency": "CHF",
    "eventForecast": ""
  }}}
