"Core Durable Goods Orders (MoM)";"United States";"USD";"2013-05-24T12:30:00";"GMT";"-1.7%";"0.5%";"1.3%";"High"
"Durable Goods Orders (MoM)";"United States";"USD";"2013-05-24T12:30:00";"GMT";"-5.9%";"1.5%";"3.3%";"Moderate"
"U.S. Baker Hughes Oil Rig Count";"United States";"USD";"2013-05-24T17:00:00";"GMT";"1408";"";"1402";"Moderate"
"CFTC Gold speculative net positions";"United States";"USD";"2013-05-24T19:30:00";"GMT";"83.7K";"";"80.3K";"Moderate"
"CFTC Silver speculative net positions";"United States";"USD";"2013-05-24T19:30:00";"GMT";"10.8K";"";"8.8K";"Low"
"CFTC Crude Oil speculative net positions";"United States";"USD";"2013-05-24T20:30:00";"GMT";"232.6k";"";"268.9k";"Moderate"
