{"events": {"event": [
    {
      "eventDateTime": "2019-03-18T02:00:00",
      "eventActual": "52.60%",
      "eventCountry": "New Zealand",
      "eventExpectedVolatility": "Low",
      "eventName": "RBNZ Offshore Holdings (Feb)",
      "eventTimeZone": "GMT",
      "eventPrevious": "51.60%",
      "eventCurrency": "NZD",
      "eventForecast": ""
    },
    {
      "eventDateTime": "2019-03-18T06:30:00",
      "eventActual": "49.6%",
      "eventCountry": "New Zealand",
      "eventExpectedVolatility": "Moderate",
      "eventName": "Investing.com NZD/USD Index",
      "eventTimeZone": "GMT",
      "eventPrevious": "53.1%",
      "eventCurrency": "NZD",
      "eventForecast": ""
    },
    {
      "eventDateTime": "2019-03-18T20:00:00",
      "eventActual": "103.8",
      "eventCountry": "New Zealand",
      "eventExpectedVolatility": "Moderate",
      "eventName": "Westpac Consumer Sentiment (Q1)",
      "eventTimeZone": "GMT",
      "eventPrevious": "109.1",
      "eventCurrency": "NZD",
      "eventForecast": ""
    }
  ]}}
