{"events": {"event": [
    {
      "eventDateTime": "2019-04-11T01:00:00",
      "eventActual": "3.9%",
      "eventCountry": "Australia",
      "eventExpectedVolatility": "Low",
      "eventName": "MI Inflation Expectations",
      "eventTimeZone": "GMT",
      "eventPrevious": "4.1%",
      "eventCurrency": "AUD",
      "eventForecast": ""
    },
    {
      "eventDateTime": "2019-04-11T02:30:00",
      "eventActual": "",
      "eventCountry": "Australia",
      "eventExpectedVolatility": "Moderate",
      "eventName": "RBA Assist Gov Debelle Speaks",
      "eventTimeZone": "GMT",
      "eventPrevious": "",
      "eventCurrency": "AUD",
      "eventForecast": ""
    }
  ]}}
