"MBA Mortgage Applications (WoW)";"United States";"USD";"2012-10-03T11:00:00";"GMT";"2.8%";"";"16.6%";"Low"
"ADP Nonfarm Employment Change";"United States";"USD";"2012-10-03T12:15:00";"GMT";"189K";"143K";"162K";"High"
"ISM Non-Manufacturing PMI";"United States";"USD";"2012-10-03T14:00:00";"GMT";"53.7";"53.2";"55.1";"High"
"Crude Oil Inventories";"United States";"USD";"2012-10-03T14:30:00";"GMT";"-2.446M";"1.535M";"-0.482M";"High"
"Gasoline Inventories";"United States";"USD";"2012-10-03T14:30:00";"GMT";"-0.481M";"-0.635M";"0.114M";"Low"
"Global Semiconductor Sales (MoM)";"United States";"USD";"2012-10-03T21:00:00";"GMT";"0.2%";"";"0.1%";"Low"
