{"events": {"event": [
    {
      "eventDateTime": "2012-12-04T13:55:00",
      "eventActual": "-0.30%",
      "eventCountry": "United States",
      "eventExpectedVolatility": "Low",
      "eventName": "Redbook (MoM)",
      "eventTimeZone": "GMT",
      "eventPrevious": "0.80%",
      "eventCurrency": "USD",
      "eventForecast": ""
    },
    {
      "eventDateTime": "2012-12-04T14:45:00",
      "eventActual": "561.10",
      "eventCountry": "United States",
      "eventExpectedVolatility": "Low",
      "eventName": "ISM-New York Index",
      "eventTimeZone": "GMT",
      "eventPrevious": "559.90",
      "eventCurrency": "USD",
      "eventForecast": ""
    },
    {
      "eventDateTime": "2012-12-04T16:30:00",
      "eventActual": "0.060%",
      "eventCountry": "United States",
      "eventExpectedVolatility": "Low",
      "eventName": "4-Week Bill Auction",
      "eventTimeZone": "GMT",
      "eventPrevious": "0.175%",
      "eventCurrency": "USD",
      "eventForecast": ""
    },
    {
      "eventDateTime": "2012-12-04T20:00:00",
      "eventActual": "1.7%",
      "eventCountry": "United States",
      "eventExpectedVolatility": "Low",
      "eventName": "Global Semiconductor Sales (MoM)",
      "eventTimeZone": "GMT",
      "eventPrevious": "2.0%",
      "eventCurrency": "USD",
      "eventForecast": ""
    },
    {
      "eventDateTime": "2012-12-04T21:30:00",
      "eventActual": "-2.22M",
      "eventCountry": "United States",
      "eventExpectedVolatility": "Moderate",
      "eventName": "API Weekly Crude Oil Stock",
      "eventTimeZone": "GMT",
      "eventPrevious": "1.96M",
      "eventCurrency": "USD",
      "eventForecast": "0.10M"
    },
    {
      "eventDateTime": "2012-12-04T21:30:00",
      "eventActual": "5.71M",
      "eventCountry": "United States",
      "eventExpectedVolatility": "Low",
      "eventName": "API Weekly Gasoline Stock",
      "eventTimeZone": "GMT",
      "eventPrevious": "2.28M",
      "eventCurrency": "USD",
      "eventForecast": "2.03M"
    }
  ]}}
