"CB Employment Trends Index";"United States";"USD";"2012-11-05T15:00:00";"GMT";"107.60";"";"108.20";"Low"
"ISM Non-Manufacturing PMI";"United States";"USD";"2012-11-05T15:00:00";"GMT";"55.1";"54.5";"54.2";"High"
"3-Month Bill Auction";"United States";"USD";"2012-11-05T16:30:00";"GMT";"0.125%";"";"0.105%";"Low"
"6-Month Bill Auction";"United States";"USD";"2012-11-05T16:30:00";"GMT";"0.160%";"";"0.150%";"Low"
"Global Semiconductor Sales (MoM)";"United States";"USD";"2012-11-05T20:00:00";"GMT";"0.1%";"";"2.0%";"Low"
