{"events": {"event": [
    {
      "eventDateTime": "2013-01-11T05:30:00",
      "eventActual": "-0.1%",
      "eventCountry": "India",
      "eventExpectedVolatility": "Low",
      "eventName": "Industrial Production (YoY)",
      "eventTimeZone": "GMT",
      "eventPrevious": "8.3%",
      "eventCurrency": "INR",
      "eventForecast": "0.7%"
    },
    {
      "eventDateTime": "2013-01-11T05:30:00",
      "eventActual": "0.30%",
      "eventCountry": "India",
      "eventExpectedVolatility": "Low",
      "eventName": "Manufacturing Output (MoM)",
      "eventTimeZone": "GMT",
      "eventPrevious": "9.60%",
      "eventCurrency": "INR",
      "eventForecast": ""
    },
    {
      "eventDateTime": "2013-01-11T06:30:00",
      "eventActual": "-17.7B",
      "eventCountry": "India",
      "eventExpectedVolatility": "Low",
      "eventName": "Trade Balance",
      "eventTimeZone": "GMT",
      "eventPrevious": "-19.3B",
      "eventCurrency": "INR",
      "eventForecast": "-18.5B"
    },
    {
      "eventDateTime": "2013-01-11T11:30:00",
      "eventActual": "15.10%",
      "eventCountry": "India",
      "eventExpectedVolatility": "Low",
      "eventName": "Bank Loan Growth",
      "eventTimeZone": "GMT",
      "eventPrevious": "16.30%",
      "eventCurrency": "INR",
      "eventForecast": ""
    },
    {
      "eventDateTime": "2013-01-11T11:30:00",
      "eventActual": "294.99B",
      "eventCountry": "India",
      "eventExpectedVolatility": "Low",
      "eventName": "FX Reserves, USD",
      "eventTimeZone": "GMT",
      "eventPrevious": "296.58B",
      "eventCurrency": "INR",
      "eventForecast": ""
    }
  ]}}
