{"events": {"event": [
    {
      "eventDateTime": "2018-04-30T01:00:00",
      "eventActual": "51.4",
      "eventCountry": "China",
      "eventExpectedVolatility": "High",
      "eventName": "Manufacturing PMI (Apr)",
      "eventTimeZone": "GMT",
      "eventPrevious": "51.5",
      "eventCurrency": "CNY",
      "eventForecast": "51.3"
    },
    {
      "eventDateTime": "2018-04-30T01:00:00",
      "eventActual": "54.8",
      "eventCountry": "China",
      "eventExpectedVolatility": "Moderate",
      "eventName": "Non-Manufacturing PMI (Apr)",
      "eventTimeZone": "GMT",
      "eventPrevious": "54.6",
      "eventCurrency": "CNY",
      "eventForecast": "54.6"
    }
  ]}}
