{"events": {"event": {
    "eventDateTime": "2017-08-26T17:00:00",
    "eventActual": "",
    "eventCountry": "United States",
    "eventExpectedVolatility": "Moderate",
    "eventName": "Jackson Hole Symposium",
    "eventTimeZone": "GMT",
    "eventPrevious": "",
    "eventCurrency": "USD",
    "eventForecast": ""
  }}}
