{"events": {"event": {
    "eventDateTime": "2015-02-03T03:45:00",
    "eventActual": "0.313%",
    "eventCountry": "Japan",
    "eventExpectedVolatility": "Moderate",
    "eventName": "10-Year JGB Auction",
    "eventTimeZone": "GMT",
    "eventPrevious": "0.295%",
    "eventCurrency": "JPY",
    "eventForecast": ""
  }}}
