"Budget Balance (Jul)";"Canada";"CAD";"2015-09-25T15:00:00";"GMT";"1.07B";"";"0.15B";"Low"
"Budget Balance (YoY) (Jul)";"Canada";"CAD";"2015-09-25T15:00:00";"GMT";"5.01B";"";"5.16B";"Low"
"CFTC CAD speculative net positions";"Canada";"CAD";"2015-09-25T19:30:00";"GMT";"-47.1K";"";"-38.4K";"Low"
