"Michigan Consumer Sentiment";"United States";"USD";"2009-07-24T13:55:00";"GMT";"64.6";"65.1";"66.0";"Moderate"
"U.S. Baker Hughes Oil Rig Count";"United States";"USD";"2009-07-24T17:00:00";"GMT";"244";"";"257";"Moderate"
"CFTC Gold speculative net positions";"United States";"USD";"2009-07-24T19:30:00";"GMT";"158.8K";"";"173.3K";"Moderate"
"CFTC Silver speculative net positions";"United States";"USD";"2009-07-24T19:30:00";"GMT";"21.1K";"";"18.5K";"Low"
"CFTC Crude Oil speculative net positions";"United States";"USD";"2009-07-24T20:30:00";"GMT";"16.2k";"";"2.2k";"Moderate"
