{"events": {"event": [
    {
      "eventDateTime": "2010-04-01T09:00:00",
      "eventActual": "-6.43B",
      "eventCountry": "Canada",
      "eventExpectedVolatility": "Low",
      "eventName": "Budget Balance (Mar)",
      "eventTimeZone": "GMT",
      "eventPrevious": "-0.90B",
      "eventCurrency": "CAD",
      "eventForecast": ""
    },
    {
      "eventDateTime": "2010-04-01T09:00:00",
      "eventActual": "-46.96B",
      "eventCountry": "Canada",
      "eventExpectedVolatility": "Low",
      "eventName": "Budget Balance (YoY) (Mar)",
      "eventTimeZone": "GMT",
      "eventPrevious": "-40.53B",
      "eventCurrency": "CAD",
      "eventForecast": ""
    },
    {
      "eventDateTime": "2010-04-01T09:00:00",
      "eventActual": "1.40%",
      "eventCountry": "Canada",
      "eventExpectedVolatility": "Low",
      "eventName": "CPI (YoY) (Mar)",
      "eventTimeZone": "GMT",
      "eventPrevious": "1.60%",
      "eventCurrency": "CAD",
      "eventForecast": ""
    },
    {
      "eventDateTime": "2010-04-01T09:00:00",
      "eventActual": "1.70%",
      "eventCountry": "Canada",
      "eventExpectedVolatility": "Moderate",
      "eventName": "Core CPI (YoY) (Mar)",
      "eventTimeZone": "GMT",
      "eventPrevious": "2.10%",
      "eventCurrency": "CAD",
      "eventForecast": ""
    },
    {
      "eventDateTime": "2010-04-01T09:00:00",
      "eventActual": "32.71B",
      "eventCountry": "Canada",
      "eventExpectedVolatility": "Low",
      "eventName": "Exports (Mar)",
      "eventTimeZone": "GMT",
      "eventPrevious": "33.10B",
      "eventCurrency": "CAD",
      "eventForecast": ""
    },
    {
      "eventDateTime": "2010-04-01T09:00:00",
      "eventActual": "6.31B",
      "eventCountry": "Canada",
      "eventExpectedVolatility": "Low",
      "eventName": "Foreign Securities Purchases by Canadians (Mar)",
      "eventTimeZone": "GMT",
      "eventPrevious": "4.33B",
      "eventCurrency": "CAD",
      "eventForecast": ""
    },
    {
      "eventDateTime": "2010-04-01T09:00:00",
      "eventActual": "-64.10K",
      "eventCountry": "Canada",
      "eventExpectedVolatility": "Low",
      "eventName": "Full Employment Change (Mar)",
      "eventTimeZone": "GMT",
      "eventPrevious": "65.70K",
      "eventCurrency": "CAD",
      "eventForecast": ""
    },
    {
      "eventDateTime": "2010-04-01T09:00:00",
      "eventActual": "-0.70%",
      "eventCountry": "Canada",
      "eventExpectedVolatility": "Low",
      "eventName": "IPPI (YoY) (Mar)",
      "eventTimeZone": "GMT",
      "eventPrevious": "-0.20%",
      "eventCurrency": "CAD",
      "eventForecast": ""
    },
    {
      "eventDateTime": "2010-04-01T09:00:00",
      "eventActual": "33.97B",
      "eventCountry": "Canada",
      "eventExpectedVolatility": "Low",
      "eventName": "Imports (Mar)",
      "eventTimeZone": "GMT",
      "eventPrevious": "33.04B",
      "eventCurrency": "CAD",
      "eventForecast": ""
    },
    {
      "eventDateTime": "2010-04-01T09:00:00",
      "eventActual": "57.80",
      "eventCountry": "Canada",
      "eventExpectedVolatility": "Low",
      "eventName": "Ivey PMI n.s.a (Mar)",
      "eventTimeZone": "GMT",
      "eventPrevious": "51.90",
      "eventCurrency": "CAD",
      "eventForecast": ""
    },
    {
      "eventDateTime": "2010-04-01T09:00:00",
      "eventActual": "76.50K",
      "eventCountry": "Canada",
      "eventExpectedVolatility": "Low",
      "eventName": "Part Time Employment Change (Mar)",
      "eventTimeZone": "GMT",
      "eventPrevious": "-48.50K",
      "eventCurrency": "CAD",
      "eventForecast": ""
    },
    {
      "eventDateTime": "2010-04-01T09:00:00",
      "eventActual": "66.90%",
      "eventCountry": "Canada",
      "eventExpectedVolatility": "Low",
      "eventName": "Participation Rate (Mar)",
      "eventTimeZone": "GMT",
      "eventPrevious": "66.90%",
      "eventCurrency": "CAD",
      "eventForecast": ""
    },
    {
      "eventDateTime": "2010-04-01T09:00:00",
      "eventActual": "15.80%",
      "eventCountry": "Canada",
      "eventExpectedVolatility": "Low",
      "eventName": "RMPI (YoY) (Mar)",
      "eventTimeZone": "GMT",
      "eventPrevious": "28.40%",
      "eventCurrency": "CAD",
      "eventForecast": ""
    }
  ]}}
