"Foreign Securities Purchases";"Canada";"CAD";"2012-08-16T12:30:00";"GMT";"26.11B";"10.67B";"-7.89B";"Moderate"
"Manufacturing Sales (MoM)";"Canada";"CAD";"2012-08-16T12:30:00";"GMT";"-0.40%";"0.40%";"-0.40%";"Moderate"
"BoC Review";"Canada";"CAD";"2012-08-16T14:30:00";"GMT";" ";"";"";"Low"
