{"events": {"event": [
    {
      "eventDateTime": "2015-09-11T11:30:00",
      "eventActual": "11.400B",
      "eventCountry": "India",
      "eventExpectedVolatility": "Low",
      "eventName": "Balance of Payments (USD) (Q2)",
      "eventTimeZone": "GMT",
      "eventPrevious": "30.100B",
      "eventCurrency": "INR",
      "eventForecast": ""
    },
    {
      "eventDateTime": "2015-09-11T11:30:00",
      "eventActual": "1.20%",
      "eventCountry": "India",
      "eventExpectedVolatility": "Low",
      "eventName": "Current Account % of GDP (QoQ) (Q2)",
      "eventTimeZone": "GMT",
      "eventPrevious": "0.20%",
      "eventCurrency": "INR",
      "eventForecast": ""
    },
    {
      "eventDateTime": "2015-09-11T11:30:00",
      "eventActual": "-6.20B",
      "eventCountry": "India",
      "eventExpectedVolatility": "Low",
      "eventName": "Current Account (USD) (Q2)",
      "eventTimeZone": "GMT",
      "eventPrevious": "-1.30B",
      "eventCurrency": "INR",
      "eventForecast": ""
    },
    {
      "eventDateTime": "2015-09-11T11:30:00",
      "eventActual": "349.03B",
      "eventCountry": "India",
      "eventExpectedVolatility": "Low",
      "eventName": "FX Reserves, USD",
      "eventTimeZone": "GMT",
      "eventPrevious": "351.92B",
      "eventCurrency": "INR",
      "eventForecast": ""
    },
    {
      "eventDateTime": "2015-09-11T11:30:00",
      "eventActual": "-34.200B",
      "eventCountry": "India",
      "eventExpectedVolatility": "Low",
      "eventName": "Trade Balance (USD) (Q2)",
      "eventTimeZone": "GMT",
      "eventPrevious": "-31.700B",
      "eventCurrency": "INR",
      "eventForecast": ""
    },
    {
      "eventDateTime": "2015-09-11T12:00:00",
      "eventActual": "3.50%",
      "eventCountry": "India",
      "eventExpectedVolatility": "Low",
      "eventName": "Cumulative Industrial Production (Jul)",
      "eventTimeZone": "GMT",
      "eventPrevious": "3.20%",
      "eventCurrency": "INR",
      "eventForecast": ""
    },
    {
      "eventDateTime": "2015-09-11T12:00:00",
      "eventActual": "4.2%",
      "eventCountry": "India",
      "eventExpectedVolatility": "Low",
      "eventName": "Industrial Production (YoY) (Jul)",
      "eventTimeZone": "GMT",
      "eventPrevious": "3.8%",
      "eventCurrency": "INR",
      "eventForecast": "3.5%"
    },
    {
      "eventDateTime": "2015-09-11T12:00:00",
      "eventActual": "4.7%",
      "eventCountry": "India",
      "eventExpectedVolatility": "Low",
      "eventName": "Manufacturing Output (MoM) (Jul)",
      "eventTimeZone": "GMT",
      "eventPrevious": "4.6%",
      "eventCurrency": "INR",
      "eventForecast": ""
    }
  ]}}
