"Construction Orders (YoY) (Jan)";"Japan";"JPY";"2017-02-28T05:00:00";"GMT";"7.1%";"";"1.1%";"Low"
"Housing Starts (YoY) (Jan)";"Japan";"JPY";"2017-02-28T05:00:00";"GMT";"3.9%";"3.2%";"12.8%";"Low"
"Capital Spending (YoY) (Q4)";"Japan";"JPY";"2017-02-28T23:50:00";"GMT";"-1.3%";"0.6%";"3.8%";"Moderate"
