"Nationwide HPI (MoM)";"United Kingdom";"GBP";"2011-11-29T07:00:00";"GMT";"0.4%";"-0.1%";"0.4%";"Moderate"
"M4 Money Supply (MoM)";"United Kingdom";"GBP";"2011-11-29T09:30:00";"GMT";"-0.4%";"-0.2%";"-0.3%";"Low"
"Mortgage Approvals";"United Kingdom";"GBP";"2011-11-29T09:30:00";"GMT";"51K";"52K";"53K";"Low"
"Net Lending to Individuals";"United Kingdom";"GBP";"2011-11-29T09:30:00";"GMT";"1.1B";"1.0B";"1.3B";"Low"
