{"events": {"event": [
    {
      "eventDateTime": "2010-02-01T08:30:00",
      "eventActual": "56.0",
      "eventCountry": "Switzerland",
      "eventExpectedVolatility": "Moderate",
      "eventName": "procure.ch PMI",
      "eventTimeZone": "GMT",
      "eventPrevious": "54.8",
      "eventCurrency": "CHF",
      "eventForecast": "55.5"
    },
    {
      "eventDateTime": "2010-02-01T09:00:00",
      "eventActual": "1.00%",
      "eventCountry": "Switzerland",
      "eventExpectedVolatility": "Low",
      "eventName": "CPI (YoY) (Jan)",
      "eventTimeZone": "GMT",
      "eventPrevious": "0.30%",
      "eventCurrency": "CHF",
      "eventForecast": ""
    },
    {
      "eventDateTime": "2010-02-01T09:00:00",
      "eventActual": "108.40",
      "eventCountry": "Switzerland",
      "eventExpectedVolatility": "Moderate",
      "eventName": "KOF Leading Indicators (Jan)",
      "eventTimeZone": "GMT",
      "eventPrevious": "113.70",
      "eventCurrency": "CHF",
      "eventForecast": ""
    },
    {
      "eventDateTime": "2010-02-01T09:00:00",
      "eventActual": "-1.30%",
      "eventCountry": "Switzerland",
      "eventExpectedVolatility": "Low",
      "eventName": "PPI (YoY) (Jan)",
      "eventTimeZone": "GMT",
      "eventPrevious": "-2.50%",
      "eventCurrency": "CHF",
      "eventForecast": ""
    },
    {
      "eventDateTime": "2010-02-01T09:00:00",
      "eventActual": "4.10%",
      "eventCountry": "Switzerland",
      "eventExpectedVolatility": "Moderate",
      "eventName": "Unemployment Rate n.s.a. (Jan)",
      "eventTimeZone": "GMT",
      "eventPrevious": "4.40%",
      "eventCurrency": "CHF",
      "eventForecast": ""
    }
  ]}}
