{"events": {"event": [
    {
      "eventDateTime": "2014-03-31T06:00:00",
      "eventActual": "1.3%",
      "eventCountry": "Germany",
      "eventExpectedVolatility": "Moderate",
      "eventName": "German Retail Sales (MoM)",
      "eventTimeZone": "GMT",
      "eventPrevious": "1.7%",
      "eventCurrency": "EUR",
      "eventForecast": "-0.5%"
    },
    {
      "eventDateTime": "2014-03-31T06:00:00",
      "eventActual": "2.0%",
      "eventCountry": "Germany",
      "eventExpectedVolatility": "Low",
      "eventName": "German Retail Sales (YoY)",
      "eventTimeZone": "GMT",
      "eventPrevious": "0.9%",
      "eventCurrency": "EUR",
      "eventForecast": "0.8%"
    },
    {
      "eventDateTime": "2014-03-31T06:45:00",
      "eventActual": "0.3%",
      "eventCountry": "France",
      "eventExpectedVolatility": "Moderate",
      "eventName": "French GDP (QoQ)",
      "eventTimeZone": "GMT",
      "eventPrevious": "0.3%",
      "eventCurrency": "EUR",
      "eventForecast": "0.3%"
    },
    {
      "eventDateTime": "2014-03-31T08:00:00",
      "eventActual": "-3.60B",
      "eventCountry": "Spain",
      "eventExpectedVolatility": "Low",
      "eventName": "Spanish Current account",
      "eventTimeZone": "GMT",
      "eventPrevious": "2.10B",
      "eventCurrency": "EUR",
      "eventForecast": ""
    },
    {
      "eventDateTime": "2014-03-31T09:00:00",
      "eventActual": "0.5%",
      "eventCountry": "Euro Zone",
      "eventExpectedVolatility": "High",
      "eventName": "CPI (YoY)",
      "eventTimeZone": "GMT",
      "eventPrevious": "0.7%",
      "eventCurrency": "EUR",
      "eventForecast": "0.6%"
    },
    {
      "eventDateTime": "2014-03-31T09:00:00",
      "eventActual": "0.8%",
      "eventCountry": "Euro Zone",
      "eventExpectedVolatility": "Moderate",
      "eventName": "Core CPI (YoY)",
      "eventTimeZone": "GMT",
      "eventPrevious": "1.0%",
      "eventCurrency": "EUR",
      "eventForecast": "0.8%"
    },
    {
      "eventDateTime": "2014-03-31T09:00:00",
      "eventActual": "0.1%",
      "eventCountry": "Italy",
      "eventExpectedVolatility": "Moderate",
      "eventName": "Italian CPI (MoM)",
      "eventTimeZone": "GMT",
      "eventPrevious": "-0.1%",
      "eventCurrency": "EUR",
      "eventForecast": "0.1%"
    },
    {
      "eventDateTime": "2014-03-31T09:00:00",
      "eventActual": "0.4%",
      "eventCountry": "Italy",
      "eventExpectedVolatility": "Low",
      "eventName": "Italian CPI (YoY)",
      "eventTimeZone": "GMT",
      "eventPrevious": "0.5%",
      "eventCurrency": "EUR",
      "eventForecast": "0.4%"
    },
    {
      "eventDateTime": "2014-03-31T13:00:00",
      "eventActual": "0.203%",
      "eventCountry": "France",
      "eventExpectedVolatility": "Low",
      "eventName": "French 12-Month BTF Auction",
      "eventTimeZone": "GMT",
      "eventPrevious": "0.230%",
      "eventCurrency": "EUR",
      "eventForecast": ""
    },
    {
      "eventDateTime": "2014-03-31T13:00:00",
      "eventActual": "0.189%",
      "eventCountry": "France",
      "eventExpectedVolatility": "Low",
      "eventName": "French 3-Month BTF Auction",
      "eventTimeZone": "GMT",
      "eventPrevious": "0.209%",
      "eventCurrency": "EUR",
      "eventForecast": ""
    },
    {
      "eventDateTime": "2014-03-31T13:00:00",
      "eventActual": "0.195%",
      "eventCountry": "France",
      "eventExpectedVolatility": "Low",
      "eventName": "French 6-Month BTF Auction",
      "eventTimeZone": "GMT",
      "eventPrevious": "0.220%",
      "eventCurrency": "EUR",
      "eventForecast": ""
    }
  ]}}
