"French Industrial Production (MoM)";"France";"EUR";"2012-09-10T06:45:00";"GMT";"0.0%";"-0.5%";"0.2%";"Low"
"Italian GDP (QoQ)";"Italy";"EUR";"2012-09-10T08:00:00";"GMT";"-0.8%";"-0.7%";"-0.8%";"Low"
"Italian GDP (YoY)";"Italy";"EUR";"2012-09-10T08:00:00";"GMT";"-2.6%";"-2.5%";"-2.6%";"Low"
"Sentix Investor Confidence";"Euro Zone";"EUR";"2012-09-10T08:30:00";"GMT";"-30.3";"-30.7";"-23.2";"Low"
"German 6-Month Bubill Auction";"Germany";"EUR";"2012-09-10T09:30:00";"GMT";"-0.050%";"";"-0.015%";"Low"
"French 12-Month BTF Auction";"France";"EUR";"2012-09-10T13:00:00";"GMT";"0.002%";"";"0.010%";"Low"
"French 3-Month BTF Auction";"France";"EUR";"2012-09-10T13:00:00";"GMT";"-0.014%";"";"-0.021%";"Low"
"French 6-Month BTF Auction";"France";"EUR";"2012-09-10T13:00:00";"GMT";"-0.008%";"";"-0.005%";"Low"
