{"events": {"event": {
    "eventDateTime": "2009-01-19T08:15:00",
    "eventActual": "-1.4%",
    "eventCountry": "Switzerland",
    "eventExpectedVolatility": "Moderate",
    "eventName": "Retail Sales (YoY)",
    "eventTimeZone": "GMT",
    "eventPrevious": "2.9%",
    "eventCurrency": "CHF",
    "eventForecast": "1.4%"
  }}}
