{"events": {"event": [
    {
      "eventDateTime": "2003-01-01T09:00:00",
      "eventActual": "161.30B",
      "eventCountry": "Singapore",
      "eventExpectedVolatility": "Low",
      "eventName": "Bank Lending (Dec)",
      "eventTimeZone": "GMT",
      "eventPrevious": "162.50B",
      "eventCurrency": "SGD",
      "eventForecast": ""
    },
    {
      "eventDateTime": "2003-01-01T09:00:00",
      "eventActual": "0.44%",
      "eventCountry": "Singapore",
      "eventExpectedVolatility": "Moderate",
      "eventName": "CPI (YoY) (Dec)",
      "eventTimeZone": "GMT",
      "eventPrevious": "0.23%",
      "eventCurrency": "SGD",
      "eventForecast": ""
    },
    {
      "eventDateTime": "2003-01-01T09:00:00",
      "eventActual": "82.20B",
      "eventCountry": "Singapore",
      "eventExpectedVolatility": "Low",
      "eventName": "Foreign Reserves USD (MoM) (Dec)",
      "eventTimeZone": "GMT",
      "eventPrevious": "80.20B",
      "eventCurrency": "SGD",
      "eventForecast": ""
    },
    {
      "eventDateTime": "2003-01-01T09:00:00",
      "eventActual": "8.50%",
      "eventCountry": "Singapore",
      "eventExpectedVolatility": "Low",
      "eventName": "Industrial Production (MoM) (Dec)",
      "eventTimeZone": "GMT",
      "eventPrevious": "-3.20%",
      "eventCurrency": "SGD",
      "eventForecast": ""
    },
    {
      "eventDateTime": "2003-01-01T09:00:00",
      "eventActual": "19.80%",
      "eventCountry": "Singapore",
      "eventExpectedVolatility": "Low",
      "eventName": "Industrial Production (YoY) (Dec)",
      "eventTimeZone": "GMT",
      "eventPrevious": "-1.10%",
      "eventCurrency": "SGD",
      "eventForecast": ""
    },
    {
      "eventDateTime": "2003-01-01T09:00:00",
      "eventActual": "50.90",
      "eventCountry": "Singapore",
      "eventExpectedVolatility": "Low",
      "eventName": "Manufacturing PMI (Dec)",
      "eventTimeZone": "GMT",
      "eventPrevious": "51.70",
      "eventCurrency": "SGD",
      "eventForecast": ""
    },
    {
      "eventDateTime": "2003-01-01T09:00:00",
      "eventActual": "4.40%",
      "eventCountry": "Singapore",
      "eventExpectedVolatility": "Low",
      "eventName": "Non-Oil Exports (YoY) (Dec)",
      "eventTimeZone": "GMT",
      "eventPrevious": "19.00%",
      "eventCurrency": "SGD",
      "eventForecast": ""
    },
    {
      "eventDateTime": "2003-01-01T09:00:00",
      "eventActual": "6.40%",
      "eventCountry": "Singapore",
      "eventExpectedVolatility": "Low",
      "eventName": "Retail Sales (MoM) (Dec)",
      "eventTimeZone": "GMT",
      "eventPrevious": "2.60%",
      "eventCurrency": "SGD",
      "eventForecast": ""
    },
    {
      "eventDateTime": "2003-01-01T09:00:00",
      "eventActual": "8.80%",
      "eventCountry": "Singapore",
      "eventExpectedVolatility": "Low",
      "eventName": "Retail Sales (YoY) (Dec)",
      "eventTimeZone": "GMT",
      "eventPrevious": "3.00%",
      "eventCurrency": "SGD",
      "eventForecast": ""
    }
  ]}}
