"Bank Lending (Dec)";"Singapore";"SGD";"2003-01-01T09:00:00";"GMT";"162.50B";"";"161.30B";"Low"
"CPI (YoY) (Dec)";"Singapore";"SGD";"2003-01-01T09:00:00";"GMT";"0.23%";"";"0.44%";"Moderate"
"Foreign Reserves USD (MoM) (Dec)";"Singapore";"SGD";"2003-01-01T09:00:00";"GMT";"80.20B";"";"82.20B";"Low"
"Industrial Production (MoM) (Dec)";"Singapore";"SGD";"2003-01-01T09:00:00";"GMT";"-3.20%";"";"8.50%";"Low"
"Industrial Production (YoY) (Dec)";"Singapore";"SGD";"2003-01-01T09:00:00";"GMT";"-1.10%";"";"19.80%";"Low"
"Manufacturing PMI (Dec)";"Singapore";"SGD";"2003-01-01T09:00:00";"GMT";"51.70";"";"50.90";"Low"
"Non-Oil Exports (YoY) (Dec)";"Singapore";"SGD";"2003-01-01T09:00:00";"GMT";"19.00%";"";"4.40%";"Low"
"Retail Sales (MoM) (Dec)";"Singapore";"SGD";"2003-01-01T09:00:00";"GMT";"2.60%";"";"6.40%";"Low"
"Retail Sales (YoY) (Dec)";"Singapore";"SGD";"2003-01-01T09:00:00";"GMT";"3.00%";"";"8.80%";"Low"
