"Industrial Production (MoM) (Aug)";"Brazil";"BRL";"2019-10-01T12:00:00";"GMT";"-0.3%";"0.3%";"0.8%";"Low"
"Industrial Production (YoY) (Aug)";"Brazil";"BRL";"2019-10-01T12:00:00";"GMT";"-2.5%";"-3.0%";"-2.3%";"Moderate"
"Markit Manufacturing PMI (Sep)";"Brazil";"BRL";"2019-10-01T13:00:00";"GMT";"52.5";"";"53.4";"Low"
"Trade Balance (Sep)";"Brazil";"BRL";"2019-10-01T19:00:00";"GMT";"3.28B";"3.20B";"2.25B";"Low"
