{"events": {"event": [
    {
      "eventDateTime": "2010-02-05T05:00:00",
      "eventActual": "94.0",
      "eventCountry": "Japan",
      "eventExpectedVolatility": "Low",
      "eventName": "Leading Index",
      "eventTimeZone": "GMT",
      "eventPrevious": "91.0",
      "eventCurrency": "JPY",
      "eventForecast": "93.7"
    },
    {
      "eventDateTime": "2010-02-05T20:30:00",
      "eventActual": "7.1K",
      "eventCountry": "Japan",
      "eventExpectedVolatility": "Moderate",
      "eventName": "CFTC JPY speculative net positions",
      "eventTimeZone": "GMT",
      "eventPrevious": "-4.3K",
      "eventCurrency": "JPY",
      "eventForecast": ""
    }
  ]}}
