{"events": {"event": {
    "eventDateTime": "2012-09-05T13:00:00",
    "eventActual": "1.00%",
    "eventCountry": "Canada",
    "eventExpectedVolatility": "High",
    "eventName": "BoC Interest Rate Decision",
    "eventTimeZone": "GMT",
    "eventPrevious": "1.00%",
    "eventCurrency": "CAD",
    "eventForecast": "1.00%"
  }}}
