"Auto Production (MoM) (Apr)";"Brazil";"BRL";"2014-05-01T09:00:00";"GMT";"-3.15%";"";"1.59%";"Low"
"Budget Balance (Apr)";"Brazil";"BRL";"2014-05-01T09:00:00";"GMT";"-13.02B";"";"-4.62B";"Low"
"Budget Surplus (Apr)";"Brazil";"BRL";"2014-05-01T09:00:00";"GMT";"3.58B";"";"16.90B";"Low"
"CAGED Net Payroll Jobs (Apr)";"Brazil";"BRL";"2014-05-01T09:00:00";"GMT";"13.00K";"";"105.00K";"Moderate"
"CPI (MoM) (Apr)";"Brazil";"BRL";"2014-05-01T09:00:00";"GMT";"0.92%";"";"0.67%";"Moderate"
"Federal Tax Revenue (Apr)";"Brazil";"BRL";"2014-05-01T09:00:00";"GMT";"87.00B";"";"106.00B";"Low"
"IGP-DI Inflation Index (MoM) (Apr)";"Brazil";"BRL";"2014-05-01T09:00:00";"GMT";"1.48%";"";"0.45%";"Low"
"IGP-M Inflation Index (MoM) (Apr)";"Brazil";"BRL";"2014-05-01T09:00:00";"GMT";"1.67%";"";"0.78%";"Low"
"IPC-Fipe Inflation Index (MoM) (Apr)";"Brazil";"BRL";"2014-05-01T09:00:00";"GMT";"0.74%";"";"0.53%";"Moderate"
"Markit Composite PMI (Apr)";"Brazil";"BRL";"2014-05-01T09:00:00";"GMT";"51.00";"";"49.90";"Low"
"Markit Manufacturing PMI (Apr)";"Brazil";"BRL";"2014-05-01T09:00:00";"GMT";"50.60";"";"49.30";"Low"
"Markit Services PMI (Apr)";"Brazil";"BRL";"2014-05-01T09:00:00";"GMT";"51.00";"";"50.40";"Low"
"Mid-Month CPI (MoM) (Apr)";"Brazil";"BRL";"2014-05-01T09:00:00";"GMT";"0.73%";"";"0.78%";"Low"
"Mid-Month CPI (YoY) (Apr)";"Brazil";"BRL";"2014-05-01T09:00:00";"GMT";"5.90%";"";"6.19%";"Low"
