{"events": {"event": [
    {
      "eventDateTime": "2013-04-05T09:00:00",
      "eventActual": "-0.6%",
      "eventCountry": "Euro Zone",
      "eventExpectedVolatility": "Moderate",
      "eventName": "GDP (QoQ)",
      "eventTimeZone": "GMT",
      "eventPrevious": "-0.6%",
      "eventCurrency": "EUR",
      "eventForecast": "-0.6%"
    },
    {
      "eventDateTime": "2013-04-05T09:00:00",
      "eventActual": "-0.3%",
      "eventCountry": "Euro Zone",
      "eventExpectedVolatility": "Moderate",
      "eventName": "Retail Sales (MoM)",
      "eventTimeZone": "GMT",
      "eventPrevious": "0.9%",
      "eventCurrency": "EUR",
      "eventForecast": "-0.2%"
    },
    {
      "eventDateTime": "2013-04-05T10:00:00",
      "eventActual": "2.3%",
      "eventCountry": "Germany",
      "eventExpectedVolatility": "Moderate",
      "eventName": "German Factory Orders (MoM)",
      "eventTimeZone": "GMT",
      "eventPrevious": "-1.6%",
      "eventCurrency": "EUR",
      "eventForecast": "1.2%"
    },
    {
      "eventDateTime": "2013-04-05T19:30:00",
      "eventActual": "-65.7K",
      "eventCountry": "Euro Zone",
      "eventExpectedVolatility": "Moderate",
      "eventName": "CFTC EUR speculative net positions",
      "eventTimeZone": "GMT",
      "eventPrevious": "-49.1K",
      "eventCurrency": "EUR",
      "eventForecast": ""
    }
  ]}}
