{"events": {"event": {
    "eventDateTime": "2012-04-20T19:30:00",
    "eventActual": "11.9K",
    "eventCountry": "New Zealand",
    "eventExpectedVolatility": "Low",
    "eventName": "CFTC NZD speculative net positions",
    "eventTimeZone": "GMT",
    "eventPrevious": "7.2K",
    "eventCurrency": "NZD",
    "eventForecast": ""
  }}}
