{"events": {"event": [
    {
      "eventDateTime": "2015-02-02T06:30:00",
      "eventActual": "37.5%",
      "eventCountry": "United Kingdom",
      "eventExpectedVolatility": "Moderate",
      "eventName": "Investing.com GBP/USD Index",
      "eventTimeZone": "GMT",
      "eventPrevious": "35.4%",
      "eventCurrency": "GBP",
      "eventForecast": ""
    },
    {
      "eventDateTime": "2015-02-02T09:30:00",
      "eventActual": "53.0",
      "eventCountry": "United Kingdom",
      "eventExpectedVolatility": "High",
      "eventName": "Manufacturing PMI (Jan)",
      "eventTimeZone": "GMT",
      "eventPrevious": "52.7",
      "eventCurrency": "GBP",
      "eventForecast": "52.6"
    }
  ]}}
