"Exports (YoY) (Oct)";"South Korea";"KRW";"2016-11-01T00:00:00";"GMT";"-5.9%";"-3.3%";"-3.2%";"Low"
"Imports (YoY) (Oct)";"South Korea";"KRW";"2016-11-01T00:00:00";"GMT";"-1.7%";"-4.6%";"-5.4%";"Low"
"Trade Balance (Oct)";"South Korea";"KRW";"2016-11-01T00:00:00";"GMT";"6.90B";"";"7.20B";"Low"
"Nikkei Manufacturing PMI (Oct)";"South Korea";"KRW";"2016-11-01T00:30:00";"GMT";"47.6";"";"48.0";"Low"
