"Exports (MoM) (Nov)";"Hong Kong";"HKD";"2016-12-29T08:30:00";"GMT";"-1.8%";"";"8.1%";"Low"
"Imports (MoM) (Nov)";"Hong Kong";"HKD";"2016-12-29T08:30:00";"GMT";"0.5%";"";"7.6%";"Low"
"Trade Balance";"Hong Kong";"HKD";"2016-12-29T08:30:00";"GMT";"-37.2B";"";"-34.1B";"Low"
