{"events": {"event": {
    "eventDateTime": "2011-11-21T09:00:00",
    "eventActual": "0.5B",
    "eventCountry": "Euro Zone",
    "eventExpectedVolatility": "Low",
    "eventName": "Current Account",
    "eventTimeZone": "GMT",
    "eventPrevious": "-5.9B",
    "eventCurrency": "EUR",
    "eventForecast": "-3.4B"
  }}}
