{"events": {"event": [
    {
      "eventDateTime": "2013-02-27T13:30:00",
      "eventActual": "35.2%",
      "eventCountry": "Brazil",
      "eventExpectedVolatility": "Low",
      "eventName": "Debt-to-GDP ratio",
      "eventTimeZone": "GMT",
      "eventPrevious": "35.1%",
      "eventCurrency": "BRL",
      "eventForecast": "35.0%"
    },
    {
      "eventDateTime": "2013-02-27T15:30:00",
      "eventActual": "-2.84B",
      "eventCountry": "Brazil",
      "eventExpectedVolatility": "Low",
      "eventName": "Foreign Exchange Flows",
      "eventTimeZone": "GMT",
      "eventPrevious": "-0.82B",
      "eventCurrency": "BRL",
      "eventForecast": ""
    }
  ]}}
