"Spanish Manufacturing PMI";"Spain";"EUR";"2012-07-02T07:13:00";"GMT";"42.0";"41.5";"41.1";"Moderate"
"French Manufacturing PMI";"France";"EUR";"2012-07-02T07:50:00";"GMT";"45.3";"45.3";"45.2";"Moderate"
"German Manufacturing PMI";"Germany";"EUR";"2012-07-02T07:55:00";"GMT";"44.7";"44.7";"45.0";"High"
"Italian Monthly Unemployment Rate";"Italy";"EUR";"2012-07-02T08:00:00";"GMT";"10.2%";"10.4%";"10.1%";"Low"
"Manufacturing PMI";"Euro Zone";"EUR";"2012-07-02T08:00:00";"GMT";"44.8";"44.8";"45.1";"Moderate"
"Unemployment Rate";"Euro Zone";"EUR";"2012-07-02T09:00:00";"GMT";"11.0%";"11.1%";"11.1%";"Moderate"
"French 12-Month BTF Auction";"France";"EUR";"2012-07-02T13:00:00";"GMT";"0.177%";"";"0.163%";"Low"
"French 3-Month BTF Auction";"France";"EUR";"2012-07-02T13:00:00";"GMT";"0.056%";"";"0.048%";"Low"
"French 6-Month BTF Auction";"France";"EUR";"2012-07-02T13:00:00";"GMT";"0.104%";"";"0.096%";"Low"
