"Exports (YoY) (May)";"China";"CNY";"2015-06-08T06:25:00";"GMT";"-6.4%";"-5.0%";"-2.5%";"Moderate"
"Imports (YoY) (May)";"China";"CNY";"2015-06-08T06:25:00";"GMT";"-16.2%";"-10.7%";"-17.6%";"Moderate"
"Trade Balance (USD) (May)";"China";"CNY";"2015-06-08T06:25:00";"GMT";"34.13B";"44.95B";"59.49B";"Moderate"
