{"events": {"event": [
    {
      "eventDateTime": "2016-02-01T07:30:00",
      "eventActual": "56.8%",
      "eventCountry": "Canada",
      "eventExpectedVolatility": "Moderate",
      "eventName": "Investing.com USD/CAD Index",
      "eventTimeZone": "GMT",
      "eventPrevious": "58.1%",
      "eventCurrency": "CAD",
      "eventForecast": ""
    },
    {
      "eventDateTime": "2016-02-01T14:30:00",
      "eventActual": "49.3",
      "eventCountry": "Canada",
      "eventExpectedVolatility": "Low",
      "eventName": "RBC Manufacturing PMI (Jan)",
      "eventTimeZone": "GMT",
      "eventPrevious": "47.5",
      "eventCurrency": "CAD",
      "eventForecast": ""
    }
  ]}}
