{"events": {"event": [
    {
      "eventDateTime": "2019-12-23T05:30:00",
      "eventActual": "38.7%",
      "eventCountry": "Euro Zone",
      "eventExpectedVolatility": "Moderate",
      "eventName": "Investing.com EUR/USD Index",
      "eventTimeZone": "GMT",
      "eventPrevious": "33.9%",
      "eventCurrency": "EUR",
      "eventForecast": ""
    },
    {
      "eventDateTime": "2019-12-23T07:00:00",
      "eventActual": "0.5%",
      "eventCountry": "Germany",
      "eventExpectedVolatility": "Low",
      "eventName": "German Import Price Index (MoM) (Nov)",
      "eventTimeZone": "GMT",
      "eventPrevious": "-0.1%",
      "eventCurrency": "EUR",
      "eventForecast": "0.4%"
    },
    {
      "eventDateTime": "2019-12-23T07:00:00",
      "eventActual": "-2.1%",
      "eventCountry": "Germany",
      "eventExpectedVolatility": "Low",
      "eventName": "German Import Price Index (YoY) (Nov)",
      "eventTimeZone": "GMT",
      "eventPrevious": "-3.5%",
      "eventCurrency": "EUR",
      "eventForecast": "-2.3%"
    },
    {
      "eventDateTime": "2019-12-23T08:00:00",
      "eventActual": "-2.3%",
      "eventCountry": "Spain",
      "eventExpectedVolatility": "Low",
      "eventName": "Spanish PPI (YoY)",
      "eventTimeZone": "GMT",
      "eventPrevious": "-2.8%",
      "eventCurrency": "EUR",
      "eventForecast": ""
    },
    {
      "eventDateTime": "2019-12-23T10:45:00",
      "eventActual": "-0.221%",
      "eventCountry": "Italy",
      "eventExpectedVolatility": "Low",
      "eventName": "Italian 6-Month BOT Auction",
      "eventTimeZone": "GMT",
      "eventPrevious": "-0.215%",
      "eventCurrency": "EUR",
      "eventForecast": ""
    },
    {
      "eventDateTime": "2019-12-23T11:00:00",
      "eventActual": "",
      "eventCountry": "Germany",
      "eventExpectedVolatility": "Low",
      "eventName": "German Buba Monthly Report",
      "eventTimeZone": "GMT",
      "eventPrevious": "",
      "eventCurrency": "EUR",
      "eventForecast": ""
    }
  ]}}
