{"events": {"event": {
    "eventDateTime": "2009-11-02T21:45:00",
    "eventActual": "0.4%",
    "eventCountry": "New Zealand",
    "eventExpectedVolatility": "Low",
    "eventName": "Labor Cost Index (QoQ)",
    "eventTimeZone": "GMT",
    "eventPrevious": "0.3%",
    "eventCurrency": "NZD",
    "eventForecast": "0.3%"
  }}}
