{"events": {"event": {
    "eventDateTime": "2016-05-27T19:30:00",
    "eventActual": "4.6K",
    "eventCountry": "New Zealand",
    "eventExpectedVolatility": "Low",
    "eventName": "CFTC NZD speculative net positions",
    "eventTimeZone": "GMT",
    "eventPrevious": "6.7K",
    "eventCurrency": "NZD",
    "eventForecast": ""
  }}}
