"MBA Mortgage Applications (WoW)";"United States";"USD";"2009-04-22T11:00:00";"GMT";"-11.0%";"";"5.3%";"Low"
"Treasury Secretary Geithner Speaks";"United States";"USD";"2009-04-22T13:00:00";"GMT";" ";"";"";"Moderate"
"House Price Index (MoM)";"United States";"USD";"2009-04-22T14:00:00";"GMT";"1.0%";"-0.7%";"0.7%";"Low"
"Crude Oil Inventories";"United States";"USD";"2009-04-22T14:30:00";"GMT";"5.600M";"2.300M";"3.900M";"High"
