{"events": {"event": [
    {
      "eventDateTime": "2019-11-07T13:30:00",
      "eventActual": "1,689K",
      "eventCountry": "United States",
      "eventExpectedVolatility": "Low",
      "eventName": "Continuing Jobless Claims",
      "eventTimeZone": "GMT",
      "eventPrevious": "1,690K",
      "eventCurrency": "USD",
      "eventForecast": "1,683K"
    },
    {
      "eventDateTime": "2019-11-07T13:30:00",
      "eventActual": "211K",
      "eventCountry": "United States",
      "eventExpectedVolatility": "Moderate",
      "eventName": "Initial Jobless Claims",
      "eventTimeZone": "GMT",
      "eventPrevious": "218K",
      "eventCurrency": "USD",
      "eventForecast": "215K"
    },
    {
      "eventDateTime": "2019-11-07T13:30:00",
      "eventActual": "215.25K",
      "eventCountry": "United States",
      "eventExpectedVolatility": "Low",
      "eventName": "Jobless Claims 4-Week Avg.",
      "eventTimeZone": "GMT",
      "eventPrevious": "214.75K",
      "eventCurrency": "USD",
      "eventForecast": ""
    },
    {
      "eventDateTime": "2019-11-07T15:30:00",
      "eventActual": "34B",
      "eventCountry": "United States",
      "eventExpectedVolatility": "Low",
      "eventName": "Natural Gas Storage",
      "eventTimeZone": "GMT",
      "eventPrevious": "89B",
      "eventCurrency": "USD",
      "eventForecast": "45B"
    },
    {
      "eventDateTime": "2019-11-07T16:30:00",
      "eventActual": "1.535%",
      "eventCountry": "United States",
      "eventExpectedVolatility": "Low",
      "eventName": "4-Week Bill Auction",
      "eventTimeZone": "GMT",
      "eventPrevious": "1.570%",
      "eventCurrency": "USD",
      "eventForecast": ""
    },
    {
      "eventDateTime": "2019-11-07T16:30:00",
      "eventActual": "1.530%",
      "eventCountry": "United States",
      "eventExpectedVolatility": "Low",
      "eventName": "8-Week Bill Auction",
      "eventTimeZone": "GMT",
      "eventPrevious": "1.560%",
      "eventCurrency": "USD",
      "eventForecast": ""
    },
    {
      "eventDateTime": "2019-11-07T18:00:00",
      "eventActual": "2.430%",
      "eventCountry": "United States",
      "eventExpectedVolatility": "Low",
      "eventName": "30-Year Bond Auction",
      "eventTimeZone": "GMT",
      "eventPrevious": "2.170%",
      "eventCurrency": "USD",
      "eventForecast": ""
    },
    {
      "eventDateTime": "2019-11-07T18:05:00",
      "eventActual": "",
      "eventCountry": "United States",
      "eventExpectedVolatility": "Moderate",
      "eventName": "FOMC Member Kaplan Speaks",
      "eventTimeZone": "GMT",
      "eventPrevious": "",
      "eventCurrency": "USD",
      "eventForecast": ""
    },
    {
      "eventDateTime": "2019-11-07T20:00:00",
      "eventActual": "9.51B",
      "eventCountry": "United States",
      "eventExpectedVolatility": "Low",
      "eventName": "Consumer Credit (Sep)",
      "eventTimeZone": "GMT",
      "eventPrevious": "17.90B",
      "eventCurrency": "USD",
      "eventForecast": "15.00B"
    }
  ]}}
