{"events": {"event": [
    {
      "eventDateTime": "2018-09-19T08:00:00",
      "eventActual": "21.3B",
      "eventCountry": "Euro Zone",
      "eventExpectedVolatility": "Low",
      "eventName": "Current Account (Jul)",
      "eventTimeZone": "GMT",
      "eventPrevious": "23.8B",
      "eventCurrency": "EUR",
      "eventForecast": ""
    },
    {
      "eventDateTime": "2018-09-19T08:00:00",
      "eventActual": "31.9B",
      "eventCountry": "Euro Zone",
      "eventExpectedVolatility": "Low",
      "eventName": "Current Account n.s.a. (Jul)",
      "eventTimeZone": "GMT",
      "eventPrevious": "28.8B",
      "eventCurrency": "EUR",
      "eventForecast": ""
    },
    {
      "eventDateTime": "2018-09-19T09:40:00",
      "eventActual": "0.490%",
      "eventCountry": "Germany",
      "eventExpectedVolatility": "Moderate",
      "eventName": "German 10-Year Bund Auction",
      "eventTimeZone": "GMT",
      "eventPrevious": "0.330%",
      "eventCurrency": "EUR",
      "eventForecast": ""
    },
    {
      "eventDateTime": "2018-09-19T14:30:00",
      "eventActual": "",
      "eventCountry": "Euro Zone",
      "eventExpectedVolatility": "High",
      "eventName": "ECB President Draghi Speaks",
      "eventTimeZone": "GMT",
      "eventPrevious": "",
      "eventCurrency": "EUR",
      "eventForecast": ""
    }
  ]}}
