"Chicago Fed President Evans Speaks";"United States";"USD";"2013-03-01T01:00:00";"GMT";" ";"";"";"Low"
"30-Year TIPS Auction (Feb)";"United States";"USD";"2013-03-01T09:00:00";"GMT";"0.75%";"";"0.63%";"Low"
"All Car Sales (Feb)";"United States";"USD";"2013-03-01T09:00:00";"GMT";"7.65M";"";"7.65M";"Low"
"All Truck Sales (Feb)";"United States";"USD";"2013-03-01T09:00:00";"GMT";"7.64M";"";"7.75M";"Low"
"Building Permits (MoM) (Feb)";"United States";"USD";"2013-03-01T09:00:00";"GMT";"1.80%";"";"4.60%";"Moderate"
"CPI Index, n.s.a. (Feb)";"United States";"USD";"2013-03-01T09:00:00";"GMT";"230.28";"";"232.17";"Low"
"Chain Store Sales (MoM) (Feb)";"United States";"USD";"2013-03-01T09:00:00";"GMT";"4.50%";"";"1.70%";"Low"
"Chain Store Sales (WoW) (Feb)";"United States";"USD";"2013-03-01T09:00:00";"GMT";"-0.99%";"";"0.24%";"Low"
"Chain Store Sales (YoY) (Feb)";"United States";"USD";"2013-03-01T09:00:00";"GMT";"3.00%";"";"2.19%";"Low"
"Challenger Job Cuts (Feb)";"United States";"USD";"2013-03-01T09:00:00";"GMT";"40.43K";"";"55.36K";"Low"
"Cleveland CPI (MoM) (Feb)";"United States";"USD";"2013-03-01T09:00:00";"GMT";"0.20%";"";"0.20%";"Low"
"Core CPI Index (Feb)";"United States";"USD";"2013-03-01T09:00:00";"GMT";"232.22";"";"232.61";"Low"
"Core PCE Price Index (YoY) (Feb)";"United States";"USD";"2013-03-01T09:00:00";"GMT";"1.50%";"";"1.50%";"Moderate"
"Dallas Fed PCE (Feb)";"United States";"USD";"2013-03-01T09:00:00";"GMT";"1.60%";"";"1.80%";"Low"
"Dallas Fed Services Revenues (Feb)";"United States";"USD";"2013-03-01T09:00:00";"GMT";"10.00";"";"14.80";"Low"
"Domestic Truck Sales (Feb)";"United States";"USD";"2013-03-01T09:00:00";"GMT";"6.56M";"";"6.60M";"Low"
"Durables Excluding Defense (MoM) (Feb)";"United States";"USD";"2013-03-01T09:00:00";"GMT";"0.80%";"";"4.50%";"Low"
"EIA Weekly Distillates Stocks (Feb)";"United States";"USD";"2013-03-01T09:00:00";"GMT";"0.97M";"";"-2.17M";"Low"
"Existing Home Sales (MoM) (Feb)";"United States";"USD";"2013-03-01T09:00:00";"GMT";"0.60%";"";"2.00%";"Moderate"
"Export Price Index (MoM) (Feb)";"United States";"USD";"2013-03-01T09:00:00";"GMT";"0.40%";"";"0.70%";"Moderate"
"Factory orders ex transportation (MoM) (Feb)";"United States";"USD";"2013-03-01T09:00:00";"GMT";"2.40%";"";"0.90%";"Low"
"Goods Orders Non Defense Ex Air (MoM) (Feb)";"United States";"USD";"2013-03-01T09:00:00";"GMT";"6.30%";"";"-2.70%";"Low"
"Government Payrolls (Feb)";"United States";"USD";"2013-03-01T09:00:00";"GMT";"-15.00K";"";"17.00K";"Low"
"House Price Index (Feb)";"United States";"USD";"2013-03-01T09:00:00";"GMT";"193.90";"";"195.40";"Low"
"House Price Index (YoY) (Feb)";"United States";"USD";"2013-03-01T09:00:00";"GMT";"6.50%";"";"7.20%";"Low"
"Housing Starts (MoM) (Feb)";"United States";"USD";"2013-03-01T09:00:00";"GMT";"-9.00%";"";"9.20%";"Moderate"
"ISM Manufacturing Employment (Feb)";"United States";"USD";"2013-03-01T09:00:00";"GMT";"54.20";"";"52.70";"Moderate"
"ISM Manufacturing New Orders Index (Feb)";"United States";"USD";"2013-03-01T09:00:00";"GMT";"51.60";"";"57.00";"Low"
"ISM Non-Manufacturing Business Activity (Feb)";"United States";"USD";"2013-03-01T09:00:00";"GMT";"56.60";"";"57.20";"Low"
"ISM Non-Manufacturing Employment (Feb)";"United States";"USD";"2013-03-01T09:00:00";"GMT";"55.30";"";"56.30";"Moderate"
"ISM Non-Manufacturing New Orders (Feb)";"United States";"USD";"2013-03-01T09:00:00";"GMT";"56.00";"";"57.60";"Low"
"ISM Non-Manufacturing Prices (Feb)";"United States";"USD";"2013-03-01T09:00:00";"GMT";"57.10";"";"60.30";"Low"
"JOLTs Job Openings (Feb)";"United States";"USD";"2013-03-01T09:00:00";"GMT";"3.77M";"";"4.02M";"High"
"Jobless Claims 4-Week Avg. (Feb)";"United States";"USD";"2013-03-01T09:00:00";"GMT";"356.74K";"";"354.54K";"Low"
"KC Fed Manufacturing Index (Feb)";"United States";"USD";"2013-03-01T09:00:00";"GMT";"3.00";"";"-5.00";"Low"
"MBA 30-Year Mortgage Rate (Feb)";"United States";"USD";"2013-03-01T09:00:00";"GMT";"3.65%";"";"3.75%";"Low"
"MBA Purchase Index (Feb)";"United States";"USD";"2013-03-01T09:00:00";"GMT";"208.00";"";"195.14";"Low"
"Manufacturing Payrolls (Feb)";"United States";"USD";"2013-03-01T09:00:00";"GMT";"19.00K";"";"22.00K";"Low"
"Manufacturing Production (MoM) (Feb)";"United States";"USD";"2013-03-01T09:00:00";"GMT";"-0.20%";"";"0.60%";"Low"
"Markit Composite PMI (Feb)";"United States";"USD";"2013-03-01T09:00:00";"GMT";"53.80";"";"54.50";"Moderate"
"Michigan 5-Year Inflation Expectations (Feb)";"United States";"USD";"2013-03-01T09:00:00";"GMT";"2.90%";"";"3.00%";"Low"
"Michigan Consumer Expectations (Feb)";"United States";"USD";"2013-03-01T09:00:00";"GMT";"66.60";"";"68.70";"Moderate"
"Michigan Current Conditions (Feb)";"United States";"USD";"2013-03-01T09:00:00";"GMT";"84.80";"";"89.00";"Low"
"Midwest Manufacturing (Feb)";"United States";"USD";"2013-03-01T09:00:00";"GMT";"95.30";"";"96.10";"Low"
"Mortgage Market Index (Feb)";"United States";"USD";"2013-03-01T09:00:00";"GMT";"829.21";"";"798.11";"Low"
"Mortgage Refinance Index (Feb)";"United States";"USD";"2013-03-01T09:00:00";"GMT";"4,503.25";"";"4,337.41";"Low"
"New Home Sales (MoM) (Feb)";"United States";"USD";"2013-03-01T09:00:00";"GMT";"10.80%";"";"-0.70%";"Moderate"
"Pending Home Sales Index (Feb)";"United States";"USD";"2013-03-01T09:00:00";"GMT";"104.90";"";"105.60";"Low"
"Philly Fed Business Conditions (Feb)";"United States";"USD";"2013-03-01T09:00:00";"GMT";"27.90";"";"29.20";"Low"
"Philly Fed CAPEX Index (Feb)";"United States";"USD";"2013-03-01T09:00:00";"GMT";"6.70";"";"14.60";"Low"
"Philly Fed Employment (Feb)";"United States";"USD";"2013-03-01T09:00:00";"GMT";"-7.00";"";"-2.60";"Moderate"
"Philly Fed New Orders (Feb)";"United States";"USD";"2013-03-01T09:00:00";"GMT";"-2.70";"";"-1.10";"Low"
"Philly Fed Prices Paid (Feb)";"United States";"USD";"2013-03-01T09:00:00";"GMT";"12.30";"";"11.90";"Low"
"Real Earnings (MoM) (Feb)";"United States";"USD";"2013-03-01T09:00:00";"GMT";"-0.30%";"";"-0.20%";"Low"
"Real Personal Consumption (MoM) (Feb)";"United States";"USD";"2013-03-01T09:00:00";"GMT";"0.40%";"";"0.30%";"Low"
"Redbook (YoY) (Feb)";"United States";"USD";"2013-03-01T09:00:00";"GMT";"1.78%";"";"2.57%";"Low"
"Retail Control (MoM) (Feb)";"United States";"USD";"2013-03-01T09:00:00";"GMT";"0.70%";"";"0.20%";"Low"
"Retail Sales Ex Gas/Autos (MoM) (Feb)";"United States";"USD";"2013-03-01T09:00:00";"GMT";"0.70%";"";"0.20%";"Low"
"Richmond Manufacturing Shipments (Feb)";"United States";"USD";"2013-03-01T09:00:00";"GMT";"-14.00";"";"8.00";"Low"
"Richmond Services Index (Feb)";"United States";"USD";"2013-03-01T09:00:00";"GMT";"13.00";"";"9.00";"Low"
"Sandamp;P/CS HPI Composite - 20 n.s.a. (MoM) (Feb)";"United States";"USD";"2013-03-01T09:00:00";"GMT";"0.00%";"";"0.20%";"Low"
"Sandamp;P/CS HPI Composite - 20 s.a. (MoM) (Feb)";"United States";"USD";"2013-03-01T09:00:00";"GMT";"1.00%";"";"1.10%";"Low"
"Services PMI (Feb)";"United States";"USD";"2013-03-01T09:00:00";"GMT";"53.10";"";"53.90";"Moderate"
"TIC Net Long-Term Transactions including Swaps (Feb)";"United States";"USD";"2013-03-01T09:00:00";"GMT";"5.90B";"";"-33.80B";"Low"
"Texas Services Sector Outlook (Feb)";"United States";"USD";"2013-03-01T09:00:00";"GMT";"7.30";"";"7.10";"Low"
"Core PCE Price Index (MoM)";"United States";"USD";"2013-03-01T13:30:00";"GMT";"0.0%";"0.2%";"0.1%";"Moderate"
"Personal Income (MoM)";"United States";"USD";"2013-03-01T13:30:00";"GMT";"2.6%";"-2.2%";"-3.6%";"Low"
"Personal Spending (MoM)";"United States";"USD";"2013-03-01T13:30:00";"GMT";"0.1%";"0.2%";"0.2%";"Moderate"
"Manufacturing PMI";"United States";"USD";"2013-03-01T14:00:00";"GMT";"55.20";"55.20";"54.30";"Moderate"
"Michigan Consumer Sentiment";"United States";"USD";"2013-03-01T14:55:00";"GMT";"76.3";"76.3";"77.6";"Moderate"
"Michigan Inflation Expectations";"United States";"USD";"2013-03-01T14:55:00";"GMT";"3.3%";"";"3.3%";"Low"
"Construction Spending (MoM)";"United States";"USD";"2013-03-01T15:00:00";"GMT";"1.1%";"0.4%";"-2.1%";"Low"
"ISM Manufacturing PMI";"United States";"USD";"2013-03-01T15:00:00";"GMT";"53.1";"52.5";"54.2";"High"
"ISM Manufacturing Prices";"United States";"USD";"2013-03-01T15:00:00";"GMT";"56.5";"57.0";"61.5";"Low"
"U.S. Baker Hughes Oil Rig Count";"United States";"USD";"2013-03-01T17:00:00";"GMT";"1329";"";"1333";"Moderate"
"CFTC Crude Oil speculative net positions";"United States";"USD";"2013-03-01T20:30:00";"GMT";"257.9k";"";"236.1k";"Moderate"
"CFTC Gold speculative net positions";"United States";"USD";"2013-03-01T20:30:00";"GMT";"103.7K";"";"116.6K";"Moderate"
"CFTC Silver speculative net positions";"United States";"USD";"2013-03-01T20:30:00";"GMT";"26.5K";"";"21.7K";"Low"
"Total Vehicle Sales";"United States";"USD";"2013-03-01T21:00:00";"GMT";"15.23M";"15.10M";"15.40M";"Low"
