{"events": {"event": [
    {
      "eventDateTime": "2015-08-04T01:30:00",
      "eventActual": "3%",
      "eventCountry": "Australia",
      "eventExpectedVolatility": "Low",
      "eventName": "Exports (MoM) (Jun)",
      "eventTimeZone": "GMT",
      "eventPrevious": "1%",
      "eventCurrency": "AUD",
      "eventForecast": ""
    },
    {
      "eventDateTime": "2015-08-04T01:30:00",
      "eventActual": "4%",
      "eventCountry": "Australia",
      "eventExpectedVolatility": "Low",
      "eventName": "Imports (MoM) (Jun)",
      "eventTimeZone": "GMT",
      "eventPrevious": "-4%",
      "eventCurrency": "AUD",
      "eventForecast": ""
    },
    {
      "eventDateTime": "2015-08-04T01:30:00",
      "eventActual": "0.7%",
      "eventCountry": "Australia",
      "eventExpectedVolatility": "High",
      "eventName": "Retail Sales (MoM) (Jun)",
      "eventTimeZone": "GMT",
      "eventPrevious": "0.4%",
      "eventCurrency": "AUD",
      "eventForecast": "0.5%"
    },
    {
      "eventDateTime": "2015-08-04T01:30:00",
      "eventActual": "0.8%",
      "eventCountry": "Australia",
      "eventExpectedVolatility": "Low",
      "eventName": "Retail Sales (QoQ) (Q2)",
      "eventTimeZone": "GMT",
      "eventPrevious": "0.6%",
      "eventCurrency": "AUD",
      "eventForecast": "0.4%"
    },
    {
      "eventDateTime": "2015-08-04T01:30:00",
      "eventActual": "-2.933B",
      "eventCountry": "Australia",
      "eventExpectedVolatility": "Moderate",
      "eventName": "Trade Balance (Jun)",
      "eventTimeZone": "GMT",
      "eventPrevious": "-2.677B",
      "eventCurrency": "AUD",
      "eventForecast": "-3.100B"
    },
    {
      "eventDateTime": "2015-08-04T04:30:00",
      "eventActual": "2.00%",
      "eventCountry": "Australia",
      "eventExpectedVolatility": "High",
      "eventName": "RBA Interest Rate Decision (Aug)",
      "eventTimeZone": "GMT",
      "eventPrevious": "2.00%",
      "eventCurrency": "AUD",
      "eventForecast": "2.00%"
    },
    {
      "eventDateTime": "2015-08-04T04:30:00",
      "eventActual": "",
      "eventCountry": "Australia",
      "eventExpectedVolatility": "High",
      "eventName": "RBA Rate Statement",
      "eventTimeZone": "GMT",
      "eventPrevious": "",
      "eventCurrency": "AUD",
      "eventForecast": ""
    },
    {
      "eventDateTime": "2015-08-04T06:30:00",
      "eventActual": "-20.2%",
      "eventCountry": "Australia",
      "eventExpectedVolatility": "Low",
      "eventName": "Commodity Prices (YoY)",
      "eventTimeZone": "GMT",
      "eventPrevious": "-17.1%",
      "eventCurrency": "AUD",
      "eventForecast": ""
    },
    {
      "eventDateTime": "2015-08-04T23:30:00",
      "eventActual": "54.1",
      "eventCountry": "Australia",
      "eventExpectedVolatility": "Low",
      "eventName": "AIG Services Index (Jul)",
      "eventTimeZone": "GMT",
      "eventPrevious": "51.2",
      "eventCurrency": "AUD",
      "eventForecast": ""
    }
  ]}}
