{"events": {"event": {
    "eventDateTime": "2018-09-06T09:45:00",
    "eventActual": "1.106%",
    "eventCountry": "United Kingdom",
    "eventExpectedVolatility": "Low",
    "eventName": "5-Year Treasury Gilt Auction",
    "eventTimeZone": "GMT",
    "eventPrevious": "1.094%",
    "eventCurrency": "GBP",
    "eventForecast": ""
  }}}
