{"events": {"event": {
    "eventDateTime": "2010-10-12T21:45:00",
    "eventActual": "0.7%",
    "eventCountry": "New Zealand",
    "eventExpectedVolatility": "Low",
    "eventName": "FPI (MoM)",
    "eventTimeZone": "GMT",
    "eventPrevious": "-0.1%",
    "eventCurrency": "NZD",
    "eventForecast": ""
  }}}
