{"events": {"event": [
    {
      "eventDateTime": "2009-06-30T01:30:00",
      "eventActual": "-2.9%",
      "eventCountry": "Japan",
      "eventExpectedVolatility": "Low",
      "eventName": "Average Cash Earnings (YoY)",
      "eventTimeZone": "GMT",
      "eventPrevious": "-2.7%",
      "eventCurrency": "JPY",
      "eventForecast": "-3.0%"
    },
    {
      "eventDateTime": "2009-06-30T05:00:00",
      "eventActual": "-30.8%",
      "eventCountry": "Japan",
      "eventExpectedVolatility": "Low",
      "eventName": "Housing Starts (YoY)",
      "eventTimeZone": "GMT",
      "eventPrevious": "-32.4%",
      "eventCurrency": "JPY",
      "eventForecast": "-27.6%"
    },
    {
      "eventDateTime": "2009-06-30T23:50:00",
      "eventActual": "-48",
      "eventCountry": "Japan",
      "eventExpectedVolatility": "High",
      "eventName": "Tankan Large Manufacturers Index",
      "eventTimeZone": "GMT",
      "eventPrevious": "-58",
      "eventCurrency": "JPY",
      "eventForecast": "-43"
    },
    {
      "eventDateTime": "2009-06-30T23:50:00",
      "eventActual": "-29",
      "eventCountry": "Japan",
      "eventExpectedVolatility": "High",
      "eventName": "Tankan Large Non-Manufacturers Index",
      "eventTimeZone": "GMT",
      "eventPrevious": "-31",
      "eventCurrency": "JPY",
      "eventForecast": "-27"
    }
  ]}}
