{"events": {"event": {
    "eventDateTime": "2011-10-20T12:30:00",
    "eventActual": "0.2%",
    "eventCountry": "Canada",
    "eventExpectedVolatility": "Moderate",
    "eventName": "Wholesale Sales (MoM)",
    "eventTimeZone": "GMT",
    "eventPrevious": "0.9%",
    "eventCurrency": "CAD",
    "eventForecast": "0.4%"
  }}}
