{"events": {"event": [
    {
      "eventDateTime": "2015-02-10T00:30:00",
      "eventActual": "1.9%",
      "eventCountry": "Australia",
      "eventExpectedVolatility": "Moderate",
      "eventName": "House Price Index (QoQ) (Q4)",
      "eventTimeZone": "GMT",
      "eventPrevious": "1.4%",
      "eventCurrency": "AUD",
      "eventForecast": "1.8%"
    },
    {
      "eventDateTime": "2015-02-10T00:30:00",
      "eventActual": "3",
      "eventCountry": "Australia",
      "eventExpectedVolatility": "Moderate",
      "eventName": "NAB Business Confidence (Jan)",
      "eventTimeZone": "GMT",
      "eventPrevious": "2",
      "eventCurrency": "AUD",
      "eventForecast": ""
    },
    {
      "eventDateTime": "2015-02-10T00:30:00",
      "eventActual": "2",
      "eventCountry": "Australia",
      "eventExpectedVolatility": "Low",
      "eventName": "NAB Business Survey (Jan)",
      "eventTimeZone": "GMT",
      "eventPrevious": "4",
      "eventCurrency": "AUD",
      "eventForecast": ""
    },
    {
      "eventDateTime": "2015-02-10T23:30:00",
      "eventActual": "8.0%",
      "eventCountry": "Australia",
      "eventExpectedVolatility": "Moderate",
      "eventName": "Westpac Consumer Sentiment (Feb)",
      "eventTimeZone": "GMT",
      "eventPrevious": "2.4%",
      "eventCurrency": "AUD",
      "eventForecast": ""
    }
  ]}}
