"Manufacturing PMI";"South Africa";"ZAR";"2015-02-02T09:00:00";"GMT";"50.2";"50.4";"54.2";"Low"
"Total Vehicle Sales (Jan)";"South Africa";"ZAR";"2015-02-02T12:00:00";"GMT";"51.46K";"";"52.31K";"Low"
"Total Vehicle Sales (YoY) (Jan)";"South Africa";"ZAR";"2015-02-02T12:00:00";"GMT";"10.70%";"";"-1.20%";"Low"
