"German Import Price Index (MoM)";"Germany";"EUR";"2008-09-26T06:00:00";"GMT";"0.6%";"-1.0%";"-0.8%";"Low"
"German CPI (MoM)";"Germany";"EUR";"2008-09-26T07:01:00";"GMT";"-0.3%";"-0.2%";"-0.1%";"Moderate"
"CFTC EUR speculative net positions";"Euro Zone";"EUR";"2008-09-26T19:30:00";"GMT";"-40.7K";"";"-31.1K";"Moderate"
