"Exports (YoY) (Oct)";"China";"CNY";"2017-11-08T03:50:00";"GMT";"8.1%";"7.2%";"6.9%";"Moderate"
"Imports (YoY) (Oct)";"China";"CNY";"2017-11-08T03:50:00";"GMT";"18.6%";"16.0%";"17.2%";"Moderate"
"Trade Balance (USD) (Oct)";"China";"CNY";"2017-11-08T03:50:00";"GMT";"28.61B";"39.50B";"38.17B";"Moderate"
