"Investing.com Gold Index";"United States";"USD";"2015-08-17T05:30:00";"GMT";"51.3%";"";"50.6%";"Moderate"
"Investing.com Sandamp:P 500 Index";"United States";"USD";"2015-08-17T05:30:00";"GMT";"32.7%";"";"25.9%";"Moderate"
"NY Empire State Manufacturing Index (Aug)";"United States";"USD";"2015-08-17T12:30:00";"GMT";"3.86";"5.00";"-14.92";"Moderate"
"NAHB Housing Market Index (Aug)";"United States";"USD";"2015-08-17T14:00:00";"GMT";"60";"61";"61";"Low"
"3-Month Bill Auction";"United States";"USD";"2015-08-17T15:30:00";"GMT";"0.125%";"";"0.105%";"Low"
"6-Month Bill Auction";"United States";"USD";"2015-08-17T15:30:00";"GMT";"0.245%";"";"0.245%";"Low"
"Overall Net Capital Flow (Jun)";"United States";"USD";"2015-08-17T20:00:00";"GMT";"109.60B";"";"-110.30B";"Low"
"TIC Net Long-Term Transactions (Jun)";"United States";"USD";"2015-08-17T20:00:00";"GMT";"93.0B";"23.0B";"103.1B";"Moderate"
"TIC Net Long-Term Transactions including Swaps (Jun)";"United States";"USD";"2015-08-17T20:00:00";"GMT";"76.50B";"";"86.70B";"Low"
"US Foreign Buying, T-bonds (Jun)";"United States";"USD";"2015-08-17T20:00:00";"GMT";"53.40B";"";"69.80B";"Low"
