{"events": {"event": [
    {
      "eventDateTime": "2012-07-09T23:01:00",
      "eventActual": "1.4%",
      "eventCountry": "United Kingdom",
      "eventExpectedVolatility": "Moderate",
      "eventName": "BRC Retail Sales Monitor (YoY)",
      "eventTimeZone": "GMT",
      "eventPrevious": "1.3%",
      "eventCurrency": "GBP",
      "eventForecast": "2.0%"
    },
    {
      "eventDateTime": "2012-07-09T23:01:00",
      "eventActual": "-22%",
      "eventCountry": "United Kingdom",
      "eventExpectedVolatility": "Moderate",
      "eventName": "RICS House Price Balance",
      "eventTimeZone": "GMT",
      "eventPrevious": "-17%",
      "eventCurrency": "GBP",
      "eventForecast": "-16%"
    }
  ]}}
