"Redbook (MoM)";"United States";"USD";"2018-12-26T13:55:00";"GMT";"-0.3%";"";"0.1%";"Low"
"Redbook (YoY)";"United States";"USD";"2018-12-26T13:55:00";"GMT";"7.1%";"";"7.8%";"Low"
"Sandamp:P/CS HPI Composite - 20 n.s.a. (MoM) (Oct)";"United States";"USD";"2018-12-26T14:00:00";"GMT";"0.0%";"-0.1%";"0.0%";"Low"
"Sandamp:P/CS HPI Composite - 20 n.s.a. (YoY) (Oct)";"United States";"USD";"2018-12-26T14:00:00";"GMT";"5.2%";"4.8%";"5.0%";"Moderate"
"Sandamp:P/CS HPI Composite - 20 s.a. (MoM) (Oct)";"United States";"USD";"2018-12-26T14:00:00";"GMT";"0.7%";"0.2%";"0.4%";"Low"
"Richmond Manufacturing Index (Dec)";"United States";"USD";"2018-12-26T15:00:00";"GMT";"14";"16";"-8";"Low"
"Richmond Manufacturing Shipments (Dec)";"United States";"USD";"2018-12-26T15:00:00";"GMT";"12";"";"-25";"Low"
"Richmond Services Index (Dec)";"United States";"USD";"2018-12-26T15:00:00";"GMT";"5";"";"10";"Low"
"5-Year Note Auction";"United States";"USD";"2018-12-26T18:00:00";"GMT";"2.880%";"";"2.652%";"Low"
