{"events": {"event": [
    {
      "eventDateTime": "2015-03-20T02:00:00",
      "eventActual": "5.8%",
      "eventCountry": "New Zealand",
      "eventExpectedVolatility": "Low",
      "eventName": "Credit Card Spending (YoY)",
      "eventTimeZone": "GMT",
      "eventPrevious": "6.2%",
      "eventCurrency": "NZD",
      "eventForecast": ""
    },
    {
      "eventDateTime": "2015-03-20T19:30:00",
      "eventActual": "-1.1K",
      "eventCountry": "New Zealand",
      "eventExpectedVolatility": "Low",
      "eventName": "CFTC NZD speculative net positions",
      "eventTimeZone": "GMT",
      "eventPrevious": "-2.5K",
      "eventCurrency": "NZD",
      "eventForecast": ""
    }
  ]}}
