{"events": {"event": [
    {
      "eventDateTime": "2004-09-01T09:00:00",
      "eventActual": "0.70%",
      "eventCountry": "China",
      "eventExpectedVolatility": "Moderate",
      "eventName": "CPI (MoM) (Aug)",
      "eventTimeZone": "GMT",
      "eventPrevious": "-0.20%",
      "eventCurrency": "CNY",
      "eventForecast": ""
    },
    {
      "eventDateTime": "2004-09-01T09:00:00",
      "eventActual": "5.30%",
      "eventCountry": "China",
      "eventExpectedVolatility": "Moderate",
      "eventName": "CPI (YoY) (Aug)",
      "eventTimeZone": "GMT",
      "eventPrevious": "5.30%",
      "eventCurrency": "CNY",
      "eventForecast": ""
    },
    {
      "eventDateTime": "2004-09-01T09:00:00",
      "eventActual": "37.30%",
      "eventCountry": "China",
      "eventExpectedVolatility": "Moderate",
      "eventName": "Exports (YoY) (Aug)",
      "eventTimeZone": "GMT",
      "eventPrevious": "33.80%",
      "eventCurrency": "CNY",
      "eventForecast": ""
    },
    {
      "eventDateTime": "2004-09-01T09:00:00",
      "eventActual": "18.77%",
      "eventCountry": "China",
      "eventExpectedVolatility": "Low",
      "eventName": "FDI (Aug)",
      "eventTimeZone": "GMT",
      "eventPrevious": "15.14%",
      "eventCurrency": "CNY",
      "eventForecast": ""
    },
    {
      "eventDateTime": "2004-09-01T09:00:00",
      "eventActual": "30.30%",
      "eventCountry": "China",
      "eventExpectedVolatility": "Moderate",
      "eventName": "Fixed Asset Investment (YoY) (Aug)",
      "eventTimeZone": "GMT",
      "eventPrevious": "31.10%",
      "eventCurrency": "CNY",
      "eventForecast": ""
    },
    {
      "eventDateTime": "2004-09-01T09:00:00",
      "eventActual": "35.60%",
      "eventCountry": "China",
      "eventExpectedVolatility": "Moderate",
      "eventName": "Imports (YoY) (Aug)",
      "eventTimeZone": "GMT",
      "eventPrevious": "34.20%",
      "eventCurrency": "CNY",
      "eventForecast": ""
    },
    {
      "eventDateTime": "2004-09-01T09:00:00",
      "eventActual": "15.90%",
      "eventCountry": "China",
      "eventExpectedVolatility": "High",
      "eventName": "Industrial Production (YoY) (Aug)",
      "eventTimeZone": "GMT",
      "eventPrevious": "15.50%",
      "eventCurrency": "CNY",
      "eventForecast": ""
    },
    {
      "eventDateTime": "2004-09-01T09:00:00",
      "eventActual": "13.60%",
      "eventCountry": "China",
      "eventExpectedVolatility": "Low",
      "eventName": "M2 Money Stock (YoY) (Aug)",
      "eventTimeZone": "GMT",
      "eventPrevious": "15.30%",
      "eventCurrency": "CNY",
      "eventForecast": ""
    },
    {
      "eventDateTime": "2004-09-01T09:00:00",
      "eventActual": "115.70B",
      "eventCountry": "China",
      "eventExpectedVolatility": "Moderate",
      "eventName": "New Loans (Aug)",
      "eventTimeZone": "GMT",
      "eventPrevious": "26.50B",
      "eventCurrency": "CNY",
      "eventForecast": ""
    },
    {
      "eventDateTime": "2004-09-01T09:00:00",
      "eventActual": "14.10%",
      "eventCountry": "China",
      "eventExpectedVolatility": "Low",
      "eventName": "Outstanding Loan Growth (YoY) (Aug)",
      "eventTimeZone": "GMT",
      "eventPrevious": "15.50%",
      "eventCurrency": "CNY",
      "eventForecast": ""
    },
    {
      "eventDateTime": "2004-09-01T09:00:00",
      "eventActual": "1.98%",
      "eventCountry": "China",
      "eventExpectedVolatility": "Moderate",
      "eventName": "PBoC Deposit Rate (Aug)",
      "eventTimeZone": "GMT",
      "eventPrevious": "1.98%",
      "eventCurrency": "CNY",
      "eventForecast": ""
    },
    {
      "eventDateTime": "2004-09-01T09:00:00",
      "eventActual": "5.31%",
      "eventCountry": "China",
      "eventExpectedVolatility": "High",
      "eventName": "PBoC Interest Rate (Aug)",
      "eventTimeZone": "GMT",
      "eventPrevious": "5.31%",
      "eventCurrency": "CNY",
      "eventForecast": ""
    },
    {
      "eventDateTime": "2004-09-01T09:00:00",
      "eventActual": "7.50%",
      "eventCountry": "China",
      "eventExpectedVolatility": "Moderate",
      "eventName": "PBoC Reserve Requirement Ratio (Aug)",
      "eventTimeZone": "GMT",
      "eventPrevious": "7.50%",
      "eventCurrency": "CNY",
      "eventForecast": ""
    },
    {
      "eventDateTime": "2004-09-01T09:00:00",
      "eventActual": "6.80%",
      "eventCountry": "China",
      "eventExpectedVolatility": "Moderate",
      "eventName": "PPI (YoY) (Aug)",
      "eventTimeZone": "GMT",
      "eventPrevious": "6.40%",
      "eventCurrency": "CNY",
      "eventForecast": ""
    },
    {
      "eventDateTime": "2004-09-01T09:00:00",
      "eventActual": "13.10%",
      "eventCountry": "China",
      "eventExpectedVolatility": "Low",
      "eventName": "Retail Sales (YoY) (Aug)",
      "eventTimeZone": "GMT",
      "eventPrevious": "13.20%",
      "eventCurrency": "CNY",
      "eventForecast": ""
    },
    {
      "eventDateTime": "2004-09-01T09:00:00",
      "eventActual": "4.52B",
      "eventCountry": "China",
      "eventExpectedVolatility": "Moderate",
      "eventName": "Trade Balance (USD) (Aug)",
      "eventTimeZone": "GMT",
      "eventPrevious": "1.97B",
      "eventCurrency": "CNY",
      "eventForecast": ""
    }
  ]}}
