"CPI (MoM) (Dec)";"South Africa";"ZAR";"2001-01-01T09:00:00";"GMT";"0.20%";"";"0.20%";"Moderate"
"CPI (YoY) (Dec)";"South Africa";"ZAR";"2001-01-01T09:00:00";"GMT";"6.96%";"";"6.95%";"Low"
"Foreign Reserves (USD) (Dec)";"South Africa";"ZAR";"2001-01-01T09:00:00";"GMT";"7.67B";"";"7.69B";"Low"
"Gold Production (YoY) (Dec)";"South Africa";"ZAR";"2001-01-01T09:00:00";"GMT";"-4.94%";"";"-7.86%";"Low"
"Interest Rate Decision (Dec)";"South Africa";"ZAR";"2001-01-01T09:00:00";"GMT";"12.00%";"";"12.00%";"Moderate"
"M3 Money Supply (YoY) (Dec)";"South Africa";"ZAR";"2001-01-01T09:00:00";"GMT";"5.79%";"";"7.26%";"Low"
"Mining Production (Dec)";"South Africa";"ZAR";"2001-01-01T09:00:00";"GMT";"-1.38%";"";"-0.80%";"Low"
"Net FX Reserves (USD) (Dec)";"South Africa";"ZAR";"2001-01-01T09:00:00";"GMT";"-9.54B";"";"-9.50B";"Low"
"Prime Rate (Dec)";"South Africa";"ZAR";"2001-01-01T09:00:00";"GMT";"14.50%";"";"14.50%";"Low"
"Private Sector Credit (Dec)";"South Africa";"ZAR";"2001-01-01T09:00:00";"GMT";"11.70%";"";"10.81%";"Low"
"Total Vehicle Sales (Dec)";"South Africa";"ZAR";"2001-01-01T09:00:00";"GMT";"28.82K";"";"23.04K";"Low"
"Total Vehicle Sales (YoY) (Dec)";"South Africa";"ZAR";"2001-01-01T09:00:00";"GMT";"17.80%";"";"0.20%";"Low"
