{"events": {"event": {
    "eventDateTime": "2019-11-22T19:30:00",
    "eventActual": "25.8K",
    "eventCountry": "Russia",
    "eventExpectedVolatility": "Moderate",
    "eventName": "CFTC RUB speculative positions",
    "eventTimeZone": "GMT",
    "eventPrevious": "26.3K",
    "eventCurrency": "RUB",
    "eventForecast": ""
  }}}
