"Bank Loan Growth (Jan)";"India";"INR";"2002-02-01T09:00:00";"GMT";"12.89%";"";"13.77%";"Low"
"Cash Reserve Ratio (Jan)";"India";"INR";"2002-02-01T09:00:00";"GMT";"5.74%";"";"5.50%";"Low"
"Deposit Growth (Jan)";"India";"INR";"2002-02-01T09:00:00";"GMT";"15.02%";"";"15.19%";"Low"
"Exports (USD) (Jan)";"India";"INR";"2002-02-01T09:00:00";"GMT";"3.25B";"";"4.25B";"Low"
"FX Reserves, USD (Jan)";"India";"INR";"2002-02-01T09:00:00";"GMT";"48.30B";"";"49.57B";"Low"
"Federal Fiscal Deficit (Jan)";"India";"INR";"2002-02-01T09:00:00";"GMT";"890.14B";"";"1,074.21B";"Low"
"Imports (USD) (Jan)";"India";"INR";"2002-02-01T09:00:00";"GMT";"4.08B";"";"4.24B";"Low"
"Interest Rate Decision (Jan)";"India";"INR";"2002-02-01T09:00:00";"GMT";"6.50%";"";"6.50%";"High"
"M3 Money Supply (Jan)";"India";"INR";"2002-02-01T09:00:00";"GMT";"15.08%";"";"14.35%";"Low"
"Reverse REPO Rate (Jan)";"India";"INR";"2002-02-01T09:00:00";"GMT";"8.50%";"";"8.50%";"Low"
"Trade Balance (Jan)";"India";"INR";"2002-02-01T09:00:00";"GMT";"-0.83B";"";"0.01B";"Low"
