"RICS House Price Balance";"United Kingdom";"GBP";"2014-03-13T00:01:00";"GMT";"52%";"52%";"45%";"Moderate"
"Construction Output (MoM) (Jan)";"United Kingdom";"GBP";"2014-03-13T09:30:00";"GMT";"0.70%";"";"2.70%";"Low"
"U.K. Construction Output (YoY) (Jan)";"United Kingdom";"GBP";"2014-03-13T09:30:00";"GMT";"6.10%";"";"10.60%";"Low"
