{"events": {"event": {
    "eventDateTime": "2018-11-27T06:30:00",
    "eventActual": "52.7%",
    "eventCountry": "Switzerland",
    "eventExpectedVolatility": "Moderate",
    "eventName": "Investing.com USD/CHF Index",
    "eventTimeZone": "GMT",
    "eventPrevious": "41.4%",
    "eventCurrency": "CHF",
    "eventForecast": ""
  }}}
