{"events": {"event": {
    "eventDateTime": "2013-04-04T12:00:00",
    "eventActual": "0.3%",
    "eventCountry": "Russia",
    "eventExpectedVolatility": "Moderate",
    "eventName": "CPI (MoM)",
    "eventTimeZone": "GMT",
    "eventPrevious": "0.6%",
    "eventCurrency": "RUB",
    "eventForecast": "0.5%"
  }}}
