{"events": {"event": [
    {
      "eventDateTime": "2019-02-22T13:00:00",
      "eventActual": "1.6%",
      "eventCountry": "Russia",
      "eventExpectedVolatility": "Moderate",
      "eventName": "Retail Sales (YoY)",
      "eventTimeZone": "GMT",
      "eventPrevious": "2.3%",
      "eventCurrency": "RUB",
      "eventForecast": "1.0%"
    },
    {
      "eventDateTime": "2019-02-22T20:30:00",
      "eventActual": "15.6K",
      "eventCountry": "Russia",
      "eventExpectedVolatility": "Moderate",
      "eventName": "CFTC RUB speculative positions",
      "eventTimeZone": "GMT",
      "eventPrevious": "5.9K",
      "eventCurrency": "RUB",
      "eventForecast": ""
    }
  ]}}
