"Average Earnings ex Bonus (Jan)";"United Kingdom";"GBP";"2010-02-01T09:00:00";"GMT";"1.10%";"";"1.40%";"Low"
"BoE Consumer Credit (Jan)";"United Kingdom";"GBP";"2010-02-01T09:00:00";"GMT";"0.13B";"";"-0.06B";"Low"
"BoE QE Total (Jan)";"United Kingdom";"GBP";"2010-02-01T09:00:00";"GMT";"200.00B";"";"200.00B";"Moderate"
"CPI (MoM) (Jan)";"United Kingdom";"GBP";"2010-02-01T09:00:00";"GMT";"0.60%";"";"-0.20%";"Moderate"
"Core PPI Output (MoM) (Jan)";"United Kingdom";"GBP";"2010-02-01T09:00:00";"GMT";"0.20%";"";"-0.10%";"Low"
"Core PPI Output (YoY) (Jan)";"United Kingdom";"GBP";"2010-02-01T09:00:00";"GMT";"0.10%";"";"0.10%";"Low"
"Core RPI (MoM) (Jan)";"United Kingdom";"GBP";"2010-02-01T09:00:00";"GMT";"0.60%";"";"0.00%";"Low"
"Core RPI (YoY) (Jan)";"United Kingdom";"GBP";"2010-02-01T09:00:00";"GMT";"3.80%";"";"4.60%";"Low"
"Core Retail Sales (MoM) (Jan)";"United Kingdom";"GBP";"2010-02-01T09:00:00";"GMT";"-0.20%";"";"-3.10%";"Moderate"
"Core Retail Sales (YoY) (Jan)";"United Kingdom";"GBP";"2010-02-01T09:00:00";"GMT";"1.60%";"";"-1.60%";"Moderate"
"Halifax House Price Index (YoY) (Jan)";"United Kingdom";"GBP";"2010-02-01T09:00:00";"GMT";"1.10%";"";"3.60%";"Moderate"
"Industrial Production (YoY) (Jan)";"United Kingdom";"GBP";"2010-02-01T09:00:00";"GMT";"-2.70%";"";"0.10%";"Low"
"Manufacturing Production (YoY) (Jan)";"United Kingdom";"GBP";"2010-02-01T09:00:00";"GMT";"-1.40%";"";"1.20%";"Low"
"Mortgage Lending (Jan)";"United Kingdom";"GBP";"2010-02-01T09:00:00";"GMT";"1.21B";"";"0.98B";"Low"
"Nationwide HPI (YoY) (Jan)";"United Kingdom";"GBP";"2010-02-01T09:00:00";"GMT";"5.90%";"";"8.60%";"Moderate"
"PPI Input (YoY) (Jan)";"United Kingdom";"GBP";"2010-02-01T09:00:00";"GMT";"3.80%";"";"4.10%";"Low"
"PPI Output (YoY) (Jan)";"United Kingdom";"GBP";"2010-02-01T09:00:00";"GMT";"1.20%";"";"1.50%";"Low"
"Public Sector Net Cash Requirement (Jan)";"United Kingdom";"GBP";"2010-02-01T09:00:00";"GMT";"21.05B";"";"-16.65B";"Low"
"RPI (MoM) (Jan)";"United Kingdom";"GBP";"2010-02-01T09:00:00";"GMT";"0.60%";"";"0.00%";"Low"
"Retail Sales (YoY) (Jan)";"United Kingdom";"GBP";"2010-02-01T09:00:00";"GMT";"2.10%";"";"0.90%";"Moderate"
"Trade Balance Non-EU (Jan)";"United Kingdom";"GBP";"2010-02-01T09:00:00";"GMT";"-3.70B";"";"-4.61B";"Moderate"
"Manufacturing PMI";"United Kingdom";"GBP";"2010-02-01T09:30:00";"GMT";"54.6";"54.1";"56.7";"High"
"Mortgage Approvals";"United Kingdom";"GBP";"2010-02-01T09:30:00";"GMT";"60K";"61K";"59K";"Low"
"Net Lending to Individuals";"United Kingdom";"GBP";"2010-02-01T09:30:00";"GMT";"1.2B";"1.2B";"1.2B";"Low"
