{"events": {"event": {
    "eventDateTime": "2018-09-09T22:45:00",
    "eventActual": "-1.2%",
    "eventCountry": "New Zealand",
    "eventExpectedVolatility": "Low",
    "eventName": "Manufacturing Sales Volume (QoQ) (Q2)",
    "eventTimeZone": "GMT",
    "eventPrevious": "1.4%",
    "eventCurrency": "NZD",
    "eventForecast": ""
  }}}
