{"events": {"event": [
    {
      "eventDateTime": "2011-10-05T07:50:00",
      "eventActual": "51.5",
      "eventCountry": "France",
      "eventExpectedVolatility": "Moderate",
      "eventName": "French Services PMI",
      "eventTimeZone": "GMT",
      "eventPrevious": "52.5",
      "eventCurrency": "EUR",
      "eventForecast": "52.5"
    },
    {
      "eventDateTime": "2011-10-05T07:55:00",
      "eventActual": "49.7",
      "eventCountry": "Germany",
      "eventExpectedVolatility": "Moderate",
      "eventName": "German Services PMI",
      "eventTimeZone": "GMT",
      "eventPrevious": "50.3",
      "eventCurrency": "EUR",
      "eventForecast": "50.3"
    },
    {
      "eventDateTime": "2011-10-05T08:00:00",
      "eventActual": "48.8",
      "eventCountry": "Euro Zone",
      "eventExpectedVolatility": "Moderate",
      "eventName": "Services PMI",
      "eventTimeZone": "GMT",
      "eventPrevious": "49.1",
      "eventCurrency": "EUR",
      "eventForecast": "49.1"
    },
    {
      "eventDateTime": "2011-10-05T09:00:00",
      "eventActual": "0.2%",
      "eventCountry": "Euro Zone",
      "eventExpectedVolatility": "Moderate",
      "eventName": "GDP (QoQ)",
      "eventTimeZone": "GMT",
      "eventPrevious": "0.2%",
      "eventCurrency": "EUR",
      "eventForecast": "0.2%"
    },
    {
      "eventDateTime": "2011-10-05T09:00:00",
      "eventActual": "-0.3%",
      "eventCountry": "Euro Zone",
      "eventExpectedVolatility": "Moderate",
      "eventName": "Retail Sales (MoM)",
      "eventTimeZone": "GMT",
      "eventPrevious": "0.2%",
      "eventCurrency": "EUR",
      "eventForecast": "-0.2%"
    }
  ]}}
