{"events": {"event": [
    {
      "eventDateTime": "2017-03-01T01:00:00",
      "eventActual": "51.6",
      "eventCountry": "China",
      "eventExpectedVolatility": "High",
      "eventName": "Manufacturing PMI (Feb)",
      "eventTimeZone": "GMT",
      "eventPrevious": "51.3",
      "eventCurrency": "CNY",
      "eventForecast": "51.1"
    },
    {
      "eventDateTime": "2017-03-01T01:00:00",
      "eventActual": "54.2",
      "eventCountry": "China",
      "eventExpectedVolatility": "Moderate",
      "eventName": "Non-Manufacturing PMI (Feb)",
      "eventTimeZone": "GMT",
      "eventPrevious": "54.6",
      "eventCurrency": "CNY",
      "eventForecast": ""
    },
    {
      "eventDateTime": "2017-03-01T01:45:00",
      "eventActual": "51.7",
      "eventCountry": "China",
      "eventExpectedVolatility": "High",
      "eventName": "Caixin Manufacturing PMI (Feb)",
      "eventTimeZone": "GMT",
      "eventPrevious": "51.0",
      "eventCurrency": "CNY",
      "eventForecast": "50.8"
    }
  ]}}
