{"events": {"event": {
    "eventDateTime": "2010-10-05T07:15:00",
    "eventActual": "0.0%",
    "eventCountry": "Switzerland",
    "eventExpectedVolatility": "Moderate",
    "eventName": "CPI (MoM)",
    "eventTimeZone": "GMT",
    "eventPrevious": "0.0%",
    "eventCurrency": "CHF",
    "eventForecast": "0.0%"
  }}}
