{"events": {"event": [
    {
      "eventDateTime": "2011-12-08T06:30:00",
      "eventActual": "0.0%",
      "eventCountry": "France",
      "eventExpectedVolatility": "Moderate",
      "eventName": "French Non-Farm Payrolls (QoQ)",
      "eventTimeZone": "GMT",
      "eventPrevious": "0.0%",
      "eventCurrency": "EUR",
      "eventForecast": "0.2%"
    },
    {
      "eventDateTime": "2011-12-08T12:45:00",
      "eventActual": "1.00%",
      "eventCountry": "Euro Zone",
      "eventExpectedVolatility": "High",
      "eventName": "ECB Interest Rate Decision",
      "eventTimeZone": "GMT",
      "eventPrevious": "1.25%",
      "eventCurrency": "EUR",
      "eventForecast": "1.00%"
    },
    {
      "eventDateTime": "2011-12-08T13:30:00",
      "eventActual": "",
      "eventCountry": "Euro Zone",
      "eventExpectedVolatility": "High",
      "eventName": "ECB Press Conference",
      "eventTimeZone": "GMT",
      "eventPrevious": "",
      "eventCurrency": "EUR",
      "eventForecast": ""
    }
  ]}}
