"Investing.com USD/CAD Index";"Canada";"CAD";"2017-04-03T05:30:00";"GMT";"53.1%";"";"53.0%";"Moderate"
"RBC Manufacturing PMI (Mar)";"Canada";"CAD";"2017-04-03T13:30:00";"GMT";"54.7";"";"55.5";"Low"
"BoC Business Outlook Survey";"Canada";"CAD";"2017-04-03T14:30:00";"GMT";" ";"";"";"Moderate"
