{"events": {"event": {
    "eventDateTime": "2017-12-20T14:00:00",
    "eventActual": "",
    "eventCountry": "Switzerland",
    "eventExpectedVolatility": "Low",
    "eventName": "SNB Quarterly Bulletin",
    "eventTimeZone": "GMT",
    "eventPrevious": "",
    "eventCurrency": "CHF",
    "eventForecast": ""
  }}}
