"MBA Mortgage Applications (WoW)";"United States";"USD";"2010-02-10T12:00:00";"GMT";"21.0%";"";"-1.2%";"Low"
"Trade Balance";"United States";"USD";"2010-02-10T13:30:00";"GMT";"-36.4B";"-35.0B";"-40.2B";"Moderate"
"Fed Chairman Bernanke Testifies";"United States";"USD";"2010-02-10T15:00:00";"GMT";" ";"";"";"High"
