{"events": {"event": {
    "eventDateTime": "2008-11-24T23:50:00",
    "eventActual": "-1.4%",
    "eventCountry": "Japan",
    "eventExpectedVolatility": "Low",
    "eventName": "Corporate Services Price Index (CSPI) (YoY)",
    "eventTimeZone": "GMT",
    "eventPrevious": "0.1%",
    "eventCurrency": "JPY",
    "eventForecast": "-0.5%"
  }}}
