{"events": {"event": {
    "eventDateTime": "2010-11-25T08:00:00",
    "eventActual": "4.1%",
    "eventCountry": "Spain",
    "eventExpectedVolatility": "Low",
    "eventName": "Spanish PPI (YoY)",
    "eventTimeZone": "GMT",
    "eventPrevious": "3.4%",
    "eventCurrency": "EUR",
    "eventForecast": "3.6%"
  }}}
