"CPI (MoM) (Dec)";"South Africa";"ZAR";"2000-01-01T09:00:00";"GMT";"0.21%";"";"0.21%";"Moderate"
"CPI (YoY) (Dec)";"South Africa";"ZAR";"2000-01-01T09:00:00";"GMT";"1.94%";"";"2.15%";"Low"
"Foreign Reserves (USD) (Dec)";"South Africa";"ZAR";"2000-01-01T09:00:00";"GMT";"7.43B";"";"7.50B";"Low"
"Gold Production (YoY) (Dec)";"South Africa";"ZAR";"2000-01-01T09:00:00";"GMT";"-4.71%";"";"-6.97%";"Low"
"Interest Rate Decision (Dec)";"South Africa";"ZAR";"2000-01-01T09:00:00";"GMT";"12.00%";"";"12.00%";"Moderate"
"M3 Money Supply (YoY) (Dec)";"South Africa";"ZAR";"2000-01-01T09:00:00";"GMT";"10.13%";"";"10.45%";"Low"
"Mining Production (Dec)";"South Africa";"ZAR";"2000-01-01T09:00:00";"GMT";"0.10%";"";"-2.33%";"Low"
"Net FX Reserves (USD) (Dec)";"South Africa";"ZAR";"2000-01-01T09:00:00";"GMT";"-13.98B";"";"-13.04B";"Low"
"Prime Rate (Dec)";"South Africa";"ZAR";"2000-01-01T09:00:00";"GMT";"15.50%";"";"15.50%";"Low"
"Private Sector Credit (Dec)";"South Africa";"ZAR";"2000-01-01T09:00:00";"GMT";"8.21%";"";"8.70%";"Low"
"Total Vehicle Sales (Dec)";"South Africa";"ZAR";"2000-01-01T09:00:00";"GMT";"24.47K";"";"23.00K";"Low"
"Total Vehicle Sales (YoY) (Dec)";"South Africa";"ZAR";"2000-01-01T09:00:00";"GMT";"5.70%";"";"9.90%";"Low"
