{"events": {"event": {
    "eventDateTime": "2016-10-14T19:30:00",
    "eventActual": "45.9K",
    "eventCountry": "Japan",
    "eventExpectedVolatility": "Moderate",
    "eventName": "CFTC JPY speculative net positions",
    "eventTimeZone": "GMT",
    "eventPrevious": "68.7K",
    "eventCurrency": "JPY",
    "eventForecast": ""
  }}}
