{"events": {"event": [
    {
      "eventDateTime": "2008-03-01T09:00:00",
      "eventActual": "6.30%",
      "eventCountry": "Hong Kong",
      "eventExpectedVolatility": "Low",
      "eventName": "CPI (YoY) (Feb)",
      "eventTimeZone": "GMT",
      "eventPrevious": "3.20%",
      "eventCurrency": "HKD",
      "eventForecast": ""
    },
    {
      "eventDateTime": "2008-03-01T09:00:00",
      "eventActual": "7.60%",
      "eventCountry": "Hong Kong",
      "eventExpectedVolatility": "Low",
      "eventName": "Exports (MoM) (Feb)",
      "eventTimeZone": "GMT",
      "eventPrevious": "15.70%",
      "eventCurrency": "HKD",
      "eventForecast": ""
    },
    {
      "eventDateTime": "2008-03-01T09:00:00",
      "eventActual": "160.23B",
      "eventCountry": "Hong Kong",
      "eventExpectedVolatility": "Low",
      "eventName": "Foreign Reserves (USD) (Feb)",
      "eventTimeZone": "GMT",
      "eventPrevious": "159.91B",
      "eventCurrency": "HKD",
      "eventForecast": ""
    },
    {
      "eventDateTime": "2008-03-01T09:00:00",
      "eventActual": "11.90%",
      "eventCountry": "Hong Kong",
      "eventExpectedVolatility": "Low",
      "eventName": "Imports (MoM) (Feb)",
      "eventTimeZone": "GMT",
      "eventPrevious": "16.90%",
      "eventCurrency": "HKD",
      "eventForecast": ""
    },
    {
      "eventDateTime": "2008-03-01T09:00:00",
      "eventActual": "8.38%",
      "eventCountry": "Hong Kong",
      "eventExpectedVolatility": "Low",
      "eventName": "M3 Money Supply (Feb)",
      "eventTimeZone": "GMT",
      "eventPrevious": "13.81%",
      "eventCurrency": "HKD",
      "eventForecast": ""
    },
    {
      "eventDateTime": "2008-03-01T09:00:00",
      "eventActual": "9.60%",
      "eventCountry": "Hong Kong",
      "eventExpectedVolatility": "Low",
      "eventName": "Retail Sales (YoY) (Feb)",
      "eventTimeZone": "GMT",
      "eventPrevious": "23.40%",
      "eventCurrency": "HKD",
      "eventForecast": ""
    },
    {
      "eventDateTime": "2008-03-01T09:00:00",
      "eventActual": "3.30%",
      "eventCountry": "Hong Kong",
      "eventExpectedVolatility": "Low",
      "eventName": "Unemployment Rate (Feb)",
      "eventTimeZone": "GMT",
      "eventPrevious": "3.40%",
      "eventCurrency": "HKD",
      "eventForecast": ""
    }
  ]}}
