"CPI (MoM) (Nov)";"China";"CNY";"2005-12-01T09:00:00";"GMT";"0.40%";"";"-0.30%";"Moderate"
"CPI (YoY) (Nov)";"China";"CNY";"2005-12-01T09:00:00";"GMT";"1.20%";"";"1.30%";"Moderate"
"Exports (YoY) (Nov)";"China";"CNY";"2005-12-01T09:00:00";"GMT";"29.50%";"";"18.50%";"Moderate"
"FDI (Nov)";"China";"CNY";"2005-12-01T09:00:00";"GMT";"-2.12%";"";"-1.90%";"Low"
"Fixed Asset Investment (YoY) (Nov)";"China";"CNY";"2005-12-01T09:00:00";"GMT";"27.60%";"";"27.80%";"Moderate"
"Imports (YoY) (Nov)";"China";"CNY";"2005-12-01T09:00:00";"GMT";"23.40%";"";"21.00%";"Moderate"
"Industrial Production (YoY) (Nov)";"China";"CNY";"2005-12-01T09:00:00";"GMT";"16.10%";"";"16.60%";"High"
"M2 Money Stock (YoY) (Nov)";"China";"CNY";"2005-12-01T09:00:00";"GMT";"18.00%";"";"18.30%";"Low"
"Manufacturing PMI (Nov)";"China";"CNY";"2005-12-01T09:00:00";"GMT";"54.10";"";"54.10";"High"
"New Loans (Nov)";"China";"CNY";"2005-12-01T09:00:00";"GMT";"26.40B";"";"225.10B";"Moderate"
"Outstanding Loan Growth (YoY) (Nov)";"China";"CNY";"2005-12-01T09:00:00";"GMT";"13.80%";"";"14.10%";"Low"
"PBoC Deposit Rate (Nov)";"China";"CNY";"2005-12-01T09:00:00";"GMT";"2.25%";"";"2.25%";"Moderate"
"PBoC Interest Rate (Nov)";"China";"CNY";"2005-12-01T09:00:00";"GMT";"5.58%";"";"5.58%";"High"
"PBoC Reserve Requirement Ratio (Nov)";"China";"CNY";"2005-12-01T09:00:00";"GMT";"7.50%";"";"7.50%";"Moderate"
"PPI (YoY) (Nov)";"China";"CNY";"2005-12-01T09:00:00";"GMT";"4.00%";"";"3.20%";"Moderate"
"Retail Sales (YoY) (Nov)";"China";"CNY";"2005-12-01T09:00:00";"GMT";"12.80%";"";"12.40%";"Low"
"Trade Balance (USD) (Nov)";"China";"CNY";"2005-12-01T09:00:00";"GMT";"11.98B";"";"10.54B";"Moderate"
