{"events": {"event": [
    {
      "eventDateTime": "2018-09-17T05:30:00",
      "eventActual": "54.3%",
      "eventCountry": "Canada",
      "eventExpectedVolatility": "Moderate",
      "eventName": "Investing.com USD/CAD Index",
      "eventTimeZone": "GMT",
      "eventPrevious": "50.4%",
      "eventCurrency": "CAD",
      "eventForecast": ""
    },
    {
      "eventDateTime": "2018-09-17T12:30:00",
      "eventActual": "12.65B",
      "eventCountry": "Canada",
      "eventExpectedVolatility": "Moderate",
      "eventName": "Foreign Securities Purchases (Jul)",
      "eventTimeZone": "GMT",
      "eventPrevious": "10.30B",
      "eventCurrency": "CAD",
      "eventForecast": "4.35B"
    },
    {
      "eventDateTime": "2018-09-17T12:30:00",
      "eventActual": "13.13B",
      "eventCountry": "Canada",
      "eventExpectedVolatility": "Low",
      "eventName": "Foreign Securities Purchases by Canadians (Jul)",
      "eventTimeZone": "GMT",
      "eventPrevious": "11.25B",
      "eventCurrency": "CAD",
      "eventForecast": ""
    }
  ]}}
