"IEA Monthly Report";"United States";"USD";"2017-04-13T09:00:00";"GMT";" ";"";"";"Moderate"
"Continuing Jobless Claims";"United States";"USD";"2017-04-13T12:30:00";"GMT";"2,035K";"2,028K";"2,028K";"Low"
"Core PPI (MoM) (Mar)";"United States";"USD";"2017-04-13T12:30:00";"GMT";"0.3%";"0.2%";"0.0%";"Moderate"
"Core PPI (YoY) (Mar)";"United States";"USD";"2017-04-13T12:30:00";"GMT";"1.5%";"1.8%";"1.6%";"Low"
"Initial Jobless Claims";"United States";"USD";"2017-04-13T12:30:00";"GMT";"235K";"245K";"234K";"Moderate"
"Jobless Claims 4-Week Avg.";"United States";"USD";"2017-04-13T12:30:00";"GMT";"250.25K";"";"247.25K";"Low"
"PPI (MoM) (Mar)";"United States";"USD";"2017-04-13T12:30:00";"GMT";"0.3%";"0.0%";"-0.1%";"High"
"PPI (YoY) (Mar)";"United States";"USD";"2017-04-13T12:30:00";"GMT";"2.2%";"2.4%";"2.3%";"Low"
"Bloomberg Consumer Confidence";"United States";"USD";"2017-04-13T13:45:00";"GMT";"50.2";"";"51.0";"Low"
"Michigan 5-Year Inflation Expectations (Apr)";"United States";"USD";"2017-04-13T14:00:00";"GMT";"2.40%";"";"2.40%";"Low"
"Michigan Consumer Expectations (Apr)";"United States";"USD";"2017-04-13T14:00:00";"GMT";"86.5";"86.0";"86.9";"Moderate"
"Michigan Consumer Sentiment (Apr)";"United States";"USD";"2017-04-13T14:00:00";"GMT";"96.9";"96.5";"98.0";"Moderate"
"Michigan Current Conditions (Apr)";"United States";"USD";"2017-04-13T14:00:00";"GMT";"113.2";"112.4";"115.2";"Low"
"Michigan Inflation Expectations (Apr)";"United States";"USD";"2017-04-13T14:00:00";"GMT";"2.5%";"";"2.5%";"Low"
"Natural Gas Storage";"United States";"USD";"2017-04-13T14:30:00";"GMT";"2B";"9B";"10B";"Low"
"U.S. Baker Hughes Oil Rig Count";"United States";"USD";"2017-04-13T17:00:00";"GMT";"672";"";"683";"Moderate"
