{"events": {"event": [
    {
      "eventDateTime": "2008-12-14T23:50:00",
      "eventActual": "-24",
      "eventCountry": "Japan",
      "eventExpectedVolatility": "High",
      "eventName": "Tankan Large Manufacturers Index",
      "eventTimeZone": "GMT",
      "eventPrevious": "-3",
      "eventCurrency": "JPY",
      "eventForecast": "-23"
    },
    {
      "eventDateTime": "2008-12-14T23:50:00",
      "eventActual": "-9",
      "eventCountry": "Japan",
      "eventExpectedVolatility": "High",
      "eventName": "Tankan Large Non-Manufacturers Index",
      "eventTimeZone": "GMT",
      "eventPrevious": "1",
      "eventCurrency": "JPY",
      "eventForecast": "-9"
    }
  ]}}
