{"events": {"event": [
    {
      "eventDateTime": "2005-01-01T09:00:00",
      "eventActual": "5.20%",
      "eventCountry": "United Kingdom",
      "eventExpectedVolatility": "High",
      "eventName": "Average Earnings Index +Bonus (Dec)",
      "eventTimeZone": "GMT",
      "eventPrevious": "5.10%",
      "eventCurrency": "GBP",
      "eventForecast": ""
    },
    {
      "eventDateTime": "2005-01-01T09:00:00",
      "eventActual": "3.90%",
      "eventCountry": "United Kingdom",
      "eventExpectedVolatility": "Low",
      "eventName": "Average Earnings ex Bonus (Dec)",
      "eventTimeZone": "GMT",
      "eventPrevious": "3.80%",
      "eventCurrency": "GBP",
      "eventForecast": ""
    },
    {
      "eventDateTime": "2005-01-01T09:00:00",
      "eventActual": "-0.40%",
      "eventCountry": "United Kingdom",
      "eventExpectedVolatility": "Moderate",
      "eventName": "BRC Retail Sales Monitor (YoY) (Dec)",
      "eventTimeZone": "GMT",
      "eventPrevious": "-0.20%",
      "eventCurrency": "GBP",
      "eventForecast": ""
    },
    {
      "eventDateTime": "2005-01-01T09:00:00",
      "eventActual": "1.84B",
      "eventCountry": "United Kingdom",
      "eventExpectedVolatility": "Low",
      "eventName": "BoE Consumer Credit (Dec)",
      "eventTimeZone": "GMT",
      "eventPrevious": "1.82B",
      "eventCurrency": "GBP",
      "eventForecast": ""
    },
    {
      "eventDateTime": "2005-01-01T09:00:00",
      "eventActual": "4.75%",
      "eventCountry": "United Kingdom",
      "eventExpectedVolatility": "High",
      "eventName": "BoE Interest Rate Decision (Dec)",
      "eventTimeZone": "GMT",
      "eventPrevious": "4.75%",
      "eventCurrency": "GBP",
      "eventForecast": ""
    },
    {
      "eventDateTime": "2005-01-01T09:00:00",
      "eventActual": "33.00",
      "eventCountry": "United Kingdom",
      "eventExpectedVolatility": "Low",
      "eventName": "CBI Distributive Trades Survey (Dec)",
      "eventTimeZone": "GMT",
      "eventPrevious": "19.00",
      "eventCurrency": "GBP",
      "eventForecast": ""
    },
    {
      "eventDateTime": "2005-01-01T09:00:00",
      "eventActual": "-4.00",
      "eventCountry": "United Kingdom",
      "eventExpectedVolatility": "Moderate",
      "eventName": "CBI Industrial Trends Orders (Dec)",
      "eventTimeZone": "GMT",
      "eventPrevious": "-16.00",
      "eventCurrency": "GBP",
      "eventForecast": ""
    },
    {
      "eventDateTime": "2005-01-01T09:00:00",
      "eventActual": "0.50%",
      "eventCountry": "United Kingdom",
      "eventExpectedVolatility": "Moderate",
      "eventName": "CPI (MoM) (Dec)",
      "eventTimeZone": "GMT",
      "eventPrevious": "0.20%",
      "eventCurrency": "GBP",
      "eventForecast": ""
    },
    {
      "eventDateTime": "2005-01-01T09:00:00",
      "eventActual": "1.70%",
      "eventCountry": "United Kingdom",
      "eventExpectedVolatility": "High",
      "eventName": "CPI (YoY) (Dec)",
      "eventTimeZone": "GMT",
      "eventPrevious": "1.50%",
      "eventCurrency": "GBP",
      "eventForecast": ""
    },
    {
      "eventDateTime": "2005-01-01T09:00:00",
      "eventActual": "-3.40K",
      "eventCountry": "United Kingdom",
      "eventExpectedVolatility": "High",
      "eventName": "Claimant Count Change (Dec)",
      "eventTimeZone": "GMT",
      "eventPrevious": "-2.00K",
      "eventCurrency": "GBP",
      "eventForecast": ""
    },
    {
      "eventDateTime": "2005-01-01T09:00:00",
      "eventActual": "0.10%",
      "eventCountry": "United Kingdom",
      "eventExpectedVolatility": "Low",
      "eventName": "Core PPI Output (MoM) (Dec)",
      "eventTimeZone": "GMT",
      "eventPrevious": "-0.10%",
      "eventCurrency": "GBP",
      "eventForecast": ""
    },
    {
      "eventDateTime": "2005-01-01T09:00:00",
      "eventActual": "0.30%",
      "eventCountry": "United Kingdom",
      "eventExpectedVolatility": "Low",
      "eventName": "Core PPI Output (YoY) (Dec)",
      "eventTimeZone": "GMT",
      "eventPrevious": "0.20%",
      "eventCurrency": "GBP",
      "eventForecast": ""
    },
    {
      "eventDateTime": "2005-01-01T09:00:00",
      "eventActual": "0.50%",
      "eventCountry": "United Kingdom",
      "eventExpectedVolatility": "Low",
      "eventName": "Core RPI (MoM) (Dec)",
      "eventTimeZone": "GMT",
      "eventPrevious": "0.20%",
      "eventCurrency": "GBP",
      "eventForecast": ""
    },
    {
      "eventDateTime": "2005-01-01T09:00:00",
      "eventActual": "2.50%",
      "eventCountry": "United Kingdom",
      "eventExpectedVolatility": "Low",
      "eventName": "Core RPI (YoY) (Dec)",
      "eventTimeZone": "GMT",
      "eventPrevious": "2.20%",
      "eventCurrency": "GBP",
      "eventForecast": ""
    },
    {
      "eventDateTime": "2005-01-01T09:00:00",
      "eventActual": "-0.40%",
      "eventCountry": "United Kingdom",
      "eventExpectedVolatility": "Moderate",
      "eventName": "Core Retail Sales (MoM) (Dec)",
      "eventTimeZone": "GMT",
      "eventPrevious": "0.40%",
      "eventCurrency": "GBP",
      "eventForecast": ""
    },
    {
      "eventDateTime": "2005-01-01T09:00:00",
      "eventActual": "4.20%",
      "eventCountry": "United Kingdom",
      "eventExpectedVolatility": "Moderate",
      "eventName": "Core Retail Sales (YoY) (Dec)",
      "eventTimeZone": "GMT",
      "eventPrevious": "5.50%",
      "eventCurrency": "GBP",
      "eventForecast": ""
    },
    {
      "eventDateTime": "2005-01-01T09:00:00",
      "eventActual": "-3.00",
      "eventCountry": "United Kingdom",
      "eventExpectedVolatility": "Low",
      "eventName": "GfK Consumer Confidence (Dec)",
      "eventTimeZone": "GMT",
      "eventPrevious": "-4.00",
      "eventCurrency": "GBP",
      "eventForecast": ""
    },
    {
      "eventDateTime": "2005-01-01T09:00:00",
      "eventActual": "1.20%",
      "eventCountry": "United Kingdom",
      "eventExpectedVolatility": "Moderate",
      "eventName": "Halifax House Price Index (MoM) (Dec)",
      "eventTimeZone": "GMT",
      "eventPrevious": "-0.40%",
      "eventCurrency": "GBP",
      "eventForecast": ""
    },
    {
      "eventDateTime": "2005-01-01T09:00:00",
      "eventActual": "15.10%",
      "eventCountry": "United Kingdom",
      "eventExpectedVolatility": "Moderate",
      "eventName": "Halifax House Price Index (YoY) (Dec)",
      "eventTimeZone": "GMT",
      "eventPrevious": "16.80%",
      "eventCurrency": "GBP",
      "eventForecast": ""
    },
    {
      "eventDateTime": "2005-01-01T09:00:00",
      "eventActual": "-0.20%",
      "eventCountry": "United Kingdom",
      "eventExpectedVolatility": "Moderate",
      "eventName": "Industrial Production (MoM) (Dec)",
      "eventTimeZone": "GMT",
      "eventPrevious": "0.50%",
      "eventCurrency": "GBP",
      "eventForecast": ""
    },
    {
      "eventDateTime": "2005-01-01T09:00:00",
      "eventActual": "-0.30%",
      "eventCountry": "United Kingdom",
      "eventExpectedVolatility": "Low",
      "eventName": "Industrial Production (YoY) (Dec)",
      "eventTimeZone": "GMT",
      "eventPrevious": "0.50%",
      "eventCurrency": "GBP",
      "eventForecast": ""
    },
    {
      "eventDateTime": "2005-01-01T09:00:00",
      "eventActual": "0.70%",
      "eventCountry": "United Kingdom",
      "eventExpectedVolatility": "Low",
      "eventName": "M4 Money Supply (MoM) (Dec)",
      "eventTimeZone": "GMT",
      "eventPrevious": "0.70%",
      "eventCurrency": "GBP",
      "eventForecast": ""
    },
    {
      "eventDateTime": "2005-01-01T09:00:00",
      "eventActual": "0.10%",
      "eventCountry": "United Kingdom",
      "eventExpectedVolatility": "High",
      "eventName": "Manufacturing Production (MoM) (Dec)",
      "eventTimeZone": "GMT",
      "eventPrevious": "0.80%",
      "eventCurrency": "GBP",
      "eventForecast": ""
    },
    {
      "eventDateTime": "2005-01-01T09:00:00",
      "eventActual": "0.90%",
      "eventCountry": "United Kingdom",
      "eventExpectedVolatility": "Low",
      "eventName": "Manufacturing Production (YoY) (Dec)",
      "eventTimeZone": "GMT",
      "eventPrevious": "1.70%",
      "eventCurrency": "GBP",
      "eventForecast": ""
    },
    {
      "eventDateTime": "2005-01-01T09:00:00",
      "eventActual": "82.63K",
      "eventCountry": "United Kingdom",
      "eventExpectedVolatility": "Low",
      "eventName": "Mortgage Approvals (Dec)",
      "eventTimeZone": "GMT",
      "eventPrevious": "76.98K",
      "eventCurrency": "GBP",
      "eventForecast": ""
    },
    {
      "eventDateTime": "2005-01-01T09:00:00",
      "eventActual": "8.42B",
      "eventCountry": "United Kingdom",
      "eventExpectedVolatility": "Low",
      "eventName": "Mortgage Lending (Dec)",
      "eventTimeZone": "GMT",
      "eventPrevious": "5.57B",
      "eventCurrency": "GBP",
      "eventForecast": ""
    },
    {
      "eventDateTime": "2005-01-01T09:00:00",
      "eventActual": "-0.20%",
      "eventCountry": "United Kingdom",
      "eventExpectedVolatility": "Moderate",
      "eventName": "Nationwide HPI (MoM) (Dec)",
      "eventTimeZone": "GMT",
      "eventPrevious": "0.90%",
      "eventCurrency": "GBP",
      "eventForecast": ""
    },
    {
      "eventDateTime": "2005-01-01T09:00:00",
      "eventActual": "12.70%",
      "eventCountry": "United Kingdom",
      "eventExpectedVolatility": "Moderate",
      "eventName": "Nationwide HPI (YoY) (Dec)",
      "eventTimeZone": "GMT",
      "eventPrevious": "15.00%",
      "eventCurrency": "GBP",
      "eventForecast": ""
    },
    {
      "eventDateTime": "2005-01-01T09:00:00",
      "eventActual": "-2.30%",
      "eventCountry": "United Kingdom",
      "eventExpectedVolatility": "Moderate",
      "eventName": "PPI Input (MoM) (Dec)",
      "eventTimeZone": "GMT",
      "eventPrevious": "-2.20%",
      "eventCurrency": "GBP",
      "eventForecast": ""
    },
    {
      "eventDateTime": "2005-01-01T09:00:00",
      "eventActual": "2.70%",
      "eventCountry": "United Kingdom",
      "eventExpectedVolatility": "Low",
      "eventName": "PPI Input (YoY) (Dec)",
      "eventTimeZone": "GMT",
      "eventPrevious": "5.30%",
      "eventCurrency": "GBP",
      "eventForecast": ""
    },
    {
      "eventDateTime": "2005-01-01T09:00:00",
      "eventActual": "-0.20%",
      "eventCountry": "United Kingdom",
      "eventExpectedVolatility": "Low",
      "eventName": "PPI Output (MoM) (Dec)",
      "eventTimeZone": "GMT",
      "eventPrevious": "0.10%",
      "eventCurrency": "GBP",
      "eventForecast": ""
    },
    {
      "eventDateTime": "2005-01-01T09:00:00",
      "eventActual": "1.50%",
      "eventCountry": "United Kingdom",
      "eventExpectedVolatility": "Low",
      "eventName": "PPI Output (YoY) (Dec)",
      "eventTimeZone": "GMT",
      "eventPrevious": "1.80%",
      "eventCurrency": "GBP",
      "eventForecast": ""
    },
    {
      "eventDateTime": "2005-01-01T09:00:00",
      "eventActual": "7.12B",
      "eventCountry": "United Kingdom",
      "eventExpectedVolatility": "Low",
      "eventName": "Public Sector Net Borrowing (Dec)",
      "eventTimeZone": "GMT",
      "eventPrevious": "9.96B",
      "eventCurrency": "GBP",
      "eventForecast": ""
    },
    {
      "eventDateTime": "2005-01-01T09:00:00",
      "eventActual": "14.83B",
      "eventCountry": "United Kingdom",
      "eventExpectedVolatility": "Low",
      "eventName": "Public Sector Net Cash Requirement (Dec)",
      "eventTimeZone": "GMT",
      "eventPrevious": "9.26B",
      "eventCurrency": "GBP",
      "eventForecast": ""
    },
    {
      "eventDateTime": "2005-01-01T09:00:00",
      "eventActual": "-38.00%",
      "eventCountry": "United Kingdom",
      "eventExpectedVolatility": "Moderate",
      "eventName": "RICS House Price Balance (Dec)",
      "eventTimeZone": "GMT",
      "eventPrevious": "-42.00%",
      "eventCurrency": "GBP",
      "eventForecast": ""
    },
    {
      "eventDateTime": "2005-01-01T09:00:00",
      "eventActual": "0.50%",
      "eventCountry": "United Kingdom",
      "eventExpectedVolatility": "Low",
      "eventName": "RPI (MoM) (Dec)",
      "eventTimeZone": "GMT",
      "eventPrevious": "0.20%",
      "eventCurrency": "GBP",
      "eventForecast": ""
    },
    {
      "eventDateTime": "2005-01-01T09:00:00",
      "eventActual": "3.50%",
      "eventCountry": "United Kingdom",
      "eventExpectedVolatility": "Low",
      "eventName": "RPI (YoY) (Dec)",
      "eventTimeZone": "GMT",
      "eventPrevious": "3.40%",
      "eventCurrency": "GBP",
      "eventForecast": ""
    },
    {
      "eventDateTime": "2005-01-01T09:00:00",
      "eventActual": "-0.40%",
      "eventCountry": "United Kingdom",
      "eventExpectedVolatility": "High",
      "eventName": "Retail Sales (MoM) (Dec)",
      "eventTimeZone": "GMT",
      "eventPrevious": "-0.30%",
      "eventCurrency": "GBP",
      "eventForecast": ""
    },
    {
      "eventDateTime": "2005-01-01T09:00:00",
      "eventActual": "4.10%",
      "eventCountry": "United Kingdom",
      "eventExpectedVolatility": "Moderate",
      "eventName": "Retail Sales (YoY) (Dec)",
      "eventTimeZone": "GMT",
      "eventPrevious": "5.00%",
      "eventCurrency": "GBP",
      "eventForecast": ""
    },
    {
      "eventDateTime": "2005-01-01T09:00:00",
      "eventActual": "-5.13B",
      "eventCountry": "United Kingdom",
      "eventExpectedVolatility": "Moderate",
      "eventName": "Trade Balance (Dec)",
      "eventTimeZone": "GMT",
      "eventPrevious": "-5.18B",
      "eventCurrency": "GBP",
      "eventForecast": ""
    },
    {
      "eventDateTime": "2005-01-01T09:00:00",
      "eventActual": "-2.54B",
      "eventCountry": "United Kingdom",
      "eventExpectedVolatility": "Moderate",
      "eventName": "Trade Balance Non-EU (Dec)",
      "eventTimeZone": "GMT",
      "eventPrevious": "-2.53B",
      "eventCurrency": "GBP",
      "eventForecast": ""
    },
    {
      "eventDateTime": "2005-01-01T09:00:00",
      "eventActual": "4.70%",
      "eventCountry": "United Kingdom",
      "eventExpectedVolatility": "Moderate",
      "eventName": "Unemployment Rate (Dec)",
      "eventTimeZone": "GMT",
      "eventPrevious": "4.70%",
      "eventCurrency": "GBP",
      "eventForecast": ""
    }
  ]}}
