{"events": {"event": {
    "eventDateTime": "2014-09-16T05:30:00",
    "eventActual": "",
    "eventCountry": "Japan",
    "eventExpectedVolatility": "Moderate",
    "eventName": "BoJ Governor Kuroda Speaks",
    "eventTimeZone": "GMT",
    "eventPrevious": "",
    "eventCurrency": "JPY",
    "eventForecast": ""
  }}}
