{"events": {"event": {
    "eventDateTime": "2009-05-08T19:30:00",
    "eventActual": "23.1K",
    "eventCountry": "Australia",
    "eventExpectedVolatility": "Moderate",
    "eventName": "CFTC AUD speculative net positions",
    "eventTimeZone": "GMT",
    "eventPrevious": "16.7K",
    "eventCurrency": "AUD",
    "eventForecast": ""
  }}}
