{"events": {"event": {
    "eventDateTime": "2012-01-27T20:30:00",
    "eventActual": "7.4K",
    "eventCountry": "Russia",
    "eventExpectedVolatility": "Moderate",
    "eventName": "CFTC RUB speculative positions",
    "eventTimeZone": "GMT",
    "eventPrevious": "7.3K",
    "eventCurrency": "RUB",
    "eventForecast": ""
  }}}
