"CPI (MoM)";"Canada";"CAD";"2012-01-20T12:00:00";"GMT";"0.1%";"-0.1%";"-0.6%";"Moderate"
"Core CPI (MoM)";"Canada";"CAD";"2012-01-20T12:00:00";"GMT";"0.1%";"-0.3%";"-0.5%";"High"
"Wholesale Sales (MoM)";"Canada";"CAD";"2012-01-20T13:30:00";"GMT";"0.9%";"1.0%";"-0.4%";"Moderate"
"CFTC CAD speculative net positions";"Canada";"CAD";"2012-01-20T20:30:00";"GMT";"-28.6K";"";"-28.7K";"Low"
