{"events": {"event": [
    {
      "eventDateTime": "2016-06-10T14:00:00",
      "eventActual": "2.30%",
      "eventCountry": "United States",
      "eventExpectedVolatility": "Low",
      "eventName": "Michigan 5-Year Inflation Expectations (Jun)",
      "eventTimeZone": "GMT",
      "eventPrevious": "2.50%",
      "eventCurrency": "USD",
      "eventForecast": ""
    },
    {
      "eventDateTime": "2016-06-10T14:00:00",
      "eventActual": "83.2",
      "eventCountry": "United States",
      "eventExpectedVolatility": "Moderate",
      "eventName": "Michigan Consumer Expectations (Jun)",
      "eventTimeZone": "GMT",
      "eventPrevious": "84.9",
      "eventCurrency": "USD",
      "eventForecast": "83.8"
    },
    {
      "eventDateTime": "2016-06-10T14:00:00",
      "eventActual": "94.3",
      "eventCountry": "United States",
      "eventExpectedVolatility": "Moderate",
      "eventName": "Michigan Consumer Sentiment (Jun)",
      "eventTimeZone": "GMT",
      "eventPrevious": "94.7",
      "eventCurrency": "USD",
      "eventForecast": "94.0"
    },
    {
      "eventDateTime": "2016-06-10T14:00:00",
      "eventActual": "111.7",
      "eventCountry": "United States",
      "eventExpectedVolatility": "Low",
      "eventName": "Michigan Current Conditions (Jun)",
      "eventTimeZone": "GMT",
      "eventPrevious": "109.9",
      "eventCurrency": "USD",
      "eventForecast": "108.8"
    },
    {
      "eventDateTime": "2016-06-10T14:00:00",
      "eventActual": "2.4%",
      "eventCountry": "United States",
      "eventExpectedVolatility": "Low",
      "eventName": "Michigan Inflation Expectations (Jun)",
      "eventTimeZone": "GMT",
      "eventPrevious": "2.4%",
      "eventCurrency": "USD",
      "eventForecast": ""
    },
    {
      "eventDateTime": "2016-06-10T17:05:00",
      "eventActual": "328",
      "eventCountry": "United States",
      "eventExpectedVolatility": "Moderate",
      "eventName": "U.S. Baker Hughes Oil Rig Count",
      "eventTimeZone": "GMT",
      "eventPrevious": "325",
      "eventCurrency": "USD",
      "eventForecast": ""
    },
    {
      "eventDateTime": "2016-06-10T18:00:00",
      "eventActual": "-53.0B",
      "eventCountry": "United States",
      "eventExpectedVolatility": "Moderate",
      "eventName": "Federal Budget Balance (May)",
      "eventTimeZone": "GMT",
      "eventPrevious": "106.0B",
      "eventCurrency": "USD",
      "eventForecast": "-60.0B"
    },
    {
      "eventDateTime": "2016-06-10T19:30:00",
      "eventActual": "-39.3K",
      "eventCountry": "United States",
      "eventExpectedVolatility": "Low",
      "eventName": "CFTC Copper speculative net positions",
      "eventTimeZone": "GMT",
      "eventPrevious": "-38.8K",
      "eventCurrency": "USD",
      "eventForecast": ""
    },
    {
      "eventDateTime": "2016-06-10T19:30:00",
      "eventActual": "325.2K",
      "eventCountry": "United States",
      "eventExpectedVolatility": "Moderate",
      "eventName": "CFTC Crude Oil speculative net positions",
      "eventTimeZone": "GMT",
      "eventPrevious": "347.0K",
      "eventCurrency": "USD",
      "eventForecast": ""
    },
    {
      "eventDateTime": "2016-06-10T19:30:00",
      "eventActual": "228.6K",
      "eventCountry": "United States",
      "eventExpectedVolatility": "Moderate",
      "eventName": "CFTC Gold speculative net positions",
      "eventTimeZone": "GMT",
      "eventPrevious": "197.1K",
      "eventCurrency": "USD",
      "eventForecast": ""
    },
    {
      "eventDateTime": "2016-06-10T19:30:00",
      "eventActual": "-31.8K",
      "eventCountry": "United States",
      "eventExpectedVolatility": "Moderate",
      "eventName": "CFTC Sandamp:P 500 speculative net positions",
      "eventTimeZone": "GMT",
      "eventPrevious": "44.4K",
      "eventCurrency": "USD",
      "eventForecast": ""
    },
    {
      "eventDateTime": "2016-06-10T19:30:00",
      "eventActual": "57.0K",
      "eventCountry": "United States",
      "eventExpectedVolatility": "Low",
      "eventName": "CFTC Silver speculative net positions",
      "eventTimeZone": "GMT",
      "eventPrevious": "61.6K",
      "eventCurrency": "USD",
      "eventForecast": ""
    }
  ]}}
