"Manufacturing Sales (MoM)";"Canada";"CAD";"2010-05-14T12:30:00";"GMT";"0.00%";"1.10%";"1.20%";"Moderate"
"New Motor Vehicle Sales (MoM)";"Canada";"CAD";"2010-05-14T12:30:00";"GMT";"8.1%";"-3.9%";"-4.2%";"Low"
"CFTC CAD speculative net positions";"Canada";"CAD";"2010-05-14T19:30:00";"GMT";"52.0K";"";"50.5K";"Low"
