{"events": {"event": [
    {
      "eventDateTime": "2017-05-23T12:00:00",
      "eventActual": "0.24%",
      "eventCountry": "Brazil",
      "eventExpectedVolatility": "Low",
      "eventName": "Mid-Month CPI (MoM) (May)",
      "eventTimeZone": "GMT",
      "eventPrevious": "0.21%",
      "eventCurrency": "BRL",
      "eventForecast": "0.21%"
    },
    {
      "eventDateTime": "2017-05-23T12:00:00",
      "eventActual": "3.77%",
      "eventCountry": "Brazil",
      "eventExpectedVolatility": "Low",
      "eventName": "Mid-Month CPI (YoY) (May)",
      "eventTimeZone": "GMT",
      "eventPrevious": "4.41%",
      "eventCurrency": "BRL",
      "eventForecast": "3.74%"
    },
    {
      "eventDateTime": "2017-05-23T13:30:00",
      "eventActual": "1.20B",
      "eventCountry": "Brazil",
      "eventExpectedVolatility": "Low",
      "eventName": "Current Account (USD) (Apr)",
      "eventTimeZone": "GMT",
      "eventPrevious": "1.40B",
      "eventCurrency": "BRL",
      "eventForecast": "1.25B"
    },
    {
      "eventDateTime": "2017-05-23T13:30:00",
      "eventActual": "5.60B",
      "eventCountry": "Brazil",
      "eventExpectedVolatility": "Low",
      "eventName": "Foreign direct investment (USD) (Apr)",
      "eventTimeZone": "GMT",
      "eventPrevious": "7.11B",
      "eventCurrency": "BRL",
      "eventForecast": "5.35B"
    }
  ]}}
