{"events": {"event": {
    "eventDateTime": "2018-07-03T03:35:00",
    "eventActual": "0.037%",
    "eventCountry": "Japan",
    "eventExpectedVolatility": "Moderate",
    "eventName": "10-Year JGB Auction",
    "eventTimeZone": "GMT",
    "eventPrevious": "0.048%",
    "eventCurrency": "JPY",
    "eventForecast": ""
  }}}
