{"events": {"event": [
    {
      "eventDateTime": "2006-06-02T12:30:00",
      "eventActual": "24K",
      "eventCountry": "United States",
      "eventExpectedVolatility": "High",
      "eventName": "Nonfarm Payrolls (May)",
      "eventTimeZone": "GMT",
      "eventPrevious": "182K",
      "eventCurrency": "USD",
      "eventForecast": ""
    },
    {
      "eventDateTime": "2006-06-02T17:00:00",
      "eventActual": "265",
      "eventCountry": "United States",
      "eventExpectedVolatility": "Moderate",
      "eventName": "U.S. Baker Hughes Oil Rig Count",
      "eventTimeZone": "GMT",
      "eventPrevious": "265",
      "eventCurrency": "USD",
      "eventForecast": ""
    },
    {
      "eventDateTime": "2006-06-02T20:30:00",
      "eventActual": "48.5k",
      "eventCountry": "United States",
      "eventExpectedVolatility": "Moderate",
      "eventName": "CFTC Crude Oil speculative net positions",
      "eventTimeZone": "GMT",
      "eventPrevious": "54.6k",
      "eventCurrency": "USD",
      "eventForecast": ""
    }
  ]}}
