"Foreign Reserves (USD) (Jul)";"South Africa";"ZAR";"2016-08-08T06:00:00";"GMT";"46.37B";"46.34B";"46.16B";"Low"
"Net FX Reserves (USD) (Jul)";"South Africa";"ZAR";"2016-08-08T06:00:00";"GMT";"40.826B";"40.870B";"40.900B";"Low"
"Business Confidence (Jul)";"South Africa";"ZAR";"2016-08-08T09:30:00";"GMT";"95.1";"";"96.0";"Low"
