"Capacity Utilization Rate (Oct)";"United States";"USD";"2018-11-16T14:15:00";"GMT";"78.5%";"78.3%";"78.4%";"Low"
"Industrial Production (MoM) (Oct)";"United States";"USD";"2018-11-16T14:15:00";"GMT";"0.2%";"0.2%";"0.1%";"Moderate"
"Industrial Production (YoY)";"United States";"USD";"2018-11-16T14:15:00";"GMT";"5.6%";"";"4.1%";"Moderate"
"Manufacturing Production (MoM) (Oct)";"United States";"USD";"2018-11-16T14:15:00";"GMT";"0.3%";"0.2%";"0.3%";"Low"
"KC Fed Composite Index (Nov)";"United States";"USD";"2018-11-16T16:00:00";"GMT";"8";"";"15";"Low"
"KC Fed Manufacturing Index (Nov)";"United States";"USD";"2018-11-16T16:00:00";"GMT";"5";"";"24";"Low"
"Chicago Fed President Evans Speaks";"United States";"USD";"2018-11-16T16:30:00";"GMT";" ";"";"";"Low"
"U.S. Baker Hughes Oil Rig Count";"United States";"USD";"2018-11-16T18:00:00";"GMT";"886";"";"888";"Moderate"
"U.S. Baker Hughes Total Rig Count";"United States";"USD";"2018-11-16T18:00:00";"GMT";"1,081";"";"1,082";"Moderate"
"CFTC Copper speculative net positions";"United States";"USD";"2018-11-16T20:30:00";"GMT";"6.4K";"";"3.4K";"Low"
"CFTC Crude Oil speculative net positions";"United States";"USD";"2018-11-16T20:30:00";"GMT";"403.8K";"";"381.2K";"Moderate"
"CFTC Gold speculative net positions";"United States";"USD";"2018-11-16T20:30:00";"GMT";"19.0K";"";"-9.2K";"Moderate"
"CFTC Sandamp:P 500 speculative net positions";"United States";"USD";"2018-11-16T20:30:00";"GMT";"198.0K";"";"201.4K";"Moderate"
"CFTC Silver speculative net positions";"United States";"USD";"2018-11-16T20:30:00";"GMT";"-2.5K";"";"-17.1K";"Low"
"Overall Net Capital Flow (Sep)";"United States";"USD";"2018-11-16T21:00:00";"GMT";"108.10B";"";"-29.10B";"Low"
"TIC Net Long-Term Transactions (Sep)";"United States";"USD";"2018-11-16T21:00:00";"GMT";"131.7B";"46.2B";"30.8B";"Moderate"
"TIC Net Long-Term Transactions including Swaps (Sep)";"United States";"USD";"2018-11-16T21:00:00";"GMT";"111.40B";"";"16.70B";"Low"
"US Foreign Buying, T-bonds (Sep)";"United States";"USD";"2018-11-16T21:00:00";"GMT";"63.10B";"";"-11.50B";"Low"
