{"events": {"event": {
    "eventDateTime": "2010-06-07T01:30:00",
    "eventActual": "4.30%",
    "eventCountry": "Australia",
    "eventExpectedVolatility": "Low",
    "eventName": "ANZ Job Advertisements (MoM)",
    "eventTimeZone": "GMT",
    "eventPrevious": "-1.20%",
    "eventCurrency": "AUD",
    "eventForecast": ""
  }}}
