{"events": {"event": [
    {
      "eventDateTime": "2018-09-08T15:40:00",
      "eventActual": "9.8%",
      "eventCountry": "China",
      "eventExpectedVolatility": "Moderate",
      "eventName": "Exports (YoY) (Aug)",
      "eventTimeZone": "GMT",
      "eventPrevious": "12.2%",
      "eventCurrency": "CNY",
      "eventForecast": "10.1%"
    },
    {
      "eventDateTime": "2018-09-08T15:40:00",
      "eventActual": "20.0%",
      "eventCountry": "China",
      "eventExpectedVolatility": "Moderate",
      "eventName": "Imports (YoY) (Aug)",
      "eventTimeZone": "GMT",
      "eventPrevious": "27.3%",
      "eventCurrency": "CNY",
      "eventForecast": "18.7%"
    },
    {
      "eventDateTime": "2018-09-08T15:40:00",
      "eventActual": "27.91B",
      "eventCountry": "China",
      "eventExpectedVolatility": "Moderate",
      "eventName": "Trade Balance (USD) (Aug)",
      "eventTimeZone": "GMT",
      "eventPrevious": "28.05B",
      "eventCurrency": "CNY",
      "eventForecast": "31.79B"
    }
  ]}}
