{"events": {"event": {
    "eventDateTime": "2015-04-01T20:00:00",
    "eventActual": "-10.80%",
    "eventCountry": "New Zealand",
    "eventExpectedVolatility": "Moderate",
    "eventName": "GlobalDairyTrade Price Index",
    "eventTimeZone": "GMT",
    "eventPrevious": "-8.80%",
    "eventCurrency": "NZD",
    "eventForecast": ""
  }}}
