{"events": {"event": [
    {
      "eventDateTime": "2011-04-05T08:30:00",
      "eventActual": "57.1",
      "eventCountry": "United Kingdom",
      "eventExpectedVolatility": "High",
      "eventName": "Services PMI",
      "eventTimeZone": "GMT",
      "eventPrevious": "52.6",
      "eventCurrency": "GBP",
      "eventForecast": "52.9"
    },
    {
      "eventDateTime": "2011-04-05T23:01:00",
      "eventActual": "2.4%",
      "eventCountry": "United Kingdom",
      "eventExpectedVolatility": "Low",
      "eventName": "BRC Shop Price Index (YoY)",
      "eventTimeZone": "GMT",
      "eventPrevious": "2.7%",
      "eventCurrency": "GBP",
      "eventForecast": ""
    }
  ]}}
