"Spanish CPI (MoM)";"Spain";"EUR";"2019-06-27T07:00:00";"GMT";"0.2%";"0.0%";"-0.1%";"Low"
"Spanish CPI (YoY)";"Spain";"EUR";"2019-06-27T07:00:00";"GMT";"0.8%";"0.8%";"0.4%";"Moderate"
"Spanish HICP (MoM)";"Spain";"EUR";"2019-06-27T07:00:00";"GMT";"0.2%";"0.0%";"-0.1%";"Low"
"Spanish HICP (YoY) (Jun)";"Spain";"EUR";"2019-06-27T07:00:00";"GMT";"0.9%";"0.8%";"0.6%";"Moderate"
"Italian Business Confidence (Jun)";"Italy";"EUR";"2019-06-27T08:00:00";"GMT";"101.9";"101.0";"100.8";"Low"
"Italian Consumer Confidence (Jun)";"Italy";"EUR";"2019-06-27T08:00:00";"GMT";"111.6";"111.3";"109.6";"Low"
"Business Climate (Jun)";"Euro Zone";"EUR";"2019-06-27T09:00:00";"GMT";"0.30";"0.23";"0.17";"Low"
"Business and Consumer Survey (Jun)";"Euro Zone";"EUR";"2019-06-27T09:00:00";"GMT";"105.2";"104.6";"103.3";"Low"
"Consumer Confidence (Jun)";"Euro Zone";"EUR";"2019-06-27T09:00:00";"GMT";"-6.5";"-7.2";"-7.2";"Low"
"Consumer Inflation Expectation (Jun)";"Euro Zone";"EUR";"2019-06-27T09:00:00";"GMT";"23.2";"";"21.9";"Low"
"Industrial Sentiment (Jun)";"Euro Zone";"EUR";"2019-06-27T09:00:00";"GMT";"-2.9";"-3.1";"-5.6";"Low"
"Italian Trade Balance Non-EU (May)";"Italy";"EUR";"2019-06-27T09:00:00";"GMT";"1.89B";"";"3.11B";"Low"
"Selling Price Expectations (Jun)";"Euro Zone";"EUR";"2019-06-27T09:00:00";"GMT";"5.3";"";"3.3";"Low"
"Services Sentiment (Jun)";"Euro Zone";"EUR";"2019-06-27T09:00:00";"GMT";"12.1";"12.4";"11.0";"Low"
"Italian 10-Year BTP Auction";"Italy";"EUR";"2019-06-27T10:00:00";"GMT";"2.60%";"";"2.09%";"Moderate"
"Italian 5-Year BTP Auction";"Italy";"EUR";"2019-06-27T10:00:00";"GMT";"1.81%";"";"1.34%";"Low"
"Spanish Business Confidence";"Spain";"EUR";"2019-06-27T11:30:00";"GMT";"-3.3";"";"-3.7";"Low"
"German CPI (MoM) (Jun)";"Germany";"EUR";"2019-06-27T12:00:00";"GMT";"0.2%";"0.2%";"0.3%";"Moderate"
"German CPI (YoY) (Jun)";"Germany";"EUR";"2019-06-27T12:00:00";"GMT";"1.4%";"1.4%";"1.6%";"Low"
"German HICP (MoM) (Jun)";"Germany";"EUR";"2019-06-27T12:00:00";"GMT";"0.3%";"0.1%";"0.1%";"Low"
"German HICP (YoY) (Jun)";"Germany";"EUR";"2019-06-27T12:00:00";"GMT";"1.3%";"1.3%";"1.3%";"Low"
