{"events": {"event": {
    "eventDateTime": "2013-01-31T11:00:00",
    "eventActual": "4.6%",
    "eventCountry": "Brazil",
    "eventExpectedVolatility": "Moderate",
    "eventName": "Unemployment Rate",
    "eventTimeZone": "GMT",
    "eventPrevious": "4.9%",
    "eventCurrency": "BRL",
    "eventForecast": "4.4%"
  }}}
