"German PPI (MoM)";"Germany";"EUR";"2011-05-20T06:00:00";"GMT";"0.4%";"0.6%";"1.0%";"Moderate"
"Current Account";"Euro Zone";"EUR";"2011-05-20T08:00:00";"GMT";"-6.5B";"-6.5B";"-4.7B";"Low"
"Italian Industrial New Orders (MoM)";"Italy";"EUR";"2011-05-20T11:00:00";"GMT";" ";"";"8.0%";"Low"
"Consumer Confidence";"Euro Zone";"EUR";"2011-05-20T14:00:00";"GMT";"-12.0";"-12.0";"-10.0";"Low"
"CFTC EUR speculative net positions";"Euro Zone";"EUR";"2011-05-20T19:30:00";"GMT";"61.4K";"";"41.6K";"Moderate"
