"GDP (QoQ)";"United States";"USD";"2009-12-22T13:30:00";"GMT";"2.8%";"2.8%";"2.2%";"High"
"GDP Price Index (QoQ)";"United States";"USD";"2009-12-22T13:30:00";"GMT";"0.5%";"0.5%";"0.4%";"Moderate"
"Existing Home Sales";"United States";"USD";"2009-12-22T15:00:00";"GMT";"6.09M";"6.25M";"6.54M";"High"
"House Price Index (MoM)";"United States";"USD";"2009-12-22T15:00:00";"GMT";"0.4%";"0.2%";"0.6%";"Low"
"Richmond Manufacturing Index";"United States";"USD";"2009-12-22T15:00:00";"GMT";"1";"4";"-4";"Low"
"Bloomberg Consumer Confidence";"United States";"USD";"2009-12-22T22:00:00";"GMT";"27.5";"";"29";"Low"
