{"events": {"event": [
    {
      "eventDateTime": "2018-08-15T09:35:00",
      "eventActual": "0.940%",
      "eventCountry": "Germany",
      "eventExpectedVolatility": "Low",
      "eventName": "German 30-Year Bund Auction",
      "eventTimeZone": "GMT",
      "eventPrevious": "1.020%",
      "eventCurrency": "EUR",
      "eventForecast": ""
    },
    {
      "eventDateTime": "2018-08-15T16:00:00",
      "eventActual": "",
      "eventCountry": "Germany",
      "eventExpectedVolatility": "Moderate",
      "eventName": "German Buba President Weidmann Speaks",
      "eventTimeZone": "GMT",
      "eventPrevious": "",
      "eventCurrency": "EUR",
      "eventForecast": ""
    }
  ]}}
