{"events": {"event": {
    "eventDateTime": "2017-09-14T13:00:00",
    "eventActual": "427.3B",
    "eventCountry": "Russia",
    "eventExpectedVolatility": "Moderate",
    "eventName": "Central Bank reserves (USD)",
    "eventTimeZone": "GMT",
    "eventPrevious": "423.1B",
    "eventCurrency": "RUB",
    "eventForecast": ""
  }}}
