{"events": {"event": [
    {
      "eventDateTime": "2016-02-09T06:45:00",
      "eventActual": "3.8%",
      "eventCountry": "Switzerland",
      "eventExpectedVolatility": "Moderate",
      "eventName": "Unemployment Rate n.s.a. (Jan)",
      "eventTimeZone": "GMT",
      "eventPrevious": "3.7%",
      "eventCurrency": "CHF",
      "eventForecast": "3.7%"
    },
    {
      "eventDateTime": "2016-02-09T06:45:00",
      "eventActual": "3.4%",
      "eventCountry": "Switzerland",
      "eventExpectedVolatility": "Moderate",
      "eventName": "Unemployment Rate s.a. (Jan)",
      "eventTimeZone": "GMT",
      "eventPrevious": "3.4%",
      "eventCurrency": "CHF",
      "eventForecast": "3.4%"
    }
  ]}}
