{"events": {"event": {
    "eventDateTime": "2009-07-28T22:45:00",
    "eventActual": "-9.5%",
    "eventCountry": "New Zealand",
    "eventExpectedVolatility": "Moderate",
    "eventName": "Building Consents (MoM)",
    "eventTimeZone": "GMT",
    "eventPrevious": "3.0%",
    "eventCurrency": "NZD",
    "eventForecast": "-4.0%"
  }}}
