{"events": {"event": [
    {
      "eventDateTime": "2019-09-02T11:25:00",
      "eventActual": "",
      "eventCountry": "Brazil",
      "eventExpectedVolatility": "Moderate",
      "eventName": "BCB Focus Market Readout",
      "eventTimeZone": "GMT",
      "eventPrevious": "",
      "eventCurrency": "BRL",
      "eventForecast": ""
    },
    {
      "eventDateTime": "2019-09-02T13:00:00",
      "eventActual": "52.5",
      "eventCountry": "Brazil",
      "eventExpectedVolatility": "Low",
      "eventName": "Markit Manufacturing PMI (Aug)",
      "eventTimeZone": "GMT",
      "eventPrevious": "49.9",
      "eventCurrency": "BRL",
      "eventForecast": ""
    },
    {
      "eventDateTime": "2019-09-02T19:00:00",
      "eventActual": "3.28B",
      "eventCountry": "Brazil",
      "eventExpectedVolatility": "Low",
      "eventName": "Trade Balance (Aug)",
      "eventTimeZone": "GMT",
      "eventPrevious": "2.29B",
      "eventCurrency": "BRL",
      "eventForecast": "3.20B"
    }
  ]}}
