"Investing.com Gold Index";"United States";"USD";"2016-02-22T07:30:00";"GMT";"56.1%";"";"56.4%";"Moderate"
"Investing.com Sandamp:P 500 Index";"United States";"USD";"2016-02-22T07:30:00";"GMT";"31.0%";"";"37.8%";"Moderate"
"Chicago Fed National Activity (Jan)";"United States";"USD";"2016-02-22T13:30:00";"GMT";"-0.34";"-0.10";"0.28";"Low"
"Manufacturing PMI (Feb)";"United States";"USD";"2016-02-22T14:45:00";"GMT";"52.4";"52.3";"51.0";"Moderate"
"3-Month Bill Auction";"United States";"USD";"2016-02-22T16:30:00";"GMT";"0.300%";"";"0.320%";"Low"
"6-Month Bill Auction";"United States";"USD";"2016-02-22T16:30:00";"GMT";"0.410%";"";"0.455%";"Low"
