"Export Price Index (YoY) (Dec)";"South Korea";"KRW";"2016-01-12T21:00:00";"GMT";"-8.6%";"";"-6.0%";"Low"
"Import Price Index (YoY) (Dec)";"South Korea";"KRW";"2016-01-12T21:00:00";"GMT";"-15.6%";"";"-11.9%";"Low"
"Unemployment Rate (Dec)";"South Korea";"KRW";"2016-01-12T23:00:00";"GMT";"3.4%";"3.4%";"3.4%";"Low"
