{"events": {"event": [
    {
      "eventDateTime": "2019-09-06T10:30:00",
      "eventActual": "7.00%",
      "eventCountry": "Russia",
      "eventExpectedVolatility": "High",
      "eventName": "Interest Rate Decision (Sep)",
      "eventTimeZone": "GMT",
      "eventPrevious": "7.25%",
      "eventCurrency": "RUB",
      "eventForecast": "7.00%"
    },
    {
      "eventDateTime": "2019-09-06T12:00:00",
      "eventActual": "",
      "eventCountry": "Russia",
      "eventExpectedVolatility": "Moderate",
      "eventName": "CBR Press Conference",
      "eventTimeZone": "GMT",
      "eventPrevious": "",
      "eventCurrency": "RUB",
      "eventForecast": ""
    },
    {
      "eventDateTime": "2019-09-06T19:30:00",
      "eventActual": "27.5K",
      "eventCountry": "Russia",
      "eventExpectedVolatility": "Moderate",
      "eventName": "CFTC RUB speculative positions",
      "eventTimeZone": "GMT",
      "eventPrevious": "27.2K",
      "eventCurrency": "RUB",
      "eventForecast": ""
    }
  ]}}
