"Building Approvals (MoM)";"Australia";"AUD";"2011-08-02T01:30:00";"GMT";"-6.3%";"3.0%";"-3.5%";"Moderate"
"House Price Index (QoQ)";"Australia";"AUD";"2011-08-02T01:30:00";"GMT";"-1.10%";"-1.00%";"-0.10%";"Moderate"
"RBA Interest Rate Decision";"Australia";"AUD";"2011-08-02T04:30:00";"GMT";"4.75%";"4.75%";"4.75%";"High"
"RBA Rate Statement";"Australia";"AUD";"2011-08-02T04:30:00";"GMT";" ";"";"";"High"
"Commodity Prices (YoY)";"Australia";"AUD";"2011-08-02T06:30:00";"GMT";"28.2%";"";"27.6%";"Low"
"AIG Services Index";"Australia";"AUD";"2011-08-02T23:30:00";"GMT";"48.5";"";"48.8";"Low"
