{"events": {"event": [
    {
      "eventDateTime": "2019-10-02T05:00:00",
      "eventActual": "35.6",
      "eventCountry": "Japan",
      "eventExpectedVolatility": "Low",
      "eventName": "Household Confidence (Sep)",
      "eventTimeZone": "GMT",
      "eventPrevious": "37.1",
      "eventCurrency": "JPY",
      "eventForecast": "38.2"
    },
    {
      "eventDateTime": "2019-10-02T23:50:00",
      "eventActual": "869.2B",
      "eventCountry": "Japan",
      "eventExpectedVolatility": "Low",
      "eventName": "Foreign Bonds Buying",
      "eventTimeZone": "GMT",
      "eventPrevious": "-164.8B",
      "eventCurrency": "JPY",
      "eventForecast": ""
    },
    {
      "eventDateTime": "2019-10-02T23:50:00",
      "eventActual": "-221.2B",
      "eventCountry": "Japan",
      "eventExpectedVolatility": "Low",
      "eventName": "Foreign Investments in Japanese Stocks",
      "eventTimeZone": "GMT",
      "eventPrevious": "-1,178.0B",
      "eventCurrency": "JPY",
      "eventForecast": ""
    }
  ]}}
