{"events": {"event": [
    {
      "eventDateTime": "2019-09-09T05:30:00",
      "eventActual": "35.2%",
      "eventCountry": "Euro Zone",
      "eventExpectedVolatility": "Moderate",
      "eventName": "Investing.com EUR/USD Index",
      "eventTimeZone": "GMT",
      "eventPrevious": "49.0%",
      "eventCurrency": "EUR",
      "eventForecast": ""
    },
    {
      "eventDateTime": "2019-09-09T06:00:00",
      "eventActual": "22.1B",
      "eventCountry": "Germany",
      "eventExpectedVolatility": "Low",
      "eventName": "Gemran Current Account Balance n.s.a (Jul)",
      "eventTimeZone": "GMT",
      "eventPrevious": "20.6B",
      "eventCurrency": "EUR",
      "eventForecast": ""
    },
    {
      "eventDateTime": "2019-09-09T06:00:00",
      "eventActual": "0.7%",
      "eventCountry": "Germany",
      "eventExpectedVolatility": "Low",
      "eventName": "German Exports (MoM) (Jul)",
      "eventTimeZone": "GMT",
      "eventPrevious": "-0.1%",
      "eventCurrency": "EUR",
      "eventForecast": "-0.5%"
    },
    {
      "eventDateTime": "2019-09-09T06:00:00",
      "eventActual": "-1.5%",
      "eventCountry": "Germany",
      "eventExpectedVolatility": "Low",
      "eventName": "German Imports (MoM) (Jul)",
      "eventTimeZone": "GMT",
      "eventPrevious": "0.7%",
      "eventCurrency": "EUR",
      "eventForecast": "-0.3%"
    },
    {
      "eventDateTime": "2019-09-09T06:00:00",
      "eventActual": "20.2B",
      "eventCountry": "Germany",
      "eventExpectedVolatility": "Moderate",
      "eventName": "German Trade Balance (Jul)",
      "eventTimeZone": "GMT",
      "eventPrevious": "18.0B",
      "eventCurrency": "EUR",
      "eventForecast": "17.5B"
    },
    {
      "eventDateTime": "2019-09-09T08:30:00",
      "eventActual": "-11.1",
      "eventCountry": "Euro Zone",
      "eventExpectedVolatility": "Low",
      "eventName": "Sentix Investor Confidence (Sep)",
      "eventTimeZone": "GMT",
      "eventPrevious": "-13.7",
      "eventCurrency": "EUR",
      "eventForecast": "-14.0"
    },
    {
      "eventDateTime": "2019-09-09T13:00:00",
      "eventActual": "-0.729%",
      "eventCountry": "France",
      "eventExpectedVolatility": "Low",
      "eventName": "French 12-Month BTF Auction",
      "eventTimeZone": "GMT",
      "eventPrevious": "-0.742%",
      "eventCurrency": "EUR",
      "eventForecast": ""
    },
    {
      "eventDateTime": "2019-09-09T13:00:00",
      "eventActual": "-0.609%",
      "eventCountry": "France",
      "eventExpectedVolatility": "Low",
      "eventName": "French 3-Month BTF Auction",
      "eventTimeZone": "GMT",
      "eventPrevious": "-0.614%",
      "eventCurrency": "EUR",
      "eventForecast": ""
    },
    {
      "eventDateTime": "2019-09-09T13:00:00",
      "eventActual": "-0.699%",
      "eventCountry": "France",
      "eventExpectedVolatility": "Low",
      "eventName": "French 6-Month BTF Auction",
      "eventTimeZone": "GMT",
      "eventPrevious": "-0.707%",
      "eventCurrency": "EUR",
      "eventForecast": ""
    }
  ]}}
