{"events": {"event": [
    {
      "eventDateTime": "2013-03-22T15:00:00",
      "eventActual": "1.42K",
      "eventCountry": "United States",
      "eventExpectedVolatility": "Low",
      "eventName": "Mass Layoffs",
      "eventTimeZone": "GMT",
      "eventPrevious": "1.33K",
      "eventCurrency": "USD",
      "eventForecast": ""
    },
    {
      "eventDateTime": "2013-03-22T17:00:00",
      "eventActual": "1324",
      "eventCountry": "United States",
      "eventExpectedVolatility": "Moderate",
      "eventName": "U.S. Baker Hughes Oil Rig Count",
      "eventTimeZone": "GMT",
      "eventPrevious": "1341",
      "eventCurrency": "USD",
      "eventForecast": ""
    },
    {
      "eventDateTime": "2013-03-22T19:30:00",
      "eventActual": "135.6K",
      "eventCountry": "United States",
      "eventExpectedVolatility": "Moderate",
      "eventName": "CFTC Gold speculative net positions",
      "eventTimeZone": "GMT",
      "eventPrevious": "114.5K",
      "eventCurrency": "USD",
      "eventForecast": ""
    },
    {
      "eventDateTime": "2013-03-22T19:30:00",
      "eventActual": "15.1K",
      "eventCountry": "United States",
      "eventExpectedVolatility": "Low",
      "eventName": "CFTC Silver speculative net positions",
      "eventTimeZone": "GMT",
      "eventPrevious": "18.1K",
      "eventCurrency": "USD",
      "eventForecast": ""
    },
    {
      "eventDateTime": "2013-03-22T20:30:00",
      "eventActual": "223.7k",
      "eventCountry": "United States",
      "eventExpectedVolatility": "Moderate",
      "eventName": "CFTC Crude Oil speculative net positions",
      "eventTimeZone": "GMT",
      "eventPrevious": "228.2k",
      "eventCurrency": "USD",
      "eventForecast": ""
    }
  ]}}
