{"events": {"event": {
    "eventDateTime": "2015-04-23T05:00:00",
    "eventActual": "-0.3%",
    "eventCountry": "Singapore",
    "eventExpectedVolatility": "Moderate",
    "eventName": "CPI (YoY) (Mar)",
    "eventTimeZone": "GMT",
    "eventPrevious": "-0.3%",
    "eventCurrency": "SGD",
    "eventForecast": "-0.5%"
  }}}
