"Reuters Tankan Index (Sep)";"Japan";"JPY";"2019-09-11T23:00:00";"GMT";"-4";"";"-7";"Low"
"Core Machinery Orders (MoM) (Jul)";"Japan";"JPY";"2019-09-11T23:50:00";"GMT";"13.9%";"-9.0%";"-6.6%";"Low"
"Core Machinery Orders (YoY) (Jul)";"Japan";"JPY";"2019-09-11T23:50:00";"GMT";"12.5%";"-4.5%";"0.3%";"Low"
"Foreign Bonds Buying";"Japan";"JPY";"2019-09-11T23:50:00";"GMT";"1,495.7B";"";"724.4B";"Low"
"Foreign Investments in Japanese Stocks";"Japan";"JPY";"2019-09-11T23:50:00";"GMT";"-89.5B";"";"-161.3B";"Low"
"PPI (MoM) (Aug)";"Japan";"JPY";"2019-09-11T23:50:00";"GMT";"0.0%";"-0.2%";"-0.3%";"Low"
"PPI (YoY) (Aug)";"Japan";"JPY";"2019-09-11T23:50:00";"GMT";"-0.6%";"-0.8%";"-0.9%";"Low"
