"Auto Production (MoM) (Feb)";"Brazil";"BRL";"2001-03-01T09:00:00";"GMT";"-5.28%";"";"16.13%";"Low"
"Auto Sales (MoM) (Feb)";"Brazil";"BRL";"2001-03-01T09:00:00";"GMT";"-8.50%";"";"8.30%";"Low"
"Bank lending (MoM) (Feb)";"Brazil";"BRL";"2001-03-01T09:00:00";"GMT";"-0.04%";"";"2.63%";"Low"
"Budget Balance (Feb)";"Brazil";"BRL";"2001-03-01T09:00:00";"GMT";"-2.71B";"";"-1.96B";"Low"
"Budget Surplus (Feb)";"Brazil";"BRL";"2001-03-01T09:00:00";"GMT";"5.63B";"";"3.23B";"Low"
"CAGED Net Payroll Jobs (Feb)";"Brazil";"BRL";"2001-03-01T09:00:00";"GMT";"49.00K";"";"80.00K";"Moderate"
"CPI (MoM) (Feb)";"Brazil";"BRL";"2001-03-01T09:00:00";"GMT";"0.57%";"";"0.46%";"Moderate"
"CPI (YoY) (Feb)";"Brazil";"BRL";"2001-03-01T09:00:00";"GMT";"5.92%";"";"6.27%";"Moderate"
"Federal Tax Revenue (Feb)";"Brazil";"BRL";"2001-03-01T09:00:00";"GMT";"23.00B";"";"18.00B";"Low"
"Foreign direct investment (USD) (Feb)";"Brazil";"BRL";"2001-03-01T09:00:00";"GMT";"1.66B";"";"1.00B";"Low"
"IGP-DI Inflation Index (MoM) (Feb)";"Brazil";"BRL";"2001-03-01T09:00:00";"GMT";"0.49%";"";"0.34%";"Low"
"IGP-M Inflation Index (MoM) (Feb)";"Brazil";"BRL";"2001-03-01T09:00:00";"GMT";"0.62%";"";"0.23%";"Low"
"IPC-Fipe Inflation Index (MoM) (Feb)";"Brazil";"BRL";"2001-03-01T09:00:00";"GMT";"0.38%";"";"0.11%";"Moderate"
"Industrial Production (MoM) (Feb)";"Brazil";"BRL";"2001-03-01T09:00:00";"GMT";"-2.42%";"";"1.03%";"Low"
"Industrial Production (YoY) (Feb)";"Brazil";"BRL";"2001-03-01T09:00:00";"GMT";"12.14%";"";"2.07%";"Moderate"
"Mid-Month CPI (MoM) (Feb)";"Brazil";"BRL";"2001-03-01T09:00:00";"GMT";"0.63%";"";"0.50%";"Low"
"Mid-Month CPI (YoY) (Feb)";"Brazil";"BRL";"2001-03-01T09:00:00";"GMT";"6.01%";"";"6.18%";"Low"
"Retail Sales (MoM) (Feb)";"Brazil";"BRL";"2001-03-01T09:00:00";"GMT";"-0.51%";"";"0.00%";"Moderate"
"Retail Sales (YoY) (Feb)";"Brazil";"BRL";"2001-03-01T09:00:00";"GMT";"1.88%";"";"-5.02%";"Moderate"
"Trade Balance (Feb)";"Brazil";"BRL";"2001-03-01T09:00:00";"GMT";"-0.48B";"";"0.08B";"Low"
