{"events": {"event": [
    {
      "eventDateTime": "2017-11-17T08:30:00",
      "eventActual": "",
      "eventCountry": "Euro Zone",
      "eventExpectedVolatility": "High",
      "eventName": "ECB President Draghi Speaks",
      "eventTimeZone": "GMT",
      "eventPrevious": "",
      "eventCurrency": "EUR",
      "eventForecast": ""
    },
    {
      "eventDateTime": "2017-11-17T09:00:00",
      "eventActual": "37.8B",
      "eventCountry": "Euro Zone",
      "eventExpectedVolatility": "Low",
      "eventName": "Current Account (Sep)",
      "eventTimeZone": "GMT",
      "eventPrevious": "34.5B",
      "eventCurrency": "EUR",
      "eventForecast": "30.2B"
    },
    {
      "eventDateTime": "2017-11-17T09:00:00",
      "eventActual": "41.8B",
      "eventCountry": "Euro Zone",
      "eventExpectedVolatility": "Low",
      "eventName": "Current Account n.s.a. (Sep)",
      "eventTimeZone": "GMT",
      "eventPrevious": "30.8B",
      "eventCurrency": "EUR",
      "eventForecast": ""
    },
    {
      "eventDateTime": "2017-11-17T13:00:00",
      "eventActual": "",
      "eventCountry": "Germany",
      "eventExpectedVolatility": "Moderate",
      "eventName": "German Buba President Weidmann Speaks",
      "eventTimeZone": "GMT",
      "eventPrevious": "",
      "eventCurrency": "EUR",
      "eventForecast": ""
    },
    {
      "eventDateTime": "2017-11-17T20:30:00",
      "eventActual": "84.6K",
      "eventCountry": "Euro Zone",
      "eventExpectedVolatility": "Moderate",
      "eventName": "CFTC EUR speculative net positions",
      "eventTimeZone": "GMT",
      "eventPrevious": "85.5K",
      "eventCurrency": "EUR",
      "eventForecast": ""
    }
  ]}}
