{"events": {"event": {
    "eventDateTime": "2011-03-21T02:00:00",
    "eventActual": "5.3%",
    "eventCountry": "New Zealand",
    "eventExpectedVolatility": "Low",
    "eventName": "Credit Card Spending (YoY)",
    "eventTimeZone": "GMT",
    "eventPrevious": "5.5%",
    "eventCurrency": "NZD",
    "eventForecast": ""
  }}}
