{"events": {"event": [
    {
      "eventDateTime": "2016-09-09T12:30:00",
      "eventActual": "26.2K",
      "eventCountry": "Canada",
      "eventExpectedVolatility": "High",
      "eventName": "Employment Change (Aug)",
      "eventTimeZone": "GMT",
      "eventPrevious": "-31.2K",
      "eventCurrency": "CAD",
      "eventForecast": "15.0K"
    },
    {
      "eventDateTime": "2016-09-09T12:30:00",
      "eventActual": "52.2K",
      "eventCountry": "Canada",
      "eventExpectedVolatility": "Low",
      "eventName": "Full Employment Change (Aug)",
      "eventTimeZone": "GMT",
      "eventPrevious": "-71.4K",
      "eventCurrency": "CAD",
      "eventForecast": ""
    },
    {
      "eventDateTime": "2016-09-09T12:30:00",
      "eventActual": "-26.0K",
      "eventCountry": "Canada",
      "eventExpectedVolatility": "Low",
      "eventName": "Part Time Employment Change (Aug)",
      "eventTimeZone": "GMT",
      "eventPrevious": "40.2K",
      "eventCurrency": "CAD",
      "eventForecast": ""
    },
    {
      "eventDateTime": "2016-09-09T12:30:00",
      "eventActual": "65.5%",
      "eventCountry": "Canada",
      "eventExpectedVolatility": "Low",
      "eventName": "Participation Rate (Aug)",
      "eventTimeZone": "GMT",
      "eventPrevious": "65.4%",
      "eventCurrency": "CAD",
      "eventForecast": ""
    },
    {
      "eventDateTime": "2016-09-09T12:30:00",
      "eventActual": "7.0%",
      "eventCountry": "Canada",
      "eventExpectedVolatility": "Moderate",
      "eventName": "Unemployment Rate (Aug)",
      "eventTimeZone": "GMT",
      "eventPrevious": "6.9%",
      "eventCurrency": "CAD",
      "eventForecast": "6.9%"
    },
    {
      "eventDateTime": "2016-09-09T19:30:00",
      "eventActual": "20.9K",
      "eventCountry": "Canada",
      "eventExpectedVolatility": "Low",
      "eventName": "CFTC CAD speculative net positions",
      "eventTimeZone": "GMT",
      "eventPrevious": "22.4K",
      "eventCurrency": "CAD",
      "eventForecast": ""
    }
  ]}}
