{"events": {"event": {
    "eventDateTime": "2018-12-02T23:50:00",
    "eventActual": "4.5%",
    "eventCountry": "Japan",
    "eventExpectedVolatility": "Moderate",
    "eventName": "Capital Spending (YoY) (Q3)",
    "eventTimeZone": "GMT",
    "eventPrevious": "12.8%",
    "eventCurrency": "JPY",
    "eventForecast": "8.6%"
  }}}
