"Exports (YoY) (Dec)";"South Korea";"KRW";"2015-01-15T00:00:00";"GMT";"3.70%";"";"3.60%";"Low"
"Imports (YoY) (Dec)";"South Korea";"KRW";"2015-01-15T00:00:00";"GMT";"-0.9%";"";"-0.9%";"Low"
"Trade Balance (Dec)";"South Korea";"KRW";"2015-01-15T00:00:00";"GMT";"5.80B";"";"5.75B";"Low"
"Interest Rate Decision (Jan)";"South Korea";"KRW";"2015-01-15T01:01:00";"GMT";"2.00%";"2.00%";"2.00%";"Low"
