"French CPI (MoM)";"France";"EUR";"2018-03-30T06:45:00";"GMT";"0.0%";"0.8%";"1.0%";"Moderate"
"French CPI (YoY)";"France";"EUR";"2018-03-30T06:45:00";"GMT";"1.2%";"1.5%";"1.5%";"Low"
"French Consumer Spending (MoM) (Feb)";"France";"EUR";"2018-03-30T06:45:00";"GMT";"-1.9%";"2.1%";"2.4%";"Moderate"
"French HICP (MoM)";"France";"EUR";"2018-03-30T06:45:00";"GMT";"0.0%";"";"1.1%";"Moderate"
"French HICP (YoY)";"France";"EUR";"2018-03-30T06:45:00";"GMT";"1.3%";"1.5%";"1.7%";"Low"
"French PPI (MoM) (Feb)";"France";"EUR";"2018-03-30T07:45:00";"GMT";"0.1%";"";"0.1%";"Low"
"Italian CPI (MoM) (Mar)";"Italy";"EUR";"2018-03-30T09:00:00";"GMT";"0.0%";"0.1%";"0.4%";"Moderate"
"Italian CPI (YoY) (Mar)";"Italy";"EUR";"2018-03-30T09:00:00";"GMT";"0.5%";"0.7%";"0.9%";"Low"
"Italian HICP (MoM) (Mar)";"Italy";"EUR";"2018-03-30T09:00:00";"GMT";"-0.5%";"2.1%";"2.5%";"Low"
"Italian HICP (YoY) (Mar)";"Italy";"EUR";"2018-03-30T09:00:00";"GMT";"0.5%";"0.8%";"1.1%";"Low"
"CFTC EUR speculative net positions";"Euro Zone";"EUR";"2018-03-30T19:30:00";"GMT";"132.7K";"";"141.1K";"Moderate"
