{"events": {"event": [
    {
      "eventDateTime": "2017-03-15T09:30:00",
      "eventActual": "2.2%",
      "eventCountry": "United Kingdom",
      "eventExpectedVolatility": "High",
      "eventName": "Average Earnings Index +Bonus (Jan)",
      "eventTimeZone": "GMT",
      "eventPrevious": "2.6%",
      "eventCurrency": "GBP",
      "eventForecast": "2.4%"
    },
    {
      "eventDateTime": "2017-03-15T09:30:00",
      "eventActual": "2.3%",
      "eventCountry": "United Kingdom",
      "eventExpectedVolatility": "Low",
      "eventName": "Average Earnings ex Bonus (Jan)",
      "eventTimeZone": "GMT",
      "eventPrevious": "2.6%",
      "eventCurrency": "GBP",
      "eventForecast": "2.5%"
    },
    {
      "eventDateTime": "2017-03-15T09:30:00",
      "eventActual": "-11.3K",
      "eventCountry": "United Kingdom",
      "eventExpectedVolatility": "High",
      "eventName": "Claimant Count Change (Feb)",
      "eventTimeZone": "GMT",
      "eventPrevious": "-41.4K",
      "eventCurrency": "GBP",
      "eventForecast": "-5.0K"
    },
    {
      "eventDateTime": "2017-03-15T09:30:00",
      "eventActual": "4.7%",
      "eventCountry": "United Kingdom",
      "eventExpectedVolatility": "Moderate",
      "eventName": "Unemployment Rate (Jan)",
      "eventTimeZone": "GMT",
      "eventPrevious": "4.8%",
      "eventCurrency": "GBP",
      "eventForecast": "4.8%"
    }
  ]}}
