"Investing.com Gold Index";"United States";"USD";"2016-03-14T07:30:00";"GMT";"53.1%";"";"60.5%";"Moderate"
"Investing.com Sandamp:P 500 Index";"United States";"USD";"2016-03-14T07:30:00";"GMT";"26.4%";"";"19.8%";"Moderate"
"3-Month Bill Auction";"United States";"USD";"2016-03-14T15:30:00";"GMT";"0.315%";"";"0.335%";"Low"
"6-Month Bill Auction";"United States";"USD";"2016-03-14T15:30:00";"GMT";"0.475%";"";"0.510%";"Low"
