{"events": {"event": [
    {
      "eventDateTime": "2009-03-01T09:00:00",
      "eventActual": "-3.71",
      "eventCountry": "Euro Zone",
      "eventExpectedVolatility": "Low",
      "eventName": "Business Climate (Feb)",
      "eventTimeZone": "GMT",
      "eventPrevious": "-3.20",
      "eventCurrency": "EUR",
      "eventForecast": ""
    },
    {
      "eventDateTime": "2009-03-01T09:00:00",
      "eventActual": "70.80",
      "eventCountry": "Euro Zone",
      "eventExpectedVolatility": "Low",
      "eventName": "Business and Consumer Survey (Feb)",
      "eventTimeZone": "GMT",
      "eventPrevious": "73.00",
      "eventCurrency": "EUR",
      "eventForecast": ""
    },
    {
      "eventDateTime": "2009-03-01T09:00:00",
      "eventActual": "0.40%",
      "eventCountry": "Euro Zone",
      "eventExpectedVolatility": "Moderate",
      "eventName": "CPI (MoM) (Feb)",
      "eventTimeZone": "GMT",
      "eventPrevious": "-0.80%",
      "eventCurrency": "EUR",
      "eventForecast": ""
    },
    {
      "eventDateTime": "2009-03-01T09:00:00",
      "eventActual": "0.41%",
      "eventCountry": "Euro Zone",
      "eventExpectedVolatility": "Low",
      "eventName": "CPI ex Tobacco (MoM) (Feb)",
      "eventTimeZone": "GMT",
      "eventPrevious": "-0.86%",
      "eventCurrency": "EUR",
      "eventForecast": ""
    },
    {
      "eventDateTime": "2009-03-01T09:00:00",
      "eventActual": "1.14%",
      "eventCountry": "Euro Zone",
      "eventExpectedVolatility": "Low",
      "eventName": "CPI ex Tobacco (YoY) (Feb)",
      "eventTimeZone": "GMT",
      "eventPrevious": "1.08%",
      "eventCurrency": "EUR",
      "eventForecast": ""
    },
    {
      "eventDateTime": "2009-03-01T09:00:00",
      "eventActual": "4.20",
      "eventCountry": "Euro Zone",
      "eventExpectedVolatility": "Low",
      "eventName": "Consumer Inflation Expectation (Feb)",
      "eventTimeZone": "GMT",
      "eventPrevious": "5.60",
      "eventCurrency": "EUR",
      "eventForecast": ""
    },
    {
      "eventDateTime": "2009-03-01T09:00:00",
      "eventActual": "0.50%",
      "eventCountry": "Euro Zone",
      "eventExpectedVolatility": "Low",
      "eventName": "Core CPI (MoM) (Feb)",
      "eventTimeZone": "GMT",
      "eventPrevious": "-1.30%",
      "eventCurrency": "EUR",
      "eventForecast": ""
    },
    {
      "eventDateTime": "2009-03-01T09:00:00",
      "eventActual": "-10.20B",
      "eventCountry": "Euro Zone",
      "eventExpectedVolatility": "Low",
      "eventName": "Current Account n.s.a. (Feb)",
      "eventTimeZone": "GMT",
      "eventPrevious": "-20.00B",
      "eventCurrency": "EUR",
      "eventForecast": ""
    },
    {
      "eventDateTime": "2009-03-01T09:00:00",
      "eventActual": "69.00",
      "eventCountry": "France",
      "eventExpectedVolatility": "Low",
      "eventName": "French Business Survey (Feb)",
      "eventTimeZone": "GMT",
      "eventPrevious": "73.00",
      "eventCurrency": "EUR",
      "eventForecast": ""
    },
    {
      "eventDateTime": "2009-03-01T09:00:00",
      "eventActual": "84.00",
      "eventCountry": "France",
      "eventExpectedVolatility": "Low",
      "eventName": "French Consumer Confidence (Feb)",
      "eventTimeZone": "GMT",
      "eventPrevious": "85.00",
      "eventCurrency": "EUR",
      "eventForecast": ""
    },
    {
      "eventDateTime": "2009-03-01T09:00:00",
      "eventActual": "-2.30B",
      "eventCountry": "France",
      "eventExpectedVolatility": "Low",
      "eventName": "French Current Account (Feb)",
      "eventTimeZone": "GMT",
      "eventPrevious": "-2.60B",
      "eventCurrency": "EUR",
      "eventForecast": ""
    },
    {
      "eventDateTime": "2009-03-01T09:00:00",
      "eventActual": "28.48B",
      "eventCountry": "France",
      "eventExpectedVolatility": "Low",
      "eventName": "French Exports (Feb)",
      "eventTimeZone": "GMT",
      "eventPrevious": "28.47B",
      "eventCurrency": "EUR",
      "eventForecast": ""
    },
    {
      "eventDateTime": "2009-03-01T09:00:00",
      "eventActual": "0.40%",
      "eventCountry": "France",
      "eventExpectedVolatility": "Moderate",
      "eventName": "French HICP (MoM) (Feb)",
      "eventTimeZone": "GMT",
      "eventPrevious": "-0.40%",
      "eventCurrency": "EUR",
      "eventForecast": ""
    },
    {
      "eventDateTime": "2009-03-01T09:00:00",
      "eventActual": "0.96%",
      "eventCountry": "France",
      "eventExpectedVolatility": "Low",
      "eventName": "French HICP (YoY) (Feb)",
      "eventTimeZone": "GMT",
      "eventPrevious": "0.76%",
      "eventCurrency": "EUR",
      "eventForecast": ""
    },
    {
      "eventDateTime": "2009-03-01T09:00:00",
      "eventActual": "32.60B",
      "eventCountry": "France",
      "eventExpectedVolatility": "Low",
      "eventName": "French Imports (Feb)",
      "eventTimeZone": "GMT",
      "eventPrevious": "32.90B",
      "eventCurrency": "EUR",
      "eventForecast": ""
    },
    {
      "eventDateTime": "2009-03-01T09:00:00",
      "eventActual": "-0.50%",
      "eventCountry": "France",
      "eventExpectedVolatility": "Low",
      "eventName": "French PPI (MoM) (Feb)",
      "eventTimeZone": "GMT",
      "eventPrevious": "-2.40%",
      "eventCurrency": "EUR",
      "eventForecast": ""
    },
    {
      "eventDateTime": "2009-03-01T09:00:00",
      "eventActual": "81.90",
      "eventCountry": "Germany",
      "eventExpectedVolatility": "Moderate",
      "eventName": "German Business Expectations (Feb)",
      "eventTimeZone": "GMT",
      "eventPrevious": "80.20",
      "eventCurrency": "EUR",
      "eventForecast": ""
    },
    {
      "eventDateTime": "2009-03-01T09:00:00",
      "eventActual": "1.10%",
      "eventCountry": "Germany",
      "eventExpectedVolatility": "Low",
      "eventName": "German CPI (YoY) (Feb)",
      "eventTimeZone": "GMT",
      "eventPrevious": "0.90%",
      "eventCurrency": "EUR",
      "eventForecast": ""
    },
    {
      "eventDateTime": "2009-03-01T09:00:00",
      "eventActual": "87.00",
      "eventCountry": "Germany",
      "eventExpectedVolatility": "Moderate",
      "eventName": "German Current Assessment (Feb)",
      "eventTimeZone": "GMT",
      "eventPrevious": "89.90",
      "eventCurrency": "EUR",
      "eventForecast": ""
    },
    {
      "eventDateTime": "2009-03-01T09:00:00",
      "eventActual": "-2.39%",
      "eventCountry": "Germany",
      "eventExpectedVolatility": "Low",
      "eventName": "German Exports (MoM) (Feb)",
      "eventTimeZone": "GMT",
      "eventPrevious": "-6.89%",
      "eventCurrency": "EUR",
      "eventForecast": ""
    },
    {
      "eventDateTime": "2009-03-01T09:00:00",
      "eventActual": "0.70%",
      "eventCountry": "Germany",
      "eventExpectedVolatility": "Low",
      "eventName": "German HICP (MoM) (Feb)",
      "eventTimeZone": "GMT",
      "eventPrevious": "-0.60%",
      "eventCurrency": "EUR",
      "eventForecast": ""
    },
    {
      "eventDateTime": "2009-03-01T09:00:00",
      "eventActual": "1.00%",
      "eventCountry": "Germany",
      "eventExpectedVolatility": "Low",
      "eventName": "German HICP (YoY) (Feb)",
      "eventTimeZone": "GMT",
      "eventPrevious": "0.80%",
      "eventCurrency": "EUR",
      "eventForecast": ""
    },
    {
      "eventDateTime": "2009-03-01T09:00:00",
      "eventActual": "-6.70%",
      "eventCountry": "Germany",
      "eventExpectedVolatility": "Low",
      "eventName": "German Import Price Index (YoY) (Feb)",
      "eventTimeZone": "GMT",
      "eventPrevious": "-5.60%",
      "eventCurrency": "EUR",
      "eventForecast": ""
    },
    {
      "eventDateTime": "2009-03-01T09:00:00",
      "eventActual": "-3.40%",
      "eventCountry": "Germany",
      "eventExpectedVolatility": "Low",
      "eventName": "German Imports (MoM) (Feb)",
      "eventTimeZone": "GMT",
      "eventPrevious": "-5.60%",
      "eventCurrency": "EUR",
      "eventForecast": ""
    },
    {
      "eventDateTime": "2009-03-01T09:00:00",
      "eventActual": "0.90%",
      "eventCountry": "Germany",
      "eventExpectedVolatility": "Low",
      "eventName": "German PPI (YoY) (Feb)",
      "eventTimeZone": "GMT",
      "eventPrevious": "2.00%",
      "eventCurrency": "EUR",
      "eventForecast": ""
    },
    {
      "eventDateTime": "2009-03-01T09:00:00",
      "eventActual": "-7.80%",
      "eventCountry": "Germany",
      "eventExpectedVolatility": "Low",
      "eventName": "German Retail Sales (YoY) (Feb)",
      "eventTimeZone": "GMT",
      "eventPrevious": "-2.80%",
      "eventCurrency": "EUR",
      "eventForecast": ""
    },
    {
      "eventDateTime": "2009-03-01T09:00:00",
      "eventActual": "3.30M",
      "eventCountry": "Germany",
      "eventExpectedVolatility": "Low",
      "eventName": "German Unemployment (Feb)",
      "eventTimeZone": "GMT",
      "eventPrevious": "3.26M",
      "eventCurrency": "EUR",
      "eventForecast": ""
    },
    {
      "eventDateTime": "2009-03-01T09:00:00",
      "eventActual": "3.50M",
      "eventCountry": "Germany",
      "eventExpectedVolatility": "Low",
      "eventName": "German Unemployment n.s.a. (Feb)",
      "eventTimeZone": "GMT",
      "eventPrevious": "3.50M",
      "eventCurrency": "EUR",
      "eventForecast": ""
    },
    {
      "eventDateTime": "2009-03-01T09:00:00",
      "eventActual": "-5.70%",
      "eventCountry": "Germany",
      "eventExpectedVolatility": "Low",
      "eventName": "German WPI (YoY) (Feb)",
      "eventTimeZone": "GMT",
      "eventPrevious": "-5.90%",
      "eventCurrency": "EUR",
      "eventForecast": ""
    },
    {
      "eventDateTime": "2009-03-01T09:00:00",
      "eventActual": "-86.20",
      "eventCountry": "Germany",
      "eventExpectedVolatility": "Moderate",
      "eventName": "German ZEW Current Conditions (Feb)",
      "eventTimeZone": "GMT",
      "eventPrevious": "-77.10",
      "eventCurrency": "EUR",
      "eventForecast": ""
    },
    {
      "eventDateTime": "2009-03-01T09:00:00",
      "eventActual": "-18.70%",
      "eventCountry": "Euro Zone",
      "eventExpectedVolatility": "Low",
      "eventName": "Industrial Production (YoY) (Feb)",
      "eventTimeZone": "GMT",
      "eventPrevious": "-16.60%",
      "eventCurrency": "EUR",
      "eventForecast": ""
    },
    {
      "eventDateTime": "2009-03-01T09:00:00",
      "eventActual": "-36.40",
      "eventCountry": "Euro Zone",
      "eventExpectedVolatility": "Low",
      "eventName": "Industrial Sentiment (Feb)",
      "eventTimeZone": "GMT",
      "eventPrevious": "-32.90",
      "eventCurrency": "EUR",
      "eventForecast": ""
    },
    {
      "eventDateTime": "2009-03-01T09:00:00",
      "eventActual": "74.00",
      "eventCountry": "Italy",
      "eventExpectedVolatility": "Low",
      "eventName": "Italian Business Confidence (Feb)",
      "eventTimeZone": "GMT",
      "eventPrevious": "75.90",
      "eventCurrency": "EUR",
      "eventForecast": ""
    },
    {
      "eventDateTime": "2009-03-01T09:00:00",
      "eventActual": "1.70%",
      "eventCountry": "Italy",
      "eventExpectedVolatility": "Low",
      "eventName": "Italian CPI (YoY) (Feb)",
      "eventTimeZone": "GMT",
      "eventPrevious": "1.70%",
      "eventCurrency": "EUR",
      "eventForecast": ""
    },
    {
      "eventDateTime": "2009-03-01T09:00:00",
      "eventActual": "96.30",
      "eventCountry": "Italy",
      "eventExpectedVolatility": "Low",
      "eventName": "Italian Consumer Confidence (Feb)",
      "eventTimeZone": "GMT",
      "eventPrevious": "96.40",
      "eventCurrency": "EUR",
      "eventForecast": ""
    },
    {
      "eventDateTime": "2009-03-01T09:00:00",
      "eventActual": "0.20%",
      "eventCountry": "Italy",
      "eventExpectedVolatility": "Low",
      "eventName": "Italian HICP (MoM) (Feb)",
      "eventTimeZone": "GMT",
      "eventPrevious": "-1.60%",
      "eventCurrency": "EUR",
      "eventForecast": ""
    },
    {
      "eventDateTime": "2009-03-01T09:00:00",
      "eventActual": "1.50%",
      "eventCountry": "Italy",
      "eventExpectedVolatility": "Low",
      "eventName": "Italian HICP (YoY) (Feb)",
      "eventTimeZone": "GMT",
      "eventPrevious": "1.50%",
      "eventCurrency": "EUR",
      "eventForecast": ""
    },
    {
      "eventDateTime": "2009-03-01T09:00:00",
      "eventActual": "0.92%",
      "eventCountry": "Italy",
      "eventExpectedVolatility": "Low",
      "eventName": "Italian Industrial New Orders (MoM) (Feb)",
      "eventTimeZone": "GMT",
      "eventPrevious": "-1.14%",
      "eventCurrency": "EUR",
      "eventForecast": ""
    },
    {
      "eventDateTime": "2009-03-01T09:00:00",
      "eventActual": "-31.55%",
      "eventCountry": "Italy",
      "eventExpectedVolatility": "Low",
      "eventName": "Italian Industrial New Orders (YoY) (Feb)",
      "eventTimeZone": "GMT",
      "eventPrevious": "-33.56%",
      "eventCurrency": "EUR",
      "eventForecast": ""
    },
    {
      "eventDateTime": "2009-03-01T09:00:00",
      "eventActual": "-22.20%",
      "eventCountry": "Italy",
      "eventExpectedVolatility": "Low",
      "eventName": "Italian Industrial Production (YoY) (Feb)",
      "eventTimeZone": "GMT",
      "eventPrevious": "-19.60%",
      "eventCurrency": "EUR",
      "eventForecast": ""
    },
    {
      "eventDateTime": "2009-03-01T09:00:00",
      "eventActual": "-2.37%",
      "eventCountry": "Italy",
      "eventExpectedVolatility": "Low",
      "eventName": "Italian Industrial Sales (MoM) (Feb)",
      "eventTimeZone": "GMT",
      "eventPrevious": "-4.02%",
      "eventCurrency": "EUR",
      "eventForecast": ""
    },
    {
      "eventDateTime": "2009-03-01T09:00:00",
      "eventActual": "-24.24%",
      "eventCountry": "Italy",
      "eventExpectedVolatility": "Low",
      "eventName": "Italian Industrial Sales (YoY) (Feb)",
      "eventTimeZone": "GMT",
      "eventPrevious": "-25.40%",
      "eventCurrency": "EUR",
      "eventForecast": ""
    },
    {
      "eventDateTime": "2009-03-01T09:00:00",
      "eventActual": "7.30%",
      "eventCountry": "Italy",
      "eventExpectedVolatility": "Low",
      "eventName": "Italian Monthly Unemployment Rate (Feb)",
      "eventTimeZone": "GMT",
      "eventPrevious": "7.20%",
      "eventCurrency": "EUR",
      "eventForecast": ""
    },
    {
      "eventDateTime": "2009-03-01T09:00:00",
      "eventActual": "-0.40%",
      "eventCountry": "Italy",
      "eventExpectedVolatility": "Low",
      "eventName": "Italian PPI (MoM) (Feb)",
      "eventTimeZone": "GMT",
      "eventPrevious": "-0.60%",
      "eventCurrency": "EUR",
      "eventForecast": ""
    },
    {
      "eventDateTime": "2009-03-01T09:00:00",
      "eventActual": "-2.70%",
      "eventCountry": "Italy",
      "eventExpectedVolatility": "Low",
      "eventName": "Italian PPI (YoY) (Feb)",
      "eventTimeZone": "GMT",
      "eventPrevious": "-1.60%",
      "eventCurrency": "EUR",
      "eventForecast": ""
    },
    {
      "eventDateTime": "2009-03-01T09:00:00",
      "eventActual": "-4.95%",
      "eventCountry": "Italy",
      "eventExpectedVolatility": "Low",
      "eventName": "Italian Retail Sales (YoY) (Feb)",
      "eventTimeZone": "GMT",
      "eventPrevious": "0.11%",
      "eventCurrency": "EUR",
      "eventForecast": ""
    },
    {
      "eventDateTime": "2009-03-01T09:00:00",
      "eventActual": "-0.31B",
      "eventCountry": "Italy",
      "eventExpectedVolatility": "Low",
      "eventName": "Italian Trade Balance EU (Feb)",
      "eventTimeZone": "GMT",
      "eventPrevious": "0.43B",
      "eventCurrency": "EUR",
      "eventForecast": ""
    },
    {
      "eventDateTime": "2009-03-01T09:00:00",
      "eventActual": "-0.86B",
      "eventCountry": "Italy",
      "eventExpectedVolatility": "Low",
      "eventName": "Italian Trade Balance Non-EU (Feb)",
      "eventTimeZone": "GMT",
      "eventPrevious": "-4.25B",
      "eventCurrency": "EUR",
      "eventForecast": ""
    },
    {
      "eventDateTime": "2009-03-01T09:00:00",
      "eventActual": "0.31%",
      "eventCountry": "Italy",
      "eventExpectedVolatility": "Low",
      "eventName": "Italian Wage Inflation (MoM) (Feb)",
      "eventTimeZone": "GMT",
      "eventPrevious": "0.84%",
      "eventCurrency": "EUR",
      "eventForecast": ""
    },
    {
      "eventDateTime": "2009-03-01T09:00:00",
      "eventActual": "3.40%",
      "eventCountry": "Italy",
      "eventExpectedVolatility": "Low",
      "eventName": "Italian Wage Inflation (YoY) (Feb)",
      "eventTimeZone": "GMT",
      "eventPrevious": "4.30%",
      "eventCurrency": "EUR",
      "eventForecast": ""
    },
    {
      "eventDateTime": "2009-03-01T09:00:00",
      "eventActual": "5.60%",
      "eventCountry": "Euro Zone",
      "eventExpectedVolatility": "Low",
      "eventName": "Money-M3 3-Month-Moving Average (Feb)",
      "eventTimeZone": "GMT",
      "eventPrevious": "6.40%",
      "eventCurrency": "EUR",
      "eventForecast": ""
    },
    {
      "eventDateTime": "2009-03-01T09:00:00",
      "eventActual": "-91.00B",
      "eventCountry": "Euro Zone",
      "eventExpectedVolatility": "Low",
      "eventName": "Net Investment Flow (Feb)",
      "eventTimeZone": "GMT",
      "eventPrevious": "77.80B",
      "eventCurrency": "EUR",
      "eventForecast": ""
    },
    {
      "eventDateTime": "2009-03-01T09:00:00",
      "eventActual": "-1.50%",
      "eventCountry": "Euro Zone",
      "eventExpectedVolatility": "Low",
      "eventName": "PPI (YoY) (Feb)",
      "eventTimeZone": "GMT",
      "eventPrevious": "-0.40%",
      "eventCurrency": "EUR",
      "eventForecast": ""
    },
    {
      "eventDateTime": "2009-03-01T09:00:00",
      "eventActual": "-5.30%",
      "eventCountry": "Euro Zone",
      "eventExpectedVolatility": "Low",
      "eventName": "Retail Sales (YoY) (Feb)",
      "eventTimeZone": "GMT",
      "eventPrevious": "-3.00%",
      "eventCurrency": "EUR",
      "eventForecast": ""
    },
    {
      "eventDateTime": "2009-03-01T09:00:00",
      "eventActual": "-12.30",
      "eventCountry": "Euro Zone",
      "eventExpectedVolatility": "Low",
      "eventName": "Selling Price Expectations (Feb)",
      "eventTimeZone": "GMT",
      "eventPrevious": "-11.30",
      "eventCurrency": "EUR",
      "eventForecast": ""
    },
    {
      "eventDateTime": "2009-03-01T09:00:00",
      "eventActual": "-22.40",
      "eventCountry": "Euro Zone",
      "eventExpectedVolatility": "Low",
      "eventName": "Services Sentiment (Feb)",
      "eventTimeZone": "GMT",
      "eventPrevious": "-20.70",
      "eventCurrency": "EUR",
      "eventForecast": ""
    },
    {
      "eventDateTime": "2009-03-01T09:00:00",
      "eventActual": "0.00%",
      "eventCountry": "Spain",
      "eventExpectedVolatility": "Low",
      "eventName": "Spanish CPI (MoM) (Feb)",
      "eventTimeZone": "GMT",
      "eventPrevious": "-1.20%",
      "eventCurrency": "EUR",
      "eventForecast": ""
    },
    {
      "eventDateTime": "2009-03-01T09:00:00",
      "eventActual": "0.70%",
      "eventCountry": "Spain",
      "eventExpectedVolatility": "Moderate",
      "eventName": "Spanish CPI (YoY) (Feb)",
      "eventTimeZone": "GMT",
      "eventPrevious": "0.80%",
      "eventCurrency": "EUR",
      "eventForecast": ""
    },
    {
      "eventDateTime": "2009-03-01T09:00:00",
      "eventActual": "-7.30B",
      "eventCountry": "Spain",
      "eventExpectedVolatility": "Low",
      "eventName": "Spanish Current account (Feb)",
      "eventTimeZone": "GMT",
      "eventPrevious": "-5.69B",
      "eventCurrency": "EUR",
      "eventForecast": ""
    },
    {
      "eventDateTime": "2009-03-01T09:00:00",
      "eventActual": "0.00%",
      "eventCountry": "Spain",
      "eventExpectedVolatility": "Low",
      "eventName": "Spanish HICP (MoM) (Feb)",
      "eventTimeZone": "GMT",
      "eventPrevious": "-1.30%",
      "eventCurrency": "EUR",
      "eventForecast": ""
    },
    {
      "eventDateTime": "2009-03-01T09:00:00",
      "eventActual": "0.70%",
      "eventCountry": "Spain",
      "eventExpectedVolatility": "Moderate",
      "eventName": "Spanish HICP (YoY) (Feb)",
      "eventTimeZone": "GMT",
      "eventPrevious": "0.80%",
      "eventCurrency": "EUR",
      "eventForecast": ""
    },
    {
      "eventDateTime": "2009-03-01T09:00:00",
      "eventActual": "-21.20%",
      "eventCountry": "Spain",
      "eventExpectedVolatility": "Low",
      "eventName": "Spanish Industrial Production (YoY) (Feb)",
      "eventTimeZone": "GMT",
      "eventPrevious": "-21.50%",
      "eventCurrency": "EUR",
      "eventForecast": ""
    },
    {
      "eventDateTime": "2009-03-01T09:00:00",
      "eventActual": "-9.00%",
      "eventCountry": "Spain",
      "eventExpectedVolatility": "Low",
      "eventName": "Spanish Retail Sales (YoY) (Feb)",
      "eventTimeZone": "GMT",
      "eventPrevious": "-5.60%",
      "eventCurrency": "EUR",
      "eventForecast": ""
    }
  ]}}
