{"events": {"event": [
    {
      "eventDateTime": "2017-11-03T05:00:00",
      "eventActual": "51.7",
      "eventCountry": "India",
      "eventExpectedVolatility": "Low",
      "eventName": "Nikkei Services PMI (Oct)",
      "eventTimeZone": "GMT",
      "eventPrevious": "50.7",
      "eventCurrency": "INR",
      "eventForecast": ""
    },
    {
      "eventDateTime": "2017-11-03T11:30:00",
      "eventActual": "398.76B",
      "eventCountry": "India",
      "eventExpectedVolatility": "Low",
      "eventName": "FX Reserves, USD",
      "eventTimeZone": "GMT",
      "eventPrevious": "399.92B",
      "eventCurrency": "INR",
      "eventForecast": ""
    }
  ]}}
