"BoJ Governor Kuroda Speaks";"Japan";"JPY";"2017-12-13T09:00:00";"GMT";" ";"";"";"Moderate"
"Foreign Bonds Buying";"Japan";"JPY";"2017-12-13T23:50:00";"GMT";"-204.0B";"";"-487.6B";"Low"
"Foreign Investments in Japanese Stocks";"Japan";"JPY";"2017-12-13T23:50:00";"GMT";"-166.8B";"";"-84.8B";"Low"
