"Bank Loan Growth (2wk)";"India";"INR";"2015-12-25T11:30:00";"GMT";"9.8%";"";"11.0%";"Low"
"Deposit Growth (2wk)";"India";"INR";"2015-12-25T11:30:00";"GMT";"10.4%";"";"11.5%";"Low"
"FX Reserves, USD";"India";"INR";"2015-12-25T11:30:00";"GMT";"352.51B";"";"351.11B";"Low"
