{"events": {"event": [
    {
      "eventDateTime": "2016-06-28T12:30:00",
      "eventActual": "2.00%",
      "eventCountry": "United States",
      "eventExpectedVolatility": "Low",
      "eventName": "Core PCE Prices (Q1)",
      "eventTimeZone": "GMT",
      "eventPrevious": "2.10%",
      "eventCurrency": "USD",
      "eventForecast": "2.10%"
    },
    {
      "eventDateTime": "2016-06-28T12:30:00",
      "eventActual": "2.2%",
      "eventCountry": "United States",
      "eventExpectedVolatility": "Low",
      "eventName": "Corporate Profits (QoQ) (Q1)",
      "eventTimeZone": "GMT",
      "eventPrevious": "0.6%",
      "eventCurrency": "USD",
      "eventForecast": "0.6%"
    },
    {
      "eventDateTime": "2016-06-28T12:30:00",
      "eventActual": "1.1%",
      "eventCountry": "United States",
      "eventExpectedVolatility": "High",
      "eventName": "GDP (QoQ) (Q1)",
      "eventTimeZone": "GMT",
      "eventPrevious": "0.8%",
      "eventCurrency": "USD",
      "eventForecast": "1.0%"
    },
    {
      "eventDateTime": "2016-06-28T12:30:00",
      "eventActual": "0.4%",
      "eventCountry": "United States",
      "eventExpectedVolatility": "Moderate",
      "eventName": "GDP Price Index (QoQ) (Q1)",
      "eventTimeZone": "GMT",
      "eventPrevious": "0.6%",
      "eventCurrency": "USD",
      "eventForecast": "0.6%"
    },
    {
      "eventDateTime": "2016-06-28T12:30:00",
      "eventActual": "1.3%",
      "eventCountry": "United States",
      "eventExpectedVolatility": "Low",
      "eventName": "GDP Sales (Q1)",
      "eventTimeZone": "GMT",
      "eventPrevious": "1.0%",
      "eventCurrency": "USD",
      "eventForecast": "1.2%"
    },
    {
      "eventDateTime": "2016-06-28T12:30:00",
      "eventActual": "0.2%",
      "eventCountry": "United States",
      "eventExpectedVolatility": "Low",
      "eventName": "PCE Prices (Q1)",
      "eventTimeZone": "GMT",
      "eventPrevious": "0.3%",
      "eventCurrency": "USD",
      "eventForecast": "0.3%"
    },
    {
      "eventDateTime": "2016-06-28T12:30:00",
      "eventActual": "1.5%",
      "eventCountry": "United States",
      "eventExpectedVolatility": "Low",
      "eventName": "Real Consumer Spending (Q1)",
      "eventTimeZone": "GMT",
      "eventPrevious": "1.9%",
      "eventCurrency": "USD",
      "eventForecast": "2.0%"
    },
    {
      "eventDateTime": "2016-06-28T12:55:00",
      "eventActual": "-0.9%",
      "eventCountry": "United States",
      "eventExpectedVolatility": "Low",
      "eventName": "Redbook (MoM)",
      "eventTimeZone": "GMT",
      "eventPrevious": "-0.9%",
      "eventCurrency": "USD",
      "eventForecast": ""
    },
    {
      "eventDateTime": "2016-06-28T12:55:00",
      "eventActual": "0.5%",
      "eventCountry": "United States",
      "eventExpectedVolatility": "Low",
      "eventName": "Redbook (YoY)",
      "eventTimeZone": "GMT",
      "eventPrevious": "0.9%",
      "eventCurrency": "USD",
      "eventForecast": ""
    },
    {
      "eventDateTime": "2016-06-28T13:00:00",
      "eventActual": "1.1%",
      "eventCountry": "United States",
      "eventExpectedVolatility": "Low",
      "eventName": "Sandamp:P/CS HPI Composite - 20 n.s.a. (MoM) (Apr)",
      "eventTimeZone": "GMT",
      "eventPrevious": "1.0%",
      "eventCurrency": "USD",
      "eventForecast": ""
    },
    {
      "eventDateTime": "2016-06-28T13:00:00",
      "eventActual": "5.4%",
      "eventCountry": "United States",
      "eventExpectedVolatility": "Moderate",
      "eventName": "Sandamp:P/CS HPI Composite - 20 n.s.a. (YoY) (Apr)",
      "eventTimeZone": "GMT",
      "eventPrevious": "5.5%",
      "eventCurrency": "USD",
      "eventForecast": "5.4%"
    },
    {
      "eventDateTime": "2016-06-28T13:00:00",
      "eventActual": "0.5%",
      "eventCountry": "United States",
      "eventExpectedVolatility": "Low",
      "eventName": "Sandamp:P/CS HPI Composite - 20 s.a. (MoM) (Apr)",
      "eventTimeZone": "GMT",
      "eventPrevious": "0.8%",
      "eventCurrency": "USD",
      "eventForecast": "0.6%"
    },
    {
      "eventDateTime": "2016-06-28T14:00:00",
      "eventActual": "98.0",
      "eventCountry": "United States",
      "eventExpectedVolatility": "High",
      "eventName": "CB Consumer Confidence (Jun)",
      "eventTimeZone": "GMT",
      "eventPrevious": "92.4",
      "eventCurrency": "USD",
      "eventForecast": "93.3"
    },
    {
      "eventDateTime": "2016-06-28T14:00:00",
      "eventActual": "-7",
      "eventCountry": "United States",
      "eventExpectedVolatility": "Low",
      "eventName": "Richmond Manufacturing Index (Jun)",
      "eventTimeZone": "GMT",
      "eventPrevious": "-1",
      "eventCurrency": "USD",
      "eventForecast": "2"
    },
    {
      "eventDateTime": "2016-06-28T14:00:00",
      "eventActual": "-3",
      "eventCountry": "United States",
      "eventExpectedVolatility": "Low",
      "eventName": "Richmond Manufacturing Shipments (Jun)",
      "eventTimeZone": "GMT",
      "eventPrevious": "-8",
      "eventCurrency": "USD",
      "eventForecast": ""
    },
    {
      "eventDateTime": "2016-06-28T14:00:00",
      "eventActual": "0",
      "eventCountry": "United States",
      "eventExpectedVolatility": "Low",
      "eventName": "Richmond Services Index (Jun)",
      "eventTimeZone": "GMT",
      "eventPrevious": "11",
      "eventCurrency": "USD",
      "eventForecast": ""
    },
    {
      "eventDateTime": "2016-06-28T14:30:00",
      "eventActual": "15.6",
      "eventCountry": "United States",
      "eventExpectedVolatility": "Low",
      "eventName": "Dallas Fed Services Revenues (Jun)",
      "eventTimeZone": "GMT",
      "eventPrevious": "5.8",
      "eventCurrency": "USD",
      "eventForecast": ""
    },
    {
      "eventDateTime": "2016-06-28T14:30:00",
      "eventActual": "-7.7",
      "eventCountry": "United States",
      "eventExpectedVolatility": "Low",
      "eventName": "Texas Services Sector Outlook (Jun)",
      "eventTimeZone": "GMT",
      "eventPrevious": "-7.1",
      "eventCurrency": "USD",
      "eventForecast": ""
    },
    {
      "eventDateTime": "2016-06-28T15:30:00",
      "eventActual": "0.260%",
      "eventCountry": "United States",
      "eventExpectedVolatility": "Low",
      "eventName": "4-Week Bill Auction",
      "eventTimeZone": "GMT",
      "eventPrevious": "0.250%",
      "eventCurrency": "USD",
      "eventForecast": ""
    },
    {
      "eventDateTime": "2016-06-28T20:35:00",
      "eventActual": "-3.860M",
      "eventCountry": "United States",
      "eventExpectedVolatility": "Moderate",
      "eventName": "API Weekly Crude Oil Stock",
      "eventTimeZone": "GMT",
      "eventPrevious": "-5.224M",
      "eventCurrency": "USD",
      "eventForecast": ""
    },
    {
      "eventDateTime": "2016-06-28T23:00:00",
      "eventActual": "",
      "eventCountry": "United States",
      "eventExpectedVolatility": "High",
      "eventName": "FOMC Member Powell Speaks",
      "eventTimeZone": "GMT",
      "eventPrevious": "",
      "eventCurrency": "USD",
      "eventForecast": ""
    }
  ]}}
