{"events": {"event": [
    {
      "eventDateTime": "2015-12-29T07:30:00",
      "eventActual": "58.4%",
      "eventCountry": "United States",
      "eventExpectedVolatility": "Moderate",
      "eventName": "Investing.com Gold Index",
      "eventTimeZone": "GMT",
      "eventPrevious": "52.1%",
      "eventCurrency": "USD",
      "eventForecast": ""
    },
    {
      "eventDateTime": "2015-12-29T07:30:00",
      "eventActual": "31.2%",
      "eventCountry": "United States",
      "eventExpectedVolatility": "Moderate",
      "eventName": "Investing.com Sandamp:P 500 Index",
      "eventTimeZone": "GMT",
      "eventPrevious": "43.0%",
      "eventCurrency": "USD",
      "eventForecast": ""
    },
    {
      "eventDateTime": "2015-12-29T13:30:00",
      "eventActual": "-60.50B",
      "eventCountry": "United States",
      "eventExpectedVolatility": "Moderate",
      "eventName": "Goods Trade Balance (Nov)",
      "eventTimeZone": "GMT",
      "eventPrevious": "-58.41B",
      "eventCurrency": "USD",
      "eventForecast": "-60.90B"
    },
    {
      "eventDateTime": "2015-12-29T13:55:00",
      "eventActual": "-0.5%",
      "eventCountry": "United States",
      "eventExpectedVolatility": "Low",
      "eventName": "Redbook (MoM)",
      "eventTimeZone": "GMT",
      "eventPrevious": "-0.7%",
      "eventCurrency": "USD",
      "eventForecast": ""
    },
    {
      "eventDateTime": "2015-12-29T13:55:00",
      "eventActual": "2.5%",
      "eventCountry": "United States",
      "eventExpectedVolatility": "Low",
      "eventName": "Redbook (YoY)",
      "eventTimeZone": "GMT",
      "eventPrevious": "2.1%",
      "eventCurrency": "USD",
      "eventForecast": ""
    },
    {
      "eventDateTime": "2015-12-29T14:00:00",
      "eventActual": "0.1%",
      "eventCountry": "United States",
      "eventExpectedVolatility": "Low",
      "eventName": "Sandamp:P/CS HPI Composite - 20 n.s.a. (MoM) (Oct)",
      "eventTimeZone": "GMT",
      "eventPrevious": "0.2%",
      "eventCurrency": "USD",
      "eventForecast": "0.2%"
    },
    {
      "eventDateTime": "2015-12-29T14:00:00",
      "eventActual": "5.5%",
      "eventCountry": "United States",
      "eventExpectedVolatility": "Moderate",
      "eventName": "Sandamp:P/CS HPI Composite - 20 n.s.a. (YoY) (Oct)",
      "eventTimeZone": "GMT",
      "eventPrevious": "5.5%",
      "eventCurrency": "USD",
      "eventForecast": "5.4%"
    },
    {
      "eventDateTime": "2015-12-29T14:00:00",
      "eventActual": "0.8%",
      "eventCountry": "United States",
      "eventExpectedVolatility": "Low",
      "eventName": "Sandamp:P/CS HPI Composite - 20 s.a. (MoM) (Oct)",
      "eventTimeZone": "GMT",
      "eventPrevious": "0.5%",
      "eventCurrency": "USD",
      "eventForecast": "0.5%"
    },
    {
      "eventDateTime": "2015-12-29T15:00:00",
      "eventActual": "96.5",
      "eventCountry": "United States",
      "eventExpectedVolatility": "High",
      "eventName": "CB Consumer Confidence (Dec)",
      "eventTimeZone": "GMT",
      "eventPrevious": "92.6",
      "eventCurrency": "USD",
      "eventForecast": "93.8"
    },
    {
      "eventDateTime": "2015-12-29T15:30:00",
      "eventActual": "15.2",
      "eventCountry": "United States",
      "eventExpectedVolatility": "Low",
      "eventName": "Dallas Fed Services Revenues (Dec)",
      "eventTimeZone": "GMT",
      "eventPrevious": "10.3",
      "eventCurrency": "USD",
      "eventForecast": ""
    },
    {
      "eventDateTime": "2015-12-29T15:30:00",
      "eventActual": "3.3",
      "eventCountry": "United States",
      "eventExpectedVolatility": "Low",
      "eventName": "Texas Services Sector Outlook (Dec)",
      "eventTimeZone": "GMT",
      "eventPrevious": "3.6",
      "eventCurrency": "USD",
      "eventForecast": ""
    },
    {
      "eventDateTime": "2015-12-29T16:30:00",
      "eventActual": "0.170%",
      "eventCountry": "United States",
      "eventExpectedVolatility": "Low",
      "eventName": "4-Week Bill Auction",
      "eventTimeZone": "GMT",
      "eventPrevious": "0.195%",
      "eventCurrency": "USD",
      "eventForecast": ""
    },
    {
      "eventDateTime": "2015-12-29T18:00:00",
      "eventActual": "1.785%",
      "eventCountry": "United States",
      "eventExpectedVolatility": "Low",
      "eventName": "5-Year Note Auction",
      "eventTimeZone": "GMT",
      "eventPrevious": "1.670%",
      "eventCurrency": "USD",
      "eventForecast": ""
    },
    {
      "eventDateTime": "2015-12-29T21:35:00",
      "eventActual": "2.900M",
      "eventCountry": "United States",
      "eventExpectedVolatility": "Moderate",
      "eventName": "API Weekly Crude Oil Stock",
      "eventTimeZone": "GMT",
      "eventPrevious": "-3.600M",
      "eventCurrency": "USD",
      "eventForecast": "-2.200M"
    }
  ]}}
