{"events": {"event": [
    {
      "eventDateTime": "2019-04-01T05:30:00",
      "eventActual": "48.3%",
      "eventCountry": "Euro Zone",
      "eventExpectedVolatility": "Moderate",
      "eventName": "Investing.com EUR/USD Index",
      "eventTimeZone": "GMT",
      "eventPrevious": "43.0%",
      "eventCurrency": "EUR",
      "eventForecast": ""
    },
    {
      "eventDateTime": "2019-04-01T07:15:00",
      "eventActual": "50.9",
      "eventCountry": "Spain",
      "eventExpectedVolatility": "Moderate",
      "eventName": "Spanish Manufacturing PMI (Mar)",
      "eventTimeZone": "GMT",
      "eventPrevious": "49.9",
      "eventCurrency": "EUR",
      "eventForecast": "49.6"
    },
    {
      "eventDateTime": "2019-04-01T07:45:00",
      "eventActual": "47.4",
      "eventCountry": "Italy",
      "eventExpectedVolatility": "Moderate",
      "eventName": "Italian Manufacturing PMI (Mar)",
      "eventTimeZone": "GMT",
      "eventPrevious": "47.7",
      "eventCurrency": "EUR",
      "eventForecast": "47.4"
    },
    {
      "eventDateTime": "2019-04-01T07:50:00",
      "eventActual": "49.7",
      "eventCountry": "France",
      "eventExpectedVolatility": "Moderate",
      "eventName": "French Manufacturing PMI (Mar)",
      "eventTimeZone": "GMT",
      "eventPrevious": "49.8",
      "eventCurrency": "EUR",
      "eventForecast": "49.8"
    },
    {
      "eventDateTime": "2019-04-01T07:55:00",
      "eventActual": "44.1",
      "eventCountry": "Germany",
      "eventExpectedVolatility": "High",
      "eventName": "German Manufacturing PMI (Mar)",
      "eventTimeZone": "GMT",
      "eventPrevious": "44.7",
      "eventCurrency": "EUR",
      "eventForecast": "44.7"
    },
    {
      "eventDateTime": "2019-04-01T08:00:00",
      "eventActual": "10.7%",
      "eventCountry": "Italy",
      "eventExpectedVolatility": "Low",
      "eventName": "Italian Monthly Unemployment Rate (Feb)",
      "eventTimeZone": "GMT",
      "eventPrevious": "10.5%",
      "eventCurrency": "EUR",
      "eventForecast": "10.5%"
    },
    {
      "eventDateTime": "2019-04-01T08:00:00",
      "eventActual": "47.5",
      "eventCountry": "Euro Zone",
      "eventExpectedVolatility": "Moderate",
      "eventName": "Manufacturing PMI (Mar)",
      "eventTimeZone": "GMT",
      "eventPrevious": "47.6",
      "eventCurrency": "EUR",
      "eventForecast": "47.6"
    },
    {
      "eventDateTime": "2019-04-01T09:00:00",
      "eventActual": "1.4%",
      "eventCountry": "Euro Zone",
      "eventExpectedVolatility": "High",
      "eventName": "CPI (YoY) (Mar)",
      "eventTimeZone": "GMT",
      "eventPrevious": "1.5%",
      "eventCurrency": "EUR",
      "eventForecast": "1.5%"
    },
    {
      "eventDateTime": "2019-04-01T09:00:00",
      "eventActual": "0.8%",
      "eventCountry": "Euro Zone",
      "eventExpectedVolatility": "Moderate",
      "eventName": "Core CPI (YoY)",
      "eventTimeZone": "GMT",
      "eventPrevious": "1.0%",
      "eventCurrency": "EUR",
      "eventForecast": "0.9%"
    },
    {
      "eventDateTime": "2019-04-01T09:00:00",
      "eventActual": "7.8%",
      "eventCountry": "Euro Zone",
      "eventExpectedVolatility": "Moderate",
      "eventName": "Unemployment Rate (Feb)",
      "eventTimeZone": "GMT",
      "eventPrevious": "7.8%",
      "eventCurrency": "EUR",
      "eventForecast": "7.8%"
    },
    {
      "eventDateTime": "2019-04-01T13:00:00",
      "eventActual": "",
      "eventCountry": "Euro Zone",
      "eventExpectedVolatility": "Moderate",
      "eventName": "ECB's De Guindos Speaks",
      "eventTimeZone": "GMT",
      "eventPrevious": "",
      "eventCurrency": "EUR",
      "eventForecast": ""
    },
    {
      "eventDateTime": "2019-04-01T13:00:00",
      "eventActual": "-0.520%",
      "eventCountry": "France",
      "eventExpectedVolatility": "Low",
      "eventName": "French 12-Month BTF Auction",
      "eventTimeZone": "GMT",
      "eventPrevious": "-0.531%",
      "eventCurrency": "EUR",
      "eventForecast": ""
    },
    {
      "eventDateTime": "2019-04-01T13:00:00",
      "eventActual": "-0.530%",
      "eventCountry": "France",
      "eventExpectedVolatility": "Low",
      "eventName": "French 3-Month BTF Auction",
      "eventTimeZone": "GMT",
      "eventPrevious": "-0.528%",
      "eventCurrency": "EUR",
      "eventForecast": ""
    },
    {
      "eventDateTime": "2019-04-01T13:00:00",
      "eventActual": "-0.529%",
      "eventCountry": "France",
      "eventExpectedVolatility": "Low",
      "eventName": "French 6-Month BTF Auction",
      "eventTimeZone": "GMT",
      "eventPrevious": "-0.522%",
      "eventCurrency": "EUR",
      "eventForecast": ""
    }
  ]}}
