"CPI (MoM)";"Canada";"CAD";"2010-08-20T11:00:00";"GMT";"-0.1%";"0.0%";"0.5%";"Moderate"
"Core CPI (MoM)";"Canada";"CAD";"2010-08-20T11:00:00";"GMT";"-0.1%";"0.1%";"-0.1%";"High"
"CFTC CAD speculative net positions";"Canada";"CAD";"2010-08-20T19:30:00";"GMT";"41.2K";"";"29.5K";"Low"
