{"events": {"event": [
    {
      "eventDateTime": "2010-07-13T06:00:00",
      "eventActual": "-0.2%",
      "eventCountry": "Germany",
      "eventExpectedVolatility": "Low",
      "eventName": "German WPI (MoM)",
      "eventTimeZone": "GMT",
      "eventPrevious": "0.3%",
      "eventCurrency": "EUR",
      "eventForecast": "0.4%"
    },
    {
      "eventDateTime": "2010-07-13T06:45:00",
      "eventActual": "0.0%",
      "eventCountry": "France",
      "eventExpectedVolatility": "Moderate",
      "eventName": "French CPI (MoM)",
      "eventTimeZone": "GMT",
      "eventPrevious": "0.1%",
      "eventCurrency": "EUR",
      "eventForecast": "0.1%"
    },
    {
      "eventDateTime": "2010-07-13T09:00:00",
      "eventActual": "21.2",
      "eventCountry": "Germany",
      "eventExpectedVolatility": "High",
      "eventName": "German ZEW Economic Sentiment",
      "eventTimeZone": "GMT",
      "eventPrevious": "28.7",
      "eventCurrency": "EUR",
      "eventForecast": "25.2"
    },
    {
      "eventDateTime": "2010-07-13T09:00:00",
      "eventActual": "10.7",
      "eventCountry": "Euro Zone",
      "eventExpectedVolatility": "Moderate",
      "eventName": "ZEW Economic Sentiment",
      "eventTimeZone": "GMT",
      "eventPrevious": "18.8",
      "eventCurrency": "EUR",
      "eventForecast": "16.8"
    }
  ]}}
