{"events": {"event": [
    {
      "eventDateTime": "2018-04-09T05:30:00",
      "eventActual": "56.9%",
      "eventCountry": "Canada",
      "eventExpectedVolatility": "Moderate",
      "eventName": "Investing.com USD/CAD Index",
      "eventTimeZone": "GMT",
      "eventPrevious": "61.9%",
      "eventCurrency": "CAD",
      "eventForecast": ""
    },
    {
      "eventDateTime": "2018-04-09T14:30:00",
      "eventActual": "",
      "eventCountry": "Canada",
      "eventExpectedVolatility": "Moderate",
      "eventName": "BoC Business Outlook Survey",
      "eventTimeZone": "GMT",
      "eventPrevious": "",
      "eventCurrency": "CAD",
      "eventForecast": ""
    }
  ]}}
