"French CPI (MoM)";"France";"EUR";"2009-05-13T06:45:00";"GMT";"0.2%";"0.2%";"0.2%";"Moderate"
"Industrial Production (MoM)";"Euro Zone";"EUR";"2009-05-13T09:00:00";"GMT";"-2.5%";"-1.0%";"-2.0%";"Moderate"
"Deposit Facility Rate";"Euro Zone";"EUR";"2009-05-13T12:45:00";"GMT";"0.25%";"";"0.25%";"High"
