"Investing.com Gold Index";"United States";"USD";"2016-06-27T06:30:00";"GMT";"61.0%";"";"58.1%";"Moderate"
"Investing.com Sandamp:P 500 Index";"United States";"USD";"2016-06-27T06:30:00";"GMT";"58.6%";"";"41.5%";"Moderate"
"Goods Trade Balance (May)";"United States";"USD";"2016-06-27T12:30:00";"GMT";"-57.53B";"-59.10B";"-60.59B";"Moderate"
"Services PMI (Jun)";"United States";"USD";"2016-06-27T13:45:00";"GMT";"51.3";"52.0";"51.3";"Moderate"
"Dallas Fed Mfg Business Index (Jun)";"United States";"USD";"2016-06-27T14:30:00";"GMT";"-20.8";"-16.0";"-18.3";"Low"
"3-Month Bill Auction";"United States";"USD";"2016-06-27T15:30:00";"GMT";"0.270%";"";"0.260%";"Low"
"6-Month Bill Auction";"United States";"USD";"2016-06-27T15:30:00";"GMT";"0.400%";"";"0.340%";"Low"
