"Bank Loan Growth (Jun)";"India";"INR";"2002-07-01T09:00:00";"GMT";"24.25%";"";"24.80%";"Low"
"Cash Reserve Ratio (Jun)";"India";"INR";"2002-07-01T09:00:00";"GMT";"5.50%";"";"5.00%";"Low"
"Deposit Growth (Jun)";"India";"INR";"2002-07-01T09:00:00";"GMT";"18.44%";"";"17.97%";"Low"
"Exports (USD) (Jun)";"India";"INR";"2002-07-01T09:00:00";"GMT";"4.08B";"";"3.96B";"Low"
"FX Reserves, USD (Jun)";"India";"INR";"2002-07-01T09:00:00";"GMT";"56.15B";"";"57.96B";"Low"
"Federal Fiscal Deficit (Jun)";"India";"INR";"2002-07-01T09:00:00";"GMT";"299.83B";"";"395.60B";"Low"
"Imports (USD) (Jun)";"India";"INR";"2002-07-01T09:00:00";"GMT";"5.18B";"";"4.25B";"Low"
"Interest Rate Decision (Jun)";"India";"INR";"2002-07-01T09:00:00";"GMT";"6.00%";"";"5.98%";"High"
"M3 Money Supply (Jun)";"India";"INR";"2002-07-01T09:00:00";"GMT";"16.76%";"";"16.41%";"Low"
"Reverse REPO Rate (Jun)";"India";"INR";"2002-07-01T09:00:00";"GMT";"8.00%";"";"8.00%";"Low"
"Trade Balance (Jun)";"India";"INR";"2002-07-01T09:00:00";"GMT";"-1.10B";"";"-0.29B";"Low"
