"Building Permits (MoM) (Oct)";"United States";"USD";"2019-11-19T13:30:00";"GMT";"-2.7%";"0.0%";"5.0%";"Moderate"
"Building Permits (Oct)";"United States";"USD";"2019-11-19T13:30:00";"GMT";"1.391M";"1.385M";"1.461M";"High"
"Housing Starts (MoM) (Oct)";"United States";"USD";"2019-11-19T13:30:00";"GMT";"-7.9%";"";"3.8%";"Moderate"
"Housing Starts (Oct)";"United States";"USD";"2019-11-19T13:30:00";"GMT";"1.266M";"1.320M";"1.314M";"Moderate"
"Redbook (MoM)";"United States";"USD";"2019-11-19T13:55:00";"GMT";"0.1%";"";"-0.3%";"Low"
"Redbook (YoY)";"United States";"USD";"2019-11-19T13:55:00";"GMT";"5.0%";"";"4.1%";"Low"
"FOMC Member Williams Speaks";"United States";"USD";"2019-11-19T14:00:00";"GMT";" ";"";"";"Moderate"
"API Weekly Crude Oil Stock";"United States";"USD";"2019-11-19T21:30:00";"GMT";"-0.500M";"";"5.954M";"Moderate"
