{"events": {"event": {
    "eventDateTime": "2017-11-16T14:30:00",
    "eventActual": "-3.41B",
    "eventCountry": "Brazil",
    "eventExpectedVolatility": "Low",
    "eventName": "Foreign Exchange Flows",
    "eventTimeZone": "GMT",
    "eventPrevious": "-1.35B",
    "eventCurrency": "BRL",
    "eventForecast": ""
  }}}
