"Nationwide HPI (MoM) (Jul)";"United Kingdom";"GBP";"2015-08-04T06:00:00";"GMT";"-0.2%";"0.4%";"0.4%";"Moderate"
"Nationwide HPI (YoY) (Jul)";"United Kingdom";"GBP";"2015-08-04T06:00:00";"GMT";"3.3%";"3.5%";"3.5%";"Moderate"
"Construction PMI (Jul)";"United Kingdom";"GBP";"2015-08-04T08:30:00";"GMT";"58.1";"58.4";"57.1";"High"
"10-Year Treasury Gilt Auction";"United Kingdom";"GBP";"2015-08-04T09:35:00";"GMT";"2.020%";"";"1.980%";"Low"
"BRC Shop Price Index (YoY)";"United Kingdom";"GBP";"2015-08-04T23:01:00";"GMT";"-1.3%";"";"-1.4%";"Low"
