{"events": {"event": [
    {
      "eventDateTime": "2015-10-12T21:00:00",
      "eventActual": "-1.9%",
      "eventCountry": "South Korea",
      "eventExpectedVolatility": "Low",
      "eventName": "Export Price Index (YoY) (Sep)",
      "eventTimeZone": "GMT",
      "eventPrevious": "-1.6%",
      "eventCurrency": "KRW",
      "eventForecast": ""
    },
    {
      "eventDateTime": "2015-10-12T21:00:00",
      "eventActual": "-13.0%",
      "eventCountry": "South Korea",
      "eventExpectedVolatility": "Low",
      "eventName": "Import Price Index (YoY) (Sep)",
      "eventTimeZone": "GMT",
      "eventPrevious": "-13.6%",
      "eventCurrency": "KRW",
      "eventForecast": ""
    }
  ]}}
