{"events": {"event": [
    {
      "eventDateTime": "2010-11-09T15:00:00",
      "eventActual": "46.7",
      "eventCountry": "United States",
      "eventExpectedVolatility": "Low",
      "eventName": "IBD/TIPP Economic Optimism",
      "eventTimeZone": "GMT",
      "eventPrevious": "46.4",
      "eventCurrency": "USD",
      "eventForecast": "47.8"
    },
    {
      "eventDateTime": "2010-11-09T15:00:00",
      "eventActual": "1.5%",
      "eventCountry": "United States",
      "eventExpectedVolatility": "Low",
      "eventName": "Wholesale Inventories (MoM)",
      "eventTimeZone": "GMT",
      "eventPrevious": "1.2%",
      "eventCurrency": "USD",
      "eventForecast": "0.6%"
    },
    {
      "eventDateTime": "2010-11-09T21:00:00",
      "eventActual": "27",
      "eventCountry": "United States",
      "eventExpectedVolatility": "Low",
      "eventName": "Bloomberg Consumer Confidence",
      "eventTimeZone": "GMT",
      "eventPrevious": "27",
      "eventCurrency": "USD",
      "eventForecast": ""
    }
  ]}}
