{"events": {"event": [
    {
      "eventDateTime": "2015-09-23T06:45:00",
      "eventActual": "0.0%",
      "eventCountry": "France",
      "eventExpectedVolatility": "Moderate",
      "eventName": "French GDP (QoQ) (Q2)",
      "eventTimeZone": "GMT",
      "eventPrevious": "0.0%",
      "eventCurrency": "EUR",
      "eventForecast": "0.0%"
    },
    {
      "eventDateTime": "2015-09-23T07:00:00",
      "eventActual": "50.4",
      "eventCountry": "France",
      "eventExpectedVolatility": "Moderate",
      "eventName": "French Manufacturing PMI (Sep)",
      "eventTimeZone": "GMT",
      "eventPrevious": "48.3",
      "eventCurrency": "EUR",
      "eventForecast": "48.5"
    },
    {
      "eventDateTime": "2015-09-23T07:00:00",
      "eventActual": "51.4",
      "eventCountry": "France",
      "eventExpectedVolatility": "Low",
      "eventName": "French Markit Composite PMI (Sep)",
      "eventTimeZone": "GMT",
      "eventPrevious": "50.2",
      "eventCurrency": "EUR",
      "eventForecast": "50.4"
    },
    {
      "eventDateTime": "2015-09-23T07:00:00",
      "eventActual": "51.2",
      "eventCountry": "France",
      "eventExpectedVolatility": "Moderate",
      "eventName": "French Services PMI (Sep)",
      "eventTimeZone": "GMT",
      "eventPrevious": "50.6",
      "eventCurrency": "EUR",
      "eventForecast": "51.0"
    },
    {
      "eventDateTime": "2015-09-23T07:30:00",
      "eventActual": "54.3",
      "eventCountry": "Germany",
      "eventExpectedVolatility": "Low",
      "eventName": "German Composite PMI (Sep)",
      "eventTimeZone": "GMT",
      "eventPrevious": "55.0",
      "eventCurrency": "EUR",
      "eventForecast": "54.6"
    },
    {
      "eventDateTime": "2015-09-23T07:30:00",
      "eventActual": "52.5",
      "eventCountry": "Germany",
      "eventExpectedVolatility": "High",
      "eventName": "German Manufacturing PMI (Sep)",
      "eventTimeZone": "GMT",
      "eventPrevious": "53.3",
      "eventCurrency": "EUR",
      "eventForecast": "52.8"
    },
    {
      "eventDateTime": "2015-09-23T07:30:00",
      "eventActual": "54.3",
      "eventCountry": "Germany",
      "eventExpectedVolatility": "Moderate",
      "eventName": "German Services PMI (Sep)",
      "eventTimeZone": "GMT",
      "eventPrevious": "54.9",
      "eventCurrency": "EUR",
      "eventForecast": "54.6"
    },
    {
      "eventDateTime": "2015-09-23T08:00:00",
      "eventActual": "52.0",
      "eventCountry": "Euro Zone",
      "eventExpectedVolatility": "Moderate",
      "eventName": "Manufacturing PMI (Sep)",
      "eventTimeZone": "GMT",
      "eventPrevious": "52.3",
      "eventCurrency": "EUR",
      "eventForecast": "52.0"
    },
    {
      "eventDateTime": "2015-09-23T08:00:00",
      "eventActual": "53.9",
      "eventCountry": "Euro Zone",
      "eventExpectedVolatility": "Moderate",
      "eventName": "Markit Composite PMI (Sep)",
      "eventTimeZone": "GMT",
      "eventPrevious": "54.3",
      "eventCurrency": "EUR",
      "eventForecast": "54.1"
    },
    {
      "eventDateTime": "2015-09-23T08:00:00",
      "eventActual": "54.0",
      "eventCountry": "Euro Zone",
      "eventExpectedVolatility": "Moderate",
      "eventName": "Services PMI (Sep)",
      "eventTimeZone": "GMT",
      "eventPrevious": "54.4",
      "eventCurrency": "EUR",
      "eventForecast": "54.2"
    },
    {
      "eventDateTime": "2015-09-23T09:35:00",
      "eventActual": "-0.260%",
      "eventCountry": "Germany",
      "eventExpectedVolatility": "Low",
      "eventName": "German 2-Year Schatz Auction",
      "eventTimeZone": "GMT",
      "eventPrevious": "-0.250%",
      "eventCurrency": "EUR",
      "eventForecast": ""
    },
    {
      "eventDateTime": "2015-09-23T13:00:00",
      "eventActual": "",
      "eventCountry": "Euro Zone",
      "eventExpectedVolatility": "High",
      "eventName": "ECB President Draghi Speaks",
      "eventTimeZone": "GMT",
      "eventPrevious": "",
      "eventCurrency": "EUR",
      "eventForecast": ""
    },
    {
      "eventDateTime": "2015-09-23T16:00:00",
      "eventActual": "",
      "eventCountry": "Germany",
      "eventExpectedVolatility": "Moderate",
      "eventName": "German Buba President Weidmann Speaks",
      "eventTimeZone": "GMT",
      "eventPrevious": "",
      "eventCurrency": "EUR",
      "eventForecast": ""
    }
  ]}}
