{"events": {"event": {
    "eventDateTime": "2008-11-16T21:45:00",
    "eventActual": "-0.3%",
    "eventCountry": "New Zealand",
    "eventExpectedVolatility": "Low",
    "eventName": "FPI (MoM)",
    "eventTimeZone": "GMT",
    "eventPrevious": "0.6%",
    "eventCurrency": "NZD",
    "eventForecast": ""
  }}}
