"Spanish CPI (YoY)";"Spain";"EUR";"2014-10-30T08:00:00";"GMT";"-0.2%";"0.0%";"-0.1%";"Moderate"
"Spanish GDP (QoQ) (Q3)";"Spain";"EUR";"2014-10-30T08:00:00";"GMT";"0.6%";"0.5%";"0.5%";"Moderate"
"Spanish GDP (YoY) (Q3)";"Spain";"EUR";"2014-10-30T08:00:00";"GMT";"1.3%";"1.6%";"1.6%";"Low"
"Spanish HICP (YoY) (Oct)";"Spain";"EUR";"2014-10-30T08:00:00";"GMT";"-0.3%";"-0.2%";"-0.2%";"Moderate"
"German Unemployment (Oct)";"Germany";"EUR";"2014-10-30T08:55:00";"GMT";"2.900M";"";"2.900M";"Low"
"German Unemployment Change (Oct)";"Germany";"EUR";"2014-10-30T08:55:00";"GMT";"9K";"5K";"-22K";"High"
"German Unemployment Rate (Oct)";"Germany";"EUR";"2014-10-30T08:55:00";"GMT";"6.7%";"6.7%";"6.7%";"Moderate"
"German Unemployment n.s.a. (Oct)";"Germany";"EUR";"2014-10-30T08:55:00";"GMT";"2.800M";"2.800M";"2.700M";"Low"
"Business Climate (Oct)";"Euro Zone";"EUR";"2014-10-30T10:00:00";"GMT";"0.1";"0.1";"0.1";"Low"
"Business and Consumer Survey (Oct)";"Euro Zone";"EUR";"2014-10-30T10:00:00";"GMT";"99.9";"99.7";"100.7";"Low"
"Consumer Confidence (Oct)";"Euro Zone";"EUR";"2014-10-30T10:00:00";"GMT";"-11.4";"-11.0";"-11.0";"Low"
"Consumer Inflation Expectation (Oct)";"Euro Zone";"EUR";"2014-10-30T10:00:00";"GMT";"4.0";"";"5.3";"Low"
"Industrial Sentiment (Oct)";"Euro Zone";"EUR";"2014-10-30T10:00:00";"GMT";"-5.5";"-6.0";"-5.0";"Low"
"Selling Price Expectations (Oct)";"Euro Zone";"EUR";"2014-10-30T10:00:00";"GMT";"-1.9";"";"0.2";"Low"
"Services Sentiment (Oct)";"Euro Zone";"EUR";"2014-10-30T10:00:00";"GMT";"3.2";"3.0";"4.0";"Low"
"Italian 10-Year BTP Auction";"Italy";"EUR";"2014-10-30T10:25:00";"GMT";"2.45%";"";"2.44%";"Moderate"
"Italian 5-Year BTP Auction";"Italy";"EUR";"2014-10-30T10:25:00";"GMT";"1.06%";"";"1.23%";"Low"
"German CPI (MoM) (Oct)";"Germany";"EUR";"2014-10-30T13:00:00";"GMT";"0.0%";"-0.1%";"-0.3%";"Moderate"
"German CPI (YoY) (Oct)";"Germany";"EUR";"2014-10-30T13:00:00";"GMT";"0.8%";"0.9%";"0.8%";"Low"
"France Jobseekers Total (Sep)";"France";"EUR";"2014-10-30T17:00:00";"GMT";"3,413.3K";"";"3,432.5K";"Moderate"
