{"events": {"event": [
    {
      "eventDateTime": "2007-11-01T09:00:00",
      "eventActual": "0.30%",
      "eventCountry": "China",
      "eventExpectedVolatility": "Moderate",
      "eventName": "CPI (MoM) (Oct)",
      "eventTimeZone": "GMT",
      "eventPrevious": "0.30%",
      "eventCurrency": "CNY",
      "eventForecast": ""
    },
    {
      "eventDateTime": "2007-11-01T09:00:00",
      "eventActual": "6.50%",
      "eventCountry": "China",
      "eventExpectedVolatility": "Moderate",
      "eventName": "CPI (YoY) (Oct)",
      "eventTimeZone": "GMT",
      "eventPrevious": "6.20%",
      "eventCurrency": "CNY",
      "eventForecast": ""
    },
    {
      "eventDateTime": "2007-11-01T09:00:00",
      "eventActual": "22.30%",
      "eventCountry": "China",
      "eventExpectedVolatility": "Moderate",
      "eventName": "Exports (YoY) (Oct)",
      "eventTimeZone": "GMT",
      "eventPrevious": "22.70%",
      "eventCurrency": "CNY",
      "eventForecast": ""
    },
    {
      "eventDateTime": "2007-11-01T09:00:00",
      "eventActual": "11.15%",
      "eventCountry": "China",
      "eventExpectedVolatility": "Low",
      "eventName": "FDI (Oct)",
      "eventTimeZone": "GMT",
      "eventPrevious": "10.87%",
      "eventCurrency": "CNY",
      "eventForecast": ""
    },
    {
      "eventDateTime": "2007-11-01T09:00:00",
      "eventActual": "26.90%",
      "eventCountry": "China",
      "eventExpectedVolatility": "Moderate",
      "eventName": "Fixed Asset Investment (YoY) (Oct)",
      "eventTimeZone": "GMT",
      "eventPrevious": "26.40%",
      "eventCurrency": "CNY",
      "eventForecast": ""
    },
    {
      "eventDateTime": "2007-11-01T09:00:00",
      "eventActual": "25.50%",
      "eventCountry": "China",
      "eventExpectedVolatility": "Moderate",
      "eventName": "Imports (YoY) (Oct)",
      "eventTimeZone": "GMT",
      "eventPrevious": "16.10%",
      "eventCurrency": "CNY",
      "eventForecast": ""
    },
    {
      "eventDateTime": "2007-11-01T09:00:00",
      "eventActual": "17.90%",
      "eventCountry": "China",
      "eventExpectedVolatility": "High",
      "eventName": "Industrial Production (YoY) (Oct)",
      "eventTimeZone": "GMT",
      "eventPrevious": "18.90%",
      "eventCurrency": "CNY",
      "eventForecast": ""
    },
    {
      "eventDateTime": "2007-11-01T09:00:00",
      "eventActual": "18.50%",
      "eventCountry": "China",
      "eventExpectedVolatility": "Low",
      "eventName": "M2 Money Stock (YoY) (Oct)",
      "eventTimeZone": "GMT",
      "eventPrevious": "18.40%",
      "eventCurrency": "CNY",
      "eventForecast": ""
    },
    {
      "eventDateTime": "2007-11-01T09:00:00",
      "eventActual": "53.20",
      "eventCountry": "China",
      "eventExpectedVolatility": "High",
      "eventName": "Manufacturing PMI (Oct)",
      "eventTimeZone": "GMT",
      "eventPrevious": "56.10",
      "eventCurrency": "CNY",
      "eventForecast": ""
    },
    {
      "eventDateTime": "2007-11-01T09:00:00",
      "eventActual": "136.10B",
      "eventCountry": "China",
      "eventExpectedVolatility": "Moderate",
      "eventName": "New Loans (Oct)",
      "eventTimeZone": "GMT",
      "eventPrevious": "283.50B",
      "eventCurrency": "CNY",
      "eventForecast": ""
    },
    {
      "eventDateTime": "2007-11-01T09:00:00",
      "eventActual": "61.40",
      "eventCountry": "China",
      "eventExpectedVolatility": "Moderate",
      "eventName": "Non-Manufacturing PMI (Oct)",
      "eventTimeZone": "GMT",
      "eventPrevious": "61.90",
      "eventCurrency": "CNY",
      "eventForecast": ""
    },
    {
      "eventDateTime": "2007-11-01T09:00:00",
      "eventActual": "17.70%",
      "eventCountry": "China",
      "eventExpectedVolatility": "Low",
      "eventName": "Outstanding Loan Growth (YoY) (Oct)",
      "eventTimeZone": "GMT",
      "eventPrevious": "17.30%",
      "eventCurrency": "CNY",
      "eventForecast": ""
    },
    {
      "eventDateTime": "2007-11-01T09:00:00",
      "eventActual": "3.87%",
      "eventCountry": "China",
      "eventExpectedVolatility": "Moderate",
      "eventName": "PBoC Deposit Rate (Oct)",
      "eventTimeZone": "GMT",
      "eventPrevious": "3.74%",
      "eventCurrency": "CNY",
      "eventForecast": ""
    },
    {
      "eventDateTime": "2007-11-01T09:00:00",
      "eventActual": "12.61%",
      "eventCountry": "China",
      "eventExpectedVolatility": "Moderate",
      "eventName": "PBoC Reserve Requirement Ratio (Oct)",
      "eventTimeZone": "GMT",
      "eventPrevious": "12.10%",
      "eventCurrency": "CNY",
      "eventForecast": ""
    },
    {
      "eventDateTime": "2007-11-01T09:00:00",
      "eventActual": "3.20%",
      "eventCountry": "China",
      "eventExpectedVolatility": "Moderate",
      "eventName": "PPI (YoY) (Oct)",
      "eventTimeZone": "GMT",
      "eventPrevious": "2.70%",
      "eventCurrency": "CNY",
      "eventForecast": ""
    },
    {
      "eventDateTime": "2007-11-01T09:00:00",
      "eventActual": "18.10%",
      "eventCountry": "China",
      "eventExpectedVolatility": "Low",
      "eventName": "Retail Sales (YoY) (Oct)",
      "eventTimeZone": "GMT",
      "eventPrevious": "17.00%",
      "eventCurrency": "CNY",
      "eventForecast": ""
    },
    {
      "eventDateTime": "2007-11-01T09:00:00",
      "eventActual": "27.20B",
      "eventCountry": "China",
      "eventExpectedVolatility": "Moderate",
      "eventName": "Trade Balance (USD) (Oct)",
      "eventTimeZone": "GMT",
      "eventPrevious": "24.09B",
      "eventCurrency": "CNY",
      "eventForecast": ""
    }
  ]}}
