"Fed Chairman Bernanke Speaks";"United States";"USD";"2011-02-18T13:00:00";"GMT";" ";"";"";"High"
"Treasury Secretary Geithner Speaks";"United States";"USD";"2011-02-18T14:45:00";"GMT";" ";"";"";"Moderate"
"U.S. Baker Hughes Oil Rig Count";"United States";"USD";"2011-02-18T17:00:00";"GMT";"805";"";"798";"Moderate"
"CFTC Crude Oil speculative net positions";"United States";"USD";"2011-02-18T20:30:00";"GMT";"165.5k";"";"165.5k";"Moderate"
"CFTC Gold speculative net positions";"United States";"USD";"2011-02-18T20:30:00";"GMT";"167.1K";"";"172.8K";"Moderate"
"CFTC Silver speculative net positions";"United States";"USD";"2011-02-18T20:30:00";"GMT";"37.1K";"";"40.9K";"Low"
