{"events": {"event": [
    {
      "eventDateTime": "2004-10-01T09:00:00",
      "eventActual": "0.00%",
      "eventCountry": "South Korea",
      "eventExpectedVolatility": "Low",
      "eventName": "CPI (MoM) (Sep)",
      "eventTimeZone": "GMT",
      "eventPrevious": "0.90%",
      "eventCurrency": "KRW",
      "eventForecast": ""
    },
    {
      "eventDateTime": "2004-10-01T09:00:00",
      "eventActual": "3.90%",
      "eventCountry": "South Korea",
      "eventExpectedVolatility": "Moderate",
      "eventName": "CPI (YoY) (Sep)",
      "eventTimeZone": "GMT",
      "eventPrevious": "4.80%",
      "eventCurrency": "KRW",
      "eventForecast": ""
    },
    {
      "eventDateTime": "2004-10-01T09:00:00",
      "eventActual": "3.33B",
      "eventCountry": "South Korea",
      "eventExpectedVolatility": "Low",
      "eventName": "Current Account (Sep)",
      "eventTimeZone": "GMT",
      "eventPrevious": "1.53B",
      "eventCurrency": "KRW",
      "eventForecast": ""
    },
    {
      "eventDateTime": "2004-10-01T09:00:00",
      "eventActual": "12.60%",
      "eventCountry": "South Korea",
      "eventExpectedVolatility": "Low",
      "eventName": "Export Price Index (YoY) (Sep)",
      "eventTimeZone": "GMT",
      "eventPrevious": "11.20%",
      "eventCurrency": "KRW",
      "eventForecast": ""
    },
    {
      "eventDateTime": "2004-10-01T09:00:00",
      "eventActual": "22.40%",
      "eventCountry": "South Korea",
      "eventExpectedVolatility": "Low",
      "eventName": "Exports (YoY) (Sep)",
      "eventTimeZone": "GMT",
      "eventPrevious": "28.80%",
      "eventCurrency": "KRW",
      "eventForecast": ""
    },
    {
      "eventDateTime": "2004-10-01T09:00:00",
      "eventActual": "174.45B",
      "eventCountry": "South Korea",
      "eventExpectedVolatility": "Low",
      "eventName": "FX Reserves - USD (Sep)",
      "eventTimeZone": "GMT",
      "eventPrevious": "170.49B",
      "eventCurrency": "KRW",
      "eventForecast": ""
    },
    {
      "eventDateTime": "2004-10-01T09:00:00",
      "eventActual": "17.00%",
      "eventCountry": "South Korea",
      "eventExpectedVolatility": "Low",
      "eventName": "Import Price Index (YoY) (Sep)",
      "eventTimeZone": "GMT",
      "eventPrevious": "16.60%",
      "eventCurrency": "KRW",
      "eventForecast": ""
    },
    {
      "eventDateTime": "2004-10-01T09:00:00",
      "eventActual": "25.20%",
      "eventCountry": "South Korea",
      "eventExpectedVolatility": "Low",
      "eventName": "Imports (YoY) (Sep)",
      "eventTimeZone": "GMT",
      "eventPrevious": "33.80%",
      "eventCurrency": "KRW",
      "eventForecast": ""
    },
    {
      "eventDateTime": "2004-10-01T09:00:00",
      "eventActual": "2.10%",
      "eventCountry": "South Korea",
      "eventExpectedVolatility": "Low",
      "eventName": "Industrial Production (MoM) (Sep)",
      "eventTimeZone": "GMT",
      "eventPrevious": "1.50%",
      "eventCurrency": "KRW",
      "eventForecast": ""
    },
    {
      "eventDateTime": "2004-10-01T09:00:00",
      "eventActual": "9.60%",
      "eventCountry": "South Korea",
      "eventExpectedVolatility": "Low",
      "eventName": "Industrial Production (YoY) (Sep)",
      "eventTimeZone": "GMT",
      "eventPrevious": "10.60%",
      "eventCurrency": "KRW",
      "eventForecast": ""
    },
    {
      "eventDateTime": "2004-10-01T09:00:00",
      "eventActual": "3.50%",
      "eventCountry": "South Korea",
      "eventExpectedVolatility": "Low",
      "eventName": "Interest Rate Decision (Sep)",
      "eventTimeZone": "GMT",
      "eventPrevious": "3.50%",
      "eventCurrency": "KRW",
      "eventForecast": ""
    },
    {
      "eventDateTime": "2004-10-01T09:00:00",
      "eventActual": "8.00%",
      "eventCountry": "South Korea",
      "eventExpectedVolatility": "Low",
      "eventName": "M2 Money supply (Sep)",
      "eventTimeZone": "GMT",
      "eventPrevious": "6.70%",
      "eventCurrency": "KRW",
      "eventForecast": ""
    },
    {
      "eventDateTime": "2004-10-01T09:00:00",
      "eventActual": "82.00",
      "eventCountry": "South Korea",
      "eventExpectedVolatility": "Low",
      "eventName": "Manufacturing BSI Index (Sep)",
      "eventTimeZone": "GMT",
      "eventPrevious": "85.00",
      "eventCurrency": "KRW",
      "eventForecast": ""
    },
    {
      "eventDateTime": "2004-10-01T09:00:00",
      "eventActual": "0.40%",
      "eventCountry": "South Korea",
      "eventExpectedVolatility": "Low",
      "eventName": "PPI (MoM) (Sep)",
      "eventTimeZone": "GMT",
      "eventPrevious": "0.90%",
      "eventCurrency": "KRW",
      "eventForecast": ""
    },
    {
      "eventDateTime": "2004-10-01T09:00:00",
      "eventActual": "7.50%",
      "eventCountry": "South Korea",
      "eventExpectedVolatility": "Low",
      "eventName": "PPI (YoY) (Sep)",
      "eventTimeZone": "GMT",
      "eventPrevious": "7.50%",
      "eventCurrency": "KRW",
      "eventForecast": ""
    },
    {
      "eventDateTime": "2004-10-01T09:00:00",
      "eventActual": "1.70%",
      "eventCountry": "South Korea",
      "eventExpectedVolatility": "Low",
      "eventName": "Service Sector Output (MoM) (Sep)",
      "eventTimeZone": "GMT",
      "eventPrevious": "-0.90%",
      "eventCurrency": "KRW",
      "eventForecast": ""
    },
    {
      "eventDateTime": "2004-10-01T09:00:00",
      "eventActual": "0.00B",
      "eventCountry": "South Korea",
      "eventExpectedVolatility": "Low",
      "eventName": "Trade Balance (Sep)",
      "eventTimeZone": "GMT",
      "eventPrevious": "1.67B",
      "eventCurrency": "KRW",
      "eventForecast": ""
    },
    {
      "eventDateTime": "2004-10-01T09:00:00",
      "eventActual": "3.70%",
      "eventCountry": "South Korea",
      "eventExpectedVolatility": "Low",
      "eventName": "Unemployment Rate (Sep)",
      "eventTimeZone": "GMT",
      "eventPrevious": "3.80%",
      "eventCurrency": "KRW",
      "eventForecast": ""
    }
  ]}}
