{"events": {"event": [
    {
      "eventDateTime": "2010-01-12T13:30:00",
      "eventActual": "0.4%",
      "eventCountry": "Canada",
      "eventExpectedVolatility": "Moderate",
      "eventName": "New Housing Price Index (MoM)",
      "eventTimeZone": "GMT",
      "eventPrevious": "0.3%",
      "eventCurrency": "CAD",
      "eventForecast": "0.3%"
    },
    {
      "eventDateTime": "2010-01-12T13:30:00",
      "eventActual": "-0.3B",
      "eventCountry": "Canada",
      "eventExpectedVolatility": "Moderate",
      "eventName": "Trade Balance",
      "eventTimeZone": "GMT",
      "eventPrevious": "0.5B",
      "eventCurrency": "CAD",
      "eventForecast": "0.9B"
    }
  ]}}
