{"events": {"event": {
    "eventDateTime": "2019-10-23T15:30:00",
    "eventActual": "-6.223B",
    "eventCountry": "Brazil",
    "eventExpectedVolatility": "Low",
    "eventName": "Foreign Exchange Flows",
    "eventTimeZone": "GMT",
    "eventPrevious": "-6.858B",
    "eventCurrency": "BRL",
    "eventForecast": ""
  }}}
