{"events": {"event": [
    {
      "eventDateTime": "2011-05-10T11:30:00",
      "eventActual": "91.2",
      "eventCountry": "United States",
      "eventExpectedVolatility": "Low",
      "eventName": "NFIB Small Business Optimism",
      "eventTimeZone": "GMT",
      "eventPrevious": "91.9",
      "eventCurrency": "USD",
      "eventForecast": "91.0"
    },
    {
      "eventDateTime": "2011-05-10T12:30:00",
      "eventActual": "2.2%",
      "eventCountry": "United States",
      "eventExpectedVolatility": "Moderate",
      "eventName": "Import Price Index (MoM)",
      "eventTimeZone": "GMT",
      "eventPrevious": "2.6%",
      "eventCurrency": "USD",
      "eventForecast": "1.8%"
    },
    {
      "eventDateTime": "2011-05-10T14:00:00",
      "eventActual": "42.8",
      "eventCountry": "United States",
      "eventExpectedVolatility": "Low",
      "eventName": "IBD/TIPP Economic Optimism",
      "eventTimeZone": "GMT",
      "eventPrevious": "40.8",
      "eventCurrency": "USD",
      "eventForecast": "41.5"
    },
    {
      "eventDateTime": "2011-05-10T14:00:00",
      "eventActual": "1.1%",
      "eventCountry": "United States",
      "eventExpectedVolatility": "Low",
      "eventName": "Wholesale Inventories (MoM)",
      "eventTimeZone": "GMT",
      "eventPrevious": "1.0%",
      "eventCurrency": "USD",
      "eventForecast": "1.0%"
    }
  ]}}
