"Michigan Consumer Sentiment";"United States";"USD";"2013-10-11T13:55:00";"GMT";"77.5";"76.0";"75.2";"Moderate"
"Michigan Inflation Expectations";"United States";"USD";"2013-10-11T13:55:00";"GMT";"3.3%";"";"2.9%";"Low"
"U.S. Baker Hughes Oil Rig Count";"United States";"USD";"2013-10-11T17:00:00";"GMT";"1372";"";"1367";"Moderate"
"CFTC Gold speculative net positions";"United States";"USD";"2013-10-11T19:30:00";"GMT";"73.0K";"";"82.3K";"Moderate"
"CFTC Silver speculative net positions";"United States";"USD";"2013-10-11T19:30:00";"GMT";"12.8K";"";"15.0K";"Low"
"CFTC Crude Oil speculative net positions";"United States";"USD";"2013-10-11T20:30:00";"GMT";"315.4k";"";"315.6k";"Moderate"
