{"events": {"event": {
    "eventDateTime": "2019-05-31T02:00:00",
    "eventActual": "676.3B",
    "eventCountry": "Singapore",
    "eventExpectedVolatility": "Low",
    "eventName": "Bank Lending (Apr)",
    "eventTimeZone": "GMT",
    "eventPrevious": "676.1B",
    "eventCurrency": "SGD",
    "eventForecast": ""
  }}}
