{"events": {"event": {
    "eventDateTime": "2010-04-23T20:30:00",
    "eventActual": "2.1K",
    "eventCountry": "Russia",
    "eventExpectedVolatility": "Moderate",
    "eventName": "CFTC RUB speculative positions",
    "eventTimeZone": "GMT",
    "eventPrevious": "2.2K",
    "eventCurrency": "RUB",
    "eventForecast": ""
  }}}
