"Exports (MoM) (Sep)";"Hong Kong";"HKD";"2017-10-26T08:30:00";"GMT";"7.4%";"";"9.4%";"Low"
"Imports (MoM) (Sep)";"Hong Kong";"HKD";"2017-10-26T08:30:00";"GMT";"7.7%";"";"9.7%";"Low"
"Trade Balance";"Hong Kong";"HKD";"2017-10-26T08:30:00";"GMT";"-35.5B";"-38.5B";"-44.7B";"Low"
