{"events": {"event": {
    "eventDateTime": "2018-03-16T19:30:00",
    "eventActual": "-0.8K",
    "eventCountry": "Australia",
    "eventExpectedVolatility": "Moderate",
    "eventName": "CFTC AUD speculative net positions",
    "eventTimeZone": "GMT",
    "eventPrevious": "3.1K",
    "eventCurrency": "AUD",
    "eventForecast": ""
  }}}
