{"events": {"event": [
    {
      "eventDateTime": "2012-08-24T07:45:00",
      "eventActual": "",
      "eventCountry": "Japan",
      "eventExpectedVolatility": "Moderate",
      "eventName": "BoJ Governor Shirakawa Speaks",
      "eventTimeZone": "GMT",
      "eventPrevious": "",
      "eventCurrency": "JPY",
      "eventForecast": ""
    },
    {
      "eventDateTime": "2012-08-24T19:30:00",
      "eventActual": "11.2K",
      "eventCountry": "Japan",
      "eventExpectedVolatility": "Moderate",
      "eventName": "CFTC JPY speculative net positions",
      "eventTimeZone": "GMT",
      "eventPrevious": "30.7K",
      "eventCurrency": "JPY",
      "eventForecast": ""
    }
  ]}}
