{"events": {"event": [
    {
      "eventDateTime": "2016-08-24T11:00:00",
      "eventActual": "3.67%",
      "eventCountry": "United States",
      "eventExpectedVolatility": "Low",
      "eventName": "MBA 30-Year Mortgage Rate",
      "eventTimeZone": "GMT",
      "eventPrevious": "3.64%",
      "eventCurrency": "USD",
      "eventForecast": ""
    },
    {
      "eventDateTime": "2016-08-24T11:00:00",
      "eventActual": "-2.1%",
      "eventCountry": "United States",
      "eventExpectedVolatility": "Low",
      "eventName": "MBA Mortgage Applications (WoW)",
      "eventTimeZone": "GMT",
      "eventPrevious": "-4.0%",
      "eventCurrency": "USD",
      "eventForecast": ""
    },
    {
      "eventDateTime": "2016-08-24T11:00:00",
      "eventActual": "213.4",
      "eventCountry": "United States",
      "eventExpectedVolatility": "Low",
      "eventName": "MBA Purchase Index",
      "eventTimeZone": "GMT",
      "eventPrevious": "214.0",
      "eventCurrency": "USD",
      "eventForecast": ""
    },
    {
      "eventDateTime": "2016-08-24T11:00:00",
      "eventActual": "530.1",
      "eventCountry": "United States",
      "eventExpectedVolatility": "Low",
      "eventName": "Mortgage Market Index",
      "eventTimeZone": "GMT",
      "eventPrevious": "541.5",
      "eventCurrency": "USD",
      "eventForecast": ""
    },
    {
      "eventDateTime": "2016-08-24T11:00:00",
      "eventActual": "2,355.2",
      "eventCountry": "United States",
      "eventExpectedVolatility": "Low",
      "eventName": "Mortgage Refinance Index",
      "eventTimeZone": "GMT",
      "eventPrevious": "2,432.8",
      "eventCurrency": "USD",
      "eventForecast": ""
    },
    {
      "eventDateTime": "2016-08-24T13:00:00",
      "eventActual": "234.8",
      "eventCountry": "United States",
      "eventExpectedVolatility": "Low",
      "eventName": "House Price Index (Jun)",
      "eventTimeZone": "GMT",
      "eventPrevious": "234.3",
      "eventCurrency": "USD",
      "eventForecast": ""
    },
    {
      "eventDateTime": "2016-08-24T13:00:00",
      "eventActual": "0.2%",
      "eventCountry": "United States",
      "eventExpectedVolatility": "Low",
      "eventName": "House Price Index (MoM) (Jun)",
      "eventTimeZone": "GMT",
      "eventPrevious": "0.2%",
      "eventCurrency": "USD",
      "eventForecast": "0.3%"
    },
    {
      "eventDateTime": "2016-08-24T13:00:00",
      "eventActual": "5.6%",
      "eventCountry": "United States",
      "eventExpectedVolatility": "Low",
      "eventName": "House Price Index (YoY) (Jun)",
      "eventTimeZone": "GMT",
      "eventPrevious": "5.6%",
      "eventCurrency": "USD",
      "eventForecast": ""
    },
    {
      "eventDateTime": "2016-08-24T14:00:00",
      "eventActual": "5.39M",
      "eventCountry": "United States",
      "eventExpectedVolatility": "High",
      "eventName": "Existing Home Sales (Jul)",
      "eventTimeZone": "GMT",
      "eventPrevious": "5.57M",
      "eventCurrency": "USD",
      "eventForecast": "5.51M"
    },
    {
      "eventDateTime": "2016-08-24T14:00:00",
      "eventActual": "-3.2%",
      "eventCountry": "United States",
      "eventExpectedVolatility": "Moderate",
      "eventName": "Existing Home Sales (MoM) (Jul)",
      "eventTimeZone": "GMT",
      "eventPrevious": "1.1%",
      "eventCurrency": "USD",
      "eventForecast": "-0.4%"
    },
    {
      "eventDateTime": "2016-08-24T14:30:00",
      "eventActual": "0.449M",
      "eventCountry": "United States",
      "eventExpectedVolatility": "Low",
      "eventName": "Crude Oil Imports",
      "eventTimeZone": "GMT",
      "eventPrevious": "-0.211M",
      "eventCurrency": "USD",
      "eventForecast": ""
    },
    {
      "eventDateTime": "2016-08-24T14:30:00",
      "eventActual": "2.501M",
      "eventCountry": "United States",
      "eventExpectedVolatility": "High",
      "eventName": "Crude Oil Inventories",
      "eventTimeZone": "GMT",
      "eventPrevious": "-2.508M",
      "eventCurrency": "USD",
      "eventForecast": "-0.455M"
    },
    {
      "eventDateTime": "2016-08-24T14:30:00",
      "eventActual": "0.375M",
      "eventCountry": "United States",
      "eventExpectedVolatility": "Moderate",
      "eventName": "Cushing Crude Oil Inventories",
      "eventTimeZone": "GMT",
      "eventPrevious": "-0.724M",
      "eventCurrency": "USD",
      "eventForecast": ""
    },
    {
      "eventDateTime": "2016-08-24T14:30:00",
      "eventActual": "-0.090M",
      "eventCountry": "United States",
      "eventExpectedVolatility": "Low",
      "eventName": "Distillate Fuel Production",
      "eventTimeZone": "GMT",
      "eventPrevious": "0.200M",
      "eventCurrency": "USD",
      "eventForecast": ""
    },
    {
      "eventDateTime": "2016-08-24T14:30:00",
      "eventActual": "0.122M",
      "eventCountry": "United States",
      "eventExpectedVolatility": "Low",
      "eventName": "EIA Weekly Distillates Stocks",
      "eventTimeZone": "GMT",
      "eventPrevious": "1.939M",
      "eventCurrency": "USD",
      "eventForecast": "0.400M"
    },
    {
      "eventDateTime": "2016-08-24T14:30:00",
      "eventActual": "0.036M",
      "eventCountry": "United States",
      "eventExpectedVolatility": "Low",
      "eventName": "Gasoline Inventories",
      "eventTimeZone": "GMT",
      "eventPrevious": "-2.724M",
      "eventCurrency": "USD",
      "eventForecast": "-1.166M"
    },
    {
      "eventDateTime": "2016-08-24T14:30:00",
      "eventActual": "-0.245M",
      "eventCountry": "United States",
      "eventExpectedVolatility": "Low",
      "eventName": "Gasoline Production",
      "eventTimeZone": "GMT",
      "eventPrevious": "0.182M",
      "eventCurrency": "USD",
      "eventForecast": ""
    },
    {
      "eventDateTime": "2016-08-24T14:30:00",
      "eventActual": "-0.274M",
      "eventCountry": "United States",
      "eventExpectedVolatility": "Low",
      "eventName": "Heating Oil Stockpiles",
      "eventTimeZone": "GMT",
      "eventPrevious": "0.680M",
      "eventCurrency": "USD",
      "eventForecast": ""
    },
    {
      "eventDateTime": "2016-08-24T17:00:00",
      "eventActual": "1.125%",
      "eventCountry": "United States",
      "eventExpectedVolatility": "Low",
      "eventName": "5-Year Note Auction",
      "eventTimeZone": "GMT",
      "eventPrevious": "1.180%",
      "eventCurrency": "USD",
      "eventForecast": ""
    }
  ]}}
