{"events": {"event": {
    "eventDateTime": "2015-11-10T20:05:00",
    "eventActual": "",
    "eventCountry": "New Zealand",
    "eventExpectedVolatility": "High",
    "eventName": "RBNZ Gov Wheeler Speaks",
    "eventTimeZone": "GMT",
    "eventPrevious": "",
    "eventCurrency": "NZD",
    "eventForecast": ""
  }}}
