"Bank Lending (Feb)";"Singapore";"SGD";"2010-03-01T09:00:00";"GMT";"283.30B";"";"284.80B";"Low"
"CPI (YoY) (Feb)";"Singapore";"SGD";"2010-03-01T09:00:00";"GMT";"0.20%";"";"0.95%";"Moderate"
"Foreign Reserves USD (MoM) (Feb)";"Singapore";"SGD";"2010-03-01T09:00:00";"GMT";"189.60B";"";"187.80B";"Low"
"Industrial Production (MoM) (Feb)";"Singapore";"SGD";"2010-03-01T09:00:00";"GMT";"9.90%";"";"8.60%";"Low"
"Industrial Production (YoY) (Feb)";"Singapore";"SGD";"2010-03-01T09:00:00";"GMT";"41.00%";"";"19.60%";"Low"
"Manufacturing PMI (Feb)";"Singapore";"SGD";"2010-03-01T09:00:00";"GMT";"51.40";"";"51.90";"Low"
"Non-Oil Exports (MoM) (Feb)";"Singapore";"SGD";"2010-03-01T09:00:00";"GMT";"-9.20%";"";"14.70%";"Low"
"Non-Oil Exports (YoY) (Feb)";"Singapore";"SGD";"2010-03-01T09:00:00";"GMT";"20.50%";"";"23.10%";"Low"
"Retail Sales (MoM) (Feb)";"Singapore";"SGD";"2010-03-01T09:00:00";"GMT";"6.30%";"";"-6.00%";"Low"
"Retail Sales (YoY) (Feb)";"Singapore";"SGD";"2010-03-01T09:00:00";"GMT";"-0.20%";"";"1.50%";"Low"
