"5-Year Note Auction (Jan)";"United States";"USD";"2006-02-01T09:00:00";"GMT";"4.38%";"";"4.25%";"Low"
"All Car Sales (Jan)";"United States";"USD";"2006-02-01T09:00:00";"GMT";"7.44M";"";"8.62M";"Low"
"All Truck Sales (Jan)";"United States";"USD";"2006-02-01T09:00:00";"GMT";"9.25M";"";"8.95M";"Low"
"Business Inventories (MoM) (Jan)";"United States";"USD";"2006-02-01T09:00:00";"GMT";"1.00%";"";"0.70%";"Moderate"
"CB Consumer Confidence (Jan)";"United States";"USD";"2006-02-01T09:00:00";"GMT";"103.80";"";"106.80";"High"
"CB Employment Trends Index (Jan)";"United States";"USD";"2006-02-01T09:00:00";"GMT";"125.00";"";"126.50";"Low"
"CPI (MoM) (Jan)";"United States";"USD";"2006-02-01T09:00:00";"GMT";"0.00%";"";"0.60%";"Moderate"
"CPI (YoY) (Jan)";"United States";"USD";"2006-02-01T09:00:00";"GMT";"3.40%";"";"4.00%";"Low"
"CPI Index, n.s.a. (Jan)";"United States";"USD";"2006-02-01T09:00:00";"GMT";"196.80";"";"198.30";"Low"
"Capacity Utilization Rate (Jan)";"United States";"USD";"2006-02-01T09:00:00";"GMT";"80.30%";"";"80.20%";"Low"
"Chain Store Sales (MoM) (Jan)";"United States";"USD";"2006-02-01T09:00:00";"GMT";"3.50%";"";"5.00%";"Low"
"Chain Store Sales (WoW) (Jan)";"United States";"USD";"2006-02-01T09:00:00";"GMT";"0.92%";"";"-0.30%";"Low"
"Chain Store Sales (YoY) (Jan)";"United States";"USD";"2006-02-01T09:00:00";"GMT";"3.48%";"";"3.57%";"Low"
"Challenger Job Cuts (Jan)";"United States";"USD";"2006-02-01T09:00:00";"GMT";"107.82K";"";"103.47K";"Low"
"Chicago Fed National Activity (Jan)";"United States";"USD";"2006-02-01T09:00:00";"GMT";"0.44";"";"0.60";"Low"
"Chicago PMI (Jan)";"United States";"USD";"2006-02-01T09:00:00";"GMT";"60.20";"";"61.10";"Moderate"
"Cleveland CPI (MoM) (Jan)";"United States";"USD";"2006-02-01T09:00:00";"GMT";"0.20%";"";"0.20%";"Low"
"Construction Spending (MoM) (Jan)";"United States";"USD";"2006-02-01T09:00:00";"GMT";"1.80%";"";"0.50%";"Low"
"Consumer Credit (Jan)";"United States";"USD";"2006-02-01T09:00:00";"GMT";"7.27B";"";"79.85B";"Low"
"Continuing Jobless Claims (Jan)";"United States";"USD";"2006-02-01T09:00:00";"GMT";"2,646.27K";"";"2,553.64K";"Low"
"Core CPI (MoM) (Jan)";"United States";"USD";"2006-02-01T09:00:00";"GMT";"0.10%";"";"0.20%";"High"
"Core CPI (YoY) (Jan)";"United States";"USD";"2006-02-01T09:00:00";"GMT";"2.20%";"";"2.10%";"Moderate"
"Core CPI Index (Jan)";"United States";"USD";"2006-02-01T09:00:00";"GMT";"202.80";"";"203.20";"Low"
"Core PCE Price Index (MoM) (Jan)";"United States";"USD";"2006-02-01T09:00:00";"GMT";"0.10%";"";"0.20%";"Moderate"
"Core PCE Price Index (YoY) (Jan)";"United States";"USD";"2006-02-01T09:00:00";"GMT";"2.30%";"";"2.20%";"Moderate"
"Core Retail Sales (MoM) (Jan)";"United States";"USD";"2006-02-01T09:00:00";"GMT";"0.00%";"";"2.50%";"High"
"Crude Oil Inventories (Jan)";"United States";"USD";"2006-02-01T09:00:00";"GMT";"0.54M";"";"-0.15M";"High"
"Dallas Fed Mfg Business Index (Jan)";"United States";"USD";"2006-02-01T09:00:00";"GMT";"38.00";"";"31.00";"Low"
"Dallas Fed PCE (Jan)";"United States";"USD";"2006-02-01T09:00:00";"GMT";"1.70%";"";"2.50%";"Low"
"Domestic Truck Sales (Jan)";"United States";"USD";"2006-02-01T09:00:00";"GMT";"8.04M";"";"7.67M";"Low"
"Durables Excluding Defense (MoM) (Jan)";"United States";"USD";"2006-02-01T09:00:00";"GMT";"-1.80%";"";"-3.60%";"Low"
"EIA Weekly Distillates Stocks (Jan)";"United States";"USD";"2006-02-01T09:00:00";"GMT";"-0.13M";"";"1.65M";"Low"
"Existing Home Sales (Jan)";"United States";"USD";"2006-02-01T09:00:00";"GMT";"6.84M";"";"6.72M";"High"
"Existing Home Sales (MoM) (Jan)";"United States";"USD";"2006-02-01T09:00:00";"GMT";"-2.70%";"";"-1.80%";"Moderate"
"Export Price Index (MoM) (Jan)";"United States";"USD";"2006-02-01T09:00:00";"GMT";"0.10%";"";"0.70%";"Moderate"
"Factory Orders (MoM) (Jan)";"United States";"USD";"2006-02-01T09:00:00";"GMT";"-0.40%";"";"-1.90%";"Moderate"
"Factory orders ex transportation (MoM) (Jan)";"United States";"USD";"2006-02-01T09:00:00";"GMT";"0.50%";"";"2.00%";"Low"
"Federal Budget Balance (Jan)";"United States";"USD";"2006-02-01T09:00:00";"GMT";"11.00B";"";"21.00B";"Moderate"
"Gasoline Inventories (Jan)";"United States";"USD";"2006-02-01T09:00:00";"GMT";"0.62M";"";"3.75M";"Low"
"Government Payrolls (Jan)";"United States";"USD";"2006-02-01T09:00:00";"GMT";"20.00K";"";"-32.00K";"Low"
"House Price Index (Jan)";"United States";"USD";"2006-02-01T09:00:00";"GMT";"219.50";"";"221.00";"Low"
"House Price Index (MoM) (Jan)";"United States";"USD";"2006-02-01T09:00:00";"GMT";"0.60%";"";"0.70%";"Low"
"House Price Index (YoY) (Jan)";"United States";"USD";"2006-02-01T09:00:00";"GMT";"9.90%";"";"9.90%";"Low"
"Housing Starts (Jan)";"United States";"USD";"2006-02-01T09:00:00";"GMT";"1.99M";"";"2.27M";"Moderate"
"Housing Starts (MoM) (Jan)";"United States";"USD";"2006-02-01T09:00:00";"GMT";"-7.10%";"";"14.00%";"Moderate"
"ISM Manufacturing Employment (Jan)";"United States";"USD";"2006-02-01T09:00:00";"GMT";"53.70";"";"53.10";"Moderate"
"ISM Manufacturing New Orders Index (Jan)";"United States";"USD";"2006-02-01T09:00:00";"GMT";"60.10";"";"58.90";"Low"
"ISM Manufacturing PMI (Jan)";"United States";"USD";"2006-02-01T09:00:00";"GMT";"55.10";"";"55.00";"High"
"ISM Manufacturing Prices (Jan)";"United States";"USD";"2006-02-01T09:00:00";"GMT";"63.00";"";"65.00";"Low"
"ISM Non-Manufacturing Business Activity (Jan)";"United States";"USD";"2006-02-01T09:00:00";"GMT";"60.10";"";"58.60";"Low"
"ISM Non-Manufacturing Employment (Jan)";"United States";"USD";"2006-02-01T09:00:00";"GMT";"56.40";"";"54.50";"Moderate"
"ISM Non-Manufacturing New Orders (Jan)";"United States";"USD";"2006-02-01T09:00:00";"GMT";"62.80";"";"57.40";"Low"
"ISM Non-Manufacturing PMI (Jan)";"United States";"USD";"2006-02-01T09:00:00";"GMT";"59.00";"";"56.30";"High"
"ISM Non-Manufacturing Prices (Jan)";"United States";"USD";"2006-02-01T09:00:00";"GMT";"68.90";"";"69.90";"Low"
"ISM-New York Index (Jan)";"United States";"USD";"2006-02-01T09:00:00";"GMT";"340.00";"";"343.30";"Low"
"Import Price Index (MoM) (Jan)";"United States";"USD";"2006-02-01T09:00:00";"GMT";"0.00%";"";"1.20%";"Moderate"
"Industrial Production (MoM) (Jan)";"United States";"USD";"2006-02-01T09:00:00";"GMT";"0.60%";"";"0.10%";"Moderate"
"Initial Jobless Claims (Jan)";"United States";"USD";"2006-02-01T09:00:00";"GMT";"315.77K";"";"295.14K";"Moderate"
"JOLTs Job Openings (Jan)";"United States";"USD";"2006-02-01T09:00:00";"GMT";"4.25M";"";"4.28M";"High"
"Jobless Claims 4-Week Avg. (Jan)";"United States";"USD";"2006-02-01T09:00:00";"GMT";"318.24K";"";"303.26K";"Low"
"KC Fed Composite Index (Jan)";"United States";"USD";"2006-02-01T09:00:00";"GMT";"15.00";"";"16.00";"Low"
"KC Fed Manufacturing Index (Jan)";"United States";"USD";"2006-02-01T09:00:00";"GMT";"18.00";"";"21.00";"Low"
"MBA 30-Year Mortgage Rate (Jan)";"United States";"USD";"2006-02-01T09:00:00";"GMT";"6.22%";"";"6.10%";"Low"
"MBA Purchase Index (Jan)";"United States";"USD";"2006-02-01T09:00:00";"GMT";"450.05";"";"450.17";"Low"
"Manufacturing Payrolls (Jan)";"United States";"USD";"2006-02-01T09:00:00";"GMT";"6.00K";"";"17.00K";"Low"
"Manufacturing Production (MoM) (Jan)";"United States";"USD";"2006-02-01T09:00:00";"GMT";"0.10%";"";"0.80%";"Low"
"Michigan 5-Year Inflation Expectations (Jan)";"United States";"USD";"2006-02-01T09:00:00";"GMT";"3.10%";"";"2.90%";"Low"
"Michigan Consumer Expectations (Jan)";"United States";"USD";"2006-02-01T09:00:00";"GMT";"80.20";"";"81.50";"Moderate"
"Michigan Consumer Sentiment (Jan)";"United States";"USD";"2006-02-01T09:00:00";"GMT";"88.70";"";"91.20";"Moderate"
"Michigan Current Conditions (Jan)";"United States";"USD";"2006-02-01T09:00:00";"GMT";"106.60";"";"110.30";"Low"
"Michigan Inflation Expectations (Jan)";"United States";"USD";"2006-02-01T09:00:00";"GMT";"3.10%";"";"3.00%";"Low"
"Midwest Manufacturing (Jan)";"United States";"USD";"2006-02-01T09:00:00";"GMT";"97.70";"";"98.80";"Low"
"Mortgage Market Index (Jan)";"United States";"USD";"2006-02-01T09:00:00";"GMT";"585.59";"";"624.64";"Low"
"Mortgage Refinance Index (Jan)";"United States";"USD";"2006-02-01T09:00:00";"GMT";"1,391.08";"";"1,673.68";"Low"
"NAHB Housing Market Index (Jan)";"United States";"USD";"2006-02-01T09:00:00";"GMT";"57.00";"";"57.00";"Low"
"NFIB Small Business Optimism (Jan)";"United States";"USD";"2006-02-01T09:00:00";"GMT";"101.40";"";"101.10";"Low"
"NY Empire State Manufacturing Index (Jan)";"United States";"USD";"2006-02-01T09:00:00";"GMT";"22.94";"";"17.51";"Moderate"
"Natural Gas Storage (Jan)";"United States";"USD";"2006-02-01T09:00:00";"GMT";"-124.68B";"";"-56.86B";"Low"
"New Home Sales (Jan)";"United States";"USD";"2006-02-01T09:00:00";"GMT";"1,239.00K";"";"1,174.00K";"High"
"New Home Sales (MoM) (Jan)";"United States";"USD";"2006-02-01T09:00:00";"GMT";"2.10%";"";"-5.20%";"Moderate"
"Overall Net Capital Flow (Jan)";"United States";"USD";"2006-02-01T09:00:00";"GMT";"67.00B";"";"232.20B";"Low"
"Pending Home Sales (MoM) (Jan)";"United States";"USD";"2006-02-01T09:00:00";"GMT";"-2.00%";"";"0.10%";"High"
"Pending Home Sales Index (Jan)";"United States";"USD";"2006-02-01T09:00:00";"GMT";"118.10";"";"118.20";"Low"
"Personal Income (MoM) (Jan)";"United States";"USD";"2006-02-01T09:00:00";"GMT";"0.60%";"";"2.00%";"Low"
"Personal Spending (MoM) (Jan)";"United States";"USD";"2006-02-01T09:00:00";"GMT";"0.40%";"";"0.80%";"Moderate"
"Philadelphia Fed Manufacturing Index (Jan)";"United States";"USD";"2006-02-01T09:00:00";"GMT";"13.00";"";"5.60";"High"
"Philly Fed Business Conditions (Jan)";"United States";"USD";"2006-02-01T09:00:00";"GMT";"39.40";"";"30.50";"Low"
"Philly Fed CAPEX Index (Jan)";"United States";"USD";"2006-02-01T09:00:00";"GMT";"18.00";"";"16.50";"Low"
"Philly Fed Employment (Jan)";"United States";"USD";"2006-02-01T09:00:00";"GMT";"7.80";"";"11.60";"Moderate"
"Philly Fed New Orders (Jan)";"United States";"USD";"2006-02-01T09:00:00";"GMT";"6.70";"";"13.10";"Low"
"Philly Fed Prices Paid (Jan)";"United States";"USD";"2006-02-01T09:00:00";"GMT";"49.50";"";"43.80";"Low"
"Private Nonfarm Payrolls (Jan)";"United States";"USD";"2006-02-01T09:00:00";"GMT";"138.00K";"";"309.00K";"Moderate"
"Real Personal Consumption (MoM) (Jan)";"United States";"USD";"2006-02-01T09:00:00";"GMT";"0.40%";"";"0.40%";"Low"
"Redbook (MoM) (Jan)";"United States";"USD";"2006-02-01T09:00:00";"GMT";"-0.21%";"";"-0.35%";"Low"
"Redbook (YoY) (Jan)";"United States";"USD";"2006-02-01T09:00:00";"GMT";"3.48%";"";"3.48%";"Low"
"Retail Control (MoM) (Jan)";"United States";"USD";"2006-02-01T09:00:00";"GMT";"0.20%";"";"1.40%";"Low"
"Retail Sales (MoM) (Jan)";"United States";"USD";"2006-02-01T09:00:00";"GMT";"-0.10%";"";"3.10%";"High"
"Retail Sales Ex Gas/Autos (MoM) (Jan)";"United States";"USD";"2006-02-01T09:00:00";"GMT";"0.00%";"";"2.40%";"Low"
"Richmond Manufacturing Index (Jan)";"United States";"USD";"2006-02-01T09:00:00";"GMT";"-1.00";"";"4.00";"Low"
"Richmond Manufacturing Shipments (Jan)";"United States";"USD";"2006-02-01T09:00:00";"GMT";"2.00";"";"8.00";"Low"
"Richmond Services Index (Jan)";"United States";"USD";"2006-02-01T09:00:00";"GMT";"15.00";"";"18.00";"Low"
"Sandamp;P/CS HPI Composite - 20 n.s.a. (MoM) (Jan)";"United States";"USD";"2006-02-01T09:00:00";"GMT";"0.50%";"";"0.20%";"Low"
"Sandamp;P/CS HPI Composite - 20 n.s.a. (YoY) (Jan)";"United States";"USD";"2006-02-01T09:00:00";"GMT";"15.50%";"";"14.70%";"Moderate"
"Sandamp;P/CS HPI Composite - 20 s.a. (MoM) (Jan)";"United States";"USD";"2006-02-01T09:00:00";"GMT";"1.00%";"";"0.80%";"Low"
"TIC Net Long-Term Transactions (Jan)";"United States";"USD";"2006-02-01T09:00:00";"GMT";"52.40B";"";"71.00B";"Moderate"
"TIC Net Long-Term Transactions including Swaps (Jan)";"United States";"USD";"2006-02-01T09:00:00";"GMT";"40.10B";"";"55.40B";"Low"
"Trade Balance (Jan)";"United States";"USD";"2006-02-01T09:00:00";"GMT";"-64.40B";"";"-66.70B";"Moderate"
"US Foreign Buying, T-bonds (Jan)";"United States";"USD";"2006-02-01T09:00:00";"GMT";"17.00B";"";"1.70B";"Low"
"Wholesale Inventories (MoM) (Jan)";"United States";"USD";"2006-02-01T09:00:00";"GMT";"1.20%";"";"0.30%";"Low"
"ADP Nonfarm Employment Change (Jan)";"United States";"USD";"2006-02-01T12:15:00";"GMT";"165K";"";"329K";"High"
"U6 Unemployment Rate (Jan)";"United States";"USD";"2006-02-01T12:30:00";"GMT";"8.60%";"";"8.40%";"Low"
"Unemployment Rate (Jan)";"United States";"USD";"2006-02-01T12:30:00";"GMT";"4.9%";"";"4.7%";"High"
