"Import Price Index (MoM)";"United States";"USD";"2008-09-11T12:30:00";"GMT";"1.7%";"-1.5%";"-3.7%";"Moderate"
"Initial Jobless Claims";"United States";"USD";"2008-09-11T12:30:00";"GMT";"444K";"440K";"445K";"Moderate"
"Trade Balance";"United States";"USD";"2008-09-11T12:30:00";"GMT";"-56.8B";"-58.0B";"-62.2B";"Moderate"
