{"events": {"event": {
    "eventDateTime": "2014-07-30T15:30:00",
    "eventActual": "-4.68B",
    "eventCountry": "Brazil",
    "eventExpectedVolatility": "Low",
    "eventName": "Foreign Exchange Flows",
    "eventTimeZone": "GMT",
    "eventPrevious": "-4.04B",
    "eventCurrency": "BRL",
    "eventForecast": ""
  }}}
