"FGV Consumer confidence (Oct)";"Brazil";"BRL";"2019-10-24T11:00:00";"GMT";"89.7";"";"89.4";"Low"
"BCB National Monetary Council Meeting";"Brazil";"BRL";"2019-10-24T12:00:00";"GMT";" ";"";"";"Moderate"
"Current Account (USD) (Sep)";"Brazil";"BRL";"2019-10-24T13:30:00";"GMT";"-4.27B";"-3.95B";"-3.50B";"Low"
"Foreign direct investment (USD) (Sep)";"Brazil";"BRL";"2019-10-24T13:30:00";"GMT";"9.47B";"4.20B";"6.31B";"Low"
