"Average Earnings Index +Bonus";"United Kingdom";"GBP";"2014-03-19T09:30:00";"GMT";"1.2%";"1.3%";"1.4%";"High"
"Average Earnings ex Bonus";"United Kingdom";"GBP";"2014-03-19T09:30:00";"GMT";"1.0%";"1.2%";"1.3%";"Low"
"BoE MPC Meeting Minutes";"United Kingdom";"GBP";"2014-03-19T09:30:00";"GMT";" ";"";"";"High"
"Claimant Count Change";"United Kingdom";"GBP";"2014-03-19T09:30:00";"GMT";"-33.9K";"-25.0K";"-34.6K";"High"
"Unemployment Rate";"United Kingdom";"GBP";"2014-03-19T09:30:00";"GMT";"7.2%";"7.2%";"7.2%";"Moderate"
