"French Trade Balance";"France";"EUR";"2011-07-07T06:45:00";"GMT";"-7.2B";"-6.7B";"-7.4B";"Low"
"German Industrial Production (MoM)";"Germany";"EUR";"2011-07-07T10:00:00";"GMT";"-0.8%";"0.7%";"1.2%";"Moderate"
"ECB Interest Rate Decision";"Euro Zone";"EUR";"2011-07-07T11:45:00";"GMT";"1.25%";"1.50%";"1.50%";"High"
"ECB Press Conference";"Euro Zone";"EUR";"2011-07-07T12:30:00";"GMT";" ";"";"";"High"
