{"events": {"event": [
    {
      "eventDateTime": "2009-07-31T12:30:00",
      "eventActual": "0.4%",
      "eventCountry": "United States",
      "eventExpectedVolatility": "Moderate",
      "eventName": "Employment Cost Index (QoQ)",
      "eventTimeZone": "GMT",
      "eventPrevious": "0.3%",
      "eventCurrency": "USD",
      "eventForecast": "0.3%"
    },
    {
      "eventDateTime": "2009-07-31T12:30:00",
      "eventActual": "-1.0%",
      "eventCountry": "United States",
      "eventExpectedVolatility": "High",
      "eventName": "GDP (QoQ)",
      "eventTimeZone": "GMT",
      "eventPrevious": "-6.4%",
      "eventCurrency": "USD",
      "eventForecast": "-1.3%"
    },
    {
      "eventDateTime": "2009-07-31T12:30:00",
      "eventActual": "0.2%",
      "eventCountry": "United States",
      "eventExpectedVolatility": "Moderate",
      "eventName": "GDP Price Index (QoQ)",
      "eventTimeZone": "GMT",
      "eventPrevious": "1.9%",
      "eventCurrency": "USD",
      "eventForecast": "1.1%"
    },
    {
      "eventDateTime": "2009-07-31T13:45:00",
      "eventActual": "43.4",
      "eventCountry": "United States",
      "eventExpectedVolatility": "Moderate",
      "eventName": "Chicago PMI",
      "eventTimeZone": "GMT",
      "eventPrevious": "39.9",
      "eventCurrency": "USD",
      "eventForecast": "42.1"
    },
    {
      "eventDateTime": "2009-07-31T17:00:00",
      "eventActual": "261",
      "eventCountry": "United States",
      "eventExpectedVolatility": "Moderate",
      "eventName": "U.S. Baker Hughes Oil Rig Count",
      "eventTimeZone": "GMT",
      "eventPrevious": "257",
      "eventCurrency": "USD",
      "eventForecast": ""
    },
    {
      "eventDateTime": "2009-07-31T19:30:00",
      "eventActual": "172.8K",
      "eventCountry": "United States",
      "eventExpectedVolatility": "Moderate",
      "eventName": "CFTC Gold speculative net positions",
      "eventTimeZone": "GMT",
      "eventPrevious": "173.3K",
      "eventCurrency": "USD",
      "eventForecast": ""
    },
    {
      "eventDateTime": "2009-07-31T19:30:00",
      "eventActual": "21.3K",
      "eventCountry": "United States",
      "eventExpectedVolatility": "Low",
      "eventName": "CFTC Silver speculative net positions",
      "eventTimeZone": "GMT",
      "eventPrevious": "18.5K",
      "eventCurrency": "USD",
      "eventForecast": ""
    },
    {
      "eventDateTime": "2009-07-31T20:30:00",
      "eventActual": "4.6k",
      "eventCountry": "United States",
      "eventExpectedVolatility": "Moderate",
      "eventName": "CFTC Crude Oil speculative net positions",
      "eventTimeZone": "GMT",
      "eventPrevious": "2.2k",
      "eventCurrency": "USD",
      "eventForecast": ""
    }
  ]}}
