{"events": {"event": [
    {
      "eventDateTime": "2012-03-09T07:00:00",
      "eventActual": "0.7%",
      "eventCountry": "Germany",
      "eventExpectedVolatility": "Moderate",
      "eventName": "German CPI (MoM)",
      "eventTimeZone": "GMT",
      "eventPrevious": "0.7%",
      "eventCurrency": "EUR",
      "eventForecast": "0.7%"
    },
    {
      "eventDateTime": "2012-03-09T07:00:00",
      "eventActual": "14.2B",
      "eventCountry": "Germany",
      "eventExpectedVolatility": "Moderate",
      "eventName": "German Trade Balance",
      "eventTimeZone": "GMT",
      "eventPrevious": "13.9B",
      "eventCurrency": "EUR",
      "eventForecast": "14.3B"
    },
    {
      "eventDateTime": "2012-03-09T07:45:00",
      "eventActual": "-12.5B",
      "eventCountry": "France",
      "eventExpectedVolatility": "Low",
      "eventName": "French Government Budget Balance",
      "eventTimeZone": "GMT",
      "eventPrevious": "-90.8B",
      "eventCurrency": "EUR",
      "eventForecast": "-11.0B"
    },
    {
      "eventDateTime": "2012-03-09T07:45:00",
      "eventActual": "0.3%",
      "eventCountry": "France",
      "eventExpectedVolatility": "Low",
      "eventName": "French Industrial Production (MoM)",
      "eventTimeZone": "GMT",
      "eventPrevious": "-1.3%",
      "eventCurrency": "EUR",
      "eventForecast": "0.6%"
    },
    {
      "eventDateTime": "2012-03-09T08:05:00",
      "eventActual": "-4.8%",
      "eventCountry": "Spain",
      "eventExpectedVolatility": "Low",
      "eventName": "Spanish Retail Sales (YoY)",
      "eventTimeZone": "GMT",
      "eventPrevious": "-6.4%",
      "eventCurrency": "EUR",
      "eventForecast": "-7.0%"
    },
    {
      "eventDateTime": "2012-03-09T09:00:00",
      "eventActual": "-2.5%",
      "eventCountry": "Italy",
      "eventExpectedVolatility": "Low",
      "eventName": "Italian Industrial Production (MoM)",
      "eventTimeZone": "GMT",
      "eventPrevious": "1.2%",
      "eventCurrency": "EUR",
      "eventForecast": "-0.7%"
    },
    {
      "eventDateTime": "2012-03-09T20:30:00",
      "eventActual": "-116.5K",
      "eventCountry": "Euro Zone",
      "eventExpectedVolatility": "Moderate",
      "eventName": "CFTC EUR speculative net positions",
      "eventTimeZone": "GMT",
      "eventPrevious": "-109.7K",
      "eventCurrency": "EUR",
      "eventForecast": ""
    }
  ]}}
