"Markit Composite PMI (May)";"Brazil";"BRL";"2015-06-03T13:00:00";"GMT";"44.2";"44.8";"42.9";"Low"
"Markit Services PMI (May)";"Brazil";"BRL";"2015-06-03T13:00:00";"GMT";"44.6";"44.0";"42.5";"Low"
"Foreign Exchange Flows";"Brazil";"BRL";"2015-06-03T15:30:00";"GMT";"-0.80B";"";"-2.08B";"Low"
"Interest Rate Decision";"Brazil";"BRL";"2015-06-03T23:15:00";"GMT";"13.25%";"13.75%";"13.75%";"Moderate"
