{"events": {"event": [
    {
      "eventDateTime": "2008-09-23T14:00:00",
      "eventActual": "",
      "eventCountry": "United States",
      "eventExpectedVolatility": "High",
      "eventName": "Fed Chairman Bernanke Testifies",
      "eventTimeZone": "GMT",
      "eventPrevious": "",
      "eventCurrency": "USD",
      "eventForecast": ""
    },
    {
      "eventDateTime": "2008-09-23T14:00:00",
      "eventActual": "-0.6%",
      "eventCountry": "United States",
      "eventExpectedVolatility": "Low",
      "eventName": "House Price Index (MoM)",
      "eventTimeZone": "GMT",
      "eventPrevious": "0.0%",
      "eventCurrency": "USD",
      "eventForecast": "-0.3%"
    },
    {
      "eventDateTime": "2008-09-23T14:00:00",
      "eventActual": "-18",
      "eventCountry": "United States",
      "eventExpectedVolatility": "Low",
      "eventName": "Richmond Manufacturing Index",
      "eventTimeZone": "GMT",
      "eventPrevious": "-16",
      "eventCurrency": "USD",
      "eventForecast": "-12"
    }
  ]}}
