{"events": {"event": [
    {
      "eventDateTime": "2013-03-01T05:00:00",
      "eventActual": "54.20",
      "eventCountry": "India",
      "eventExpectedVolatility": "Low",
      "eventName": "Nikkei Markit Manufacturing PMI",
      "eventTimeZone": "GMT",
      "eventPrevious": "53.20",
      "eventCurrency": "INR",
      "eventForecast": "53.50"
    },
    {
      "eventDateTime": "2013-03-01T09:00:00",
      "eventActual": "4.08%",
      "eventCountry": "India",
      "eventExpectedVolatility": "Low",
      "eventName": "Cash Reserve Ratio (Feb)",
      "eventTimeZone": "GMT",
      "eventPrevious": "4.25%",
      "eventCurrency": "INR",
      "eventForecast": ""
    },
    {
      "eventDateTime": "2013-03-01T09:00:00",
      "eventActual": "0.90%",
      "eventCountry": "India",
      "eventExpectedVolatility": "Low",
      "eventName": "Cumulative Industrial Production (Feb)",
      "eventTimeZone": "GMT",
      "eventPrevious": "1.00%",
      "eventCurrency": "INR",
      "eventForecast": ""
    },
    {
      "eventDateTime": "2013-03-01T09:00:00",
      "eventActual": "13.04%",
      "eventCountry": "India",
      "eventExpectedVolatility": "Low",
      "eventName": "Deposit Growth (Feb)",
      "eventTimeZone": "GMT",
      "eventPrevious": "13.14%",
      "eventCurrency": "INR",
      "eventForecast": ""
    },
    {
      "eventDateTime": "2013-03-01T09:00:00",
      "eventActual": "26.67B",
      "eventCountry": "India",
      "eventExpectedVolatility": "Low",
      "eventName": "Exports (USD) (Feb)",
      "eventTimeZone": "GMT",
      "eventPrevious": "25.78B",
      "eventCurrency": "INR",
      "eventForecast": ""
    },
    {
      "eventDateTime": "2013-03-01T09:00:00",
      "eventActual": "5,073.59B",
      "eventCountry": "India",
      "eventExpectedVolatility": "Low",
      "eventName": "Federal Fiscal Deficit (Feb)",
      "eventTimeZone": "GMT",
      "eventPrevious": "4,656.81B",
      "eventCurrency": "INR",
      "eventForecast": ""
    },
    {
      "eventDateTime": "2013-03-01T09:00:00",
      "eventActual": "40.79B",
      "eventCountry": "India",
      "eventExpectedVolatility": "Low",
      "eventName": "Imports (USD) (Feb)",
      "eventTimeZone": "GMT",
      "eventPrevious": "44.75B",
      "eventCurrency": "INR",
      "eventForecast": ""
    },
    {
      "eventDateTime": "2013-03-01T09:00:00",
      "eventActual": "6.75%",
      "eventCountry": "India",
      "eventExpectedVolatility": "Low",
      "eventName": "Reverse REPO Rate (Feb)",
      "eventTimeZone": "GMT",
      "eventPrevious": "6.97%",
      "eventCurrency": "INR",
      "eventForecast": ""
    },
    {
      "eventDateTime": "2013-03-01T09:00:00",
      "eventActual": "12.00%",
      "eventCountry": "India",
      "eventExpectedVolatility": "Low",
      "eventName": "WPI Food (YoY) (Feb)",
      "eventTimeZone": "GMT",
      "eventPrevious": "12.30%",
      "eventCurrency": "INR",
      "eventForecast": ""
    },
    {
      "eventDateTime": "2013-03-01T09:00:00",
      "eventActual": "10.60%",
      "eventCountry": "India",
      "eventExpectedVolatility": "Low",
      "eventName": "WPI Fuel (YoY) (Feb)",
      "eventTimeZone": "GMT",
      "eventPrevious": "9.30%",
      "eventCurrency": "INR",
      "eventForecast": ""
    },
    {
      "eventDateTime": "2013-03-01T09:00:00",
      "eventActual": "4.80%",
      "eventCountry": "India",
      "eventExpectedVolatility": "Low",
      "eventName": "WPI Manufacturing Inflation (YoY) (Feb)",
      "eventTimeZone": "GMT",
      "eventPrevious": "4.95%",
      "eventCurrency": "INR",
      "eventForecast": ""
    },
    {
      "eventDateTime": "2013-03-01T11:30:00",
      "eventActual": "291.92B",
      "eventCountry": "India",
      "eventExpectedVolatility": "Low",
      "eventName": "FX Reserves, USD",
      "eventTimeZone": "GMT",
      "eventPrevious": "293.52B",
      "eventCurrency": "INR",
      "eventForecast": ""
    }
  ]}}
