{"events": {"event": {
    "eventDateTime": "2019-10-09T21:45:00",
    "eventActual": "0.0%",
    "eventCountry": "New Zealand",
    "eventExpectedVolatility": "Low",
    "eventName": "FPI (MoM) (Sep)",
    "eventTimeZone": "GMT",
    "eventPrevious": "0.7%",
    "eventCurrency": "NZD",
    "eventForecast": ""
  }}}
