{"events": {"event": [
    {
      "eventDateTime": "2002-05-01T09:00:00",
      "eventActual": "16.17%",
      "eventCountry": "India",
      "eventExpectedVolatility": "Low",
      "eventName": "Bank Loan Growth (Apr)",
      "eventTimeZone": "GMT",
      "eventPrevious": "14.77%",
      "eventCurrency": "INR",
      "eventForecast": ""
    },
    {
      "eventDateTime": "2002-05-01T09:00:00",
      "eventActual": "5.50%",
      "eventCountry": "India",
      "eventExpectedVolatility": "Low",
      "eventName": "Cash Reserve Ratio (Apr)",
      "eventTimeZone": "GMT",
      "eventPrevious": "5.50%",
      "eventCurrency": "INR",
      "eventForecast": ""
    },
    {
      "eventDateTime": "2002-05-01T09:00:00",
      "eventActual": "15.00%",
      "eventCountry": "India",
      "eventExpectedVolatility": "Low",
      "eventName": "Deposit Growth (Apr)",
      "eventTimeZone": "GMT",
      "eventPrevious": "14.52%",
      "eventCurrency": "INR",
      "eventForecast": ""
    },
    {
      "eventDateTime": "2002-05-01T09:00:00",
      "eventActual": "4.04B",
      "eventCountry": "India",
      "eventExpectedVolatility": "Low",
      "eventName": "Exports (USD) (Apr)",
      "eventTimeZone": "GMT",
      "eventPrevious": "4.14B",
      "eventCurrency": "INR",
      "eventForecast": ""
    },
    {
      "eventDateTime": "2002-05-01T09:00:00",
      "eventActual": "55.62B",
      "eventCountry": "India",
      "eventExpectedVolatility": "Low",
      "eventName": "FX Reserves, USD (Apr)",
      "eventTimeZone": "GMT",
      "eventPrevious": "54.15B",
      "eventCurrency": "INR",
      "eventForecast": ""
    },
    {
      "eventDateTime": "2002-05-01T09:00:00",
      "eventActual": "153.29B",
      "eventCountry": "India",
      "eventExpectedVolatility": "Low",
      "eventName": "Federal Fiscal Deficit (Apr)",
      "eventTimeZone": "GMT",
      "eventPrevious": "1,409.54B",
      "eventCurrency": "INR",
      "eventForecast": ""
    },
    {
      "eventDateTime": "2002-05-01T09:00:00",
      "eventActual": "4.21B",
      "eventCountry": "India",
      "eventExpectedVolatility": "Low",
      "eventName": "Imports (USD) (Apr)",
      "eventTimeZone": "GMT",
      "eventPrevious": "4.43B",
      "eventCurrency": "INR",
      "eventForecast": ""
    },
    {
      "eventDateTime": "2002-05-01T09:00:00",
      "eventActual": "6.00%",
      "eventCountry": "India",
      "eventExpectedVolatility": "High",
      "eventName": "Interest Rate Decision (Apr)",
      "eventTimeZone": "GMT",
      "eventPrevious": "6.05%",
      "eventCurrency": "INR",
      "eventForecast": ""
    },
    {
      "eventDateTime": "2002-05-01T09:00:00",
      "eventActual": "14.58%",
      "eventCountry": "India",
      "eventExpectedVolatility": "Low",
      "eventName": "M3 Money Supply (Apr)",
      "eventTimeZone": "GMT",
      "eventPrevious": "14.13%",
      "eventCurrency": "INR",
      "eventForecast": ""
    },
    {
      "eventDateTime": "2002-05-01T09:00:00",
      "eventActual": "8.00%",
      "eventCountry": "India",
      "eventExpectedVolatility": "Low",
      "eventName": "Reverse REPO Rate (Apr)",
      "eventTimeZone": "GMT",
      "eventPrevious": "8.45%",
      "eventCurrency": "INR",
      "eventForecast": ""
    },
    {
      "eventDateTime": "2002-05-01T09:00:00",
      "eventActual": "-0.17B",
      "eventCountry": "India",
      "eventExpectedVolatility": "Low",
      "eventName": "Trade Balance (Apr)",
      "eventTimeZone": "GMT",
      "eventPrevious": "-0.29B",
      "eventCurrency": "INR",
      "eventForecast": ""
    }
  ]}}
