{"events": {"event": {
    "eventDateTime": "2015-06-28T12:15:00",
    "eventActual": "",
    "eventCountry": "Canada",
    "eventExpectedVolatility": "High",
    "eventName": "BoC Gov Poloz Speaks",
    "eventTimeZone": "GMT",
    "eventPrevious": "",
    "eventCurrency": "CAD",
    "eventForecast": ""
  }}}
