{"events": {"event": {
    "eventDateTime": "2016-02-26T20:30:00",
    "eventActual": "-36.9K",
    "eventCountry": "Canada",
    "eventExpectedVolatility": "Low",
    "eventName": "CFTC CAD speculative net positions",
    "eventTimeZone": "GMT",
    "eventPrevious": "-45.1K",
    "eventCurrency": "CAD",
    "eventForecast": ""
  }}}
