"Core Retail Sales (MoM)";"United Kingdom";"GBP";"2014-08-21T08:30:00";"GMT";"-0.1%";"0.4%";"0.5%";"Moderate"
"Core Retail Sales (YoY)";"United Kingdom";"GBP";"2014-08-21T08:30:00";"GMT";"3.8%";"3.4%";"3.4%";"Moderate"
"Public Sector Net Borrowing";"United Kingdom";"GBP";"2014-08-21T08:30:00";"GMT";"9.79B";"-2.00B";"-1.10B";"Low"
"Retail Sales (MoM)";"United Kingdom";"GBP";"2014-08-21T08:30:00";"GMT";"0.2%";"0.4%";"0.1%";"High"
"Retail Sales (YoY)";"United Kingdom";"GBP";"2014-08-21T08:30:00";"GMT";"3.4%";"3.0%";"2.6%";"Moderate"
"10-Year Treasury Gilt Auction";"United Kingdom";"GBP";"2014-08-21T09:35:00";"GMT";"2.700%";"";"2.570%";"Low"
