"CPI (YoY)";"India";"INR";"2013-06-12T05:30:00";"GMT";"9.4%";"9.1%";"9.3%";"Moderate"
"Industrial Production (YoY)";"India";"INR";"2013-06-12T05:30:00";"GMT";"2.5%";"2.4%";"2.0%";"Low"
"Manufacturing Output (MoM)";"India";"INR";"2013-06-12T05:30:00";"GMT";"3.20%";"";"2.80%";"Low"
