"Core Durable Goods Orders (MoM)";"United States";"USD";"2011-06-24T12:30:00";"GMT";"-0.4%";"1.0%";"0.6%";"High"
"Durable Goods Orders (MoM)";"United States";"USD";"2011-06-24T12:30:00";"GMT";"-2.7%";"1.6%";"1.9%";"Moderate"
"GDP (QoQ)";"United States";"USD";"2011-06-24T12:30:00";"GMT";"1.8%";"1.9%";"1.9%";"High"
"GDP Price Index (QoQ)";"United States";"USD";"2011-06-24T12:30:00";"GMT";"1.9%";"1.9%";"2.0%";"Moderate"
"U.S. Baker Hughes Oil Rig Count";"United States";"USD";"2011-06-24T17:00:00";"GMT";"984";"";"1003";"Moderate"
"CFTC Gold speculative net positions";"United States";"USD";"2011-06-24T19:30:00";"GMT";"191.7K";"";"203.2K";"Moderate"
"CFTC Silver speculative net positions";"United States";"USD";"2011-06-24T19:30:00";"GMT";"16.6K";"";"19.3K";"Low"
"CFTC Crude Oil speculative net positions";"United States";"USD";"2011-06-24T20:30:00";"GMT";"166.4k";"";"149.1k";"Moderate"
