{"events": {"event": {
    "eventDateTime": "2015-07-21T08:40:00",
    "eventActual": "-0.053%",
    "eventCountry": "Spain",
    "eventExpectedVolatility": "Low",
    "eventName": "Spanish 3-Month Letras Auction",
    "eventTimeZone": "GMT",
    "eventPrevious": "0.010%",
    "eventCurrency": "EUR",
    "eventForecast": ""
  }}}
