"Halifax House Price Index (MoM)";"United Kingdom";"GBP";"2012-09-06T07:00:00";"GMT";"-0.7%";"0.3%";"-0.4%";"Moderate"
"BoE Interest Rate Decision";"United Kingdom";"GBP";"2012-09-06T11:00:00";"GMT";"0.50%";"0.50%";"0.50%";"High"
"BoE QE Total";"United Kingdom";"GBP";"2012-09-06T11:00:00";"GMT";"375B";"375B";"375B";"Moderate"
