{"events": {"event": [
    {
      "eventDateTime": "2008-11-01T09:00:00",
      "eventActual": "-0.30%",
      "eventCountry": "China",
      "eventExpectedVolatility": "Moderate",
      "eventName": "CPI (MoM) (Oct)",
      "eventTimeZone": "GMT",
      "eventPrevious": "0.00%",
      "eventCurrency": "CNY",
      "eventForecast": ""
    },
    {
      "eventDateTime": "2008-11-01T09:00:00",
      "eventActual": "4.00%",
      "eventCountry": "China",
      "eventExpectedVolatility": "Moderate",
      "eventName": "CPI (YoY) (Oct)",
      "eventTimeZone": "GMT",
      "eventPrevious": "4.60%",
      "eventCurrency": "CNY",
      "eventForecast": ""
    },
    {
      "eventDateTime": "2008-11-01T09:00:00",
      "eventActual": "19.30%",
      "eventCountry": "China",
      "eventExpectedVolatility": "Moderate",
      "eventName": "Exports (YoY) (Oct)",
      "eventTimeZone": "GMT",
      "eventPrevious": "21.70%",
      "eventCurrency": "CNY",
      "eventForecast": ""
    },
    {
      "eventDateTime": "2008-11-01T09:00:00",
      "eventActual": "35.06%",
      "eventCountry": "China",
      "eventExpectedVolatility": "Low",
      "eventName": "FDI (Oct)",
      "eventTimeZone": "GMT",
      "eventPrevious": "39.85%",
      "eventCurrency": "CNY",
      "eventForecast": ""
    },
    {
      "eventDateTime": "2008-11-01T09:00:00",
      "eventActual": "27.20%",
      "eventCountry": "China",
      "eventExpectedVolatility": "Moderate",
      "eventName": "Fixed Asset Investment (YoY) (Oct)",
      "eventTimeZone": "GMT",
      "eventPrevious": "27.60%",
      "eventCurrency": "CNY",
      "eventForecast": ""
    },
    {
      "eventDateTime": "2008-11-01T09:00:00",
      "eventActual": "15.60%",
      "eventCountry": "China",
      "eventExpectedVolatility": "Moderate",
      "eventName": "Imports (YoY) (Oct)",
      "eventTimeZone": "GMT",
      "eventPrevious": "21.30%",
      "eventCurrency": "CNY",
      "eventForecast": ""
    },
    {
      "eventDateTime": "2008-11-01T09:00:00",
      "eventActual": "8.20%",
      "eventCountry": "China",
      "eventExpectedVolatility": "High",
      "eventName": "Industrial Production (YoY) (Oct)",
      "eventTimeZone": "GMT",
      "eventPrevious": "11.40%",
      "eventCurrency": "CNY",
      "eventForecast": ""
    },
    {
      "eventDateTime": "2008-11-01T09:00:00",
      "eventActual": "15.00%",
      "eventCountry": "China",
      "eventExpectedVolatility": "Low",
      "eventName": "M2 Money Stock (YoY) (Oct)",
      "eventTimeZone": "GMT",
      "eventPrevious": "15.30%",
      "eventCurrency": "CNY",
      "eventForecast": ""
    },
    {
      "eventDateTime": "2008-11-01T09:00:00",
      "eventActual": "44.60",
      "eventCountry": "China",
      "eventExpectedVolatility": "High",
      "eventName": "Manufacturing PMI (Oct)",
      "eventTimeZone": "GMT",
      "eventPrevious": "51.20",
      "eventCurrency": "CNY",
      "eventForecast": ""
    },
    {
      "eventDateTime": "2008-11-01T09:00:00",
      "eventActual": "181.90B",
      "eventCountry": "China",
      "eventExpectedVolatility": "Moderate",
      "eventName": "New Loans (Oct)",
      "eventTimeZone": "GMT",
      "eventPrevious": "374.50B",
      "eventCurrency": "CNY",
      "eventForecast": ""
    },
    {
      "eventDateTime": "2008-11-01T09:00:00",
      "eventActual": "53.10",
      "eventCountry": "China",
      "eventExpectedVolatility": "Moderate",
      "eventName": "Non-Manufacturing PMI (Oct)",
      "eventTimeZone": "GMT",
      "eventPrevious": "55.00",
      "eventCurrency": "CNY",
      "eventForecast": ""
    },
    {
      "eventDateTime": "2008-11-01T09:00:00",
      "eventActual": "14.60%",
      "eventCountry": "China",
      "eventExpectedVolatility": "Low",
      "eventName": "Outstanding Loan Growth (YoY) (Oct)",
      "eventTimeZone": "GMT",
      "eventPrevious": "14.50%",
      "eventCurrency": "CNY",
      "eventForecast": ""
    },
    {
      "eventDateTime": "2008-11-01T09:00:00",
      "eventActual": "3.88%",
      "eventCountry": "China",
      "eventExpectedVolatility": "Moderate",
      "eventName": "PBoC Deposit Rate (Oct)",
      "eventTimeZone": "GMT",
      "eventPrevious": "4.14%",
      "eventCurrency": "CNY",
      "eventForecast": ""
    },
    {
      "eventDateTime": "2008-11-01T09:00:00",
      "eventActual": "16.78%",
      "eventCountry": "China",
      "eventExpectedVolatility": "Moderate",
      "eventName": "PBoC Reserve Requirement Ratio (Oct)",
      "eventTimeZone": "GMT",
      "eventPrevious": "17.32%",
      "eventCurrency": "CNY",
      "eventForecast": ""
    },
    {
      "eventDateTime": "2008-11-01T09:00:00",
      "eventActual": "6.60%",
      "eventCountry": "China",
      "eventExpectedVolatility": "Moderate",
      "eventName": "PPI (YoY) (Oct)",
      "eventTimeZone": "GMT",
      "eventPrevious": "9.10%",
      "eventCurrency": "CNY",
      "eventForecast": ""
    },
    {
      "eventDateTime": "2008-11-01T09:00:00",
      "eventActual": "22.00%",
      "eventCountry": "China",
      "eventExpectedVolatility": "Low",
      "eventName": "Retail Sales (YoY) (Oct)",
      "eventTimeZone": "GMT",
      "eventPrevious": "23.20%",
      "eventCurrency": "CNY",
      "eventForecast": ""
    },
    {
      "eventDateTime": "2008-11-01T09:00:00",
      "eventActual": "35.78B",
      "eventCountry": "China",
      "eventExpectedVolatility": "Moderate",
      "eventName": "Trade Balance (USD) (Oct)",
      "eventTimeZone": "GMT",
      "eventPrevious": "29.97B",
      "eventCurrency": "CNY",
      "eventForecast": ""
    }
  ]}}
