{"events": {"event": [
    {
      "eventDateTime": "2012-03-20T12:30:00",
      "eventActual": "0.717M",
      "eventCountry": "United States",
      "eventExpectedVolatility": "High",
      "eventName": "Building Permits",
      "eventTimeZone": "GMT",
      "eventPrevious": "0.682M",
      "eventCurrency": "USD",
      "eventForecast": "0.690M"
    },
    {
      "eventDateTime": "2012-03-20T12:30:00",
      "eventActual": "0.698M",
      "eventCountry": "United States",
      "eventExpectedVolatility": "Moderate",
      "eventName": "Housing Starts",
      "eventTimeZone": "GMT",
      "eventPrevious": "0.706M",
      "eventCurrency": "USD",
      "eventForecast": "0.700M"
    },
    {
      "eventDateTime": "2012-03-20T14:00:00",
      "eventActual": "",
      "eventCountry": "United States",
      "eventExpectedVolatility": "Moderate",
      "eventName": "Treasury Secretary Geithner Speaks",
      "eventTimeZone": "GMT",
      "eventPrevious": "",
      "eventCurrency": "USD",
      "eventForecast": ""
    },
    {
      "eventDateTime": "2012-03-20T15:30:00",
      "eventActual": "0.100%",
      "eventCountry": "United States",
      "eventExpectedVolatility": "Low",
      "eventName": "4-Week Bill Auction",
      "eventTimeZone": "GMT",
      "eventPrevious": "0.070%",
      "eventCurrency": "USD",
      "eventForecast": ""
    },
    {
      "eventDateTime": "2012-03-20T16:45:00",
      "eventActual": "",
      "eventCountry": "United States",
      "eventExpectedVolatility": "High",
      "eventName": "Fed Chairman Bernanke Speaks",
      "eventTimeZone": "GMT",
      "eventPrevious": "",
      "eventCurrency": "USD",
      "eventForecast": ""
    }
  ]}}
