"Building Permits";"United States";"USD";"2012-03-20T12:30:00";"GMT";"0.682M";"0.690M";"0.717M";"High"
"Housing Starts";"United States";"USD";"2012-03-20T12:30:00";"GMT";"0.706M";"0.700M";"0.698M";"Moderate"
"Treasury Secretary Geithner Speaks";"United States";"USD";"2012-03-20T14:00:00";"GMT";" ";"";"";"Moderate"
"4-Week Bill Auction";"United States";"USD";"2012-03-20T15:30:00";"GMT";"0.070%";"";"0.100%";"Low"
"Fed Chairman Bernanke Speaks";"United States";"USD";"2012-03-20T16:45:00";"GMT";" ";"";"";"High"
