"BRC Retail Sales Monitor (YoY) (Nov)";"United Kingdom";"GBP";"2015-12-08T00:01:00";"GMT";"-0.2%";"0.4%";"-0.4%";"Moderate"
"Halifax House Price Index (MoM) (Nov)";"United Kingdom";"GBP";"2015-12-08T08:00:00";"GMT";"1.0%";"0.3%";"-0.2%";"Moderate"
"Halifax House Price Index (YoY) (Nov)";"United Kingdom";"GBP";"2015-12-08T08:00:00";"GMT";"9.7%";"9.5%";"9.0%";"Moderate"
"Industrial Production (MoM) (Oct)";"United Kingdom";"GBP";"2015-12-08T09:30:00";"GMT";"-0.2%";"0.1%";"0.1%";"Moderate"
"Industrial Production (YoY) (Oct)";"United Kingdom";"GBP";"2015-12-08T09:30:00";"GMT";"1.5%";"1.2%";"1.7%";"Low"
"Manufacturing Production (MoM) (Oct)";"United Kingdom";"GBP";"2015-12-08T09:30:00";"GMT";"0.9%";"-0.1%";"-0.4%";"High"
"Manufacturing Production (YoY) (Oct)";"United Kingdom";"GBP";"2015-12-08T09:30:00";"GMT";"-0.4%";"0.1%";"-0.1%";"Low"
"30-Year Treasury Gilt Auction";"United Kingdom";"GBP";"2015-12-08T10:35:00";"GMT";"2.450%";"";"2.490%";"Low"
"NIESR GDP Estimate";"United Kingdom";"GBP";"2015-12-08T15:00:00";"GMT";"0.5%";"";"0.6%";"Moderate"
