{"events": {"event": [
    {
      "eventDateTime": "2011-09-10T09:30:00",
      "eventActual": "-0.10%",
      "eventCountry": "United Kingdom",
      "eventExpectedVolatility": "Low",
      "eventName": "Construction Output (MoM) (Jul)",
      "eventTimeZone": "GMT",
      "eventPrevious": "1.30%",
      "eventCurrency": "GBP",
      "eventForecast": ""
    },
    {
      "eventDateTime": "2011-09-10T09:30:00",
      "eventActual": "1.90%",
      "eventCountry": "United Kingdom",
      "eventExpectedVolatility": "Low",
      "eventName": "U.K. Construction Output (YoY) (Jul)",
      "eventTimeZone": "GMT",
      "eventPrevious": "1.30%",
      "eventCurrency": "GBP",
      "eventForecast": ""
    }
  ]}}
