{"events": {"event": [
    {
      "eventDateTime": "2016-11-03T23:50:00",
      "eventActual": "891.9B",
      "eventCountry": "Japan",
      "eventExpectedVolatility": "Low",
      "eventName": "Foreign Bonds Buying",
      "eventTimeZone": "GMT",
      "eventPrevious": "774.2B",
      "eventCurrency": "JPY",
      "eventForecast": ""
    },
    {
      "eventDateTime": "2016-11-03T23:50:00",
      "eventActual": "108.9B",
      "eventCountry": "Japan",
      "eventExpectedVolatility": "Low",
      "eventName": "Foreign Investments in Japanese Stocks",
      "eventTimeZone": "GMT",
      "eventPrevious": "85.2B",
      "eventCurrency": "JPY",
      "eventForecast": ""
    }
  ]}}
