"Investing.com Gold Index";"United States";"USD";"2017-10-30T05:30:00";"GMT";"69.1%";"";"67.1%";"Moderate"
"Investing.com Sandamp:P 500 Index";"United States";"USD";"2017-10-30T05:30:00";"GMT";"54.1%";"";"47.4%";"Moderate"
"Core PCE Price Index (MoM) (Sep)";"United States";"USD";"2017-10-30T12:30:00";"GMT";"0.1%";"0.1%";"0.1%";"Moderate"
"Core PCE Price Index (YoY) (Sep)";"United States";"USD";"2017-10-30T12:30:00";"GMT";"1.3%";"1.3%";"1.3%";"Moderate"
"Personal Income (MoM) (Sep)";"United States";"USD";"2017-10-30T12:30:00";"GMT";"0.2%";"0.4%";"0.4%";"Low"
"Personal Spending (MoM) (Sep)";"United States";"USD";"2017-10-30T12:30:00";"GMT";"0.1%";"0.8%";"1.0%";"Moderate"
"Real Personal Consumption (MoM) (Sep)";"United States";"USD";"2017-10-30T12:30:00";"GMT";"-0.1%";"0.5%";"0.6%";"Low"
"Dallas Fed PCE (Sep)";"United States";"USD";"2017-10-30T13:00:00";"GMT";"1.60%";"";"1.80%";"Low"
"Dallas Fed Mfg Business Index (Oct)";"United States";"USD";"2017-10-30T14:30:00";"GMT";"21.3";"21.0";"27.6";"Low"
"3-Month Bill Auction";"United States";"USD";"2017-10-30T15:30:00";"GMT";"1.105%";"";"1.130%";"Low"
"6-Month Bill Auction";"United States";"USD";"2017-10-30T15:30:00";"GMT";"1.245%";"";"1.260%";"Low"
