{"events": {"event": [
    {
      "eventDateTime": "2017-11-01T11:00:00",
      "eventActual": "4.22%",
      "eventCountry": "United States",
      "eventExpectedVolatility": "Low",
      "eventName": "MBA 30-Year Mortgage Rate",
      "eventTimeZone": "GMT",
      "eventPrevious": "4.18%",
      "eventCurrency": "USD",
      "eventForecast": ""
    },
    {
      "eventDateTime": "2017-11-01T11:00:00",
      "eventActual": "-2.6%",
      "eventCountry": "United States",
      "eventExpectedVolatility": "Low",
      "eventName": "MBA Mortgage Applications (WoW)",
      "eventTimeZone": "GMT",
      "eventPrevious": "-4.6%",
      "eventCurrency": "USD",
      "eventForecast": ""
    },
    {
      "eventDateTime": "2017-11-01T11:00:00",
      "eventActual": "226.1",
      "eventCountry": "United States",
      "eventExpectedVolatility": "Low",
      "eventName": "MBA Purchase Index",
      "eventTimeZone": "GMT",
      "eventPrevious": "228.0",
      "eventCurrency": "USD",
      "eventForecast": ""
    },
    {
      "eventDateTime": "2017-11-01T11:00:00",
      "eventActual": "389.8",
      "eventCountry": "United States",
      "eventExpectedVolatility": "Low",
      "eventName": "Mortgage Market Index",
      "eventTimeZone": "GMT",
      "eventPrevious": "400.3",
      "eventCurrency": "USD",
      "eventForecast": ""
    },
    {
      "eventDateTime": "2017-11-01T11:00:00",
      "eventActual": "1,297.0",
      "eventCountry": "United States",
      "eventExpectedVolatility": "Low",
      "eventName": "Mortgage Refinance Index",
      "eventTimeZone": "GMT",
      "eventPrevious": "1,357.6",
      "eventCurrency": "USD",
      "eventForecast": ""
    },
    {
      "eventDateTime": "2017-11-01T12:15:00",
      "eventActual": "235K",
      "eventCountry": "United States",
      "eventExpectedVolatility": "High",
      "eventName": "ADP Nonfarm Employment Change (Oct)",
      "eventTimeZone": "GMT",
      "eventPrevious": "110K",
      "eventCurrency": "USD",
      "eventForecast": "200K"
    },
    {
      "eventDateTime": "2017-11-01T13:45:00",
      "eventActual": "54.6",
      "eventCountry": "United States",
      "eventExpectedVolatility": "Moderate",
      "eventName": "Manufacturing PMI (Oct)",
      "eventTimeZone": "GMT",
      "eventPrevious": "54.5",
      "eventCurrency": "USD",
      "eventForecast": "54.5"
    },
    {
      "eventDateTime": "2017-11-01T14:00:00",
      "eventActual": "0.3%",
      "eventCountry": "United States",
      "eventExpectedVolatility": "Low",
      "eventName": "Construction Spending (MoM) (Sep)",
      "eventTimeZone": "GMT",
      "eventPrevious": "0.1%",
      "eventCurrency": "USD",
      "eventForecast": "-0.1%"
    },
    {
      "eventDateTime": "2017-11-01T14:00:00",
      "eventActual": "59.8",
      "eventCountry": "United States",
      "eventExpectedVolatility": "Moderate",
      "eventName": "ISM Manufacturing Employment (Oct)",
      "eventTimeZone": "GMT",
      "eventPrevious": "60.3",
      "eventCurrency": "USD",
      "eventForecast": "60.0"
    },
    {
      "eventDateTime": "2017-11-01T14:00:00",
      "eventActual": "63.4",
      "eventCountry": "United States",
      "eventExpectedVolatility": "Low",
      "eventName": "ISM Manufacturing New Orders Index (Oct)",
      "eventTimeZone": "GMT",
      "eventPrevious": "64.6",
      "eventCurrency": "USD",
      "eventForecast": ""
    },
    {
      "eventDateTime": "2017-11-01T14:00:00",
      "eventActual": "58.7",
      "eventCountry": "United States",
      "eventExpectedVolatility": "High",
      "eventName": "ISM Manufacturing PMI (Oct)",
      "eventTimeZone": "GMT",
      "eventPrevious": "60.8",
      "eventCurrency": "USD",
      "eventForecast": "59.5"
    },
    {
      "eventDateTime": "2017-11-01T14:00:00",
      "eventActual": "68.5",
      "eventCountry": "United States",
      "eventExpectedVolatility": "Low",
      "eventName": "ISM Manufacturing Prices (Oct)",
      "eventTimeZone": "GMT",
      "eventPrevious": "71.5",
      "eventCurrency": "USD",
      "eventForecast": "68.0"
    },
    {
      "eventDateTime": "2017-11-01T14:30:00",
      "eventActual": "-0.761M",
      "eventCountry": "United States",
      "eventExpectedVolatility": "Low",
      "eventName": "Crude Oil Imports",
      "eventTimeZone": "GMT",
      "eventPrevious": "0.514M",
      "eventCurrency": "USD",
      "eventForecast": ""
    },
    {
      "eventDateTime": "2017-11-01T14:30:00",
      "eventActual": "-2.435M",
      "eventCountry": "United States",
      "eventExpectedVolatility": "High",
      "eventName": "Crude Oil Inventories",
      "eventTimeZone": "GMT",
      "eventPrevious": "0.856M",
      "eventCurrency": "USD",
      "eventForecast": "-1.756M"
    },
    {
      "eventDateTime": "2017-11-01T14:30:00",
      "eventActual": "0.090M",
      "eventCountry": "United States",
      "eventExpectedVolatility": "Moderate",
      "eventName": "Cushing Crude Oil Inventories",
      "eventTimeZone": "GMT",
      "eventPrevious": "-0.237M",
      "eventCurrency": "USD",
      "eventForecast": ""
    },
    {
      "eventDateTime": "2017-11-01T14:30:00",
      "eventActual": "0.241M",
      "eventCountry": "United States",
      "eventExpectedVolatility": "Low",
      "eventName": "Distillate Fuel Production",
      "eventTimeZone": "GMT",
      "eventPrevious": "0.011M",
      "eventCurrency": "USD",
      "eventForecast": ""
    },
    {
      "eventDateTime": "2017-11-01T14:30:00",
      "eventActual": "-0.320M",
      "eventCountry": "United States",
      "eventExpectedVolatility": "Low",
      "eventName": "EIA Weekly Distillates Stocks",
      "eventTimeZone": "GMT",
      "eventPrevious": "-5.246M",
      "eventCurrency": "USD",
      "eventForecast": "-2.128M"
    },
    {
      "eventDateTime": "2017-11-01T14:30:00",
      "eventActual": "-4.020M",
      "eventCountry": "United States",
      "eventExpectedVolatility": "Low",
      "eventName": "Gasoline Inventories",
      "eventTimeZone": "GMT",
      "eventPrevious": "-5.465M",
      "eventCurrency": "USD",
      "eventForecast": "-1.506M"
    },
    {
      "eventDateTime": "2017-11-01T14:30:00",
      "eventActual": "0.251M",
      "eventCountry": "United States",
      "eventExpectedVolatility": "Low",
      "eventName": "Gasoline Production",
      "eventTimeZone": "GMT",
      "eventPrevious": "-0.095M",
      "eventCurrency": "USD",
      "eventForecast": ""
    },
    {
      "eventDateTime": "2017-11-01T14:30:00",
      "eventActual": "-0.533M",
      "eventCountry": "United States",
      "eventExpectedVolatility": "Low",
      "eventName": "Heating Oil Stockpiles",
      "eventTimeZone": "GMT",
      "eventPrevious": "-0.279M",
      "eventCurrency": "USD",
      "eventForecast": ""
    },
    {
      "eventDateTime": "2017-11-01T18:00:00",
      "eventActual": "",
      "eventCountry": "United States",
      "eventExpectedVolatility": "High",
      "eventName": "FOMC Statement",
      "eventTimeZone": "GMT",
      "eventPrevious": "",
      "eventCurrency": "USD",
      "eventForecast": ""
    },
    {
      "eventDateTime": "2017-11-01T18:00:00",
      "eventActual": "1.25%",
      "eventCountry": "United States",
      "eventExpectedVolatility": "High",
      "eventName": "Fed Interest Rate Decision",
      "eventTimeZone": "GMT",
      "eventPrevious": "1.25%",
      "eventCurrency": "USD",
      "eventForecast": "1.25%"
    },
    {
      "eventDateTime": "2017-11-01T19:30:00",
      "eventActual": "11.52M",
      "eventCountry": "United States",
      "eventExpectedVolatility": "Low",
      "eventName": "All Truck Sales (Oct)",
      "eventTimeZone": "GMT",
      "eventPrevious": "11.76M",
      "eventCurrency": "USD",
      "eventForecast": ""
    },
    {
      "eventDateTime": "2017-11-01T19:30:00",
      "eventActual": "9.49M",
      "eventCountry": "United States",
      "eventExpectedVolatility": "Low",
      "eventName": "Domestic Truck Sales (Oct)",
      "eventTimeZone": "GMT",
      "eventPrevious": "9.69M",
      "eventCurrency": "USD",
      "eventForecast": "9.10M"
    },
    {
      "eventDateTime": "2017-11-01T20:00:00",
      "eventActual": "6.56M",
      "eventCountry": "United States",
      "eventExpectedVolatility": "Low",
      "eventName": "All Car Sales",
      "eventTimeZone": "GMT",
      "eventPrevious": "6.81M",
      "eventCurrency": "USD",
      "eventForecast": ""
    },
    {
      "eventDateTime": "2017-11-01T20:00:00",
      "eventActual": "4.75M",
      "eventCountry": "United States",
      "eventExpectedVolatility": "Low",
      "eventName": "Domestic Car Sales",
      "eventTimeZone": "GMT",
      "eventPrevious": "4.95M",
      "eventCurrency": "USD",
      "eventForecast": ""
    },
    {
      "eventDateTime": "2017-11-01T20:00:00",
      "eventActual": "18.09M",
      "eventCountry": "United States",
      "eventExpectedVolatility": "Low",
      "eventName": "Total Vehicle Sales",
      "eventTimeZone": "GMT",
      "eventPrevious": "18.57M",
      "eventCurrency": "USD",
      "eventForecast": "17.30M"
    }
  ]}}
