{"events": {"event": {
    "eventDateTime": "2017-06-16T19:30:00",
    "eventActual": "-14.5K",
    "eventCountry": "Switzerland",
    "eventExpectedVolatility": "Low",
    "eventName": "CFTC CHF speculative net positions",
    "eventTimeZone": "GMT",
    "eventPrevious": "-16.6K",
    "eventCurrency": "CHF",
    "eventForecast": ""
  }}}
