"GfK German Consumer Climate (Jul)";"Germany";"EUR";"2019-06-26T06:00:00";"GMT";"10.1";"10.0";"9.8";"Moderate"
"French Consumer Confidence (Jun)";"France";"EUR";"2019-06-26T06:45:00";"GMT";"99";"100";"101";"Low"
"Italian Public Deficit (Q1)";"Italy";"EUR";"2019-06-26T08:00:00";"GMT";"1.7%";"";"4.1%";"Low"
"Italian 6-Month BOT Auction";"Italy";"EUR";"2019-06-26T09:45:00";"GMT";"-0.048%";"";"-0.063%";"Low"
"France Jobseekers Total";"France";"EUR";"2019-06-26T10:00:00";"GMT";"3,372.9K";"";"3,376.5K";"Moderate"
