{"events": {"event": {
    "eventDateTime": "2011-11-07T05:00:00",
    "eventActual": "91.6",
    "eventCountry": "Japan",
    "eventExpectedVolatility": "Low",
    "eventName": "Leading Index",
    "eventTimeZone": "GMT",
    "eventPrevious": "93.8",
    "eventCurrency": "JPY",
    "eventForecast": "96.3"
  }}}
