{"events": {"event": [
    {
      "eventDateTime": "2011-05-20T14:00:00",
      "eventActual": "1.56K",
      "eventCountry": "United States",
      "eventExpectedVolatility": "Low",
      "eventName": "Mass Layoffs",
      "eventTimeZone": "GMT",
      "eventPrevious": "1.29K",
      "eventCurrency": "USD",
      "eventForecast": ""
    },
    {
      "eventDateTime": "2011-05-20T17:00:00",
      "eventActual": "954",
      "eventCountry": "United States",
      "eventExpectedVolatility": "Moderate",
      "eventName": "U.S. Baker Hughes Oil Rig Count",
      "eventTimeZone": "GMT",
      "eventPrevious": "947",
      "eventCurrency": "USD",
      "eventForecast": ""
    },
    {
      "eventDateTime": "2011-05-20T19:30:00",
      "eventActual": "164.6K",
      "eventCountry": "United States",
      "eventExpectedVolatility": "Moderate",
      "eventName": "CFTC Gold speculative net positions",
      "eventTimeZone": "GMT",
      "eventPrevious": "176.3K",
      "eventCurrency": "USD",
      "eventForecast": ""
    },
    {
      "eventDateTime": "2011-05-20T19:30:00",
      "eventActual": "17.4K",
      "eventCountry": "United States",
      "eventExpectedVolatility": "Low",
      "eventName": "CFTC Silver speculative net positions",
      "eventTimeZone": "GMT",
      "eventPrevious": "23.5K",
      "eventCurrency": "USD",
      "eventForecast": ""
    },
    {
      "eventDateTime": "2011-05-20T20:30:00",
      "eventActual": "203.1k",
      "eventCountry": "United States",
      "eventExpectedVolatility": "Moderate",
      "eventName": "CFTC Crude Oil speculative net positions",
      "eventTimeZone": "GMT",
      "eventPrevious": "211.5k",
      "eventCurrency": "USD",
      "eventForecast": ""
    }
  ]}}
