{"events": {"event": [
    {
      "eventDateTime": "2016-07-29T12:00:00",
      "eventActual": "11.3%",
      "eventCountry": "Brazil",
      "eventExpectedVolatility": "Moderate",
      "eventName": "Unemployment Rate",
      "eventTimeZone": "GMT",
      "eventPrevious": "11.2%",
      "eventCurrency": "BRL",
      "eventForecast": "11.4%"
    },
    {
      "eventDateTime": "2016-07-29T13:30:00",
      "eventActual": "-32.170B",
      "eventCountry": "Brazil",
      "eventExpectedVolatility": "Low",
      "eventName": "Budget Balance (Jun)",
      "eventTimeZone": "GMT",
      "eventPrevious": "-60.623B",
      "eventCurrency": "BRL",
      "eventForecast": "-42.000B"
    },
    {
      "eventDateTime": "2016-07-29T13:30:00",
      "eventActual": "-10.060B",
      "eventCountry": "Brazil",
      "eventExpectedVolatility": "Low",
      "eventName": "Budget Surplus (Jun)",
      "eventTimeZone": "GMT",
      "eventPrevious": "-18.125B",
      "eventCurrency": "BRL",
      "eventForecast": "-16.000B"
    },
    {
      "eventDateTime": "2016-07-29T13:30:00",
      "eventActual": "42.0%",
      "eventCountry": "Brazil",
      "eventExpectedVolatility": "Low",
      "eventName": "Debt-to-GDP ratio (Jun)",
      "eventTimeZone": "GMT",
      "eventPrevious": "39.6%",
      "eventCurrency": "BRL",
      "eventForecast": "39.7%"
    }
  ]}}
