"Bank Lending (YoY) (Jul)";"Japan";"JPY";"2003-08-01T09:00:00";"GMT";"-4.30%";"";"-4.40%";"Low"
"Capacity Utilization (MoM) (Jul)";"Japan";"JPY";"2003-08-01T09:00:00";"GMT";"-0.20%";"";"0.90%";"Low"
"Coincident Indicator (MoM) (Jul)";"Japan";"JPY";"2003-08-01T09:00:00";"GMT";"-0.30%";"";"0.00%";"Low"
"Construction Orders (YoY) (Jul)";"Japan";"JPY";"2003-08-01T09:00:00";"GMT";"13.70%";"";"-12.20%";"Low"
"Core Machinery Orders (MoM) (Jul)";"Japan";"JPY";"2003-08-01T09:00:00";"GMT";"1.30%";"";"-3.80%";"Low"
"Core Machinery Orders (YoY) (Jul)";"Japan";"JPY";"2003-08-01T09:00:00";"GMT";"9.80%";"";"-0.90%";"Low"
"Current Account n.s.a. (Jul)";"Japan";"JPY";"2003-08-01T09:00:00";"GMT";"1.11T";"";"1.50T";"Moderate"
"Economy Watchers Current Index (Jul)";"Japan";"JPY";"2003-08-01T09:00:00";"GMT";"42.10";"";"44.90";"Low"
"Exports (YoY) (Jul)";"Japan";"JPY";"2003-08-01T09:00:00";"GMT";"0.00%";"";"5.60%";"Moderate"
"Foreign Reserves (USD) (Jul)";"Japan";"JPY";"2003-08-01T09:00:00";"GMT";"545.62B";"";"556.84B";"Low"
"Household Spending (MoM) (Jul)";"Japan";"JPY";"2003-08-01T09:00:00";"GMT";"1.90%";"";"-2.00%";"Moderate"
"Household Spending (YoY) (Jul)";"Japan";"JPY";"2003-08-01T09:00:00";"GMT";"1.30%";"";"-3.90%";"Moderate"
"Housing Starts (YoY) (Jul)";"Japan";"JPY";"2003-08-01T09:00:00";"GMT";"13.40%";"";"2.60%";"Low"
"Imports (YoY) (Jul)";"Japan";"JPY";"2003-08-01T09:00:00";"GMT";"11.90%";"";"5.50%";"Low"
"Industrial Production (MoM) (Jul)";"Japan";"JPY";"2003-08-01T09:00:00";"GMT";"-0.80%";"";"0.70%";"Moderate"
"Jobs/applications ratio (Jul)";"Japan";"JPY";"2003-08-01T09:00:00";"GMT";"0.62";"";"0.63";"Moderate"
"Leading Index (MoM) (Jul)";"Japan";"JPY";"2003-08-01T09:00:00";"GMT";"0.70%";"";"1.30%";"Low"
"National CPI (YoY) (Jul)";"Japan";"JPY";"2003-08-01T09:00:00";"GMT";"-0.40%";"";"-0.20%";"Low"
"National Core CPI (YoY) (Jul)";"Japan";"JPY";"2003-08-01T09:00:00";"GMT";"-0.40%";"";"-0.20%";"Moderate"
"Overtime Pay (YoY) (Jul)";"Japan";"JPY";"2003-08-01T09:00:00";"GMT";"3.10%";"";"4.70%";"Low"
"PPI (MoM) (Jul)";"Japan";"JPY";"2003-08-01T09:00:00";"GMT";"-0.20%";"";"0.30%";"Low"
"PPI (YoY) (Jul)";"Japan";"JPY";"2003-08-01T09:00:00";"GMT";"-1.40%";"";"-0.90%";"Low"
"Retail Sales (YoY) (Jul)";"Japan";"JPY";"2003-08-01T09:00:00";"GMT";"-0.10%";"";"-0.70%";"Moderate"
"Reuters Tankan Index (Jul)";"Japan";"JPY";"2003-08-01T09:00:00";"GMT";"-6.00";"";"-5.00";"Low"
"Tokyo CPI (YoY) (Jul)";"Japan";"JPY";"2003-08-01T09:00:00";"GMT";"-0.40%";"";"-0.50%";"Low"
"Tokyo Core CPI (YoY) (Jul)";"Japan";"JPY";"2003-08-01T09:00:00";"GMT";"-0.50%";"";"-0.50%";"Moderate"
"Trade Balance (Jul)";"Japan";"JPY";"2003-08-01T09:00:00";"GMT";"837.80B";"";"789.20B";"Moderate"
"Unemployment Rate (Jul)";"Japan";"JPY";"2003-08-01T09:00:00";"GMT";"5.40%";"";"5.20%";"Low"
