{"events": {"event": [
    {
      "eventDateTime": "2019-03-05T00:01:00",
      "eventActual": "-0.1%",
      "eventCountry": "United Kingdom",
      "eventExpectedVolatility": "Moderate",
      "eventName": "BRC Retail Sales Monitor (YoY) (Feb)",
      "eventTimeZone": "GMT",
      "eventPrevious": "1.8%",
      "eventCurrency": "GBP",
      "eventForecast": "-0.2%"
    },
    {
      "eventDateTime": "2019-03-05T09:30:00",
      "eventActual": "",
      "eventCountry": "United Kingdom",
      "eventExpectedVolatility": "Low",
      "eventName": "BoE FPC Meeting Minutes",
      "eventTimeZone": "GMT",
      "eventPrevious": "",
      "eventCurrency": "GBP",
      "eventForecast": ""
    },
    {
      "eventDateTime": "2019-03-05T09:30:00",
      "eventActual": "51.3",
      "eventCountry": "United Kingdom",
      "eventExpectedVolatility": "High",
      "eventName": "Services PMI (Feb)",
      "eventTimeZone": "GMT",
      "eventPrevious": "50.1",
      "eventCurrency": "GBP",
      "eventForecast": "49.9"
    },
    {
      "eventDateTime": "2019-03-05T15:35:00",
      "eventActual": "",
      "eventCountry": "United Kingdom",
      "eventExpectedVolatility": "High",
      "eventName": "BoE Gov Carney Speaks",
      "eventTimeZone": "GMT",
      "eventPrevious": "",
      "eventCurrency": "GBP",
      "eventForecast": ""
    }
  ]}}
