{"events": {"event": [
    {
      "eventDateTime": "2014-10-16T23:30:00",
      "eventActual": "8",
      "eventCountry": "Japan",
      "eventExpectedVolatility": "Low",
      "eventName": "Reuters Tankan Index (Sep)",
      "eventTimeZone": "GMT",
      "eventPrevious": "10",
      "eventCurrency": "JPY",
      "eventForecast": ""
    },
    {
      "eventDateTime": "2014-10-16T23:50:00",
      "eventActual": "796.0B",
      "eventCountry": "Japan",
      "eventExpectedVolatility": "Low",
      "eventName": "Foreign Bonds Buying",
      "eventTimeZone": "GMT",
      "eventPrevious": "-168.6B",
      "eventCurrency": "JPY",
      "eventForecast": ""
    },
    {
      "eventDateTime": "2014-10-16T23:50:00",
      "eventActual": "-254.3B",
      "eventCountry": "Japan",
      "eventExpectedVolatility": "Low",
      "eventName": "Foreign Investments in Japanese Stocks",
      "eventTimeZone": "GMT",
      "eventPrevious": "184.5B",
      "eventCurrency": "JPY",
      "eventForecast": ""
    }
  ]}}
