{"events": {"event": {
    "eventDateTime": "2017-07-18T01:30:00",
    "eventActual": "10.2%",
    "eventCountry": "China",
    "eventExpectedVolatility": "Low",
    "eventName": "House Prices (YoY) (Jun)",
    "eventTimeZone": "GMT",
    "eventPrevious": "10.4%",
    "eventCurrency": "CNY",
    "eventForecast": ""
  }}}
