{"events": {"event": [
    {
      "eventDateTime": "2015-03-19T07:00:00",
      "eventActual": "2.473B",
      "eventCountry": "Switzerland",
      "eventExpectedVolatility": "Low",
      "eventName": "Trade Balance (Feb)",
      "eventTimeZone": "GMT",
      "eventPrevious": "3.409B",
      "eventCurrency": "CHF",
      "eventForecast": "2.870B"
    },
    {
      "eventDateTime": "2015-03-19T08:30:00",
      "eventActual": "",
      "eventCountry": "Switzerland",
      "eventExpectedVolatility": "Moderate",
      "eventName": "SNB Chairman Thomas Jordan speaks",
      "eventTimeZone": "GMT",
      "eventPrevious": "",
      "eventCurrency": "CHF",
      "eventForecast": ""
    },
    {
      "eventDateTime": "2015-03-19T08:30:00",
      "eventActual": "-0.75%",
      "eventCountry": "Switzerland",
      "eventExpectedVolatility": "High",
      "eventName": "SNB Interest Rate Decision",
      "eventTimeZone": "GMT",
      "eventPrevious": "-0.75%",
      "eventCurrency": "CHF",
      "eventForecast": "-0.75%"
    },
    {
      "eventDateTime": "2015-03-19T08:30:00",
      "eventActual": "",
      "eventCountry": "Switzerland",
      "eventExpectedVolatility": "High",
      "eventName": "SNB Press Conference",
      "eventTimeZone": "GMT",
      "eventPrevious": "",
      "eventCurrency": "CHF",
      "eventForecast": ""
    }
  ]}}
