"Exports (MoM) (Feb)";"Australia";"AUD";"2016-04-05T01:30:00";"GMT";"1%";"";"-1%";"Low"
"Imports (MoM) (Feb)";"Australia";"AUD";"2016-04-05T01:30:00";"GMT";"-1%";"";"0%";"Low"
"Trade Balance (Feb)";"Australia";"AUD";"2016-04-05T01:30:00";"GMT";"-3.156B";"-2.600B";"-3.410B";"Moderate"
"RBA Interest Rate Decision (Apr)";"Australia";"AUD";"2016-04-05T04:30:00";"GMT";"2.00%";"2.00%";"2.00%";"High"
"RBA Rate Statement";"Australia";"AUD";"2016-04-05T04:30:00";"GMT";" ";"";"";"High"
