{"events": {"event": [
    {
      "eventDateTime": "2008-10-16T07:15:00",
      "eventActual": "0.0%",
      "eventCountry": "Switzerland",
      "eventExpectedVolatility": "Moderate",
      "eventName": "Retail Sales (YoY)",
      "eventTimeZone": "GMT",
      "eventPrevious": "6.2%",
      "eventCurrency": "CHF",
      "eventForecast": "0.9%"
    },
    {
      "eventDateTime": "2008-10-16T09:00:00",
      "eventActual": "-91.1",
      "eventCountry": "Switzerland",
      "eventExpectedVolatility": "Low",
      "eventName": "ZEW Expectations",
      "eventTimeZone": "GMT",
      "eventPrevious": "-44.4",
      "eventCurrency": "CHF",
      "eventForecast": ""
    }
  ]}}
