{"events": {"event": [
    {
      "eventDateTime": "2014-05-13T05:30:00",
      "eventActual": "17.3%",
      "eventCountry": "China",
      "eventExpectedVolatility": "Moderate",
      "eventName": "Fixed Asset Investment (YoY)",
      "eventTimeZone": "GMT",
      "eventPrevious": "17.6%",
      "eventCurrency": "CNY",
      "eventForecast": "17.7%"
    },
    {
      "eventDateTime": "2014-05-13T05:30:00",
      "eventActual": "8.7%",
      "eventCountry": "China",
      "eventExpectedVolatility": "High",
      "eventName": "Industrial Production (YoY)",
      "eventTimeZone": "GMT",
      "eventPrevious": "8.8%",
      "eventCurrency": "CNY",
      "eventForecast": "8.9%"
    },
    {
      "eventDateTime": "2014-05-13T05:30:00",
      "eventActual": "11.9%",
      "eventCountry": "China",
      "eventExpectedVolatility": "Low",
      "eventName": "Retail Sales (YoY)",
      "eventTimeZone": "GMT",
      "eventPrevious": "12.2%",
      "eventCurrency": "CNY",
      "eventForecast": "12.2%"
    }
  ]}}
