{"events": {"event": {
    "eventDateTime": "2015-06-29T08:30:00",
    "eventActual": "-0.1%",
    "eventCountry": "Hong Kong",
    "eventExpectedVolatility": "Low",
    "eventName": "Retail Sales (YoY) (May)",
    "eventTimeZone": "GMT",
    "eventPrevious": "-2.1%",
    "eventCurrency": "HKD",
    "eventForecast": "-2.7%"
  }}}
