"Housing Starts";"Canada";"CAD";"2012-08-09T12:15:00";"GMT";"222.10K";"213.00K";"208.50K";"Moderate"
"New Housing Price Index (MoM)";"Canada";"CAD";"2012-08-09T12:30:00";"GMT";"0.3%";"0.4%";"0.2%";"Moderate"
"Trade Balance";"Canada";"CAD";"2012-08-09T12:30:00";"GMT";"-1.0B";"-1.0B";"-1.8B";"Moderate"
