"French Manufacturing PMI";"France";"EUR";"2013-12-16T07:58:00";"GMT";"48.4";"49.1";"47.1";"Moderate"
"French Services PMI";"France";"EUR";"2013-12-16T07:58:00";"GMT";"48.0";"49.0";"47.4";"Moderate"
"German Manufacturing PMI";"Germany";"EUR";"2013-12-16T08:28:00";"GMT";"52.7";"53.0";"54.2";"High"
"German Services PMI";"Germany";"EUR";"2013-12-16T08:28:00";"GMT";"55.7";"55.5";"54.0";"Moderate"
"Manufacturing PMI";"Euro Zone";"EUR";"2013-12-16T08:58:00";"GMT";"51.6";"51.9";"52.7";"Moderate"
"Services PMI";"Euro Zone";"EUR";"2013-12-16T08:58:00";"GMT";"51.2";"51.5";"51.0";"Moderate"
"Italian Trade Balance";"Italy";"EUR";"2013-12-16T09:00:00";"GMT";"0.83B";"1.24B";"4.07B";"Low"
"Italian Trade Balance EU";"Italy";"EUR";"2013-12-16T09:00:00";"GMT";"0.51B";"";"1.17B";"Low"
"Trade Balance";"Euro Zone";"EUR";"2013-12-16T10:00:00";"GMT";"12.4B";"15.2B";"14.5B";"Moderate"
"ECB President Draghi Speaks";"Euro Zone";"EUR";"2013-12-16T14:00:00";"GMT";" ";"";"";"High"
"French 12-Month BTF Auction";"France";"EUR";"2013-12-16T14:00:00";"GMT";"0.191%";"";"0.265%";"Low"
"French 3-Month BTF Auction";"France";"EUR";"2013-12-16T14:00:00";"GMT";"0.120%";"";"0.181%";"Low"
"French 6-Month BTF Auction";"France";"EUR";"2013-12-16T14:00:00";"GMT";"0.158%";"";"0.207%";"Low"
