{"events": {"event": [
    {
      "eventDateTime": "2017-01-30T06:30:00",
      "eventActual": "39.7%",
      "eventCountry": "Euro Zone",
      "eventExpectedVolatility": "Moderate",
      "eventName": "Investing.com EUR/USD Index",
      "eventTimeZone": "GMT",
      "eventPrevious": "33.5%",
      "eventCurrency": "EUR",
      "eventForecast": ""
    },
    {
      "eventDateTime": "2017-01-30T08:00:00",
      "eventActual": "0.7%",
      "eventCountry": "Spain",
      "eventExpectedVolatility": "Moderate",
      "eventName": "Spanish GDP (QoQ) (Q4)",
      "eventTimeZone": "GMT",
      "eventPrevious": "0.7%",
      "eventCurrency": "EUR",
      "eventForecast": "0.7%"
    },
    {
      "eventDateTime": "2017-01-30T08:00:00",
      "eventActual": "3.0%",
      "eventCountry": "Spain",
      "eventExpectedVolatility": "Low",
      "eventName": "Spanish GDP (YoY) (Q4)",
      "eventTimeZone": "GMT",
      "eventPrevious": "3.2%",
      "eventCurrency": "EUR",
      "eventForecast": "3.0%"
    },
    {
      "eventDateTime": "2017-01-30T09:00:00",
      "eventActual": "",
      "eventCountry": "Euro Zone",
      "eventExpectedVolatility": "Moderate",
      "eventName": "ECB's Nowotny Speaks",
      "eventTimeZone": "GMT",
      "eventPrevious": "",
      "eventCurrency": "EUR",
      "eventForecast": ""
    },
    {
      "eventDateTime": "2017-01-30T10:00:00",
      "eventActual": "0.77",
      "eventCountry": "Euro Zone",
      "eventExpectedVolatility": "Low",
      "eventName": "Business Climate (Jan)",
      "eventTimeZone": "GMT",
      "eventPrevious": "0.79",
      "eventCurrency": "EUR",
      "eventForecast": "0.80"
    },
    {
      "eventDateTime": "2017-01-30T10:00:00",
      "eventActual": "108.2",
      "eventCountry": "Euro Zone",
      "eventExpectedVolatility": "Low",
      "eventName": "Business and Consumer Survey (Jan)",
      "eventTimeZone": "GMT",
      "eventPrevious": "107.8",
      "eventCurrency": "EUR",
      "eventForecast": "107.7"
    },
    {
      "eventDateTime": "2017-01-30T10:00:00",
      "eventActual": "-5.0",
      "eventCountry": "Euro Zone",
      "eventExpectedVolatility": "Low",
      "eventName": "Consumer Confidence (Jan)",
      "eventTimeZone": "GMT",
      "eventPrevious": "-5.1",
      "eventCurrency": "EUR",
      "eventForecast": "-5.0"
    },
    {
      "eventDateTime": "2017-01-30T10:00:00",
      "eventActual": "14.5",
      "eventCountry": "Euro Zone",
      "eventExpectedVolatility": "Low",
      "eventName": "Consumer Inflation Expectation (Jan)",
      "eventTimeZone": "GMT",
      "eventPrevious": "8.7",
      "eventCurrency": "EUR",
      "eventForecast": ""
    },
    {
      "eventDateTime": "2017-01-30T10:00:00",
      "eventActual": "1.0",
      "eventCountry": "Euro Zone",
      "eventExpectedVolatility": "Low",
      "eventName": "Industrial Sentiment (Jan)",
      "eventTimeZone": "GMT",
      "eventPrevious": "0.1",
      "eventCurrency": "EUR",
      "eventForecast": "0.2"
    },
    {
      "eventDateTime": "2017-01-30T10:00:00",
      "eventActual": "8.3",
      "eventCountry": "Euro Zone",
      "eventExpectedVolatility": "Low",
      "eventName": "Selling Price Expectations (Jan)",
      "eventTimeZone": "GMT",
      "eventPrevious": "5.4",
      "eventCurrency": "EUR",
      "eventForecast": ""
    },
    {
      "eventDateTime": "2017-01-30T10:00:00",
      "eventActual": "14.0",
      "eventCountry": "Euro Zone",
      "eventExpectedVolatility": "Low",
      "eventName": "Services Sentiment (Jan)",
      "eventTimeZone": "GMT",
      "eventPrevious": "13.0",
      "eventCurrency": "EUR",
      "eventForecast": "13.0"
    },
    {
      "eventDateTime": "2017-01-30T10:25:00",
      "eventActual": "2.37%",
      "eventCountry": "Italy",
      "eventExpectedVolatility": "Moderate",
      "eventName": "Italian 10-Year BTP Auction",
      "eventTimeZone": "GMT",
      "eventPrevious": "1.77%",
      "eventCurrency": "EUR",
      "eventForecast": ""
    },
    {
      "eventDateTime": "2017-01-30T10:25:00",
      "eventActual": "0.92%",
      "eventCountry": "Italy",
      "eventExpectedVolatility": "Low",
      "eventName": "Italian 5-Year BTP Auction",
      "eventTimeZone": "GMT",
      "eventPrevious": "0.54%",
      "eventCurrency": "EUR",
      "eventForecast": ""
    },
    {
      "eventDateTime": "2017-01-30T13:00:00",
      "eventActual": "-0.6%",
      "eventCountry": "Germany",
      "eventExpectedVolatility": "Moderate",
      "eventName": "German CPI (MoM) (Jan)",
      "eventTimeZone": "GMT",
      "eventPrevious": "0.7%",
      "eventCurrency": "EUR",
      "eventForecast": "-0.6%"
    },
    {
      "eventDateTime": "2017-01-30T13:00:00",
      "eventActual": "1.9%",
      "eventCountry": "Germany",
      "eventExpectedVolatility": "Low",
      "eventName": "German CPI (YoY) (Jan)",
      "eventTimeZone": "GMT",
      "eventPrevious": "1.7%",
      "eventCurrency": "EUR",
      "eventForecast": "2.0%"
    },
    {
      "eventDateTime": "2017-01-30T13:00:00",
      "eventActual": "-0.8%",
      "eventCountry": "Germany",
      "eventExpectedVolatility": "Low",
      "eventName": "German HICP (MoM) (Jan)",
      "eventTimeZone": "GMT",
      "eventPrevious": "1.0%",
      "eventCurrency": "EUR",
      "eventForecast": "-0.7%"
    },
    {
      "eventDateTime": "2017-01-30T13:00:00",
      "eventActual": "1.9%",
      "eventCountry": "Germany",
      "eventExpectedVolatility": "Low",
      "eventName": "German HICP (YoY) (Jan)",
      "eventTimeZone": "GMT",
      "eventPrevious": "1.7%",
      "eventCurrency": "EUR",
      "eventForecast": "2.0%"
    },
    {
      "eventDateTime": "2017-01-30T14:00:00",
      "eventActual": "-0.526%",
      "eventCountry": "France",
      "eventExpectedVolatility": "Low",
      "eventName": "French 12-Month BTF Auction",
      "eventTimeZone": "GMT",
      "eventPrevious": "-0.530%",
      "eventCurrency": "EUR",
      "eventForecast": ""
    },
    {
      "eventDateTime": "2017-01-30T14:00:00",
      "eventActual": "-0.561%",
      "eventCountry": "France",
      "eventExpectedVolatility": "Low",
      "eventName": "French 3-Month BTF Auction",
      "eventTimeZone": "GMT",
      "eventPrevious": "-0.552%",
      "eventCurrency": "EUR",
      "eventForecast": ""
    },
    {
      "eventDateTime": "2017-01-30T14:00:00",
      "eventActual": "-0.551%",
      "eventCountry": "France",
      "eventExpectedVolatility": "Low",
      "eventName": "French 6-Month BTF Auction",
      "eventTimeZone": "GMT",
      "eventPrevious": "-0.540%",
      "eventCurrency": "EUR",
      "eventForecast": ""
    }
  ]}}
