{"events": {"event": [
    {
      "eventDateTime": "2013-07-30T02:45:00",
      "eventActual": "0.127%",
      "eventCountry": "Japan",
      "eventExpectedVolatility": "Low",
      "eventName": "2-Year JGB Auction",
      "eventTimeZone": "GMT",
      "eventPrevious": "0.146%",
      "eventCurrency": "JPY",
      "eventForecast": ""
    },
    {
      "eventDateTime": "2013-07-30T23:13:00",
      "eventActual": "50.7",
      "eventCountry": "Japan",
      "eventExpectedVolatility": "Low",
      "eventName": "Manufacturing PMI",
      "eventTimeZone": "GMT",
      "eventPrevious": "52.3",
      "eventCurrency": "JPY",
      "eventForecast": ""
    }
  ]}}
