{"events": {"event": [
    {
      "eventDateTime": "2012-01-15T23:50:00",
      "eventActual": "14.8%",
      "eventCountry": "Japan",
      "eventExpectedVolatility": "Low",
      "eventName": "Core Machinery Orders (MoM)",
      "eventTimeZone": "GMT",
      "eventPrevious": "-6.9%",
      "eventCurrency": "JPY",
      "eventForecast": "5.5%"
    },
    {
      "eventDateTime": "2012-01-15T23:50:00",
      "eventActual": "1.3%",
      "eventCountry": "Japan",
      "eventExpectedVolatility": "Low",
      "eventName": "PPI (YoY)",
      "eventTimeZone": "GMT",
      "eventPrevious": "1.6%",
      "eventCurrency": "JPY",
      "eventForecast": "1.2%"
    }
  ]}}
