"GfK German Consumer Climate";"Germany";"EUR";"2013-06-26T06:00:00";"GMT";"6.5";"6.5";"6.8";"Moderate"
"French GDP (QoQ)";"France";"EUR";"2013-06-26T06:45:00";"GMT";"-0.2%";"-0.2%";"-0.2%";"Moderate"
"ECB President Draghi Speaks";"Euro Zone";"EUR";"2013-06-26T07:30:00";"GMT";" ";"";"";"High"
"Italian 6-Month BOT Auction";"Italy";"EUR";"2013-06-26T09:10:00";"GMT";"0.538%";"";"1.052%";"Low"
