{"events": {"event": {
    "eventDateTime": "2013-02-27T00:30:00",
    "eventActual": "-0.1%",
    "eventCountry": "Australia",
    "eventExpectedVolatility": "Moderate",
    "eventName": "Construction Work Done (QoQ)",
    "eventTimeZone": "GMT",
    "eventPrevious": "1.9%",
    "eventCurrency": "AUD",
    "eventForecast": "1.5%"
  }}}
