{"events": {"event": [
    {
      "eventDateTime": "2018-08-16T01:00:00",
      "eventActual": "4.0%",
      "eventCountry": "Australia",
      "eventExpectedVolatility": "Low",
      "eventName": "MI Inflation Expectations",
      "eventTimeZone": "GMT",
      "eventPrevious": "3.9%",
      "eventCurrency": "AUD",
      "eventForecast": ""
    },
    {
      "eventDateTime": "2018-08-16T01:30:00",
      "eventActual": "-3.9K",
      "eventCountry": "Australia",
      "eventExpectedVolatility": "High",
      "eventName": "Employment Change (Jul)",
      "eventTimeZone": "GMT",
      "eventPrevious": "58.2K",
      "eventCurrency": "AUD",
      "eventForecast": "15.0K"
    },
    {
      "eventDateTime": "2018-08-16T01:30:00",
      "eventActual": "19.3K",
      "eventCountry": "Australia",
      "eventExpectedVolatility": "Moderate",
      "eventName": "Full Employment Change (Jul)",
      "eventTimeZone": "GMT",
      "eventPrevious": "43.2K",
      "eventCurrency": "AUD",
      "eventForecast": ""
    },
    {
      "eventDateTime": "2018-08-16T01:30:00",
      "eventActual": "65.5%",
      "eventCountry": "Australia",
      "eventExpectedVolatility": "Low",
      "eventName": "Participation Rate (Jul)",
      "eventTimeZone": "GMT",
      "eventPrevious": "65.7%",
      "eventCurrency": "AUD",
      "eventForecast": "65.7%"
    },
    {
      "eventDateTime": "2018-08-16T01:30:00",
      "eventActual": "5.3%",
      "eventCountry": "Australia",
      "eventExpectedVolatility": "Moderate",
      "eventName": "Unemployment Rate (Jul)",
      "eventTimeZone": "GMT",
      "eventPrevious": "5.4%",
      "eventCurrency": "AUD",
      "eventForecast": "5.4%"
    },
    {
      "eventDateTime": "2018-08-16T23:30:00",
      "eventActual": "",
      "eventCountry": "Australia",
      "eventExpectedVolatility": "Moderate",
      "eventName": "RBA Governor Lowe Speaks",
      "eventTimeZone": "GMT",
      "eventPrevious": "",
      "eventCurrency": "AUD",
      "eventForecast": ""
    }
  ]}}
