{"events": {"event": [
    {
      "eventDateTime": "2001-12-01T09:00:00",
      "eventActual": "0.10%",
      "eventCountry": "Switzerland",
      "eventExpectedVolatility": "Moderate",
      "eventName": "CPI (MoM) (Nov)",
      "eventTimeZone": "GMT",
      "eventPrevious": "-0.20%",
      "eventCurrency": "CHF",
      "eventForecast": ""
    },
    {
      "eventDateTime": "2001-12-01T09:00:00",
      "eventActual": "0.30%",
      "eventCountry": "Switzerland",
      "eventExpectedVolatility": "Low",
      "eventName": "CPI (YoY) (Nov)",
      "eventTimeZone": "GMT",
      "eventPrevious": "0.60%",
      "eventCurrency": "CHF",
      "eventForecast": ""
    },
    {
      "eventDateTime": "2001-12-01T09:00:00",
      "eventActual": "1.41",
      "eventCountry": "Switzerland",
      "eventExpectedVolatility": "Low",
      "eventName": "Consumption Indicator (Nov)",
      "eventTimeZone": "GMT",
      "eventPrevious": "1.83",
      "eventCurrency": "CHF",
      "eventForecast": ""
    },
    {
      "eventDateTime": "2001-12-01T09:00:00",
      "eventActual": "82.00",
      "eventCountry": "Switzerland",
      "eventExpectedVolatility": "Moderate",
      "eventName": "KOF Leading Indicators (Nov)",
      "eventTimeZone": "GMT",
      "eventPrevious": "83.40",
      "eventCurrency": "CHF",
      "eventForecast": ""
    },
    {
      "eventDateTime": "2001-12-01T09:00:00",
      "eventActual": "-0.50%",
      "eventCountry": "Switzerland",
      "eventExpectedVolatility": "Moderate",
      "eventName": "PPI (MoM) (Nov)",
      "eventTimeZone": "GMT",
      "eventPrevious": "-0.60%",
      "eventCurrency": "CHF",
      "eventForecast": ""
    },
    {
      "eventDateTime": "2001-12-01T09:00:00",
      "eventActual": "-2.00%",
      "eventCountry": "Switzerland",
      "eventExpectedVolatility": "Low",
      "eventName": "PPI (YoY) (Nov)",
      "eventTimeZone": "GMT",
      "eventPrevious": "-1.40%",
      "eventCurrency": "CHF",
      "eventForecast": ""
    },
    {
      "eventDateTime": "2001-12-01T09:00:00",
      "eventActual": "2.10%",
      "eventCountry": "Switzerland",
      "eventExpectedVolatility": "Moderate",
      "eventName": "Retail Sales (YoY) (Nov)",
      "eventTimeZone": "GMT",
      "eventPrevious": "1.60%",
      "eventCurrency": "CHF",
      "eventForecast": ""
    },
    {
      "eventDateTime": "2001-12-01T09:00:00",
      "eventActual": "0.91B",
      "eventCountry": "Switzerland",
      "eventExpectedVolatility": "Low",
      "eventName": "Trade Balance (Nov)",
      "eventTimeZone": "GMT",
      "eventPrevious": "0.33B",
      "eventCurrency": "CHF",
      "eventForecast": ""
    },
    {
      "eventDateTime": "2001-12-01T09:00:00",
      "eventActual": "2.00%",
      "eventCountry": "Switzerland",
      "eventExpectedVolatility": "Moderate",
      "eventName": "Unemployment Rate n.s.a. (Nov)",
      "eventTimeZone": "GMT",
      "eventPrevious": "1.70%",
      "eventCurrency": "CHF",
      "eventForecast": ""
    },
    {
      "eventDateTime": "2001-12-01T09:00:00",
      "eventActual": "1.90%",
      "eventCountry": "Switzerland",
      "eventExpectedVolatility": "Moderate",
      "eventName": "Unemployment Rate s.a. (Nov)",
      "eventTimeZone": "GMT",
      "eventPrevious": "1.80%",
      "eventCurrency": "CHF",
      "eventForecast": ""
    },
    {
      "eventDateTime": "2001-12-01T09:00:00",
      "eventActual": "39.00",
      "eventCountry": "Switzerland",
      "eventExpectedVolatility": "Moderate",
      "eventName": "procure.ch PMI (Nov)",
      "eventTimeZone": "GMT",
      "eventPrevious": "41.10",
      "eventCurrency": "CHF",
      "eventForecast": ""
    }
  ]}}
