{"events": {"event": [
    {
      "eventDateTime": "2015-02-03T08:00:00",
      "eventActual": "78.0K",
      "eventCountry": "Spain",
      "eventExpectedVolatility": "Moderate",
      "eventName": "Spanish Unemployment Change",
      "eventTimeZone": "GMT",
      "eventPrevious": "-64.4K",
      "eventCurrency": "EUR",
      "eventForecast": "-32.4K"
    },
    {
      "eventDateTime": "2015-02-03T10:00:00",
      "eventActual": "-0.4%",
      "eventCountry": "Italy",
      "eventExpectedVolatility": "Moderate",
      "eventName": "Italian CPI (MoM) (Jan)",
      "eventTimeZone": "GMT",
      "eventPrevious": "0.0%",
      "eventCurrency": "EUR",
      "eventForecast": "0.1%"
    },
    {
      "eventDateTime": "2015-02-03T10:00:00",
      "eventActual": "-0.6%",
      "eventCountry": "Italy",
      "eventExpectedVolatility": "Low",
      "eventName": "Italian CPI (YoY) (Jan)",
      "eventTimeZone": "GMT",
      "eventPrevious": "0.0%",
      "eventCurrency": "EUR",
      "eventForecast": "-0.3%"
    },
    {
      "eventDateTime": "2015-02-03T10:00:00",
      "eventActual": "-2.4%",
      "eventCountry": "Italy",
      "eventExpectedVolatility": "Low",
      "eventName": "Italian HICP (MoM) (Jan)",
      "eventTimeZone": "GMT",
      "eventPrevious": "0.0%",
      "eventCurrency": "EUR",
      "eventForecast": "-2.4%"
    },
    {
      "eventDateTime": "2015-02-03T10:00:00",
      "eventActual": "-0.4%",
      "eventCountry": "Italy",
      "eventExpectedVolatility": "Low",
      "eventName": "Italian HICP (YoY) (Jan)",
      "eventTimeZone": "GMT",
      "eventPrevious": "-0.1%",
      "eventCurrency": "EUR",
      "eventForecast": "-0.4%"
    },
    {
      "eventDateTime": "2015-02-03T10:00:00",
      "eventActual": "-1.0%",
      "eventCountry": "Euro Zone",
      "eventExpectedVolatility": "Low",
      "eventName": "PPI (MoM) (Dec)",
      "eventTimeZone": "GMT",
      "eventPrevious": "-0.3%",
      "eventCurrency": "EUR",
      "eventForecast": "-0.7%"
    },
    {
      "eventDateTime": "2015-02-03T10:00:00",
      "eventActual": "-2.7%",
      "eventCountry": "Euro Zone",
      "eventExpectedVolatility": "Low",
      "eventName": "PPI (YoY) (Dec)",
      "eventTimeZone": "GMT",
      "eventPrevious": "-1.6%",
      "eventCurrency": "EUR",
      "eventForecast": "-2.5%"
    }
  ]}}
