"German GDP (QoQ)";"Germany";"EUR";"2008-02-14T02:00:00";"GMT";"0.7%";"0.3%";"0.3%";"High"
"French GDP (QoQ)";"France";"EUR";"2008-02-14T02:45:00";"GMT";"0.8%";"0.3%";"0.3%";"Moderate"
"GDP (QoQ)";"Euro Zone";"EUR";"2008-02-14T05:00:00";"GMT";"0.3%";"0.3%";"0.0%";"Moderate"
