{"events": {"event": {
    "eventDateTime": "2014-04-18T19:30:00",
    "eventActual": "8.1K",
    "eventCountry": "Australia",
    "eventExpectedVolatility": "Moderate",
    "eventName": "CFTC AUD speculative net positions",
    "eventTimeZone": "GMT",
    "eventPrevious": "3.3K",
    "eventCurrency": "AUD",
    "eventForecast": ""
  }}}
