{"events": {"event": [
    {
      "eventDateTime": "2019-05-24T08:30:00",
      "eventActual": "-0.2%",
      "eventCountry": "United Kingdom",
      "eventExpectedVolatility": "Moderate",
      "eventName": "Core Retail Sales (MoM) (Apr)",
      "eventTimeZone": "GMT",
      "eventPrevious": "1.4%",
      "eventCurrency": "GBP",
      "eventForecast": "-0.5%"
    },
    {
      "eventDateTime": "2019-05-24T08:30:00",
      "eventActual": "4.9%",
      "eventCountry": "United Kingdom",
      "eventExpectedVolatility": "Moderate",
      "eventName": "Core Retail Sales (YoY) (Apr)",
      "eventTimeZone": "GMT",
      "eventPrevious": "6.3%",
      "eventCurrency": "GBP",
      "eventForecast": "4.2%"
    },
    {
      "eventDateTime": "2019-05-24T08:30:00",
      "eventActual": "0.0%",
      "eventCountry": "United Kingdom",
      "eventExpectedVolatility": "High",
      "eventName": "Retail Sales (MoM) (Apr)",
      "eventTimeZone": "GMT",
      "eventPrevious": "1.2%",
      "eventCurrency": "GBP",
      "eventForecast": "-0.3%"
    },
    {
      "eventDateTime": "2019-05-24T08:30:00",
      "eventActual": "5.2%",
      "eventCountry": "United Kingdom",
      "eventExpectedVolatility": "Moderate",
      "eventName": "Retail Sales (YoY) (Apr)",
      "eventTimeZone": "GMT",
      "eventPrevious": "6.7%",
      "eventCurrency": "GBP",
      "eventForecast": "4.6%"
    },
    {
      "eventDateTime": "2019-05-24T09:15:00",
      "eventActual": "",
      "eventCountry": "United Kingdom",
      "eventExpectedVolatility": "Moderate",
      "eventName": "BoE Deputy Governor Woods Speaks",
      "eventTimeZone": "GMT",
      "eventPrevious": "",
      "eventCurrency": "GBP",
      "eventForecast": ""
    },
    {
      "eventDateTime": "2019-05-24T10:00:00",
      "eventActual": "-27",
      "eventCountry": "United Kingdom",
      "eventExpectedVolatility": "Low",
      "eventName": "CBI Distributive Trades Survey (May)",
      "eventTimeZone": "GMT",
      "eventPrevious": "13",
      "eventCurrency": "GBP",
      "eventForecast": "8"
    },
    {
      "eventDateTime": "2019-05-24T19:30:00",
      "eventActual": "-26.2K",
      "eventCountry": "United Kingdom",
      "eventExpectedVolatility": "Moderate",
      "eventName": "CFTC GBP speculative net positions",
      "eventTimeZone": "GMT",
      "eventPrevious": "-3.3K",
      "eventCurrency": "GBP",
      "eventForecast": ""
    }
  ]}}
