"RBI Monetary and Credit Information Review";"India";"INR";"2018-01-31T04:30:00";"GMT";" ";"";"";"Moderate"
"Infrastructure Output (YoY) (Dec)";"India";"INR";"2018-01-31T11:30:00";"GMT";"7.4%";"";"4.0%";"Low"
"M3 Money Supply";"India";"INR";"2018-01-31T11:30:00";"GMT";"10.7%";"";"10.8%";"Low"
"GDP Annual";"India";"INR";"2018-01-31T12:00:00";"GMT";"7.1%";"";"7.1%";"Low"
