"Italian Retail Sales (MoM)";"Italy";"EUR";"2009-08-31T08:00:00";"GMT";"0.1%";"0.2%";"-0.4%";"Low"
"CPI (YoY)";"Euro Zone";"EUR";"2009-08-31T09:00:00";"GMT";"-0.7%";"-0.5%";"-0.2%";"High"
"Italian CPI (MoM)";"Italy";"EUR";"2009-08-31T09:00:00";"GMT";"0.0%";"0.2%";"0.4%";"Moderate"
