{"events": {"event": [
    {
      "eventDateTime": "2015-08-06T06:00:00",
      "eventActual": "2.0%",
      "eventCountry": "Germany",
      "eventExpectedVolatility": "Moderate",
      "eventName": "German Factory Orders (MoM) (Jun)",
      "eventTimeZone": "GMT",
      "eventPrevious": "-0.3%",
      "eventCurrency": "EUR",
      "eventForecast": "0.2%"
    },
    {
      "eventDateTime": "2015-08-06T08:10:00",
      "eventActual": "54.2",
      "eventCountry": "Euro Zone",
      "eventExpectedVolatility": "Low",
      "eventName": "Retail PMI",
      "eventTimeZone": "GMT",
      "eventPrevious": "50.4",
      "eventCurrency": "EUR",
      "eventForecast": ""
    },
    {
      "eventDateTime": "2015-08-06T08:50:00",
      "eventActual": "1.982%",
      "eventCountry": "Spain",
      "eventExpectedVolatility": "Moderate",
      "eventName": "Spanish 10-Year Obligacion Auction",
      "eventTimeZone": "GMT",
      "eventPrevious": "2.099%",
      "eventCurrency": "EUR",
      "eventForecast": ""
    },
    {
      "eventDateTime": "2015-08-06T08:50:00",
      "eventActual": "0.341%",
      "eventCountry": "Spain",
      "eventExpectedVolatility": "Low",
      "eventName": "Spanish 3-Year Bonos Auction",
      "eventTimeZone": "GMT",
      "eventPrevious": "0.395%",
      "eventCurrency": "EUR",
      "eventForecast": ""
    },
    {
      "eventDateTime": "2015-08-06T08:50:00",
      "eventActual": "0.916%",
      "eventCountry": "Spain",
      "eventExpectedVolatility": "Low",
      "eventName": "Spanish 5-Year Bonos Auction",
      "eventTimeZone": "GMT",
      "eventPrevious": "1.291%",
      "eventCurrency": "EUR",
      "eventForecast": ""
    },
    {
      "eventDateTime": "2015-08-06T09:00:00",
      "eventActual": "1.02%",
      "eventCountry": "France",
      "eventExpectedVolatility": "Low",
      "eventName": "French 10-Year OAT Auction",
      "eventTimeZone": "GMT",
      "eventPrevious": "1.30%",
      "eventCurrency": "EUR",
      "eventForecast": ""
    },
    {
      "eventDateTime": "2015-08-06T09:00:00",
      "eventActual": "0.73%",
      "eventCountry": "France",
      "eventExpectedVolatility": "Low",
      "eventName": "French 8-Year OAT Auction",
      "eventTimeZone": "GMT",
      "eventPrevious": "0.95%",
      "eventCurrency": "EUR",
      "eventForecast": ""
    }
  ]}}
