{"events": {"event": [
    {
      "eventDateTime": "2017-03-17T09:00:00",
      "eventActual": "-0.570B",
      "eventCountry": "Italy",
      "eventExpectedVolatility": "Low",
      "eventName": "Italian Trade Balance (Jan)",
      "eventTimeZone": "GMT",
      "eventPrevious": "5.730B",
      "eventCurrency": "EUR",
      "eventForecast": "3.450B"
    },
    {
      "eventDateTime": "2017-03-17T09:00:00",
      "eventActual": "0.32B",
      "eventCountry": "Italy",
      "eventExpectedVolatility": "Low",
      "eventName": "Italian Trade Balance EU (Jan)",
      "eventTimeZone": "GMT",
      "eventPrevious": "0.57B",
      "eventCurrency": "EUR",
      "eventForecast": ""
    },
    {
      "eventDateTime": "2017-03-17T10:00:00",
      "eventActual": "-0.6B",
      "eventCountry": "Euro Zone",
      "eventExpectedVolatility": "Moderate",
      "eventName": "Trade Balance (Jan)",
      "eventTimeZone": "GMT",
      "eventPrevious": "28.1B",
      "eventCurrency": "EUR",
      "eventForecast": ""
    },
    {
      "eventDateTime": "2017-03-17T20:30:00",
      "eventActual": "-41.0K",
      "eventCountry": "Euro Zone",
      "eventExpectedVolatility": "Moderate",
      "eventName": "CFTC EUR speculative net positions",
      "eventTimeZone": "GMT",
      "eventPrevious": "-59.5K",
      "eventCurrency": "EUR",
      "eventForecast": ""
    }
  ]}}
