{"events": {"event": {
    "eventDateTime": "2008-11-12T00:30:00",
    "eventActual": "0.9%",
    "eventCountry": "Australia",
    "eventExpectedVolatility": "Moderate",
    "eventName": "Wage Price Index (QoQ)",
    "eventTimeZone": "GMT",
    "eventPrevious": "1.2%",
    "eventCurrency": "AUD",
    "eventForecast": "1.0%"
  }}}
