{"events": {"event": {
    "eventDateTime": "2019-07-04T13:00:00",
    "eventActual": "517.1B",
    "eventCountry": "Russia",
    "eventExpectedVolatility": "Moderate",
    "eventName": "Central Bank reserves (USD)",
    "eventTimeZone": "GMT",
    "eventPrevious": "510.2B",
    "eventCurrency": "RUB",
    "eventForecast": ""
  }}}
