"Employment Change";"Canada";"CAD";"2011-02-04T12:00:00";"GMT";"22.0K";"21.2K";"69.2K";"High"
"Unemployment Rate";"Canada";"CAD";"2011-02-04T12:00:00";"GMT";"7.6%";"7.6%";"7.8%";"Moderate"
"Ivey PMI";"Canada";"CAD";"2011-02-04T15:00:00";"GMT";"50.0";"53.7";"41.4";"High"
"CFTC CAD speculative net positions";"Canada";"CAD";"2011-02-04T20:30:00";"GMT";"31.7K";"";"33.8K";"Low"
