"Average Cash Earnings (YoY)";"Japan";"JPY";"2011-03-31T01:30:00";"GMT";"0.4%";"0.3%";"0.3%";"Low"
"Housing Starts (YoY)";"Japan";"JPY";"2011-03-31T05:00:00";"GMT";"2.7%";"7.4%";"10.1%";"Low"
"Tankan Large Manufacturers Index";"Japan";"JPY";"2011-03-31T23:50:00";"GMT";"5";"6";"6";"High"
"Tankan Large Non-Manufacturers Index";"Japan";"JPY";"2011-03-31T23:50:00";"GMT";"1";"2";"3";"High"
