{"events": {"event": [
    {
      "eventDateTime": "2019-07-12T06:00:00",
      "eventActual": "-0.5%",
      "eventCountry": "Germany",
      "eventExpectedVolatility": "Low",
      "eventName": "German WPI (MoM) (Jun)",
      "eventTimeZone": "GMT",
      "eventPrevious": "0.3%",
      "eventCurrency": "EUR",
      "eventForecast": "0.2%"
    },
    {
      "eventDateTime": "2019-07-12T06:00:00",
      "eventActual": "0.3%",
      "eventCountry": "Germany",
      "eventExpectedVolatility": "Low",
      "eventName": "German WPI (YoY) (Jun)",
      "eventTimeZone": "GMT",
      "eventPrevious": "1.6%",
      "eventCurrency": "EUR",
      "eventForecast": "1.3%"
    },
    {
      "eventDateTime": "2019-07-12T07:00:00",
      "eventActual": "-0.1%",
      "eventCountry": "Spain",
      "eventExpectedVolatility": "Low",
      "eventName": "Spanish CPI (MoM) (Jun)",
      "eventTimeZone": "GMT",
      "eventPrevious": "0.2%",
      "eventCurrency": "EUR",
      "eventForecast": "-0.1%"
    },
    {
      "eventDateTime": "2019-07-12T07:00:00",
      "eventActual": "0.4%",
      "eventCountry": "Spain",
      "eventExpectedVolatility": "Moderate",
      "eventName": "Spanish CPI (YoY) (Jun)",
      "eventTimeZone": "GMT",
      "eventPrevious": "0.8%",
      "eventCurrency": "EUR",
      "eventForecast": "0.4%"
    },
    {
      "eventDateTime": "2019-07-12T07:00:00",
      "eventActual": "-0.1%",
      "eventCountry": "Spain",
      "eventExpectedVolatility": "Low",
      "eventName": "Spanish HICP (MoM) (Jun)",
      "eventTimeZone": "GMT",
      "eventPrevious": "0.2%",
      "eventCurrency": "EUR",
      "eventForecast": "-0.1%"
    },
    {
      "eventDateTime": "2019-07-12T07:00:00",
      "eventActual": "0.6%",
      "eventCountry": "Spain",
      "eventExpectedVolatility": "Moderate",
      "eventName": "Spanish HICP (YoY) (Jun)",
      "eventTimeZone": "GMT",
      "eventPrevious": "0.6%",
      "eventCurrency": "EUR",
      "eventForecast": "0.6%"
    },
    {
      "eventDateTime": "2019-07-12T09:00:00",
      "eventActual": "0.9%",
      "eventCountry": "Euro Zone",
      "eventExpectedVolatility": "Moderate",
      "eventName": "Industrial Production (MoM) (May)",
      "eventTimeZone": "GMT",
      "eventPrevious": "-0.4%",
      "eventCurrency": "EUR",
      "eventForecast": "0.2%"
    },
    {
      "eventDateTime": "2019-07-12T09:00:00",
      "eventActual": "-0.5%",
      "eventCountry": "Euro Zone",
      "eventExpectedVolatility": "Low",
      "eventName": "Industrial Production (YoY) (May)",
      "eventTimeZone": "GMT",
      "eventPrevious": "-0.4%",
      "eventCurrency": "EUR",
      "eventForecast": "-1.6%"
    },
    {
      "eventDateTime": "2019-07-12T10:00:00",
      "eventActual": "",
      "eventCountry": "Euro Zone",
      "eventExpectedVolatility": "Moderate",
      "eventName": "EU Finance Ministers Meeting",
      "eventTimeZone": "GMT",
      "eventPrevious": "",
      "eventCurrency": "EUR",
      "eventForecast": ""
    },
    {
      "eventDateTime": "2019-07-12T19:30:00",
      "eventActual": "-35.9K",
      "eventCountry": "Euro Zone",
      "eventExpectedVolatility": "Moderate",
      "eventName": "CFTC EUR speculative net positions",
      "eventTimeZone": "GMT",
      "eventPrevious": "-31.7K",
      "eventCurrency": "EUR",
      "eventForecast": ""
    }
  ]}}
