"Core PCE Price Index (MoM)";"United States";"USD";"2011-10-28T12:30:00";"GMT";"0.2%";"0.2%";"0.0%";"Moderate"
"Employment Cost Index (QoQ)";"United States";"USD";"2011-10-28T12:30:00";"GMT";"0.7%";"0.6%";"0.3%";"Moderate"
"Personal Income (MoM)";"United States";"USD";"2011-10-28T12:30:00";"GMT";"-0.1%";"0.3%";"0.1%";"Low"
"Personal Spending (MoM)";"United States";"USD";"2011-10-28T12:30:00";"GMT";"0.2%";"0.6%";"0.6%";"Moderate"
"Michigan Consumer Sentiment";"United States";"USD";"2011-10-28T13:55:00";"GMT";"57.5";"58.0";"60.9";"Moderate"
"Michigan Inflation Expectations";"United States";"USD";"2011-10-28T13:55:00";"GMT";"3.2%";"";"3.2%";"Low"
"U.S. Baker Hughes Oil Rig Count";"United States";"USD";"2011-10-28T17:00:00";"GMT";"1079";"";"1078";"Moderate"
"CFTC Gold speculative net positions";"United States";"USD";"2011-10-28T19:30:00";"GMT";"127.0K";"";"129.7K";"Moderate"
"CFTC Silver speculative net positions";"United States";"USD";"2011-10-28T19:30:00";"GMT";"10.4K";"";"11.0K";"Low"
"CFTC Crude Oil speculative net positions";"United States";"USD";"2011-10-28T20:30:00";"GMT";"144.4k";"";"159.7k";"Moderate"
