{"events": {"event": {
    "eventDateTime": "2018-05-15T14:20:00",
    "eventActual": "1.9%",
    "eventCountry": "New Zealand",
    "eventExpectedVolatility": "Moderate",
    "eventName": "GlobalDairyTrade Price Index",
    "eventTimeZone": "GMT",
    "eventPrevious": "-1.1%",
    "eventCurrency": "NZD",
    "eventForecast": ""
  }}}
