{"events": {"event": [
    {
      "eventDateTime": "2019-05-14T03:35:00",
      "eventActual": "0.530%",
      "eventCountry": "Japan",
      "eventExpectedVolatility": "Low",
      "eventName": "30-Year JGB Auction",
      "eventTimeZone": "GMT",
      "eventPrevious": "0.540%",
      "eventCurrency": "JPY",
      "eventForecast": ""
    },
    {
      "eventDateTime": "2019-05-14T05:00:00",
      "eventActual": "45.3",
      "eventCountry": "Japan",
      "eventExpectedVolatility": "Low",
      "eventName": "Economy Watchers Current Index (Apr)",
      "eventTimeZone": "GMT",
      "eventPrevious": "44.8",
      "eventCurrency": "JPY",
      "eventForecast": "45.9"
    },
    {
      "eventDateTime": "2019-05-14T23:50:00",
      "eventActual": "2.6%",
      "eventCountry": "Japan",
      "eventExpectedVolatility": "Low",
      "eventName": "M2 Money Stock (YoY)",
      "eventTimeZone": "GMT",
      "eventPrevious": "2.4%",
      "eventCurrency": "JPY",
      "eventForecast": "2.3%"
    }
  ]}}
