"M3 Money Supply (YoY)";"Euro Zone";"EUR";"2008-03-31T08:00:00";"GMT";"11.5%";"11.5%";"11.3%";"Low"
"CPI (YoY)";"Euro Zone";"EUR";"2008-03-31T09:00:00";"GMT";"3.2%";"3.3%";"3.5%";"High"
"Consumer Confidence";"Euro Zone";"EUR";"2008-03-31T09:00:00";"GMT";"-12.0";"-12.0";"-12.0";"Low"
"Italian CPI (MoM)";"Italy";"EUR";"2008-03-31T09:00:00";"GMT";"0.2%";"0.2%";"0.5%";"Moderate"
