{"events": {"event": [
    {
      "eventDateTime": "2018-04-24T05:00:00",
      "eventActual": "0.7%",
      "eventCountry": "Japan",
      "eventExpectedVolatility": "Low",
      "eventName": "BoJ Core CPI (YoY)",
      "eventTimeZone": "GMT",
      "eventPrevious": "0.8%",
      "eventCurrency": "JPY",
      "eventForecast": "0.7%"
    },
    {
      "eventDateTime": "2018-04-24T05:00:00",
      "eventActual": "106.0",
      "eventCountry": "Japan",
      "eventExpectedVolatility": "Low",
      "eventName": "Leading Index",
      "eventTimeZone": "GMT",
      "eventPrevious": "105.8",
      "eventCurrency": "JPY",
      "eventForecast": "105.8"
    }
  ]}}
