{"events": {"event": [
    {
      "eventDateTime": "2016-10-31T00:00:00",
      "eventActual": "24.5",
      "eventCountry": "New Zealand",
      "eventExpectedVolatility": "Moderate",
      "eventName": "ANZ Business Confidence (Oct)",
      "eventTimeZone": "GMT",
      "eventPrevious": "27.9",
      "eventCurrency": "NZD",
      "eventForecast": ""
    },
    {
      "eventDateTime": "2016-10-31T00:00:00",
      "eventActual": "38.4%",
      "eventCountry": "New Zealand",
      "eventExpectedVolatility": "Low",
      "eventName": "NBNZ Own Activity (Oct)",
      "eventTimeZone": "GMT",
      "eventPrevious": "42.4%",
      "eventCurrency": "NZD",
      "eventForecast": ""
    },
    {
      "eventDateTime": "2016-10-31T06:30:00",
      "eventActual": "42.4%",
      "eventCountry": "New Zealand",
      "eventExpectedVolatility": "Moderate",
      "eventName": "Investing.com NZD/USD Index",
      "eventTimeZone": "GMT",
      "eventPrevious": "44.2%",
      "eventCurrency": "NZD",
      "eventForecast": ""
    }
  ]}}
