{"events": {"event": [
    {
      "eventDateTime": "2012-04-11T11:00:00",
      "eventActual": "-2.4%",
      "eventCountry": "United States",
      "eventExpectedVolatility": "Low",
      "eventName": "MBA Mortgage Applications (WoW)",
      "eventTimeZone": "GMT",
      "eventPrevious": "4.8%",
      "eventCurrency": "USD",
      "eventForecast": ""
    },
    {
      "eventDateTime": "2012-04-11T12:30:00",
      "eventActual": "1.3%",
      "eventCountry": "United States",
      "eventExpectedVolatility": "Moderate",
      "eventName": "Import Price Index (MoM)",
      "eventTimeZone": "GMT",
      "eventPrevious": "-0.1%",
      "eventCurrency": "USD",
      "eventForecast": "0.8%"
    },
    {
      "eventDateTime": "2012-04-11T14:30:00",
      "eventActual": "2.791M",
      "eventCountry": "United States",
      "eventExpectedVolatility": "High",
      "eventName": "Crude Oil Inventories",
      "eventTimeZone": "GMT",
      "eventPrevious": "9.009M",
      "eventCurrency": "USD",
      "eventForecast": "2.125M"
    },
    {
      "eventDateTime": "2012-04-11T14:30:00",
      "eventActual": "-4.277M",
      "eventCountry": "United States",
      "eventExpectedVolatility": "Low",
      "eventName": "Gasoline Inventories",
      "eventTimeZone": "GMT",
      "eventPrevious": "-1.457M",
      "eventCurrency": "USD",
      "eventForecast": "-1.344M"
    },
    {
      "eventDateTime": "2012-04-11T17:00:00",
      "eventActual": "2.043%",
      "eventCountry": "United States",
      "eventExpectedVolatility": "Moderate",
      "eventName": "10-Year Note Auction",
      "eventTimeZone": "GMT",
      "eventPrevious": "2.076%",
      "eventCurrency": "USD",
      "eventForecast": ""
    },
    {
      "eventDateTime": "2012-04-11T18:00:00",
      "eventActual": "",
      "eventCountry": "United States",
      "eventExpectedVolatility": "Moderate",
      "eventName": "Beige Book",
      "eventTimeZone": "GMT",
      "eventPrevious": "",
      "eventCurrency": "USD",
      "eventForecast": ""
    },
    {
      "eventDateTime": "2012-04-11T18:00:00",
      "eventActual": "-198.2B",
      "eventCountry": "United States",
      "eventExpectedVolatility": "Moderate",
      "eventName": "Federal Budget Balance",
      "eventTimeZone": "GMT",
      "eventPrevious": "-232.0B",
      "eventCurrency": "USD",
      "eventForecast": "-196.0B"
    }
  ]}}
