{"events": {"event": [
    {
      "eventDateTime": "2018-09-17T02:00:00",
      "eventActual": "8.7%",
      "eventCountry": "South Korea",
      "eventExpectedVolatility": "Low",
      "eventName": "Exports (YoY) (Aug)",
      "eventTimeZone": "GMT",
      "eventPrevious": "8.7%",
      "eventCurrency": "KRW",
      "eventForecast": ""
    },
    {
      "eventDateTime": "2018-09-17T02:00:00",
      "eventActual": "9.4%",
      "eventCountry": "South Korea",
      "eventExpectedVolatility": "Low",
      "eventName": "Imports (YoY) (Aug)",
      "eventTimeZone": "GMT",
      "eventPrevious": "9.2%",
      "eventCurrency": "KRW",
      "eventForecast": ""
    },
    {
      "eventDateTime": "2018-09-17T02:00:00",
      "eventActual": "6.85B",
      "eventCountry": "South Korea",
      "eventExpectedVolatility": "Low",
      "eventName": "Trade Balance (Aug)",
      "eventTimeZone": "GMT",
      "eventPrevious": "6.90B",
      "eventCurrency": "KRW",
      "eventForecast": ""
    }
  ]}}
