{"events": {"event": {
    "eventDateTime": "2018-01-26T20:30:00",
    "eventActual": "26.1K",
    "eventCountry": "Russia",
    "eventExpectedVolatility": "Moderate",
    "eventName": "CFTC RUB speculative positions",
    "eventTimeZone": "GMT",
    "eventPrevious": "27.1K",
    "eventCurrency": "RUB",
    "eventForecast": ""
  }}}
