"MI Inflation Gauge (MoM)";"Australia";"AUD";"2018-04-02T01:00:00";"GMT";"-0.1%";"";"0.1%";"Low"
"Investing.com AUD/USD Index";"Australia";"AUD";"2018-04-02T05:30:00";"GMT";"55.5%";"";"54.3%";"Moderate"
"AIG Manufacturing Index (Mar)";"Australia";"AUD";"2018-04-02T22:30:00";"GMT";"57.5";"";"63.1";"Moderate"
