"Tankan Large Manufacturers Index";"Japan";"JPY";"2013-12-15T23:50:00";"GMT";"12";"15";"16";"High"
"Tankan Large Non-Manufacturers Diffusion Index";"Japan";"JPY";"2013-12-15T23:50:00";"GMT";"14";"19";"17";"Low"
"Tankan Large Non-Manufacturers Index";"Japan";"JPY";"2013-12-15T23:50:00";"GMT";"14";"16";"20";"High"
"Tankan Small Manufacturers Diffusion Index";"Japan";"JPY";"2013-12-15T23:50:00";"GMT";"-5";"-5";"-1";"Low"
"Tankan Small Manufacturing Index";"Japan";"JPY";"2013-12-15T23:50:00";"GMT";"-9";"-7";"1";"Low"
"Tankan Small Non-Manufacturers Diffusion Index";"Japan";"JPY";"2013-12-15T23:50:00";"GMT";"-2";"2";"1";"Low"
"Tankan Small Non-Manufacturing Index";"Japan";"JPY";"2013-12-15T23:50:00";"GMT";"-1";"1";"4";"Low"
