"French Non-Farm Payrolls (QoQ) (Q1)";"France";"EUR";"2017-06-13T05:30:00";"GMT";"0.3%";"0.3%";"0.4%";"Moderate"
"German WPI (MoM) (May)";"Germany";"EUR";"2017-06-13T06:00:00";"GMT";"0.3%";"0.2%";"-0.7%";"Low"
"German WPI (YoY) (May)";"Germany";"EUR";"2017-06-13T06:00:00";"GMT";"4.7%";"3.6%";"3.1%";"Low"
"Spanish CPI (MoM) (May)";"Spain";"EUR";"2017-06-13T07:00:00";"GMT";"-0.1%";"-0.1%";"-0.1%";"Low"
"Spanish CPI (YoY) (May)";"Spain";"EUR";"2017-06-13T07:00:00";"GMT";"1.9%";"1.9%";"1.9%";"Moderate"
"Spanish HICP (MoM) (May)";"Spain";"EUR";"2017-06-13T07:00:00";"GMT";"-0.1%";"-0.1%";"0.0%";"Low"
"Spanish HICP (YoY) (May)";"Spain";"EUR";"2017-06-13T07:00:00";"GMT";"2.0%";"2.0%";"2.0%";"Moderate"
"German Buba President Weidmann Speaks";"Germany";"EUR";"2017-06-13T07:10:00";"GMT";" ";"";"";"Moderate"
"Spanish 12-Month Letras Auction";"Spain";"EUR";"2017-06-13T08:50:00";"GMT";"-0.327%";"";"-0.376%";"Low"
"Spanish 6-Month Letras Auction";"Spain";"EUR";"2017-06-13T08:50:00";"GMT";"-0.398%";"";"-0.416%";"Low"
"ECB's Lautenschlaeger Speaks";"Euro Zone";"EUR";"2017-06-13T09:00:00";"GMT";" ";"";"";"Moderate"
"German ZEW Current Conditions (Jun)";"Germany";"EUR";"2017-06-13T09:00:00";"GMT";"83.9";"85.0";"88.0";"Moderate"
"German ZEW Economic Sentiment (Jun)";"Germany";"EUR";"2017-06-13T09:00:00";"GMT";"20.6";"21.5";"18.6";"High"
"ZEW Economic Sentiment";"Euro Zone";"EUR";"2017-06-13T09:00:00";"GMT";"35.1";"37.2";"37.7";"Moderate"
"Italian 3-Year BTP Auction";"Italy";"EUR";"2017-06-13T09:30:00";"GMT";"0.37%";"";"0.15%";"Low"
"Italian 7-Year BTP Auction";"Italy";"EUR";"2017-06-13T09:30:00";"GMT";"1.65%";"";"1.35%";"Low"
