"Nationwide HPI (MoM) (Jul)";"United Kingdom";"GBP";"2017-08-01T06:00:00";"GMT";"1.1%";"-0.1%";"0.3%";"Moderate"
"Nationwide HPI (YoY) (Jul)";"United Kingdom";"GBP";"2017-08-01T06:00:00";"GMT";"3.1%";"2.7%";"2.9%";"Moderate"
"Manufacturing PMI (Jul)";"United Kingdom";"GBP";"2017-08-01T08:30:00";"GMT";"54.2";"54.4";"55.1";"High"
"10-Year Treasury Gilt Auction";"United Kingdom";"GBP";"2017-08-01T09:40:00";"GMT";"1.384%";"";"1.267%";"Low"
"BRC Shop Price Index (YoY)";"United Kingdom";"GBP";"2017-08-01T23:01:00";"GMT";"-0.3%";"";"-0.4%";"Low"
