{"events": {"event": [
    {
      "eventDateTime": "2019-09-04T08:30:00",
      "eventActual": "50.2",
      "eventCountry": "United Kingdom",
      "eventExpectedVolatility": "High",
      "eventName": "Composite PMI (Aug)",
      "eventTimeZone": "GMT",
      "eventPrevious": "50.7",
      "eventCurrency": "GBP",
      "eventForecast": ""
    },
    {
      "eventDateTime": "2019-09-04T08:30:00",
      "eventActual": "50.6",
      "eventCountry": "United Kingdom",
      "eventExpectedVolatility": "High",
      "eventName": "Services PMI (Aug)",
      "eventTimeZone": "GMT",
      "eventPrevious": "51.4",
      "eventCurrency": "GBP",
      "eventForecast": "51.0"
    }
  ]}}
