{"events": {"event": {
    "eventDateTime": "2019-11-06T12:30:00",
    "eventActual": "",
    "eventCountry": "United Kingdom",
    "eventExpectedVolatility": "High",
    "eventName": "Autumn Budget",
    "eventTimeZone": "GMT",
    "eventPrevious": "",
    "eventCurrency": "GBP",
    "eventForecast": ""
  }}}
