{"events": {"event": [
    {
      "eventDateTime": "2013-01-01T09:00:00",
      "eventActual": "-1.80%",
      "eventCountry": "Australia",
      "eventExpectedVolatility": "Low",
      "eventName": "ANZ Internet Job Ads (MoM) (Dec)",
      "eventTimeZone": "GMT",
      "eventPrevious": "-1.90%",
      "eventCurrency": "AUD",
      "eventForecast": ""
    },
    {
      "eventDateTime": "2013-01-01T09:00:00",
      "eventActual": "-2.20%",
      "eventCountry": "Australia",
      "eventExpectedVolatility": "Low",
      "eventName": "ANZ Newspaper Job Ads (MoM) (Dec)",
      "eventTimeZone": "GMT",
      "eventPrevious": "-3.70%",
      "eventCurrency": "AUD",
      "eventForecast": ""
    },
    {
      "eventDateTime": "2013-01-01T09:00:00",
      "eventActual": "0.20%",
      "eventCountry": "Australia",
      "eventExpectedVolatility": "Low",
      "eventName": "Exports (MoM) (Dec)",
      "eventTimeZone": "GMT",
      "eventPrevious": "-0.10%",
      "eventCurrency": "AUD",
      "eventForecast": ""
    },
    {
      "eventDateTime": "2013-01-01T09:00:00",
      "eventActual": "-5.30K",
      "eventCountry": "Australia",
      "eventExpectedVolatility": "Moderate",
      "eventName": "Full Employment Change (Dec)",
      "eventTimeZone": "GMT",
      "eventPrevious": "-9.40K",
      "eventCurrency": "AUD",
      "eventForecast": ""
    },
    {
      "eventDateTime": "2013-01-01T09:00:00",
      "eventActual": "0.30%",
      "eventCountry": "Australia",
      "eventExpectedVolatility": "Low",
      "eventName": "Housing Credit (Dec)",
      "eventTimeZone": "GMT",
      "eventPrevious": "0.40%",
      "eventCurrency": "AUD",
      "eventForecast": ""
    },
    {
      "eventDateTime": "2013-01-01T09:00:00",
      "eventActual": "-5.00%",
      "eventCountry": "Australia",
      "eventExpectedVolatility": "Low",
      "eventName": "Imports (MoM) (Dec)",
      "eventTimeZone": "GMT",
      "eventPrevious": "2.60%",
      "eventCurrency": "AUD",
      "eventForecast": ""
    },
    {
      "eventDateTime": "2013-01-01T09:00:00",
      "eventActual": "-1.50%",
      "eventCountry": "Australia",
      "eventExpectedVolatility": "Low",
      "eventName": "Invest Housing Finance (MoM) (Dec)",
      "eventTimeZone": "GMT",
      "eventPrevious": "-3.10%",
      "eventCurrency": "AUD",
      "eventForecast": ""
    },
    {
      "eventDateTime": "2013-01-01T09:00:00",
      "eventActual": "-6.50",
      "eventCountry": "Australia",
      "eventExpectedVolatility": "Low",
      "eventName": "NAB Business Survey (Dec)",
      "eventTimeZone": "GMT",
      "eventPrevious": "-5.80",
      "eventCurrency": "AUD",
      "eventForecast": ""
    },
    {
      "eventDateTime": "2013-01-01T09:00:00",
      "eventActual": "65.10%",
      "eventCountry": "Australia",
      "eventExpectedVolatility": "Low",
      "eventName": "Participation Rate (Dec)",
      "eventTimeZone": "GMT",
      "eventPrevious": "65.00%",
      "eventCurrency": "AUD",
      "eventForecast": ""
    },
    {
      "eventDateTime": "2013-01-01T09:00:00",
      "eventActual": "-0.90%",
      "eventCountry": "Australia",
      "eventExpectedVolatility": "Low",
      "eventName": "Private House Approvals (Dec)",
      "eventTimeZone": "GMT",
      "eventPrevious": "-1.40%",
      "eventCurrency": "AUD",
      "eventForecast": ""
    },
    {
      "eventDateTime": "2013-01-01T22:30:00",
      "eventActual": "44.3",
      "eventCountry": "Australia",
      "eventExpectedVolatility": "Moderate",
      "eventName": "AIG Manufacturing Index",
      "eventTimeZone": "GMT",
      "eventPrevious": "44.3",
      "eventCurrency": "AUD",
      "eventForecast": ""
    }
  ]}}
