{"events": {"event": {
    "eventDateTime": "2016-04-18T03:00:00",
    "eventActual": "8.30%",
    "eventCountry": "South Korea",
    "eventExpectedVolatility": "Low",
    "eventName": "M2 Money supply (Feb)",
    "eventTimeZone": "GMT",
    "eventPrevious": "8.60%",
    "eventCurrency": "KRW",
    "eventForecast": ""
  }}}
