{"events": {"event": [
    {
      "eventDateTime": "2008-08-04T01:30:00",
      "eventActual": "-0.30%",
      "eventCountry": "Australia",
      "eventExpectedVolatility": "Moderate",
      "eventName": "House Price Index (QoQ)",
      "eventTimeZone": "GMT",
      "eventPrevious": "1.10%",
      "eventCurrency": "AUD",
      "eventForecast": "-1.10%"
    },
    {
      "eventDateTime": "2008-08-04T23:30:00",
      "eventActual": "42.8",
      "eventCountry": "Australia",
      "eventExpectedVolatility": "Low",
      "eventName": "AIG Services Index",
      "eventTimeZone": "GMT",
      "eventPrevious": "45.4",
      "eventCurrency": "AUD",
      "eventForecast": ""
    }
  ]}}
