{"events": {"event": {
    "eventDateTime": "2013-11-25T21:00:00",
    "eventActual": "107",
    "eventCountry": "South Korea",
    "eventExpectedVolatility": "Low",
    "eventName": "Consumer Confidence",
    "eventTimeZone": "GMT",
    "eventPrevious": "106",
    "eventCurrency": "KRW",
    "eventForecast": "103"
  }}}
