{"events": {"event": {
    "eventDateTime": "2015-08-24T05:30:00",
    "eventActual": "45.2%",
    "eventCountry": "United Kingdom",
    "eventExpectedVolatility": "Moderate",
    "eventName": "Investing.com GBP/USD Index",
    "eventTimeZone": "GMT",
    "eventPrevious": "41.5%",
    "eventCurrency": "GBP",
    "eventForecast": ""
  }}}
