{"events": {"event": {
    "eventDateTime": "2018-07-13T19:30:00",
    "eventActual": "-52.9K",
    "eventCountry": "Canada",
    "eventExpectedVolatility": "Low",
    "eventName": "CFTC CAD speculative net positions",
    "eventTimeZone": "GMT",
    "eventPrevious": "-49.4K",
    "eventCurrency": "CAD",
    "eventForecast": ""
  }}}
