"Industrial Production (MoM)";"United Kingdom";"GBP";"2012-07-10T08:30:00";"GMT";"-0.4%";"-0.2%";"1.0%";"Moderate"
"Industrial Production (YoY)";"United Kingdom";"GBP";"2012-07-10T08:30:00";"GMT";"-2.0%";"-2.1%";"-1.6%";"Low"
"Manufacturing Production (MoM)";"United Kingdom";"GBP";"2012-07-10T08:30:00";"GMT";"-0.8%";"0.1%";"1.2%";"High"
"Trade Balance";"United Kingdom";"GBP";"2012-07-10T08:30:00";"GMT";"-9.7B";"-9.0B";"-8.4B";"Moderate"
"NIESR GDP Estimate";"United Kingdom";"GBP";"2012-07-10T14:00:00";"GMT";"0.1%";"";"-0.2%";"Moderate"
