"Bank Lending (Feb)";"Singapore";"SGD";"2002-03-01T09:00:00";"GMT";"161.00B";"";"160.70B";"Low"
"CPI (YoY) (Feb)";"Singapore";"SGD";"2002-03-01T09:00:00";"GMT";"-1.10%";"";"-0.62%";"Moderate"
"Foreign Reserves USD (MoM) (Feb)";"Singapore";"SGD";"2002-03-01T09:00:00";"GMT";"75.10B";"";"74.90B";"Low"
"Industrial Production (MoM) (Feb)";"Singapore";"SGD";"2002-03-01T09:00:00";"GMT";"8.10%";"";"4.30%";"Low"
"Industrial Production (YoY) (Feb)";"Singapore";"SGD";"2002-03-01T09:00:00";"GMT";"2.70%";"";"-12.00%";"Low"
"Manufacturing PMI (Feb)";"Singapore";"SGD";"2002-03-01T09:00:00";"GMT";"49.30";"";"49.60";"Low"
"Non-Oil Exports (YoY) (Feb)";"Singapore";"SGD";"2002-03-01T09:00:00";"GMT";"-4.20%";"";"-23.40%";"Low"
"Retail Sales (MoM) (Feb)";"Singapore";"SGD";"2002-03-01T09:00:00";"GMT";"0.00%";"";"-1.20%";"Low"
"Retail Sales (YoY) (Feb)";"Singapore";"SGD";"2002-03-01T09:00:00";"GMT";"-6.80%";"";"-3.50%";"Low"
