"CPI (MoM) (Jul)";"China";"CNY";"2008-08-01T09:00:00";"GMT";"-0.20%";"";"0.10%";"Moderate"
"CPI (YoY) (Jul)";"China";"CNY";"2008-08-01T09:00:00";"GMT";"7.10%";"";"6.30%";"Moderate"
"Exports (YoY) (Jul)";"China";"CNY";"2008-08-01T09:00:00";"GMT";"17.30%";"";"26.90%";"Moderate"
"FDI (Jul)";"China";"CNY";"2008-08-01T09:00:00";"GMT";"45.55%";"";"44.54%";"Low"
"Fixed Asset Investment (YoY) (Jul)";"China";"CNY";"2008-08-01T09:00:00";"GMT";"26.80%";"";"27.30%";"Moderate"
"Imports (YoY) (Jul)";"China";"CNY";"2008-08-01T09:00:00";"GMT";"31.00%";"";"33.70%";"Moderate"
"Industrial Production (YoY) (Jul)";"China";"CNY";"2008-08-01T09:00:00";"GMT";"16.00%";"";"14.70%";"High"
"M2 Money Stock (YoY) (Jul)";"China";"CNY";"2008-08-01T09:00:00";"GMT";"17.40%";"";"16.40%";"Low"
"Manufacturing PMI (Jul)";"China";"CNY";"2008-08-01T09:00:00";"GMT";"52.00";"";"48.40";"High"
"New Loans (Jul)";"China";"CNY";"2008-08-01T09:00:00";"GMT";"332.40B";"";"381.80B";"Moderate"
"Non-Manufacturing PMI (Jul)";"China";"CNY";"2008-08-01T09:00:00";"GMT";"57.40";"";"55.70";"Moderate"
"Outstanding Loan Growth (YoY) (Jul)";"China";"CNY";"2008-08-01T09:00:00";"GMT";"14.10%";"";"14.60%";"Low"
"PBoC Deposit Rate (Jul)";"China";"CNY";"2008-08-01T09:00:00";"GMT";"4.14%";"";"4.14%";"Moderate"
"PBoC Reserve Requirement Ratio (Jul)";"China";"CNY";"2008-08-01T09:00:00";"GMT";"16.86%";"";"17.50%";"Moderate"
"PPI (YoY) (Jul)";"China";"CNY";"2008-08-01T09:00:00";"GMT";"8.80%";"";"10.00%";"Moderate"
"Retail Sales (YoY) (Jul)";"China";"CNY";"2008-08-01T09:00:00";"GMT";"23.00%";"";"23.30%";"Low"
"Trade Balance (USD) (Jul)";"China";"CNY";"2008-08-01T09:00:00";"GMT";"20.87B";"";"25.42B";"Moderate"
