{"events": {"event": [
    {
      "eventDateTime": "2019-06-18T23:50:00",
      "eventActual": "-0.61T",
      "eventCountry": "Japan",
      "eventExpectedVolatility": "Moderate",
      "eventName": "Adjusted Trade Balance",
      "eventTimeZone": "GMT",
      "eventPrevious": "-0.17T",
      "eventCurrency": "JPY",
      "eventForecast": "-0.80T"
    },
    {
      "eventDateTime": "2019-06-18T23:50:00",
      "eventActual": "-7.8%",
      "eventCountry": "Japan",
      "eventExpectedVolatility": "Moderate",
      "eventName": "Exports (YoY) (May)",
      "eventTimeZone": "GMT",
      "eventPrevious": "-2.4%",
      "eventCurrency": "JPY",
      "eventForecast": "-7.7%"
    },
    {
      "eventDateTime": "2019-06-18T23:50:00",
      "eventActual": "-1.5%",
      "eventCountry": "Japan",
      "eventExpectedVolatility": "Low",
      "eventName": "Imports (YoY) (May)",
      "eventTimeZone": "GMT",
      "eventPrevious": "6.5%",
      "eventCurrency": "JPY",
      "eventForecast": "0.2%"
    },
    {
      "eventDateTime": "2019-06-18T23:50:00",
      "eventActual": "-967.1B",
      "eventCountry": "Japan",
      "eventExpectedVolatility": "Moderate",
      "eventName": "Trade Balance (May)",
      "eventTimeZone": "GMT",
      "eventPrevious": "56.8B",
      "eventCurrency": "JPY",
      "eventForecast": "-979.2B"
    }
  ]}}
