{"events": {"event": {
    "eventDateTime": "2012-08-17T19:30:00",
    "eventActual": "66.7K",
    "eventCountry": "Australia",
    "eventExpectedVolatility": "Moderate",
    "eventName": "CFTC AUD speculative net positions",
    "eventTimeZone": "GMT",
    "eventPrevious": "52.9K",
    "eventCurrency": "AUD",
    "eventForecast": ""
  }}}
