"Bank Loan Growth (Dec)";"India";"INR";"2011-01-01T09:00:00";"GMT";"22.55%";"";"23.93%";"Low"
"Cash Reserve Ratio (Dec)";"India";"INR";"2011-01-01T09:00:00";"GMT";"6.00%";"";"6.00%";"Low"
"Cumulative Industrial Production (Dec)";"India";"INR";"2011-01-01T09:00:00";"GMT";"9.50%";"";"8.60%";"Low"
"Deposit Growth (Dec)";"India";"INR";"2011-01-01T09:00:00";"GMT";"15.13%";"";"15.67%";"Low"
"Exports (USD) (Dec)";"India";"INR";"2011-01-01T09:00:00";"GMT";"22.58B";"";"23.35B";"Low"
"FX Reserves, USD (Dec)";"India";"INR";"2011-01-01T09:00:00";"GMT";"296.39B";"";"297.33B";"Low"
"Federal Fiscal Deficit (Dec)";"India";"INR";"2011-01-01T09:00:00";"GMT";"1,865.22B";"";"1,712.49B";"Low"
"Imports (USD) (Dec)";"India";"INR";"2011-01-01T09:00:00";"GMT";"28.84B";"";"31.51B";"Low"
"Infrastructure Output (YoY) (Dec)";"India";"INR";"2011-01-01T09:00:00";"GMT";"3.62%";"";"6.86%";"Low"
"Interest Rate Decision (Dec)";"India";"INR";"2011-01-01T09:00:00";"GMT";"6.25%";"";"6.25%";"High"
"M3 Money Supply (Dec)";"India";"INR";"2011-01-01T09:00:00";"GMT";"16.18%";"";"16.05%";"Low"
"Manufacturing Output (MoM) (Dec)";"India";"INR";"2011-01-01T09:00:00";"GMT";"6.50%";"";"8.70%";"Low"
"Reverse REPO Rate (Dec)";"India";"INR";"2011-01-01T09:00:00";"GMT";"5.25%";"";"5.25%";"Low"
"WPI Food (YoY) (Dec)";"India";"INR";"2011-01-01T09:00:00";"GMT";"10.10%";"";"15.10%";"Low"
"WPI Fuel (YoY) (Dec)";"India";"INR";"2011-01-01T09:00:00";"GMT";"10.30%";"";"11.30%";"Low"
"WPI Inflation (YoY) (Dec)";"India";"INR";"2011-01-01T09:00:00";"GMT";"8.20%";"";"9.45%";"Moderate"
"WPI Manufacturing Inflation (YoY) (Dec)";"India";"INR";"2011-01-01T09:00:00";"GMT";"5.02%";"";"5.39%";"Low"
