{"events": {"event": {
    "eventDateTime": "2010-10-26T19:30:00",
    "eventActual": "",
    "eventCountry": "Canada",
    "eventExpectedVolatility": "Moderate",
    "eventName": "BoC Gov Carney Speaks",
    "eventTimeZone": "GMT",
    "eventPrevious": "",
    "eventCurrency": "CAD",
    "eventForecast": ""
  }}}
