{"events": {"event": {
    "eventDateTime": "2009-11-27T20:30:00",
    "eventActual": "51.7K",
    "eventCountry": "Japan",
    "eventExpectedVolatility": "Moderate",
    "eventName": "CFTC JPY speculative net positions",
    "eventTimeZone": "GMT",
    "eventPrevious": "35.6K",
    "eventCurrency": "JPY",
    "eventForecast": ""
  }}}
