{"events": {"event": {
    "eventDateTime": "2013-05-06T09:30:00",
    "eventActual": "25.20%",
    "eventCountry": "South Africa",
    "eventExpectedVolatility": "Low",
    "eventName": "Unemployment Rate",
    "eventTimeZone": "GMT",
    "eventPrevious": "24.90%",
    "eventCurrency": "ZAR",
    "eventForecast": "25.20%"
  }}}
