{"events": {"event": [
    {
      "eventDateTime": "2012-05-15T05:00:00",
      "eventActual": "40.0",
      "eventCountry": "Japan",
      "eventExpectedVolatility": "Low",
      "eventName": "Household Confidence",
      "eventTimeZone": "GMT",
      "eventPrevious": "40.3",
      "eventCurrency": "JPY",
      "eventForecast": "40.9"
    },
    {
      "eventDateTime": "2012-05-15T23:50:00",
      "eventActual": "-2.8%",
      "eventCountry": "Japan",
      "eventExpectedVolatility": "Low",
      "eventName": "Core Machinery Orders (MoM)",
      "eventTimeZone": "GMT",
      "eventPrevious": "4.8%",
      "eventCurrency": "JPY",
      "eventForecast": "-3.5%"
    },
    {
      "eventDateTime": "2012-05-15T23:50:00",
      "eventActual": "-0.6%",
      "eventCountry": "Japan",
      "eventExpectedVolatility": "Moderate",
      "eventName": "Tertiary Industry Activity Index (MoM)",
      "eventTimeZone": "GMT",
      "eventPrevious": "0.0%",
      "eventCurrency": "JPY",
      "eventForecast": "-0.3%"
    }
  ]}}
