{"events": {"event": {
    "eventDateTime": "2011-03-08T13:15:00",
    "eventActual": "182.00K",
    "eventCountry": "Canada",
    "eventExpectedVolatility": "Moderate",
    "eventName": "Housing Starts",
    "eventTimeZone": "GMT",
    "eventPrevious": "171.00K",
    "eventCurrency": "CAD",
    "eventForecast": "175.00K"
  }}}
