{"events": {"event": {
    "eventDateTime": "2012-12-13T11:00:00",
    "eventActual": "9.1%",
    "eventCountry": "Brazil",
    "eventExpectedVolatility": "Moderate",
    "eventName": "Retail Sales (YoY)",
    "eventTimeZone": "GMT",
    "eventPrevious": "8.5%",
    "eventCurrency": "BRL",
    "eventForecast": "9.0%"
  }}}
