{"events": {"event": {
    "eventDateTime": "2009-11-20T20:30:00",
    "eventActual": "3.2K",
    "eventCountry": "Russia",
    "eventExpectedVolatility": "Moderate",
    "eventName": "CFTC RUB speculative positions",
    "eventTimeZone": "GMT",
    "eventPrevious": "2.7K",
    "eventCurrency": "RUB",
    "eventForecast": ""
  }}}
