"BoC Interest Rate Decision (Jan)";"Canada";"CAD";"2004-02-01T09:00:00";"GMT";"2.75%";"";"2.50%";"High"
"Budget Balance (Jan)";"Canada";"CAD";"2004-02-01T09:00:00";"GMT";"3.20B";"";"0.81B";"Low"
"Building Permits (MoM) (Jan)";"Canada";"CAD";"2004-02-01T09:00:00";"GMT";"2.80%";"";"-7.90%";"Moderate"
"CPI (MoM) (Jan)";"Canada";"CAD";"2004-02-01T09:00:00";"GMT";"0.10%";"";"0.10%";"Moderate"
"CPI (YoY) (Jan)";"Canada";"CAD";"2004-02-01T09:00:00";"GMT";"2.10%";"";"1.30%";"Low"
"Core CPI (MoM) (Jan)";"Canada";"CAD";"2004-02-01T09:00:00";"GMT";"-0.20%";"";"0.00%";"High"
"Core CPI (YoY) (Jan)";"Canada";"CAD";"2004-02-01T09:00:00";"GMT";"2.10%";"";"1.50%";"Moderate"
"Core Retail Sales (MoM) (Jan)";"Canada";"CAD";"2004-02-01T09:00:00";"GMT";"0.50%";"";"0.80%";"High"
"Employment Change (Jan)";"Canada";"CAD";"2004-02-01T09:00:00";"GMT";"30.10K";"";"4.00K";"High"
"Exports (Jan)";"Canada";"CAD";"2004-02-01T09:00:00";"GMT";"33.03B";"";"31.97B";"Low"
"Foreign Securities Purchases (Jan)";"Canada";"CAD";"2004-02-01T09:00:00";"GMT";"2.22B";"";"5.69B";"Moderate"
"Foreign Securities Purchases by Canadians (Jan)";"Canada";"CAD";"2004-02-01T09:00:00";"GMT";"3.04B";"";"-0.67B";"Low"
"Full Employment Change (Jan)";"Canada";"CAD";"2004-02-01T09:00:00";"GMT";"23.90K";"";"27.50K";"Low"
"GDP (MoM) (Jan)";"Canada";"CAD";"2004-02-01T09:00:00";"GMT";"0.40%";"";"0.10%";"High"
"Housing Starts (Jan)";"Canada";"CAD";"2004-02-01T09:00:00";"GMT";"216.00K";"";"193.10K";"Moderate"
"IPPI (MoM) (Jan)";"Canada";"CAD";"2004-02-01T09:00:00";"GMT";"0.20%";"";"0.80%";"Low"
"IPPI (YoY) (Jan)";"Canada";"CAD";"2004-02-01T09:00:00";"GMT";"-3.50%";"";"-3.20%";"Low"
"Imports (Jan)";"Canada";"CAD";"2004-02-01T09:00:00";"GMT";"28.18B";"";"27.08B";"Low"
"Ivey PMI n.s.a (Jan)";"Canada";"CAD";"2004-02-01T09:00:00";"GMT";"58.50";"";"53.80";"Low"
"Manufacturing Sales (MoM) (Jan)";"Canada";"CAD";"2004-02-01T09:00:00";"GMT";"-0.70%";"";"-1.60%";"Moderate"
"New Housing Price Index (MoM) (Jan)";"Canada";"CAD";"2004-02-01T09:00:00";"GMT";"0.30%";"";"0.40%";"Moderate"
"Part Time Employment Change (Jan)";"Canada";"CAD";"2004-02-01T09:00:00";"GMT";"6.30K";"";"-23.60K";"Low"
"Participation Rate (Jan)";"Canada";"CAD";"2004-02-01T09:00:00";"GMT";"67.60%";"";"67.60%";"Low"
"RMPI (MoM) (Jan)";"Canada";"CAD";"2004-02-01T09:00:00";"GMT";"2.70%";"";"3.20%";"Moderate"
"RMPI (YoY) (Jan)";"Canada";"CAD";"2004-02-01T09:00:00";"GMT";"-4.90%";"";"-6.90%";"Low"
"Retail Sales (MoM) (Jan)";"Canada";"CAD";"2004-02-01T09:00:00";"GMT";"-0.30%";"";"0.80%";"Moderate"
"Trade Balance (Jan)";"Canada";"CAD";"2004-02-01T09:00:00";"GMT";"4.85B";"";"4.89B";"Moderate"
"Unemployment Rate (Jan)";"Canada";"CAD";"2004-02-01T09:00:00";"GMT";"7.40%";"";"7.30%";"Moderate"
"Wholesale Sales (MoM) (Jan)";"Canada";"CAD";"2004-02-01T09:00:00";"GMT";"0.90%";"";"-1.30%";"Moderate"
