"Jobs/applications ratio (Mar)";"Japan";"JPY";"2018-04-26T23:30:00";"GMT";"1.58";"1.59";"1.59";"Moderate"
"Tokyo CPI (YoY) (Apr)";"Japan";"JPY";"2018-04-26T23:30:00";"GMT";"1.0%";"0.8%";"0.5%";"Low"
"Tokyo Core CPI (YoY) (Apr)";"Japan";"JPY";"2018-04-26T23:30:00";"GMT";"0.8%";"0.8%";"0.6%";"Moderate"
"Unemployment Rate (Mar)";"Japan";"JPY";"2018-04-26T23:30:00";"GMT";"2.5%";"2.5%";"2.5%";"Low"
"Industrial Production (MoM) (Mar)";"Japan";"JPY";"2018-04-26T23:50:00";"GMT";"2.0%";"0.5%";"1.2%";"Moderate"
"Industrial Production forecast 1m ahead (MoM) (Apr)";"Japan";"JPY";"2018-04-26T23:50:00";"GMT";"1.6%";"";"3.1%";"Low"
"Industrial Production forecast 2m ahead (MoM) (May)";"Japan";"JPY";"2018-04-26T23:50:00";"GMT";"4.0%";"";"-1.6%";"Low"
"Retail Sales (YoY) (Mar)";"Japan";"JPY";"2018-04-26T23:50:00";"GMT";"1.7%";"1.5%";"1.0%";"Moderate"
