{"events": {"event": {
    "eventDateTime": "2016-09-29T13:00:00",
    "eventActual": "398.0B",
    "eventCountry": "Russia",
    "eventExpectedVolatility": "Moderate",
    "eventName": "Central Bank reserves (USD)",
    "eventTimeZone": "GMT",
    "eventPrevious": "396.6B",
    "eventCurrency": "RUB",
    "eventForecast": ""
  }}}
