{"events": {"event": [
    {
      "eventDateTime": "2014-03-27T09:30:00",
      "eventActual": "1.8%",
      "eventCountry": "United Kingdom",
      "eventExpectedVolatility": "Moderate",
      "eventName": "Core Retail Sales (MoM)",
      "eventTimeZone": "GMT",
      "eventPrevious": "-2.0%",
      "eventCurrency": "GBP",
      "eventForecast": "0.3%"
    },
    {
      "eventDateTime": "2014-03-27T09:30:00",
      "eventActual": "4.2%",
      "eventCountry": "United Kingdom",
      "eventExpectedVolatility": "Moderate",
      "eventName": "Core Retail Sales (YoY)",
      "eventTimeZone": "GMT",
      "eventPrevious": "4.4%",
      "eventCurrency": "GBP",
      "eventForecast": "2.8%"
    },
    {
      "eventDateTime": "2014-03-27T09:30:00",
      "eventActual": "1.7%",
      "eventCountry": "United Kingdom",
      "eventExpectedVolatility": "High",
      "eventName": "Retail Sales (MoM)",
      "eventTimeZone": "GMT",
      "eventPrevious": "-2.0%",
      "eventCurrency": "GBP",
      "eventForecast": "0.5%"
    },
    {
      "eventDateTime": "2014-03-27T09:30:00",
      "eventActual": "3.7%",
      "eventCountry": "United Kingdom",
      "eventExpectedVolatility": "Moderate",
      "eventName": "Retail Sales (YoY)",
      "eventTimeZone": "GMT",
      "eventPrevious": "3.9%",
      "eventCurrency": "GBP",
      "eventForecast": "2.5%"
    }
  ]}}
