{"events": {"event": [
    {
      "eventDateTime": "2015-06-19T11:30:00",
      "eventActual": "-0.84%",
      "eventCountry": "Brazil",
      "eventExpectedVolatility": "Low",
      "eventName": "IBC-Br Economic Activity (Apr)",
      "eventTimeZone": "GMT",
      "eventPrevious": "-1.07%",
      "eventCurrency": "BRL",
      "eventForecast": "-0.40%"
    },
    {
      "eventDateTime": "2015-06-19T12:00:00",
      "eventActual": "0.99%",
      "eventCountry": "Brazil",
      "eventExpectedVolatility": "Low",
      "eventName": "Mid-Month CPI (MoM) (Jun)",
      "eventTimeZone": "GMT",
      "eventPrevious": "0.60%",
      "eventCurrency": "BRL",
      "eventForecast": "0.85%"
    },
    {
      "eventDateTime": "2015-06-19T12:00:00",
      "eventActual": "8.80%",
      "eventCountry": "Brazil",
      "eventExpectedVolatility": "Low",
      "eventName": "Mid-Month CPI (YoY) (Jun)",
      "eventTimeZone": "GMT",
      "eventPrevious": "8.24%",
      "eventCurrency": "BRL",
      "eventForecast": "8.65%"
    },
    {
      "eventDateTime": "2015-06-19T13:30:00",
      "eventActual": "-115.60K",
      "eventCountry": "Brazil",
      "eventExpectedVolatility": "Moderate",
      "eventName": "CAGED Net Payroll Jobs (May)",
      "eventTimeZone": "GMT",
      "eventPrevious": "-98.00K",
      "eventCurrency": "BRL",
      "eventForecast": ""
    }
  ]}}
