{"events": {"event": {
    "eventDateTime": "2010-07-27T10:00:00",
    "eventActual": "33",
    "eventCountry": "United Kingdom",
    "eventExpectedVolatility": "Low",
    "eventName": "CBI Distributive Trades Survey",
    "eventTimeZone": "GMT",
    "eventPrevious": "-5",
    "eventCurrency": "GBP",
    "eventForecast": "-3"
  }}}
