{"events": {"event": [
    {
      "eventDateTime": "2010-02-15T21:45:00",
      "eventActual": "0.3%",
      "eventCountry": "New Zealand",
      "eventExpectedVolatility": "Moderate",
      "eventName": "PPI Input (QoQ)",
      "eventTimeZone": "GMT",
      "eventPrevious": "-1.1%",
      "eventCurrency": "NZD",
      "eventForecast": "0.5%"
    },
    {
      "eventDateTime": "2010-02-15T21:45:00",
      "eventActual": "-0.4%",
      "eventCountry": "New Zealand",
      "eventExpectedVolatility": "Low",
      "eventName": "PPI Output (QoQ)",
      "eventTimeZone": "GMT",
      "eventPrevious": "-1.4%",
      "eventCurrency": "NZD",
      "eventForecast": "0.4%"
    }
  ]}}
