{"events": {"event": [
    {
      "eventDateTime": "2009-03-04T00:01:00",
      "eventActual": "43",
      "eventCountry": "United Kingdom",
      "eventExpectedVolatility": "Moderate",
      "eventName": "Nationwide Consumer Confidence",
      "eventTimeZone": "GMT",
      "eventPrevious": "40",
      "eventCurrency": "GBP",
      "eventForecast": "38"
    },
    {
      "eventDateTime": "2009-03-04T09:30:00",
      "eventActual": "43.2",
      "eventCountry": "United Kingdom",
      "eventExpectedVolatility": "High",
      "eventName": "Services PMI",
      "eventTimeZone": "GMT",
      "eventPrevious": "42.5",
      "eventCurrency": "GBP",
      "eventForecast": "41.6"
    },
    {
      "eventDateTime": "2009-03-04T10:30:00",
      "eventActual": "1.9%",
      "eventCountry": "United Kingdom",
      "eventExpectedVolatility": "Low",
      "eventName": "BRC Shop Price Index (YoY)",
      "eventTimeZone": "GMT",
      "eventPrevious": "1.1%",
      "eventCurrency": "GBP",
      "eventForecast": ""
    }
  ]}}
