"Continuing Jobless Claims";"United States";"USD";"2014-05-29T12:30:00";"GMT";"2,648K";"2,650K";"2,631K";"Low"
"FOMC Member Pianalto Speaks";"United States";"USD";"2014-05-29T12:30:00";"GMT";" ";"";"";"Moderate"
"GDP (QoQ)";"United States";"USD";"2014-05-29T12:30:00";"GMT";"0.1%";"-0.5%";"-1.0%";"High"
"GDP Price Index (QoQ)";"United States";"USD";"2014-05-29T12:30:00";"GMT";"1.3%";"1.3%";"1.3%";"Moderate"
"Initial Jobless Claims";"United States";"USD";"2014-05-29T12:30:00";"GMT";"327K";"318K";"300K";"Moderate"
"Jobless Claims 4-Week Avg.";"United States";"USD";"2014-05-29T12:30:00";"GMT";"322.75K";"";"311.50K";"Low"
"Real Consumer Spending";"United States";"USD";"2014-05-29T12:30:00";"GMT";"3.0%";"3.1%";"3.1%";"Low"
"Bloomberg Consumer Confidence";"United States";"USD";"2014-05-29T13:45:00";"GMT";"34.1";"";"33.3";"Low"
"Pending Home Sales (MoM)";"United States";"USD";"2014-05-29T14:00:00";"GMT";"3.4%";"1.0%";"0.4%";"High"
"Natural Gas Storage";"United States";"USD";"2014-05-29T14:30:00";"GMT";"106B";"110B";"114B";"Low"
"Crude Oil Inventories";"United States";"USD";"2014-05-29T15:00:00";"GMT";"-7.226M";"0.483M";"1.657M";"High"
"EIA Weekly Distillates Stocks";"United States";"USD";"2014-05-29T15:00:00";"GMT";"3.399M";"0.750M";"-0.196M";"Low"
"Gasoline Inventories";"United States";"USD";"2014-05-29T15:00:00";"GMT";"0.970M";"0.283M";"-1.803M";"Low"
"7-Year Note Auction";"United States";"USD";"2014-05-29T17:00:00";"GMT";"2.317%";"";"2.010%";"Low"
