{"events": {"event": [
    {
      "eventDateTime": "2012-09-10T09:30:00",
      "eventActual": "1.50%",
      "eventCountry": "United Kingdom",
      "eventExpectedVolatility": "Low",
      "eventName": "Construction Output (MoM) (Jul)",
      "eventTimeZone": "GMT",
      "eventPrevious": "-4.30%",
      "eventCurrency": "GBP",
      "eventForecast": ""
    },
    {
      "eventDateTime": "2012-09-10T09:30:00",
      "eventActual": "-9.60%",
      "eventCountry": "United Kingdom",
      "eventExpectedVolatility": "Low",
      "eventName": "U.K. Construction Output (YoY) (Jul)",
      "eventTimeZone": "GMT",
      "eventPrevious": "-11.00%",
      "eventCurrency": "GBP",
      "eventForecast": ""
    },
    {
      "eventDateTime": "2012-09-10T23:01:00",
      "eventActual": "-19%",
      "eventCountry": "United Kingdom",
      "eventExpectedVolatility": "Moderate",
      "eventName": "RICS House Price Balance",
      "eventTimeZone": "GMT",
      "eventPrevious": "-23%",
      "eventCurrency": "GBP",
      "eventForecast": "-22%"
    }
  ]}}
