"Investing.com Gold Index";"United States";"USD";"2015-01-12T06:30:00";"GMT";"59.4%";"";"60.9%";"Moderate"
"Investing.com Sandamp:P 500 Index";"United States";"USD";"2015-01-12T06:30:00";"GMT";"60.4%";"";"60.6%";"Moderate"
"CB Employment Trends Index (Dec)";"United States";"USD";"2015-01-12T15:00:00";"GMT";"127.83";"";"128.43";"Low"
"Fed Labor Market Conditions Index";"United States";"USD";"2015-01-12T15:00:00";"GMT";"5.5";"";"6.1";"Low"
"3-Month Bill Auction";"United States";"USD";"2015-01-12T16:30:00";"GMT";"0.030%";"";"0.025%";"Low"
"6-Month Bill Auction";"United States";"USD";"2015-01-12T16:30:00";"GMT";"0.110%";"";"0.085%";"Low"
"3-Year Note Auction";"United States";"USD";"2015-01-12T18:00:00";"GMT";"1.066%";"";"0.926%";"Low"
