"CPI (YoY) (Oct)";"Hong Kong";"HKD";"2003-11-01T09:00:00";"GMT";"-3.20%";"";"-2.70%";"Low"
"Exports (MoM) (Oct)";"Hong Kong";"HKD";"2003-11-01T09:00:00";"GMT";"6.40%";"";"9.50%";"Low"
"Foreign Reserves (USD) (Oct)";"Hong Kong";"HKD";"2003-11-01T09:00:00";"GMT";"112.13B";"";"112.38B";"Low"
"Imports (MoM) (Oct)";"Hong Kong";"HKD";"2003-11-01T09:00:00";"GMT";"7.30%";"";"10.20%";"Low"
"M3 Money Supply (Oct)";"Hong Kong";"HKD";"2003-11-01T09:00:00";"GMT";"3.93%";"";"6.92%";"Low"
"Retail Sales (YoY) (Oct)";"Hong Kong";"HKD";"2003-11-01T09:00:00";"GMT";"0.10%";"";"4.00%";"Low"
"Unemployment Rate (Oct)";"Hong Kong";"HKD";"2003-11-01T09:00:00";"GMT";"8.20%";"";"8.00%";"Low"
