{"events": {"event": {
    "eventDateTime": "2009-02-02T23:50:00",
    "eventActual": "3.9%",
    "eventCountry": "Japan",
    "eventExpectedVolatility": "Low",
    "eventName": "Monetary Base (YoY)",
    "eventTimeZone": "GMT",
    "eventPrevious": "1.8%",
    "eventCurrency": "JPY",
    "eventForecast": "1.8%"
  }}}
