{"events": {"event": {
    "eventDateTime": "2016-10-28T00:30:00",
    "eventActual": "-1.50%",
    "eventCountry": "Singapore",
    "eventExpectedVolatility": "Low",
    "eventName": "URA Property Index (QoQ) (Q3)",
    "eventTimeZone": "GMT",
    "eventPrevious": "-1.50%",
    "eventCurrency": "SGD",
    "eventForecast": ""
  }}}
