"RBNZ Interest Rate Decision";"New Zealand";"NZD";"2013-10-30T20:00:00";"GMT";"2.50%";"2.50%";"2.50%";"High"
"RBNZ Rate Statement";"New Zealand";"NZD";"2013-10-30T20:00:00";"GMT";" ";"";"";"High"
"Building Consents (MoM)";"New Zealand";"NZD";"2013-10-30T21:45:00";"GMT";"1.5%";"";"1.4%";"Moderate"
