{"events": {"event": {
    "eventDateTime": "2012-08-12T22:45:00",
    "eventActual": "0.2%",
    "eventCountry": "New Zealand",
    "eventExpectedVolatility": "Low",
    "eventName": "FPI (MoM)",
    "eventTimeZone": "GMT",
    "eventPrevious": "1.4%",
    "eventCurrency": "NZD",
    "eventForecast": ""
  }}}
