{"events": {"event": {
    "eventDateTime": "2017-09-14T12:30:00",
    "eventActual": "0.4%",
    "eventCountry": "Canada",
    "eventExpectedVolatility": "Moderate",
    "eventName": "New Housing Price Index (MoM) (Jul)",
    "eventTimeZone": "GMT",
    "eventPrevious": "0.2%",
    "eventCurrency": "CAD",
    "eventForecast": "0.3%"
  }}}
