{"events": {"event": {
    "eventDateTime": "2001-04-12T17:00:00",
    "eventActual": "254",
    "eventCountry": "United States",
    "eventExpectedVolatility": "Moderate",
    "eventName": "U.S. Baker Hughes Oil Rig Count",
    "eventTimeZone": "GMT",
    "eventPrevious": "253",
    "eventCurrency": "USD",
    "eventForecast": ""
  }}}
