{"events": {"event": {
    "eventDateTime": "2011-10-20T21:45:00",
    "eventActual": "18.1%",
    "eventCountry": "New Zealand",
    "eventExpectedVolatility": "Low",
    "eventName": "Visitor Arrivals (MoM)",
    "eventTimeZone": "GMT",
    "eventPrevious": "4.2%",
    "eventCurrency": "NZD",
    "eventForecast": ""
  }}}
