{"events": {"event": [
    {
      "eventDateTime": "2017-03-31T10:30:00",
      "eventActual": "6,056.14B",
      "eventCountry": "India",
      "eventExpectedVolatility": "Low",
      "eventName": "Federal Fiscal Deficit (Feb)",
      "eventTimeZone": "GMT",
      "eventPrevious": "5,641.92B",
      "eventCurrency": "INR",
      "eventForecast": ""
    },
    {
      "eventDateTime": "2017-03-31T11:30:00",
      "eventActual": "4.4%",
      "eventCountry": "India",
      "eventExpectedVolatility": "Low",
      "eventName": "Bank Loan Growth",
      "eventTimeZone": "GMT",
      "eventPrevious": "4.1%",
      "eventCurrency": "INR",
      "eventForecast": ""
    },
    {
      "eventDateTime": "2017-03-31T11:30:00",
      "eventActual": "13.0%",
      "eventCountry": "India",
      "eventExpectedVolatility": "Low",
      "eventName": "Deposit Growth",
      "eventTimeZone": "GMT",
      "eventPrevious": "12.7%",
      "eventCurrency": "INR",
      "eventForecast": ""
    },
    {
      "eventDateTime": "2017-03-31T11:30:00",
      "eventActual": "367.93B",
      "eventCountry": "India",
      "eventExpectedVolatility": "Low",
      "eventName": "FX Reserves, USD",
      "eventTimeZone": "GMT",
      "eventPrevious": "366.78B",
      "eventCurrency": "INR",
      "eventForecast": ""
    },
    {
      "eventDateTime": "2017-03-31T11:30:00",
      "eventActual": "1.0%",
      "eventCountry": "India",
      "eventExpectedVolatility": "Low",
      "eventName": "Infrastructure Output (YoY) (Feb)",
      "eventTimeZone": "GMT",
      "eventPrevious": "3.4%",
      "eventCurrency": "INR",
      "eventForecast": ""
    },
    {
      "eventDateTime": "2017-03-31T15:00:00",
      "eventActual": "456.1B",
      "eventCountry": "India",
      "eventExpectedVolatility": "Low",
      "eventName": "Foreign Debt (USD) (Q4)",
      "eventTimeZone": "GMT",
      "eventPrevious": "484.3B",
      "eventCurrency": "INR",
      "eventForecast": ""
    }
  ]}}
