{"events": {"event": [
    {
      "eventDateTime": "2018-07-26T06:00:00",
      "eventActual": "10.6",
      "eventCountry": "Germany",
      "eventExpectedVolatility": "Moderate",
      "eventName": "GfK German Consumer Climate (Aug)",
      "eventTimeZone": "GMT",
      "eventPrevious": "10.7",
      "eventCurrency": "EUR",
      "eventForecast": "10.7"
    },
    {
      "eventDateTime": "2018-07-26T06:45:00",
      "eventActual": "97",
      "eventCountry": "France",
      "eventExpectedVolatility": "Low",
      "eventName": "French Consumer Confidence (Jul)",
      "eventTimeZone": "GMT",
      "eventPrevious": "97",
      "eventCurrency": "EUR",
      "eventForecast": "98"
    },
    {
      "eventDateTime": "2018-07-26T07:00:00",
      "eventActual": "15.30%",
      "eventCountry": "Spain",
      "eventExpectedVolatility": "Low",
      "eventName": "Spanish Unemployment Rate (Q2)",
      "eventTimeZone": "GMT",
      "eventPrevious": "16.74%",
      "eventCurrency": "EUR",
      "eventForecast": "15.80%"
    },
    {
      "eventDateTime": "2018-07-26T08:00:00",
      "eventActual": "106.9",
      "eventCountry": "Italy",
      "eventExpectedVolatility": "Low",
      "eventName": "Italian Business Confidence (Jul)",
      "eventTimeZone": "GMT",
      "eventPrevious": "106.9",
      "eventCurrency": "EUR",
      "eventForecast": "106.5"
    },
    {
      "eventDateTime": "2018-07-26T08:00:00",
      "eventActual": "116.3",
      "eventCountry": "Italy",
      "eventExpectedVolatility": "Low",
      "eventName": "Italian Consumer Confidence (Jul)",
      "eventTimeZone": "GMT",
      "eventPrevious": "116.2",
      "eventCurrency": "EUR",
      "eventForecast": "115.9"
    },
    {
      "eventDateTime": "2018-07-26T11:45:00",
      "eventActual": "-0.40%",
      "eventCountry": "Euro Zone",
      "eventExpectedVolatility": "High",
      "eventName": "Deposit Facility Rate",
      "eventTimeZone": "GMT",
      "eventPrevious": "-0.40%",
      "eventCurrency": "EUR",
      "eventForecast": "-0.40%"
    },
    {
      "eventDateTime": "2018-07-26T11:45:00",
      "eventActual": "0.00%",
      "eventCountry": "Euro Zone",
      "eventExpectedVolatility": "High",
      "eventName": "ECB Interest Rate Decision (Jul)",
      "eventTimeZone": "GMT",
      "eventPrevious": "0.00%",
      "eventCurrency": "EUR",
      "eventForecast": "0.00%"
    },
    {
      "eventDateTime": "2018-07-26T11:45:00",
      "eventActual": "0.25%",
      "eventCountry": "Euro Zone",
      "eventExpectedVolatility": "High",
      "eventName": "ECB Marginal Lending Facility",
      "eventTimeZone": "GMT",
      "eventPrevious": "0.25%",
      "eventCurrency": "EUR",
      "eventForecast": "0.25%"
    },
    {
      "eventDateTime": "2018-07-26T11:45:00",
      "eventActual": "",
      "eventCountry": "Euro Zone",
      "eventExpectedVolatility": "High",
      "eventName": "ECB Monetary Policy Statement",
      "eventTimeZone": "GMT",
      "eventPrevious": "",
      "eventCurrency": "EUR",
      "eventForecast": ""
    },
    {
      "eventDateTime": "2018-07-26T12:30:00",
      "eventActual": "",
      "eventCountry": "Euro Zone",
      "eventExpectedVolatility": "High",
      "eventName": "ECB Press Conference",
      "eventTimeZone": "GMT",
      "eventPrevious": "",
      "eventCurrency": "EUR",
      "eventForecast": ""
    }
  ]}}
