"CPI (MoM) (Oct)";"China";"CNY";"2005-11-01T09:00:00";"GMT";"0.70%";"";"0.40%";"Moderate"
"CPI (YoY) (Oct)";"China";"CNY";"2005-11-01T09:00:00";"GMT";"0.90%";"";"1.20%";"Moderate"
"Exports (YoY) (Oct)";"China";"CNY";"2005-11-01T09:00:00";"GMT";"25.80%";"";"29.50%";"Moderate"
"FDI (Oct)";"China";"CNY";"2005-11-01T09:00:00";"GMT";"-2.11%";"";"-2.12%";"Low"
"Fixed Asset Investment (YoY) (Oct)";"China";"CNY";"2005-11-01T09:00:00";"GMT";"27.70%";"";"27.60%";"Moderate"
"Imports (YoY) (Oct)";"China";"CNY";"2005-11-01T09:00:00";"GMT";"23.50%";"";"23.40%";"Moderate"
"Industrial Production (YoY) (Oct)";"China";"CNY";"2005-11-01T09:00:00";"GMT";"16.50%";"";"16.10%";"High"
"M2 Money Stock (YoY) (Oct)";"China";"CNY";"2005-11-01T09:00:00";"GMT";"17.90%";"";"18.00%";"Low"
"Manufacturing PMI (Oct)";"China";"CNY";"2005-11-01T09:00:00";"GMT";"55.10";"";"54.10";"High"
"New Loans (Oct)";"China";"CNY";"2005-11-01T09:00:00";"GMT";"345.30B";"";"26.40B";"Moderate"
"Outstanding Loan Growth (YoY) (Oct)";"China";"CNY";"2005-11-01T09:00:00";"GMT";"13.80%";"";"13.80%";"Low"
"PBoC Deposit Rate (Oct)";"China";"CNY";"2005-11-01T09:00:00";"GMT";"2.25%";"";"2.25%";"Moderate"
"PBoC Interest Rate (Oct)";"China";"CNY";"2005-11-01T09:00:00";"GMT";"5.58%";"";"5.58%";"High"
"PBoC Reserve Requirement Ratio (Oct)";"China";"CNY";"2005-11-01T09:00:00";"GMT";"7.50%";"";"7.50%";"Moderate"
"PPI (YoY) (Oct)";"China";"CNY";"2005-11-01T09:00:00";"GMT";"4.50%";"";"4.00%";"Moderate"
"Retail Sales (YoY) (Oct)";"China";"CNY";"2005-11-01T09:00:00";"GMT";"12.70%";"";"12.80%";"Low"
"Trade Balance (USD) (Oct)";"China";"CNY";"2005-11-01T09:00:00";"GMT";"7.58B";"";"11.98B";"Moderate"
