{"events": {"event": [
    {
      "eventDateTime": "2018-11-27T05:00:00",
      "eventActual": "0.6%",
      "eventCountry": "Japan",
      "eventExpectedVolatility": "Low",
      "eventName": "BoJ Core CPI (YoY)",
      "eventTimeZone": "GMT",
      "eventPrevious": "0.5%",
      "eventCurrency": "JPY",
      "eventForecast": "0.5%"
    },
    {
      "eventDateTime": "2018-11-27T06:30:00",
      "eventActual": "57.9%",
      "eventCountry": "Japan",
      "eventExpectedVolatility": "Moderate",
      "eventName": "Investing.com USD/JPY Index",
      "eventTimeZone": "GMT",
      "eventPrevious": "64.9%",
      "eventCurrency": "JPY",
      "eventForecast": ""
    }
  ]}}
