{"events": {"event": {
    "eventDateTime": "2017-05-26T19:30:00",
    "eventActual": "-9.2K",
    "eventCountry": "New Zealand",
    "eventExpectedVolatility": "Low",
    "eventName": "CFTC NZD speculative net positions",
    "eventTimeZone": "GMT",
    "eventPrevious": "-12.0K",
    "eventCurrency": "NZD",
    "eventForecast": ""
  }}}
