"French Business Survey";"France";"EUR";"2012-07-24T06:45:00";"GMT";"91";"91";"90";"Low"
"French Manufacturing PMI";"France";"EUR";"2012-07-24T06:58:00";"GMT";"45.2";"45.5";"43.6";"Moderate"
"French Services PMI";"France";"EUR";"2012-07-24T06:58:00";"GMT";"47.9";"47.8";"50.2";"Moderate"
"Spanish PPI (YoY)";"Spain";"EUR";"2012-07-24T07:00:00";"GMT";"3.2%";"3.2%";"2.5%";"Low"
"German Manufacturing PMI";"Germany";"EUR";"2012-07-24T07:28:00";"GMT";"45.0";"45.3";"43.3";"High"
"German Services PMI";"Germany";"EUR";"2012-07-24T07:28:00";"GMT";"49.9";"50.0";"49.7";"Moderate"
"Manufacturing PMI";"Euro Zone";"EUR";"2012-07-24T08:00:00";"GMT";"45.1";"45.3";"44.1";"Moderate"
"Services PMI";"Euro Zone";"EUR";"2012-07-24T08:00:00";"GMT";"47.1";"47.3";"47.6";"Moderate"
"Spanish 3-Month Letras Auction";"Spain";"EUR";"2012-07-24T08:40:00";"GMT";"2.362%";"";"2.434%";"Low"
"Spanish 6-Month Letras Auction";"Spain";"EUR";"2012-07-24T08:40:00";"GMT";"3.237%";"";"3.691%";"Low"
