{"events": {"event": [
    {
      "eventDateTime": "2006-10-01T09:00:00",
      "eventActual": "30.67%",
      "eventCountry": "India",
      "eventExpectedVolatility": "Low",
      "eventName": "Bank Loan Growth (Sep)",
      "eventTimeZone": "GMT",
      "eventPrevious": "31.34%",
      "eventCurrency": "INR",
      "eventForecast": ""
    },
    {
      "eventDateTime": "2006-10-01T09:00:00",
      "eventActual": "5.00%",
      "eventCountry": "India",
      "eventExpectedVolatility": "Low",
      "eventName": "Cash Reserve Ratio (Sep)",
      "eventTimeZone": "GMT",
      "eventPrevious": "5.00%",
      "eventCurrency": "INR",
      "eventForecast": ""
    },
    {
      "eventDateTime": "2006-10-01T09:00:00",
      "eventActual": "11.10%",
      "eventCountry": "India",
      "eventExpectedVolatility": "Low",
      "eventName": "Cumulative Industrial Production (Sep)",
      "eventTimeZone": "GMT",
      "eventPrevious": "11.00%",
      "eventCurrency": "INR",
      "eventForecast": ""
    },
    {
      "eventDateTime": "2006-10-01T09:00:00",
      "eventActual": "20.80%",
      "eventCountry": "India",
      "eventExpectedVolatility": "Low",
      "eventName": "Deposit Growth (Sep)",
      "eventTimeZone": "GMT",
      "eventPrevious": "21.37%",
      "eventCurrency": "INR",
      "eventForecast": ""
    },
    {
      "eventDateTime": "2006-10-01T09:00:00",
      "eventActual": "10.76B",
      "eventCountry": "India",
      "eventExpectedVolatility": "Low",
      "eventName": "Exports (USD) (Sep)",
      "eventTimeZone": "GMT",
      "eventPrevious": "10.77B",
      "eventCurrency": "INR",
      "eventForecast": ""
    },
    {
      "eventDateTime": "2006-10-01T09:00:00",
      "eventActual": "165.31B",
      "eventCountry": "India",
      "eventExpectedVolatility": "Low",
      "eventName": "FX Reserves, USD (Sep)",
      "eventTimeZone": "GMT",
      "eventPrevious": "166.46B",
      "eventCurrency": "INR",
      "eventForecast": ""
    },
    {
      "eventDateTime": "2006-10-01T09:00:00",
      "eventActual": "864.61B",
      "eventCountry": "India",
      "eventExpectedVolatility": "Low",
      "eventName": "Federal Fiscal Deficit (Sep)",
      "eventTimeZone": "GMT",
      "eventPrevious": "906.78B",
      "eventCurrency": "INR",
      "eventForecast": ""
    },
    {
      "eventDateTime": "2006-10-01T09:00:00",
      "eventActual": "17.35B",
      "eventCountry": "India",
      "eventExpectedVolatility": "Low",
      "eventName": "Imports (USD) (Sep)",
      "eventTimeZone": "GMT",
      "eventPrevious": "15.33B",
      "eventCurrency": "INR",
      "eventForecast": ""
    },
    {
      "eventDateTime": "2006-10-01T09:00:00",
      "eventActual": "13.20%",
      "eventCountry": "India",
      "eventExpectedVolatility": "Low",
      "eventName": "Industrial Production (YoY) (Sep)",
      "eventTimeZone": "GMT",
      "eventPrevious": "9.80%",
      "eventCurrency": "INR",
      "eventForecast": ""
    },
    {
      "eventDateTime": "2006-10-01T09:00:00",
      "eventActual": "9.81%",
      "eventCountry": "India",
      "eventExpectedVolatility": "Low",
      "eventName": "Infrastructure Output (YoY) (Sep)",
      "eventTimeZone": "GMT",
      "eventPrevious": "5.48%",
      "eventCurrency": "INR",
      "eventForecast": ""
    },
    {
      "eventDateTime": "2006-10-01T09:00:00",
      "eventActual": "7.00%",
      "eventCountry": "India",
      "eventExpectedVolatility": "High",
      "eventName": "Interest Rate Decision (Sep)",
      "eventTimeZone": "GMT",
      "eventPrevious": "7.00%",
      "eventCurrency": "INR",
      "eventForecast": ""
    },
    {
      "eventDateTime": "2006-10-01T09:00:00",
      "eventActual": "19.96%",
      "eventCountry": "India",
      "eventExpectedVolatility": "Low",
      "eventName": "M3 Money Supply (Sep)",
      "eventTimeZone": "GMT",
      "eventPrevious": "20.49%",
      "eventCurrency": "INR",
      "eventForecast": ""
    },
    {
      "eventDateTime": "2006-10-01T09:00:00",
      "eventActual": "14.80%",
      "eventCountry": "India",
      "eventExpectedVolatility": "Low",
      "eventName": "Manufacturing Output (MoM) (Sep)",
      "eventTimeZone": "GMT",
      "eventPrevious": "12.10%",
      "eventCurrency": "INR",
      "eventForecast": ""
    },
    {
      "eventDateTime": "2006-10-01T09:00:00",
      "eventActual": "6.00%",
      "eventCountry": "India",
      "eventExpectedVolatility": "Low",
      "eventName": "Reverse REPO Rate (Sep)",
      "eventTimeZone": "GMT",
      "eventPrevious": "6.00%",
      "eventCurrency": "INR",
      "eventForecast": ""
    },
    {
      "eventDateTime": "2006-10-01T09:00:00",
      "eventActual": "-6.59B",
      "eventCountry": "India",
      "eventExpectedVolatility": "Low",
      "eventName": "Trade Balance (Sep)",
      "eventTimeZone": "GMT",
      "eventPrevious": "-4.56B",
      "eventCurrency": "INR",
      "eventForecast": ""
    },
    {
      "eventDateTime": "2006-10-01T09:00:00",
      "eventActual": "10.70%",
      "eventCountry": "India",
      "eventExpectedVolatility": "Low",
      "eventName": "WPI Food (YoY) (Sep)",
      "eventTimeZone": "GMT",
      "eventPrevious": "8.20%",
      "eventCurrency": "INR",
      "eventForecast": ""
    },
    {
      "eventDateTime": "2006-10-01T09:00:00",
      "eventActual": "6.80%",
      "eventCountry": "India",
      "eventExpectedVolatility": "Low",
      "eventName": "WPI Fuel (YoY) (Sep)",
      "eventTimeZone": "GMT",
      "eventPrevious": "9.60%",
      "eventCurrency": "INR",
      "eventForecast": ""
    },
    {
      "eventDateTime": "2006-10-01T09:00:00",
      "eventActual": "6.96%",
      "eventCountry": "India",
      "eventExpectedVolatility": "Moderate",
      "eventName": "WPI Inflation (YoY) (Sep)",
      "eventTimeZone": "GMT",
      "eventPrevious": "7.11%",
      "eventCurrency": "INR",
      "eventForecast": ""
    },
    {
      "eventDateTime": "2006-10-01T09:00:00",
      "eventActual": "6.17%",
      "eventCountry": "India",
      "eventExpectedVolatility": "Low",
      "eventName": "WPI Manufacturing Inflation (YoY) (Sep)",
      "eventTimeZone": "GMT",
      "eventPrevious": "5.98%",
      "eventCurrency": "INR",
      "eventForecast": ""
    }
  ]}}
