"BoC Gov Poloz Speaks";"Canada";"CAD";"2016-01-07T13:10:00";"GMT";" ";"";"";"High"
"Ivey PMI (Dec)";"Canada";"CAD";"2016-01-07T15:00:00";"GMT";"63.6";"56.7";"49.9";"High"
"Ivey PMI n.s.a (Dec)";"Canada";"CAD";"2016-01-07T15:00:00";"GMT";"57.9";"";"42.5";"Low"
