"CPI (MoM) (Jun)";"China";"CNY";"2011-07-01T09:00:00";"GMT";"0.10%";"";"0.30%";"Moderate"
"Exports (YoY) (Jun)";"China";"CNY";"2011-07-01T09:00:00";"GMT";"19.30%";"";"17.90%";"Moderate"
"FDI (Jun)";"China";"CNY";"2011-07-01T09:00:00";"GMT";"23.40%";"";"18.40%";"Low"
"House Prices (YoY) (Jun)";"China";"CNY";"2011-07-01T09:00:00";"GMT";"4.10%";"";"4.20%";"Low"
"Imports (YoY) (Jun)";"China";"CNY";"2011-07-01T09:00:00";"GMT";"28.40%";"";"19.30%";"Moderate"
"Manufacturing PMI (Jun)";"China";"CNY";"2011-07-01T09:00:00";"GMT";"52.00";"";"50.90";"High"
"New Loans (Jun)";"China";"CNY";"2011-07-01T09:00:00";"GMT";"551.60B";"";"633.90B";"Moderate"
"Non-Manufacturing PMI (Jun)";"China";"CNY";"2011-07-01T09:00:00";"GMT";"58.70";"";"56.60";"Moderate"
"Outstanding Loan Growth (YoY) (Jun)";"China";"CNY";"2011-07-01T09:00:00";"GMT";"17.10%";"";"16.90%";"Low"
"PBoC Deposit Rate (Jun)";"China";"CNY";"2011-07-01T09:00:00";"GMT";"3.25%";"";"3.25%";"Moderate"
"PBoC Reserve Requirement Ratio (Jun)";"China";"CNY";"2011-07-01T09:00:00";"GMT";"20.73%";"";"21.20%";"Moderate"
