{"events": {"event": [
    {
      "eventDateTime": "2013-04-01T09:00:00",
      "eventActual": "36.71%",
      "eventCountry": "Brazil",
      "eventExpectedVolatility": "Low",
      "eventName": "Auto Production (MoM) (Mar)",
      "eventTimeZone": "GMT",
      "eventPrevious": "-17.67%",
      "eventCurrency": "BRL",
      "eventForecast": ""
    },
    {
      "eventDateTime": "2013-04-01T09:00:00",
      "eventActual": "-15.86B",
      "eventCountry": "Brazil",
      "eventExpectedVolatility": "Low",
      "eventName": "Budget Balance (Mar)",
      "eventTimeZone": "GMT",
      "eventPrevious": "-23.28B",
      "eventCurrency": "BRL",
      "eventForecast": ""
    },
    {
      "eventDateTime": "2013-04-01T09:00:00",
      "eventActual": "3.50B",
      "eventCountry": "Brazil",
      "eventExpectedVolatility": "Low",
      "eventName": "Budget Surplus (Mar)",
      "eventTimeZone": "GMT",
      "eventPrevious": "-3.03B",
      "eventCurrency": "BRL",
      "eventForecast": ""
    },
    {
      "eventDateTime": "2013-04-01T09:00:00",
      "eventActual": "112.00K",
      "eventCountry": "Brazil",
      "eventExpectedVolatility": "Moderate",
      "eventName": "CAGED Net Payroll Jobs (Mar)",
      "eventTimeZone": "GMT",
      "eventPrevious": "123.00K",
      "eventCurrency": "BRL",
      "eventForecast": ""
    },
    {
      "eventDateTime": "2013-04-01T09:00:00",
      "eventActual": "0.47%",
      "eventCountry": "Brazil",
      "eventExpectedVolatility": "Moderate",
      "eventName": "CPI (MoM) (Mar)",
      "eventTimeZone": "GMT",
      "eventPrevious": "0.60%",
      "eventCurrency": "BRL",
      "eventForecast": ""
    },
    {
      "eventDateTime": "2013-04-01T09:00:00",
      "eventActual": "114.00",
      "eventCountry": "Brazil",
      "eventExpectedVolatility": "Low",
      "eventName": "FGV Consumer confidence (Mar)",
      "eventTimeZone": "GMT",
      "eventPrevious": "116.10",
      "eventCurrency": "BRL",
      "eventForecast": ""
    },
    {
      "eventDateTime": "2013-04-01T09:00:00",
      "eventActual": "80.00B",
      "eventCountry": "Brazil",
      "eventExpectedVolatility": "Low",
      "eventName": "Federal Tax Revenue (Mar)",
      "eventTimeZone": "GMT",
      "eventPrevious": "76.00B",
      "eventCurrency": "BRL",
      "eventForecast": ""
    },
    {
      "eventDateTime": "2013-04-01T09:00:00",
      "eventActual": "5.74B",
      "eventCountry": "Brazil",
      "eventExpectedVolatility": "Low",
      "eventName": "Foreign direct investment (USD) (Mar)",
      "eventTimeZone": "GMT",
      "eventPrevious": "3.79B",
      "eventCurrency": "BRL",
      "eventForecast": ""
    },
    {
      "eventDateTime": "2013-04-01T09:00:00",
      "eventActual": "0.31%",
      "eventCountry": "Brazil",
      "eventExpectedVolatility": "Low",
      "eventName": "IGP-DI Inflation Index (MoM) (Mar)",
      "eventTimeZone": "GMT",
      "eventPrevious": "0.20%",
      "eventCurrency": "BRL",
      "eventForecast": ""
    },
    {
      "eventDateTime": "2013-04-01T09:00:00",
      "eventActual": "0.21%",
      "eventCountry": "Brazil",
      "eventExpectedVolatility": "Low",
      "eventName": "IGP-M Inflation Index (MoM) (Mar)",
      "eventTimeZone": "GMT",
      "eventPrevious": "0.29%",
      "eventCurrency": "BRL",
      "eventForecast": ""
    },
    {
      "eventDateTime": "2013-04-01T09:00:00",
      "eventActual": "-0.17%",
      "eventCountry": "Brazil",
      "eventExpectedVolatility": "Moderate",
      "eventName": "IPC-Fipe Inflation Index (MoM) (Mar)",
      "eventTimeZone": "GMT",
      "eventPrevious": "0.22%",
      "eventCurrency": "BRL",
      "eventForecast": ""
    },
    {
      "eventDateTime": "2013-04-01T09:00:00",
      "eventActual": "1.50%",
      "eventCountry": "Brazil",
      "eventExpectedVolatility": "Low",
      "eventName": "Industrial Production (MoM) (Mar)",
      "eventTimeZone": "GMT",
      "eventPrevious": "-2.25%",
      "eventCurrency": "BRL",
      "eventForecast": ""
    },
    {
      "eventDateTime": "2013-04-01T09:00:00",
      "eventActual": "51.00",
      "eventCountry": "Brazil",
      "eventExpectedVolatility": "Low",
      "eventName": "Markit Composite PMI (Mar)",
      "eventTimeZone": "GMT",
      "eventPrevious": "52.90",
      "eventCurrency": "BRL",
      "eventForecast": ""
    },
    {
      "eventDateTime": "2013-04-01T09:00:00",
      "eventActual": "51.80",
      "eventCountry": "Brazil",
      "eventExpectedVolatility": "Low",
      "eventName": "Markit Manufacturing PMI (Mar)",
      "eventTimeZone": "GMT",
      "eventPrevious": "52.50",
      "eventCurrency": "BRL",
      "eventForecast": ""
    },
    {
      "eventDateTime": "2013-04-01T09:00:00",
      "eventActual": "50.30",
      "eventCountry": "Brazil",
      "eventExpectedVolatility": "Low",
      "eventName": "Markit Services PMI (Mar)",
      "eventTimeZone": "GMT",
      "eventPrevious": "52.10",
      "eventCurrency": "BRL",
      "eventForecast": ""
    },
    {
      "eventDateTime": "2013-04-01T09:00:00",
      "eventActual": "0.49%",
      "eventCountry": "Brazil",
      "eventExpectedVolatility": "Low",
      "eventName": "Mid-Month CPI (MoM) (Mar)",
      "eventTimeZone": "GMT",
      "eventPrevious": "0.68%",
      "eventCurrency": "BRL",
      "eventForecast": ""
    },
    {
      "eventDateTime": "2013-04-01T09:00:00",
      "eventActual": "6.43%",
      "eventCountry": "Brazil",
      "eventExpectedVolatility": "Low",
      "eventName": "Mid-Month CPI (YoY) (Mar)",
      "eventTimeZone": "GMT",
      "eventPrevious": "6.18%",
      "eventCurrency": "BRL",
      "eventForecast": ""
    },
    {
      "eventDateTime": "2013-04-01T09:00:00",
      "eventActual": "0.64%",
      "eventCountry": "Brazil",
      "eventExpectedVolatility": "Moderate",
      "eventName": "Retail Sales (MoM) (Mar)",
      "eventTimeZone": "GMT",
      "eventPrevious": "0.00%",
      "eventCurrency": "BRL",
      "eventForecast": ""
    },
    {
      "eventDateTime": "2013-04-01T18:00:00",
      "eventActual": "0.16B",
      "eventCountry": "Brazil",
      "eventExpectedVolatility": "Low",
      "eventName": "Trade Balance",
      "eventTimeZone": "GMT",
      "eventPrevious": "-1.28B",
      "eventCurrency": "BRL",
      "eventForecast": "0.20B"
    }
  ]}}
