"FOMC Member Rosengren Speaks";"United States";"USD";"2016-09-09T11:45:00";"GMT";" ";"";"";"Moderate"
"FOMC Member Kaplan Speaks";"United States";"USD";"2016-09-09T13:30:00";"GMT";" ";"";"";"Moderate"
"Wholesale Inventories (MoM) (Jul)";"United States";"USD";"2016-09-09T14:00:00";"GMT";"0.3%";"0.1%";"0.0%";"Low"
"U.S. Baker Hughes Oil Rig Count";"United States";"USD";"2016-09-09T17:00:00";"GMT";"407";"";"414";"Moderate"
"CFTC Copper speculative net positions";"United States";"USD";"2016-09-09T19:30:00";"GMT";"-21.9K";"";"-30.2K";"Low"
"CFTC Crude Oil speculative net positions";"United States";"USD";"2016-09-09T19:30:00";"GMT";"341.3K";"";"285.8K";"Moderate"
"CFTC Gold speculative net positions";"United States";"USD";"2016-09-09T19:30:00";"GMT";"276.3K";"";"307.9K";"Moderate"
"CFTC Sandamp:P 500 speculative net positions";"United States";"USD";"2016-09-09T19:30:00";"GMT";"200.1K";"";"183.6K";"Moderate"
"CFTC Silver speculative net positions";"United States";"USD";"2016-09-09T19:30:00";"GMT";"84.4K";"";"88.0K";"Low"
