{"events": {"event": [
    {
      "eventDateTime": "2015-03-09T06:30:00",
      "eventActual": "49.9%",
      "eventCountry": "Canada",
      "eventExpectedVolatility": "Moderate",
      "eventName": "Investing.com USD/CAD Index",
      "eventTimeZone": "GMT",
      "eventPrevious": "51.4%",
      "eventCurrency": "CAD",
      "eventForecast": ""
    },
    {
      "eventDateTime": "2015-03-09T12:15:00",
      "eventActual": "156.3K",
      "eventCountry": "Canada",
      "eventExpectedVolatility": "Moderate",
      "eventName": "Housing Starts (Feb)",
      "eventTimeZone": "GMT",
      "eventPrevious": "187.0K",
      "eventCurrency": "CAD",
      "eventForecast": "179.0K"
    }
  ]}}
