{"events": {"event": {
    "eventDateTime": "2012-01-23T13:30:00",
    "eventActual": "0.8%",
    "eventCountry": "Canada",
    "eventExpectedVolatility": "Moderate",
    "eventName": "Leading Indicators (MoM)",
    "eventTimeZone": "GMT",
    "eventPrevious": "0.9%",
    "eventCurrency": "CAD",
    "eventForecast": "0.6%"
  }}}
