"CPI (MoM) (Nov)";"South Korea";"KRW";"2003-12-01T09:00:00";"GMT";"0.10%";"";"-0.20%";"Low"
"CPI (YoY) (Nov)";"South Korea";"KRW";"2003-12-01T09:00:00";"GMT";"3.70%";"";"3.40%";"Moderate"
"Current Account (Nov)";"South Korea";"KRW";"2003-12-01T09:00:00";"GMT";"2.43B";"";"2.05B";"Low"
"Export Price Index (YoY) (Nov)";"South Korea";"KRW";"2003-12-01T09:00:00";"GMT";"-3.40%";"";"1.90%";"Low"
"Exports (YoY) (Nov)";"South Korea";"KRW";"2003-12-01T09:00:00";"GMT";"25.50%";"";"20.00%";"Low"
"FX Reserves - USD (Nov)";"South Korea";"KRW";"2003-12-01T09:00:00";"GMT";"143.32B";"";"150.34B";"Low"
"Import Price Index (YoY) (Nov)";"South Korea";"KRW";"2003-12-01T09:00:00";"GMT";"-0.80%";"";"6.40%";"Low"
"Imports (YoY) (Nov)";"South Korea";"KRW";"2003-12-01T09:00:00";"GMT";"19.70%";"";"12.60%";"Low"
"Industrial Production (MoM) (Nov)";"South Korea";"KRW";"2003-12-01T09:00:00";"GMT";"2.20%";"";"-0.50%";"Low"
"Industrial Production (YoY) (Nov)";"South Korea";"KRW";"2003-12-01T09:00:00";"GMT";"8.30%";"";"5.30%";"Low"
"Interest Rate Decision (Nov)";"South Korea";"KRW";"2003-12-01T09:00:00";"GMT";"3.75%";"";"3.75%";"Low"
"M2 Money supply (Nov)";"South Korea";"KRW";"2003-12-01T09:00:00";"GMT";"6.50%";"";"6.40%";"Low"
"Manufacturing BSI Index (Nov)";"South Korea";"KRW";"2003-12-01T09:00:00";"GMT";"87.00";"";"86.00";"Low"
"PPI (MoM) (Nov)";"South Korea";"KRW";"2003-12-01T09:00:00";"GMT";"0.30%";"";"0.50%";"Low"
"PPI (YoY) (Nov)";"South Korea";"KRW";"2003-12-01T09:00:00";"GMT";"2.20%";"";"2.50%";"Low"
"Service Sector Output (MoM) (Nov)";"South Korea";"KRW";"2003-12-01T09:00:00";"GMT";"-0.10%";"";"0.10%";"Low"
"Trade Balance (Nov)";"South Korea";"KRW";"2003-12-01T09:00:00";"GMT";"2.39B";"";"0.00B";"Low"
"Unemployment Rate (Nov)";"South Korea";"KRW";"2003-12-01T09:00:00";"GMT";"3.80%";"";"3.90%";"Low"
