"Unemployment Rate n.s.a.";"Switzerland";"CHF";"2014-04-08T05:45:00";"GMT";"3.5%";"3.3%";"3.3%";"Moderate"
"Unemployment Rate s.a.";"Switzerland";"CHF";"2014-04-08T05:45:00";"GMT";"3.2%";"3.2%";"3.2%";"Moderate"
"Retail Sales (YoY)";"Switzerland";"CHF";"2014-04-08T07:15:00";"GMT";"-0.1%";"0.9%";"1.0%";"Moderate"
