"GfK Consumer Confidence (Jan)";"United Kingdom";"GBP";"2019-01-31T00:01:00";"GMT";"-14";"-14";"-14";"Low"
"Nationwide HPI (MoM) (Jan)";"United Kingdom";"GBP";"2019-01-31T07:00:00";"GMT";"-0.7%";"0.2%";"0.3%";"Moderate"
"Nationwide HPI (YoY) (Jan)";"United Kingdom";"GBP";"2019-01-31T07:00:00";"GMT";"0.5%";"0.0%";"0.1%";"Moderate"
