"Core Retail Sales (QoQ)";"New Zealand";"NZD";"2019-08-22T22:45:00";"GMT";"0.7%";"0.2%";"0.2%";"Moderate"
"Retail Sales (QoQ) (Q2)";"New Zealand";"NZD";"2019-08-22T22:45:00";"GMT";"0.7%";"0.1%";"0.2%";"Moderate"
"Retail Sales Quarterly Vs. Year Ago (Q2)";"New Zealand";"NZD";"2019-08-22T22:45:00";"GMT";"3.3%";"";"2.9%";"Low"
