"Spanish Unemployment Change";"Spain";"EUR";"2017-06-02T07:00:00";"GMT";"-129.3K";"-110.2K";"-111.9K";"Moderate"
"PPI (MoM) (Apr)";"Euro Zone";"EUR";"2017-06-02T09:00:00";"GMT";"-0.3%";"0.3%";"0.0%";"Low"
"PPI (YoY) (Apr)";"Euro Zone";"EUR";"2017-06-02T09:00:00";"GMT";"3.9%";"4.5%";"4.3%";"Low"
"CFTC EUR speculative net positions";"Euro Zone";"EUR";"2017-06-02T19:30:00";"GMT";"64.8K";"";"72.9K";"Moderate"
