{"events": {"event": [
    {
      "eventDateTime": "2016-10-31T12:30:00",
      "eventActual": "-67.100B",
      "eventCountry": "Brazil",
      "eventExpectedVolatility": "Low",
      "eventName": "Budget Balance (Sep)",
      "eventTimeZone": "GMT",
      "eventPrevious": "-62.943B",
      "eventCurrency": "BRL",
      "eventForecast": "-80.000B"
    },
    {
      "eventDateTime": "2016-10-31T12:30:00",
      "eventActual": "-26.640B",
      "eventCountry": "Brazil",
      "eventExpectedVolatility": "Low",
      "eventName": "Budget Surplus (Sep)",
      "eventTimeZone": "GMT",
      "eventPrevious": "-22.267B",
      "eventCurrency": "BRL",
      "eventForecast": "-26.500B"
    },
    {
      "eventDateTime": "2016-10-31T12:30:00",
      "eventActual": "44.1%",
      "eventCountry": "Brazil",
      "eventExpectedVolatility": "Low",
      "eventName": "Debt-to-GDP ratio (Sep)",
      "eventTimeZone": "GMT",
      "eventPrevious": "43.3%",
      "eventCurrency": "BRL",
      "eventForecast": "43.5%"
    }
  ]}}
