"Nikkei Manufacturing PMI (Nov)";"South Korea";"KRW";"2018-12-03T00:30:00";"GMT";"51.0";"";"48.6";"Low"
"CPI (MoM) (Nov)";"South Korea";"KRW";"2018-12-03T23:00:00";"GMT";"-0.2%";"-0.4%";"-0.7%";"Low"
"CPI (YoY) (Nov)";"South Korea";"KRW";"2018-12-03T23:00:00";"GMT";"2.0%";"2.2%";"2.0%";"Moderate"
"GDP (QoQ) (Q3)";"South Korea";"KRW";"2018-12-03T23:00:00";"GMT";"0.6%";"0.6%";"0.6%";"Low"
"GDP (YoY) (Q3)";"South Korea";"KRW";"2018-12-03T23:00:00";"GMT";"2.0%";"2.0%";"2.0%";"Low"
