{"events": {"event": {
    "eventDateTime": "2016-06-13T06:30:00",
    "eventActual": "35.4%",
    "eventCountry": "Japan",
    "eventExpectedVolatility": "Moderate",
    "eventName": "Investing.com USD/JPY Index",
    "eventTimeZone": "GMT",
    "eventPrevious": "50.6%",
    "eventCurrency": "JPY",
    "eventForecast": ""
  }}}
