{"events": {"event": [
    {
      "eventDateTime": "2008-08-05T08:30:00",
      "eventActual": "-0.2%",
      "eventCountry": "United Kingdom",
      "eventExpectedVolatility": "Moderate",
      "eventName": "Industrial Production (MoM)",
      "eventTimeZone": "GMT",
      "eventPrevious": "-0.8%",
      "eventCurrency": "GBP",
      "eventForecast": "0.1%"
    },
    {
      "eventDateTime": "2008-08-05T08:30:00",
      "eventActual": "-0.5%",
      "eventCountry": "United Kingdom",
      "eventExpectedVolatility": "High",
      "eventName": "Manufacturing Production (MoM)",
      "eventTimeZone": "GMT",
      "eventPrevious": "-0.5%",
      "eventCurrency": "GBP",
      "eventForecast": "0.1%"
    },
    {
      "eventDateTime": "2008-08-05T08:30:00",
      "eventActual": "47.4",
      "eventCountry": "United Kingdom",
      "eventExpectedVolatility": "High",
      "eventName": "Services PMI",
      "eventTimeZone": "GMT",
      "eventPrevious": "47.1",
      "eventCurrency": "GBP",
      "eventForecast": "46.7"
    },
    {
      "eventDateTime": "2008-08-05T23:01:00",
      "eventActual": "0.1%",
      "eventCountry": "United Kingdom",
      "eventExpectedVolatility": "Moderate",
      "eventName": "NIESR GDP Estimate",
      "eventTimeZone": "GMT",
      "eventPrevious": "0.2%",
      "eventCurrency": "GBP",
      "eventForecast": ""
    },
    {
      "eventDateTime": "2008-08-05T23:01:00",
      "eventActual": "51",
      "eventCountry": "United Kingdom",
      "eventExpectedVolatility": "Moderate",
      "eventName": "Nationwide Consumer Confidence",
      "eventTimeZone": "GMT",
      "eventPrevious": "63",
      "eventCurrency": "GBP",
      "eventForecast": "59"
    }
  ]}}
