{"events": {"event": [
    {
      "eventDateTime": "2018-03-30T05:00:00",
      "eventActual": "19.2%",
      "eventCountry": "Japan",
      "eventExpectedVolatility": "Low",
      "eventName": "Construction Orders (YoY) (Feb)",
      "eventTimeZone": "GMT",
      "eventPrevious": "0.9%",
      "eventCurrency": "JPY",
      "eventForecast": ""
    },
    {
      "eventDateTime": "2018-03-30T05:00:00",
      "eventActual": "-2.6%",
      "eventCountry": "Japan",
      "eventExpectedVolatility": "Low",
      "eventName": "Housing Starts (YoY) (Feb)",
      "eventTimeZone": "GMT",
      "eventPrevious": "-13.2%",
      "eventCurrency": "JPY",
      "eventForecast": "-3.9%"
    },
    {
      "eventDateTime": "2018-03-30T19:30:00",
      "eventActual": "-3.7K",
      "eventCountry": "Japan",
      "eventExpectedVolatility": "Moderate",
      "eventName": "CFTC JPY speculative net positions",
      "eventTimeZone": "GMT",
      "eventPrevious": "-22.0K",
      "eventCurrency": "JPY",
      "eventForecast": ""
    }
  ]}}
