{"events": {"event": {
    "eventDateTime": "2014-10-23T11:01:00",
    "eventActual": "443.8B",
    "eventCountry": "Russia",
    "eventExpectedVolatility": "Moderate",
    "eventName": "Central Bank reserves (USD)",
    "eventTimeZone": "GMT",
    "eventPrevious": "451.7B",
    "eventCurrency": "RUB",
    "eventForecast": ""
  }}}
