{"events": {"event": {
    "eventDateTime": "2011-07-15T19:30:00",
    "eventActual": "28.3K",
    "eventCountry": "Japan",
    "eventExpectedVolatility": "Moderate",
    "eventName": "CFTC JPY speculative net positions",
    "eventTimeZone": "GMT",
    "eventPrevious": "14.3K",
    "eventCurrency": "JPY",
    "eventForecast": ""
  }}}
