"French CPI (MoM)";"France";"EUR";"2012-09-12T05:30:00";"GMT";"-0.4%";"0.5%";"0.7%";"Moderate"
"German CPI (MoM)";"Germany";"EUR";"2012-09-12T06:00:00";"GMT";"0.3%";"0.3%";"0.4%";"Moderate"
"German CPI (YoY)";"Germany";"EUR";"2012-09-12T06:00:00";"GMT";"2.0%";"2.0%";"2.1%";"Low"
"French Current Account";"France";"EUR";"2012-09-12T06:45:00";"GMT";"-4.80B";"-5.00B";"-2.50B";"Low"
"Spanish CPI (MoM)";"Spain";"EUR";"2012-09-12T07:00:00";"GMT";"-0.2%";"0.6%";"0.6%";"Low"
"Italian Industrial Production (MoM)";"Italy";"EUR";"2012-09-12T08:00:00";"GMT";"-1.3%";"-0.5%";"-0.2%";"Low"
"Industrial Production (MoM)";"Euro Zone";"EUR";"2012-09-12T09:00:00";"GMT";"-0.6%";"-0.1%";"0.6%";"Moderate"
"Italian 12-Month BOT Auction";"Italy";"EUR";"2012-09-12T09:10:00";"GMT";"2.767%";"";"1.692%";"Low"
"Italian 3-Month BOT Auction";"Italy";"EUR";"2012-09-12T09:10:00";"GMT";"0.865%";"";"0.700%";"Low"
"German 5-Year Bobl Auction";"Germany";"EUR";"2012-09-12T09:30:00";"GMT";"0.310%";"";"0.610%";"Low"
