"Bank Lending (YoY) (Mar)";"Japan";"JPY";"2001-04-01T09:00:00";"GMT";"-3.80%";"";"-3.80%";"Low"
"Capacity Utilization (MoM) (Mar)";"Japan";"JPY";"2001-04-01T09:00:00";"GMT";"1.40%";"";"-1.00%";"Low"
"Coincident Indicator (MoM) (Mar)";"Japan";"JPY";"2001-04-01T09:00:00";"GMT";"-0.50%";"";"-1.40%";"Low"
"Construction Orders (YoY) (Mar)";"Japan";"JPY";"2001-04-01T09:00:00";"GMT";"-14.50%";"";"-17.90%";"Low"
"Core Machinery Orders (MoM) (Mar)";"Japan";"JPY";"2001-04-01T09:00:00";"GMT";"-2.90%";"";"0.50%";"Low"
"Core Machinery Orders (YoY) (Mar)";"Japan";"JPY";"2001-04-01T09:00:00";"GMT";"1.70%";"";"1.70%";"Low"
"Current Account n.s.a. (Mar)";"Japan";"JPY";"2001-04-01T09:00:00";"GMT";"1.41T";"";"1.50T";"Moderate"
"Economy Watchers Current Index (Mar)";"Japan";"JPY";"2001-04-01T09:00:00";"GMT";"39.60";"";"40.30";"Low"
"Exports (YoY) (Mar)";"Japan";"JPY";"2001-04-01T09:00:00";"GMT";"1.50%";"";"4.70%";"Moderate"
"Foreign Reserves (USD) (Mar)";"Japan";"JPY";"2001-04-01T09:00:00";"GMT";"363.69B";"";"361.47B";"Low"
"Household Confidence (Mar)";"Japan";"JPY";"2001-04-01T09:00:00";"GMT";"43.20";"";"38.80";"Low"
"Household Spending (MoM) (Mar)";"Japan";"JPY";"2001-04-01T09:00:00";"GMT";"2.60%";"";"-1.60%";"Moderate"
"Household Spending (YoY) (Mar)";"Japan";"JPY";"2001-04-01T09:00:00";"GMT";"1.40%";"";"2.30%";"Moderate"
"Housing Starts (YoY) (Mar)";"Japan";"JPY";"2001-04-01T09:00:00";"GMT";"-5.90%";"";"-1.40%";"Low"
"Imports (YoY) (Mar)";"Japan";"JPY";"2001-04-01T09:00:00";"GMT";"12.30%";"";"11.60%";"Low"
"Industrial Production (MoM) (Mar)";"Japan";"JPY";"2001-04-01T09:00:00";"GMT";"1.20%";"";"-1.70%";"Moderate"
"Jobs/applications ratio (Mar)";"Japan";"JPY";"2001-04-01T09:00:00";"GMT";"0.64";"";"0.63";"Moderate"
"Leading Index (MoM) (Mar)";"Japan";"JPY";"2001-04-01T09:00:00";"GMT";"-0.90%";"";"-0.90%";"Low"
"National CPI (YoY) (Mar)";"Japan";"JPY";"2001-04-01T09:00:00";"GMT";"-0.30%";"";"-0.70%";"Low"
"National Core CPI (YoY) (Mar)";"Japan";"JPY";"2001-04-01T09:00:00";"GMT";"-0.80%";"";"-0.90%";"Moderate"
"Overtime Pay (YoY) (Mar)";"Japan";"JPY";"2001-04-01T09:00:00";"GMT";"1.90%";"";"-1.10%";"Low"
"PPI (MoM) (Mar)";"Japan";"JPY";"2001-04-01T09:00:00";"GMT";"0.00%";"";"-0.20%";"Low"
"PPI (YoY) (Mar)";"Japan";"JPY";"2001-04-01T09:00:00";"GMT";"-1.80%";"";"-1.90%";"Low"
"Retail Sales (YoY) (Mar)";"Japan";"JPY";"2001-04-01T09:00:00";"GMT";"-0.50%";"";"1.70%";"Moderate"
"Reuters Tankan Index (Mar)";"Japan";"JPY";"2001-04-01T09:00:00";"GMT";"-10.00";"";"-12.00";"Low"
"Tokyo CPI (YoY) (Mar)";"Japan";"JPY";"2001-04-01T09:00:00";"GMT";"-0.90%";"";"-1.30%";"Low"
"Tokyo Core CPI (YoY) (Mar)";"Japan";"JPY";"2001-04-01T09:00:00";"GMT";"-1.40%";"";"-1.50%";"Moderate"
"Trade Balance (Mar)";"Japan";"JPY";"2001-04-01T09:00:00";"GMT";"875.70B";"";"908.00B";"Moderate"
"Unemployment Rate (Mar)";"Japan";"JPY";"2001-04-01T09:00:00";"GMT";"4.70%";"";"4.80%";"Low"
