{"events": {"event": [
    {
      "eventDateTime": "2015-10-30T12:30:00",
      "eventActual": "0.1%",
      "eventCountry": "Canada",
      "eventExpectedVolatility": "High",
      "eventName": "GDP (MoM) (Aug)",
      "eventTimeZone": "GMT",
      "eventPrevious": "0.3%",
      "eventCurrency": "CAD",
      "eventForecast": "0.1%"
    },
    {
      "eventDateTime": "2015-10-30T15:00:00",
      "eventActual": "-2.34B",
      "eventCountry": "Canada",
      "eventExpectedVolatility": "Low",
      "eventName": "Budget Balance (Aug)",
      "eventTimeZone": "GMT",
      "eventPrevious": "0.15B",
      "eventCurrency": "CAD",
      "eventForecast": ""
    },
    {
      "eventDateTime": "2015-10-30T15:00:00",
      "eventActual": "2.82B",
      "eventCountry": "Canada",
      "eventExpectedVolatility": "Low",
      "eventName": "Budget Balance (YoY) (Aug)",
      "eventTimeZone": "GMT",
      "eventPrevious": "5.16B",
      "eventCurrency": "CAD",
      "eventForecast": ""
    },
    {
      "eventDateTime": "2015-10-30T19:30:00",
      "eventActual": "-18.9K",
      "eventCountry": "Canada",
      "eventExpectedVolatility": "Low",
      "eventName": "CFTC CAD speculative net positions",
      "eventTimeZone": "GMT",
      "eventPrevious": "-27.1K",
      "eventCurrency": "CAD",
      "eventForecast": ""
    }
  ]}}
