{"events": {"event": {
    "eventDateTime": "2013-07-16T12:30:00",
    "eventActual": "0.70%",
    "eventCountry": "Canada",
    "eventExpectedVolatility": "Moderate",
    "eventName": "Manufacturing Sales (MoM)",
    "eventTimeZone": "GMT",
    "eventPrevious": "-2.10%",
    "eventCurrency": "CAD",
    "eventForecast": "1.00%"
  }}}
