"Bank Loan Growth (Mar)";"India";"INR";"2005-04-01T09:00:00";"GMT";"30.15%";"";"30.70%";"Low"
"Cash Reserve Ratio (Mar)";"India";"INR";"2005-04-01T09:00:00";"GMT";"5.00%";"";"5.00%";"Low"
"Deposit Growth (Mar)";"India";"INR";"2005-04-01T09:00:00";"GMT";"14.61%";"";"13.65%";"Low"
"Exports (USD) (Mar)";"India";"INR";"2005-04-01T09:00:00";"GMT";"8.05B";"";"10.16B";"Low"
"FX Reserves, USD (Mar)";"India";"INR";"2005-04-01T09:00:00";"GMT";"137.56B";"";"141.20B";"Low"
"Federal Fiscal Deficit (Mar)";"India";"INR";"2005-04-01T09:00:00";"GMT";"1,154.98B";"";"1,252.02B";"Low"
"Imports (USD) (Mar)";"India";"INR";"2005-04-01T09:00:00";"GMT";"10.36B";"";"12.37B";"Low"
"Interest Rate Decision (Mar)";"India";"INR";"2005-04-01T09:00:00";"GMT";"6.00%";"";"6.00%";"High"
"M3 Money Supply (Mar)";"India";"INR";"2005-04-01T09:00:00";"GMT";"13.49%";"";"12.95%";"Low"
"Reverse REPO Rate (Mar)";"India";"INR";"2005-04-01T09:00:00";"GMT";"4.75%";"";"4.75%";"Low"
"Trade Balance (Mar)";"India";"INR";"2005-04-01T09:00:00";"GMT";"-2.31B";"";"-2.22B";"Low"
