{"events": {"event": [
    {
      "eventDateTime": "2014-03-07T05:00:00",
      "eventActual": "112.2",
      "eventCountry": "Japan",
      "eventExpectedVolatility": "Low",
      "eventName": "Leading Index",
      "eventTimeZone": "GMT",
      "eventPrevious": "111.7",
      "eventCurrency": "JPY",
      "eventForecast": "112.4"
    },
    {
      "eventDateTime": "2014-03-07T20:30:00",
      "eventActual": "-79.7K",
      "eventCountry": "Japan",
      "eventExpectedVolatility": "Moderate",
      "eventName": "CFTC JPY speculative net positions",
      "eventTimeZone": "GMT",
      "eventPrevious": "-85.1K",
      "eventCurrency": "JPY",
      "eventForecast": ""
    }
  ]}}
