{"events": {"event": {
    "eventDateTime": "2010-03-12T20:30:00",
    "eventActual": "-63.5K",
    "eventCountry": "United Kingdom",
    "eventExpectedVolatility": "Moderate",
    "eventName": "CFTC GBP speculative net positions",
    "eventTimeZone": "GMT",
    "eventPrevious": "-67.5K",
    "eventCurrency": "GBP",
    "eventForecast": ""
  }}}
