"CPI (MoM) (Oct)";"South Africa";"ZAR";"2019-11-20T08:00:00";"GMT";"0.3%";"0.2%";"0.0%";"Moderate"
"CPI (YoY) (Oct)";"South Africa";"ZAR";"2019-11-20T08:00:00";"GMT";"4.1%";"3.9%";"3.7%";"Low"
"Core CPI (MoM) (Oct)";"South Africa";"ZAR";"2019-11-20T08:00:00";"GMT";"0.2%";"0.1%";"0.1%";"Moderate"
"Core CPI (YoY) (Oct)";"South Africa";"ZAR";"2019-11-20T08:00:00";"GMT";"4.0%";"4.0%";"4.0%";"Low"
