{"events": {"event": {
    "eventDateTime": "2018-06-05T01:45:00",
    "eventActual": "52.9",
    "eventCountry": "China",
    "eventExpectedVolatility": "Moderate",
    "eventName": "Caixin Services PMI (May)",
    "eventTimeZone": "GMT",
    "eventPrevious": "52.9",
    "eventCurrency": "CNY",
    "eventForecast": "52.9"
  }}}
