"Economy Watchers Current Index";"Japan";"JPY";"2012-03-08T05:00:00";"GMT";"44.1";"46.3";"45.9";"Low"
"Machine Tool Orders (YoY)";"Japan";"JPY";"2012-03-08T06:00:00";"GMT";"-6.9%";"";"-8.6%";"Low"
"M2 Money Stock (YoY)";"Japan";"JPY";"2012-03-08T23:50:00";"GMT";"3.1%";"3.1%";"2.9%";"Low"
