{"events": {"event": [
    {
      "eventDateTime": "2012-03-08T05:00:00",
      "eventActual": "45.9",
      "eventCountry": "Japan",
      "eventExpectedVolatility": "Low",
      "eventName": "Economy Watchers Current Index",
      "eventTimeZone": "GMT",
      "eventPrevious": "44.1",
      "eventCurrency": "JPY",
      "eventForecast": "46.3"
    },
    {
      "eventDateTime": "2012-03-08T06:00:00",
      "eventActual": "-8.6%",
      "eventCountry": "Japan",
      "eventExpectedVolatility": "Low",
      "eventName": "Machine Tool Orders (YoY)",
      "eventTimeZone": "GMT",
      "eventPrevious": "-6.9%",
      "eventCurrency": "JPY",
      "eventForecast": ""
    },
    {
      "eventDateTime": "2012-03-08T23:50:00",
      "eventActual": "2.9%",
      "eventCountry": "Japan",
      "eventExpectedVolatility": "Low",
      "eventName": "M2 Money Stock (YoY)",
      "eventTimeZone": "GMT",
      "eventPrevious": "3.1%",
      "eventCurrency": "JPY",
      "eventForecast": "3.1%"
    }
  ]}}
