"AIG Manufacturing Index (Dec)";"Australia";"AUD";"2005-01-01T09:00:00";"GMT";"53.69";"";"57.83";"Moderate"
"AIG Services Index (Dec)";"Australia";"AUD";"2005-01-01T09:00:00";"GMT";"55.72";"";"60.49";"Low"
"ANZ Internet Job Ads (MoM) (Dec)";"Australia";"AUD";"2005-01-01T09:00:00";"GMT";"4.90%";"";"2.90%";"Low"
"ANZ Newspaper Job Ads (MoM) (Dec)";"Australia";"AUD";"2005-01-01T09:00:00";"GMT";"0.30%";"";"0.00%";"Low"
"Building Approvals (MoM) (Dec)";"Australia";"AUD";"2005-01-01T09:00:00";"GMT";"1.80%";"";"5.90%";"Moderate"
"Employment Change (Dec)";"Australia";"AUD";"2005-01-01T09:00:00";"GMT";"28.30K";"";"17.10K";"High"
"Exports (MoM) (Dec)";"Australia";"AUD";"2005-01-01T09:00:00";"GMT";"-0.90%";"";"-0.10%";"Low"
"Full Employment Change (Dec)";"Australia";"AUD";"2005-01-01T09:00:00";"GMT";"7.20K";"";"16.80K";"Moderate"
"HIA New Home Sales (MoM) (Dec)";"Australia";"AUD";"2005-01-01T09:00:00";"GMT";"22.90%";"";"-16.00%";"Moderate"
"Home Loans (MoM) (Dec)";"Australia";"AUD";"2005-01-01T09:00:00";"GMT";"2.40%";"";"1.50%";"Moderate"
"Housing Credit (Dec)";"Australia";"AUD";"2005-01-01T09:00:00";"GMT";"1.30%";"";"1.40%";"Low"
"Imports (MoM) (Dec)";"Australia";"AUD";"2005-01-01T09:00:00";"GMT";"1.40%";"";"-0.60%";"Low"
"Invest Housing Finance (MoM) (Dec)";"Australia";"AUD";"2005-01-01T09:00:00";"GMT";"10.30%";"";"-3.00%";"Low"
"MI Inflation Gauge (MoM) (Dec)";"Australia";"AUD";"2005-01-01T09:00:00";"GMT";"0.40%";"";"-0.10%";"Low"
"NAB Business Confidence (Dec)";"Australia";"AUD";"2005-01-01T09:00:00";"GMT";"11.00";"";"13.00";"Moderate"
"NAB Business Survey (Dec)";"Australia";"AUD";"2005-01-01T09:00:00";"GMT";"13.80";"";"13.40";"Low"
"Participation Rate (Dec)";"Australia";"AUD";"2005-01-01T09:00:00";"GMT";"63.80%";"";"63.70%";"Low"
"Private House Approvals (Dec)";"Australia";"AUD";"2005-01-01T09:00:00";"GMT";"1.00%";"";"-2.60%";"Low"
"Private Sector Credit (MoM) (Dec)";"Australia";"AUD";"2005-01-01T09:00:00";"GMT";"0.80%";"";"1.00%";"Moderate"
"RBA Interest Rate Decision (Dec)";"Australia";"AUD";"2005-01-01T09:00:00";"GMT";"5.25%";"";"5.25%";"High"
"Retail Sales (MoM) (Dec)";"Australia";"AUD";"2005-01-01T09:00:00";"GMT";"-0.20%";"";"0.00%";"High"
"Trade Balance (Dec)";"Australia";"AUD";"2005-01-01T09:00:00";"GMT";"-2.54B";"";"-2.47B";"Moderate"
"Unemployment Rate (Dec)";"Australia";"AUD";"2005-01-01T09:00:00";"GMT";"5.20%";"";"5.10%";"Moderate"
"Westpac Consumer Sentiment (Dec)";"Australia";"AUD";"2005-01-01T09:00:00";"GMT";"1.00%";"";"-2.80%";"Moderate"
