{"events": {"event": [
    {
      "eventDateTime": "2019-09-24T08:30:00",
      "eventActual": "5.77B",
      "eventCountry": "United Kingdom",
      "eventExpectedVolatility": "Low",
      "eventName": "Public Sector Net Borrowing (Aug)",
      "eventTimeZone": "GMT",
      "eventPrevious": "-1.47B",
      "eventCurrency": "GBP",
      "eventForecast": "6.60B"
    },
    {
      "eventDateTime": "2019-09-24T08:30:00",
      "eventActual": "6.399B",
      "eventCountry": "United Kingdom",
      "eventExpectedVolatility": "Low",
      "eventName": "Public Sector Net Cash Requirement (Aug)",
      "eventTimeZone": "GMT",
      "eventPrevious": "-14.078B",
      "eventCurrency": "GBP",
      "eventForecast": ""
    },
    {
      "eventDateTime": "2019-09-24T09:30:00",
      "eventActual": "",
      "eventCountry": "United Kingdom",
      "eventExpectedVolatility": "Moderate",
      "eventName": "UK Supreme Court Decision",
      "eventTimeZone": "GMT",
      "eventPrevious": "",
      "eventCurrency": "GBP",
      "eventForecast": ""
    },
    {
      "eventDateTime": "2019-09-24T09:45:00",
      "eventActual": "1.536%",
      "eventCountry": "United Kingdom",
      "eventExpectedVolatility": "Low",
      "eventName": "30-Year Treasury Gilt Auction",
      "eventTimeZone": "GMT",
      "eventPrevious": "1.148%",
      "eventCurrency": "GBP",
      "eventForecast": ""
    },
    {
      "eventDateTime": "2019-09-24T10:00:00",
      "eventActual": "-28",
      "eventCountry": "United Kingdom",
      "eventExpectedVolatility": "Moderate",
      "eventName": "CBI Industrial Trends Orders (Sep)",
      "eventTimeZone": "GMT",
      "eventPrevious": "-13",
      "eventCurrency": "GBP",
      "eventForecast": "-14"
    }
  ]}}
