"Exports (Apr)";"New Zealand";"NZD";"2017-05-23T22:45:00";"GMT";"4.61B";"4.40B";"4.75B";"Low"
"Imports (Apr)";"New Zealand";"NZD";"2017-05-23T22:45:00";"GMT";"4.33B";"4.10B";"4.17B";"Low"
"Trade Balance (MoM) (Apr)";"New Zealand";"NZD";"2017-05-23T22:45:00";"GMT";"277M";"267M";"578M";"Moderate"
"Trade Balance (YoY) (Apr)";"New Zealand";"NZD";"2017-05-23T22:45:00";"GMT";"-3,710M";"-3,790M";"-3,480M";"Moderate"
