{"events": {"event": {
    "eventDateTime": "2012-02-21T02:00:00",
    "eventActual": "2.5%",
    "eventCountry": "New Zealand",
    "eventExpectedVolatility": "Moderate",
    "eventName": "Inflation Expectations (QoQ)",
    "eventTimeZone": "GMT",
    "eventPrevious": "2.8%",
    "eventCurrency": "NZD",
    "eventForecast": ""
  }}}
