{"events": {"event": {
    "eventDateTime": "2009-11-10T21:45:00",
    "eventActual": "-1.5%",
    "eventCountry": "New Zealand",
    "eventExpectedVolatility": "Low",
    "eventName": "FPI (MoM)",
    "eventTimeZone": "GMT",
    "eventPrevious": "-0.7%",
    "eventCurrency": "NZD",
    "eventForecast": ""
  }}}
