{"events": {"event": [
    {
      "eventDateTime": "2009-05-01T09:00:00",
      "eventActual": "0.30%",
      "eventCountry": "South Korea",
      "eventExpectedVolatility": "Low",
      "eventName": "CPI (MoM) (Apr)",
      "eventTimeZone": "GMT",
      "eventPrevious": "0.70%",
      "eventCurrency": "KRW",
      "eventForecast": ""
    },
    {
      "eventDateTime": "2009-05-01T09:00:00",
      "eventActual": "3.60%",
      "eventCountry": "South Korea",
      "eventExpectedVolatility": "Moderate",
      "eventName": "CPI (YoY) (Apr)",
      "eventTimeZone": "GMT",
      "eventPrevious": "3.90%",
      "eventCurrency": "KRW",
      "eventForecast": ""
    },
    {
      "eventDateTime": "2009-05-01T09:00:00",
      "eventActual": "95.00",
      "eventCountry": "South Korea",
      "eventExpectedVolatility": "Low",
      "eventName": "Consumer Confidence (Apr)",
      "eventTimeZone": "GMT",
      "eventPrevious": "78.00",
      "eventCurrency": "KRW",
      "eventForecast": ""
    },
    {
      "eventDateTime": "2009-05-01T09:00:00",
      "eventActual": "4.69B",
      "eventCountry": "South Korea",
      "eventExpectedVolatility": "Low",
      "eventName": "Current Account (Apr)",
      "eventTimeZone": "GMT",
      "eventPrevious": "5.45B",
      "eventCurrency": "KRW",
      "eventForecast": ""
    },
    {
      "eventDateTime": "2009-05-01T09:00:00",
      "eventActual": "7.70%",
      "eventCountry": "South Korea",
      "eventExpectedVolatility": "Low",
      "eventName": "Export Price Index (YoY) (Apr)",
      "eventTimeZone": "GMT",
      "eventPrevious": "17.40%",
      "eventCurrency": "KRW",
      "eventForecast": ""
    },
    {
      "eventDateTime": "2009-05-01T09:00:00",
      "eventActual": "-19.90%",
      "eventCountry": "South Korea",
      "eventExpectedVolatility": "Low",
      "eventName": "Exports (YoY) (Apr)",
      "eventTimeZone": "GMT",
      "eventPrevious": "-22.50%",
      "eventCurrency": "KRW",
      "eventForecast": ""
    },
    {
      "eventDateTime": "2009-05-01T09:00:00",
      "eventActual": "212.48B",
      "eventCountry": "South Korea",
      "eventExpectedVolatility": "Low",
      "eventName": "FX Reserves - USD (Apr)",
      "eventTimeZone": "GMT",
      "eventPrevious": "206.34B",
      "eventCurrency": "KRW",
      "eventForecast": ""
    },
    {
      "eventDateTime": "2009-05-01T09:00:00",
      "eventActual": "-1.80%",
      "eventCountry": "South Korea",
      "eventExpectedVolatility": "Low",
      "eventName": "Import Price Index (YoY) (Apr)",
      "eventTimeZone": "GMT",
      "eventPrevious": "10.60%",
      "eventCurrency": "KRW",
      "eventForecast": ""
    },
    {
      "eventDateTime": "2009-05-01T09:00:00",
      "eventActual": "-35.00%",
      "eventCountry": "South Korea",
      "eventExpectedVolatility": "Low",
      "eventName": "Imports (YoY) (Apr)",
      "eventTimeZone": "GMT",
      "eventPrevious": "-35.50%",
      "eventCurrency": "KRW",
      "eventForecast": ""
    },
    {
      "eventDateTime": "2009-05-01T09:00:00",
      "eventActual": "3.70%",
      "eventCountry": "South Korea",
      "eventExpectedVolatility": "Low",
      "eventName": "Industrial Production (MoM) (Apr)",
      "eventTimeZone": "GMT",
      "eventPrevious": "5.00%",
      "eventCurrency": "KRW",
      "eventForecast": ""
    },
    {
      "eventDateTime": "2009-05-01T09:00:00",
      "eventActual": "-7.40%",
      "eventCountry": "South Korea",
      "eventExpectedVolatility": "Low",
      "eventName": "Industrial Production (YoY) (Apr)",
      "eventTimeZone": "GMT",
      "eventPrevious": "-10.10%",
      "eventCurrency": "KRW",
      "eventForecast": ""
    },
    {
      "eventDateTime": "2009-05-01T09:00:00",
      "eventActual": "2.00%",
      "eventCountry": "South Korea",
      "eventExpectedVolatility": "Low",
      "eventName": "Interest Rate Decision (Apr)",
      "eventTimeZone": "GMT",
      "eventPrevious": "2.00%",
      "eventCurrency": "KRW",
      "eventForecast": ""
    },
    {
      "eventDateTime": "2009-05-01T09:00:00",
      "eventActual": "9.10%",
      "eventCountry": "South Korea",
      "eventExpectedVolatility": "Low",
      "eventName": "M2 Money supply (Apr)",
      "eventTimeZone": "GMT",
      "eventPrevious": "10.20%",
      "eventCurrency": "KRW",
      "eventForecast": ""
    },
    {
      "eventDateTime": "2009-05-01T09:00:00",
      "eventActual": "57.00",
      "eventCountry": "South Korea",
      "eventExpectedVolatility": "Low",
      "eventName": "Manufacturing BSI Index (Apr)",
      "eventTimeZone": "GMT",
      "eventPrevious": "49.00",
      "eventCurrency": "KRW",
      "eventForecast": ""
    },
    {
      "eventDateTime": "2009-05-01T09:00:00",
      "eventActual": "0.10%",
      "eventCountry": "South Korea",
      "eventExpectedVolatility": "Low",
      "eventName": "PPI (MoM) (Apr)",
      "eventTimeZone": "GMT",
      "eventPrevious": "0.50%",
      "eventCurrency": "KRW",
      "eventForecast": ""
    },
    {
      "eventDateTime": "2009-05-01T09:00:00",
      "eventActual": "1.50%",
      "eventCountry": "South Korea",
      "eventExpectedVolatility": "Low",
      "eventName": "PPI (YoY) (Apr)",
      "eventTimeZone": "GMT",
      "eventPrevious": "3.50%",
      "eventCurrency": "KRW",
      "eventForecast": ""
    },
    {
      "eventDateTime": "2009-05-01T09:00:00",
      "eventActual": "2.30%",
      "eventCountry": "South Korea",
      "eventExpectedVolatility": "Low",
      "eventName": "Service Sector Output (MoM) (Apr)",
      "eventTimeZone": "GMT",
      "eventPrevious": "-1.30%",
      "eventCurrency": "KRW",
      "eventForecast": ""
    },
    {
      "eventDateTime": "2009-05-01T09:00:00",
      "eventActual": "0.00B",
      "eventCountry": "South Korea",
      "eventExpectedVolatility": "Low",
      "eventName": "Trade Balance (Apr)",
      "eventTimeZone": "GMT",
      "eventPrevious": "3.97B",
      "eventCurrency": "KRW",
      "eventForecast": ""
    },
    {
      "eventDateTime": "2009-05-01T09:00:00",
      "eventActual": "3.70%",
      "eventCountry": "South Korea",
      "eventExpectedVolatility": "Low",
      "eventName": "Unemployment Rate (Apr)",
      "eventTimeZone": "GMT",
      "eventPrevious": "3.60%",
      "eventCurrency": "KRW",
      "eventForecast": ""
    }
  ]}}
