{"events": {"event": [
    {
      "eventDateTime": "2014-07-17T12:30:00",
      "eventActual": "21.43B",
      "eventCountry": "Canada",
      "eventExpectedVolatility": "Moderate",
      "eventName": "Foreign Securities Purchases",
      "eventTimeZone": "GMT",
      "eventPrevious": "10.20B",
      "eventCurrency": "CAD",
      "eventForecast": "14.23B"
    },
    {
      "eventDateTime": "2014-07-17T12:30:00",
      "eventActual": "2.03B",
      "eventCountry": "Canada",
      "eventExpectedVolatility": "Low",
      "eventName": "Foreign Securities Purchases by Canadians",
      "eventTimeZone": "GMT",
      "eventPrevious": "2.27B",
      "eventCurrency": "CAD",
      "eventForecast": ""
    }
  ]}}
