"German Import Price Index (MoM) (Jul)";"Germany";"EUR";"2019-08-28T06:00:00";"GMT";"-1.4%";"-0.1%";"-0.2%";"Low"
"German Import Price Index (YoY) (Jul)";"Germany";"EUR";"2019-08-28T06:00:00";"GMT";"-2.0%";"-1.7%";"-2.1%";"Low"
"GfK German Consumer Climate (Sep)";"Germany";"EUR";"2019-08-28T06:00:00";"GMT";"9.7";"9.6";"9.7";"Moderate"
"Italian Business Confidence (Aug)";"Italy";"EUR";"2019-08-28T08:00:00";"GMT";"100.1";"99.8";"99.7";"Low"
"Italian Consumer Confidence (Aug)";"Italy";"EUR";"2019-08-28T08:00:00";"GMT";"113.3";"109.6";"111.9";"Low"
"Loans to Non Financial Corporations (Jul)";"Euro Zone";"EUR";"2019-08-28T08:00:00";"GMT";"3.8%";"";"3.9%";"Low"
"M3 Money Supply (YoY) (Jul)";"Euro Zone";"EUR";"2019-08-28T08:00:00";"GMT";"4.5%";"4.7%";"5.2%";"Low"
"Private Sector Loans (YoY)";"Euro Zone";"EUR";"2019-08-28T08:00:00";"GMT";"3.3%";"3.5%";"3.4%";"Low"
"German 10-Year Bund Auction";"Germany";"EUR";"2019-08-28T09:40:00";"GMT";"-0.410%";"";"-0.700%";"Moderate"
"Italian 6-Month BOT Auction";"Italy";"EUR";"2019-08-28T09:45:00";"GMT";"-0.210%";"";"-0.217%";"Low"
