"Investing.com EUR/USD Index";"Euro Zone";"EUR";"2017-06-05T05:30:00";"GMT";"59.1%";"";"52.1%";"Moderate"
"Spanish Services PMI (May)";"Spain";"EUR";"2017-06-05T07:15:00";"GMT";"57.8";"57.5";"57.3";"Moderate"
"Italian Services PMI (May)";"Italy";"EUR";"2017-06-05T07:45:00";"GMT";"56.2";"55.4";"55.1";"Moderate"
"French Markit Composite PMI (May)";"France";"EUR";"2017-06-05T07:50:00";"GMT";"57.6";"57.6";"56.9";"Low"
"French Services PMI (May)";"France";"EUR";"2017-06-05T07:50:00";"GMT";"58.0";"58.0";"57.2";"Moderate"
"German Composite PMI (May)";"Germany";"EUR";"2017-06-05T07:55:00";"GMT";"57.3";"57.3";"57.4";"Low"
"German Services PMI (May)";"Germany";"EUR";"2017-06-05T07:55:00";"GMT";"55.2";"55.2";"55.4";"Moderate"
"Markit Composite PMI (May)";"Euro Zone";"EUR";"2017-06-05T08:00:00";"GMT";"56.8";"56.8";"56.8";"Moderate"
"Services PMI (May)";"Euro Zone";"EUR";"2017-06-05T08:00:00";"GMT";"56.2";"56.2";"56.3";"Moderate"
