{"events": {"event": {
    "eventDateTime": "2017-06-01T13:30:00",
    "eventActual": "55.1",
    "eventCountry": "Canada",
    "eventExpectedVolatility": "Low",
    "eventName": "RBC Manufacturing PMI (May)",
    "eventTimeZone": "GMT",
    "eventPrevious": "55.9",
    "eventCurrency": "CAD",
    "eventForecast": ""
  }}}
