{"events": {"event": {
    "eventDateTime": "2018-09-02T22:30:00",
    "eventActual": "56.7",
    "eventCountry": "Australia",
    "eventExpectedVolatility": "Moderate",
    "eventName": "AIG Manufacturing Index (Aug)",
    "eventTimeZone": "GMT",
    "eventPrevious": "52.0",
    "eventCurrency": "AUD",
    "eventForecast": ""
  }}}
