{"events": {"event": {
    "eventDateTime": "2008-04-11T19:30:00",
    "eventActual": "0.9K",
    "eventCountry": "Switzerland",
    "eventExpectedVolatility": "Low",
    "eventName": "CFTC CHF speculative net positions",
    "eventTimeZone": "GMT",
    "eventPrevious": "8.9K",
    "eventCurrency": "CHF",
    "eventForecast": ""
  }}}
