{"events": {"event": {
    "eventDateTime": "2014-03-21T19:30:00",
    "eventActual": "15.1K",
    "eventCountry": "Switzerland",
    "eventExpectedVolatility": "Low",
    "eventName": "CFTC CHF speculative net positions",
    "eventTimeZone": "GMT",
    "eventPrevious": "9.0K",
    "eventCurrency": "CHF",
    "eventForecast": ""
  }}}
