{"events": {"event": [
    {
      "eventDateTime": "2008-06-16T09:00:00",
      "eventActual": "3.7%",
      "eventCountry": "Euro Zone",
      "eventExpectedVolatility": "High",
      "eventName": "CPI (YoY)",
      "eventTimeZone": "GMT",
      "eventPrevious": "3.3%",
      "eventCurrency": "EUR",
      "eventForecast": "3.6%"
    },
    {
      "eventDateTime": "2008-06-16T09:00:00",
      "eventActual": "1.7%",
      "eventCountry": "Euro Zone",
      "eventExpectedVolatility": "Moderate",
      "eventName": "Core CPI (YoY)",
      "eventTimeZone": "GMT",
      "eventPrevious": "1.6%",
      "eventCurrency": "EUR",
      "eventForecast": "1.8%"
    }
  ]}}
