"BoC Interest Rate Decision";"Canada";"CAD";"2019-07-10T14:00:00";"GMT";"1.75%";"1.75%";"1.75%";"High"
"BoC Monetary Policy Report";"Canada";"CAD";"2019-07-10T14:00:00";"GMT";" ";"";"";"High"
"BoC Rate Statement";"Canada";"CAD";"2019-07-10T14:00:00";"GMT";" ";"";"";"Moderate"
"BOC Press Conference";"Canada";"CAD";"2019-07-10T14:15:00";"GMT";" ";"";"";"High"
