{"events": {"event": [
    {
      "eventDateTime": "2012-06-14T12:30:00",
      "eventActual": "-0.3%",
      "eventCountry": "United States",
      "eventExpectedVolatility": "Moderate",
      "eventName": "CPI (MoM)",
      "eventTimeZone": "GMT",
      "eventPrevious": "0.0%",
      "eventCurrency": "USD",
      "eventForecast": "-0.2%"
    },
    {
      "eventDateTime": "2012-06-14T12:30:00",
      "eventActual": "1.7%",
      "eventCountry": "United States",
      "eventExpectedVolatility": "Low",
      "eventName": "CPI (YoY)",
      "eventTimeZone": "GMT",
      "eventPrevious": "2.3%",
      "eventCurrency": "USD",
      "eventForecast": "1.8%"
    },
    {
      "eventDateTime": "2012-06-14T12:30:00",
      "eventActual": "3,278K",
      "eventCountry": "United States",
      "eventExpectedVolatility": "Low",
      "eventName": "Continuing Jobless Claims",
      "eventTimeZone": "GMT",
      "eventPrevious": "3,311K",
      "eventCurrency": "USD",
      "eventForecast": "3,269K"
    },
    {
      "eventDateTime": "2012-06-14T12:30:00",
      "eventActual": "0.2%",
      "eventCountry": "United States",
      "eventExpectedVolatility": "High",
      "eventName": "Core CPI (MoM)",
      "eventTimeZone": "GMT",
      "eventPrevious": "0.2%",
      "eventCurrency": "USD",
      "eventForecast": "0.2%"
    },
    {
      "eventDateTime": "2012-06-14T12:30:00",
      "eventActual": "2.3%",
      "eventCountry": "United States",
      "eventExpectedVolatility": "Moderate",
      "eventName": "Core CPI (YoY)",
      "eventTimeZone": "GMT",
      "eventPrevious": "2.3%",
      "eventCurrency": "USD",
      "eventForecast": "2.2%"
    },
    {
      "eventDateTime": "2012-06-14T12:30:00",
      "eventActual": "-137.3B",
      "eventCountry": "United States",
      "eventExpectedVolatility": "Moderate",
      "eventName": "Current Account",
      "eventTimeZone": "GMT",
      "eventPrevious": "-118.7B",
      "eventCurrency": "USD",
      "eventForecast": "-132.3B"
    },
    {
      "eventDateTime": "2012-06-14T12:30:00",
      "eventActual": "386K",
      "eventCountry": "United States",
      "eventExpectedVolatility": "Moderate",
      "eventName": "Initial Jobless Claims",
      "eventTimeZone": "GMT",
      "eventPrevious": "380K",
      "eventCurrency": "USD",
      "eventForecast": "375K"
    },
    {
      "eventDateTime": "2012-06-14T13:50:00",
      "eventActual": "31.8",
      "eventCountry": "United States",
      "eventExpectedVolatility": "Low",
      "eventName": "Bloomberg Consumer Confidence",
      "eventTimeZone": "GMT",
      "eventPrevious": "31.2",
      "eventCurrency": "USD",
      "eventForecast": ""
    },
    {
      "eventDateTime": "2012-06-14T14:30:00",
      "eventActual": "67B",
      "eventCountry": "United States",
      "eventExpectedVolatility": "Low",
      "eventName": "Natural Gas Storage",
      "eventTimeZone": "GMT",
      "eventPrevious": "62B",
      "eventCurrency": "USD",
      "eventForecast": "75B"
    },
    {
      "eventDateTime": "2012-06-14T17:00:00",
      "eventActual": "2.720%",
      "eventCountry": "United States",
      "eventExpectedVolatility": "Low",
      "eventName": "30-Year Bond Auction",
      "eventTimeZone": "GMT",
      "eventPrevious": "3.090%",
      "eventCurrency": "USD",
      "eventForecast": ""
    }
  ]}}
