{"events": {"event": [
    {
      "eventDateTime": "2017-06-22T09:35:00",
      "eventActual": "1.671%",
      "eventCountry": "United Kingdom",
      "eventExpectedVolatility": "Low",
      "eventName": "30-Year Treasury Gilt Auction",
      "eventTimeZone": "GMT",
      "eventPrevious": "1.787%",
      "eventCurrency": "GBP",
      "eventForecast": ""
    },
    {
      "eventDateTime": "2017-06-22T10:00:00",
      "eventActual": "16",
      "eventCountry": "United Kingdom",
      "eventExpectedVolatility": "Moderate",
      "eventName": "CBI Industrial Trends Orders (Jun)",
      "eventTimeZone": "GMT",
      "eventPrevious": "9",
      "eventCurrency": "GBP",
      "eventForecast": "7"
    }
  ]}}
