{"events": {"event": {
    "eventDateTime": "2015-07-16T01:00:00",
    "eventActual": "3.4%",
    "eventCountry": "Australia",
    "eventExpectedVolatility": "Low",
    "eventName": "MI Inflation Expectations",
    "eventTimeZone": "GMT",
    "eventPrevious": "3.0%",
    "eventCurrency": "AUD",
    "eventForecast": ""
  }}}
