{"events": {"event": [
    {
      "eventDateTime": "2016-10-24T23:00:00",
      "eventActual": "0.7%",
      "eventCountry": "South Korea",
      "eventExpectedVolatility": "Low",
      "eventName": "GDP (QoQ) (Q3)",
      "eventTimeZone": "GMT",
      "eventPrevious": "0.8%",
      "eventCurrency": "KRW",
      "eventForecast": "0.6%"
    },
    {
      "eventDateTime": "2016-10-24T23:00:00",
      "eventActual": "2.7%",
      "eventCountry": "South Korea",
      "eventExpectedVolatility": "Low",
      "eventName": "GDP (YoY) (Q3)",
      "eventTimeZone": "GMT",
      "eventPrevious": "3.3%",
      "eventCurrency": "KRW",
      "eventForecast": "2.6%"
    }
  ]}}
