"French GDP (QoQ) (Q1)";"France";"EUR";"2017-04-28T05:30:00";"GMT";"0.5%";"0.4%";"0.3%";"Moderate"
"German Import Price Index (MoM) (Mar)";"Germany";"EUR";"2017-04-28T06:00:00";"GMT";"0.7%";"-0.1%";"-0.5%";"Low"
"German Import Price Index (YoY) (Mar)";"Germany";"EUR";"2017-04-28T06:00:00";"GMT";"7.4%";"6.5%";"6.1%";"Low"
"German Retail Sales (MoM) (Mar)";"Germany";"EUR";"2017-04-28T06:00:00";"GMT";"1.1%";"-0.3%";"0.1%";"Moderate"
"German Retail Sales (YoY) (Mar)";"Germany";"EUR";"2017-04-28T06:00:00";"GMT";"-2.3%";"2.0%";"2.3%";"Low"
"French CPI (MoM)";"France";"EUR";"2017-04-28T06:45:00";"GMT";"0.6%";"0.1%";"0.1%";"Moderate"
"French Consumer Spending (MoM) (Mar)";"France";"EUR";"2017-04-28T06:45:00";"GMT";"-0.7%";"0.5%";"-0.4%";"Moderate"
"French HICP (MoM)";"France";"EUR";"2017-04-28T06:45:00";"GMT";"0.7%";"0.1%";"0.1%";"Moderate"
"French HICP (YoY)";"France";"EUR";"2017-04-28T06:45:00";"GMT";"1.4%";"1.4%";"1.4%";"Low"
"French PPI (MoM) (Mar)";"France";"EUR";"2017-04-28T06:45:00";"GMT";"-0.2%";"";"-0.5%";"Low"
"Spanish GDP (QoQ) (Q1)";"Spain";"EUR";"2017-04-28T07:00:00";"GMT";"0.7%";"0.7%";"0.8%";"Moderate"
"Spanish GDP (YoY) (Q1)";"Spain";"EUR";"2017-04-28T07:00:00";"GMT";"3.0%";"2.9%";"3.0%";"Low"
"Spanish Retail Sales (YoY) (Mar)";"Spain";"EUR";"2017-04-28T07:00:00";"GMT";"0.4%";"0.7%";"0.9%";"Low"
"M3 Money Supply (YoY) (Mar)";"Euro Zone";"EUR";"2017-04-28T08:00:00";"GMT";"4.7%";"4.7%";"5.3%";"Low"
"Private Sector Loans (YoY)";"Euro Zone";"EUR";"2017-04-28T08:00:00";"GMT";"2.3%";"2.4%";"2.4%";"Low"
"Spanish Current account (Feb)";"Spain";"EUR";"2017-04-28T08:00:00";"GMT";"0.41B";"";"-0.20B";"Low"
"CPI (YoY) (Apr)";"Euro Zone";"EUR";"2017-04-28T09:00:00";"GMT";"1.5%";"1.8%";"1.9%";"High"
"Core CPI (YoY) (Apr)";"Euro Zone";"EUR";"2017-04-28T09:00:00";"GMT";"0.7%";"1.0%";"1.2%";"Moderate"
"Italian CPI (MoM) (Apr)";"Italy";"EUR";"2017-04-28T09:00:00";"GMT";"0.0%";"0.2%";"0.3%";"Moderate"
"Italian CPI (YoY) (Apr)";"Italy";"EUR";"2017-04-28T09:00:00";"GMT";"1.4%";"1.7%";"1.8%";"Low"
"Italian HICP (MoM) (Apr)";"Italy";"EUR";"2017-04-28T09:00:00";"GMT";"1.9%";"0.5%";"0.8%";"Low"
"Italian HICP (YoY) (Apr)";"Italy";"EUR";"2017-04-28T09:00:00";"GMT";"1.4%";"1.6%";"2.0%";"Low"
"Italian PPI (MoM) (Mar)";"Italy";"EUR";"2017-04-28T10:00:00";"GMT";"0.3%";"";"0.0%";"Low"
"Italian PPI (YoY) (Mar)";"Italy";"EUR";"2017-04-28T10:00:00";"GMT";"3.3%";"";"3.1%";"Low"
"CFTC EUR speculative net positions";"Euro Zone";"EUR";"2017-04-28T19:30:00";"GMT";"-21.6K";"";"-20.9K";"Moderate"
