{"events": {"event": [
    {
      "eventDateTime": "2013-04-04T11:30:00",
      "eventActual": "30.0%",
      "eventCountry": "United States",
      "eventExpectedVolatility": "Low",
      "eventName": "Challenger Job Cuts (YoY)",
      "eventTimeZone": "GMT",
      "eventPrevious": "7.0%",
      "eventCurrency": "USD",
      "eventForecast": ""
    },
    {
      "eventDateTime": "2013-04-04T12:30:00",
      "eventActual": "3,063K",
      "eventCountry": "United States",
      "eventExpectedVolatility": "Low",
      "eventName": "Continuing Jobless Claims",
      "eventTimeZone": "GMT",
      "eventPrevious": "3,071K",
      "eventCurrency": "USD",
      "eventForecast": "3,050K"
    },
    {
      "eventDateTime": "2013-04-04T12:30:00",
      "eventActual": "385K",
      "eventCountry": "United States",
      "eventExpectedVolatility": "Moderate",
      "eventName": "Initial Jobless Claims",
      "eventTimeZone": "GMT",
      "eventPrevious": "357K",
      "eventCurrency": "USD",
      "eventForecast": "350K"
    },
    {
      "eventDateTime": "2013-04-04T12:45:00",
      "eventActual": "",
      "eventCountry": "United States",
      "eventExpectedVolatility": "Low",
      "eventName": "Chicago Fed President Evans Speaks",
      "eventTimeZone": "GMT",
      "eventPrevious": "",
      "eventCurrency": "USD",
      "eventForecast": ""
    },
    {
      "eventDateTime": "2013-04-04T13:45:00",
      "eventActual": "32.95",
      "eventCountry": "United States",
      "eventExpectedVolatility": "Low",
      "eventName": "Bloomberg Consumer Confidence",
      "eventTimeZone": "GMT",
      "eventPrevious": "32.8",
      "eventCurrency": "USD",
      "eventForecast": ""
    },
    {
      "eventDateTime": "2013-04-04T14:30:00",
      "eventActual": "",
      "eventCountry": "United States",
      "eventExpectedVolatility": "High",
      "eventName": "Fed Chairman Bernanke Speaks",
      "eventTimeZone": "GMT",
      "eventPrevious": "",
      "eventCurrency": "USD",
      "eventForecast": ""
    },
    {
      "eventDateTime": "2013-04-04T14:30:00",
      "eventActual": "-94B",
      "eventCountry": "United States",
      "eventExpectedVolatility": "Low",
      "eventName": "Natural Gas Storage",
      "eventTimeZone": "GMT",
      "eventPrevious": "-95B",
      "eventCurrency": "USD",
      "eventForecast": "-91B"
    },
    {
      "eventDateTime": "2013-04-04T18:00:00",
      "eventActual": "-3.8%",
      "eventCountry": "United States",
      "eventExpectedVolatility": "Low",
      "eventName": "Global Semiconductor Sales (MoM)",
      "eventTimeZone": "GMT",
      "eventPrevious": "-2.8%",
      "eventCurrency": "USD",
      "eventForecast": ""
    }
  ]}}
