{"events": {"event": [
    {
      "eventDateTime": "2013-04-29T07:00:00",
      "eventActual": "-8.9%",
      "eventCountry": "Spain",
      "eventExpectedVolatility": "Low",
      "eventName": "Spanish Retail Sales (YoY)",
      "eventTimeZone": "GMT",
      "eventPrevious": "-7.7%",
      "eventCurrency": "EUR",
      "eventForecast": "-11.0%"
    },
    {
      "eventDateTime": "2013-04-29T08:10:00",
      "eventActual": "44.20",
      "eventCountry": "Euro Zone",
      "eventExpectedVolatility": "Low",
      "eventName": "Retail PMI",
      "eventTimeZone": "GMT",
      "eventPrevious": "43.70",
      "eventCurrency": "EUR",
      "eventForecast": ""
    },
    {
      "eventDateTime": "2013-04-29T09:00:00",
      "eventActual": "88.6",
      "eventCountry": "Euro Zone",
      "eventExpectedVolatility": "Low",
      "eventName": "Business and Consumer Survey",
      "eventTimeZone": "GMT",
      "eventPrevious": "90.1",
      "eventCurrency": "EUR",
      "eventForecast": "89.3"
    },
    {
      "eventDateTime": "2013-04-29T09:00:00",
      "eventActual": "-22.0",
      "eventCountry": "Euro Zone",
      "eventExpectedVolatility": "Low",
      "eventName": "Consumer Confidence",
      "eventTimeZone": "GMT",
      "eventPrevious": "-23.5",
      "eventCurrency": "EUR",
      "eventForecast": "-22.0"
    },
    {
      "eventDateTime": "2013-04-29T09:00:00",
      "eventActual": "87.6",
      "eventCountry": "Italy",
      "eventExpectedVolatility": "Low",
      "eventName": "Italian Business Confidence",
      "eventTimeZone": "GMT",
      "eventPrevious": "88.6",
      "eventCurrency": "EUR",
      "eventForecast": "88.9"
    },
    {
      "eventDateTime": "2013-04-29T09:15:00",
      "eventActual": "3.94%",
      "eventCountry": "Italy",
      "eventExpectedVolatility": "Moderate",
      "eventName": "Italian 10-Year BTP Auction",
      "eventTimeZone": "GMT",
      "eventPrevious": "4.66%",
      "eventCurrency": "EUR",
      "eventForecast": ""
    },
    {
      "eventDateTime": "2013-04-29T09:15:00",
      "eventActual": "2.84%",
      "eventCountry": "Italy",
      "eventExpectedVolatility": "Low",
      "eventName": "Italian 5-Year BTP Auction",
      "eventTimeZone": "GMT",
      "eventPrevious": "3.65%",
      "eventCurrency": "EUR",
      "eventForecast": ""
    },
    {
      "eventDateTime": "2013-04-29T09:30:00",
      "eventActual": "0.002%",
      "eventCountry": "Germany",
      "eventExpectedVolatility": "Low",
      "eventName": "German 12-Month Bubill Auction",
      "eventTimeZone": "GMT",
      "eventPrevious": "0.016%",
      "eventCurrency": "EUR",
      "eventForecast": ""
    },
    {
      "eventDateTime": "2013-04-29T12:00:00",
      "eventActual": "-0.5%",
      "eventCountry": "Germany",
      "eventExpectedVolatility": "Moderate",
      "eventName": "German CPI (MoM)",
      "eventTimeZone": "GMT",
      "eventPrevious": "0.5%",
      "eventCurrency": "EUR",
      "eventForecast": "-0.2%"
    },
    {
      "eventDateTime": "2013-04-29T12:00:00",
      "eventActual": "1.2%",
      "eventCountry": "Germany",
      "eventExpectedVolatility": "Low",
      "eventName": "German CPI (YoY)",
      "eventTimeZone": "GMT",
      "eventPrevious": "1.4%",
      "eventCurrency": "EUR",
      "eventForecast": "1.4%"
    },
    {
      "eventDateTime": "2013-04-29T13:00:00",
      "eventActual": "0.029%",
      "eventCountry": "France",
      "eventExpectedVolatility": "Low",
      "eventName": "French 12-Month BTF Auction",
      "eventTimeZone": "GMT",
      "eventPrevious": "0.054%",
      "eventCurrency": "EUR",
      "eventForecast": ""
    },
    {
      "eventDateTime": "2013-04-29T13:00:00",
      "eventActual": "-0.002%",
      "eventCountry": "France",
      "eventExpectedVolatility": "Low",
      "eventName": "French 3-Month BTF Auction",
      "eventTimeZone": "GMT",
      "eventPrevious": "0.003%",
      "eventCurrency": "EUR",
      "eventForecast": ""
    },
    {
      "eventDateTime": "2013-04-29T13:00:00",
      "eventActual": "0.008%",
      "eventCountry": "France",
      "eventExpectedVolatility": "Low",
      "eventName": "French 6-Month BTF Auction",
      "eventTimeZone": "GMT",
      "eventPrevious": "0.024%",
      "eventCurrency": "EUR",
      "eventForecast": ""
    },
    {
      "eventDateTime": "2013-04-29T17:00:00",
      "eventActual": "3,216.7K",
      "eventCountry": "France",
      "eventExpectedVolatility": "Moderate",
      "eventName": "France Jobseekers Total (Mar)",
      "eventTimeZone": "GMT",
      "eventPrevious": "3,197.9K",
      "eventCurrency": "EUR",
      "eventForecast": ""
    }
  ]}}
