{"events": {"event": [
    {
      "eventDateTime": "2015-01-27T09:30:00",
      "eventActual": "0.5%",
      "eventCountry": "United Kingdom",
      "eventExpectedVolatility": "High",
      "eventName": "GDP (QoQ) (Q4)",
      "eventTimeZone": "GMT",
      "eventPrevious": "0.7%",
      "eventCurrency": "GBP",
      "eventForecast": "0.6%"
    },
    {
      "eventDateTime": "2015-01-27T09:30:00",
      "eventActual": "2.7%",
      "eventCountry": "United Kingdom",
      "eventExpectedVolatility": "High",
      "eventName": "GDP (YoY) (Q4)",
      "eventTimeZone": "GMT",
      "eventPrevious": "2.6%",
      "eventCurrency": "GBP",
      "eventForecast": "2.8%"
    },
    {
      "eventDateTime": "2015-01-27T09:30:00",
      "eventActual": "35.7K",
      "eventCountry": "United Kingdom",
      "eventExpectedVolatility": "Moderate",
      "eventName": "Gross Mortgage Approvals",
      "eventTimeZone": "GMT",
      "eventPrevious": "36.7K",
      "eventCurrency": "GBP",
      "eventForecast": "36.6K"
    },
    {
      "eventDateTime": "2015-01-27T09:30:00",
      "eventActual": "0.8%",
      "eventCountry": "United Kingdom",
      "eventExpectedVolatility": "Low",
      "eventName": "Index of Services",
      "eventTimeZone": "GMT",
      "eventPrevious": "0.7%",
      "eventCurrency": "GBP",
      "eventForecast": "1.0%"
    }
  ]}}
