"Business Confidence (Aug)";"South Africa";"ZAR";"2011-09-01T09:00:00";"GMT";"99.00";"";"98.60";"Low"
"CPI (MoM) (Aug)";"South Africa";"ZAR";"2011-09-01T09:00:00";"GMT";"0.87%";"";"0.21%";"Moderate"
"CPI (YoY) (Aug)";"South Africa";"ZAR";"2011-09-01T09:00:00";"GMT";"5.19%";"";"5.42%";"Low"
"Core CPI (MoM) (Aug)";"South Africa";"ZAR";"2011-09-01T09:00:00";"GMT";"0.60%";"";"0.00%";"Moderate"
"Core CPI (YoY) (Aug)";"South Africa";"ZAR";"2011-09-01T09:00:00";"GMT";"4.00%";"";"3.80%";"Low"
"Foreign Reserves (USD) (Aug)";"South Africa";"ZAR";"2011-09-01T09:00:00";"GMT";"50.11B";"";"51.45B";"Low"
"Gold Production (YoY) (Aug)";"South Africa";"ZAR";"2011-09-01T09:00:00";"GMT";"-3.87%";"";"-20.47%";"Low"
"Interest Rate Decision (Aug)";"South Africa";"ZAR";"2011-09-01T09:00:00";"GMT";"5.50%";"";"5.50%";"Moderate"
"M3 Money Supply (YoY) (Aug)";"South Africa";"ZAR";"2011-09-01T09:00:00";"GMT";"5.60%";"";"6.22%";"Low"
"Mining Production (Aug)";"South Africa";"ZAR";"2011-09-01T09:00:00";"GMT";"-5.32%";"";"-4.84%";"Low"
"Net FX Reserves (USD) (Aug)";"South Africa";"ZAR";"2011-09-01T09:00:00";"GMT";"47.87B";"";"49.13B";"Low"
"Prime Rate (Aug)";"South Africa";"ZAR";"2011-09-01T09:00:00";"GMT";"9.00%";"";"9.00%";"Low"
"Private Sector Credit (Aug)";"South Africa";"ZAR";"2011-09-01T09:00:00";"GMT";"5.66%";"";"6.06%";"Low"
"Retail Sales (YoY) (Aug)";"South Africa";"ZAR";"2011-09-01T09:00:00";"GMT";"2.90%";"";"7.30%";"Low"
"Total Vehicle Sales (Aug)";"South Africa";"ZAR";"2011-09-01T09:00:00";"GMT";"46.07K";"";"51.64K";"Low"
"Total Vehicle Sales (YoY) (Aug)";"South Africa";"ZAR";"2011-09-01T09:00:00";"GMT";"8.20%";"";"10.90%";"Low"
"Trade Balance (Aug)";"South Africa";"ZAR";"2011-09-01T09:00:00";"GMT";"2.86B";"";"1.38B";"Low"
