{"events": {"event": [
    {
      "eventDateTime": "2001-05-25T17:00:00",
      "eventActual": "230",
      "eventCountry": "United States",
      "eventExpectedVolatility": "Moderate",
      "eventName": "U.S. Baker Hughes Oil Rig Count",
      "eventTimeZone": "GMT",
      "eventPrevious": "231",
      "eventCurrency": "USD",
      "eventForecast": ""
    },
    {
      "eventDateTime": "2001-05-25T20:30:00",
      "eventActual": "18.5k",
      "eventCountry": "United States",
      "eventExpectedVolatility": "Moderate",
      "eventName": "CFTC Crude Oil speculative net positions",
      "eventTimeZone": "GMT",
      "eventPrevious": "6.0k",
      "eventCurrency": "USD",
      "eventForecast": ""
    }
  ]}}
