{"events": {"event": {
    "eventDateTime": "2013-03-13T03:00:00",
    "eventActual": "8.00%",
    "eventCountry": "South Korea",
    "eventExpectedVolatility": "Low",
    "eventName": "M2 Money supply",
    "eventTimeZone": "GMT",
    "eventPrevious": "8.00%",
    "eventCurrency": "KRW",
    "eventForecast": ""
  }}}
