{"events": {"event": [
    {
      "eventDateTime": "2014-06-10T01:30:00",
      "eventActual": "0.1%",
      "eventCountry": "China",
      "eventExpectedVolatility": "Moderate",
      "eventName": "CPI (MoM)",
      "eventTimeZone": "GMT",
      "eventPrevious": "-0.3%",
      "eventCurrency": "CNY",
      "eventForecast": "-0.1%"
    },
    {
      "eventDateTime": "2014-06-10T01:30:00",
      "eventActual": "2.5%",
      "eventCountry": "China",
      "eventExpectedVolatility": "Moderate",
      "eventName": "CPI (YoY)",
      "eventTimeZone": "GMT",
      "eventPrevious": "1.8%",
      "eventCurrency": "CNY",
      "eventForecast": "2.4%"
    },
    {
      "eventDateTime": "2014-06-10T01:30:00",
      "eventActual": "-1.4%",
      "eventCountry": "China",
      "eventExpectedVolatility": "Moderate",
      "eventName": "PPI (YoY)",
      "eventTimeZone": "GMT",
      "eventPrevious": "-2.0%",
      "eventCurrency": "CNY",
      "eventForecast": "-1.5%"
    }
  ]}}
