{"events": {"event": {
    "eventDateTime": "2019-04-03T23:00:00",
    "eventActual": "3.60B",
    "eventCountry": "South Korea",
    "eventExpectedVolatility": "Low",
    "eventName": "Current Account (Feb)",
    "eventTimeZone": "GMT",
    "eventPrevious": "2.82B",
    "eventCurrency": "KRW",
    "eventForecast": ""
  }}}
