{"events": {"event": [
    {
      "eventDateTime": "2009-08-01T09:00:00",
      "eventActual": "-1.50%",
      "eventCountry": "Hong Kong",
      "eventExpectedVolatility": "Low",
      "eventName": "CPI (YoY) (Jul)",
      "eventTimeZone": "GMT",
      "eventPrevious": "-0.80%",
      "eventCurrency": "HKD",
      "eventForecast": ""
    },
    {
      "eventDateTime": "2009-08-01T09:00:00",
      "eventActual": "-19.90%",
      "eventCountry": "Hong Kong",
      "eventExpectedVolatility": "Low",
      "eventName": "Exports (MoM) (Jul)",
      "eventTimeZone": "GMT",
      "eventPrevious": "-5.40%",
      "eventCurrency": "HKD",
      "eventForecast": ""
    },
    {
      "eventDateTime": "2009-08-01T09:00:00",
      "eventActual": "218.10B",
      "eventCountry": "Hong Kong",
      "eventExpectedVolatility": "Low",
      "eventName": "Foreign Reserves (USD) (Jul)",
      "eventTimeZone": "GMT",
      "eventPrevious": "207.00B",
      "eventCurrency": "HKD",
      "eventForecast": ""
    },
    {
      "eventDateTime": "2009-08-01T09:00:00",
      "eventActual": "-17.80%",
      "eventCountry": "Hong Kong",
      "eventExpectedVolatility": "Low",
      "eventName": "Imports (MoM) (Jul)",
      "eventTimeZone": "GMT",
      "eventPrevious": "-7.90%",
      "eventCurrency": "HKD",
      "eventForecast": ""
    },
    {
      "eventDateTime": "2009-08-01T09:00:00",
      "eventActual": "13.80%",
      "eventCountry": "Hong Kong",
      "eventExpectedVolatility": "Low",
      "eventName": "M3 Money Supply (Jul)",
      "eventTimeZone": "GMT",
      "eventPrevious": "13.33%",
      "eventCurrency": "HKD",
      "eventForecast": ""
    },
    {
      "eventDateTime": "2009-08-01T09:00:00",
      "eventActual": "-5.40%",
      "eventCountry": "Hong Kong",
      "eventExpectedVolatility": "Low",
      "eventName": "Retail Sales (YoY) (Jul)",
      "eventTimeZone": "GMT",
      "eventPrevious": "-4.70%",
      "eventCurrency": "HKD",
      "eventForecast": ""
    },
    {
      "eventDateTime": "2009-08-01T09:00:00",
      "eventActual": "5.40%",
      "eventCountry": "Hong Kong",
      "eventExpectedVolatility": "Low",
      "eventName": "Unemployment Rate (Jul)",
      "eventTimeZone": "GMT",
      "eventPrevious": "5.30%",
      "eventCurrency": "HKD",
      "eventForecast": ""
    }
  ]}}
