"Terms of Trade - Exports Prices (Q3)";"New Zealand";"NZD";"2018-12-02T21:45:00";"GMT";"2.4%";"2.2%";"2.3%";"Low"
"Terms of Trade - Exports Volume (QoQ) (Q3)";"New Zealand";"NZD";"2018-12-02T21:45:00";"GMT";"1.1%";"2.0%";"1.8%";"Low"
"Terms of Trade - Imports Prices (Q3)";"New Zealand";"NZD";"2018-12-02T21:45:00";"GMT";"1.7%";"2.4%";"2.6%";"Low"
"Terms of Trade Index (QoQ) (Q3)";"New Zealand";"NZD";"2018-12-02T21:45:00";"GMT";"0.6%";"0.1%";"-0.3%";"Low"
