{"events": {"event": {
    "eventDateTime": "2019-03-18T06:30:00",
    "eventActual": "49.3%",
    "eventCountry": "Switzerland",
    "eventExpectedVolatility": "Moderate",
    "eventName": "Investing.com USD/CHF Index",
    "eventTimeZone": "GMT",
    "eventPrevious": "43.9%",
    "eventCurrency": "CHF",
    "eventForecast": ""
  }}}
