{"events": {"event": {
    "eventDateTime": "2016-05-19T12:30:00",
    "eventActual": "-1.0%",
    "eventCountry": "Canada",
    "eventExpectedVolatility": "Moderate",
    "eventName": "Wholesale Sales (MoM) (Mar)",
    "eventTimeZone": "GMT",
    "eventPrevious": "-2.3%",
    "eventCurrency": "CAD",
    "eventForecast": "-0.5%"
  }}}
