"Building Approvals (MoM)";"Australia";"AUD";"2009-09-30T01:30:00";"GMT";"7.7%";"2.7%";"-0.1%";"Moderate"
"Private Sector Credit (MoM)";"Australia";"AUD";"2009-09-30T01:30:00";"GMT";"0.2%";"0.2%";"0.1%";"Moderate"
"Retail Sales (MoM)";"Australia";"AUD";"2009-09-30T01:30:00";"GMT";"-0.9%";"0.6%";"0.9%";"High"
"AIG Manufacturing Index";"Australia";"AUD";"2009-09-30T23:30:00";"GMT";"51.7";"";"52.0";"Moderate"
