{"events": {"event": [
    {
      "eventDateTime": "2018-06-28T06:00:00",
      "eventActual": "10.7",
      "eventCountry": "Germany",
      "eventExpectedVolatility": "Moderate",
      "eventName": "GfK German Consumer Climate (Jul)",
      "eventTimeZone": "GMT",
      "eventPrevious": "10.7",
      "eventCurrency": "EUR",
      "eventForecast": "10.6"
    },
    {
      "eventDateTime": "2018-06-28T07:00:00",
      "eventActual": "0.3%",
      "eventCountry": "Spain",
      "eventExpectedVolatility": "Low",
      "eventName": "Spanish CPI (MoM)",
      "eventTimeZone": "GMT",
      "eventPrevious": "0.9%",
      "eventCurrency": "EUR",
      "eventForecast": ""
    },
    {
      "eventDateTime": "2018-06-28T07:00:00",
      "eventActual": "2.3%",
      "eventCountry": "Spain",
      "eventExpectedVolatility": "Moderate",
      "eventName": "Spanish CPI (YoY)",
      "eventTimeZone": "GMT",
      "eventPrevious": "2.1%",
      "eventCurrency": "EUR",
      "eventForecast": "2.3%"
    },
    {
      "eventDateTime": "2018-06-28T07:00:00",
      "eventActual": "0.2%",
      "eventCountry": "Spain",
      "eventExpectedVolatility": "Low",
      "eventName": "Spanish HICP (MoM)",
      "eventTimeZone": "GMT",
      "eventPrevious": "0.9%",
      "eventCurrency": "EUR",
      "eventForecast": ""
    },
    {
      "eventDateTime": "2018-06-28T07:00:00",
      "eventActual": "2.3%",
      "eventCountry": "Spain",
      "eventExpectedVolatility": "Moderate",
      "eventName": "Spanish HICP (YoY) (Jun)",
      "eventTimeZone": "GMT",
      "eventPrevious": "2.1%",
      "eventCurrency": "EUR",
      "eventForecast": "2.3%"
    },
    {
      "eventDateTime": "2018-06-28T07:00:00",
      "eventActual": "-0.3%",
      "eventCountry": "Spain",
      "eventExpectedVolatility": "Low",
      "eventName": "Spanish Retail Sales (YoY) (May)",
      "eventTimeZone": "GMT",
      "eventPrevious": "0.3%",
      "eventCurrency": "EUR",
      "eventForecast": ""
    },
    {
      "eventDateTime": "2018-06-28T08:00:00",
      "eventActual": "",
      "eventCountry": "Euro Zone",
      "eventExpectedVolatility": "Moderate",
      "eventName": "ECB Economic Bulletin",
      "eventTimeZone": "GMT",
      "eventPrevious": "",
      "eventCurrency": "EUR",
      "eventForecast": ""
    },
    {
      "eventDateTime": "2018-06-28T08:00:00",
      "eventActual": "3.5%",
      "eventCountry": "Italy",
      "eventExpectedVolatility": "Low",
      "eventName": "Italian Public Deficit (Q1)",
      "eventTimeZone": "GMT",
      "eventPrevious": "1.6%",
      "eventCurrency": "EUR",
      "eventForecast": ""
    },
    {
      "eventDateTime": "2018-06-28T09:00:00",
      "eventActual": "1.39",
      "eventCountry": "Euro Zone",
      "eventExpectedVolatility": "Low",
      "eventName": "Business Climate (Jun)",
      "eventTimeZone": "GMT",
      "eventPrevious": "1.44",
      "eventCurrency": "EUR",
      "eventForecast": "1.40"
    },
    {
      "eventDateTime": "2018-06-28T09:00:00",
      "eventActual": "112.3",
      "eventCountry": "Euro Zone",
      "eventExpectedVolatility": "Low",
      "eventName": "Business and Consumer Survey (Jun)",
      "eventTimeZone": "GMT",
      "eventPrevious": "112.5",
      "eventCurrency": "EUR",
      "eventForecast": "112.0"
    },
    {
      "eventDateTime": "2018-06-28T09:00:00",
      "eventActual": "-0.5",
      "eventCountry": "Euro Zone",
      "eventExpectedVolatility": "Low",
      "eventName": "Consumer Confidence (Jun)",
      "eventTimeZone": "GMT",
      "eventPrevious": "0.2",
      "eventCurrency": "EUR",
      "eventForecast": "-0.5"
    },
    {
      "eventDateTime": "2018-06-28T09:00:00",
      "eventActual": "17.5",
      "eventCountry": "Euro Zone",
      "eventExpectedVolatility": "Low",
      "eventName": "Consumer Inflation Expectation (Jun)",
      "eventTimeZone": "GMT",
      "eventPrevious": "17.5",
      "eventCurrency": "EUR",
      "eventForecast": ""
    },
    {
      "eventDateTime": "2018-06-28T09:00:00",
      "eventActual": "6.9",
      "eventCountry": "Euro Zone",
      "eventExpectedVolatility": "Low",
      "eventName": "Industrial Sentiment (Jun)",
      "eventTimeZone": "GMT",
      "eventPrevious": "6.9",
      "eventCurrency": "EUR",
      "eventForecast": "6.4"
    },
    {
      "eventDateTime": "2018-06-28T09:00:00",
      "eventActual": "0.3%",
      "eventCountry": "Italy",
      "eventExpectedVolatility": "Moderate",
      "eventName": "Italian CPI (MoM) (Jun)",
      "eventTimeZone": "GMT",
      "eventPrevious": "0.3%",
      "eventCurrency": "EUR",
      "eventForecast": "0.2%"
    },
    {
      "eventDateTime": "2018-06-28T09:00:00",
      "eventActual": "1.4%",
      "eventCountry": "Italy",
      "eventExpectedVolatility": "Low",
      "eventName": "Italian CPI (YoY) (Jun)",
      "eventTimeZone": "GMT",
      "eventPrevious": "1.0%",
      "eventCurrency": "EUR",
      "eventForecast": "1.3%"
    },
    {
      "eventDateTime": "2018-06-28T09:00:00",
      "eventActual": "0.3%",
      "eventCountry": "Italy",
      "eventExpectedVolatility": "Low",
      "eventName": "Italian HICP (MoM) (Jun)",
      "eventTimeZone": "GMT",
      "eventPrevious": "0.3%",
      "eventCurrency": "EUR",
      "eventForecast": "0.2%"
    },
    {
      "eventDateTime": "2018-06-28T09:00:00",
      "eventActual": "1.5%",
      "eventCountry": "Italy",
      "eventExpectedVolatility": "Low",
      "eventName": "Italian HICP (YoY) (Jun)",
      "eventTimeZone": "GMT",
      "eventPrevious": "1.0%",
      "eventCurrency": "EUR",
      "eventForecast": "1.4%"
    },
    {
      "eventDateTime": "2018-06-28T09:00:00",
      "eventActual": "9.9",
      "eventCountry": "Euro Zone",
      "eventExpectedVolatility": "Low",
      "eventName": "Selling Price Expectations (Jun)",
      "eventTimeZone": "GMT",
      "eventPrevious": "9.3",
      "eventCurrency": "EUR",
      "eventForecast": ""
    },
    {
      "eventDateTime": "2018-06-28T09:00:00",
      "eventActual": "14.4",
      "eventCountry": "Euro Zone",
      "eventExpectedVolatility": "Low",
      "eventName": "Services Sentiment (Jun)",
      "eventTimeZone": "GMT",
      "eventPrevious": "14.4",
      "eventCurrency": "EUR",
      "eventForecast": "14.2"
    },
    {
      "eventDateTime": "2018-06-28T09:45:00",
      "eventActual": "2.77%",
      "eventCountry": "Italy",
      "eventExpectedVolatility": "Moderate",
      "eventName": "Italian 10-Year BTP Auction",
      "eventTimeZone": "GMT",
      "eventPrevious": "3.00%",
      "eventCurrency": "EUR",
      "eventForecast": ""
    },
    {
      "eventDateTime": "2018-06-28T09:45:00",
      "eventActual": "1.82%",
      "eventCountry": "Italy",
      "eventExpectedVolatility": "Low",
      "eventName": "Italian 5-Year BTP Auction",
      "eventTimeZone": "GMT",
      "eventPrevious": "2.32%",
      "eventCurrency": "EUR",
      "eventForecast": ""
    },
    {
      "eventDateTime": "2018-06-28T09:55:00",
      "eventActual": "0.2",
      "eventCountry": "Spain",
      "eventExpectedVolatility": "Low",
      "eventName": "Spanish Business Confidence",
      "eventTimeZone": "GMT",
      "eventPrevious": "1.1",
      "eventCurrency": "EUR",
      "eventForecast": ""
    },
    {
      "eventDateTime": "2018-06-28T10:00:00",
      "eventActual": "",
      "eventCountry": "Euro Zone",
      "eventExpectedVolatility": "High",
      "eventName": "EU Leaders Summit",
      "eventTimeZone": "GMT",
      "eventPrevious": "",
      "eventCurrency": "EUR",
      "eventForecast": ""
    },
    {
      "eventDateTime": "2018-06-28T12:00:00",
      "eventActual": "0.1%",
      "eventCountry": "Germany",
      "eventExpectedVolatility": "Moderate",
      "eventName": "German CPI (MoM) (Jun)",
      "eventTimeZone": "GMT",
      "eventPrevious": "0.5%",
      "eventCurrency": "EUR",
      "eventForecast": "0.2%"
    },
    {
      "eventDateTime": "2018-06-28T12:00:00",
      "eventActual": "2.1%",
      "eventCountry": "Germany",
      "eventExpectedVolatility": "Low",
      "eventName": "German CPI (YoY) (Jun)",
      "eventTimeZone": "GMT",
      "eventPrevious": "2.2%",
      "eventCurrency": "EUR",
      "eventForecast": "2.1%"
    },
    {
      "eventDateTime": "2018-06-28T12:00:00",
      "eventActual": "0.1%",
      "eventCountry": "Germany",
      "eventExpectedVolatility": "Low",
      "eventName": "German HICP (MoM) (Jun)",
      "eventTimeZone": "GMT",
      "eventPrevious": "0.6%",
      "eventCurrency": "EUR",
      "eventForecast": "0.2%"
    },
    {
      "eventDateTime": "2018-06-28T12:00:00",
      "eventActual": "2.1%",
      "eventCountry": "Germany",
      "eventExpectedVolatility": "Low",
      "eventName": "German HICP (YoY) (Jun)",
      "eventTimeZone": "GMT",
      "eventPrevious": "2.2%",
      "eventCurrency": "EUR",
      "eventForecast": "2.1%"
    }
  ]}}
