{"events": {"event": [
    {
      "eventDateTime": "2009-05-06T08:00:00",
      "eventActual": "-1.7%",
      "eventCountry": "United Kingdom",
      "eventExpectedVolatility": "Moderate",
      "eventName": "Halifax House Price Index (MoM)",
      "eventTimeZone": "GMT",
      "eventPrevious": "-1.9%",
      "eventCurrency": "GBP",
      "eventForecast": "-1.0%"
    },
    {
      "eventDateTime": "2009-05-06T08:30:00",
      "eventActual": "48.7",
      "eventCountry": "United Kingdom",
      "eventExpectedVolatility": "High",
      "eventName": "Services PMI",
      "eventTimeZone": "GMT",
      "eventPrevious": "45.5",
      "eventCurrency": "GBP",
      "eventForecast": "46.3"
    }
  ]}}
