{"events": {"event": [
    {
      "eventDateTime": "2019-11-14T07:30:00",
      "eventActual": "-0.2%",
      "eventCountry": "Switzerland",
      "eventExpectedVolatility": "Moderate",
      "eventName": "PPI (MoM) (Oct)",
      "eventTimeZone": "GMT",
      "eventPrevious": "-0.3%",
      "eventCurrency": "CHF",
      "eventForecast": "-0.1%"
    },
    {
      "eventDateTime": "2019-11-14T07:30:00",
      "eventActual": "-2.4%",
      "eventCountry": "Switzerland",
      "eventExpectedVolatility": "Low",
      "eventName": "PPI (YoY) (Oct)",
      "eventTimeZone": "GMT",
      "eventPrevious": "-2.0%",
      "eventCurrency": "CHF",
      "eventForecast": "-1.9%"
    },
    {
      "eventDateTime": "2019-11-14T17:30:00",
      "eventActual": "",
      "eventCountry": "Switzerland",
      "eventExpectedVolatility": "Moderate",
      "eventName": "SNB Gov Board Member Maechler Speaks",
      "eventTimeZone": "GMT",
      "eventPrevious": "",
      "eventCurrency": "CHF",
      "eventForecast": ""
    }
  ]}}
