"French Industrial Production (MoM)";"France";"EUR";"2013-09-10T06:45:00";"GMT";"-1.4%";"0.6%";"-0.6%";"Low"
"Italian GDP (QoQ)";"Italy";"EUR";"2013-09-10T08:00:00";"GMT";"-0.3%";"-0.2%";"-0.3%";"Low"
"Italian GDP (YoY)";"Italy";"EUR";"2013-09-10T08:00:00";"GMT";"-2.1%";"-2.0%";"-2.1%";"Low"
