{"events": {"event": {
    "eventDateTime": "2015-05-26T07:15:00",
    "eventActual": "4.220M",
    "eventCountry": "Switzerland",
    "eventExpectedVolatility": "Moderate",
    "eventName": "Employment Level (Q1)",
    "eventTimeZone": "GMT",
    "eventPrevious": "4.231M",
    "eventCurrency": "CHF",
    "eventForecast": "4.210M"
  }}}
