"Halifax House Price Index (MoM)";"United Kingdom";"GBP";"2011-04-06T07:00:00";"GMT";"-0.9%";"0.2%";"0.1%";"Moderate"
"Industrial Production (MoM)";"United Kingdom";"GBP";"2011-04-06T08:30:00";"GMT";"0.3%";"0.4%";"-1.2%";"Moderate"
"Manufacturing Production (MoM)";"United Kingdom";"GBP";"2011-04-06T08:30:00";"GMT";"0.9%";"0.5%";"0.0%";"High"
"NIESR GDP Estimate";"United Kingdom";"GBP";"2011-04-06T14:00:00";"GMT";"0.1%";"";"0.7%";"Moderate"
