{"events": {"event": [
    {
      "eventDateTime": "2008-12-19T00:01:00",
      "eventActual": "-33",
      "eventCountry": "United Kingdom",
      "eventExpectedVolatility": "Low",
      "eventName": "GfK Consumer Confidence",
      "eventTimeZone": "GMT",
      "eventPrevious": "-35",
      "eventCurrency": "GBP",
      "eventForecast": "-39"
    },
    {
      "eventDateTime": "2008-12-19T09:30:00",
      "eventActual": "-1.3%",
      "eventCountry": "United Kingdom",
      "eventExpectedVolatility": "Moderate",
      "eventName": "Business Investment (QoQ)",
      "eventTimeZone": "GMT",
      "eventPrevious": "-0.2%",
      "eventCurrency": "GBP",
      "eventForecast": "-0.2%"
    },
    {
      "eventDateTime": "2008-12-19T20:30:00",
      "eventActual": "-30.4K",
      "eventCountry": "United Kingdom",
      "eventExpectedVolatility": "Moderate",
      "eventName": "CFTC GBP speculative net positions",
      "eventTimeZone": "GMT",
      "eventPrevious": "-37.4K",
      "eventCurrency": "GBP",
      "eventForecast": ""
    }
  ]}}
