{"events": {"event": [
    {
      "eventDateTime": "2016-08-18T12:30:00",
      "eventActual": "9.02B",
      "eventCountry": "Canada",
      "eventExpectedVolatility": "Moderate",
      "eventName": "Foreign Securities Purchases (Jun)",
      "eventTimeZone": "GMT",
      "eventPrevious": "13.99B",
      "eventCurrency": "CAD",
      "eventForecast": ""
    },
    {
      "eventDateTime": "2016-08-18T12:30:00",
      "eventActual": "4.15B",
      "eventCountry": "Canada",
      "eventExpectedVolatility": "Low",
      "eventName": "Foreign Securities Purchases by Canadians (Jun)",
      "eventTimeZone": "GMT",
      "eventPrevious": "4.90B",
      "eventCurrency": "CAD",
      "eventForecast": ""
    }
  ]}}
