{"events": {"event": [
    {
      "eventDateTime": "2014-09-30T23:00:00",
      "eventActual": "-0.1%",
      "eventCountry": "South Korea",
      "eventExpectedVolatility": "Low",
      "eventName": "CPI (MoM) (Sep)",
      "eventTimeZone": "GMT",
      "eventPrevious": "0.2%",
      "eventCurrency": "KRW",
      "eventForecast": "0.2%"
    },
    {
      "eventDateTime": "2014-09-30T23:00:00",
      "eventActual": "1.1%",
      "eventCountry": "South Korea",
      "eventExpectedVolatility": "Moderate",
      "eventName": "CPI (YoY) (Sep)",
      "eventTimeZone": "GMT",
      "eventPrevious": "1.4%",
      "eventCurrency": "KRW",
      "eventForecast": "1.5%"
    }
  ]}}
