{"events": {"event": [
    {
      "eventDateTime": "2010-09-03T07:15:00",
      "eventActual": "0.0%",
      "eventCountry": "Switzerland",
      "eventExpectedVolatility": "Moderate",
      "eventName": "CPI (MoM)",
      "eventTimeZone": "GMT",
      "eventPrevious": "-0.7%",
      "eventCurrency": "CHF",
      "eventForecast": "0.1%"
    },
    {
      "eventDateTime": "2010-09-03T19:30:00",
      "eventActual": "14.3K",
      "eventCountry": "Switzerland",
      "eventExpectedVolatility": "Low",
      "eventName": "CFTC CHF speculative net positions",
      "eventTimeZone": "GMT",
      "eventPrevious": "13.9K",
      "eventCurrency": "CHF",
      "eventForecast": ""
    }
  ]}}
