{"events": {"event": {
    "eventDateTime": "2008-06-30T12:30:00",
    "eventActual": "0.4%",
    "eventCountry": "Canada",
    "eventExpectedVolatility": "High",
    "eventName": "GDP (MoM)",
    "eventTimeZone": "GMT",
    "eventPrevious": "-0.2%",
    "eventCurrency": "CAD",
    "eventForecast": "0.3%"
  }}}
