{"events": {"event": [
    {
      "eventDateTime": "2018-10-25T08:30:00",
      "eventActual": "4.5%",
      "eventCountry": "Hong Kong",
      "eventExpectedVolatility": "Low",
      "eventName": "Exports (MoM) (Sep)",
      "eventTimeZone": "GMT",
      "eventPrevious": "13.1%",
      "eventCurrency": "HKD",
      "eventForecast": ""
    },
    {
      "eventDateTime": "2018-10-25T08:30:00",
      "eventActual": "4.8%",
      "eventCountry": "Hong Kong",
      "eventExpectedVolatility": "Low",
      "eventName": "Imports (MoM) (Sep)",
      "eventTimeZone": "GMT",
      "eventPrevious": "16.4%",
      "eventCurrency": "HKD",
      "eventForecast": ""
    },
    {
      "eventDateTime": "2018-10-25T08:30:00",
      "eventActual": "-47.7B",
      "eventCountry": "Hong Kong",
      "eventExpectedVolatility": "Low",
      "eventName": "Trade Balance",
      "eventTimeZone": "GMT",
      "eventPrevious": "-52.1B",
      "eventCurrency": "HKD",
      "eventForecast": ""
    }
  ]}}
