"PPI (QoQ) (Q3)";"Australia";"AUD";"2018-11-02T00:30:00";"GMT";"0.3%";"0.2%";"0.8%";"Moderate"
"PPI (YoY) (Q3)";"Australia";"AUD";"2018-11-02T00:30:00";"GMT";"1.5%";"";"2.1%";"Moderate"
"Retail Sales (MoM) (Sep)";"Australia";"AUD";"2018-11-02T00:30:00";"GMT";"0.3%";"0.3%";"0.2%";"High"
"Retail Sales (QoQ) (Q3)";"Australia";"AUD";"2018-11-02T00:30:00";"GMT";"1.0%";"0.4%";"0.2%";"Low"
"CFTC AUD speculative net positions";"Australia";"AUD";"2018-11-02T19:30:00";"GMT";"-70.4K";"";"-70.4K";"Moderate"
