{"events": {"event": [
    {
      "eventDateTime": "2018-01-05T00:30:00",
      "eventActual": "0%",
      "eventCountry": "Australia",
      "eventExpectedVolatility": "Low",
      "eventName": "Exports (MoM) (Nov)",
      "eventTimeZone": "GMT",
      "eventPrevious": "-3%",
      "eventCurrency": "AUD",
      "eventForecast": ""
    },
    {
      "eventDateTime": "2018-01-05T00:30:00",
      "eventActual": "1%",
      "eventCountry": "Australia",
      "eventExpectedVolatility": "Low",
      "eventName": "Imports (MoM) (Nov)",
      "eventTimeZone": "GMT",
      "eventPrevious": "2%",
      "eventCurrency": "AUD",
      "eventForecast": ""
    },
    {
      "eventDateTime": "2018-01-05T00:30:00",
      "eventActual": "-0.628B",
      "eventCountry": "Australia",
      "eventExpectedVolatility": "Moderate",
      "eventName": "Trade Balance (Nov)",
      "eventTimeZone": "GMT",
      "eventPrevious": "-0.302B",
      "eventCurrency": "AUD",
      "eventForecast": "0.550B"
    },
    {
      "eventDateTime": "2018-01-05T20:30:00",
      "eventActual": "-20.0K",
      "eventCountry": "Australia",
      "eventExpectedVolatility": "Moderate",
      "eventName": "CFTC AUD speculative net positions",
      "eventTimeZone": "GMT",
      "eventPrevious": "-13.6K",
      "eventCurrency": "AUD",
      "eventForecast": ""
    }
  ]}}
