{"events": {"event": {
    "eventDateTime": "2008-04-03T02:00:00",
    "eventActual": "2.0%",
    "eventCountry": "New Zealand",
    "eventExpectedVolatility": "Low",
    "eventName": "ANZ Commodity Price Index (MoM)",
    "eventTimeZone": "GMT",
    "eventPrevious": "0.9%",
    "eventCurrency": "NZD",
    "eventForecast": "0.0%"
  }}}
