{"events": {"event": [
    {
      "eventDateTime": "2008-12-30T14:00:00",
      "eventActual": "-18.0%",
      "eventCountry": "United States",
      "eventExpectedVolatility": "Moderate",
      "eventName": "Sandamp;P/CS HPI Composite - 20 n.s.a. (YoY)",
      "eventTimeZone": "GMT",
      "eventPrevious": "-17.4%",
      "eventCurrency": "USD",
      "eventForecast": "-17.8%"
    },
    {
      "eventDateTime": "2008-12-30T14:45:00",
      "eventActual": "34.1",
      "eventCountry": "United States",
      "eventExpectedVolatility": "Moderate",
      "eventName": "Chicago PMI",
      "eventTimeZone": "GMT",
      "eventPrevious": "33.8",
      "eventCurrency": "USD",
      "eventForecast": "33.0"
    },
    {
      "eventDateTime": "2008-12-30T15:00:00",
      "eventActual": "38.0",
      "eventCountry": "United States",
      "eventExpectedVolatility": "High",
      "eventName": "CB Consumer Confidence",
      "eventTimeZone": "GMT",
      "eventPrevious": "44.9",
      "eventCurrency": "USD",
      "eventForecast": "45.5"
    }
  ]}}
