{"events": {"event": [
    {
      "eventDateTime": "2013-10-31T01:30:00",
      "eventActual": "0.1%",
      "eventCountry": "Japan",
      "eventExpectedVolatility": "Low",
      "eventName": "Average Cash Earnings (YoY)",
      "eventTimeZone": "GMT",
      "eventPrevious": "-0.9%",
      "eventCurrency": "JPY",
      "eventForecast": "-0.5%"
    },
    {
      "eventDateTime": "2013-10-31T04:15:00",
      "eventActual": "0.10%",
      "eventCountry": "Japan",
      "eventExpectedVolatility": "Moderate",
      "eventName": "BoJ Interest Rate Decision",
      "eventTimeZone": "GMT",
      "eventPrevious": "0.10%",
      "eventCurrency": "JPY",
      "eventForecast": "0.10%"
    },
    {
      "eventDateTime": "2013-10-31T05:00:00",
      "eventActual": "89.8%",
      "eventCountry": "Japan",
      "eventExpectedVolatility": "Low",
      "eventName": "Construction Orders (YoY)",
      "eventTimeZone": "GMT",
      "eventPrevious": "21.4%",
      "eventCurrency": "JPY",
      "eventForecast": ""
    },
    {
      "eventDateTime": "2013-10-31T05:00:00",
      "eventActual": "19.4%",
      "eventCountry": "Japan",
      "eventExpectedVolatility": "Low",
      "eventName": "Housing Starts (YoY)",
      "eventTimeZone": "GMT",
      "eventPrevious": "8.8%",
      "eventCurrency": "JPY",
      "eventForecast": "12.2%"
    },
    {
      "eventDateTime": "2013-10-31T07:25:00",
      "eventActual": "",
      "eventCountry": "Japan",
      "eventExpectedVolatility": "High",
      "eventName": "BoJ Press Conference",
      "eventTimeZone": "GMT",
      "eventPrevious": "",
      "eventCurrency": "JPY",
      "eventForecast": ""
    }
  ]}}
