{"events": {"event": {
    "eventDateTime": "2008-08-26T08:00:00",
    "eventActual": "1.85",
    "eventCountry": "Switzerland",
    "eventExpectedVolatility": "Low",
    "eventName": "Consumption Indicator",
    "eventTimeZone": "GMT",
    "eventPrevious": "2.25",
    "eventCurrency": "CHF",
    "eventForecast": ""
  }}}
