"GfK German Consumer Climate (Jul)";"Germany";"EUR";"2016-06-29T06:00:00";"GMT";"9.8";"9.8";"10.1";"Moderate"
"Spanish CPI (MoM) (Jun)";"Spain";"EUR";"2016-06-29T07:00:00";"GMT";"0.5%";"0.0%";"0.5%";"Low"
"Spanish CPI (YoY) (Jun)";"Spain";"EUR";"2016-06-29T07:00:00";"GMT";"-1.0%";"-0.9%";"-0.8%";"Moderate"
"Spanish HICP (MoM) (Jun)";"Spain";"EUR";"2016-06-29T07:00:00";"GMT";"0.5%";"0.3%";"0.4%";"Low"
"Spanish HICP (YoY) (Jun)";"Spain";"EUR";"2016-06-29T07:00:00";"GMT";"-1.1%";"-1.0%";"-0.9%";"Moderate"
"Business Climate (Jun)";"Euro Zone";"EUR";"2016-06-29T09:00:00";"GMT";"0.3";"0.3";"0.2";"Low"
"Business and Consumer Survey (Jun)";"Euro Zone";"EUR";"2016-06-29T09:00:00";"GMT";"104.6";"104.7";"104.4";"Low"
"Consumer Confidence (Jun)";"Euro Zone";"EUR";"2016-06-29T09:00:00";"GMT";"-7.0";"-7.0";"-7.0";"Low"
"Consumer Inflation Expectation (Jun)";"Euro Zone";"EUR";"2016-06-29T09:00:00";"GMT";"3.4";"";"5.1";"Low"
"Industrial Sentiment (Jun)";"Euro Zone";"EUR";"2016-06-29T09:00:00";"GMT";"-4.0";"-3.0";"-3.0";"Low"
"Selling Price Expectations (Jun)";"Euro Zone";"EUR";"2016-06-29T09:00:00";"GMT";"-0.7";"";"0.7";"Low"
"Services Sentiment (Jun)";"Euro Zone";"EUR";"2016-06-29T09:00:00";"GMT";"11.3";"11.0";"11.0";"Low"
"EU Leaders Summit";"Euro Zone";"EUR";"2016-06-29T11:00:00";"GMT";" ";"";"";"High"
"German CPI (MoM) (Jun)";"Germany";"EUR";"2016-06-29T12:00:00";"GMT";"0.3%";"0.2%";"0.1%";"Moderate"
"German CPI (YoY) (Jun)";"Germany";"EUR";"2016-06-29T12:00:00";"GMT";"0.1%";"0.3%";"0.3%";"Low"
"German HICP (MoM) (Jun)";"Germany";"EUR";"2016-06-29T12:00:00";"GMT";"0.4%";"0.1%";"0.1%";"Low"
"German HICP (YoY) (Jun)";"Germany";"EUR";"2016-06-29T12:00:00";"GMT";"0.0%";"0.2%";"0.2%";"Low"
"ECB President Draghi Speaks";"Euro Zone";"EUR";"2016-06-29T13:30:00";"GMT";" ";"";"";"High"
