"IEA Monthly Report";"United States";"USD";"2018-02-13T09:00:00";"GMT";" ";"";"";"Moderate"
"NFIB Small Business Optimism (Jan)";"United States";"USD";"2018-02-13T11:00:00";"GMT";"104.9";"106.2";"106.9";"Low"
"FOMC Member Mester Speaks";"United States";"USD";"2018-02-13T13:00:00";"GMT";" ";"";"";"Moderate"
"Redbook (MoM)";"United States";"USD";"2018-02-13T13:55:00";"GMT";"0.0%";"";"-1.1%";"Low"
"Redbook (YoY)";"United States";"USD";"2018-02-13T13:55:00";"GMT";"3.0%";"";"2.8%";"Low"
"4-Week Bill Auction";"United States";"USD";"2018-02-13T16:30:00";"GMT";"1.480%";"";"1.360%";"Low"
"API Weekly Crude Oil Stock";"United States";"USD";"2018-02-13T21:35:00";"GMT";"-1.050M";"2.800M";"3.947M";"Moderate"
