"10-Year Note Auction (Jun)";"United States";"USD";"2007-07-01T09:00:00";"GMT";"4.50%";"";"4.50%";"Moderate"
"5-Year Note Auction (Jun)";"United States";"USD";"2007-07-01T09:00:00";"GMT";"4.75%";"";"4.88%";"Low"
"All Car Sales (Jun)";"United States";"USD";"2007-07-01T09:00:00";"GMT";"7.85M";"";"7.52M";"Low"
"All Truck Sales (Jun)";"United States";"USD";"2007-07-01T09:00:00";"GMT";"8.44M";"";"8.30M";"Low"
"Average Hourly Earnings (MoM) (Jun)";"United States";"USD";"2007-07-01T09:00:00";"GMT";"0.30%";"";"0.60%";"Moderate"
"Average Weekly Hours (Jun)";"United States";"USD";"2007-07-01T09:00:00";"GMT";"34.60";"";"34.60";"Low"
"Business Inventories (MoM) (Jun)";"United States";"USD";"2007-07-01T09:00:00";"GMT";"0.70%";"";"0.50%";"Moderate"
"CB Consumer Confidence (Jun)";"United States";"USD";"2007-07-01T09:00:00";"GMT";"108.50";"";"105.30";"High"
"CB Employment Trends Index (Jun)";"United States";"USD";"2007-07-01T09:00:00";"GMT";"127.50";"";"127.60";"Low"
"CPI (MoM) (Jun)";"United States";"USD";"2007-07-01T09:00:00";"GMT";"0.40%";"";"0.20%";"Moderate"
"CPI (YoY) (Jun)";"United States";"USD";"2007-07-01T09:00:00";"GMT";"2.70%";"";"2.70%";"Low"
"CPI Index, n.s.a. (Jun)";"United States";"USD";"2007-07-01T09:00:00";"GMT";"207.95";"";"208.35";"Low"
"Capacity Utilization Rate (Jun)";"United States";"USD";"2007-07-01T09:00:00";"GMT";"80.70%";"";"80.60%";"Low"
"Chain Store Sales (MoM) (Jun)";"United States";"USD";"2007-07-01T09:00:00";"GMT";"2.50%";"";"2.40%";"Low"
"Chain Store Sales (WoW) (Jun)";"United States";"USD";"2007-07-01T09:00:00";"GMT";"-0.34%";"";"0.05%";"Low"
"Chain Store Sales (YoY) (Jun)";"United States";"USD";"2007-07-01T09:00:00";"GMT";"2.30%";"";"2.06%";"Low"
"Challenger Job Cuts (Jun)";"United States";"USD";"2007-07-01T09:00:00";"GMT";"71.12K";"";"55.73K";"Low"
"Chicago Fed National Activity (Jun)";"United States";"USD";"2007-07-01T09:00:00";"GMT";"0.00";"";"-0.26";"Low"
"Chicago PMI (Jun)";"United States";"USD";"2007-07-01T09:00:00";"GMT";"60.60";"";"58.30";"Moderate"
"Cleveland CPI (MoM) (Jun)";"United States";"USD";"2007-07-01T09:00:00";"GMT";"0.20%";"";"0.30%";"Low"
"Construction Spending (MoM) (Jun)";"United States";"USD";"2007-07-01T09:00:00";"GMT";"0.80%";"";"-0.10%";"Low"
"Consumer Credit (Jun)";"United States";"USD";"2007-07-01T09:00:00";"GMT";"16.64B";"";"10.67B";"Low"
"Continuing Jobless Claims (Jun)";"United States";"USD";"2007-07-01T09:00:00";"GMT";"2,449.30K";"";"2,487.71K";"Low"
"Core CPI (MoM) (Jun)";"United States";"USD";"2007-07-01T09:00:00";"GMT";"0.10%";"";"0.20%";"High"
"Core CPI (YoY) (Jun)";"United States";"USD";"2007-07-01T09:00:00";"GMT";"2.20%";"";"2.20%";"Moderate"
"Core CPI Index (Jun)";"United States";"USD";"2007-07-01T09:00:00";"GMT";"210.06";"";"210.39";"Low"
"Core PCE Price Index (MoM) (Jun)";"United States";"USD";"2007-07-01T09:00:00";"GMT";"0.10%";"";"0.20%";"Moderate"
"Core PCE Price Index (YoY) (Jun)";"United States";"USD";"2007-07-01T09:00:00";"GMT";"2.00%";"";"1.90%";"Moderate"
"Core Retail Sales (MoM) (Jun)";"United States";"USD";"2007-07-01T09:00:00";"GMT";"1.30%";"";"-0.30%";"High"
"Crude Oil Inventories (Jun)";"United States";"USD";"2007-07-01T09:00:00";"GMT";"1.21M";"";"2.79M";"High"
"Dallas Fed Mfg Business Index (Jun)";"United States";"USD";"2007-07-01T09:00:00";"GMT";"12.00";"";"9.20";"Low"
"Dallas Fed PCE (Jun)";"United States";"USD";"2007-07-01T09:00:00";"GMT";"1.60%";"";"2.50%";"Low"
"Dallas Fed Services Revenues (Jun)";"United States";"USD";"2007-07-01T09:00:00";"GMT";"36.30";"";"18.60";"Low"
"Domestic Truck Sales (Jun)";"United States";"USD";"2007-07-01T09:00:00";"GMT";"7.09M";"";"6.90M";"Low"
"Durables Excluding Defense (MoM) (Jun)";"United States";"USD";"2007-07-01T09:00:00";"GMT";"-3.10%";"";"2.10%";"Low"
"EIA Weekly Distillates Stocks (Jun)";"United States";"USD";"2007-07-01T09:00:00";"GMT";"0.97M";"";"-0.07M";"Low"
"Existing Home Sales (Jun)";"United States";"USD";"2007-07-01T09:00:00";"GMT";"5.27M";"";"5.12M";"High"
"Existing Home Sales (MoM) (Jun)";"United States";"USD";"2007-07-01T09:00:00";"GMT";"-0.40%";"";"-2.80%";"Moderate"
"Export Price Index (MoM) (Jun)";"United States";"USD";"2007-07-01T09:00:00";"GMT";"0.30%";"";"0.40%";"Moderate"
"Factory Orders (MoM) (Jun)";"United States";"USD";"2007-07-01T09:00:00";"GMT";"-0.60%";"";"0.80%";"Moderate"
"Factory orders ex transportation (MoM) (Jun)";"United States";"USD";"2007-07-01T09:00:00";"GMT";"0.80%";"";"-0.60%";"Low"
"Federal Budget Balance (Jun)";"United States";"USD";"2007-07-01T09:00:00";"GMT";"-67.70B";"";"27.50B";"Moderate"
"Gasoline Inventories (Jun)";"United States";"USD";"2007-07-01T09:00:00";"GMT";"1.67M";"";"0.86M";"Low"
"Government Payrolls (Jun)";"United States";"USD";"2007-07-01T09:00:00";"GMT";"18.00K";"";"14.00K";"Low"
"House Price Index (Jun)";"United States";"USD";"2007-07-01T09:00:00";"GMT";"225.90";"";"225.10";"Low"
"House Price Index (MoM) (Jun)";"United States";"USD";"2007-07-01T09:00:00";"GMT";"-0.50%";"";"-0.40%";"Low"
"House Price Index (YoY) (Jun)";"United States";"USD";"2007-07-01T09:00:00";"GMT";"1.10%";"";"0.80%";"Low"
"Housing Starts (Jun)";"United States";"USD";"2007-07-01T09:00:00";"GMT";"1.42M";"";"1.45M";"Moderate"
"Housing Starts (MoM) (Jun)";"United States";"USD";"2007-07-01T09:00:00";"GMT";"-5.00%";"";"2.30%";"Moderate"
"ISM Manufacturing Employment (Jun)";"United States";"USD";"2007-07-01T09:00:00";"GMT";"52.20";"";"51.90";"Moderate"
"ISM Manufacturing New Orders Index (Jun)";"United States";"USD";"2007-07-01T09:00:00";"GMT";"58.60";"";"57.70";"Low"
"ISM Manufacturing PMI (Jun)";"United States";"USD";"2007-07-01T09:00:00";"GMT";"52.50";"";"52.60";"High"
"ISM Manufacturing Prices (Jun)";"United States";"USD";"2007-07-01T09:00:00";"GMT";"71.00";"";"68.00";"Low"
"ISM Non-Manufacturing Business Activity (Jun)";"United States";"USD";"2007-07-01T09:00:00";"GMT";"58.10";"";"60.10";"Low"
"ISM Non-Manufacturing Employment (Jun)";"United States";"USD";"2007-07-01T09:00:00";"GMT";"52.20";"";"53.30";"Moderate"
"ISM Non-Manufacturing New Orders (Jun)";"United States";"USD";"2007-07-01T09:00:00";"GMT";"57.10";"";"57.20";"Low"
"ISM Non-Manufacturing PMI (Jun)";"United States";"USD";"2007-07-01T09:00:00";"GMT";"54.20";"";"55.30";"High"
"ISM Non-Manufacturing Prices (Jun)";"United States";"USD";"2007-07-01T09:00:00";"GMT";"63.20";"";"61.90";"Low"
"ISM-New York Index (Jun)";"United States";"USD";"2007-07-01T09:00:00";"GMT";"431.90";"";"434.40";"Low"
"Import Price Index (MoM) (Jun)";"United States";"USD";"2007-07-01T09:00:00";"GMT";"0.90%";"";"1.20%";"Moderate"
"Industrial Production (MoM) (Jun)";"United States";"USD";"2007-07-01T09:00:00";"GMT";"0.00%";"";"0.00%";"Moderate"
"Initial Jobless Claims (Jun)";"United States";"USD";"2007-07-01T09:00:00";"GMT";"305.96K";"";"315.62K";"Moderate"
"JOLTs Job Openings (Jun)";"United States";"USD";"2007-07-01T09:00:00";"GMT";"4.53M";"";"4.64M";"High"
"Jobless Claims 4-Week Avg. (Jun)";"United States";"USD";"2007-07-01T09:00:00";"GMT";"305.83K";"";"313.69K";"Low"
"KC Fed Composite Index (Jun)";"United States";"USD";"2007-07-01T09:00:00";"GMT";"9.00";"";"5.00";"Low"
"KC Fed Manufacturing Index (Jun)";"United States";"USD";"2007-07-01T09:00:00";"GMT";"14.00";"";"-5.00";"Low"
"MBA 30-Year Mortgage Rate (Jun)";"United States";"USD";"2007-07-01T09:00:00";"GMT";"6.23%";"";"6.57%";"Low"
"MBA Purchase Index (Jun)";"United States";"USD";"2007-07-01T09:00:00";"GMT";"433.68";"";"444.89";"Low"
"Manufacturing Payrolls (Jun)";"United States";"USD";"2007-07-01T09:00:00";"GMT";"-16.00K";"";"-18.00K";"Low"
"Manufacturing Production (MoM) (Jun)";"United States";"USD";"2007-07-01T09:00:00";"GMT";"-0.10%";"";"0.30%";"Low"
"Michigan 5-Year Inflation Expectations (Jun)";"United States";"USD";"2007-07-01T09:00:00";"GMT";"3.10%";"";"2.90%";"Low"
"Michigan Consumer Expectations (Jun)";"United States";"USD";"2007-07-01T09:00:00";"GMT";"77.60";"";"73.00";"Moderate"
"Michigan Consumer Sentiment (Jun)";"United States";"USD";"2007-07-01T09:00:00";"GMT";"88.70";"";"85.30";"Moderate"
"Michigan Current Conditions (Jun)";"United States";"USD";"2007-07-01T09:00:00";"GMT";"103.80";"";"101.90";"Low"
"Michigan Inflation Expectations (Jun)";"United States";"USD";"2007-07-01T09:00:00";"GMT";"3.30%";"";"3.40%";"Low"
"Midwest Manufacturing (Jun)";"United States";"USD";"2007-07-01T09:00:00";"GMT";"100.80";"";"100.80";"Low"
"Mortgage Market Index (Jun)";"United States";"USD";"2007-07-01T09:00:00";"GMT";"661.50";"";"636.49";"Low"
"Mortgage Refinance Index (Jun)";"United States";"USD";"2007-07-01T09:00:00";"GMT";"2,009.27";"";"1,762.34";"Low"
"NAHB Housing Market Index (Jun)";"United States";"USD";"2007-07-01T09:00:00";"GMT";"30.00";"";"28.00";"Low"
"NFIB Small Business Optimism (Jun)";"United States";"USD";"2007-07-01T09:00:00";"GMT";"97.20";"";"96.00";"Low"
"NY Empire State Manufacturing Index (Jun)";"United States";"USD";"2007-07-01T09:00:00";"GMT";"9.94";"";"24.34";"Moderate"
"Natural Gas Storage (Jun)";"United States";"USD";"2007-07-01T09:00:00";"GMT";"102.35B";"";"90.48B";"Low"
"New Home Sales (Jun)";"United States";"USD";"2007-07-01T09:00:00";"GMT";"842.00K";"";"793.00K";"High"
"New Home Sales (MoM) (Jun)";"United States";"USD";"2007-07-01T09:00:00";"GMT";"-5.10%";"";"-5.80%";"Moderate"
"Overall Net Capital Flow (Jun)";"United States";"USD";"2007-07-01T09:00:00";"GMT";"101.40B";"";"34.50B";"Low"
"Pending Home Sales (MoM) (Jun)";"United States";"USD";"2007-07-01T09:00:00";"GMT";"-2.10%";"";"1.30%";"High"
"Pending Home Sales Index (Jun)";"United States";"USD";"2007-07-01T09:00:00";"GMT";"98.80";"";"100.10";"Low"
"Personal Income (MoM) (Jun)";"United States";"USD";"2007-07-01T09:00:00";"GMT";"0.20%";"";"0.10%";"Low"
"Personal Spending (MoM) (Jun)";"United States";"USD";"2007-07-01T09:00:00";"GMT";"0.40%";"";"0.10%";"Moderate"
"Philadelphia Fed Manufacturing Index (Jun)";"United States";"USD";"2007-07-01T09:00:00";"GMT";"3.80";"";"17.20";"High"
"Philly Fed Business Conditions (Jun)";"United States";"USD";"2007-07-01T09:00:00";"GMT";"22.70";"";"11.10";"Low"
"Philly Fed CAPEX Index (Jun)";"United States";"USD";"2007-07-01T09:00:00";"GMT";"12.20";"";"18.20";"Low"
"Philly Fed Employment (Jun)";"United States";"USD";"2007-07-01T09:00:00";"GMT";"9.90";"";"4.40";"Moderate"
"Philly Fed New Orders (Jun)";"United States";"USD";"2007-07-01T09:00:00";"GMT";"8.20";"";"14.90";"Low"
"Philly Fed Prices Paid (Jun)";"United States";"USD";"2007-07-01T09:00:00";"GMT";"27.50";"";"22.30";"Low"
"Private Nonfarm Payrolls (Jun)";"United States";"USD";"2007-07-01T09:00:00";"GMT";"127.00K";"";"57.00K";"Moderate"
"Real Earnings (MoM) (Jun)";"United States";"USD";"2007-07-01T09:00:00";"GMT";"0.20%";"";"0.30%";"Low"
"Real Personal Consumption (MoM) (Jun)";"United States";"USD";"2007-07-01T09:00:00";"GMT";"0.10%";"";"-0.10%";"Low"
"Redbook (MoM) (Jun)";"United States";"USD";"2007-07-01T09:00:00";"GMT";"1.17%";"";"-0.82%";"Low"
"Redbook (YoY) (Jun)";"United States";"USD";"2007-07-01T09:00:00";"GMT";"1.87%";"";"1.59%";"Low"
"Retail Control (MoM) (Jun)";"United States";"USD";"2007-07-01T09:00:00";"GMT";"0.60%";"";"0.10%";"Low"
"Retail Sales (MoM) (Jun)";"United States";"USD";"2007-07-01T09:00:00";"GMT";"1.30%";"";"-0.70%";"High"
"Retail Sales Ex Gas/Autos (MoM) (Jun)";"United States";"USD";"2007-07-01T09:00:00";"GMT";"0.80%";"";"0.00%";"Low"
"Richmond Manufacturing Index (Jun)";"United States";"USD";"2007-07-01T09:00:00";"GMT";"-10.00";"";"-1.00";"Low"
"Richmond Manufacturing Shipments (Jun)";"United States";"USD";"2007-07-01T09:00:00";"GMT";"-9.00";"";"2.00";"Low"
"Richmond Services Index (Jun)";"United States";"USD";"2007-07-01T09:00:00";"GMT";"5.00";"";"16.00";"Low"
"Sandamp;P/CS HPI Composite - 20 n.s.a. (MoM) (Jun)";"United States";"USD";"2007-07-01T09:00:00";"GMT";"-0.20%";"";"-0.30%";"Low"
"Sandamp;P/CS HPI Composite - 20 n.s.a. (YoY) (Jun)";"United States";"USD";"2007-07-01T09:00:00";"GMT";"-2.80%";"";"-3.40%";"Moderate"
"Sandamp;P/CS HPI Composite - 20 s.a. (MoM) (Jun)";"United States";"USD";"2007-07-01T09:00:00";"GMT";"-0.90%";"";"-1.10%";"Low"
"TIC Net Long-Term Transactions (Jun)";"United States";"USD";"2007-07-01T09:00:00";"GMT";"135.80B";"";"108.60B";"Moderate"
"TIC Net Long-Term Transactions including Swaps (Jun)";"United States";"USD";"2007-07-01T09:00:00";"GMT";"116.10B";"";"88.40B";"Low"
"Texas Services Sector Outlook (Jun)";"United States";"USD";"2007-07-01T09:00:00";"GMT";"10.90";"";"5.20";"Low"
"Trade Balance (Jun)";"United States";"USD";"2007-07-01T09:00:00";"GMT";"-59.30B";"";"-59.50B";"Moderate"
"US Foreign Buying, T-bonds (Jun)";"United States";"USD";"2007-07-01T09:00:00";"GMT";"22.70B";"";"24.30B";"Low"
"Wholesale Inventories (MoM) (Jun)";"United States";"USD";"2007-07-01T09:00:00";"GMT";"0.40%";"";"0.30%";"Low"
"ADP Nonfarm Employment Change (Jun)";"United States";"USD";"2007-07-01T12:15:00";"GMT";"59K";"";"97K";"High"
"U6 Unemployment Rate (Jun)";"United States";"USD";"2007-07-01T12:30:00";"GMT";"8.20%";"";"8.30%";"Low"
"Unemployment Rate (Jun)";"United States";"USD";"2007-07-01T12:30:00";"GMT";"4.4%";"";"4.6%";"High"
