{"events": {"event": [
    {
      "eventDateTime": "2015-08-31T01:00:00",
      "eventActual": "-29.1%",
      "eventCountry": "New Zealand",
      "eventExpectedVolatility": "Moderate",
      "eventName": "ANZ Business Confidence (Aug)",
      "eventTimeZone": "GMT",
      "eventPrevious": "-15.3%",
      "eventCurrency": "NZD",
      "eventForecast": "-7.5%"
    },
    {
      "eventDateTime": "2015-08-31T01:00:00",
      "eventActual": "12.2%",
      "eventCountry": "New Zealand",
      "eventExpectedVolatility": "Low",
      "eventName": "NBNZ Own Activity (Aug)",
      "eventTimeZone": "GMT",
      "eventPrevious": "19.0%",
      "eventCurrency": "NZD",
      "eventForecast": ""
    },
    {
      "eventDateTime": "2015-08-31T05:30:00",
      "eventActual": "45.1%",
      "eventCountry": "New Zealand",
      "eventExpectedVolatility": "Moderate",
      "eventName": "Investing.com NZD/USD Index",
      "eventTimeZone": "GMT",
      "eventPrevious": "40.7%",
      "eventCurrency": "NZD",
      "eventForecast": ""
    },
    {
      "eventDateTime": "2015-08-31T22:45:00",
      "eventActual": "2.1%",
      "eventCountry": "New Zealand",
      "eventExpectedVolatility": "Low",
      "eventName": "Terms of Trade - Exports Prices (Q2)",
      "eventTimeZone": "GMT",
      "eventPrevious": "-3.7%",
      "eventCurrency": "NZD",
      "eventForecast": ""
    },
    {
      "eventDateTime": "2015-08-31T22:45:00",
      "eventActual": "-0.2%",
      "eventCountry": "New Zealand",
      "eventExpectedVolatility": "Low",
      "eventName": "Terms of Trade - Exports Volume (QoQ) (Q2)",
      "eventTimeZone": "GMT",
      "eventPrevious": "1.4%",
      "eventCurrency": "NZD",
      "eventForecast": "0.3%"
    },
    {
      "eventDateTime": "2015-08-31T22:45:00",
      "eventActual": "0.7%",
      "eventCountry": "New Zealand",
      "eventExpectedVolatility": "Low",
      "eventName": "Terms of Trade - Imports Prices (Q2)",
      "eventTimeZone": "GMT",
      "eventPrevious": "-5.1%",
      "eventCurrency": "NZD",
      "eventForecast": "1.3%"
    },
    {
      "eventDateTime": "2015-08-31T22:45:00",
      "eventActual": "1.3%",
      "eventCountry": "New Zealand",
      "eventExpectedVolatility": "Low",
      "eventName": "Terms of Trade Index (QoQ) (Q2)",
      "eventTimeZone": "GMT",
      "eventPrevious": "1.5%",
      "eventCurrency": "NZD",
      "eventForecast": "-1.9%"
    }
  ]}}
