{"events": {"event": [
    {
      "eventDateTime": "2008-11-13T13:30:00",
      "eventActual": "516K",
      "eventCountry": "United States",
      "eventExpectedVolatility": "Moderate",
      "eventName": "Initial Jobless Claims",
      "eventTimeZone": "GMT",
      "eventPrevious": "481K",
      "eventCurrency": "USD",
      "eventForecast": "483K"
    },
    {
      "eventDateTime": "2008-11-13T13:30:00",
      "eventActual": "-56.5B",
      "eventCountry": "United States",
      "eventExpectedVolatility": "Moderate",
      "eventName": "Trade Balance",
      "eventTimeZone": "GMT",
      "eventPrevious": "-59.1B",
      "eventCurrency": "USD",
      "eventForecast": "-56.5B"
    },
    {
      "eventDateTime": "2008-11-13T16:00:00",
      "eventActual": "0.000M",
      "eventCountry": "United States",
      "eventExpectedVolatility": "High",
      "eventName": "Crude Oil Inventories",
      "eventTimeZone": "GMT",
      "eventPrevious": "0.000M",
      "eventCurrency": "USD",
      "eventForecast": ""
    },
    {
      "eventDateTime": "2008-11-13T19:00:00",
      "eventActual": "-237.2B",
      "eventCountry": "United States",
      "eventExpectedVolatility": "Moderate",
      "eventName": "Federal Budget Balance",
      "eventTimeZone": "GMT",
      "eventPrevious": "45.7B",
      "eventCurrency": "USD",
      "eventForecast": "-99.0B"
    }
  ]}}
