{"events": {"event": {
    "eventDateTime": "2008-08-11T01:30:00",
    "eventActual": "",
    "eventCountry": "Australia",
    "eventExpectedVolatility": "Moderate",
    "eventName": "RBA Monetary Policy Statement",
    "eventTimeZone": "GMT",
    "eventPrevious": "",
    "eventCurrency": "AUD",
    "eventForecast": ""
  }}}
