"Employment Change";"Canada";"CAD";"2008-10-10T11:00:00";"GMT";"15.2K";"11.0K";"106.9K";"High"
"Unemployment Rate";"Canada";"CAD";"2008-10-10T11:00:00";"GMT";"6.1%";"6.2%";"6.1%";"Moderate"
"New Housing Price Index (MoM)";"Canada";"CAD";"2008-10-10T12:30:00";"GMT";"0.1%";"0.0%";"0.0%";"Moderate"
"Trade Balance";"Canada";"CAD";"2008-10-10T12:30:00";"GMT";"4.9B";"4.6B";"5.8B";"Moderate"
"CFTC CAD speculative net positions";"Canada";"CAD";"2008-10-10T19:30:00";"GMT";"-18.0K";"";"-17.2K";"Low"
