{"events": {"event": [
    {
      "eventDateTime": "2009-02-27T05:00:00",
      "eventActual": "-18.7%",
      "eventCountry": "Japan",
      "eventExpectedVolatility": "Low",
      "eventName": "Housing Starts (YoY)",
      "eventTimeZone": "GMT",
      "eventPrevious": "-5.8%",
      "eventCurrency": "JPY",
      "eventForecast": "-14.9%"
    },
    {
      "eventDateTime": "2009-02-27T20:30:00",
      "eventActual": "28.6K",
      "eventCountry": "Japan",
      "eventExpectedVolatility": "Moderate",
      "eventName": "CFTC JPY speculative net positions",
      "eventTimeZone": "GMT",
      "eventPrevious": "36.2K",
      "eventCurrency": "JPY",
      "eventForecast": ""
    }
  ]}}
