"GDP (QoQ) (Q4)";"New Zealand";"NZD";"2018-03-14T21:45:00";"GMT";"0.6%";"0.8%";"0.6%";"High"
"GDP (YoY) (Q4)";"New Zealand";"NZD";"2018-03-14T21:45:00";"GMT";"2.7%";"3.1%";"2.9%";"Low"
"GDP Annual Average (Q4)";"New Zealand";"NZD";"2018-03-14T21:45:00";"GMT";"3.0%";"2.9%";"2.9%";"Low"
"GDP Expenditure (QoQ) (Q4)";"New Zealand";"NZD";"2018-03-14T21:45:00";"GMT";"1.0%";"0.7%";"0.4%";"Low"
