{"events": {"event": [
    {
      "eventDateTime": "2017-10-27T10:30:00",
      "eventActual": "8.25%",
      "eventCountry": "Russia",
      "eventExpectedVolatility": "High",
      "eventName": "Interest Rate Decision (Oct)",
      "eventTimeZone": "GMT",
      "eventPrevious": "8.50%",
      "eventCurrency": "RUB",
      "eventForecast": "8.25%"
    },
    {
      "eventDateTime": "2017-10-27T19:30:00",
      "eventActual": "14.7K",
      "eventCountry": "Russia",
      "eventExpectedVolatility": "Moderate",
      "eventName": "CFTC RUB speculative positions",
      "eventTimeZone": "GMT",
      "eventPrevious": "14.3K",
      "eventCurrency": "RUB",
      "eventForecast": ""
    }
  ]}}
