"Bank Lending (Oct)";"Singapore";"SGD";"2009-11-01T09:00:00";"GMT";"275.90B";"";"275.40B";"Low"
"CPI (YoY) (Oct)";"Singapore";"SGD";"2009-11-01T09:00:00";"GMT";"-0.41%";"";"-0.91%";"Moderate"
"Foreign Reserves USD (MoM) (Oct)";"Singapore";"SGD";"2009-11-01T09:00:00";"GMT";"182.00B";"";"184.30B";"Low"
"Industrial Production (MoM) (Oct)";"Singapore";"SGD";"2009-11-01T09:00:00";"GMT";"-9.50%";"";"-1.20%";"Low"
"Industrial Production (YoY) (Oct)";"Singapore";"SGD";"2009-11-01T09:00:00";"GMT";"-6.40%";"";"2.60%";"Low"
"Manufacturing PMI (Oct)";"Singapore";"SGD";"2009-11-01T09:00:00";"GMT";"50.60";"";"50.20";"Low"
"Non-Oil Exports (MoM) (Oct)";"Singapore";"SGD";"2009-11-01T09:00:00";"GMT";"2.90%";"";"-12.70%";"Low"
"Non-Oil Exports (YoY) (Oct)";"Singapore";"SGD";"2009-11-01T09:00:00";"GMT";"-7.30%";"";"-6.20%";"Low"
"Retail Sales (MoM) (Oct)";"Singapore";"SGD";"2009-11-01T09:00:00";"GMT";"-3.10%";"";"0.70%";"Low"
"Retail Sales (YoY) (Oct)";"Singapore";"SGD";"2009-11-01T09:00:00";"GMT";"-11.90%";"";"-4.60%";"Low"
