"MBA 30-Year Mortgage Rate";"United States";"USD";"2015-08-19T11:00:00";"GMT";"4.13%";"";"4.11%";"Low"
"MBA Mortgage Applications (WoW)";"United States";"USD";"2015-08-19T11:00:00";"GMT";"0.1%";"";"3.6%";"Low"
"MBA Purchase Index";"United States";"USD";"2015-08-19T11:00:00";"GMT";"197.4";"";"195.3";"Low"
"Mortgage Market Index";"United States";"USD";"2015-08-19T11:00:00";"GMT";"397.5";"";"411.7";"Low"
"Mortgage Refinance Index";"United States";"USD";"2015-08-19T11:00:00";"GMT";"1,534.8";"";"1,646.0";"Low"
"CPI (MoM) (Jul)";"United States";"USD";"2015-08-19T12:30:00";"GMT";"0.3%";"0.2%";"0.1%";"Moderate"
"CPI (YoY) (Jul)";"United States";"USD";"2015-08-19T12:30:00";"GMT";"0.1%";"0.2%";"0.2%";"Low"
"CPI Index, n.s.a. (Jul)";"United States";"USD";"2015-08-19T12:30:00";"GMT";"238.64";"238.70";"238.65";"Low"
"Core CPI (MoM) (Jul)";"United States";"USD";"2015-08-19T12:30:00";"GMT";"0.2%";"0.2%";"0.1%";"High"
"Core CPI (YoY) (Jul)";"United States";"USD";"2015-08-19T12:30:00";"GMT";"1.8%";"1.8%";"1.8%";"Moderate"
"Core CPI Index (Jul)";"United States";"USD";"2015-08-19T12:30:00";"GMT";"242.19";"242.55";"242.51";"Low"
"Real Earnings (MoM) (Jul)";"United States";"USD";"2015-08-19T12:30:00";"GMT";"-0.4%";"";"0.4%";"Low"
"Crude Oil Inventories";"United States";"USD";"2015-08-19T14:30:00";"GMT";"-1.682M";"-0.777M";"2.620M";"High"
"EIA Weekly Distillates Stocks";"United States";"USD";"2015-08-19T14:30:00";"GMT";"2.994M";"1.326M";"0.594M";"Low"
"Gasoline Inventories";"United States";"USD";"2015-08-19T14:30:00";"GMT";"-1.251M";"-1.614M";"-2.708M";"Low"
"Cleveland CPI (MoM) (Jul)";"United States";"USD";"2015-08-19T15:30:00";"GMT";"0.3%";"";"0.2%";"Low"
"FOMC Meeting Minutes";"United States";"USD";"2015-08-19T18:00:00";"GMT";" ";"";"";"High"
