{"events": {"event": {
    "eventDateTime": "2017-07-17T05:30:00",
    "eventActual": "38.8%",
    "eventCountry": "United Kingdom",
    "eventExpectedVolatility": "Moderate",
    "eventName": "Investing.com GBP/USD Index",
    "eventTimeZone": "GMT",
    "eventPrevious": "43.2%",
    "eventCurrency": "GBP",
    "eventForecast": ""
  }}}
