{"events": {"event": [
    {
      "eventDateTime": "2012-09-05T23:00:00",
      "eventActual": "0.3%",
      "eventCountry": "South Korea",
      "eventExpectedVolatility": "Low",
      "eventName": "GDP (QoQ)",
      "eventTimeZone": "GMT",
      "eventPrevious": "0.4%",
      "eventCurrency": "KRW",
      "eventForecast": "0.4%"
    },
    {
      "eventDateTime": "2012-09-05T23:00:00",
      "eventActual": "2.3%",
      "eventCountry": "South Korea",
      "eventExpectedVolatility": "Low",
      "eventName": "GDP (YoY)",
      "eventTimeZone": "GMT",
      "eventPrevious": "2.4%",
      "eventCurrency": "KRW",
      "eventForecast": "2.4%"
    }
  ]}}
