{"events": {"event": [
    {
      "eventDateTime": "2014-12-22T06:00:00",
      "eventActual": "45.2%",
      "eventCountry": "Euro Zone",
      "eventExpectedVolatility": "Moderate",
      "eventName": "Investing.com EUR/USD Index",
      "eventTimeZone": "GMT",
      "eventPrevious": "39.8%",
      "eventCurrency": "EUR",
      "eventForecast": ""
    },
    {
      "eventDateTime": "2014-12-22T07:00:00",
      "eventActual": "-0.8%",
      "eventCountry": "Germany",
      "eventExpectedVolatility": "Low",
      "eventName": "German Import Price Index (MoM) (Nov)",
      "eventTimeZone": "GMT",
      "eventPrevious": "-0.3%",
      "eventCurrency": "EUR",
      "eventForecast": "-0.5%"
    },
    {
      "eventDateTime": "2014-12-22T07:00:00",
      "eventActual": "-2.1%",
      "eventCountry": "Germany",
      "eventExpectedVolatility": "Low",
      "eventName": "German Import Price Index (YoY) (Nov)",
      "eventTimeZone": "GMT",
      "eventPrevious": "-1.2%",
      "eventCurrency": "EUR",
      "eventForecast": "-1.8%"
    },
    {
      "eventDateTime": "2014-12-22T09:00:00",
      "eventActual": "2.72B",
      "eventCountry": "Italy",
      "eventExpectedVolatility": "Low",
      "eventName": "Italian Trade Balance Non-EU (Nov)",
      "eventTimeZone": "GMT",
      "eventPrevious": "4.02B",
      "eventCurrency": "EUR",
      "eventForecast": ""
    },
    {
      "eventDateTime": "2014-12-22T14:00:00",
      "eventActual": "-0.028%",
      "eventCountry": "France",
      "eventExpectedVolatility": "Low",
      "eventName": "French 12-Month BTF Auction",
      "eventTimeZone": "GMT",
      "eventPrevious": "-0.005%",
      "eventCurrency": "EUR",
      "eventForecast": ""
    },
    {
      "eventDateTime": "2014-12-22T14:00:00",
      "eventActual": "-0.007%",
      "eventCountry": "France",
      "eventExpectedVolatility": "Low",
      "eventName": "French 3-Month BTF Auction",
      "eventTimeZone": "GMT",
      "eventPrevious": "-0.007%",
      "eventCurrency": "EUR",
      "eventForecast": ""
    },
    {
      "eventDateTime": "2014-12-22T14:00:00",
      "eventActual": "-0.035%",
      "eventCountry": "France",
      "eventExpectedVolatility": "Low",
      "eventName": "French 6-Month BTF Auction",
      "eventTimeZone": "GMT",
      "eventPrevious": "-0.007%",
      "eventCurrency": "EUR",
      "eventForecast": ""
    },
    {
      "eventDateTime": "2014-12-22T15:00:00",
      "eventActual": "-10.9",
      "eventCountry": "Euro Zone",
      "eventExpectedVolatility": "Low",
      "eventName": "Consumer Confidence (Dec)",
      "eventTimeZone": "GMT",
      "eventPrevious": "-11.5",
      "eventCurrency": "EUR",
      "eventForecast": "-11.0"
    }
  ]}}
