{"events": {"event": [
    {
      "eventDateTime": "2011-12-02T10:00:00",
      "eventActual": "0.1%",
      "eventCountry": "Euro Zone",
      "eventExpectedVolatility": "Low",
      "eventName": "PPI (MoM)",
      "eventTimeZone": "GMT",
      "eventPrevious": "0.3%",
      "eventCurrency": "EUR",
      "eventForecast": "0.2%"
    },
    {
      "eventDateTime": "2011-12-02T20:30:00",
      "eventActual": "-104.3K",
      "eventCountry": "Euro Zone",
      "eventExpectedVolatility": "Moderate",
      "eventName": "CFTC EUR speculative net positions",
      "eventTimeZone": "GMT",
      "eventPrevious": "-85.1K",
      "eventCurrency": "EUR",
      "eventForecast": ""
    }
  ]}}
