"Investing.com EUR/USD Index";"Euro Zone";"EUR";"2017-10-23T05:30:00";"GMT";"58.9%";"";"54.7%";"Moderate"
"ECB's Praet Speaks";"Euro Zone";"EUR";"2017-10-23T07:00:00";"GMT";" ";"";"";"Moderate"
"French 12-Month BTF Auction";"France";"EUR";"2017-10-23T13:00:00";"GMT";"-0.597%";"";"-0.591%";"Low"
"French 3-Month BTF Auction";"France";"EUR";"2017-10-23T13:00:00";"GMT";"-0.701%";"";"-0.688%";"Low"
"French 6-Month BTF Auction";"France";"EUR";"2017-10-23T13:00:00";"GMT";"-0.637%";"";"-0.644%";"Low"
"Consumer Confidence (Oct)";"Euro Zone";"EUR";"2017-10-23T14:00:00";"GMT";"-1.2";"-1.1";"-1.0";"Low"
