{"events": {"event": [
    {
      "eventDateTime": "2013-06-07T05:00:00",
      "eventActual": "99.3",
      "eventCountry": "Japan",
      "eventExpectedVolatility": "Low",
      "eventName": "Leading Index",
      "eventTimeZone": "GMT",
      "eventPrevious": "97.9",
      "eventCurrency": "JPY",
      "eventForecast": "98.8"
    },
    {
      "eventDateTime": "2013-06-07T19:30:00",
      "eventActual": "-82.7K",
      "eventCountry": "Japan",
      "eventExpectedVolatility": "Moderate",
      "eventName": "CFTC JPY speculative net positions",
      "eventTimeZone": "GMT",
      "eventPrevious": "-99.8K",
      "eventCurrency": "JPY",
      "eventForecast": ""
    }
  ]}}
