{"events": {"event": {
    "eventDateTime": "2009-10-09T19:30:00",
    "eventActual": "50.2K",
    "eventCountry": "Australia",
    "eventExpectedVolatility": "Moderate",
    "eventName": "CFTC AUD speculative net positions",
    "eventTimeZone": "GMT",
    "eventPrevious": "47.7K",
    "eventCurrency": "AUD",
    "eventForecast": ""
  }}}
