"Manufacturing PMI";"United Kingdom";"GBP";"2009-06-01T08:30:00";"GMT";"43.1";"44.1";"45.4";"High"
"Average Earnings ex Bonus (May)";"United Kingdom";"GBP";"2009-06-01T09:00:00";"GMT";"2.20%";"";"2.10%";"Low"
"BoE Consumer Credit (May)";"United Kingdom";"GBP";"2009-06-01T09:00:00";"GMT";"0.04B";"";"-0.20B";"Low"
"BoE QE Total (May)";"United Kingdom";"GBP";"2009-06-01T09:00:00";"GMT";"75.00B";"";"125.00B";"Moderate"
"CPI (MoM) (May)";"United Kingdom";"GBP";"2009-06-01T09:00:00";"GMT";"0.20%";"";"0.60%";"Moderate"
"Core PPI Output (MoM) (May)";"United Kingdom";"GBP";"2009-06-01T09:00:00";"GMT";"0.00%";"";"0.00%";"Low"
"Core PPI Output (YoY) (May)";"United Kingdom";"GBP";"2009-06-01T09:00:00";"GMT";"2.70%";"";"2.20%";"Low"
"Core RPI (MoM) (May)";"United Kingdom";"GBP";"2009-06-01T09:00:00";"GMT";"0.40%";"";"0.60%";"Low"
"Core RPI (YoY) (May)";"United Kingdom";"GBP";"2009-06-01T09:00:00";"GMT";"1.70%";"";"1.60%";"Low"
"Core Retail Sales (MoM) (May)";"United Kingdom";"GBP";"2009-06-01T09:00:00";"GMT";"1.20%";"";"-0.60%";"Moderate"
"Core Retail Sales (YoY) (May)";"United Kingdom";"GBP";"2009-06-01T09:00:00";"GMT";"0.40%";"";"-3.50%";"Moderate"
"Halifax House Price Index (YoY) (May)";"United Kingdom";"GBP";"2009-06-01T09:00:00";"GMT";"-17.70%";"";"-16.30%";"Moderate"
"Industrial Production (YoY) (May)";"United Kingdom";"GBP";"2009-06-01T09:00:00";"GMT";"-10.00%";"";"-10.60%";"Low"
"Manufacturing Production (YoY) (May)";"United Kingdom";"GBP";"2009-06-01T09:00:00";"GMT";"-10.50%";"";"-11.70%";"Low"
"Mortgage Lending (May)";"United Kingdom";"GBP";"2009-06-01T09:00:00";"GMT";"0.85B";"";"0.11B";"Low"
"Nationwide HPI (YoY) (May)";"United Kingdom";"GBP";"2009-06-01T09:00:00";"GMT";"-15.00%";"";"-11.30%";"Moderate"
"PPI Input (YoY) (May)";"United Kingdom";"GBP";"2009-06-01T09:00:00";"GMT";"-7.30%";"";"-10.80%";"Low"
"PPI Output (YoY) (May)";"United Kingdom";"GBP";"2009-06-01T09:00:00";"GMT";"1.10%";"";"-0.20%";"Low"
"Public Sector Net Cash Requirement (May)";"United Kingdom";"GBP";"2009-06-01T09:00:00";"GMT";"-4.57B";"";"6.10B";"Low"
"RPI (MoM) (May)";"United Kingdom";"GBP";"2009-06-01T09:00:00";"GMT";"0.10%";"";"0.60%";"Low"
"Retail Sales (YoY) (May)";"United Kingdom";"GBP";"2009-06-01T09:00:00";"GMT";"2.60%";"";"-1.60%";"Moderate"
"Trade Balance Non-EU (May)";"United Kingdom";"GBP";"2009-06-01T09:00:00";"GMT";"-3.77B";"";"-3.35B";"Moderate"
