"Non-Oil Exports (MoM) (Oct)";"Singapore";"SGD";"2019-11-18T00:30:00";"GMT";"-3.30%";"1.40%";"-2.90%";"Low"
"Non-Oil Exports (YoY) (Oct)";"Singapore";"SGD";"2019-11-18T00:30:00";"GMT";"-8.10%";"-10.40%";"-12.30%";"Low"
"Trade Balance";"Singapore";"SGD";"2019-11-18T00:30:00";"GMT";"3.830B";"";"3.780B";"Low"
