{"events": {"event": {
    "eventDateTime": "2013-10-21T02:00:00",
    "eventActual": "5.2%",
    "eventCountry": "New Zealand",
    "eventExpectedVolatility": "Low",
    "eventName": "Credit Card Spending (YoY)",
    "eventTimeZone": "GMT",
    "eventPrevious": "6.6%",
    "eventCurrency": "NZD",
    "eventForecast": ""
  }}}
