{"events": {"event": {
    "eventDateTime": "2009-07-28T06:00:00",
    "eventActual": "0.96",
    "eventCountry": "Switzerland",
    "eventExpectedVolatility": "Low",
    "eventName": "Consumption Indicator",
    "eventTimeZone": "GMT",
    "eventPrevious": "0.75",
    "eventCurrency": "CHF",
    "eventForecast": ""
  }}}
