{"events": {"event": [
    {
      "eventDateTime": "2017-06-22T06:45:00",
      "eventActual": "108",
      "eventCountry": "France",
      "eventExpectedVolatility": "Low",
      "eventName": "French Business Survey (Jun)",
      "eventTimeZone": "GMT",
      "eventPrevious": "109",
      "eventCurrency": "EUR",
      "eventForecast": "109"
    },
    {
      "eventDateTime": "2017-06-22T08:00:00",
      "eventActual": "",
      "eventCountry": "Euro Zone",
      "eventExpectedVolatility": "Moderate",
      "eventName": "ECB Economic Bulletin",
      "eventTimeZone": "GMT",
      "eventPrevious": "",
      "eventCurrency": "EUR",
      "eventForecast": ""
    },
    {
      "eventDateTime": "2017-06-22T14:00:00",
      "eventActual": "-1.3",
      "eventCountry": "Euro Zone",
      "eventExpectedVolatility": "Low",
      "eventName": "Consumer Confidence (Jun)",
      "eventTimeZone": "GMT",
      "eventPrevious": "-3.3",
      "eventCurrency": "EUR",
      "eventForecast": "-3.0"
    }
  ]}}
