{"events": {"event": [
    {
      "eventDateTime": "2014-12-01T08:15:00",
      "eventActual": "54.7",
      "eventCountry": "Spain",
      "eventExpectedVolatility": "Moderate",
      "eventName": "Spanish Manufacturing PMI (Nov)",
      "eventTimeZone": "GMT",
      "eventPrevious": "52.6",
      "eventCurrency": "EUR",
      "eventForecast": "53.1"
    },
    {
      "eventDateTime": "2014-12-01T08:45:00",
      "eventActual": "49.0",
      "eventCountry": "Italy",
      "eventExpectedVolatility": "Moderate",
      "eventName": "Italian Manufacturing PMI (Nov)",
      "eventTimeZone": "GMT",
      "eventPrevious": "49.0",
      "eventCurrency": "EUR",
      "eventForecast": "49.5"
    },
    {
      "eventDateTime": "2014-12-01T08:50:00",
      "eventActual": "48.4",
      "eventCountry": "France",
      "eventExpectedVolatility": "Moderate",
      "eventName": "French Manufacturing PMI (Nov)",
      "eventTimeZone": "GMT",
      "eventPrevious": "47.6",
      "eventCurrency": "EUR",
      "eventForecast": "47.6"
    },
    {
      "eventDateTime": "2014-12-01T08:55:00",
      "eventActual": "49.5",
      "eventCountry": "Germany",
      "eventExpectedVolatility": "High",
      "eventName": "German Manufacturing PMI (Nov)",
      "eventTimeZone": "GMT",
      "eventPrevious": "50.0",
      "eventCurrency": "EUR",
      "eventForecast": "50.0"
    },
    {
      "eventDateTime": "2014-12-01T09:00:00",
      "eventActual": "-0.1%",
      "eventCountry": "Italy",
      "eventExpectedVolatility": "Low",
      "eventName": "Italian GDP (QoQ) (Q3)",
      "eventTimeZone": "GMT",
      "eventPrevious": "-0.1%",
      "eventCurrency": "EUR",
      "eventForecast": "-0.1%"
    },
    {
      "eventDateTime": "2014-12-01T09:00:00",
      "eventActual": "-0.5%",
      "eventCountry": "Italy",
      "eventExpectedVolatility": "Low",
      "eventName": "Italian GDP (YoY) (Q3)",
      "eventTimeZone": "GMT",
      "eventPrevious": "-0.5%",
      "eventCurrency": "EUR",
      "eventForecast": "-0.4%"
    },
    {
      "eventDateTime": "2014-12-01T09:00:00",
      "eventActual": "50.1",
      "eventCountry": "Euro Zone",
      "eventExpectedVolatility": "Moderate",
      "eventName": "Manufacturing PMI (Nov)",
      "eventTimeZone": "GMT",
      "eventPrevious": "50.4",
      "eventCurrency": "EUR",
      "eventForecast": "50.4"
    },
    {
      "eventDateTime": "2014-12-01T14:00:00",
      "eventActual": "-0.007%",
      "eventCountry": "France",
      "eventExpectedVolatility": "Low",
      "eventName": "French 12-Month BTF Auction",
      "eventTimeZone": "GMT",
      "eventPrevious": "-0.009%",
      "eventCurrency": "EUR",
      "eventForecast": ""
    },
    {
      "eventDateTime": "2014-12-01T14:00:00",
      "eventActual": "-0.017%",
      "eventCountry": "France",
      "eventExpectedVolatility": "Low",
      "eventName": "French 3-Month BTF Auction",
      "eventTimeZone": "GMT",
      "eventPrevious": "-0.017%",
      "eventCurrency": "EUR",
      "eventForecast": ""
    },
    {
      "eventDateTime": "2014-12-01T14:00:00",
      "eventActual": "-0.015%",
      "eventCountry": "France",
      "eventExpectedVolatility": "Low",
      "eventName": "French 6-Month BTF Auction",
      "eventTimeZone": "GMT",
      "eventPrevious": "-0.011%",
      "eventCurrency": "EUR",
      "eventForecast": ""
    }
  ]}}
