{"events": {"event": {
    "eventDateTime": "2017-03-07T08:30:00",
    "eventActual": "390.50B",
    "eventCountry": "Hong Kong",
    "eventExpectedVolatility": "Low",
    "eventName": "Foreign Reserves (USD) (Feb)",
    "eventTimeZone": "GMT",
    "eventPrevious": "391.50B",
    "eventCurrency": "HKD",
    "eventForecast": ""
  }}}
