"WPI Food (YoY) (Feb)";"India";"INR";"2019-03-14T06:30:00";"GMT";"2.34%";"";"4.28%";"Low"
"WPI Fuel (YoY) (Feb)";"India";"INR";"2019-03-14T06:30:00";"GMT";"1.85%";"";"2.23%";"Low"
"WPI Inflation (YoY) (Feb)";"India";"INR";"2019-03-14T06:30:00";"GMT";"2.76%";"2.88%";"2.93%";"Moderate"
"WPI Manufacturing Inflation (YoY) (Feb)";"India";"INR";"2019-03-14T06:30:00";"GMT";"2.61%";"";"2.25%";"Low"
