{"events": {"event": {
    "eventDateTime": "2010-09-17T19:30:00",
    "eventActual": "47.6K",
    "eventCountry": "Japan",
    "eventExpectedVolatility": "Moderate",
    "eventName": "CFTC JPY speculative net positions",
    "eventTimeZone": "GMT",
    "eventPrevious": "52.2K",
    "eventCurrency": "JPY",
    "eventForecast": ""
  }}}
