"Non-Oil Exports (MoM) (Dec)";"Singapore";"SGD";"2017-01-17T00:30:00";"GMT";"13.00%";"-5.50%";"1.00%";"Low"
"Non-Oil Exports (YoY) (Dec)";"Singapore";"SGD";"2017-01-17T00:30:00";"GMT";"11.50%";"5.80%";"9.40%";"Low"
"Trade Balance";"Singapore";"SGD";"2017-01-17T00:30:00";"GMT";"4.930B";"";"5.420B";"Low"
