"Spanish Manufacturing PMI";"Spain";"EUR";"2012-06-01T07:13:00";"GMT";"43.5";"43.3";"42.0";"Moderate"
"French Manufacturing PMI";"France";"EUR";"2012-06-01T07:50:00";"GMT";"44.4";"44.4";"44.7";"Moderate"
"German Manufacturing PMI";"Germany";"EUR";"2012-06-01T07:55:00";"GMT";"45.0";"45.0";"45.2";"High"
"Italian Monthly Unemployment Rate";"Italy";"EUR";"2012-06-01T08:00:00";"GMT";"10.1%";"9.9%";"10.2%";"Low"
"Manufacturing PMI";"Euro Zone";"EUR";"2012-06-01T08:00:00";"GMT";"45.0";"45.0";"45.1";"Moderate"
"Business Climate (May)";"Euro Zone";"EUR";"2012-06-01T09:00:00";"GMT";"-0.37";"";"-0.66";"Low"
"CPI (MoM) (May)";"Euro Zone";"EUR";"2012-06-01T09:00:00";"GMT";"0.50%";"";"-0.10%";"Moderate"
"CPI ex Tobacco (MoM) (May)";"Euro Zone";"EUR";"2012-06-01T09:00:00";"GMT";"0.46%";"";"-0.16%";"Low"
"CPI ex Tobacco (YoY) (May)";"Euro Zone";"EUR";"2012-06-01T09:00:00";"GMT";"2.49%";"";"2.34%";"Low"
"Consumer Inflation Expectation (May)";"Euro Zone";"EUR";"2012-06-01T09:00:00";"GMT";"27.20";"";"22.80";"Low"
"Core CPI (MoM) (May)";"Euro Zone";"EUR";"2012-06-01T09:00:00";"GMT";"0.50%";"";"0.00%";"Low"
"Current Account n.s.a. (May)";"Euro Zone";"EUR";"2012-06-01T09:00:00";"GMT";"1.50B";"";"-4.80B";"Low"
"French Exports (May)";"France";"EUR";"2012-06-01T09:00:00";"GMT";"36.60B";"";"37.89B";"Low"
"French HICP (MoM) (May)";"France";"EUR";"2012-06-01T09:00:00";"GMT";"0.20%";"";"-0.10%";"Moderate"
"French HICP (YoY) (May)";"France";"EUR";"2012-06-01T09:00:00";"GMT";"2.42%";"";"2.29%";"Low"
"French Imports (May)";"France";"EUR";"2012-06-01T09:00:00";"GMT";"43.00B";"";"43.15B";"Low"
"German Exports (MoM) (May)";"Germany";"EUR";"2012-06-01T09:00:00";"GMT";"-1.55%";"";"4.62%";"Low"
"German HICP (MoM) (May)";"Germany";"EUR";"2012-06-01T09:00:00";"GMT";"0.20%";"";"-0.30%";"Low"
"German HICP (YoY) (May)";"Germany";"EUR";"2012-06-01T09:00:00";"GMT";"2.20%";"";"2.10%";"Low"
"German Import Price Index (YoY) (May)";"Germany";"EUR";"2012-06-01T09:00:00";"GMT";"2.40%";"";"2.40%";"Low"
"German Imports (MoM) (May)";"Germany";"EUR";"2012-06-01T09:00:00";"GMT";"-3.90%";"";"4.80%";"Low"
"German Unemployment (May)";"Germany";"EUR";"2012-06-01T09:00:00";"GMT";"2.89M";"";"2.88M";"Low"
"German Unemployment n.s.a. (May)";"Germany";"EUR";"2012-06-01T09:00:00";"GMT";"3.00M";"";"2.90M";"Low"
"German WPI (YoY) (May)";"Germany";"EUR";"2012-06-01T09:00:00";"GMT";"2.00%";"";"1.60%";"Low"
"German ZEW Current Conditions (May)";"Germany";"EUR";"2012-06-01T09:00:00";"GMT";"40.70";"";"44.10";"Moderate"
"Industrial Production (YoY) (May)";"Euro Zone";"EUR";"2012-06-01T09:00:00";"GMT";"-2.70%";"";"-2.40%";"Low"
"Industrial Sentiment (May)";"Euro Zone";"EUR";"2012-06-01T09:00:00";"GMT";"-8.40";"";"-10.80";"Low"
"Italian HICP (MoM) (May)";"Italy";"EUR";"2012-06-01T09:00:00";"GMT";"0.90%";"";"0.00%";"Low"
"Italian HICP (YoY) (May)";"Italy";"EUR";"2012-06-01T09:00:00";"GMT";"3.80%";"";"3.50%";"Low"
"Italian Industrial New Orders (YoY) (May)";"Italy";"EUR";"2012-06-01T09:00:00";"GMT";"-11.34%";"";"-8.25%";"Low"
"Italian Industrial Production (YoY) (May)";"Italy";"EUR";"2012-06-01T09:00:00";"GMT";"-9.20%";"";"-5.60%";"Low"
"Italian Industrial Sales (YoY) (May)";"Italy";"EUR";"2012-06-01T09:00:00";"GMT";"-6.67%";"";"-1.70%";"Low"
"Italian Quarterly Unemployment Rate";"Italy";"EUR";"2012-06-01T09:00:00";"GMT";"9.1%";"";"9.8%";"Low"
"Italian Retail Sales (YoY) (May)";"Italy";"EUR";"2012-06-01T09:00:00";"GMT";"-6.30%";"";"-1.12%";"Low"
"Italian Trade Balance EU (May)";"Italy";"EUR";"2012-06-01T09:00:00";"GMT";"0.54B";"";"0.58B";"Low"
"Italian Trade Balance Non-EU (May)";"Italy";"EUR";"2012-06-01T09:00:00";"GMT";"-0.96B";"";"0.26B";"Low"
"Italian Wage Inflation (MoM) (May)";"Italy";"EUR";"2012-06-01T09:00:00";"GMT";"0.29%";"";"0.00%";"Low"
"Italian Wage Inflation (YoY) (May)";"Italy";"EUR";"2012-06-01T09:00:00";"GMT";"1.50%";"";"1.40%";"Low"
"Money-M3 3-Month-Moving Average (May)";"Euro Zone";"EUR";"2012-06-01T09:00:00";"GMT";"2.70%";"";"2.80%";"Low"
"Net Investment Flow (May)";"Euro Zone";"EUR";"2012-06-01T09:00:00";"GMT";"6.00B";"";"-80.80B";"Low"
"PPI (YoY) (May)";"Euro Zone";"EUR";"2012-06-01T09:00:00";"GMT";"2.90%";"";"2.70%";"Low"
"Retail Sales (YoY) (May)";"Euro Zone";"EUR";"2012-06-01T09:00:00";"GMT";"-3.50%";"";"-0.60%";"Low"
"Selling Price Expectations (May)";"Euro Zone";"EUR";"2012-06-01T09:00:00";"GMT";"6.20";"";"3.10";"Low"
"Services Sentiment (May)";"Euro Zone";"EUR";"2012-06-01T09:00:00";"GMT";"-2.10";"";"-4.20";"Low"
"Spanish CPI (YoY) (May)";"Spain";"EUR";"2012-06-01T09:00:00";"GMT";"2.10%";"";"1.90%";"Moderate"
"Spanish Current account (May)";"Spain";"EUR";"2012-06-01T09:00:00";"GMT";"-0.98B";"";"-0.14B";"Low"
"Spanish HICP (MoM) (May)";"Spain";"EUR";"2012-06-01T09:00:00";"GMT";"1.10%";"";"-0.20%";"Low"
"Spanish HICP (YoY) (May)";"Spain";"EUR";"2012-06-01T09:00:00";"GMT";"2.00%";"";"1.90%";"Moderate"
"Unemployment Rate";"Euro Zone";"EUR";"2012-06-01T09:00:00";"GMT";"11.0%";"11.0%";"11.0%";"Moderate"
"CFTC EUR speculative net positions";"Euro Zone";"EUR";"2012-06-01T19:30:00";"GMT";"-195.4K";"";"-203.4K";"Moderate"
