{"events": {"event": [
    {
      "eventDateTime": "2007-05-01T09:00:00",
      "eventActual": "0.90%",
      "eventCountry": "Japan",
      "eventExpectedVolatility": "Low",
      "eventName": "Bank Lending (YoY) (Apr)",
      "eventTimeZone": "GMT",
      "eventPrevious": "1.00%",
      "eventCurrency": "JPY",
      "eventForecast": ""
    },
    {
      "eventDateTime": "2007-05-01T09:00:00",
      "eventActual": "-1.00%",
      "eventCountry": "Japan",
      "eventExpectedVolatility": "Low",
      "eventName": "Capacity Utilization (MoM) (Apr)",
      "eventTimeZone": "GMT",
      "eventPrevious": "0.30%",
      "eventCurrency": "JPY",
      "eventForecast": ""
    },
    {
      "eventDateTime": "2007-05-01T09:00:00",
      "eventActual": "0.70%",
      "eventCountry": "Japan",
      "eventExpectedVolatility": "Low",
      "eventName": "Coincident Indicator (MoM) (Apr)",
      "eventTimeZone": "GMT",
      "eventPrevious": "-0.20%",
      "eventCurrency": "JPY",
      "eventForecast": ""
    },
    {
      "eventDateTime": "2007-05-01T09:00:00",
      "eventActual": "1.80%",
      "eventCountry": "Japan",
      "eventExpectedVolatility": "Low",
      "eventName": "Construction Orders (YoY) (Apr)",
      "eventTimeZone": "GMT",
      "eventPrevious": "-1.60%",
      "eventCurrency": "JPY",
      "eventForecast": ""
    },
    {
      "eventDateTime": "2007-05-01T09:00:00",
      "eventActual": "-3.50%",
      "eventCountry": "Japan",
      "eventExpectedVolatility": "Low",
      "eventName": "Core Machinery Orders (MoM) (Apr)",
      "eventTimeZone": "GMT",
      "eventPrevious": "-0.50%",
      "eventCurrency": "JPY",
      "eventForecast": ""
    },
    {
      "eventDateTime": "2007-05-01T09:00:00",
      "eventActual": "-8.80%",
      "eventCountry": "Japan",
      "eventExpectedVolatility": "Low",
      "eventName": "Core Machinery Orders (YoY) (Apr)",
      "eventTimeZone": "GMT",
      "eventPrevious": "-4.50%",
      "eventCurrency": "JPY",
      "eventForecast": ""
    },
    {
      "eventDateTime": "2007-05-01T09:00:00",
      "eventActual": "1.96T",
      "eventCountry": "Japan",
      "eventExpectedVolatility": "Moderate",
      "eventName": "Current Account n.s.a. (Apr)",
      "eventTimeZone": "GMT",
      "eventPrevious": "3.36T",
      "eventCurrency": "JPY",
      "eventForecast": ""
    },
    {
      "eventDateTime": "2007-05-01T09:00:00",
      "eventActual": "49.70",
      "eventCountry": "Japan",
      "eventExpectedVolatility": "Low",
      "eventName": "Economy Watchers Current Index (Apr)",
      "eventTimeZone": "GMT",
      "eventPrevious": "50.80",
      "eventCurrency": "JPY",
      "eventForecast": ""
    },
    {
      "eventDateTime": "2007-05-01T09:00:00",
      "eventActual": "8.20%",
      "eventCountry": "Japan",
      "eventExpectedVolatility": "Moderate",
      "eventName": "Exports (YoY) (Apr)",
      "eventTimeZone": "GMT",
      "eventPrevious": "10.30%",
      "eventCurrency": "JPY",
      "eventForecast": ""
    },
    {
      "eventDateTime": "2007-05-01T09:00:00",
      "eventActual": "6,343.10B",
      "eventCountry": "Japan",
      "eventExpectedVolatility": "Low",
      "eventName": "Foreign Bonds Buying (Apr)",
      "eventTimeZone": "GMT",
      "eventPrevious": "-3,114.90B",
      "eventCurrency": "JPY",
      "eventForecast": ""
    },
    {
      "eventDateTime": "2007-05-01T09:00:00",
      "eventActual": "4,440.00B",
      "eventCountry": "Japan",
      "eventExpectedVolatility": "Low",
      "eventName": "Foreign Investments in Japanese Stocks (Apr)",
      "eventTimeZone": "GMT",
      "eventPrevious": "-305.50B",
      "eventCurrency": "JPY",
      "eventForecast": ""
    },
    {
      "eventDateTime": "2007-05-01T09:00:00",
      "eventActual": "915.62B",
      "eventCountry": "Japan",
      "eventExpectedVolatility": "Low",
      "eventName": "Foreign Reserves (USD) (Apr)",
      "eventTimeZone": "GMT",
      "eventPrevious": "908.96B",
      "eventCurrency": "JPY",
      "eventForecast": ""
    },
    {
      "eventDateTime": "2007-05-01T09:00:00",
      "eventActual": "47.00",
      "eventCountry": "Japan",
      "eventExpectedVolatility": "Low",
      "eventName": "Household Confidence (Apr)",
      "eventTimeZone": "GMT",
      "eventPrevious": "46.70",
      "eventCurrency": "JPY",
      "eventForecast": ""
    },
    {
      "eventDateTime": "2007-05-01T09:00:00",
      "eventActual": "0.20%",
      "eventCountry": "Japan",
      "eventExpectedVolatility": "Moderate",
      "eventName": "Household Spending (MoM) (Apr)",
      "eventTimeZone": "GMT",
      "eventPrevious": "-0.20%",
      "eventCurrency": "JPY",
      "eventForecast": ""
    },
    {
      "eventDateTime": "2007-05-01T09:00:00",
      "eventActual": "1.10%",
      "eventCountry": "Japan",
      "eventExpectedVolatility": "Moderate",
      "eventName": "Household Spending (YoY) (Apr)",
      "eventTimeZone": "GMT",
      "eventPrevious": "0.10%",
      "eventCurrency": "JPY",
      "eventForecast": ""
    },
    {
      "eventDateTime": "2007-05-01T09:00:00",
      "eventActual": "-3.60%",
      "eventCountry": "Japan",
      "eventExpectedVolatility": "Low",
      "eventName": "Housing Starts (YoY) (Apr)",
      "eventTimeZone": "GMT",
      "eventPrevious": "5.50%",
      "eventCurrency": "JPY",
      "eventForecast": ""
    },
    {
      "eventDateTime": "2007-05-01T09:00:00",
      "eventActual": "3.80%",
      "eventCountry": "Japan",
      "eventExpectedVolatility": "Low",
      "eventName": "Imports (YoY) (Apr)",
      "eventTimeZone": "GMT",
      "eventPrevious": "0.60%",
      "eventCurrency": "JPY",
      "eventForecast": ""
    },
    {
      "eventDateTime": "2007-05-01T09:00:00",
      "eventActual": "-0.10%",
      "eventCountry": "Japan",
      "eventExpectedVolatility": "Moderate",
      "eventName": "Industrial Production (MoM) (Apr)",
      "eventTimeZone": "GMT",
      "eventPrevious": "0.00%",
      "eventCurrency": "JPY",
      "eventForecast": ""
    },
    {
      "eventDateTime": "2007-05-01T09:00:00",
      "eventActual": "1.07",
      "eventCountry": "Japan",
      "eventExpectedVolatility": "Moderate",
      "eventName": "Jobs/applications ratio (Apr)",
      "eventTimeZone": "GMT",
      "eventPrevious": "1.05",
      "eventCurrency": "JPY",
      "eventForecast": ""
    },
    {
      "eventDateTime": "2007-05-01T09:00:00",
      "eventActual": "0.30%",
      "eventCountry": "Japan",
      "eventExpectedVolatility": "Low",
      "eventName": "Leading Index (MoM) (Apr)",
      "eventTimeZone": "GMT",
      "eventPrevious": "-0.60%",
      "eventCurrency": "JPY",
      "eventForecast": ""
    },
    {
      "eventDateTime": "2007-05-01T09:00:00",
      "eventActual": "0.00%",
      "eventCountry": "Japan",
      "eventExpectedVolatility": "Low",
      "eventName": "National CPI (YoY) (Apr)",
      "eventTimeZone": "GMT",
      "eventPrevious": "-0.10%",
      "eventCurrency": "JPY",
      "eventForecast": ""
    },
    {
      "eventDateTime": "2007-05-01T09:00:00",
      "eventActual": "-0.10%",
      "eventCountry": "Japan",
      "eventExpectedVolatility": "Moderate",
      "eventName": "National Core CPI (YoY) (Apr)",
      "eventTimeZone": "GMT",
      "eventPrevious": "-0.30%",
      "eventCurrency": "JPY",
      "eventForecast": ""
    },
    {
      "eventDateTime": "2007-05-01T09:00:00",
      "eventActual": "0.60%",
      "eventCountry": "Japan",
      "eventExpectedVolatility": "Low",
      "eventName": "Overtime Pay (YoY) (Apr)",
      "eventTimeZone": "GMT",
      "eventPrevious": "-0.70%",
      "eventCurrency": "JPY",
      "eventForecast": ""
    },
    {
      "eventDateTime": "2007-05-01T09:00:00",
      "eventActual": "0.90%",
      "eventCountry": "Japan",
      "eventExpectedVolatility": "Low",
      "eventName": "PPI (MoM) (Apr)",
      "eventTimeZone": "GMT",
      "eventPrevious": "0.00%",
      "eventCurrency": "JPY",
      "eventForecast": ""
    },
    {
      "eventDateTime": "2007-05-01T09:00:00",
      "eventActual": "1.80%",
      "eventCountry": "Japan",
      "eventExpectedVolatility": "Low",
      "eventName": "PPI (YoY) (Apr)",
      "eventTimeZone": "GMT",
      "eventPrevious": "1.20%",
      "eventCurrency": "JPY",
      "eventForecast": ""
    },
    {
      "eventDateTime": "2007-05-01T09:00:00",
      "eventActual": "0.10%",
      "eventCountry": "Japan",
      "eventExpectedVolatility": "Moderate",
      "eventName": "Retail Sales (YoY) (Apr)",
      "eventTimeZone": "GMT",
      "eventPrevious": "-0.60%",
      "eventCurrency": "JPY",
      "eventForecast": ""
    },
    {
      "eventDateTime": "2007-05-01T09:00:00",
      "eventActual": "28.00",
      "eventCountry": "Japan",
      "eventExpectedVolatility": "Low",
      "eventName": "Reuters Tankan Index (Apr)",
      "eventTimeZone": "GMT",
      "eventPrevious": "28.00",
      "eventCurrency": "JPY",
      "eventForecast": ""
    },
    {
      "eventDateTime": "2007-05-01T09:00:00",
      "eventActual": "0.10%",
      "eventCountry": "Japan",
      "eventExpectedVolatility": "Low",
      "eventName": "Tokyo CPI (YoY) (Apr)",
      "eventTimeZone": "GMT",
      "eventPrevious": "0.10%",
      "eventCurrency": "JPY",
      "eventForecast": ""
    },
    {
      "eventDateTime": "2007-05-01T09:00:00",
      "eventActual": "0.00%",
      "eventCountry": "Japan",
      "eventExpectedVolatility": "Moderate",
      "eventName": "Tokyo Core CPI (YoY) (Apr)",
      "eventTimeZone": "GMT",
      "eventPrevious": "-0.10%",
      "eventCurrency": "JPY",
      "eventForecast": ""
    },
    {
      "eventDateTime": "2007-05-01T09:00:00",
      "eventActual": "903.10B",
      "eventCountry": "Japan",
      "eventExpectedVolatility": "Moderate",
      "eventName": "Trade Balance (Apr)",
      "eventTimeZone": "GMT",
      "eventPrevious": "1,602.60B",
      "eventCurrency": "JPY",
      "eventForecast": ""
    },
    {
      "eventDateTime": "2007-05-01T09:00:00",
      "eventActual": "3.80%",
      "eventCountry": "Japan",
      "eventExpectedVolatility": "Low",
      "eventName": "Unemployment Rate (Apr)",
      "eventTimeZone": "GMT",
      "eventPrevious": "4.00%",
      "eventCurrency": "JPY",
      "eventForecast": ""
    }
  ]}}
