"Core Retail Sales (QoQ)";"New Zealand";"NZD";"2014-11-16T21:45:00";"GMT";"1.2%";"1.0%";"1.4%";"Moderate"
"Retail Sales (QoQ) (Q3)";"New Zealand";"NZD";"2014-11-16T21:45:00";"GMT";"1.2%";"0.9%";"1.5%";"Moderate"
"Retail Sales Quarterly Vs. Year Ago (Q3)";"New Zealand";"NZD";"2014-11-16T21:45:00";"GMT";"3.8%";"4.0%";"4.1%";"Low"
