{"events": {"event": [
    {
      "eventDateTime": "2016-04-01T11:30:00",
      "eventActual": "11.3%",
      "eventCountry": "India",
      "eventExpectedVolatility": "Low",
      "eventName": "Bank Loan Growth (2wk)",
      "eventTimeZone": "GMT",
      "eventPrevious": "11.5%",
      "eventCurrency": "INR",
      "eventForecast": ""
    },
    {
      "eventDateTime": "2016-04-01T11:30:00",
      "eventActual": "9.9%",
      "eventCountry": "India",
      "eventExpectedVolatility": "Low",
      "eventName": "Deposit Growth (2wk)",
      "eventTimeZone": "GMT",
      "eventPrevious": "10.6%",
      "eventCurrency": "INR",
      "eventForecast": ""
    },
    {
      "eventDateTime": "2016-04-01T11:30:00",
      "eventActual": "355.56B",
      "eventCountry": "India",
      "eventExpectedVolatility": "Low",
      "eventName": "FX Reserves, USD",
      "eventTimeZone": "GMT",
      "eventPrevious": "355.95B",
      "eventCurrency": "INR",
      "eventForecast": ""
    }
  ]}}
