{"events": {"event": [
    {
      "eventDateTime": "2009-07-01T09:00:00",
      "eventActual": "98.00",
      "eventCountry": "South Africa",
      "eventExpectedVolatility": "Low",
      "eventName": "Business Confidence (Jun)",
      "eventTimeZone": "GMT",
      "eventPrevious": "96.50",
      "eventCurrency": "ZAR",
      "eventForecast": ""
    },
    {
      "eventDateTime": "2009-07-01T09:00:00",
      "eventActual": "0.48%",
      "eventCountry": "South Africa",
      "eventExpectedVolatility": "Moderate",
      "eventName": "CPI (MoM) (Jun)",
      "eventTimeZone": "GMT",
      "eventPrevious": "0.36%",
      "eventCurrency": "ZAR",
      "eventForecast": ""
    },
    {
      "eventDateTime": "2009-07-01T09:00:00",
      "eventActual": "6.96%",
      "eventCountry": "South Africa",
      "eventExpectedVolatility": "Low",
      "eventName": "CPI (YoY) (Jun)",
      "eventTimeZone": "GMT",
      "eventPrevious": "7.96%",
      "eventCurrency": "ZAR",
      "eventForecast": ""
    },
    {
      "eventDateTime": "2009-07-01T09:00:00",
      "eventActual": "0.30%",
      "eventCountry": "South Africa",
      "eventExpectedVolatility": "Moderate",
      "eventName": "Core CPI (MoM) (Jun)",
      "eventTimeZone": "GMT",
      "eventPrevious": "0.30%",
      "eventCurrency": "ZAR",
      "eventForecast": ""
    },
    {
      "eventDateTime": "2009-07-01T09:00:00",
      "eventActual": "7.50%",
      "eventCountry": "South Africa",
      "eventExpectedVolatility": "Low",
      "eventName": "Core CPI (YoY) (Jun)",
      "eventTimeZone": "GMT",
      "eventPrevious": "8.30%",
      "eventCurrency": "ZAR",
      "eventForecast": ""
    },
    {
      "eventDateTime": "2009-07-01T09:00:00",
      "eventActual": "35.76B",
      "eventCountry": "South Africa",
      "eventExpectedVolatility": "Low",
      "eventName": "Foreign Reserves (USD) (Jun)",
      "eventTimeZone": "GMT",
      "eventPrevious": "35.84B",
      "eventCurrency": "ZAR",
      "eventForecast": ""
    },
    {
      "eventDateTime": "2009-07-01T09:00:00",
      "eventActual": "-12.01%",
      "eventCountry": "South Africa",
      "eventExpectedVolatility": "Low",
      "eventName": "Gold Production (YoY) (Jun)",
      "eventTimeZone": "GMT",
      "eventPrevious": "-9.75%",
      "eventCurrency": "ZAR",
      "eventForecast": ""
    },
    {
      "eventDateTime": "2009-07-01T09:00:00",
      "eventActual": "7.50%",
      "eventCountry": "South Africa",
      "eventExpectedVolatility": "Moderate",
      "eventName": "Interest Rate Decision (Jun)",
      "eventTimeZone": "GMT",
      "eventPrevious": "7.50%",
      "eventCurrency": "ZAR",
      "eventForecast": ""
    },
    {
      "eventDateTime": "2009-07-01T09:00:00",
      "eventActual": "6.02%",
      "eventCountry": "South Africa",
      "eventExpectedVolatility": "Low",
      "eventName": "M3 Money Supply (YoY) (Jun)",
      "eventTimeZone": "GMT",
      "eventPrevious": "7.86%",
      "eventCurrency": "ZAR",
      "eventForecast": ""
    },
    {
      "eventDateTime": "2009-07-01T09:00:00",
      "eventActual": "-6.10%",
      "eventCountry": "South Africa",
      "eventExpectedVolatility": "Low",
      "eventName": "Mining Production (Jun)",
      "eventTimeZone": "GMT",
      "eventPrevious": "-10.01%",
      "eventCurrency": "ZAR",
      "eventForecast": ""
    },
    {
      "eventDateTime": "2009-07-01T09:00:00",
      "eventActual": "34.57B",
      "eventCountry": "South Africa",
      "eventExpectedVolatility": "Low",
      "eventName": "Net FX Reserves (USD) (Jun)",
      "eventTimeZone": "GMT",
      "eventPrevious": "34.50B",
      "eventCurrency": "ZAR",
      "eventForecast": ""
    },
    {
      "eventDateTime": "2009-07-01T09:00:00",
      "eventActual": "11.00%",
      "eventCountry": "South Africa",
      "eventExpectedVolatility": "Low",
      "eventName": "Prime Rate (Jun)",
      "eventTimeZone": "GMT",
      "eventPrevious": "11.00%",
      "eventCurrency": "ZAR",
      "eventForecast": ""
    },
    {
      "eventDateTime": "2009-07-01T09:00:00",
      "eventActual": "4.26%",
      "eventCountry": "South Africa",
      "eventExpectedVolatility": "Low",
      "eventName": "Private Sector Credit (Jun)",
      "eventTimeZone": "GMT",
      "eventPrevious": "6.00%",
      "eventCurrency": "ZAR",
      "eventForecast": ""
    },
    {
      "eventDateTime": "2009-07-01T09:00:00",
      "eventActual": "-5.20%",
      "eventCountry": "South Africa",
      "eventExpectedVolatility": "Low",
      "eventName": "Retail Sales (YoY) (Jun)",
      "eventTimeZone": "GMT",
      "eventPrevious": "-3.40%",
      "eventCurrency": "ZAR",
      "eventForecast": ""
    },
    {
      "eventDateTime": "2009-07-01T09:00:00",
      "eventActual": "33.12K",
      "eventCountry": "South Africa",
      "eventExpectedVolatility": "Low",
      "eventName": "Total Vehicle Sales (Jun)",
      "eventTimeZone": "GMT",
      "eventPrevious": "29.28K",
      "eventCurrency": "ZAR",
      "eventForecast": ""
    },
    {
      "eventDateTime": "2009-07-01T09:00:00",
      "eventActual": "-22.40%",
      "eventCountry": "South Africa",
      "eventExpectedVolatility": "Low",
      "eventName": "Total Vehicle Sales (YoY) (Jun)",
      "eventTimeZone": "GMT",
      "eventPrevious": "-32.10%",
      "eventCurrency": "ZAR",
      "eventForecast": ""
    }
  ]}}
