{"events": {"event": {
    "eventDateTime": "2015-07-15T11:00:00",
    "eventActual": "2.4%",
    "eventCountry": "South Africa",
    "eventExpectedVolatility": "Low",
    "eventName": "Retail Sales (YoY) (May)",
    "eventTimeZone": "GMT",
    "eventPrevious": "3.4%",
    "eventCurrency": "ZAR",
    "eventForecast": "2.7%"
  }}}
