{"events": {"event": [
    {
      "eventDateTime": "2016-08-22T06:30:00",
      "eventActual": "23.9%",
      "eventCountry": "Euro Zone",
      "eventExpectedVolatility": "Moderate",
      "eventName": "Investing.com EUR/USD Index",
      "eventTimeZone": "GMT",
      "eventPrevious": "28.8%",
      "eventCurrency": "EUR",
      "eventForecast": ""
    },
    {
      "eventDateTime": "2016-08-22T09:35:00",
      "eventActual": "-0.611%",
      "eventCountry": "Germany",
      "eventExpectedVolatility": "Low",
      "eventName": "German 12-Month Bubill Auction",
      "eventTimeZone": "GMT",
      "eventPrevious": "-0.602%",
      "eventCurrency": "EUR",
      "eventForecast": ""
    },
    {
      "eventDateTime": "2016-08-22T13:00:00",
      "eventActual": "-0.587%",
      "eventCountry": "France",
      "eventExpectedVolatility": "Low",
      "eventName": "French 12-Month BTF Auction",
      "eventTimeZone": "GMT",
      "eventPrevious": "-0.583%",
      "eventCurrency": "EUR",
      "eventForecast": ""
    },
    {
      "eventDateTime": "2016-08-22T13:00:00",
      "eventActual": "-0.593%",
      "eventCountry": "France",
      "eventExpectedVolatility": "Low",
      "eventName": "French 3-Month BTF Auction",
      "eventTimeZone": "GMT",
      "eventPrevious": "-0.589%",
      "eventCurrency": "EUR",
      "eventForecast": ""
    },
    {
      "eventDateTime": "2016-08-22T13:00:00",
      "eventActual": "-0.595%",
      "eventCountry": "France",
      "eventExpectedVolatility": "Low",
      "eventName": "French 6-Month BTF Auction",
      "eventTimeZone": "GMT",
      "eventPrevious": "-0.601%",
      "eventCurrency": "EUR",
      "eventForecast": ""
    }
  ]}}
