{"events": {"event": [
    {
      "eventDateTime": "2015-02-26T08:30:00",
      "eventActual": "2.8%",
      "eventCountry": "Hong Kong",
      "eventExpectedVolatility": "Low",
      "eventName": "Exports (MoM) (Jan)",
      "eventTimeZone": "GMT",
      "eventPrevious": "0.6%",
      "eventCurrency": "HKD",
      "eventForecast": "2.2%"
    },
    {
      "eventDateTime": "2015-02-26T08:30:00",
      "eventActual": "7.9%",
      "eventCountry": "Hong Kong",
      "eventExpectedVolatility": "Low",
      "eventName": "Imports (MoM) (Jan)",
      "eventTimeZone": "GMT",
      "eventPrevious": "1.9%",
      "eventCurrency": "HKD",
      "eventForecast": "4.0%"
    },
    {
      "eventDateTime": "2015-02-26T08:30:00",
      "eventActual": "-37.0B",
      "eventCountry": "Hong Kong",
      "eventExpectedVolatility": "Low",
      "eventName": "Trade Balance",
      "eventTimeZone": "GMT",
      "eventPrevious": "-59.3B",
      "eventCurrency": "HKD",
      "eventForecast": "-31.8B"
    }
  ]}}
