{"events": {"event": [
    {
      "eventDateTime": "2013-09-06T12:00:00",
      "eventActual": "",
      "eventCountry": "United States",
      "eventExpectedVolatility": "Low",
      "eventName": "Chicago Fed President Evans Speaks",
      "eventTimeZone": "GMT",
      "eventPrevious": "",
      "eventCurrency": "USD",
      "eventForecast": ""
    },
    {
      "eventDateTime": "2013-09-06T12:30:00",
      "eventActual": "0.2%",
      "eventCountry": "United States",
      "eventExpectedVolatility": "Moderate",
      "eventName": "Average Hourly Earnings (MoM)",
      "eventTimeZone": "GMT",
      "eventPrevious": "-0.1%",
      "eventCurrency": "USD",
      "eventForecast": "0.2%"
    },
    {
      "eventDateTime": "2013-09-06T12:30:00",
      "eventActual": "34.5",
      "eventCountry": "United States",
      "eventExpectedVolatility": "Low",
      "eventName": "Average Weekly Hours",
      "eventTimeZone": "GMT",
      "eventPrevious": "34.4",
      "eventCurrency": "USD",
      "eventForecast": "34.5"
    },
    {
      "eventDateTime": "2013-09-06T12:30:00",
      "eventActual": "169K",
      "eventCountry": "United States",
      "eventExpectedVolatility": "High",
      "eventName": "Nonfarm Payrolls",
      "eventTimeZone": "GMT",
      "eventPrevious": "104K",
      "eventCurrency": "USD",
      "eventForecast": "180K"
    },
    {
      "eventDateTime": "2013-09-06T12:30:00",
      "eventActual": "152K",
      "eventCountry": "United States",
      "eventExpectedVolatility": "Moderate",
      "eventName": "Private Nonfarm Payrolls",
      "eventTimeZone": "GMT",
      "eventPrevious": "127K",
      "eventCurrency": "USD",
      "eventForecast": "180K"
    },
    {
      "eventDateTime": "2013-09-06T12:30:00",
      "eventActual": "13.60%",
      "eventCountry": "United States",
      "eventExpectedVolatility": "Low",
      "eventName": "U6 Unemployment Rate (Aug)",
      "eventTimeZone": "GMT",
      "eventPrevious": "13.80%",
      "eventCurrency": "USD",
      "eventForecast": ""
    },
    {
      "eventDateTime": "2013-09-06T12:30:00",
      "eventActual": "7.3%",
      "eventCountry": "United States",
      "eventExpectedVolatility": "High",
      "eventName": "Unemployment Rate",
      "eventTimeZone": "GMT",
      "eventPrevious": "7.4%",
      "eventCurrency": "USD",
      "eventForecast": "7.4%"
    },
    {
      "eventDateTime": "2013-09-06T17:00:00",
      "eventActual": "1365",
      "eventCountry": "United States",
      "eventExpectedVolatility": "Moderate",
      "eventName": "U.S. Baker Hughes Oil Rig Count",
      "eventTimeZone": "GMT",
      "eventPrevious": "1388",
      "eventCurrency": "USD",
      "eventForecast": ""
    },
    {
      "eventDateTime": "2013-09-06T19:30:00",
      "eventActual": "78.2K",
      "eventCountry": "United States",
      "eventExpectedVolatility": "Moderate",
      "eventName": "CFTC Gold speculative net positions",
      "eventTimeZone": "GMT",
      "eventPrevious": "78.3K",
      "eventCurrency": "USD",
      "eventForecast": ""
    },
    {
      "eventDateTime": "2013-09-06T19:30:00",
      "eventActual": "18.8K",
      "eventCountry": "United States",
      "eventExpectedVolatility": "Low",
      "eventName": "CFTC Silver speculative net positions",
      "eventTimeZone": "GMT",
      "eventPrevious": "16.4K",
      "eventCurrency": "USD",
      "eventForecast": ""
    },
    {
      "eventDateTime": "2013-09-06T20:30:00",
      "eventActual": "339.3k",
      "eventCountry": "United States",
      "eventExpectedVolatility": "Moderate",
      "eventName": "CFTC Crude Oil speculative net positions",
      "eventTimeZone": "GMT",
      "eventPrevious": "345.1k",
      "eventCurrency": "USD",
      "eventForecast": ""
    }
  ]}}
