"PPI (MoM) (Oct)";"South Africa";"ZAR";"2017-11-30T09:30:00";"GMT";"0.7%";"0.6%";"0.7%";"Low"
"PPI (YoY) (Oct)";"South Africa";"ZAR";"2017-11-30T09:30:00";"GMT";"5.2%";"4.9%";"5.0%";"Low"
"Trade Balance (Oct)";"South Africa";"ZAR";"2017-11-30T12:00:00";"GMT";"4.48B";"-1.00B";"4.56B";"Low"
