{"events": {"event": [
    {
      "eventDateTime": "2018-08-22T12:30:00",
      "eventActual": "-0.1%",
      "eventCountry": "Canada",
      "eventExpectedVolatility": "High",
      "eventName": "Core Retail Sales (MoM) (Jun)",
      "eventTimeZone": "GMT",
      "eventPrevious": "1.7%",
      "eventCurrency": "CAD",
      "eventForecast": "-0.1%"
    },
    {
      "eventDateTime": "2018-08-22T12:30:00",
      "eventActual": "-0.2%",
      "eventCountry": "Canada",
      "eventExpectedVolatility": "Moderate",
      "eventName": "Retail Sales (MoM) (Jun)",
      "eventTimeZone": "GMT",
      "eventPrevious": "2.2%",
      "eventCurrency": "CAD",
      "eventForecast": "0.1%"
    }
  ]}}
