{"events": {"event": {
    "eventDateTime": "2013-06-19T22:45:00",
    "eventActual": "0.3%",
    "eventCountry": "New Zealand",
    "eventExpectedVolatility": "High",
    "eventName": "GDP (QoQ)",
    "eventTimeZone": "GMT",
    "eventPrevious": "1.5%",
    "eventCurrency": "NZD",
    "eventForecast": "0.6%"
  }}}
