{"events": {"event": {
    "eventDateTime": "2016-12-04T21:00:00",
    "eventActual": "371.99B",
    "eventCountry": "South Korea",
    "eventExpectedVolatility": "Low",
    "eventName": "FX Reserves - USD (Nov)",
    "eventTimeZone": "GMT",
    "eventPrevious": "375.17B",
    "eventCurrency": "KRW",
    "eventForecast": ""
  }}}
