{"events": {"event": [
    {
      "eventDateTime": "2015-02-12T09:30:00",
      "eventActual": "2.3%",
      "eventCountry": "South Africa",
      "eventExpectedVolatility": "Low",
      "eventName": "Gold Production (YoY) (Dec)",
      "eventTimeZone": "GMT",
      "eventPrevious": "-10.1%",
      "eventCurrency": "ZAR",
      "eventForecast": ""
    },
    {
      "eventDateTime": "2015-02-12T09:30:00",
      "eventActual": "-2.00%",
      "eventCountry": "South Africa",
      "eventExpectedVolatility": "Low",
      "eventName": "Mining Production (Dec)",
      "eventTimeZone": "GMT",
      "eventPrevious": "-0.10%",
      "eventCurrency": "ZAR",
      "eventForecast": "-1.50%"
    }
  ]}}
