"10-Year Note Auction (Nov)";"United States";"USD";"2001-12-01T09:00:00";"GMT";"5.00%";"";"5.00%";"Moderate"
"5-Year Note Auction (Nov)";"United States";"USD";"2001-12-01T09:00:00";"GMT";"4.63%";"";"3.50%";"Low"
"All Car Sales (Nov)";"United States";"USD";"2001-12-01T09:00:00";"GMT";"10.38M";"";"8.34M";"Low"
"All Truck Sales (Nov)";"United States";"USD";"2001-12-01T09:00:00";"GMT";"11.33M";"";"9.39M";"Low"
"Business Inventories (MoM) (Nov)";"United States";"USD";"2001-12-01T09:00:00";"GMT";"-1.60%";"";"-1.10%";"Moderate"
"CB Consumer Confidence (Nov)";"United States";"USD";"2001-12-01T09:00:00";"GMT";"85.30";"";"84.90";"High"
"CB Employment Trends Index (Nov)";"United States";"USD";"2001-12-01T09:00:00";"GMT";"111.70";"";"110.30";"Low"
"CPI (MoM) (Nov)";"United States";"USD";"2001-12-01T09:00:00";"GMT";"-0.30%";"";"-0.10%";"Moderate"
"CPI (YoY) (Nov)";"United States";"USD";"2001-12-01T09:00:00";"GMT";"2.10%";"";"1.90%";"Low"
"CPI Index, n.s.a. (Nov)";"United States";"USD";"2001-12-01T09:00:00";"GMT";"177.70";"";"177.40";"Low"
"Capacity Utilization Rate (Nov)";"United States";"USD";"2001-12-01T09:00:00";"GMT";"74.20%";"";"73.60%";"Low"
"Chain Store Sales (MoM) (Nov)";"United States";"USD";"2001-12-01T09:00:00";"GMT";"2.30%";"";"2.10%";"Low"
"Chain Store Sales (WoW) (Nov)";"United States";"USD";"2001-12-01T09:00:00";"GMT";"-0.30%";"";"-0.08%";"Low"
"Chain Store Sales (YoY) (Nov)";"United States";"USD";"2001-12-01T09:00:00";"GMT";"1.40%";"";"2.40%";"Low"
"Challenger Job Cuts (Nov)";"United States";"USD";"2001-12-01T09:00:00";"GMT";"242.19K";"";"181.41K";"Low"
"Chicago Fed National Activity (Nov)";"United States";"USD";"2001-12-01T09:00:00";"GMT";"-1.10";"";"-1.32";"Low"
"Chicago PMI (Nov)";"United States";"USD";"2001-12-01T09:00:00";"GMT";"45.20";"";"43.10";"Moderate"
"Cleveland CPI (MoM) (Nov)";"United States";"USD";"2001-12-01T09:00:00";"GMT";"0.30%";"";"0.30%";"Low"
"Construction Spending (MoM) (Nov)";"United States";"USD";"2001-12-01T09:00:00";"GMT";"1.00%";"";"-0.20%";"Low"
"Consumer Credit (Nov)";"United States";"USD";"2001-12-01T09:00:00";"GMT";"15.59B";"";"28.00B";"Low"
"Continuing Jobless Claims (Nov)";"United States";"USD";"2001-12-01T09:00:00";"GMT";"3,539.04K";"";"3,653.50K";"Low"
"Core CPI (MoM) (Nov)";"United States";"USD";"2001-12-01T09:00:00";"GMT";"0.20%";"";"0.40%";"High"
"Core CPI (YoY) (Nov)";"United States";"USD";"2001-12-01T09:00:00";"GMT";"2.60%";"";"2.80%";"Moderate"
"Core CPI Index (Nov)";"United States";"USD";"2001-12-01T09:00:00";"GMT";"187.40";"";"188.10";"Low"
"Core PCE Price Index (MoM) (Nov)";"United States";"USD";"2001-12-01T09:00:00";"GMT";"0.70%";"";"0.20%";"Moderate"
"Core PCE Price Index (YoY) (Nov)";"United States";"USD";"2001-12-01T09:00:00";"GMT";"1.80%";"";"1.80%";"Moderate"
"Core Retail Sales (MoM) (Nov)";"United States";"USD";"2001-12-01T09:00:00";"GMT";"0.90%";"";"0.20%";"High"
"Crude Oil Inventories (Nov)";"United States";"USD";"2001-12-01T09:00:00";"GMT";"0.65M";"";"0.24M";"High"
"Dallas Fed PCE (Nov)";"United States";"USD";"2001-12-01T09:00:00";"GMT";"2.10%";"";"2.20%";"Low"
"Domestic Truck Sales (Nov)";"United States";"USD";"2001-12-01T09:00:00";"GMT";"10.11M";"";"8.34M";"Low"
"Durables Excluding Defense (MoM) (Nov)";"United States";"USD";"2001-12-01T09:00:00";"GMT";"-1.80%";"";"3.00%";"Low"
"EIA Weekly Distillates Stocks (Nov)";"United States";"USD";"2001-12-01T09:00:00";"GMT";"1.18M";"";"2.24M";"Low"
"Existing Home Sales (MoM) (Nov)";"United States";"USD";"2001-12-01T09:00:00";"GMT";"0.40%";"";"-0.20%";"Moderate"
"Existing Home Sales (Nov)";"United States";"USD";"2001-12-01T09:00:00";"GMT";"5.25M";"";"5.24M";"High"
"Export Price Index (MoM) (Nov)";"United States";"USD";"2001-12-01T09:00:00";"GMT";"-0.70%";"";"-0.50%";"Moderate"
"Factory Orders (MoM) (Nov)";"United States";"USD";"2001-12-01T09:00:00";"GMT";"2.20%";"";"-2.80%";"Moderate"
"Factory orders ex transportation (MoM) (Nov)";"United States";"USD";"2001-12-01T09:00:00";"GMT";"-1.50%";"";"0.40%";"Low"
"Federal Budget Balance (Nov)";"United States";"USD";"2001-12-01T09:00:00";"GMT";"-7.70B";"";"-54.30B";"Moderate"
"Gasoline Inventories (Nov)";"United States";"USD";"2001-12-01T09:00:00";"GMT";"0.78M";"";"1.05M";"Low"
"Government Payrolls (Nov)";"United States";"USD";"2001-12-01T09:00:00";"GMT";"33.00K";"";"51.00K";"Low"
"House Price Index (MoM) (Nov)";"United States";"USD";"2001-12-01T09:00:00";"GMT";"0.60%";"";"0.30%";"Low"
"House Price Index (Nov)";"United States";"USD";"2001-12-01T09:00:00";"GMT";"154.10";"";"154.60";"Low"
"House Price Index (YoY) (Nov)";"United States";"USD";"2001-12-01T09:00:00";"GMT";"7.00%";"";"6.60%";"Low"
"Housing Starts (MoM) (Nov)";"United States";"USD";"2001-12-01T09:00:00";"GMT";"-1.40%";"";"4.00%";"Moderate"
"Housing Starts (Nov)";"United States";"USD";"2001-12-01T09:00:00";"GMT";"1.54M";"";"1.60M";"Moderate"
"ISM Manufacturing Employment (Nov)";"United States";"USD";"2001-12-01T09:00:00";"GMT";"35.60";"";"36.40";"Moderate"
"ISM Manufacturing New Orders Index (Nov)";"United States";"USD";"2001-12-01T09:00:00";"GMT";"38.90";"";"49.10";"Low"
"ISM Manufacturing PMI (Nov)";"United States";"USD";"2001-12-01T09:00:00";"GMT";"40.80";"";"44.10";"High"
"ISM Manufacturing Prices (Nov)";"United States";"USD";"2001-12-01T09:00:00";"GMT";"33.30";"";"32.00";"Low"
"ISM Non-Manufacturing Business Activity (Nov)";"United States";"USD";"2001-12-01T09:00:00";"GMT";"40.50";"";"49.40";"Low"
"ISM Non-Manufacturing Employment (Nov)";"United States";"USD";"2001-12-01T09:00:00";"GMT";"43.90";"";"44.50";"Moderate"
"ISM Non-Manufacturing New Orders (Nov)";"United States";"USD";"2001-12-01T09:00:00";"GMT";"41.30";"";"46.40";"Low"
"ISM Non-Manufacturing PMI (Nov)";"United States";"USD";"2001-12-01T09:00:00";"GMT";"44.80";"";"48.20";"High"
"ISM Non-Manufacturing Prices (Nov)";"United States";"USD";"2001-12-01T09:00:00";"GMT";"43.40";"";"41.30";"Low"
"ISM-New York Index (Nov)";"United States";"USD";"2001-12-01T09:00:00";"GMT";"254.70";"";"247.60";"Low"
"Import Price Index (MoM) (Nov)";"United States";"USD";"2001-12-01T09:00:00";"GMT";"-2.30%";"";"-1.50%";"Moderate"
"Industrial Production (MoM) (Nov)";"United States";"USD";"2001-12-01T09:00:00";"GMT";"-0.50%";"";"-0.50%";"Moderate"
"Initial Jobless Claims (Nov)";"United States";"USD";"2001-12-01T09:00:00";"GMT";"475.43K";"";"452.50K";"Moderate"
"JOLTs Job Openings (Nov)";"United States";"USD";"2001-12-01T09:00:00";"GMT";"3.59M";"";"3.55M";"High"
"Jobless Claims 4-Week Avg. (Nov)";"United States";"USD";"2001-12-01T09:00:00";"GMT";"477.24K";"";"453.11K";"Low"
"KC Fed Composite Index (Nov)";"United States";"USD";"2001-12-01T09:00:00";"GMT";"-9.00";"";"-10.00";"Low"
"KC Fed Manufacturing Index (Nov)";"United States";"USD";"2001-12-01T09:00:00";"GMT";"-1.00";"";"-3.00";"Low"
"MBA 30-Year Mortgage Rate (Nov)";"United States";"USD";"2001-12-01T09:00:00";"GMT";"6.52%";"";"6.72%";"Low"
"MBA Purchase Index (Nov)";"United States";"USD";"2001-12-01T09:00:00";"GMT";"278.07";"";"314.54";"Low"
"Manufacturing Payrolls (Nov)";"United States";"USD";"2001-12-01T09:00:00";"GMT";"-145.00K";"";"-147.00K";"Low"
"Manufacturing Production (MoM) (Nov)";"United States";"USD";"2001-12-01T09:00:00";"GMT";"-0.60%";"";"-0.30%";"Low"
"Michigan 5-Year Inflation Expectations (Nov)";"United States";"USD";"2001-12-01T09:00:00";"GMT";"2.70%";"";"2.80%";"Low"
"Michigan Consumer Expectations (Nov)";"United States";"USD";"2001-12-01T09:00:00";"GMT";"75.50";"";"76.20";"Moderate"
"Michigan Consumer Sentiment (Nov)";"United States";"USD";"2001-12-01T09:00:00";"GMT";"83.40";"";"83.90";"Moderate"
"Michigan Current Conditions (Nov)";"United States";"USD";"2001-12-01T09:00:00";"GMT";"92.10";"";"95.30";"Low"
"Michigan Inflation Expectations (Nov)";"United States";"USD";"2001-12-01T09:00:00";"GMT";"1.00%";"";"0.40%";"Low"
"Midwest Manufacturing (Nov)";"United States";"USD";"2001-12-01T09:00:00";"GMT";"97.90";"";"95.90";"Low"
"Mortgage Market Index (Nov)";"United States";"USD";"2001-12-01T09:00:00";"GMT";"921.53";"";"933.42";"Low"
"Mortgage Refinance Index (Nov)";"United States";"USD";"2001-12-01T09:00:00";"GMT";"4,664.35";"";"4,533.27";"Low"
"NAHB Housing Market Index (Nov)";"United States";"USD";"2001-12-01T09:00:00";"GMT";"46.00";"";"48.00";"Low"
"NFIB Small Business Optimism (Nov)";"United States";"USD";"2001-12-01T09:00:00";"GMT";"96.30";"";"99.40";"Low"
"NY Empire State Manufacturing Index (Nov)";"United States";"USD";"2001-12-01T09:00:00";"GMT";"-14.73";"";"-21.51";"Moderate"
"Natural Gas Storage (Nov)";"United States";"USD";"2001-12-01T09:00:00";"GMT";"47.61B";"";"25.00B";"Low"
"New Home Sales (MoM) (Nov)";"United States";"USD";"2001-12-01T09:00:00";"GMT";"2.10%";"";"6.10%";"Moderate"
"New Home Sales (Nov)";"United States";"USD";"2001-12-01T09:00:00";"GMT";"871.00K";"";"924.00K";"High"
"Overall Net Capital Flow (Nov)";"United States";"USD";"2001-12-01T09:00:00";"GMT";"95.80B";"";"72.70B";"Low"
"Pending Home Sales (MoM) (Nov)";"United States";"USD";"2001-12-01T09:00:00";"GMT";"9.10%";"";"4.50%";"High"
"Pending Home Sales Index (Nov)";"United States";"USD";"2001-12-01T09:00:00";"GMT";"98.00";"";"102.40";"Low"
"Personal Income (MoM) (Nov)";"United States";"USD";"2001-12-01T09:00:00";"GMT";"0.30%";"";"0.10%";"Low"
"Personal Spending (MoM) (Nov)";"United States";"USD";"2001-12-01T09:00:00";"GMT";"2.80%";"";"-0.60%";"Moderate"
"Philadelphia Fed Manufacturing Index (Nov)";"United States";"USD";"2001-12-01T09:00:00";"GMT";"-23.50";"";"-18.00";"High"
"Philly Fed Business Conditions (Nov)";"United States";"USD";"2001-12-01T09:00:00";"GMT";"47.30";"";"42.20";"Low"
"Philly Fed CAPEX Index (Nov)";"United States";"USD";"2001-12-01T09:00:00";"GMT";"6.40";"";"0.10";"Low"
"Philly Fed Employment (Nov)";"United States";"USD";"2001-12-01T09:00:00";"GMT";"-25.10";"";"-21.30";"Moderate"
"Philly Fed New Orders (Nov)";"United States";"USD";"2001-12-01T09:00:00";"GMT";"-10.80";"";"-18.40";"Low"
"Philly Fed Prices Paid (Nov)";"United States";"USD";"2001-12-01T09:00:00";"GMT";"-16.50";"";"-14.10";"Low"
"Private Nonfarm Payrolls (Nov)";"United States";"USD";"2001-12-01T09:00:00";"GMT";"-358.00K";"";"-345.00K";"Moderate"
"Real Personal Consumption (MoM) (Nov)";"United States";"USD";"2001-12-01T09:00:00";"GMT";"2.40%";"";"-0.50%";"Low"
"Retail Control (MoM) (Nov)";"United States";"USD";"2001-12-01T09:00:00";"GMT";"1.80%";"";"0.80%";"Low"
"Retail Sales (MoM) (Nov)";"United States";"USD";"2001-12-01T09:00:00";"GMT";"6.70%";"";"-2.60%";"High"
"Retail Sales Ex Gas/Autos (MoM) (Nov)";"United States";"USD";"2001-12-01T09:00:00";"GMT";"1.70%";"";"0.60%";"Low"
"Richmond Manufacturing Index (Nov)";"United States";"USD";"2001-12-01T09:00:00";"GMT";"-16.00";"";"-23.00";"Low"
"Richmond Manufacturing Shipments (Nov)";"United States";"USD";"2001-12-01T09:00:00";"GMT";"-12.00";"";"-13.00";"Low"
"Richmond Services Index (Nov)";"United States";"USD";"2001-12-01T09:00:00";"GMT";"0.00";"";"-8.00";"Low"
"Sandamp;P/CS HPI Composite - 20 n.s.a. (MoM) (Nov)";"United States";"USD";"2001-12-01T09:00:00";"GMT";"0.40%";"";"0.20%";"Low"
"Sandamp;P/CS HPI Composite - 20 n.s.a. (YoY) (Nov)";"United States";"USD";"2001-12-01T09:00:00";"GMT";"9.30%";"";"8.80%";"Moderate"
"Sandamp;P/CS HPI Composite - 20 s.a. (MoM) (Nov)";"United States";"USD";"2001-12-01T09:00:00";"GMT";"0.60%";"";"0.50%";"Low"
"TIC Net Long-Term Transactions (Nov)";"United States";"USD";"2001-12-01T09:00:00";"GMT";"60.00B";"";"58.10B";"Moderate"
"TIC Net Long-Term Transactions including Swaps (Nov)";"United States";"USD";"2001-12-01T09:00:00";"GMT";"59.50B";"";"58.00B";"Low"
"Trade Balance (Nov)";"United States";"USD";"2001-12-01T09:00:00";"GMT";"-30.80B";"";"-29.70B";"Moderate"
"US Foreign Buying, T-bonds (Nov)";"United States";"USD";"2001-12-01T09:00:00";"GMT";"15.70B";"";"12.40B";"Low"
"Wholesale Inventories (MoM) (Nov)";"United States";"USD";"2001-12-01T09:00:00";"GMT";"-0.60%";"";"-1.20%";"Low"
"ADP Nonfarm Employment Change (Nov)";"United States";"USD";"2001-12-01T12:15:00";"GMT";"-380K";"";"-361K";"High"
"U6 Unemployment Rate (Nov)";"United States";"USD";"2001-12-01T12:30:00";"GMT";"9.30%";"";"9.40%";"Low"
"Unemployment Rate (Nov)";"United States";"USD";"2001-12-01T12:30:00";"GMT";"5.3%";"";"5.5%";"High"
