"Economy Watchers Current Index (Aug)";"Japan";"JPY";"2019-09-09T05:00:00";"GMT";"41.2";"";"42.8";"Low"
"Investing.com USD/JPY Index";"Japan";"JPY";"2019-09-09T05:30:00";"GMT";"48.1%";"";"50.0%";"Moderate"
"M2 Money Stock (YoY)";"Japan";"JPY";"2019-09-09T23:50:00";"GMT";"2.3%";"";"2.4%";"Low"
"M3 Money Supply (Aug)";"Japan";"JPY";"2019-09-09T23:50:00";"GMT";"1,806.6T";"";"1,808.9T";"Low"
