{"events": {"event": [
    {
      "eventDateTime": "2020-01-28T10:45:00",
      "eventActual": "0.500%",
      "eventCountry": "United Kingdom",
      "eventExpectedVolatility": "Low",
      "eventName": "10-Year Treasury Gilt Auction",
      "eventTimeZone": "GMT",
      "eventPrevious": "0.794%",
      "eventCurrency": "GBP",
      "eventForecast": ""
    },
    {
      "eventDateTime": "2020-01-28T11:00:00",
      "eventActual": "0",
      "eventCountry": "United Kingdom",
      "eventExpectedVolatility": "Low",
      "eventName": "CBI Distributive Trades Survey (Jan)",
      "eventTimeZone": "GMT",
      "eventPrevious": "0",
      "eventCurrency": "GBP",
      "eventForecast": "3"
    }
  ]}}
