"Investing.com EUR/USD Index";"Euro Zone";"EUR";"2015-07-27T05:30:00";"GMT";"30.7%";"";"24.8%";"Moderate"
"German Import Price Index (MoM) (Jun)";"Germany";"EUR";"2015-07-27T06:00:00";"GMT";"-0.2%";"-0.3%";"-0.5%";"Low"
"German Import Price Index (YoY) (Jun)";"Germany";"EUR";"2015-07-27T06:00:00";"GMT";"-0.8%";"-1.3%";"-1.4%";"Low"
"German Business Expectations (Jul)";"Germany";"EUR";"2015-07-27T08:00:00";"GMT";"102.1";"101.8";"102.4";"Moderate"
"German Current Assessment (Jul)";"Germany";"EUR";"2015-07-27T08:00:00";"GMT";"113.1";"113.0";"113.9";"Moderate"
"German Ifo Business Climate Index (Jul)";"Germany";"EUR";"2015-07-27T08:00:00";"GMT";"100.1";"";"99.5";"High"
"M3 Money Supply (YoY) (Jun)";"Euro Zone";"EUR";"2015-07-27T08:00:00";"GMT";"5.0%";"5.1%";"5.0%";"Low"
"Money-M3 3-Month-Moving Average (Jun)";"Euro Zone";"EUR";"2015-07-27T08:00:00";"GMT";"5.0%";"5.3%";"5.1%";"Low"
"Private Sector Loans (YoY) (Jun)";"Euro Zone";"EUR";"2015-07-27T08:00:00";"GMT";"0.5%";"0.6%";"0.6%";"Low"
"German 12-Month Bubill Auction";"Germany";"EUR";"2015-07-27T09:35:00";"GMT";"-0.262%";"";"-0.246%";"Low"
"French 12-Month BTF Auction";"France";"EUR";"2015-07-27T13:00:00";"GMT";"-0.190%";"";"-0.190%";"Low"
"French 3-Month BTF Auction";"France";"EUR";"2015-07-27T13:00:00";"GMT";"-0.211%";"";"-0.198%";"Low"
"French 6-Month BTF Auction";"France";"EUR";"2015-07-27T13:00:00";"GMT";"-0.207%";"";"-0.196%";"Low"
"France Jobseekers Total (Jun)";"France";"EUR";"2015-07-27T16:00:00";"GMT";"3,552.2K";"3,559.6K";"3,553.5K";"Moderate"
