"Italian Monthly Unemployment Rate (Feb)";"Italy";"EUR";"2018-04-04T08:00:00";"GMT";"11.1%";"11.0%";"10.9%";"Low"
"CPI (YoY) (Mar)";"Euro Zone";"EUR";"2018-04-04T09:00:00";"GMT";"1.1%";"1.4%";"1.4%";"High"
"Core CPI (YoY)";"Euro Zone";"EUR";"2018-04-04T09:00:00";"GMT";"1.0%";"1.1%";"1.0%";"Moderate"
"Italian Public Deficit (Q4)";"Italy";"EUR";"2018-04-04T09:00:00";"GMT";"1.9%";"";"1.6%";"Low"
"Unemployment Rate (Feb)";"Euro Zone";"EUR";"2018-04-04T09:00:00";"GMT";"8.6%";"8.5%";"8.5%";"Moderate"
"German 5-Year Bobl Auction";"Germany";"EUR";"2018-04-04T09:35:00";"GMT";"0.050%";"";"-0.100%";"Low"
