{"events": {"event": [
    {
      "eventDateTime": "2012-11-02T08:13:00",
      "eventActual": "43.5",
      "eventCountry": "Spain",
      "eventExpectedVolatility": "Moderate",
      "eventName": "Spanish Manufacturing PMI",
      "eventTimeZone": "GMT",
      "eventPrevious": "44.6",
      "eventCurrency": "EUR",
      "eventForecast": "44.0"
    },
    {
      "eventDateTime": "2012-11-02T08:45:00",
      "eventActual": "45.50",
      "eventCountry": "Italy",
      "eventExpectedVolatility": "Moderate",
      "eventName": "Italian Manufacturing PMI",
      "eventTimeZone": "GMT",
      "eventPrevious": "45.70",
      "eventCurrency": "EUR",
      "eventForecast": "45.90"
    },
    {
      "eventDateTime": "2012-11-02T08:50:00",
      "eventActual": "43.7",
      "eventCountry": "France",
      "eventExpectedVolatility": "Moderate",
      "eventName": "French Manufacturing PMI",
      "eventTimeZone": "GMT",
      "eventPrevious": "43.5",
      "eventCurrency": "EUR",
      "eventForecast": "43.5"
    },
    {
      "eventDateTime": "2012-11-02T08:55:00",
      "eventActual": "46.0",
      "eventCountry": "Germany",
      "eventExpectedVolatility": "High",
      "eventName": "German Manufacturing PMI",
      "eventTimeZone": "GMT",
      "eventPrevious": "45.7",
      "eventCurrency": "EUR",
      "eventForecast": "45.7"
    },
    {
      "eventDateTime": "2012-11-02T09:00:00",
      "eventActual": "45.4",
      "eventCountry": "Euro Zone",
      "eventExpectedVolatility": "Moderate",
      "eventName": "Manufacturing PMI",
      "eventTimeZone": "GMT",
      "eventPrevious": "45.3",
      "eventCurrency": "EUR",
      "eventForecast": "45.3"
    },
    {
      "eventDateTime": "2012-11-02T19:30:00",
      "eventActual": "-58.2K",
      "eventCountry": "Euro Zone",
      "eventExpectedVolatility": "Moderate",
      "eventName": "CFTC EUR speculative net positions",
      "eventTimeZone": "GMT",
      "eventPrevious": "-55.2K",
      "eventCurrency": "EUR",
      "eventForecast": ""
    }
  ]}}
