"Industrial Production (MoM)";"United Kingdom";"GBP";"2011-08-09T08:30:00";"GMT";"0.8%";"0.4%";"0.0%";"Moderate"
"Manufacturing Production (MoM)";"United Kingdom";"GBP";"2011-08-09T08:30:00";"GMT";"1.8%";"0.2%";"-0.4%";"High"
"Trade Balance";"United Kingdom";"GBP";"2011-08-09T08:30:00";"GMT";"-8.5B";"-8.2B";"-8.9B";"Moderate"
"NIESR GDP Estimate";"United Kingdom";"GBP";"2011-08-09T14:00:00";"GMT";"0.2%";"";"0.6%";"Moderate"
