{"events": {"event": [
    {
      "eventDateTime": "2019-12-20T12:30:00",
      "eventActual": "0.1%",
      "eventCountry": "Canada",
      "eventExpectedVolatility": "Moderate",
      "eventName": "New Housing Price Index (MoM) (Oct)",
      "eventTimeZone": "GMT",
      "eventPrevious": "0.2%",
      "eventCurrency": "CAD",
      "eventForecast": "0.1%"
    },
    {
      "eventDateTime": "2019-12-20T13:30:00",
      "eventActual": "-0.5%",
      "eventCountry": "Canada",
      "eventExpectedVolatility": "High",
      "eventName": "Core Retail Sales (MoM) (Oct)",
      "eventTimeZone": "GMT",
      "eventPrevious": "-0.1%",
      "eventCurrency": "CAD",
      "eventForecast": "0.3%"
    },
    {
      "eventDateTime": "2019-12-20T13:30:00",
      "eventActual": "-1.2%",
      "eventCountry": "Canada",
      "eventExpectedVolatility": "Moderate",
      "eventName": "Retail Sales (MoM) (Oct)",
      "eventTimeZone": "GMT",
      "eventPrevious": "-0.1%",
      "eventCurrency": "CAD",
      "eventForecast": "0.5%"
    },
    {
      "eventDateTime": "2019-12-20T16:00:00",
      "eventActual": "-3.25B",
      "eventCountry": "Canada",
      "eventExpectedVolatility": "Low",
      "eventName": "Budget Balance (Oct)",
      "eventTimeZone": "GMT",
      "eventPrevious": "-0.58B",
      "eventCurrency": "CAD",
      "eventForecast": "-1.45B"
    },
    {
      "eventDateTime": "2019-12-20T16:00:00",
      "eventActual": "-9.05B",
      "eventCountry": "Canada",
      "eventExpectedVolatility": "Low",
      "eventName": "Budget Balance (YoY) (Oct)",
      "eventTimeZone": "GMT",
      "eventPrevious": "-5.80B",
      "eventCurrency": "CAD",
      "eventForecast": "-0.37B"
    },
    {
      "eventDateTime": "2019-12-20T19:30:00",
      "eventActual": "20.7K",
      "eventCountry": "Canada",
      "eventExpectedVolatility": "Low",
      "eventName": "CFTC CAD speculative net positions",
      "eventTimeZone": "GMT",
      "eventPrevious": "20.7K",
      "eventCurrency": "CAD",
      "eventForecast": ""
    }
  ]}}
