{"events": {"event": {
    "eventDateTime": "2019-04-23T12:30:00",
    "eventActual": "0.3%",
    "eventCountry": "Canada",
    "eventExpectedVolatility": "Moderate",
    "eventName": "Wholesale Sales (MoM) (Feb)",
    "eventTimeZone": "GMT",
    "eventPrevious": "0.4%",
    "eventCurrency": "CAD",
    "eventForecast": "0.1%"
  }}}
