{"events": {"event": [
    {
      "eventDateTime": "2015-10-01T01:35:00",
      "eventActual": "51.0",
      "eventCountry": "Japan",
      "eventExpectedVolatility": "Low",
      "eventName": "Manufacturing PMI (Sep)",
      "eventTimeZone": "GMT",
      "eventPrevious": "50.9",
      "eventCurrency": "JPY",
      "eventForecast": "50.9"
    },
    {
      "eventDateTime": "2015-10-01T03:45:00",
      "eventActual": "0.336%",
      "eventCountry": "Japan",
      "eventExpectedVolatility": "Moderate",
      "eventName": "10-Year JGB Auction",
      "eventTimeZone": "GMT",
      "eventPrevious": "0.421%",
      "eventCurrency": "JPY",
      "eventForecast": ""
    },
    {
      "eventDateTime": "2015-10-01T23:30:00",
      "eventActual": "2.5%",
      "eventCountry": "Japan",
      "eventExpectedVolatility": "Moderate",
      "eventName": "Household Spending (MoM) (Aug)",
      "eventTimeZone": "GMT",
      "eventPrevious": "0.6%",
      "eventCurrency": "JPY",
      "eventForecast": "0.5%"
    },
    {
      "eventDateTime": "2015-10-01T23:30:00",
      "eventActual": "2.9%",
      "eventCountry": "Japan",
      "eventExpectedVolatility": "Moderate",
      "eventName": "Household Spending (YoY) (Aug)",
      "eventTimeZone": "GMT",
      "eventPrevious": "-0.2%",
      "eventCurrency": "JPY",
      "eventForecast": "0.4%"
    },
    {
      "eventDateTime": "2015-10-01T23:30:00",
      "eventActual": "1.23",
      "eventCountry": "Japan",
      "eventExpectedVolatility": "Moderate",
      "eventName": "Jobs/applications ratio (Aug)",
      "eventTimeZone": "GMT",
      "eventPrevious": "1.21",
      "eventCurrency": "JPY",
      "eventForecast": "1.22"
    },
    {
      "eventDateTime": "2015-10-01T23:30:00",
      "eventActual": "3.4%",
      "eventCountry": "Japan",
      "eventExpectedVolatility": "Low",
      "eventName": "Unemployment Rate (Aug)",
      "eventTimeZone": "GMT",
      "eventPrevious": "3.3%",
      "eventCurrency": "JPY",
      "eventForecast": "3.3%"
    },
    {
      "eventDateTime": "2015-10-01T23:50:00",
      "eventActual": "35.1%",
      "eventCountry": "Japan",
      "eventExpectedVolatility": "Low",
      "eventName": "Monetary Base (YoY)",
      "eventTimeZone": "GMT",
      "eventPrevious": "33.3%",
      "eventCurrency": "JPY",
      "eventForecast": "34.2%"
    }
  ]}}
