{"events": {"event": {
    "eventDateTime": "2015-01-02T12:00:00",
    "eventActual": "50.2",
    "eventCountry": "Brazil",
    "eventExpectedVolatility": "Low",
    "eventName": "Markit Manufacturing PMI (Dec)",
    "eventTimeZone": "GMT",
    "eventPrevious": "48.7",
    "eventCurrency": "BRL",
    "eventForecast": ""
  }}}
