"French Business Survey";"France";"EUR";"2012-06-19T06:45:00";"GMT";"93";"92";"92";"Low"
"Spanish industrial New Orders (YoY)";"Spain";"EUR";"2012-06-19T08:05:00";"GMT";"-4.1%";"-5.0%";"-4.7%";"Low"
"Spanish 12-Month Letras Auction";"Spain";"EUR";"2012-06-19T08:40:00";"GMT";"2.985%";"";"5.074%";"Low"
"German ZEW Economic Sentiment";"Germany";"EUR";"2012-06-19T09:00:00";"GMT";"10.8";"4.0";"-16.9";"High"
"ZEW Economic Sentiment";"Euro Zone";"EUR";"2012-06-19T09:00:00";"GMT";"-2.4";"-5.7";"-20.1";"Moderate"
