{"events": {"event": [
    {
      "eventDateTime": "2002-09-01T09:00:00",
      "eventActual": "0.00%",
      "eventCountry": "Switzerland",
      "eventExpectedVolatility": "Moderate",
      "eventName": "CPI (MoM) (Aug)",
      "eventTimeZone": "GMT",
      "eventPrevious": "-0.50%",
      "eventCurrency": "CHF",
      "eventForecast": ""
    },
    {
      "eventDateTime": "2002-09-01T09:00:00",
      "eventActual": "0.50%",
      "eventCountry": "Switzerland",
      "eventExpectedVolatility": "Low",
      "eventName": "CPI (YoY) (Aug)",
      "eventTimeZone": "GMT",
      "eventPrevious": "-0.10%",
      "eventCurrency": "CHF",
      "eventForecast": ""
    },
    {
      "eventDateTime": "2002-09-01T09:00:00",
      "eventActual": "1.04",
      "eventCountry": "Switzerland",
      "eventExpectedVolatility": "Low",
      "eventName": "Consumption Indicator (Aug)",
      "eventTimeZone": "GMT",
      "eventPrevious": "1.17",
      "eventCurrency": "CHF",
      "eventForecast": ""
    },
    {
      "eventDateTime": "2002-09-01T09:00:00",
      "eventActual": "93.90",
      "eventCountry": "Switzerland",
      "eventExpectedVolatility": "Moderate",
      "eventName": "KOF Leading Indicators (Aug)",
      "eventTimeZone": "GMT",
      "eventPrevious": "95.90",
      "eventCurrency": "CHF",
      "eventForecast": ""
    },
    {
      "eventDateTime": "2002-09-01T09:00:00",
      "eventActual": "-0.30%",
      "eventCountry": "Switzerland",
      "eventExpectedVolatility": "Moderate",
      "eventName": "PPI (MoM) (Aug)",
      "eventTimeZone": "GMT",
      "eventPrevious": "0.00%",
      "eventCurrency": "CHF",
      "eventForecast": ""
    },
    {
      "eventDateTime": "2002-09-01T09:00:00",
      "eventActual": "-1.40%",
      "eventCountry": "Switzerland",
      "eventExpectedVolatility": "Low",
      "eventName": "PPI (YoY) (Aug)",
      "eventTimeZone": "GMT",
      "eventPrevious": "-1.60%",
      "eventCurrency": "CHF",
      "eventForecast": ""
    },
    {
      "eventDateTime": "2002-09-01T09:00:00",
      "eventActual": "-0.10%",
      "eventCountry": "Switzerland",
      "eventExpectedVolatility": "Moderate",
      "eventName": "Retail Sales (YoY) (Aug)",
      "eventTimeZone": "GMT",
      "eventPrevious": "-1.40%",
      "eventCurrency": "CHF",
      "eventForecast": ""
    },
    {
      "eventDateTime": "2002-09-01T09:00:00",
      "eventActual": "0.52B",
      "eventCountry": "Switzerland",
      "eventExpectedVolatility": "Low",
      "eventName": "Trade Balance (Aug)",
      "eventTimeZone": "GMT",
      "eventPrevious": "0.52B",
      "eventCurrency": "CHF",
      "eventForecast": ""
    },
    {
      "eventDateTime": "2002-09-01T09:00:00",
      "eventActual": "2.40%",
      "eventCountry": "Switzerland",
      "eventExpectedVolatility": "Moderate",
      "eventName": "Unemployment Rate n.s.a. (Aug)",
      "eventTimeZone": "GMT",
      "eventPrevious": "2.40%",
      "eventCurrency": "CHF",
      "eventForecast": ""
    },
    {
      "eventDateTime": "2002-09-01T09:00:00",
      "eventActual": "2.60%",
      "eventCountry": "Switzerland",
      "eventExpectedVolatility": "Moderate",
      "eventName": "Unemployment Rate s.a. (Aug)",
      "eventTimeZone": "GMT",
      "eventPrevious": "2.50%",
      "eventCurrency": "CHF",
      "eventForecast": ""
    },
    {
      "eventDateTime": "2002-09-01T09:00:00",
      "eventActual": "47.10",
      "eventCountry": "Switzerland",
      "eventExpectedVolatility": "Moderate",
      "eventName": "procure.ch PMI (Aug)",
      "eventTimeZone": "GMT",
      "eventPrevious": "49.30",
      "eventCurrency": "CHF",
      "eventForecast": ""
    }
  ]}}
