{"events": {"event": [
    {
      "eventDateTime": "2016-06-01T06:00:00",
      "eventActual": "0.2%",
      "eventCountry": "United Kingdom",
      "eventExpectedVolatility": "Moderate",
      "eventName": "Nationwide HPI (MoM) (May)",
      "eventTimeZone": "GMT",
      "eventPrevious": "0.2%",
      "eventCurrency": "GBP",
      "eventForecast": "0.3%"
    },
    {
      "eventDateTime": "2016-06-01T06:00:00",
      "eventActual": "4.7%",
      "eventCountry": "United Kingdom",
      "eventExpectedVolatility": "Moderate",
      "eventName": "Nationwide HPI (YoY) (May)",
      "eventTimeZone": "GMT",
      "eventPrevious": "4.9%",
      "eventCurrency": "GBP",
      "eventForecast": "4.7%"
    },
    {
      "eventDateTime": "2016-06-01T08:30:00",
      "eventActual": "1.287B",
      "eventCountry": "United Kingdom",
      "eventExpectedVolatility": "Low",
      "eventName": "BoE Consumer Credit (Apr)",
      "eventTimeZone": "GMT",
      "eventPrevious": "1.822B",
      "eventCurrency": "GBP",
      "eventForecast": "1.600B"
    },
    {
      "eventDateTime": "2016-06-01T08:30:00",
      "eventActual": "-0.1%",
      "eventCountry": "United Kingdom",
      "eventExpectedVolatility": "Low",
      "eventName": "M4 Money Supply (MoM) (Apr)",
      "eventTimeZone": "GMT",
      "eventPrevious": "-0.4%",
      "eventCurrency": "GBP",
      "eventForecast": "0.2%"
    },
    {
      "eventDateTime": "2016-06-01T08:30:00",
      "eventActual": "50.1",
      "eventCountry": "United Kingdom",
      "eventExpectedVolatility": "High",
      "eventName": "Manufacturing PMI (May)",
      "eventTimeZone": "GMT",
      "eventPrevious": "49.4",
      "eventCurrency": "GBP",
      "eventForecast": "49.6"
    },
    {
      "eventDateTime": "2016-06-01T08:30:00",
      "eventActual": "66.25K",
      "eventCountry": "United Kingdom",
      "eventExpectedVolatility": "Low",
      "eventName": "Mortgage Approvals (Apr)",
      "eventTimeZone": "GMT",
      "eventPrevious": "70.31K",
      "eventCurrency": "GBP",
      "eventForecast": "67.95K"
    },
    {
      "eventDateTime": "2016-06-01T08:30:00",
      "eventActual": "0.30B",
      "eventCountry": "United Kingdom",
      "eventExpectedVolatility": "Low",
      "eventName": "Mortgage Lending (Apr)",
      "eventTimeZone": "GMT",
      "eventPrevious": "7.40B",
      "eventCurrency": "GBP",
      "eventForecast": "3.80B"
    },
    {
      "eventDateTime": "2016-06-01T08:30:00",
      "eventActual": "1.6B",
      "eventCountry": "United Kingdom",
      "eventExpectedVolatility": "Low",
      "eventName": "Net Lending to Individuals",
      "eventTimeZone": "GMT",
      "eventPrevious": "9.2B",
      "eventCurrency": "GBP",
      "eventForecast": "5.3B"
    },
    {
      "eventDateTime": "2016-06-01T09:35:00",
      "eventActual": "0.863%",
      "eventCountry": "United Kingdom",
      "eventExpectedVolatility": "Low",
      "eventName": "5-Year Treasury Gilt Auction",
      "eventTimeZone": "GMT",
      "eventPrevious": "0.861%",
      "eventCurrency": "GBP",
      "eventForecast": ""
    }
  ]}}
