{"events": {"event": {
    "eventDateTime": "2013-06-21T19:30:00",
    "eventActual": "5.8K",
    "eventCountry": "Switzerland",
    "eventExpectedVolatility": "Low",
    "eventName": "CFTC CHF speculative net positions",
    "eventTimeZone": "GMT",
    "eventPrevious": "-20.7K",
    "eventCurrency": "CHF",
    "eventForecast": ""
  }}}
