{"events": {"event": [
    {
      "eventDateTime": "2019-09-06T12:30:00",
      "eventActual": "0.4%",
      "eventCountry": "United States",
      "eventExpectedVolatility": "Moderate",
      "eventName": "Average Hourly Earnings (MoM) (Aug)",
      "eventTimeZone": "GMT",
      "eventPrevious": "0.3%",
      "eventCurrency": "USD",
      "eventForecast": "0.3%"
    },
    {
      "eventDateTime": "2019-09-06T12:30:00",
      "eventActual": "3.2%",
      "eventCountry": "United States",
      "eventExpectedVolatility": "Moderate",
      "eventName": "Average Hourly Earnings (YoY) (YoY) (Aug)",
      "eventTimeZone": "GMT",
      "eventPrevious": "3.3%",
      "eventCurrency": "USD",
      "eventForecast": "3.1%"
    },
    {
      "eventDateTime": "2019-09-06T12:30:00",
      "eventActual": "34.4",
      "eventCountry": "United States",
      "eventExpectedVolatility": "Low",
      "eventName": "Average Weekly Hours (Aug)",
      "eventTimeZone": "GMT",
      "eventPrevious": "34.3",
      "eventCurrency": "USD",
      "eventForecast": "34.4"
    },
    {
      "eventDateTime": "2019-09-06T12:30:00",
      "eventActual": "34.0K",
      "eventCountry": "United States",
      "eventExpectedVolatility": "Low",
      "eventName": "Government Payrolls (Aug)",
      "eventTimeZone": "GMT",
      "eventPrevious": "28.0K",
      "eventCurrency": "USD",
      "eventForecast": ""
    },
    {
      "eventDateTime": "2019-09-06T12:30:00",
      "eventActual": "3K",
      "eventCountry": "United States",
      "eventExpectedVolatility": "Low",
      "eventName": "Manufacturing Payrolls (Aug)",
      "eventTimeZone": "GMT",
      "eventPrevious": "4K",
      "eventCurrency": "USD",
      "eventForecast": "8K"
    },
    {
      "eventDateTime": "2019-09-06T12:30:00",
      "eventActual": "130K",
      "eventCountry": "United States",
      "eventExpectedVolatility": "High",
      "eventName": "Nonfarm Payrolls (Aug)",
      "eventTimeZone": "GMT",
      "eventPrevious": "159K",
      "eventCurrency": "USD",
      "eventForecast": "160K"
    },
    {
      "eventDateTime": "2019-09-06T12:30:00",
      "eventActual": "63.2%",
      "eventCountry": "United States",
      "eventExpectedVolatility": "Moderate",
      "eventName": "Participation Rate (Aug)",
      "eventTimeZone": "GMT",
      "eventPrevious": "63.0%",
      "eventCurrency": "USD",
      "eventForecast": ""
    },
    {
      "eventDateTime": "2019-09-06T12:30:00",
      "eventActual": "96K",
      "eventCountry": "United States",
      "eventExpectedVolatility": "Moderate",
      "eventName": "Private Nonfarm Payrolls (Aug)",
      "eventTimeZone": "GMT",
      "eventPrevious": "131K",
      "eventCurrency": "USD",
      "eventForecast": "150K"
    },
    {
      "eventDateTime": "2019-09-06T12:30:00",
      "eventActual": "7.2%",
      "eventCountry": "United States",
      "eventExpectedVolatility": "Low",
      "eventName": "U6 Unemployment Rate (Aug)",
      "eventTimeZone": "GMT",
      "eventPrevious": "7.0%",
      "eventCurrency": "USD",
      "eventForecast": ""
    },
    {
      "eventDateTime": "2019-09-06T12:30:00",
      "eventActual": "3.7%",
      "eventCountry": "United States",
      "eventExpectedVolatility": "High",
      "eventName": "Unemployment Rate (Aug)",
      "eventTimeZone": "GMT",
      "eventPrevious": "3.7%",
      "eventCurrency": "USD",
      "eventForecast": "3.7%"
    },
    {
      "eventDateTime": "2019-09-06T16:30:00",
      "eventActual": "",
      "eventCountry": "United States",
      "eventExpectedVolatility": "High",
      "eventName": "Fed Chair Powell Speaks",
      "eventTimeZone": "GMT",
      "eventPrevious": "",
      "eventCurrency": "USD",
      "eventForecast": ""
    },
    {
      "eventDateTime": "2019-09-06T17:00:00",
      "eventActual": "738",
      "eventCountry": "United States",
      "eventExpectedVolatility": "Moderate",
      "eventName": "U.S. Baker Hughes Oil Rig Count",
      "eventTimeZone": "GMT",
      "eventPrevious": "742",
      "eventCurrency": "USD",
      "eventForecast": ""
    },
    {
      "eventDateTime": "2019-09-06T17:00:00",
      "eventActual": "898",
      "eventCountry": "United States",
      "eventExpectedVolatility": "Moderate",
      "eventName": "U.S. Baker Hughes Total Rig Count",
      "eventTimeZone": "GMT",
      "eventPrevious": "904",
      "eventCurrency": "USD",
      "eventForecast": ""
    },
    {
      "eventDateTime": "2019-09-06T19:30:00",
      "eventActual": "-49.1K",
      "eventCountry": "United States",
      "eventExpectedVolatility": "Low",
      "eventName": "CFTC Aluminium speculative net positions",
      "eventTimeZone": "GMT",
      "eventPrevious": "-38.8K",
      "eventCurrency": "USD",
      "eventForecast": ""
    },
    {
      "eventDateTime": "2019-09-06T19:30:00",
      "eventActual": "-58.8K",
      "eventCountry": "United States",
      "eventExpectedVolatility": "Low",
      "eventName": "CFTC Copper speculative net positions",
      "eventTimeZone": "GMT",
      "eventPrevious": "-58.5K",
      "eventCurrency": "USD",
      "eventForecast": ""
    },
    {
      "eventDateTime": "2019-09-06T19:30:00",
      "eventActual": "21.0K",
      "eventCountry": "United States",
      "eventExpectedVolatility": "Low",
      "eventName": "CFTC Corn speculative net positions",
      "eventTimeZone": "GMT",
      "eventPrevious": "38.9K",
      "eventCurrency": "USD",
      "eventForecast": ""
    },
    {
      "eventDateTime": "2019-09-06T19:30:00",
      "eventActual": "384.2K",
      "eventCountry": "United States",
      "eventExpectedVolatility": "Moderate",
      "eventName": "CFTC Crude Oil speculative net positions",
      "eventTimeZone": "GMT",
      "eventPrevious": "391.6K",
      "eventCurrency": "USD",
      "eventForecast": ""
    },
    {
      "eventDateTime": "2019-09-06T19:30:00",
      "eventActual": "300.5K",
      "eventCountry": "United States",
      "eventExpectedVolatility": "Moderate",
      "eventName": "CFTC Gold speculative net positions",
      "eventTimeZone": "GMT",
      "eventPrevious": "296.8K",
      "eventCurrency": "USD",
      "eventForecast": ""
    },
    {
      "eventDateTime": "2019-09-06T19:30:00",
      "eventActual": "24.5K",
      "eventCountry": "United States",
      "eventExpectedVolatility": "Moderate",
      "eventName": "CFTC Nasdaq 100 speculative positions",
      "eventTimeZone": "GMT",
      "eventPrevious": "22.9K",
      "eventCurrency": "USD",
      "eventForecast": ""
    },
    {
      "eventDateTime": "2019-09-06T19:30:00",
      "eventActual": "-170.9K",
      "eventCountry": "United States",
      "eventExpectedVolatility": "Low",
      "eventName": "CFTC Natural Gas speculative net positions",
      "eventTimeZone": "GMT",
      "eventPrevious": "-186.6K",
      "eventCurrency": "USD",
      "eventForecast": ""
    },
    {
      "eventDateTime": "2019-09-06T19:30:00",
      "eventActual": "12.3K",
      "eventCountry": "United States",
      "eventExpectedVolatility": "Moderate",
      "eventName": "CFTC Sandamp:P 500 speculative net positions",
      "eventTimeZone": "GMT",
      "eventPrevious": "68.5K",
      "eventCurrency": "USD",
      "eventForecast": ""
    },
    {
      "eventDateTime": "2019-09-06T19:30:00",
      "eventActual": "62.1K",
      "eventCountry": "United States",
      "eventExpectedVolatility": "Low",
      "eventName": "CFTC Silver speculative net positions",
      "eventTimeZone": "GMT",
      "eventPrevious": "59.9K",
      "eventCurrency": "USD",
      "eventForecast": ""
    },
    {
      "eventDateTime": "2019-09-06T19:30:00",
      "eventActual": "-25.0K",
      "eventCountry": "United States",
      "eventExpectedVolatility": "Low",
      "eventName": "CFTC Soybeans speculative net positions",
      "eventTimeZone": "GMT",
      "eventPrevious": "-30.0K",
      "eventCurrency": "USD",
      "eventForecast": ""
    },
    {
      "eventDateTime": "2019-09-06T19:30:00",
      "eventActual": "-0.1K",
      "eventCountry": "United States",
      "eventExpectedVolatility": "Low",
      "eventName": "CFTC Wheat speculative net positions",
      "eventTimeZone": "GMT",
      "eventPrevious": "16.8K",
      "eventCurrency": "USD",
      "eventForecast": ""
    }
  ]}}
