{"events": {"event": [
    {
      "eventDateTime": "2016-04-04T01:00:00",
      "eventActual": "0.0%",
      "eventCountry": "Australia",
      "eventExpectedVolatility": "Low",
      "eventName": "MI Inflation Gauge (MoM) (Mar)",
      "eventTimeZone": "GMT",
      "eventPrevious": "-0.2%",
      "eventCurrency": "AUD",
      "eventForecast": ""
    },
    {
      "eventDateTime": "2016-04-04T01:30:00",
      "eventActual": "0.4%",
      "eventCountry": "Australia",
      "eventExpectedVolatility": "Low",
      "eventName": "ANZ Internet Job Ads (MoM) (Mar)",
      "eventTimeZone": "GMT",
      "eventPrevious": "-1.3%",
      "eventCurrency": "AUD",
      "eventForecast": ""
    },
    {
      "eventDateTime": "2016-04-04T01:30:00",
      "eventActual": "0.2%",
      "eventCountry": "Australia",
      "eventExpectedVolatility": "Low",
      "eventName": "ANZ Job Advertisements (MoM)",
      "eventTimeZone": "GMT",
      "eventPrevious": "-1.2%",
      "eventCurrency": "AUD",
      "eventForecast": ""
    },
    {
      "eventDateTime": "2016-04-04T01:30:00",
      "eventActual": "-11.4%",
      "eventCountry": "Australia",
      "eventExpectedVolatility": "Low",
      "eventName": "ANZ Newspaper Job Ads (MoM) (Mar)",
      "eventTimeZone": "GMT",
      "eventPrevious": "6.9%",
      "eventCurrency": "AUD",
      "eventForecast": ""
    },
    {
      "eventDateTime": "2016-04-04T01:30:00",
      "eventActual": "3.1%",
      "eventCountry": "Australia",
      "eventExpectedVolatility": "Moderate",
      "eventName": "Building Approvals (MoM) (Feb)",
      "eventTimeZone": "GMT",
      "eventPrevious": "-6.6%",
      "eventCurrency": "AUD",
      "eventForecast": "2.0%"
    },
    {
      "eventDateTime": "2016-04-04T01:30:00",
      "eventActual": "-1.2%",
      "eventCountry": "Australia",
      "eventExpectedVolatility": "Low",
      "eventName": "Private House Approvals (Feb)",
      "eventTimeZone": "GMT",
      "eventPrevious": "-6.4%",
      "eventCurrency": "AUD",
      "eventForecast": ""
    },
    {
      "eventDateTime": "2016-04-04T01:30:00",
      "eventActual": "0.0%",
      "eventCountry": "Australia",
      "eventExpectedVolatility": "High",
      "eventName": "Retail Sales (MoM) (Feb)",
      "eventTimeZone": "GMT",
      "eventPrevious": "0.3%",
      "eventCurrency": "AUD",
      "eventForecast": "0.4%"
    },
    {
      "eventDateTime": "2016-04-04T07:30:00",
      "eventActual": "43.4%",
      "eventCountry": "Australia",
      "eventExpectedVolatility": "Moderate",
      "eventName": "Investing.com AUD/USD Index",
      "eventTimeZone": "GMT",
      "eventPrevious": "45.0%",
      "eventCurrency": "AUD",
      "eventForecast": ""
    },
    {
      "eventDateTime": "2016-04-04T23:30:00",
      "eventActual": "49.5",
      "eventCountry": "Australia",
      "eventExpectedVolatility": "Low",
      "eventName": "AIG Services Index (Mar)",
      "eventTimeZone": "GMT",
      "eventPrevious": "51.8",
      "eventCurrency": "AUD",
      "eventForecast": ""
    }
  ]}}
