{"events": {"event": {
    "eventDateTime": "2008-02-18T00:00:00",
    "eventActual": "3.2%",
    "eventCountry": "United Kingdom",
    "eventExpectedVolatility": "Low",
    "eventName": "Rightmove House Price Index (MoM)",
    "eventTimeZone": "GMT",
    "eventPrevious": "-0.8%",
    "eventCurrency": "GBP",
    "eventForecast": "0.0%"
  }}}
