{"events": {"event": {
    "eventDateTime": "2011-06-22T03:00:00",
    "eventActual": "5.1%",
    "eventCountry": "New Zealand",
    "eventExpectedVolatility": "Low",
    "eventName": "Credit Card Spending (YoY)",
    "eventTimeZone": "GMT",
    "eventPrevious": "6.1%",
    "eventCurrency": "NZD",
    "eventForecast": ""
  }}}
