{"events": {"event": [
    {
      "eventDateTime": "2012-03-27T10:00:00",
      "eventActual": "0",
      "eventCountry": "United Kingdom",
      "eventExpectedVolatility": "Low",
      "eventName": "CBI Distributive Trades Survey",
      "eventTimeZone": "GMT",
      "eventPrevious": "-2",
      "eventCurrency": "GBP",
      "eventForecast": "-4"
    },
    {
      "eventDateTime": "2012-03-27T14:30:00",
      "eventActual": "",
      "eventCountry": "United Kingdom",
      "eventExpectedVolatility": "High",
      "eventName": "BoE Gov King Speaks",
      "eventTimeZone": "GMT",
      "eventPrevious": "",
      "eventCurrency": "GBP",
      "eventForecast": ""
    }
  ]}}
