"Non-Oil Exports (MoM) (Jun)";"Singapore";"SGD";"2016-07-18T00:30:00";"GMT";"16.80%";"-10.30%";"-12.90%";"Low"
"Non-Oil Exports (YoY) (Jun)";"Singapore";"SGD";"2016-07-18T00:30:00";"GMT";"11.60%";"-3.00%";"-2.30%";"Low"
"Trade Balance";"Singapore";"SGD";"2016-07-18T00:30:00";"GMT";"6.120B";"";"5.200B";"Low"
