{"events": {"event": [
    {
      "eventDateTime": "2015-12-03T06:30:00",
      "eventActual": "10.6%",
      "eventCountry": "France",
      "eventExpectedVolatility": "Low",
      "eventName": "French Unemployment Rate (Q3)",
      "eventTimeZone": "GMT",
      "eventPrevious": "10.4%",
      "eventCurrency": "EUR",
      "eventForecast": "10.4%"
    },
    {
      "eventDateTime": "2015-12-03T08:15:00",
      "eventActual": "56.7",
      "eventCountry": "Spain",
      "eventExpectedVolatility": "Moderate",
      "eventName": "Spanish Services PMI (Nov)",
      "eventTimeZone": "GMT",
      "eventPrevious": "55.9",
      "eventCurrency": "EUR",
      "eventForecast": "56.6"
    },
    {
      "eventDateTime": "2015-12-03T08:45:00",
      "eventActual": "53.4",
      "eventCountry": "Italy",
      "eventExpectedVolatility": "Moderate",
      "eventName": "Italian Services PMI (Nov)",
      "eventTimeZone": "GMT",
      "eventPrevious": "53.4",
      "eventCurrency": "EUR",
      "eventForecast": "54.0"
    },
    {
      "eventDateTime": "2015-12-03T08:50:00",
      "eventActual": "51.0",
      "eventCountry": "France",
      "eventExpectedVolatility": "Low",
      "eventName": "French Markit Composite PMI (Nov)",
      "eventTimeZone": "GMT",
      "eventPrevious": "51.3",
      "eventCurrency": "EUR",
      "eventForecast": "51.3"
    },
    {
      "eventDateTime": "2015-12-03T08:50:00",
      "eventActual": "51.0",
      "eventCountry": "France",
      "eventExpectedVolatility": "Moderate",
      "eventName": "French Services PMI (Nov)",
      "eventTimeZone": "GMT",
      "eventPrevious": "51.3",
      "eventCurrency": "EUR",
      "eventForecast": "51.3"
    },
    {
      "eventDateTime": "2015-12-03T08:55:00",
      "eventActual": "55.2",
      "eventCountry": "Germany",
      "eventExpectedVolatility": "Low",
      "eventName": "German Composite PMI (Nov)",
      "eventTimeZone": "GMT",
      "eventPrevious": "54.9",
      "eventCurrency": "EUR",
      "eventForecast": "54.9"
    },
    {
      "eventDateTime": "2015-12-03T08:55:00",
      "eventActual": "55.6",
      "eventCountry": "Germany",
      "eventExpectedVolatility": "Moderate",
      "eventName": "German Services PMI (Nov)",
      "eventTimeZone": "GMT",
      "eventPrevious": "55.6",
      "eventCurrency": "EUR",
      "eventForecast": "55.6"
    },
    {
      "eventDateTime": "2015-12-03T09:00:00",
      "eventActual": "54.2",
      "eventCountry": "Euro Zone",
      "eventExpectedVolatility": "Moderate",
      "eventName": "Markit Composite PMI (Nov)",
      "eventTimeZone": "GMT",
      "eventPrevious": "54.4",
      "eventCurrency": "EUR",
      "eventForecast": "54.4"
    },
    {
      "eventDateTime": "2015-12-03T09:00:00",
      "eventActual": "54.2",
      "eventCountry": "Euro Zone",
      "eventExpectedVolatility": "Moderate",
      "eventName": "Services PMI (Nov)",
      "eventTimeZone": "GMT",
      "eventPrevious": "54.6",
      "eventCurrency": "EUR",
      "eventForecast": "54.6"
    },
    {
      "eventDateTime": "2015-12-03T10:00:00",
      "eventActual": "-0.1%",
      "eventCountry": "Euro Zone",
      "eventExpectedVolatility": "Moderate",
      "eventName": "Retail Sales (MoM) (Oct)",
      "eventTimeZone": "GMT",
      "eventPrevious": "-0.1%",
      "eventCurrency": "EUR",
      "eventForecast": "0.2%"
    },
    {
      "eventDateTime": "2015-12-03T10:00:00",
      "eventActual": "2.5%",
      "eventCountry": "Euro Zone",
      "eventExpectedVolatility": "Low",
      "eventName": "Retail Sales (YoY) (Oct)",
      "eventTimeZone": "GMT",
      "eventPrevious": "2.9%",
      "eventCurrency": "EUR",
      "eventForecast": "2.7%"
    },
    {
      "eventDateTime": "2015-12-03T10:00:00",
      "eventActual": "1.461%",
      "eventCountry": "Spain",
      "eventExpectedVolatility": "Moderate",
      "eventName": "Spanish 10-Year Obligacion Auction",
      "eventTimeZone": "GMT",
      "eventPrevious": "1.746%",
      "eventCurrency": "EUR",
      "eventForecast": ""
    },
    {
      "eventDateTime": "2015-12-03T10:00:00",
      "eventActual": "0.437%",
      "eventCountry": "Spain",
      "eventExpectedVolatility": "Low",
      "eventName": "Spanish 5-Year Bonos Auction",
      "eventTimeZone": "GMT",
      "eventPrevious": "0.567%",
      "eventCurrency": "EUR",
      "eventForecast": ""
    },
    {
      "eventDateTime": "2015-12-03T12:45:00",
      "eventActual": "-0.30%",
      "eventCountry": "Euro Zone",
      "eventExpectedVolatility": "High",
      "eventName": "Deposit Facility Rate (Dec)",
      "eventTimeZone": "GMT",
      "eventPrevious": "-0.20%",
      "eventCurrency": "EUR",
      "eventForecast": "-0.30%"
    },
    {
      "eventDateTime": "2015-12-03T12:45:00",
      "eventActual": "0.05%",
      "eventCountry": "Euro Zone",
      "eventExpectedVolatility": "High",
      "eventName": "ECB Interest Rate Decision (Dec)",
      "eventTimeZone": "GMT",
      "eventPrevious": "0.05%",
      "eventCurrency": "EUR",
      "eventForecast": "0.05%"
    },
    {
      "eventDateTime": "2015-12-03T13:30:00",
      "eventActual": "",
      "eventCountry": "Euro Zone",
      "eventExpectedVolatility": "High",
      "eventName": "ECB Press Conference",
      "eventTimeZone": "GMT",
      "eventPrevious": "",
      "eventCurrency": "EUR",
      "eventForecast": ""
    }
  ]}}
