"ECB President Draghi Speaks";"Euro Zone";"EUR";"2014-11-21T08:00:00";"GMT";" ";"";"";"High"
"Italian Wage Inflation (MoM) (Oct)";"Italy";"EUR";"2014-11-21T09:00:00";"GMT";"0.0%";"";"0.1%";"Low"
"Italian Wage Inflation (YoY) (Oct)";"Italy";"EUR";"2014-11-21T09:00:00";"GMT";"1.1%";"";"1.0%";"Low"
"CFTC EUR speculative net positions";"Euro Zone";"EUR";"2014-11-21T20:30:00";"GMT";"-163.9K";"";"-168.7K";"Moderate"
