{"events": {"event": [
    {
      "eventDateTime": "2012-10-01T07:15:00",
      "eventActual": "5.9%",
      "eventCountry": "Switzerland",
      "eventExpectedVolatility": "Moderate",
      "eventName": "Retail Sales (YoY)",
      "eventTimeZone": "GMT",
      "eventPrevious": "2.9%",
      "eventCurrency": "CHF",
      "eventForecast": "4.5%"
    },
    {
      "eventDateTime": "2012-10-01T07:30:00",
      "eventActual": "43.6",
      "eventCountry": "Switzerland",
      "eventExpectedVolatility": "Moderate",
      "eventName": "procure.ch PMI",
      "eventTimeZone": "GMT",
      "eventPrevious": "46.8",
      "eventCurrency": "CHF",
      "eventForecast": "47.5"
    },
    {
      "eventDateTime": "2012-10-01T09:00:00",
      "eventActual": "-0.40%",
      "eventCountry": "Switzerland",
      "eventExpectedVolatility": "Low",
      "eventName": "CPI (YoY) (Sep)",
      "eventTimeZone": "GMT",
      "eventPrevious": "-0.50%",
      "eventCurrency": "CHF",
      "eventForecast": ""
    },
    {
      "eventDateTime": "2012-10-01T09:00:00",
      "eventActual": "99.00",
      "eventCountry": "Switzerland",
      "eventExpectedVolatility": "Moderate",
      "eventName": "KOF Leading Indicators (Sep)",
      "eventTimeZone": "GMT",
      "eventPrevious": "98.30",
      "eventCurrency": "CHF",
      "eventForecast": ""
    },
    {
      "eventDateTime": "2012-10-01T09:00:00",
      "eventActual": "0.30%",
      "eventCountry": "Switzerland",
      "eventExpectedVolatility": "Low",
      "eventName": "PPI (YoY) (Sep)",
      "eventTimeZone": "GMT",
      "eventPrevious": "-0.10%",
      "eventCurrency": "CHF",
      "eventForecast": ""
    },
    {
      "eventDateTime": "2012-10-01T09:00:00",
      "eventActual": "2.80%",
      "eventCountry": "Switzerland",
      "eventExpectedVolatility": "Moderate",
      "eventName": "Unemployment Rate n.s.a. (Sep)",
      "eventTimeZone": "GMT",
      "eventPrevious": "2.80%",
      "eventCurrency": "CHF",
      "eventForecast": ""
    }
  ]}}
