{"events": {"event": {
    "eventDateTime": "2009-04-21T03:30:00",
    "eventActual": "",
    "eventCountry": "Australia",
    "eventExpectedVolatility": "Moderate",
    "eventName": "RBA Governor Stevens Speaks",
    "eventTimeZone": "GMT",
    "eventPrevious": "",
    "eventCurrency": "AUD",
    "eventForecast": ""
  }}}
