{"events": {"event": {
    "eventDateTime": "2016-07-13T11:00:00",
    "eventActual": "4.5%",
    "eventCountry": "South Africa",
    "eventExpectedVolatility": "Low",
    "eventName": "Retail Sales (YoY) (May)",
    "eventTimeZone": "GMT",
    "eventPrevious": "1.6%",
    "eventCurrency": "ZAR",
    "eventForecast": "1.6%"
  }}}
