{"events": {"event": [
    {
      "eventDateTime": "2015-06-01T09:00:00",
      "eventActual": "50.8",
      "eventCountry": "South Africa",
      "eventExpectedVolatility": "Low",
      "eventName": "Manufacturing PMI",
      "eventTimeZone": "GMT",
      "eventPrevious": "45.4",
      "eventCurrency": "ZAR",
      "eventForecast": "46.0"
    },
    {
      "eventDateTime": "2015-06-01T11:30:00",
      "eventActual": "47.87K",
      "eventCountry": "South Africa",
      "eventExpectedVolatility": "Low",
      "eventName": "Total Vehicle Sales (May)",
      "eventTimeZone": "GMT",
      "eventPrevious": "44.50K",
      "eventCurrency": "ZAR",
      "eventForecast": ""
    },
    {
      "eventDateTime": "2015-06-01T11:30:00",
      "eventActual": "-3.20%",
      "eventCountry": "South Africa",
      "eventExpectedVolatility": "Low",
      "eventName": "Total Vehicle Sales (YoY) (May)",
      "eventTimeZone": "GMT",
      "eventPrevious": "-3.30%",
      "eventCurrency": "ZAR",
      "eventForecast": ""
    }
  ]}}
