{"events": {"event": [
    {
      "eventDateTime": "2001-12-01T09:00:00",
      "eventActual": "-17.50%",
      "eventCountry": "New Zealand",
      "eventExpectedVolatility": "Moderate",
      "eventName": "ANZ Business Confidence (Nov)",
      "eventTimeZone": "GMT",
      "eventPrevious": "-18.80%",
      "eventCurrency": "NZD",
      "eventForecast": ""
    },
    {
      "eventDateTime": "2001-12-01T09:00:00",
      "eventActual": "3.80%",
      "eventCountry": "New Zealand",
      "eventExpectedVolatility": "Moderate",
      "eventName": "Building Consents (MoM) (Nov)",
      "eventTimeZone": "GMT",
      "eventPrevious": "7.20%",
      "eventCurrency": "NZD",
      "eventForecast": ""
    },
    {
      "eventDateTime": "2001-12-01T09:00:00",
      "eventActual": "2.67B",
      "eventCountry": "New Zealand",
      "eventExpectedVolatility": "Low",
      "eventName": "Exports (Nov)",
      "eventTimeZone": "GMT",
      "eventPrevious": "2.73B",
      "eventCurrency": "NZD",
      "eventForecast": ""
    },
    {
      "eventDateTime": "2001-12-01T09:00:00",
      "eventActual": "-9.70%",
      "eventCountry": "New Zealand",
      "eventExpectedVolatility": "Low",
      "eventName": "External Migration andamp; Visitors (Nov)",
      "eventTimeZone": "GMT",
      "eventPrevious": "-3.08%",
      "eventCurrency": "NZD",
      "eventForecast": ""
    },
    {
      "eventDateTime": "2001-12-01T09:00:00",
      "eventActual": "0.10%",
      "eventCountry": "New Zealand",
      "eventExpectedVolatility": "Low",
      "eventName": "FPI (MoM) (Nov)",
      "eventTimeZone": "GMT",
      "eventPrevious": "0.20%",
      "eventCurrency": "NZD",
      "eventForecast": ""
    },
    {
      "eventDateTime": "2001-12-01T09:00:00",
      "eventActual": "17.20%",
      "eventCountry": "New Zealand",
      "eventExpectedVolatility": "Low",
      "eventName": "Government Monthly Debt (Nov)",
      "eventTimeZone": "GMT",
      "eventPrevious": "18.20%",
      "eventCurrency": "NZD",
      "eventForecast": ""
    },
    {
      "eventDateTime": "2001-12-01T09:00:00",
      "eventActual": "3.03B",
      "eventCountry": "New Zealand",
      "eventExpectedVolatility": "Low",
      "eventName": "Imports (Nov)",
      "eventTimeZone": "GMT",
      "eventPrevious": "3.01B",
      "eventCurrency": "NZD",
      "eventForecast": ""
    },
    {
      "eventDateTime": "2001-12-01T09:00:00",
      "eventActual": "16.10%",
      "eventCountry": "New Zealand",
      "eventExpectedVolatility": "Low",
      "eventName": "NBNZ Own Activity (Nov)",
      "eventTimeZone": "GMT",
      "eventPrevious": "18.40%",
      "eventCurrency": "NZD",
      "eventForecast": ""
    },
    {
      "eventDateTime": "2001-12-01T09:00:00",
      "eventActual": "2,920.00",
      "eventCountry": "New Zealand",
      "eventExpectedVolatility": "Low",
      "eventName": "Permanent/Long-Term Migration (Nov)",
      "eventTimeZone": "GMT",
      "eventPrevious": "2,820.00",
      "eventCurrency": "NZD",
      "eventForecast": ""
    },
    {
      "eventDateTime": "2001-12-01T09:00:00",
      "eventActual": "4.95%",
      "eventCountry": "New Zealand",
      "eventExpectedVolatility": "High",
      "eventName": "RBNZ Interest Rate Decision (Nov)",
      "eventTimeZone": "GMT",
      "eventPrevious": "5.25%",
      "eventCurrency": "NZD",
      "eventForecast": ""
    },
    {
      "eventDateTime": "2001-12-01T09:00:00",
      "eventActual": "34.80%",
      "eventCountry": "New Zealand",
      "eventExpectedVolatility": "Low",
      "eventName": "RBNZ Offshore Holdings (Nov)",
      "eventTimeZone": "GMT",
      "eventPrevious": "38.80%",
      "eventCurrency": "NZD",
      "eventForecast": ""
    },
    {
      "eventDateTime": "2001-12-01T09:00:00",
      "eventActual": "0.60%",
      "eventCountry": "New Zealand",
      "eventExpectedVolatility": "Low",
      "eventName": "REINZ House Price Index (MoM) (Nov)",
      "eventTimeZone": "GMT",
      "eventPrevious": "-0.20%",
      "eventCurrency": "NZD",
      "eventForecast": ""
    },
    {
      "eventDateTime": "2001-12-01T09:00:00",
      "eventActual": "1.90%",
      "eventCountry": "New Zealand",
      "eventExpectedVolatility": "Low",
      "eventName": "REINZ House Price Index (YoY) (Nov)",
      "eventTimeZone": "GMT",
      "eventPrevious": "2.60%",
      "eventCurrency": "NZD",
      "eventForecast": ""
    },
    {
      "eventDateTime": "2001-12-01T09:00:00",
      "eventActual": "-361.20M",
      "eventCountry": "New Zealand",
      "eventExpectedVolatility": "Moderate",
      "eventName": "Trade Balance (MoM) (Nov)",
      "eventTimeZone": "GMT",
      "eventPrevious": "-282.40M",
      "eventCurrency": "NZD",
      "eventForecast": ""
    },
    {
      "eventDateTime": "2001-12-01T09:00:00",
      "eventActual": "920.00M",
      "eventCountry": "New Zealand",
      "eventExpectedVolatility": "Moderate",
      "eventName": "Trade Balance (YoY) (Nov)",
      "eventTimeZone": "GMT",
      "eventPrevious": "890.00M",
      "eventCurrency": "NZD",
      "eventForecast": ""
    }
  ]}}
