{"events": {"event": {
    "eventDateTime": "2014-07-03T08:30:00",
    "eventActual": "-4.1%",
    "eventCountry": "Hong Kong",
    "eventExpectedVolatility": "Low",
    "eventName": "Retail Sales (YoY)",
    "eventTimeZone": "GMT",
    "eventPrevious": "-9.8%",
    "eventCurrency": "HKD",
    "eventForecast": "-6.4%"
  }}}
