{"events": {"event": [
    {
      "eventDateTime": "2012-09-01T09:00:00",
      "eventActual": "3.90%",
      "eventCountry": "Singapore",
      "eventExpectedVolatility": "Moderate",
      "eventName": "CPI (YoY) (Aug)",
      "eventTimeZone": "GMT",
      "eventPrevious": "4.00%",
      "eventCurrency": "SGD",
      "eventForecast": ""
    },
    {
      "eventDateTime": "2012-09-01T09:00:00",
      "eventActual": "246.20B",
      "eventCountry": "Singapore",
      "eventExpectedVolatility": "Low",
      "eventName": "Foreign Reserves USD (MoM) (Aug)",
      "eventTimeZone": "GMT",
      "eventPrevious": "244.10B",
      "eventCurrency": "SGD",
      "eventForecast": ""
    },
    {
      "eventDateTime": "2012-09-01T09:00:00",
      "eventActual": "-2.40%",
      "eventCountry": "Singapore",
      "eventExpectedVolatility": "Low",
      "eventName": "Industrial Production (MoM) (Aug)",
      "eventTimeZone": "GMT",
      "eventPrevious": "-8.20%",
      "eventCurrency": "SGD",
      "eventForecast": ""
    },
    {
      "eventDateTime": "2012-09-01T09:00:00",
      "eventActual": "-9.10%",
      "eventCountry": "Singapore",
      "eventExpectedVolatility": "Low",
      "eventName": "Non-Oil Exports (MoM) (Aug)",
      "eventTimeZone": "GMT",
      "eventPrevious": "-3.70%",
      "eventCurrency": "SGD",
      "eventForecast": ""
    },
    {
      "eventDateTime": "2012-09-01T09:00:00",
      "eventActual": "-10.70%",
      "eventCountry": "Singapore",
      "eventExpectedVolatility": "Low",
      "eventName": "Non-Oil Exports (YoY) (Aug)",
      "eventTimeZone": "GMT",
      "eventPrevious": "5.70%",
      "eventCurrency": "SGD",
      "eventForecast": ""
    },
    {
      "eventDateTime": "2012-09-01T09:00:00",
      "eventActual": "0.90%",
      "eventCountry": "Singapore",
      "eventExpectedVolatility": "Low",
      "eventName": "Retail Sales (MoM) (Aug)",
      "eventTimeZone": "GMT",
      "eventPrevious": "0.70%",
      "eventCurrency": "SGD",
      "eventForecast": ""
    }
  ]}}
