{"events": {"event": [
    {
      "eventDateTime": "2010-12-31T00:30:00",
      "eventActual": "0.3%",
      "eventCountry": "Australia",
      "eventExpectedVolatility": "Moderate",
      "eventName": "Private Sector Credit (MoM)",
      "eventTimeZone": "GMT",
      "eventPrevious": "0.1%",
      "eventCurrency": "AUD",
      "eventForecast": "0.2%"
    },
    {
      "eventDateTime": "2010-12-31T20:30:00",
      "eventActual": "64.3K",
      "eventCountry": "Australia",
      "eventExpectedVolatility": "Moderate",
      "eventName": "CFTC AUD speculative net positions",
      "eventTimeZone": "GMT",
      "eventPrevious": "60.6K",
      "eventCurrency": "AUD",
      "eventForecast": ""
    }
  ]}}
