{"events": {"event": {
    "eventDateTime": "2011-05-23T05:00:00",
    "eventActual": "",
    "eventCountry": "Japan",
    "eventExpectedVolatility": "Moderate",
    "eventName": "BoJ Monthly Report",
    "eventTimeZone": "GMT",
    "eventPrevious": "",
    "eventCurrency": "JPY",
    "eventForecast": ""
  }}}
