{"events": {"event": {
    "eventDateTime": "2008-09-03T03:00:00",
    "eventActual": "-3.3%",
    "eventCountry": "New Zealand",
    "eventExpectedVolatility": "Low",
    "eventName": "ANZ Commodity Price Index (MoM)",
    "eventTimeZone": "GMT",
    "eventPrevious": "1.8%",
    "eventCurrency": "NZD",
    "eventForecast": ""
  }}}
