{"events": {"event": [
    {
      "eventDateTime": "2001-10-01T09:00:00",
      "eventActual": "0.19%",
      "eventCountry": "South Africa",
      "eventExpectedVolatility": "Moderate",
      "eventName": "CPI (MoM) (Sep)",
      "eventTimeZone": "GMT",
      "eventPrevious": "-0.19%",
      "eventCurrency": "ZAR",
      "eventForecast": ""
    },
    {
      "eventDateTime": "2001-10-01T09:00:00",
      "eventActual": "4.37%",
      "eventCountry": "South Africa",
      "eventExpectedVolatility": "Low",
      "eventName": "CPI (YoY) (Sep)",
      "eventTimeZone": "GMT",
      "eventPrevious": "4.58%",
      "eventCurrency": "ZAR",
      "eventForecast": ""
    },
    {
      "eventDateTime": "2001-10-01T09:00:00",
      "eventActual": "7.71B",
      "eventCountry": "South Africa",
      "eventExpectedVolatility": "Low",
      "eventName": "Foreign Reserves (USD) (Sep)",
      "eventTimeZone": "GMT",
      "eventPrevious": "7.65B",
      "eventCurrency": "ZAR",
      "eventForecast": ""
    },
    {
      "eventDateTime": "2001-10-01T09:00:00",
      "eventActual": "-9.58%",
      "eventCountry": "South Africa",
      "eventExpectedVolatility": "Low",
      "eventName": "Gold Production (YoY) (Sep)",
      "eventTimeZone": "GMT",
      "eventPrevious": "-14.73%",
      "eventCurrency": "ZAR",
      "eventForecast": ""
    },
    {
      "eventDateTime": "2001-10-01T09:00:00",
      "eventActual": "9.50%",
      "eventCountry": "South Africa",
      "eventExpectedVolatility": "Moderate",
      "eventName": "Interest Rate Decision (Sep)",
      "eventTimeZone": "GMT",
      "eventPrevious": "11.00%",
      "eventCurrency": "ZAR",
      "eventForecast": ""
    },
    {
      "eventDateTime": "2001-10-01T09:00:00",
      "eventActual": "15.07%",
      "eventCountry": "South Africa",
      "eventExpectedVolatility": "Low",
      "eventName": "M3 Money Supply (YoY) (Sep)",
      "eventTimeZone": "GMT",
      "eventPrevious": "18.70%",
      "eventCurrency": "ZAR",
      "eventForecast": ""
    },
    {
      "eventDateTime": "2001-10-01T09:00:00",
      "eventActual": "-6.51%",
      "eventCountry": "South Africa",
      "eventExpectedVolatility": "Low",
      "eventName": "Mining Production (Sep)",
      "eventTimeZone": "GMT",
      "eventPrevious": "12.80%",
      "eventCurrency": "ZAR",
      "eventForecast": ""
    },
    {
      "eventDateTime": "2001-10-01T09:00:00",
      "eventActual": "-4.76B",
      "eventCountry": "South Africa",
      "eventExpectedVolatility": "Low",
      "eventName": "Net FX Reserves (USD) (Sep)",
      "eventTimeZone": "GMT",
      "eventPrevious": "-4.84B",
      "eventCurrency": "ZAR",
      "eventForecast": ""
    },
    {
      "eventDateTime": "2001-10-01T09:00:00",
      "eventActual": "13.00%",
      "eventCountry": "South Africa",
      "eventExpectedVolatility": "Low",
      "eventName": "Prime Rate (Sep)",
      "eventTimeZone": "GMT",
      "eventPrevious": "13.50%",
      "eventCurrency": "ZAR",
      "eventForecast": ""
    },
    {
      "eventDateTime": "2001-10-01T09:00:00",
      "eventActual": "9.90%",
      "eventCountry": "South Africa",
      "eventExpectedVolatility": "Low",
      "eventName": "Private Sector Credit (Sep)",
      "eventTimeZone": "GMT",
      "eventPrevious": "10.51%",
      "eventCurrency": "ZAR",
      "eventForecast": ""
    },
    {
      "eventDateTime": "2001-10-01T09:00:00",
      "eventActual": "29.17K",
      "eventCountry": "South Africa",
      "eventExpectedVolatility": "Low",
      "eventName": "Total Vehicle Sales (Sep)",
      "eventTimeZone": "GMT",
      "eventPrevious": "29.78K",
      "eventCurrency": "ZAR",
      "eventForecast": ""
    },
    {
      "eventDateTime": "2001-10-01T09:00:00",
      "eventActual": "-8.40%",
      "eventCountry": "South Africa",
      "eventExpectedVolatility": "Low",
      "eventName": "Total Vehicle Sales (YoY) (Sep)",
      "eventTimeZone": "GMT",
      "eventPrevious": "-3.30%",
      "eventCurrency": "ZAR",
      "eventForecast": ""
    }
  ]}}
