"BRC Retail Sales Monitor (YoY) (Feb)";"United Kingdom";"GBP";"2018-03-06T00:01:00";"GMT";"0.6%";"0.5%";"0.6%";"Moderate"
"30-Year Treasury Gilt Auction";"United Kingdom";"GBP";"2018-03-06T10:35:00";"GMT";"1.806%";"";"1.937%";"Low"
"BoE MPC Member Haldane Speaks";"United Kingdom";"GBP";"2018-03-06T18:15:00";"GMT";" ";"";"";"Moderate"
