"Investing.com EUR/USD Index";"Euro Zone";"EUR";"2019-09-30T05:30:00";"GMT";"41.6%";"";"44.6%";"Moderate"
"German Retail Sales (MoM) (Aug)";"Germany";"EUR";"2019-09-30T06:00:00";"GMT";"-0.8%";"0.5%";"0.5%";"Moderate"
"German Retail Sales (YoY) (Aug)";"Germany";"EUR";"2019-09-30T06:00:00";"GMT";"5.2%";"3.3%";"3.2%";"Low"
"Spanish CPI (MoM)";"Spain";"EUR";"2019-09-30T07:00:00";"GMT";"-0.1%";"";"0.0%";"Low"
"Spanish CPI (YoY)";"Spain";"EUR";"2019-09-30T07:00:00";"GMT";"0.3%";"";"0.1%";"Moderate"
"Spanish GDP (QoQ) (Q2)";"Spain";"EUR";"2019-09-30T07:00:00";"GMT";"0.5%";"0.5%";"0.4%";"Moderate"
"Spanish GDP (YoY) (Q2)";"Spain";"EUR";"2019-09-30T07:00:00";"GMT";"2.4%";"2.3%";"2.0%";"Low"
"Spanish HICP (MoM)";"Spain";"EUR";"2019-09-30T07:00:00";"GMT";"-0.1%";"";"0.0%";"Low"
"Spanish HICP (YoY) (Sep)";"Spain";"EUR";"2019-09-30T07:00:00";"GMT";"0.4%";"0.3%";"0.2%";"Moderate"
"German Unemployment (Sep)";"Germany";"EUR";"2019-09-30T07:55:00";"GMT";"2.286M";"";"2.276M";"Low"
"German Unemployment Change (Sep)";"Germany";"EUR";"2019-09-30T07:55:00";"GMT";"2K";"5K";"-10K";"High"
"German Unemployment Rate (Sep)";"Germany";"EUR";"2019-09-30T07:55:00";"GMT";"5.0%";"5.0%";"5.0%";"Moderate"
"German Unemployment n.s.a. (Sep)";"Germany";"EUR";"2019-09-30T07:55:00";"GMT";"2.319M";"";"2.234M";"Low"
"Italian Monthly Unemployment Rate (Aug)";"Italy";"EUR";"2019-09-30T08:00:00";"GMT";"9.8%";"9.9%";"9.5%";"Low"
"Spanish Current account (Jul)";"Spain";"EUR";"2019-09-30T08:00:00";"GMT";"2.05B";"";"3.24B";"Low"
"Italian CPI (MoM) (Sep)";"Italy";"EUR";"2019-09-30T09:00:00";"GMT";"0.4%";"-0.2%";"-0.5%";"Moderate"
"Italian CPI (YoY) (Sep)";"Italy";"EUR";"2019-09-30T09:00:00";"GMT";"0.4%";"0.6%";"0.4%";"Low"
"Italian HICP (MoM) (Sep)";"Italy";"EUR";"2019-09-30T09:00:00";"GMT";"0.0%";"1.8%";"1.5%";"Low"
"Italian HICP (YoY) (Sep)";"Italy";"EUR";"2019-09-30T09:00:00";"GMT";"0.5%";"0.6%";"0.3%";"Low"
"Unemployment Rate (Aug)";"Euro Zone";"EUR";"2019-09-30T09:00:00";"GMT";"7.5%";"7.5%";"7.4%";"Moderate"
"German CPI (MoM) (Sep)";"Germany";"EUR";"2019-09-30T12:00:00";"GMT";"-0.2%";"0.1%";"0.0%";"Moderate"
"German CPI (YoY) (Sep)";"Germany";"EUR";"2019-09-30T12:00:00";"GMT";"1.4%";"1.3%";"1.2%";"Low"
"German HICP (MoM) (Sep)";"Germany";"EUR";"2019-09-30T12:00:00";"GMT";"-0.1%";"0.1%";"-0.1%";"Low"
"German HICP (YoY) (Sep)";"Germany";"EUR";"2019-09-30T12:00:00";"GMT";"1.0%";"1.0%";"0.9%";"Low"
"French 12-Month BTF Auction";"France";"EUR";"2019-09-30T13:00:00";"GMT";"-0.609%";"";"-0.632%";"Low"
"French 3-Month BTF Auction";"France";"EUR";"2019-09-30T13:00:00";"GMT";"-0.567%";"";"-0.647%";"Low"
"French 6-Month BTF Auction";"France";"EUR";"2019-09-30T13:00:00";"GMT";"-0.591%";"";"-0.614%";"Low"
