{"events": {"event": [
    {
      "eventDateTime": "2018-11-30T04:30:00",
      "eventActual": "",
      "eventCountry": "India",
      "eventExpectedVolatility": "Low",
      "eventName": "RBI Foreign Exchange Reserves Report",
      "eventTimeZone": "GMT",
      "eventPrevious": "",
      "eventCurrency": "INR",
      "eventForecast": ""
    },
    {
      "eventDateTime": "2018-11-30T04:30:00",
      "eventActual": "",
      "eventCountry": "India",
      "eventExpectedVolatility": "Moderate",
      "eventName": "RBI Monetary and Credit Information Review",
      "eventTimeZone": "GMT",
      "eventPrevious": "",
      "eventCurrency": "INR",
      "eventForecast": ""
    },
    {
      "eventDateTime": "2018-11-30T10:00:00",
      "eventActual": "6,485.80B",
      "eventCountry": "India",
      "eventExpectedVolatility": "Low",
      "eventName": "Federal Fiscal Deficit (Oct)",
      "eventTimeZone": "GMT",
      "eventPrevious": "5,947.32B",
      "eventCurrency": "INR",
      "eventForecast": ""
    },
    {
      "eventDateTime": "2018-11-30T11:30:00",
      "eventActual": "392.79B",
      "eventCountry": "India",
      "eventExpectedVolatility": "Low",
      "eventName": "FX Reserves, USD",
      "eventTimeZone": "GMT",
      "eventPrevious": "393.58B",
      "eventCurrency": "INR",
      "eventForecast": ""
    },
    {
      "eventDateTime": "2018-11-30T12:00:00",
      "eventActual": "7.1%",
      "eventCountry": "India",
      "eventExpectedVolatility": "Moderate",
      "eventName": "GDP Quarterly (YoY) (Q2)",
      "eventTimeZone": "GMT",
      "eventPrevious": "8.2%",
      "eventCurrency": "INR",
      "eventForecast": "7.4%"
    },
    {
      "eventDateTime": "2018-11-30T12:00:00",
      "eventActual": "4.8%",
      "eventCountry": "India",
      "eventExpectedVolatility": "Low",
      "eventName": "Infrastructure Output (YoY) (Oct)",
      "eventTimeZone": "GMT",
      "eventPrevious": "4.3%",
      "eventCurrency": "INR",
      "eventForecast": ""
    }
  ]}}
