"Auto Production (MoM) (Sep)";"Brazil";"BRL";"2011-10-01T09:00:00";"GMT";"5.64%";"";"-19.95%";"Low"
"Auto Sales (MoM) (Sep)";"Brazil";"BRL";"2011-10-01T09:00:00";"GMT";"6.98%";"";"-4.87%";"Low"
"Bank lending (MoM) (Sep)";"Brazil";"BRL";"2011-10-01T09:00:00";"GMT";"1.78%";"";"2.17%";"Low"
"Budget Balance (Sep)";"Brazil";"BRL";"2011-10-01T09:00:00";"GMT";"-17.10B";"";"-9.17B";"Low"
"Budget Surplus (Sep)";"Brazil";"BRL";"2011-10-01T09:00:00";"GMT";"4.56B";"";"8.10B";"Low"
"CAGED Net Payroll Jobs (Sep)";"Brazil";"BRL";"2011-10-01T09:00:00";"GMT";"190.00K";"";"209.00K";"Moderate"
"CNI Factory Utilization (Sep)";"Brazil";"BRL";"2011-10-01T09:00:00";"GMT";"83.40%";"";"83.00%";"Low"
"CPI (MoM) (Sep)";"Brazil";"BRL";"2011-10-01T09:00:00";"GMT";"0.37%";"";"0.53%";"Moderate"
"Debt-to-GDP ratio (Sep)";"Brazil";"BRL";"2011-10-01T09:00:00";"GMT";"36.50%";"";"34.60%";"Low"
"FGV Consumer confidence (Sep)";"Brazil";"BRL";"2011-10-01T09:00:00";"GMT";"118.70";"";"114.70";"Low"
"Federal Tax Revenue (Sep)";"Brazil";"BRL";"2011-10-01T09:00:00";"GMT";"75.00B";"";"75.00B";"Low"
"Foreign direct investment (USD) (Sep)";"Brazil";"BRL";"2011-10-01T09:00:00";"GMT";"5.60B";"";"6.31B";"Low"
"IBC-Br Economic Activity (Sep)";"Brazil";"BRL";"2011-10-01T09:00:00";"GMT";"-0.61%";"";"-0.22%";"Low"
"IGP-DI Inflation Index (MoM) (Sep)";"Brazil";"BRL";"2011-10-01T09:00:00";"GMT";"0.61%";"";"0.75%";"Low"
"IGP-M Inflation Index (MoM) (Sep)";"Brazil";"BRL";"2011-10-01T09:00:00";"GMT";"0.44%";"";"0.65%";"Low"
"IPC-Fipe Inflation Index (MoM) (Sep)";"Brazil";"BRL";"2011-10-01T09:00:00";"GMT";"0.39%";"";"0.25%";"Moderate"
"Industrial Production (MoM) (Sep)";"Brazil";"BRL";"2011-10-01T09:00:00";"GMT";"-2.13%";"";"-0.99%";"Low"
"Mid-Month CPI (MoM) (Sep)";"Brazil";"BRL";"2011-10-01T09:00:00";"GMT";"0.27%";"";"0.53%";"Low"
"Mid-Month CPI (YoY) (Sep)";"Brazil";"BRL";"2011-10-01T09:00:00";"GMT";"7.10%";"";"7.33%";"Low"
"Retail Sales (MoM) (Sep)";"Brazil";"BRL";"2011-10-01T09:00:00";"GMT";"-0.10%";"";"0.60%";"Moderate"
