"Central Bank reserves (USD)";"Russia";"RUB";"2019-01-24T13:00:00";"GMT";"472.6B";"";"469.6B";"Moderate"
"PPI (MoM)";"Russia";"RUB";"2019-01-24T13:00:00";"GMT";"0.7%";"-1.5%";"-3.3%";"Low"
"PPI (YoY)";"Russia";"RUB";"2019-01-24T13:00:00";"GMT";"16.8%";"13.8%";"11.7%";"Low"
