{"events": {"event": [
    {
      "eventDateTime": "2011-10-17T12:30:00",
      "eventActual": "7.92B",
      "eventCountry": "Canada",
      "eventExpectedVolatility": "Moderate",
      "eventName": "Foreign Securities Purchases",
      "eventTimeZone": "GMT",
      "eventPrevious": "12.13B",
      "eventCurrency": "CAD",
      "eventForecast": "9.23B"
    },
    {
      "eventDateTime": "2011-10-17T12:30:00",
      "eventActual": "-0.4%",
      "eventCountry": "Canada",
      "eventExpectedVolatility": "Low",
      "eventName": "New Motor Vehicle Sales (MoM)",
      "eventTimeZone": "GMT",
      "eventPrevious": "-6.2%",
      "eventCurrency": "CAD",
      "eventForecast": "2.3%"
    }
  ]}}
