{"events": {"event": {
    "eventDateTime": "2013-11-26T08:30:00",
    "eventActual": "-38.5B",
    "eventCountry": "Hong Kong",
    "eventExpectedVolatility": "Low",
    "eventName": "Trade Balance",
    "eventTimeZone": "GMT",
    "eventPrevious": "-42.0B",
    "eventCurrency": "HKD",
    "eventForecast": "-40.0B"
  }}}
