{"events": {"event": [
    {
      "eventDateTime": "2018-10-31T00:01:00",
      "eventActual": "-0.2%",
      "eventCountry": "United Kingdom",
      "eventExpectedVolatility": "Low",
      "eventName": "BRC Shop Price Index (YoY)",
      "eventTimeZone": "GMT",
      "eventPrevious": "0.2%",
      "eventCurrency": "GBP",
      "eventForecast": ""
    },
    {
      "eventDateTime": "2018-10-31T00:01:00",
      "eventActual": "-10",
      "eventCountry": "United Kingdom",
      "eventExpectedVolatility": "Low",
      "eventName": "GfK Consumer Confidence (Oct)",
      "eventTimeZone": "GMT",
      "eventPrevious": "-9",
      "eventCurrency": "GBP",
      "eventForecast": "-10"
    }
  ]}}
