"Budget Balance % of GDP (Dec)";"Russia";"RUB";"2005-01-01T09:00:00";"GMT";"5.20%";"";"4.40%";"Low"
"CPI (MoM) (Dec)";"Russia";"RUB";"2005-01-01T09:00:00";"GMT";"1.20%";"";"1.10%";"Moderate"
"CPI (YoY) (Dec)";"Russia";"RUB";"2005-01-01T09:00:00";"GMT";"11.70%";"";"11.70%";"Moderate"
"Central Bank reserves (USD) (Dec)";"Russia";"RUB";"2005-01-01T09:00:00";"GMT";"121.60B";"";"124.50B";"Moderate"
"Industrial Production (YoY) (Dec)";"Russia";"RUB";"2005-01-01T09:00:00";"GMT";"9.10%";"";"6.90%";"Low"
"Interest Rate Decision (Dec)";"Russia";"RUB";"2005-01-01T09:00:00";"GMT";"6.50%";"";"6.50%";"High"
"PPI (MoM) (Dec)";"Russia";"RUB";"2005-01-01T09:00:00";"GMT";"2.00%";"";"0.10%";"Low"
"Trade Balance (Dec)";"Russia";"RUB";"2005-01-01T09:00:00";"GMT";"8.37B";"";"8.06B";"Low"
"Unemployment Rate (Dec)";"Russia";"RUB";"2005-01-01T09:00:00";"GMT";"8.40%";"";"8.30%";"Moderate"
