{"events": {"event": {
    "eventDateTime": "2009-07-17T20:30:00",
    "eventActual": "-0.3K",
    "eventCountry": "Russia",
    "eventExpectedVolatility": "Moderate",
    "eventName": "CFTC RUB speculative positions",
    "eventTimeZone": "GMT",
    "eventPrevious": "-0.3K",
    "eventCurrency": "RUB",
    "eventForecast": ""
  }}}
