"Bank Lending (Jul)";"Singapore";"SGD";"2010-08-01T09:00:00";"GMT";"296.60B";"";"298.70B";"Low"
"CPI (YoY) (Jul)";"Singapore";"SGD";"2010-08-01T09:00:00";"GMT";"2.71%";"";"3.14%";"Moderate"
"Foreign Reserves USD (MoM) (Jul)";"Singapore";"SGD";"2010-08-01T09:00:00";"GMT";"200.00B";"";"206.90B";"Low"
"Industrial Production (MoM) (Jul)";"Singapore";"SGD";"2010-08-01T09:00:00";"GMT";"-21.80%";"";"2.90%";"Low"
"Industrial Production (YoY) (Jul)";"Singapore";"SGD";"2010-08-01T09:00:00";"GMT";"28.40%";"";"9.30%";"Low"
"Manufacturing PMI (Jul)";"Singapore";"SGD";"2010-08-01T09:00:00";"GMT";"51.30";"";"52.20";"Low"
"Non-Oil Exports (MoM) (Jul)";"Singapore";"SGD";"2010-08-01T09:00:00";"GMT";"-0.10%";"";"-3.90%";"Low"
"Non-Oil Exports (YoY) (Jul)";"Singapore";"SGD";"2010-08-01T09:00:00";"GMT";"28.40%";"";"18.20%";"Low"
"Retail Sales (MoM) (Jul)";"Singapore";"SGD";"2010-08-01T09:00:00";"GMT";"0.10%";"";"2.50%";"Low"
