{"events": {"event": {
    "eventDateTime": "2019-09-02T06:00:00",
    "eventActual": "49.1",
    "eventCountry": "Russia",
    "eventExpectedVolatility": "Moderate",
    "eventName": "Markit Manufacturing PMI (Aug)",
    "eventTimeZone": "GMT",
    "eventPrevious": "49.3",
    "eventCurrency": "RUB",
    "eventForecast": ""
  }}}
