"Bank Loan Growth (Feb)";"India";"INR";"2007-03-01T09:00:00";"GMT";"30.13%";"";"29.55%";"Low"
"Cash Reserve Ratio (Feb)";"India";"INR";"2007-03-01T09:00:00";"GMT";"5.45%";"";"5.60%";"Low"
"Cumulative Industrial Production (Feb)";"India";"INR";"2007-03-01T09:00:00";"GMT";"11.20%";"";"11.20%";"Low"
"Deposit Growth (Feb)";"India";"INR";"2007-03-01T09:00:00";"GMT";"23.09%";"";"24.42%";"Low"
"Exports (USD) (Feb)";"India";"INR";"2007-03-01T09:00:00";"GMT";"10.97B";"";"10.56B";"Low"
"FX Reserves, USD (Feb)";"India";"INR";"2007-03-01T09:00:00";"GMT";"180.05B";"";"194.63B";"Low"
"Federal Fiscal Deficit (Feb)";"India";"INR";"2007-03-01T09:00:00";"GMT";"1,110.36B";"";"1,218.17B";"Low"
"Imports (USD) (Feb)";"India";"INR";"2007-03-01T09:00:00";"GMT";"14.45B";"";"14.48B";"Low"
"Industrial Production (YoY) (Feb)";"India";"INR";"2007-03-01T09:00:00";"GMT";"13.80%";"";"13.70%";"Low"
"Infrastructure Output (YoY) (Feb)";"India";"INR";"2007-03-01T09:00:00";"GMT";"7.99%";"";"7.49%";"Low"
"Interest Rate Decision (Feb)";"India";"INR";"2007-03-01T09:00:00";"GMT";"7.26%";"";"7.50%";"High"
"M3 Money Supply (Feb)";"India";"INR";"2007-03-01T09:00:00";"GMT";"21.36%";"";"22.18%";"Low"
"Manufacturing Output (MoM) (Feb)";"India";"INR";"2007-03-01T09:00:00";"GMT";"15.60%";"";"16.00%";"Low"
"Reverse REPO Rate (Feb)";"India";"INR";"2007-03-01T09:00:00";"GMT";"6.00%";"";"6.00%";"Low"
"Trade Balance (Feb)";"India";"INR";"2007-03-01T09:00:00";"GMT";"-3.48B";"";"-3.92B";"Low"
"WPI Food (YoY) (Feb)";"India";"INR";"2007-03-01T09:00:00";"GMT";"11.40%";"";"12.30%";"Low"
"WPI Fuel (YoY) (Feb)";"India";"INR";"2007-03-01T09:00:00";"GMT";"3.60%";"";"2.00%";"Low"
"WPI Inflation (YoY) (Feb)";"India";"INR";"2007-03-01T09:00:00";"GMT";"6.64%";"";"6.63%";"Moderate"
"WPI Manufacturing Inflation (YoY) (Feb)";"India";"INR";"2007-03-01T09:00:00";"GMT";"6.73%";"";"6.40%";"Low"
