"BoC Interest Rate Decision (Nov)";"Canada";"CAD";"2004-12-01T09:00:00";"GMT";"2.50%";"";"2.50%";"High"
"Budget Balance (Nov)";"Canada";"CAD";"2004-12-01T09:00:00";"GMT";"1.02B";"";"1.69B";"Low"
"Building Permits (MoM) (Nov)";"Canada";"CAD";"2004-12-01T09:00:00";"GMT";"7.10%";"";"7.00%";"Moderate"
"CPI (MoM) (Nov)";"Canada";"CAD";"2004-12-01T09:00:00";"GMT";"0.20%";"";"0.40%";"Moderate"
"CPI (YoY) (Nov)";"Canada";"CAD";"2004-12-01T09:00:00";"GMT";"2.30%";"";"2.40%";"Low"
"Core CPI (MoM) (Nov)";"Canada";"CAD";"2004-12-01T09:00:00";"GMT";"0.00%";"";"0.60%";"High"
"Core CPI (YoY) (Nov)";"Canada";"CAD";"2004-12-01T09:00:00";"GMT";"1.40%";"";"1.70%";"Moderate"
"Core Retail Sales (MoM) (Nov)";"Canada";"CAD";"2004-12-01T09:00:00";"GMT";"0.90%";"";"1.40%";"High"
"Employment Change (Nov)";"Canada";"CAD";"2004-12-01T09:00:00";"GMT";"15.40K";"";"18.50K";"High"
"Exports (Nov)";"Canada";"CAD";"2004-12-01T09:00:00";"GMT";"35.77B";"";"34.85B";"Low"
"Foreign Securities Purchases (Nov)";"Canada";"CAD";"2004-12-01T09:00:00";"GMT";"2.14B";"";"9.74B";"Moderate"
"Foreign Securities Purchases by Canadians (Nov)";"Canada";"CAD";"2004-12-01T09:00:00";"GMT";"3.08B";"";"6.07B";"Low"
"Full Employment Change (Nov)";"Canada";"CAD";"2004-12-01T09:00:00";"GMT";"6.20K";"";"-3.80K";"Low"
"GDP (MoM) (Nov)";"Canada";"CAD";"2004-12-01T09:00:00";"GMT";"0.00%";"";"0.40%";"High"
"Housing Starts (Nov)";"Canada";"CAD";"2004-12-01T09:00:00";"GMT";"239.30K";"";"246.40K";"Moderate"
"IPPI (MoM) (Nov)";"Canada";"CAD";"2004-12-01T09:00:00";"GMT";"-0.50%";"";"-1.90%";"Low"
"IPPI (YoY) (Nov)";"Canada";"CAD";"2004-12-01T09:00:00";"GMT";"5.50%";"";"4.00%";"Low"
"Imports (Nov)";"Canada";"CAD";"2004-12-01T09:00:00";"GMT";"30.93B";"";"30.20B";"Low"
"Ivey PMI n.s.a (Nov)";"Canada";"CAD";"2004-12-01T09:00:00";"GMT";"56.50";"";"58.70";"Low"
"Manufacturing Sales (MoM) (Nov)";"Canada";"CAD";"2004-12-01T09:00:00";"GMT";"0.60%";"";"-1.50%";"Moderate"
"New Housing Price Index (MoM) (Nov)";"Canada";"CAD";"2004-12-01T09:00:00";"GMT";"0.20%";"";"0.40%";"Moderate"
"Part Time Employment Change (Nov)";"Canada";"CAD";"2004-12-01T09:00:00";"GMT";"9.20K";"";"22.30K";"Low"
"Participation Rate (Nov)";"Canada";"CAD";"2004-12-01T09:00:00";"GMT";"67.40%";"";"67.50%";"Low"
"RMPI (MoM) (Nov)";"Canada";"CAD";"2004-12-01T09:00:00";"GMT";"4.30%";"";"-5.30%";"Moderate"
"RMPI (YoY) (Nov)";"Canada";"CAD";"2004-12-01T09:00:00";"GMT";"29.20%";"";"20.40%";"Low"
"Retail Sales (MoM) (Nov)";"Canada";"CAD";"2004-12-01T09:00:00";"GMT";"1.10%";"";"1.10%";"Moderate"
"Trade Balance (Nov)";"Canada";"CAD";"2004-12-01T09:00:00";"GMT";"4.84B";"";"4.65B";"Moderate"
"Unemployment Rate (Nov)";"Canada";"CAD";"2004-12-01T09:00:00";"GMT";"7.10%";"";"7.20%";"Moderate"
"Wholesale Sales (MoM) (Nov)";"Canada";"CAD";"2004-12-01T09:00:00";"GMT";"-0.40%";"";"1.40%";"Moderate"
