{"events": {"event": [
    {
      "eventDateTime": "2002-02-01T09:00:00",
      "eventActual": "-1.14",
      "eventCountry": "Euro Zone",
      "eventExpectedVolatility": "Low",
      "eventName": "Business Climate (Jan)",
      "eventTimeZone": "GMT",
      "eventPrevious": "-1.00",
      "eventCurrency": "EUR",
      "eventForecast": ""
    },
    {
      "eventDateTime": "2002-02-01T09:00:00",
      "eventActual": "95.90",
      "eventCountry": "Euro Zone",
      "eventExpectedVolatility": "Low",
      "eventName": "Business and Consumer Survey (Jan)",
      "eventTimeZone": "GMT",
      "eventPrevious": "92.70",
      "eventCurrency": "EUR",
      "eventForecast": ""
    },
    {
      "eventDateTime": "2002-02-01T09:00:00",
      "eventActual": "0.10%",
      "eventCountry": "Euro Zone",
      "eventExpectedVolatility": "Moderate",
      "eventName": "CPI (MoM) (Jan)",
      "eventTimeZone": "GMT",
      "eventPrevious": "0.50%",
      "eventCurrency": "EUR",
      "eventForecast": ""
    },
    {
      "eventDateTime": "2002-02-01T09:00:00",
      "eventActual": "2.50%",
      "eventCountry": "Euro Zone",
      "eventExpectedVolatility": "High",
      "eventName": "CPI (YoY) (Jan)",
      "eventTimeZone": "GMT",
      "eventPrevious": "2.00%",
      "eventCurrency": "EUR",
      "eventForecast": ""
    },
    {
      "eventDateTime": "2002-02-01T09:00:00",
      "eventActual": "0.04%",
      "eventCountry": "Euro Zone",
      "eventExpectedVolatility": "Low",
      "eventName": "CPI ex Tobacco (MoM) (Jan)",
      "eventTimeZone": "GMT",
      "eventPrevious": "0.46%",
      "eventCurrency": "EUR",
      "eventForecast": ""
    },
    {
      "eventDateTime": "2002-02-01T09:00:00",
      "eventActual": "2.53%",
      "eventCountry": "Euro Zone",
      "eventExpectedVolatility": "Low",
      "eventName": "CPI ex Tobacco (YoY) (Jan)",
      "eventTimeZone": "GMT",
      "eventPrevious": "2.03%",
      "eventCurrency": "EUR",
      "eventForecast": ""
    },
    {
      "eventDateTime": "2002-02-01T09:00:00",
      "eventActual": "-10.10",
      "eventCountry": "Euro Zone",
      "eventExpectedVolatility": "Low",
      "eventName": "Consumer Confidence (Jan)",
      "eventTimeZone": "GMT",
      "eventPrevious": "-11.20",
      "eventCurrency": "EUR",
      "eventForecast": ""
    },
    {
      "eventDateTime": "2002-02-01T09:00:00",
      "eventActual": "28.30",
      "eventCountry": "Euro Zone",
      "eventExpectedVolatility": "Low",
      "eventName": "Consumer Inflation Expectation (Jan)",
      "eventTimeZone": "GMT",
      "eventPrevious": "32.40",
      "eventCurrency": "EUR",
      "eventForecast": ""
    },
    {
      "eventDateTime": "2002-02-01T09:00:00",
      "eventActual": "-0.50%",
      "eventCountry": "Euro Zone",
      "eventExpectedVolatility": "Low",
      "eventName": "Core CPI (MoM) (Jan)",
      "eventTimeZone": "GMT",
      "eventPrevious": "0.60%",
      "eventCurrency": "EUR",
      "eventForecast": ""
    },
    {
      "eventDateTime": "2002-02-01T09:00:00",
      "eventActual": "2.40%",
      "eventCountry": "Euro Zone",
      "eventExpectedVolatility": "Moderate",
      "eventName": "Core CPI (YoY) (Jan)",
      "eventTimeZone": "GMT",
      "eventPrevious": "2.20%",
      "eventCurrency": "EUR",
      "eventForecast": ""
    },
    {
      "eventDateTime": "2002-02-01T09:00:00",
      "eventActual": "-2.10B",
      "eventCountry": "Euro Zone",
      "eventExpectedVolatility": "Low",
      "eventName": "Current Account n.s.a. (Jan)",
      "eventTimeZone": "GMT",
      "eventPrevious": "10.30B",
      "eventCurrency": "EUR",
      "eventForecast": ""
    },
    {
      "eventDateTime": "2002-02-01T09:00:00",
      "eventActual": "3.25%",
      "eventCountry": "Euro Zone",
      "eventExpectedVolatility": "High",
      "eventName": "ECB Interest Rate Decision (Jan)",
      "eventTimeZone": "GMT",
      "eventPrevious": "3.25%",
      "eventCurrency": "EUR",
      "eventForecast": ""
    },
    {
      "eventDateTime": "2002-02-01T09:00:00",
      "eventActual": "94.00",
      "eventCountry": "France",
      "eventExpectedVolatility": "Low",
      "eventName": "French Business Survey (Jan)",
      "eventTimeZone": "GMT",
      "eventPrevious": "93.00",
      "eventCurrency": "EUR",
      "eventForecast": ""
    },
    {
      "eventDateTime": "2002-02-01T09:00:00",
      "eventActual": "0.30%",
      "eventCountry": "France",
      "eventExpectedVolatility": "Moderate",
      "eventName": "French CPI (MoM) (Jan)",
      "eventTimeZone": "GMT",
      "eventPrevious": "0.10%",
      "eventCurrency": "EUR",
      "eventForecast": ""
    },
    {
      "eventDateTime": "2002-02-01T09:00:00",
      "eventActual": "111.00",
      "eventCountry": "France",
      "eventExpectedVolatility": "Low",
      "eventName": "French Consumer Confidence (Jan)",
      "eventTimeZone": "GMT",
      "eventPrevious": "111.00",
      "eventCurrency": "EUR",
      "eventForecast": ""
    },
    {
      "eventDateTime": "2002-02-01T09:00:00",
      "eventActual": "-2.70%",
      "eventCountry": "France",
      "eventExpectedVolatility": "Moderate",
      "eventName": "French Consumer Spending (MoM) (Jan)",
      "eventTimeZone": "GMT",
      "eventPrevious": "1.50%",
      "eventCurrency": "EUR",
      "eventForecast": ""
    },
    {
      "eventDateTime": "2002-02-01T09:00:00",
      "eventActual": "27.50B",
      "eventCountry": "France",
      "eventExpectedVolatility": "Low",
      "eventName": "French Exports (Jan)",
      "eventTimeZone": "GMT",
      "eventPrevious": "26.56B",
      "eventCurrency": "EUR",
      "eventForecast": ""
    },
    {
      "eventDateTime": "2002-02-01T09:00:00",
      "eventActual": "-6.05B",
      "eventCountry": "France",
      "eventExpectedVolatility": "Low",
      "eventName": "French Government Budget Balance (Jan)",
      "eventTimeZone": "GMT",
      "eventPrevious": "-32.05B",
      "eventCurrency": "EUR",
      "eventForecast": ""
    },
    {
      "eventDateTime": "2002-02-01T09:00:00",
      "eventActual": "0.60%",
      "eventCountry": "France",
      "eventExpectedVolatility": "Moderate",
      "eventName": "French HICP (MoM) (Jan)",
      "eventTimeZone": "GMT",
      "eventPrevious": "0.10%",
      "eventCurrency": "EUR",
      "eventForecast": ""
    },
    {
      "eventDateTime": "2002-02-01T09:00:00",
      "eventActual": "2.48%",
      "eventCountry": "France",
      "eventExpectedVolatility": "Low",
      "eventName": "French HICP (YoY) (Jan)",
      "eventTimeZone": "GMT",
      "eventPrevious": "1.43%",
      "eventCurrency": "EUR",
      "eventForecast": ""
    },
    {
      "eventDateTime": "2002-02-01T09:00:00",
      "eventActual": "27.48B",
      "eventCountry": "France",
      "eventExpectedVolatility": "Low",
      "eventName": "French Imports (Jan)",
      "eventTimeZone": "GMT",
      "eventPrevious": "27.22B",
      "eventCurrency": "EUR",
      "eventForecast": ""
    },
    {
      "eventDateTime": "2002-02-01T09:00:00",
      "eventActual": "-0.20%",
      "eventCountry": "France",
      "eventExpectedVolatility": "Low",
      "eventName": "French Industrial Production (MoM) (Jan)",
      "eventTimeZone": "GMT",
      "eventPrevious": "0.60%",
      "eventCurrency": "EUR",
      "eventForecast": ""
    },
    {
      "eventDateTime": "2002-02-01T09:00:00",
      "eventActual": "0.10%",
      "eventCountry": "France",
      "eventExpectedVolatility": "Low",
      "eventName": "French PPI (MoM) (Jan)",
      "eventTimeZone": "GMT",
      "eventPrevious": "-0.10%",
      "eventCurrency": "EUR",
      "eventForecast": ""
    },
    {
      "eventDateTime": "2002-02-01T09:00:00",
      "eventActual": "0.00B",
      "eventCountry": "France",
      "eventExpectedVolatility": "Low",
      "eventName": "French Trade Balance (Jan)",
      "eventTimeZone": "GMT",
      "eventPrevious": "-0.70B",
      "eventCurrency": "EUR",
      "eventForecast": ""
    },
    {
      "eventDateTime": "2002-02-01T09:00:00",
      "eventActual": "92.70",
      "eventCountry": "Germany",
      "eventExpectedVolatility": "Moderate",
      "eventName": "German Business Expectations (Jan)",
      "eventTimeZone": "GMT",
      "eventPrevious": "94.10",
      "eventCurrency": "EUR",
      "eventForecast": ""
    },
    {
      "eventDateTime": "2002-02-01T09:00:00",
      "eventActual": "0.10%",
      "eventCountry": "Germany",
      "eventExpectedVolatility": "Moderate",
      "eventName": "German CPI (MoM) (Jan)",
      "eventTimeZone": "GMT",
      "eventPrevious": "0.90%",
      "eventCurrency": "EUR",
      "eventForecast": ""
    },
    {
      "eventDateTime": "2002-02-01T09:00:00",
      "eventActual": "2.10%",
      "eventCountry": "Germany",
      "eventExpectedVolatility": "Low",
      "eventName": "German CPI (YoY) (Jan)",
      "eventTimeZone": "GMT",
      "eventPrevious": "1.60%",
      "eventCurrency": "EUR",
      "eventForecast": ""
    },
    {
      "eventDateTime": "2002-02-01T09:00:00",
      "eventActual": "92.00",
      "eventCountry": "Germany",
      "eventExpectedVolatility": "Moderate",
      "eventName": "German Current Assessment (Jan)",
      "eventTimeZone": "GMT",
      "eventPrevious": "92.00",
      "eventCurrency": "EUR",
      "eventForecast": ""
    },
    {
      "eventDateTime": "2002-02-01T09:00:00",
      "eventActual": "-4.24%",
      "eventCountry": "Germany",
      "eventExpectedVolatility": "Low",
      "eventName": "German Exports (MoM) (Jan)",
      "eventTimeZone": "GMT",
      "eventPrevious": "4.41%",
      "eventCurrency": "EUR",
      "eventForecast": ""
    },
    {
      "eventDateTime": "2002-02-01T09:00:00",
      "eventActual": "-2.00%",
      "eventCountry": "Germany",
      "eventExpectedVolatility": "Moderate",
      "eventName": "German Factory Orders (MoM) (Jan)",
      "eventTimeZone": "GMT",
      "eventPrevious": "4.50%",
      "eventCurrency": "EUR",
      "eventForecast": ""
    },
    {
      "eventDateTime": "2002-02-01T09:00:00",
      "eventActual": "0.10%",
      "eventCountry": "Germany",
      "eventExpectedVolatility": "Low",
      "eventName": "German HICP (MoM) (Jan)",
      "eventTimeZone": "GMT",
      "eventPrevious": "1.20%",
      "eventCurrency": "EUR",
      "eventForecast": ""
    },
    {
      "eventDateTime": "2002-02-01T09:00:00",
      "eventActual": "2.20%",
      "eventCountry": "Germany",
      "eventExpectedVolatility": "Low",
      "eventName": "German HICP (YoY) (Jan)",
      "eventTimeZone": "GMT",
      "eventPrevious": "1.40%",
      "eventCurrency": "EUR",
      "eventForecast": ""
    },
    {
      "eventDateTime": "2002-02-01T09:00:00",
      "eventActual": "0.30%",
      "eventCountry": "Germany",
      "eventExpectedVolatility": "Low",
      "eventName": "German Import Price Index (MoM) (Jan)",
      "eventTimeZone": "GMT",
      "eventPrevious": "-0.20%",
      "eventCurrency": "EUR",
      "eventForecast": ""
    },
    {
      "eventDateTime": "2002-02-01T09:00:00",
      "eventActual": "-2.70%",
      "eventCountry": "Germany",
      "eventExpectedVolatility": "Low",
      "eventName": "German Import Price Index (YoY) (Jan)",
      "eventTimeZone": "GMT",
      "eventPrevious": "-3.70%",
      "eventCurrency": "EUR",
      "eventForecast": ""
    },
    {
      "eventDateTime": "2002-02-01T09:00:00",
      "eventActual": "-5.10%",
      "eventCountry": "Germany",
      "eventExpectedVolatility": "Low",
      "eventName": "German Imports (MoM) (Jan)",
      "eventTimeZone": "GMT",
      "eventPrevious": "-2.20%",
      "eventCurrency": "EUR",
      "eventForecast": ""
    },
    {
      "eventDateTime": "2002-02-01T09:00:00",
      "eventActual": "-0.40%",
      "eventCountry": "Germany",
      "eventExpectedVolatility": "Moderate",
      "eventName": "German Industrial Production (MoM) (Jan)",
      "eventTimeZone": "GMT",
      "eventPrevious": "0.70%",
      "eventCurrency": "EUR",
      "eventForecast": ""
    },
    {
      "eventDateTime": "2002-02-01T09:00:00",
      "eventActual": "0.50%",
      "eventCountry": "Germany",
      "eventExpectedVolatility": "Moderate",
      "eventName": "German PPI (MoM) (Jan)",
      "eventTimeZone": "GMT",
      "eventPrevious": "-0.20%",
      "eventCurrency": "EUR",
      "eventForecast": ""
    },
    {
      "eventDateTime": "2002-02-01T09:00:00",
      "eventActual": "-0.20%",
      "eventCountry": "Germany",
      "eventExpectedVolatility": "Low",
      "eventName": "German PPI (YoY) (Jan)",
      "eventTimeZone": "GMT",
      "eventPrevious": "0.10%",
      "eventCurrency": "EUR",
      "eventForecast": ""
    },
    {
      "eventDateTime": "2002-02-01T09:00:00",
      "eventActual": "-2.20%",
      "eventCountry": "Germany",
      "eventExpectedVolatility": "Moderate",
      "eventName": "German Retail Sales (MoM) (Jan)",
      "eventTimeZone": "GMT",
      "eventPrevious": "-2.20%",
      "eventCurrency": "EUR",
      "eventForecast": ""
    },
    {
      "eventDateTime": "2002-02-01T09:00:00",
      "eventActual": "-4.90%",
      "eventCountry": "Germany",
      "eventExpectedVolatility": "Low",
      "eventName": "German Retail Sales (YoY) (Jan)",
      "eventTimeZone": "GMT",
      "eventPrevious": "-1.70%",
      "eventCurrency": "EUR",
      "eventForecast": ""
    },
    {
      "eventDateTime": "2002-02-01T09:00:00",
      "eventActual": "10.70B",
      "eventCountry": "Germany",
      "eventExpectedVolatility": "Moderate",
      "eventName": "German Trade Balance (Jan)",
      "eventTimeZone": "GMT",
      "eventPrevious": "10.80B",
      "eventCurrency": "EUR",
      "eventForecast": ""
    },
    {
      "eventDateTime": "2002-02-01T09:00:00",
      "eventActual": "3.99M",
      "eventCountry": "Germany",
      "eventExpectedVolatility": "Low",
      "eventName": "German Unemployment (Jan)",
      "eventTimeZone": "GMT",
      "eventPrevious": "3.98M",
      "eventCurrency": "EUR",
      "eventForecast": ""
    },
    {
      "eventDateTime": "2002-02-01T09:00:00",
      "eventActual": "10.00K",
      "eventCountry": "Germany",
      "eventExpectedVolatility": "High",
      "eventName": "German Unemployment Change (Jan)",
      "eventTimeZone": "GMT",
      "eventPrevious": "15.00K",
      "eventCurrency": "EUR",
      "eventForecast": ""
    },
    {
      "eventDateTime": "2002-02-01T09:00:00",
      "eventActual": "9.60%",
      "eventCountry": "Germany",
      "eventExpectedVolatility": "Moderate",
      "eventName": "German Unemployment Rate (Jan)",
      "eventTimeZone": "GMT",
      "eventPrevious": "9.60%",
      "eventCurrency": "EUR",
      "eventForecast": ""
    },
    {
      "eventDateTime": "2002-02-01T09:00:00",
      "eventActual": "4.30M",
      "eventCountry": "Germany",
      "eventExpectedVolatility": "Low",
      "eventName": "German Unemployment n.s.a. (Jan)",
      "eventTimeZone": "GMT",
      "eventPrevious": "4.00M",
      "eventCurrency": "EUR",
      "eventForecast": ""
    },
    {
      "eventDateTime": "2002-02-01T09:00:00",
      "eventActual": "1.30%",
      "eventCountry": "Germany",
      "eventExpectedVolatility": "Low",
      "eventName": "German WPI (MoM) (Jan)",
      "eventTimeZone": "GMT",
      "eventPrevious": "0.40%",
      "eventCurrency": "EUR",
      "eventForecast": ""
    },
    {
      "eventDateTime": "2002-02-01T09:00:00",
      "eventActual": "0.60%",
      "eventCountry": "Germany",
      "eventExpectedVolatility": "Low",
      "eventName": "German WPI (YoY) (Jan)",
      "eventTimeZone": "GMT",
      "eventPrevious": "-1.10%",
      "eventCurrency": "EUR",
      "eventForecast": ""
    },
    {
      "eventDateTime": "2002-02-01T09:00:00",
      "eventActual": "-83.90",
      "eventCountry": "Germany",
      "eventExpectedVolatility": "Moderate",
      "eventName": "German ZEW Current Conditions (Jan)",
      "eventTimeZone": "GMT",
      "eventPrevious": "-87.80",
      "eventCurrency": "EUR",
      "eventForecast": ""
    },
    {
      "eventDateTime": "2002-02-01T09:00:00",
      "eventActual": "35.90",
      "eventCountry": "Germany",
      "eventExpectedVolatility": "High",
      "eventName": "German ZEW Economic Sentiment (Jan)",
      "eventTimeZone": "GMT",
      "eventPrevious": "25.80",
      "eventCurrency": "EUR",
      "eventForecast": ""
    },
    {
      "eventDateTime": "2002-02-01T09:00:00",
      "eventActual": "3.90",
      "eventCountry": "Germany",
      "eventExpectedVolatility": "Moderate",
      "eventName": "GfK German Consumer Climate (Jan)",
      "eventTimeZone": "GMT",
      "eventPrevious": "7.10",
      "eventCurrency": "EUR",
      "eventForecast": ""
    },
    {
      "eventDateTime": "2002-02-01T09:00:00",
      "eventActual": "0.00%",
      "eventCountry": "Euro Zone",
      "eventExpectedVolatility": "Moderate",
      "eventName": "Industrial Production (MoM) (Jan)",
      "eventTimeZone": "GMT",
      "eventPrevious": "0.60%",
      "eventCurrency": "EUR",
      "eventForecast": ""
    },
    {
      "eventDateTime": "2002-02-01T09:00:00",
      "eventActual": "-2.70%",
      "eventCountry": "Euro Zone",
      "eventExpectedVolatility": "Low",
      "eventName": "Industrial Production (YoY) (Jan)",
      "eventTimeZone": "GMT",
      "eventPrevious": "-4.10%",
      "eventCurrency": "EUR",
      "eventForecast": ""
    },
    {
      "eventDateTime": "2002-02-01T09:00:00",
      "eventActual": "-14.70",
      "eventCountry": "Euro Zone",
      "eventExpectedVolatility": "Low",
      "eventName": "Industrial Sentiment (Jan)",
      "eventTimeZone": "GMT",
      "eventPrevious": "-14.80",
      "eventCurrency": "EUR",
      "eventForecast": ""
    },
    {
      "eventDateTime": "2002-02-01T09:00:00",
      "eventActual": "99.40",
      "eventCountry": "Italy",
      "eventExpectedVolatility": "Low",
      "eventName": "Italian Business Confidence (Jan)",
      "eventTimeZone": "GMT",
      "eventPrevious": "101.10",
      "eventCurrency": "EUR",
      "eventForecast": ""
    },
    {
      "eventDateTime": "2002-02-01T09:00:00",
      "eventActual": "0.50%",
      "eventCountry": "Italy",
      "eventExpectedVolatility": "Moderate",
      "eventName": "Italian CPI (MoM) (Jan)",
      "eventTimeZone": "GMT",
      "eventPrevious": "0.00%",
      "eventCurrency": "EUR",
      "eventForecast": ""
    },
    {
      "eventDateTime": "2002-02-01T09:00:00",
      "eventActual": "2.30%",
      "eventCountry": "Italy",
      "eventExpectedVolatility": "Low",
      "eventName": "Italian CPI (YoY) (Jan)",
      "eventTimeZone": "GMT",
      "eventPrevious": "2.30%",
      "eventCurrency": "EUR",
      "eventForecast": ""
    },
    {
      "eventDateTime": "2002-02-01T09:00:00",
      "eventActual": "114.50",
      "eventCountry": "Italy",
      "eventExpectedVolatility": "Low",
      "eventName": "Italian Consumer Confidence (Jan)",
      "eventTimeZone": "GMT",
      "eventPrevious": "115.80",
      "eventCurrency": "EUR",
      "eventForecast": ""
    },
    {
      "eventDateTime": "2002-02-01T09:00:00",
      "eventActual": "-0.10%",
      "eventCountry": "Italy",
      "eventExpectedVolatility": "Low",
      "eventName": "Italian HICP (MoM) (Jan)",
      "eventTimeZone": "GMT",
      "eventPrevious": "0.10%",
      "eventCurrency": "EUR",
      "eventForecast": ""
    },
    {
      "eventDateTime": "2002-02-01T09:00:00",
      "eventActual": "2.30%",
      "eventCountry": "Italy",
      "eventExpectedVolatility": "Low",
      "eventName": "Italian HICP (YoY) (Jan)",
      "eventTimeZone": "GMT",
      "eventPrevious": "2.20%",
      "eventCurrency": "EUR",
      "eventForecast": ""
    },
    {
      "eventDateTime": "2002-02-01T09:00:00",
      "eventActual": "5.23%",
      "eventCountry": "Italy",
      "eventExpectedVolatility": "Low",
      "eventName": "Italian Industrial New Orders (MoM) (Jan)",
      "eventTimeZone": "GMT",
      "eventPrevious": "-0.86%",
      "eventCurrency": "EUR",
      "eventForecast": ""
    },
    {
      "eventDateTime": "2002-02-01T09:00:00",
      "eventActual": "1.63%",
      "eventCountry": "Italy",
      "eventExpectedVolatility": "Low",
      "eventName": "Italian Industrial New Orders (YoY) (Jan)",
      "eventTimeZone": "GMT",
      "eventPrevious": "-12.29%",
      "eventCurrency": "EUR",
      "eventForecast": ""
    },
    {
      "eventDateTime": "2002-02-01T09:00:00",
      "eventActual": "-1.10%",
      "eventCountry": "Italy",
      "eventExpectedVolatility": "Low",
      "eventName": "Italian Industrial Production (MoM) (Jan)",
      "eventTimeZone": "GMT",
      "eventPrevious": "1.00%",
      "eventCurrency": "EUR",
      "eventForecast": ""
    },
    {
      "eventDateTime": "2002-02-01T09:00:00",
      "eventActual": "-4.60%",
      "eventCountry": "Italy",
      "eventExpectedVolatility": "Low",
      "eventName": "Italian Industrial Production (YoY) (Jan)",
      "eventTimeZone": "GMT",
      "eventPrevious": "-7.20%",
      "eventCurrency": "EUR",
      "eventForecast": ""
    },
    {
      "eventDateTime": "2002-02-01T09:00:00",
      "eventActual": "3.93%",
      "eventCountry": "Italy",
      "eventExpectedVolatility": "Low",
      "eventName": "Italian Industrial Sales (MoM) (Jan)",
      "eventTimeZone": "GMT",
      "eventPrevious": "-0.45%",
      "eventCurrency": "EUR",
      "eventForecast": ""
    },
    {
      "eventDateTime": "2002-02-01T09:00:00",
      "eventActual": "0.36%",
      "eventCountry": "Italy",
      "eventExpectedVolatility": "Low",
      "eventName": "Italian Industrial Sales (YoY) (Jan)",
      "eventTimeZone": "GMT",
      "eventPrevious": "-4.80%",
      "eventCurrency": "EUR",
      "eventForecast": ""
    },
    {
      "eventDateTime": "2002-02-01T09:00:00",
      "eventActual": "0.10%",
      "eventCountry": "Italy",
      "eventExpectedVolatility": "Low",
      "eventName": "Italian PPI (MoM) (Jan)",
      "eventTimeZone": "GMT",
      "eventPrevious": "-0.10%",
      "eventCurrency": "EUR",
      "eventForecast": ""
    },
    {
      "eventDateTime": "2002-02-01T09:00:00",
      "eventActual": "-0.70%",
      "eventCountry": "Italy",
      "eventExpectedVolatility": "Low",
      "eventName": "Italian PPI (YoY) (Jan)",
      "eventTimeZone": "GMT",
      "eventPrevious": "-0.50%",
      "eventCurrency": "EUR",
      "eventForecast": ""
    },
    {
      "eventDateTime": "2002-02-01T09:00:00",
      "eventActual": "0.31%",
      "eventCountry": "Italy",
      "eventExpectedVolatility": "Low",
      "eventName": "Italian Retail Sales (MoM) (Jan)",
      "eventTimeZone": "GMT",
      "eventPrevious": "0.10%",
      "eventCurrency": "EUR",
      "eventForecast": ""
    },
    {
      "eventDateTime": "2002-02-01T09:00:00",
      "eventActual": "2.81%",
      "eventCountry": "Italy",
      "eventExpectedVolatility": "Low",
      "eventName": "Italian Retail Sales (YoY) (Jan)",
      "eventTimeZone": "GMT",
      "eventPrevious": "2.10%",
      "eventCurrency": "EUR",
      "eventForecast": ""
    },
    {
      "eventDateTime": "2002-02-01T09:00:00",
      "eventActual": "-1.02B",
      "eventCountry": "Italy",
      "eventExpectedVolatility": "Low",
      "eventName": "Italian Trade Balance (Jan)",
      "eventTimeZone": "GMT",
      "eventPrevious": "0.94B",
      "eventCurrency": "EUR",
      "eventForecast": ""
    },
    {
      "eventDateTime": "2002-02-01T09:00:00",
      "eventActual": "0.47B",
      "eventCountry": "Italy",
      "eventExpectedVolatility": "Low",
      "eventName": "Italian Trade Balance EU (Jan)",
      "eventTimeZone": "GMT",
      "eventPrevious": "-1.18B",
      "eventCurrency": "EUR",
      "eventForecast": ""
    },
    {
      "eventDateTime": "2002-02-01T09:00:00",
      "eventActual": "-1.49B",
      "eventCountry": "Italy",
      "eventExpectedVolatility": "Low",
      "eventName": "Italian Trade Balance Non-EU (Jan)",
      "eventTimeZone": "GMT",
      "eventPrevious": "2.12B",
      "eventCurrency": "EUR",
      "eventForecast": ""
    },
    {
      "eventDateTime": "2002-02-01T09:00:00",
      "eventActual": "0.68%",
      "eventCountry": "Italy",
      "eventExpectedVolatility": "Low",
      "eventName": "Italian Wage Inflation (MoM) (Jan)",
      "eventTimeZone": "GMT",
      "eventPrevious": "0.00%",
      "eventCurrency": "EUR",
      "eventForecast": ""
    },
    {
      "eventDateTime": "2002-02-01T09:00:00",
      "eventActual": "1.80%",
      "eventCountry": "Italy",
      "eventExpectedVolatility": "Low",
      "eventName": "Italian Wage Inflation (YoY) (Jan)",
      "eventTimeZone": "GMT",
      "eventPrevious": "2.40%",
      "eventCurrency": "EUR",
      "eventForecast": ""
    },
    {
      "eventDateTime": "2002-02-01T09:00:00",
      "eventActual": "7.90%",
      "eventCountry": "Euro Zone",
      "eventExpectedVolatility": "Low",
      "eventName": "M3 Money Supply (YoY) (Jan)",
      "eventTimeZone": "GMT",
      "eventPrevious": "8.00%",
      "eventCurrency": "EUR",
      "eventForecast": ""
    },
    {
      "eventDateTime": "2002-02-01T09:00:00",
      "eventActual": "7.80%",
      "eventCountry": "Euro Zone",
      "eventExpectedVolatility": "Low",
      "eventName": "Money-M3 3-Month-Moving Average (Jan)",
      "eventTimeZone": "GMT",
      "eventPrevious": "7.90%",
      "eventCurrency": "EUR",
      "eventForecast": ""
    },
    {
      "eventDateTime": "2002-02-01T09:00:00",
      "eventActual": "0.40%",
      "eventCountry": "Euro Zone",
      "eventExpectedVolatility": "Low",
      "eventName": "PPI (MoM) (Jan)",
      "eventTimeZone": "GMT",
      "eventPrevious": "-0.20%",
      "eventCurrency": "EUR",
      "eventForecast": ""
    },
    {
      "eventDateTime": "2002-02-01T09:00:00",
      "eventActual": "-0.50%",
      "eventCountry": "Euro Zone",
      "eventExpectedVolatility": "Low",
      "eventName": "PPI (YoY) (Jan)",
      "eventTimeZone": "GMT",
      "eventPrevious": "-0.50%",
      "eventCurrency": "EUR",
      "eventForecast": ""
    },
    {
      "eventDateTime": "2002-02-01T09:00:00",
      "eventActual": "5.70%",
      "eventCountry": "Euro Zone",
      "eventExpectedVolatility": "Low",
      "eventName": "Private Sector Loans (YoY) (Jan)",
      "eventTimeZone": "GMT",
      "eventPrevious": "6.10%",
      "eventCurrency": "EUR",
      "eventForecast": ""
    },
    {
      "eventDateTime": "2002-02-01T09:00:00",
      "eventActual": "-1.30%",
      "eventCountry": "Euro Zone",
      "eventExpectedVolatility": "Moderate",
      "eventName": "Retail Sales (MoM) (Jan)",
      "eventTimeZone": "GMT",
      "eventPrevious": "0.20%",
      "eventCurrency": "EUR",
      "eventForecast": ""
    },
    {
      "eventDateTime": "2002-02-01T09:00:00",
      "eventActual": "-0.70%",
      "eventCountry": "Euro Zone",
      "eventExpectedVolatility": "Low",
      "eventName": "Retail Sales (YoY) (Jan)",
      "eventTimeZone": "GMT",
      "eventPrevious": "1.90%",
      "eventCurrency": "EUR",
      "eventForecast": ""
    },
    {
      "eventDateTime": "2002-02-01T09:00:00",
      "eventActual": "-4.40",
      "eventCountry": "Euro Zone",
      "eventExpectedVolatility": "Low",
      "eventName": "Selling Price Expectations (Jan)",
      "eventTimeZone": "GMT",
      "eventPrevious": "-4.70",
      "eventCurrency": "EUR",
      "eventForecast": ""
    },
    {
      "eventDateTime": "2002-02-01T09:00:00",
      "eventActual": "1.70",
      "eventCountry": "Euro Zone",
      "eventExpectedVolatility": "Low",
      "eventName": "Services Sentiment (Jan)",
      "eventTimeZone": "GMT",
      "eventPrevious": "-8.20",
      "eventCurrency": "EUR",
      "eventForecast": ""
    },
    {
      "eventDateTime": "2002-02-01T09:00:00",
      "eventActual": "-0.10%",
      "eventCountry": "Spain",
      "eventExpectedVolatility": "Low",
      "eventName": "Spanish CPI (MoM) (Jan)",
      "eventTimeZone": "GMT",
      "eventPrevious": "0.40%",
      "eventCurrency": "EUR",
      "eventForecast": ""
    },
    {
      "eventDateTime": "2002-02-01T09:00:00",
      "eventActual": "2.50%",
      "eventCountry": "Spain",
      "eventExpectedVolatility": "Moderate",
      "eventName": "Spanish CPI (YoY) (Jan)",
      "eventTimeZone": "GMT",
      "eventPrevious": "2.70%",
      "eventCurrency": "EUR",
      "eventForecast": ""
    },
    {
      "eventDateTime": "2002-02-01T09:00:00",
      "eventActual": "-3.39B",
      "eventCountry": "Spain",
      "eventExpectedVolatility": "Low",
      "eventName": "Spanish Current account (Jan)",
      "eventTimeZone": "GMT",
      "eventPrevious": "-2.15B",
      "eventCurrency": "EUR",
      "eventForecast": ""
    },
    {
      "eventDateTime": "2002-02-01T09:00:00",
      "eventActual": "-0.20%",
      "eventCountry": "Spain",
      "eventExpectedVolatility": "Low",
      "eventName": "Spanish HICP (MoM) (Jan)",
      "eventTimeZone": "GMT",
      "eventPrevious": "0.30%",
      "eventCurrency": "EUR",
      "eventForecast": ""
    },
    {
      "eventDateTime": "2002-02-01T09:00:00",
      "eventActual": "3.10%",
      "eventCountry": "Spain",
      "eventExpectedVolatility": "Moderate",
      "eventName": "Spanish HICP (YoY) (Jan)",
      "eventTimeZone": "GMT",
      "eventPrevious": "2.50%",
      "eventCurrency": "EUR",
      "eventForecast": ""
    },
    {
      "eventDateTime": "2002-02-01T09:00:00",
      "eventActual": "-1.50%",
      "eventCountry": "Spain",
      "eventExpectedVolatility": "Low",
      "eventName": "Spanish Industrial Production (YoY) (Jan)",
      "eventTimeZone": "GMT",
      "eventPrevious": "-6.70%",
      "eventCurrency": "EUR",
      "eventForecast": ""
    },
    {
      "eventDateTime": "2002-02-01T09:00:00",
      "eventActual": "1.40%",
      "eventCountry": "Spain",
      "eventExpectedVolatility": "Low",
      "eventName": "Spanish Retail Sales (YoY) (Jan)",
      "eventTimeZone": "GMT",
      "eventPrevious": "4.20%",
      "eventCurrency": "EUR",
      "eventForecast": ""
    },
    {
      "eventDateTime": "2002-02-01T09:00:00",
      "eventActual": "-0.10B",
      "eventCountry": "Euro Zone",
      "eventExpectedVolatility": "Moderate",
      "eventName": "Trade Balance (Jan)",
      "eventTimeZone": "GMT",
      "eventPrevious": "6.70B",
      "eventCurrency": "EUR",
      "eventForecast": ""
    },
    {
      "eventDateTime": "2002-02-01T09:00:00",
      "eventActual": "8.40%",
      "eventCountry": "Euro Zone",
      "eventExpectedVolatility": "Moderate",
      "eventName": "Unemployment Rate (Jan)",
      "eventTimeZone": "GMT",
      "eventPrevious": "8.40%",
      "eventCurrency": "EUR",
      "eventForecast": ""
    }
  ]}}
