"CPI (YoY) (Nov)";"Hong Kong";"HKD";"2009-12-01T09:00:00";"GMT";"2.50%";"";"0.80%";"Low"
"Exports (MoM) (Nov)";"Hong Kong";"HKD";"2009-12-01T09:00:00";"GMT";"-13.00%";"";"1.30%";"Low"
"Foreign Reserves (USD) (Nov)";"Hong Kong";"HKD";"2009-12-01T09:00:00";"GMT";"240.08B";"";"256.26B";"Low"
"Imports (MoM) (Nov)";"Hong Kong";"HKD";"2009-12-01T09:00:00";"GMT";"-10.70%";"";"6.50%";"Low"
"M3 Money Supply (Nov)";"Hong Kong";"HKD";"2009-12-01T09:00:00";"GMT";"14.25%";"";"14.13%";"Low"
"Retail Sales (YoY) (Nov)";"Hong Kong";"HKD";"2009-12-01T09:00:00";"GMT";"9.80%";"";"11.90%";"Low"
"Unemployment Rate (Nov)";"Hong Kong";"HKD";"2009-12-01T09:00:00";"GMT";"5.20%";"";"5.10%";"Low"
