{"events": {"event": [
    {
      "eventDateTime": "2017-02-07T00:01:00",
      "eventActual": "-0.6%",
      "eventCountry": "United Kingdom",
      "eventExpectedVolatility": "Moderate",
      "eventName": "BRC Retail Sales Monitor (YoY) (Jan)",
      "eventTimeZone": "GMT",
      "eventPrevious": "1.0%",
      "eventCurrency": "GBP",
      "eventForecast": "0.8%"
    },
    {
      "eventDateTime": "2017-02-07T08:30:00",
      "eventActual": "-0.9%",
      "eventCountry": "United Kingdom",
      "eventExpectedVolatility": "Moderate",
      "eventName": "Halifax House Price Index (MoM) (Jan)",
      "eventTimeZone": "GMT",
      "eventPrevious": "1.6%",
      "eventCurrency": "GBP",
      "eventForecast": "0.2%"
    },
    {
      "eventDateTime": "2017-02-07T08:30:00",
      "eventActual": "5.7%",
      "eventCountry": "United Kingdom",
      "eventExpectedVolatility": "Moderate",
      "eventName": "Halifax House Price Index (YoY) (Jan)",
      "eventTimeZone": "GMT",
      "eventPrevious": "6.5%",
      "eventCurrency": "GBP",
      "eventForecast": "6.0%"
    }
  ]}}
