{"events": {"event": [
    {
      "eventDateTime": "2019-04-16T13:00:00",
      "eventActual": "0.9%",
      "eventCountry": "Russia",
      "eventExpectedVolatility": "Low",
      "eventName": "PPI (MoM)",
      "eventTimeZone": "GMT",
      "eventPrevious": "0.1%",
      "eventCurrency": "RUB",
      "eventForecast": ""
    },
    {
      "eventDateTime": "2019-04-16T13:00:00",
      "eventActual": "10.9%",
      "eventCountry": "Russia",
      "eventExpectedVolatility": "Low",
      "eventName": "PPI (YoY)",
      "eventTimeZone": "GMT",
      "eventPrevious": "9.0%",
      "eventCurrency": "RUB",
      "eventForecast": ""
    }
  ]}}
