{"events": {"event": {
    "eventDateTime": "2020-01-31T12:00:00",
    "eventActual": "14.85B",
    "eventCountry": "South Africa",
    "eventExpectedVolatility": "Low",
    "eventName": "Trade Balance (Dec)",
    "eventTimeZone": "GMT",
    "eventPrevious": "6.10B",
    "eventCurrency": "ZAR",
    "eventForecast": "12.00B"
  }}}
