{"events": {"event": [
    {
      "eventDateTime": "2008-06-04T13:15:00",
      "eventActual": "40K",
      "eventCountry": "United States",
      "eventExpectedVolatility": "High",
      "eventName": "ADP Nonfarm Employment Change",
      "eventTimeZone": "GMT",
      "eventPrevious": "13K",
      "eventCurrency": "USD",
      "eventForecast": "-30K"
    },
    {
      "eventDateTime": "2008-06-04T13:30:00",
      "eventActual": "2.6%",
      "eventCountry": "United States",
      "eventExpectedVolatility": "Moderate",
      "eventName": "Nonfarm Productivity (QoQ)",
      "eventTimeZone": "GMT",
      "eventPrevious": "2.2%",
      "eventCurrency": "USD",
      "eventForecast": "2.5%"
    },
    {
      "eventDateTime": "2008-06-04T13:30:00",
      "eventActual": "2.2%",
      "eventCountry": "United States",
      "eventExpectedVolatility": "Moderate",
      "eventName": "Unit Labor Costs (QoQ)",
      "eventTimeZone": "GMT",
      "eventPrevious": "2.2%",
      "eventCurrency": "USD",
      "eventForecast": "2.0%"
    },
    {
      "eventDateTime": "2008-06-04T15:00:00",
      "eventActual": "51.7",
      "eventCountry": "United States",
      "eventExpectedVolatility": "High",
      "eventName": "ISM Non-Manufacturing PMI",
      "eventTimeZone": "GMT",
      "eventPrevious": "52.0",
      "eventCurrency": "USD",
      "eventForecast": "51.0"
    },
    {
      "eventDateTime": "2008-06-04T15:30:00",
      "eventActual": "-4.800M",
      "eventCountry": "United States",
      "eventExpectedVolatility": "High",
      "eventName": "Crude Oil Inventories",
      "eventTimeZone": "GMT",
      "eventPrevious": "-8.800M",
      "eventCurrency": "USD",
      "eventForecast": ""
    },
    {
      "eventDateTime": "2008-06-04T19:45:00",
      "eventActual": "",
      "eventCountry": "United States",
      "eventExpectedVolatility": "High",
      "eventName": "Fed Chairman Bernanke Speaks",
      "eventTimeZone": "GMT",
      "eventPrevious": "",
      "eventCurrency": "USD",
      "eventForecast": ""
    }
  ]}}
