{"events": {"event": [
    {
      "eventDateTime": "2017-02-10T13:00:00",
      "eventActual": "11.83B",
      "eventCountry": "Russia",
      "eventExpectedVolatility": "Low",
      "eventName": "Trade Balance (Dec)",
      "eventTimeZone": "GMT",
      "eventPrevious": "9.14B",
      "eventCurrency": "RUB",
      "eventForecast": "9.85B"
    },
    {
      "eventDateTime": "2017-02-10T20:30:00",
      "eventActual": "17.5K",
      "eventCountry": "Russia",
      "eventExpectedVolatility": "Moderate",
      "eventName": "CFTC RUB speculative positions",
      "eventTimeZone": "GMT",
      "eventPrevious": "17.2K",
      "eventCurrency": "RUB",
      "eventForecast": ""
    }
  ]}}
