{"events": {"event": [
    {
      "eventDateTime": "2015-02-04T05:00:00",
      "eventActual": "52.4",
      "eventCountry": "India",
      "eventExpectedVolatility": "Low",
      "eventName": "Nikkei Services PMI (Jan)",
      "eventTimeZone": "GMT",
      "eventPrevious": "51.1",
      "eventCurrency": "INR",
      "eventForecast": ""
    },
    {
      "eventDateTime": "2015-02-04T11:30:00",
      "eventActual": "11.2%",
      "eventCountry": "India",
      "eventExpectedVolatility": "Low",
      "eventName": "M3 Money Supply (2wk)",
      "eventTimeZone": "GMT",
      "eventPrevious": "11.5%",
      "eventCurrency": "INR",
      "eventForecast": ""
    }
  ]}}
