"HIA New Home Sales (MoM)";"Australia";"AUD";"2012-03-30T00:00:00";"GMT";"-7.3%";"";"3.0%";"Moderate"
"Private Sector Credit (MoM)";"Australia";"AUD";"2012-03-30T00:30:00";"GMT";"0.2%";"0.3%";"0.4%";"Moderate"
"CFTC AUD speculative net positions";"Australia";"AUD";"2012-03-30T19:30:00";"GMT";"45.2K";"";"59.6K";"Moderate"
