{"events": {"event": [
    {
      "eventDateTime": "2017-11-27T08:15:00",
      "eventActual": "4.956M",
      "eventCountry": "Switzerland",
      "eventExpectedVolatility": "Moderate",
      "eventName": "Employment Level (Q3)",
      "eventTimeZone": "GMT",
      "eventPrevious": "4.915M",
      "eventCurrency": "CHF",
      "eventForecast": ""
    },
    {
      "eventDateTime": "2017-11-27T20:30:00",
      "eventActual": "-29.7K",
      "eventCountry": "Switzerland",
      "eventExpectedVolatility": "Low",
      "eventName": "CFTC CHF speculative net positions",
      "eventTimeZone": "GMT",
      "eventPrevious": "-28.0K",
      "eventCurrency": "CHF",
      "eventForecast": ""
    }
  ]}}
