{"events": {"event": {
    "eventDateTime": "2011-09-23T19:30:00",
    "eventActual": "4.2K",
    "eventCountry": "Switzerland",
    "eventExpectedVolatility": "Low",
    "eventName": "CFTC CHF speculative net positions",
    "eventTimeZone": "GMT",
    "eventPrevious": "5.5K",
    "eventCurrency": "CHF",
    "eventForecast": ""
  }}}
