{"events": {"event": {
    "eventDateTime": "2014-04-09T22:30:00",
    "eventActual": "58.4",
    "eventCountry": "New Zealand",
    "eventExpectedVolatility": "Moderate",
    "eventName": "Business NZ PMI",
    "eventTimeZone": "GMT",
    "eventPrevious": "56.5",
    "eventCurrency": "NZD",
    "eventForecast": ""
  }}}
