"Spanish PPI (YoY)";"Spain";"EUR";"2012-06-25T07:00:00";"GMT";"3.0%";"2.7%";"3.2%";"Low"
"German 12-Month Bubill Auction";"Germany";"EUR";"2012-06-25T09:30:00";"GMT";"0.026%";"";"0.019%";"Low"
"French 12-Month BTF Auction";"France";"EUR";"2012-06-25T13:00:00";"GMT";"0.190%";"";"0.177%";"Low"
"French 3-Month BTF Auction";"France";"EUR";"2012-06-25T13:00:00";"GMT";"0.058%";"";"0.056%";"Low"
"French 6-Month BTF Auction";"France";"EUR";"2012-06-25T13:00:00";"GMT";"0.094%";"";"0.104%";"Low"
