"German Factory Orders (MoM)";"Germany";"EUR";"2014-08-06T06:00:00";"GMT";"-1.6%";"1.0%";"-3.2%";"Moderate"
"Italian Industrial Production (MoM)";"Italy";"EUR";"2014-08-06T08:00:00";"GMT";"-1.2%";"0.7%";"0.9%";"Low"
"Italian Industrial Production (YoY)";"Italy";"EUR";"2014-08-06T08:00:00";"GMT";"-1.7%";"-1.1%";"0.4%";"Low"
"Retail PMI";"Euro Zone";"EUR";"2014-08-06T08:10:00";"GMT";"50.0";"";"47.6";"Low"
"Italian GDP (QoQ) (Q2)";"Italy";"EUR";"2014-08-06T09:00:00";"GMT";"-0.1%";"0.2%";"-0.2%";"Low"
"Italian GDP (YoY) (Q2)";"Italy";"EUR";"2014-08-06T09:00:00";"GMT";"-0.4%";"0.1%";"-0.3%";"Low"
"German 5-Year Bobl Auction";"Germany";"EUR";"2014-08-06T09:35:00";"GMT";"0.330%";"";"0.280%";"Low"
