{"events": {"event": {
    "eventDateTime": "2015-09-14T05:30:00",
    "eventActual": "36.7%",
    "eventCountry": "Australia",
    "eventExpectedVolatility": "Moderate",
    "eventName": "Investing.com AUD/USD Index",
    "eventTimeZone": "GMT",
    "eventPrevious": "45.5%",
    "eventCurrency": "AUD",
    "eventForecast": ""
  }}}
