"Exports (YoY) (Nov)";"South Korea";"KRW";"2018-12-17T02:00:00";"GMT";"4.5%";"";"4.1%";"Low"
"Imports (YoY) (Nov)";"South Korea";"KRW";"2018-12-17T02:00:00";"GMT";"11.4%";"";"11.5%";"Low"
"Trade Balance (Nov)";"South Korea";"KRW";"2018-12-17T02:00:00";"GMT";"5.14B";"";"4.93B";"Low"
