{"events": {"event": [
    {
      "eventDateTime": "2010-12-01T09:00:00",
      "eventActual": "2.80%",
      "eventCountry": "Hong Kong",
      "eventExpectedVolatility": "Low",
      "eventName": "CPI (YoY) (Nov)",
      "eventTimeZone": "GMT",
      "eventPrevious": "2.50%",
      "eventCurrency": "HKD",
      "eventForecast": ""
    },
    {
      "eventDateTime": "2010-12-01T09:00:00",
      "eventActual": "16.60%",
      "eventCountry": "Hong Kong",
      "eventExpectedVolatility": "Low",
      "eventName": "Exports (MoM) (Nov)",
      "eventTimeZone": "GMT",
      "eventPrevious": "13.80%",
      "eventCurrency": "HKD",
      "eventForecast": ""
    },
    {
      "eventDateTime": "2010-12-01T09:00:00",
      "eventActual": "266.05B",
      "eventCountry": "Hong Kong",
      "eventExpectedVolatility": "Low",
      "eventName": "Foreign Reserves (USD) (Nov)",
      "eventTimeZone": "GMT",
      "eventPrevious": "267.06B",
      "eventCurrency": "HKD",
      "eventForecast": ""
    },
    {
      "eventDateTime": "2010-12-01T09:00:00",
      "eventActual": "16.40%",
      "eventCountry": "Hong Kong",
      "eventExpectedVolatility": "Low",
      "eventName": "Imports (MoM) (Nov)",
      "eventTimeZone": "GMT",
      "eventPrevious": "14.00%",
      "eventCurrency": "HKD",
      "eventForecast": ""
    },
    {
      "eventDateTime": "2010-12-01T09:00:00",
      "eventActual": "7.06%",
      "eventCountry": "Hong Kong",
      "eventExpectedVolatility": "Low",
      "eventName": "M3 Money Supply (Nov)",
      "eventTimeZone": "GMT",
      "eventPrevious": "14.66%",
      "eventCurrency": "HKD",
      "eventForecast": ""
    },
    {
      "eventDateTime": "2010-12-01T09:00:00",
      "eventActual": "18.10%",
      "eventCountry": "Hong Kong",
      "eventExpectedVolatility": "Low",
      "eventName": "Retail Sales (YoY) (Nov)",
      "eventTimeZone": "GMT",
      "eventPrevious": "21.70%",
      "eventCurrency": "HKD",
      "eventForecast": ""
    },
    {
      "eventDateTime": "2010-12-01T09:00:00",
      "eventActual": "4.00%",
      "eventCountry": "Hong Kong",
      "eventExpectedVolatility": "Low",
      "eventName": "Unemployment Rate (Nov)",
      "eventTimeZone": "GMT",
      "eventPrevious": "4.20%",
      "eventCurrency": "HKD",
      "eventForecast": ""
    }
  ]}}
