"Exports (MoM)";"Australia";"AUD";"2014-06-05T01:30:00";"GMT";"-2%";"";"-1%";"Low"
"Imports (MoM)";"Australia";"AUD";"2014-06-05T01:30:00";"GMT";"0%";"";"2%";"Low"
"Trade Balance";"Australia";"AUD";"2014-06-05T01:30:00";"GMT";"0.902B";"0.300B";"-0.122B";"Moderate"
"AIG Construction Index";"Australia";"AUD";"2014-06-05T23:30:00";"GMT";"45.9";"";"46.7";"Low"
