"Credit Card Spending (YoY)";"New Zealand";"NZD";"2011-01-26T02:00:00";"GMT";"3.7%";"";"2.0%";"Low"
"RBNZ Interest Rate Decision";"New Zealand";"NZD";"2011-01-26T20:00:00";"GMT";"3.00%";"3.00%";"3.00%";"High"
"RBNZ Rate Statement";"New Zealand";"NZD";"2011-01-26T20:00:00";"GMT";" ";"";"";"High"
