{"events": {"event": [
    {
      "eventDateTime": "2014-12-05T13:30:00",
      "eventActual": "-10.7K",
      "eventCountry": "Canada",
      "eventExpectedVolatility": "High",
      "eventName": "Employment Change (Nov)",
      "eventTimeZone": "GMT",
      "eventPrevious": "43.1K",
      "eventCurrency": "CAD",
      "eventForecast": "5.3K"
    },
    {
      "eventDateTime": "2014-12-05T13:30:00",
      "eventActual": "44.92B",
      "eventCountry": "Canada",
      "eventExpectedVolatility": "Low",
      "eventName": "Exports (Oct)",
      "eventTimeZone": "GMT",
      "eventPrevious": "44.89B",
      "eventCurrency": "CAD",
      "eventForecast": ""
    },
    {
      "eventDateTime": "2014-12-05T13:30:00",
      "eventActual": "5.7K",
      "eventCountry": "Canada",
      "eventExpectedVolatility": "Low",
      "eventName": "Full Employment Change (Nov)",
      "eventTimeZone": "GMT",
      "eventPrevious": "26.5K",
      "eventCurrency": "CAD",
      "eventForecast": ""
    },
    {
      "eventDateTime": "2014-12-05T13:30:00",
      "eventActual": "44.82B",
      "eventCountry": "Canada",
      "eventExpectedVolatility": "Low",
      "eventName": "Imports (Oct)",
      "eventTimeZone": "GMT",
      "eventPrevious": "44.59B",
      "eventCurrency": "CAD",
      "eventForecast": ""
    },
    {
      "eventDateTime": "2014-12-05T13:30:00",
      "eventActual": "0.1%",
      "eventCountry": "Canada",
      "eventExpectedVolatility": "Moderate",
      "eventName": "Labor Productivity (QoQ)",
      "eventTimeZone": "GMT",
      "eventPrevious": "2.0%",
      "eventCurrency": "CAD",
      "eventForecast": "1.5%"
    },
    {
      "eventDateTime": "2014-12-05T13:30:00",
      "eventActual": "-16.3K",
      "eventCountry": "Canada",
      "eventExpectedVolatility": "Low",
      "eventName": "Part Time Employment Change (Nov)",
      "eventTimeZone": "GMT",
      "eventPrevious": "16.5K",
      "eventCurrency": "CAD",
      "eventForecast": ""
    },
    {
      "eventDateTime": "2014-12-05T13:30:00",
      "eventActual": "66.0%",
      "eventCountry": "Canada",
      "eventExpectedVolatility": "Low",
      "eventName": "Participation Rate (Nov)",
      "eventTimeZone": "GMT",
      "eventPrevious": "66.0%",
      "eventCurrency": "CAD",
      "eventForecast": "66.0%"
    },
    {
      "eventDateTime": "2014-12-05T13:30:00",
      "eventActual": "0.10B",
      "eventCountry": "Canada",
      "eventExpectedVolatility": "Moderate",
      "eventName": "Trade Balance (Oct)",
      "eventTimeZone": "GMT",
      "eventPrevious": "0.31B",
      "eventCurrency": "CAD",
      "eventForecast": "0.40B"
    },
    {
      "eventDateTime": "2014-12-05T13:30:00",
      "eventActual": "6.6%",
      "eventCountry": "Canada",
      "eventExpectedVolatility": "Moderate",
      "eventName": "Unemployment Rate (Nov)",
      "eventTimeZone": "GMT",
      "eventPrevious": "6.5%",
      "eventCurrency": "CAD",
      "eventForecast": "6.6%"
    },
    {
      "eventDateTime": "2014-12-05T20:30:00",
      "eventActual": "-18.4K",
      "eventCountry": "Canada",
      "eventExpectedVolatility": "Low",
      "eventName": "CFTC CAD speculative net positions",
      "eventTimeZone": "GMT",
      "eventPrevious": "-16.3K",
      "eventCurrency": "CAD",
      "eventForecast": ""
    }
  ]}}
