"BoJ Interest Rate Decision";"Japan";"JPY";"2014-01-22T03:20:00";"GMT";"0.10%";"0.10%";"0.10%";"Moderate"
"All Industries Activity Index (MoM)";"Japan";"JPY";"2014-01-22T04:30:00";"GMT";"-0.4%";"0.4%";"0.3%";"Low"
"BoJ Press Conference";"Japan";"JPY";"2014-01-22T07:25:00";"GMT";" ";"";"";"High"
