{"events": {"event": [
    {
      "eventDateTime": "2014-07-09T06:00:00",
      "eventActual": "34.2%",
      "eventCountry": "Japan",
      "eventExpectedVolatility": "Low",
      "eventName": "Machine Tool Orders (YoY)",
      "eventTimeZone": "GMT",
      "eventPrevious": "24.1%",
      "eventCurrency": "JPY",
      "eventForecast": ""
    },
    {
      "eventDateTime": "2014-07-09T23:50:00",
      "eventActual": "-19.5%",
      "eventCountry": "Japan",
      "eventExpectedVolatility": "Low",
      "eventName": "Core Machinery Orders (MoM)",
      "eventTimeZone": "GMT",
      "eventPrevious": "-9.1%",
      "eventCurrency": "JPY",
      "eventForecast": "0.7%"
    },
    {
      "eventDateTime": "2014-07-09T23:50:00",
      "eventActual": "-14.3%",
      "eventCountry": "Japan",
      "eventExpectedVolatility": "Low",
      "eventName": "Core Machinery Orders (YoY)",
      "eventTimeZone": "GMT",
      "eventPrevious": "17.6%",
      "eventCurrency": "JPY",
      "eventForecast": "9.5%"
    },
    {
      "eventDateTime": "2014-07-09T23:50:00",
      "eventActual": "0.2%",
      "eventCountry": "Japan",
      "eventExpectedVolatility": "Low",
      "eventName": "PPI (MoM)",
      "eventTimeZone": "GMT",
      "eventPrevious": "0.3%",
      "eventCurrency": "JPY",
      "eventForecast": "0.1%"
    },
    {
      "eventDateTime": "2014-07-09T23:50:00",
      "eventActual": "4.6%",
      "eventCountry": "Japan",
      "eventExpectedVolatility": "Low",
      "eventName": "PPI (YoY)",
      "eventTimeZone": "GMT",
      "eventPrevious": "4.4%",
      "eventCurrency": "JPY",
      "eventForecast": "4.5%"
    },
    {
      "eventDateTime": "2014-07-09T23:50:00",
      "eventActual": "0.9%",
      "eventCountry": "Japan",
      "eventExpectedVolatility": "Moderate",
      "eventName": "Tertiary Industry Activity Index (MoM)",
      "eventTimeZone": "GMT",
      "eventPrevious": "-5.7%",
      "eventCurrency": "JPY",
      "eventForecast": "1.9%"
    }
  ]}}
