{"events": {"event": {
    "eventDateTime": "2018-01-01T06:30:00",
    "eventActual": "63.1%",
    "eventCountry": "Switzerland",
    "eventExpectedVolatility": "Moderate",
    "eventName": "Investing.com USD/CHF Index",
    "eventTimeZone": "GMT",
    "eventPrevious": "51.2%",
    "eventCurrency": "CHF",
    "eventForecast": ""
  }}}
