{"events": {"event": [
    {
      "eventDateTime": "2018-06-29T05:00:00",
      "eventActual": "-18.7%",
      "eventCountry": "Japan",
      "eventExpectedVolatility": "Low",
      "eventName": "Construction Orders (YoY) (May)",
      "eventTimeZone": "GMT",
      "eventPrevious": "4.0%",
      "eventCurrency": "JPY",
      "eventForecast": ""
    },
    {
      "eventDateTime": "2018-06-29T05:00:00",
      "eventActual": "43.7",
      "eventCountry": "Japan",
      "eventExpectedVolatility": "Low",
      "eventName": "Household Confidence (Jun)",
      "eventTimeZone": "GMT",
      "eventPrevious": "43.8",
      "eventCurrency": "JPY",
      "eventForecast": "43.9"
    },
    {
      "eventDateTime": "2018-06-29T05:00:00",
      "eventActual": "1.3%",
      "eventCountry": "Japan",
      "eventExpectedVolatility": "Low",
      "eventName": "Housing Starts (YoY) (May)",
      "eventTimeZone": "GMT",
      "eventPrevious": "0.3%",
      "eventCurrency": "JPY",
      "eventForecast": "-5.9%"
    },
    {
      "eventDateTime": "2018-06-29T19:30:00",
      "eventActual": "-34.2K",
      "eventCountry": "Japan",
      "eventExpectedVolatility": "Moderate",
      "eventName": "CFTC JPY speculative net positions",
      "eventTimeZone": "GMT",
      "eventPrevious": "-35.6K",
      "eventCurrency": "JPY",
      "eventForecast": ""
    }
  ]}}
