"Chain Store Sales (WoW)";"United States";"USD";"2014-11-18T12:45:00";"GMT";"1.5%";"";"0.2%";"Low"
"Chain Store Sales (YoY)";"United States";"USD";"2014-11-18T12:45:00";"GMT";"2.1%";"";"2.2%";"Low"
"Core PPI (MoM) (Oct)";"United States";"USD";"2014-11-18T13:30:00";"GMT";"0.0%";"0.2%";"0.4%";"Moderate"
"Core PPI (YoY) (Oct)";"United States";"USD";"2014-11-18T13:30:00";"GMT";"1.6%";"1.5%";"1.8%";"Low"
"PPI (MoM) (Oct)";"United States";"USD";"2014-11-18T13:30:00";"GMT";"-0.1%";"-0.1%";"0.2%";"High"
"PPI (YoY) (Oct)";"United States";"USD";"2014-11-18T13:30:00";"GMT";"1.6%";"1.2%";"1.5%";"Low"
"Redbook (MoM)";"United States";"USD";"2014-11-18T13:55:00";"GMT";"-1.0%";"";"-0.9%";"Low"
"Redbook (YoY)";"United States";"USD";"2014-11-18T13:55:00";"GMT";"3.8%";"";"3.9%";"Low"
"NAHB Housing Market Index (Nov)";"United States";"USD";"2014-11-18T15:00:00";"GMT";"54";"55";"58";"Low"
"4-Week Bill Auction";"United States";"USD";"2014-11-18T16:30:00";"GMT";"0.045%";"";"0.035%";"Low"
"FOMC Member Kocherlakota Speaks";"United States";"USD";"2014-11-18T18:30:00";"GMT";" ";"";"";"Moderate"
"Overall Net Capital Flow (Sep)";"United States";"USD";"2014-11-18T21:00:00";"GMT";"44.80B";"";"-55.60B";"Low"
"TIC Net Long-Term Transactions (Sep)";"United States";"USD";"2014-11-18T21:00:00";"GMT";"52.1B";"41.3B";"164.3B";"Moderate"
"TIC Net Long-Term Transactions including Swaps (Sep)";"United States";"USD";"2014-11-18T21:00:00";"GMT";"36.50B";"";"152.70B";"Low"
"US Foreign Buying, T-bonds (Sep)";"United States";"USD";"2014-11-18T21:00:00";"GMT";"25.70B";"";"48.10B";"Low"
"API Weekly Crude Oil Stock";"United States";"USD";"2014-11-18T21:30:00";"GMT";"-1.500M";"";"3.700M";"Moderate"
"API Weekly Distillates Stocks";"United States";"USD";"2014-11-18T21:30:00";"GMT";"-1.300M";"";"-3.300M";"Low"
"API Weekly Gasoline Stock";"United States";"USD";"2014-11-18T21:30:00";"GMT";"1.100M";"";"0.519M";"Low"
