"CPI (MoM)";"Canada";"CAD";"2012-12-21T13:30:00";"GMT";"0.2%";"-0.1%";"-0.2%";"Moderate"
"CPI (YoY)";"Canada";"CAD";"2012-12-21T13:30:00";"GMT";"1.2%";"1.0%";"0.8%";"Low"
"Core CPI (MoM)";"Canada";"CAD";"2012-12-21T13:30:00";"GMT";"0.3%";"0.1%";"0.0%";"High"
"GDP (MoM)";"Canada";"CAD";"2012-12-21T13:30:00";"GMT";"0.0%";"0.1%";"0.1%";"High"
"Budget Balance";"Canada";"CAD";"2012-12-21T16:00:00";"GMT";"-2.69B";"";"-1.68B";"Low"
"CFTC CAD speculative net positions";"Canada";"CAD";"2012-12-21T20:30:00";"GMT";"62.5K";"";"74.3K";"Low"
