{"events": {"event": {
    "eventDateTime": "2018-05-07T05:30:00",
    "eventActual": "58.2%",
    "eventCountry": "United Kingdom",
    "eventExpectedVolatility": "Moderate",
    "eventName": "Investing.com GBP/USD Index",
    "eventTimeZone": "GMT",
    "eventPrevious": "57.8%",
    "eventCurrency": "GBP",
    "eventForecast": ""
  }}}
