"RBNZ Interest Rate Decision";"New Zealand";"NZD";"2019-02-13T01:00:00";"GMT";"1.75%";"1.75%";"1.75%";"High"
"RBNZ Monetary Policy Statement";"New Zealand";"NZD";"2019-02-13T01:00:00";"GMT";" ";"";"";"Moderate"
"RBNZ Rate Statement";"New Zealand";"NZD";"2019-02-13T01:00:00";"GMT";" ";"";"";"High"
"Inflation Expectations (QoQ)";"New Zealand";"NZD";"2019-02-13T02:00:00";"GMT";"2.0%";"";"2.0%";"Moderate"
"RBNZ Press Conference";"New Zealand";"NZD";"2019-02-13T02:00:00";"GMT";" ";"";"";"High"
"RBNZ Gov Orr Speaks";"New Zealand";"NZD";"2019-02-13T19:10:00";"GMT";" ";"";"";"High"
"FPI (MoM) (Jan)";"New Zealand";"NZD";"2019-02-13T21:45:00";"GMT";"-0.2%";"";"1.0%";"Low"
