"CPI (MoM) (Nov)";"United Kingdom";"GBP";"2015-12-15T09:30:00";"GMT";"0.1%";"-0.1%";"0.0%";"Moderate"
"CPI (YoY) (Nov)";"United Kingdom";"GBP";"2015-12-15T09:30:00";"GMT";"-0.1%";"0.1%";"0.1%";"High"
"Core CPI (YoY)";"United Kingdom";"GBP";"2015-12-15T09:30:00";"GMT";"1.1%";"1.2%";"1.2%";"Low"
"Core PPI Output (MoM) (Nov)";"United Kingdom";"GBP";"2015-12-15T09:30:00";"GMT";"-0.1%";"";"-0.2%";"Low"
"Core PPI Output (YoY) (Nov)";"United Kingdom";"GBP";"2015-12-15T09:30:00";"GMT";"0.3%";"0.1%";"-0.1%";"Low"
"Core RPI (MoM) (Nov)";"United Kingdom";"GBP";"2015-12-15T09:30:00";"GMT";"0.0%";"";"0.1%";"Low"
"Core RPI (YoY) (Nov)";"United Kingdom";"GBP";"2015-12-15T09:30:00";"GMT";"0.8%";"";"1.1%";"Low"
"House Price Index (YoY)";"United Kingdom";"GBP";"2015-12-15T09:30:00";"GMT";"6.1%";"6.4%";"7.0%";"Low"
"PPI Input (MoM) (Nov)";"United Kingdom";"GBP";"2015-12-15T09:30:00";"GMT";"0.2%";"-1.1%";"-1.6%";"Moderate"
"PPI Input (YoY) (Nov)";"United Kingdom";"GBP";"2015-12-15T09:30:00";"GMT";"-12.3%";"-12.4%";"-13.1%";"Low"
"PPI Output (MoM) (Nov)";"United Kingdom";"GBP";"2015-12-15T09:30:00";"GMT";"-0.1%";"-0.1%";"-0.2%";"Low"
"PPI Output (YoY) (Nov)";"United Kingdom";"GBP";"2015-12-15T09:30:00";"GMT";"-1.4%";"-1.3%";"-1.5%";"Low"
"RPI (MoM) (Nov)";"United Kingdom";"GBP";"2015-12-15T09:30:00";"GMT";"0.0%";"-0.1%";"0.1%";"Low"
"RPI (YoY) (Nov)";"United Kingdom";"GBP";"2015-12-15T09:30:00";"GMT";"0.7%";"0.9%";"1.1%";"Low"
