{"events": {"event": [
    {
      "eventDateTime": "2016-08-16T01:30:00",
      "eventActual": "-1.3%",
      "eventCountry": "Australia",
      "eventExpectedVolatility": "Low",
      "eventName": "New Motor Vehicle Sales (MoM) (Jul)",
      "eventTimeZone": "GMT",
      "eventPrevious": "3.5%",
      "eventCurrency": "AUD",
      "eventForecast": ""
    },
    {
      "eventDateTime": "2016-08-16T01:30:00",
      "eventActual": "",
      "eventCountry": "Australia",
      "eventExpectedVolatility": "High",
      "eventName": "RBA Meeting Minutes",
      "eventTimeZone": "GMT",
      "eventPrevious": "",
      "eventCurrency": "AUD",
      "eventForecast": ""
    }
  ]}}
