"Capacity Utilization (MoM) (Apr)";"Japan";"JPY";"2017-06-14T04:30:00";"GMT";"-1.6%";"";"4.3%";"Low"
"Industrial Production (MoM) (Apr)";"Japan";"JPY";"2017-06-14T04:30:00";"GMT";"4.0%";"4.0%";"4.0%";"Moderate"
"Foreign Bonds Buying";"Japan";"JPY";"2017-06-14T23:50:00";"GMT";"-345.4B";"";"526.6B";"Low"
"Foreign Investments in Japanese Stocks";"Japan";"JPY";"2017-06-14T23:50:00";"GMT";"543.5B";"";"-143.1B";"Low"
