"Average Cash Earnings (YoY)";"Japan";"JPY";"2018-08-07T00:00:00";"GMT";"2.1%";"1.7%";"3.6%";"Low"
"Overtime Pay (YoY) (Jun)";"Japan";"JPY";"2018-08-07T00:00:00";"GMT";"1.60%";"";"3.50%";"Low"
"Coincident Indicator (MoM) (Jun)";"Japan";"JPY";"2018-08-07T05:00:00";"GMT";"-0.7%";"";"-0.5%";"Low"
"Leading Index";"Japan";"JPY";"2018-08-07T05:00:00";"GMT";"106.9";"105.4";"105.2";"Low"
"Leading Index (MoM) (Jun)";"Japan";"JPY";"2018-08-07T05:00:00";"GMT";"0.7%";"";"-1.7%";"Low"
"Adjusted Current Account";"Japan";"JPY";"2018-08-07T23:50:00";"GMT";"1.85T";"1.84T";"1.76T";"Moderate"
"Bank Lending (YoY) (Jul)";"Japan";"JPY";"2018-08-07T23:50:00";"GMT";"2.2%";"2.3%";"2.0%";"Low"
"BoJ Summary of Opinions";"Japan";"JPY";"2018-08-07T23:50:00";"GMT";" ";"";"";"Low"
"Current Account n.s.a. (Jun)";"Japan";"JPY";"2018-08-07T23:50:00";"GMT";"1.938T";"1.196T";"1.176T";"Moderate"
