"GDP (QoQ) (Q1)";"Switzerland";"CHF";"2018-05-31T05:45:00";"GMT";"0.6%";"0.5%";"0.6%";"Moderate"
"GDP (YoY) (Q1)";"Switzerland";"CHF";"2018-05-31T05:45:00";"GMT";"1.9%";"2.3%";"2.2%";"Moderate"
"SNB Gov Board Member Zurbrugg Speaks";"Switzerland";"CHF";"2018-05-31T07:00:00";"GMT";" ";"";"";"Moderate"
"Retail Sales (YoY) (Apr)";"Switzerland";"CHF";"2018-05-31T07:15:00";"GMT";"-1.1%";"-1.4%";"2.2%";"Moderate"
