{"events": {"event": [
    {
      "eventDateTime": "2005-02-01T09:00:00",
      "eventActual": "-4.10%",
      "eventCountry": "New Zealand",
      "eventExpectedVolatility": "Moderate",
      "eventName": "Building Consents (MoM) (Jan)",
      "eventTimeZone": "GMT",
      "eventPrevious": "1.80%",
      "eventCurrency": "NZD",
      "eventForecast": ""
    },
    {
      "eventDateTime": "2005-02-01T09:00:00",
      "eventActual": "1.70%",
      "eventCountry": "New Zealand",
      "eventExpectedVolatility": "Moderate",
      "eventName": "Electronic Card Retail Sales (MoM) (Jan)",
      "eventTimeZone": "GMT",
      "eventPrevious": "-0.60%",
      "eventCurrency": "NZD",
      "eventForecast": ""
    },
    {
      "eventDateTime": "2005-02-01T09:00:00",
      "eventActual": "8.00%",
      "eventCountry": "New Zealand",
      "eventExpectedVolatility": "Low",
      "eventName": "Electronic Card Retail Sales (YoY) (Jan)",
      "eventTimeZone": "GMT",
      "eventPrevious": "7.40%",
      "eventCurrency": "NZD",
      "eventForecast": ""
    },
    {
      "eventDateTime": "2005-02-01T09:00:00",
      "eventActual": "2.25B",
      "eventCountry": "New Zealand",
      "eventExpectedVolatility": "Low",
      "eventName": "Exports (Jan)",
      "eventTimeZone": "GMT",
      "eventPrevious": "2.54B",
      "eventCurrency": "NZD",
      "eventForecast": ""
    },
    {
      "eventDateTime": "2005-02-01T09:00:00",
      "eventActual": "2.29%",
      "eventCountry": "New Zealand",
      "eventExpectedVolatility": "Low",
      "eventName": "External Migration andamp; Visitors (Jan)",
      "eventTimeZone": "GMT",
      "eventPrevious": "5.31%",
      "eventCurrency": "NZD",
      "eventForecast": ""
    },
    {
      "eventDateTime": "2005-02-01T09:00:00",
      "eventActual": "0.60%",
      "eventCountry": "New Zealand",
      "eventExpectedVolatility": "Low",
      "eventName": "FPI (MoM) (Jan)",
      "eventTimeZone": "GMT",
      "eventPrevious": "-0.10%",
      "eventCurrency": "NZD",
      "eventForecast": ""
    },
    {
      "eventDateTime": "2005-02-01T09:00:00",
      "eventActual": "9.10%",
      "eventCountry": "New Zealand",
      "eventExpectedVolatility": "Low",
      "eventName": "Government Monthly Debt (Jan)",
      "eventTimeZone": "GMT",
      "eventPrevious": "10.10%",
      "eventCurrency": "NZD",
      "eventForecast": ""
    },
    {
      "eventDateTime": "2005-02-01T09:00:00",
      "eventActual": "2.55B",
      "eventCountry": "New Zealand",
      "eventExpectedVolatility": "Low",
      "eventName": "Imports (Jan)",
      "eventTimeZone": "GMT",
      "eventPrevious": "3.07B",
      "eventCurrency": "NZD",
      "eventForecast": ""
    },
    {
      "eventDateTime": "2005-02-01T09:00:00",
      "eventActual": "810.00",
      "eventCountry": "New Zealand",
      "eventExpectedVolatility": "Low",
      "eventName": "Permanent/Long-Term Migration (Jan)",
      "eventTimeZone": "GMT",
      "eventPrevious": "520.00",
      "eventCurrency": "NZD",
      "eventForecast": ""
    },
    {
      "eventDateTime": "2005-02-01T09:00:00",
      "eventActual": "6.50%",
      "eventCountry": "New Zealand",
      "eventExpectedVolatility": "High",
      "eventName": "RBNZ Interest Rate Decision (Jan)",
      "eventTimeZone": "GMT",
      "eventPrevious": "6.50%",
      "eventCurrency": "NZD",
      "eventForecast": ""
    },
    {
      "eventDateTime": "2005-02-01T09:00:00",
      "eventActual": "51.70%",
      "eventCountry": "New Zealand",
      "eventExpectedVolatility": "Low",
      "eventName": "RBNZ Offshore Holdings (Jan)",
      "eventTimeZone": "GMT",
      "eventPrevious": "52.90%",
      "eventCurrency": "NZD",
      "eventForecast": ""
    },
    {
      "eventDateTime": "2005-02-01T09:00:00",
      "eventActual": "1.00%",
      "eventCountry": "New Zealand",
      "eventExpectedVolatility": "Low",
      "eventName": "REINZ House Price Index (MoM) (Jan)",
      "eventTimeZone": "GMT",
      "eventPrevious": "0.30%",
      "eventCurrency": "NZD",
      "eventForecast": ""
    },
    {
      "eventDateTime": "2005-02-01T09:00:00",
      "eventActual": "16.40%",
      "eventCountry": "New Zealand",
      "eventExpectedVolatility": "Low",
      "eventName": "REINZ House Price Index (YoY) (Jan)",
      "eventTimeZone": "GMT",
      "eventPrevious": "13.20%",
      "eventCurrency": "NZD",
      "eventForecast": ""
    },
    {
      "eventDateTime": "2005-02-01T09:00:00",
      "eventActual": "-302.00M",
      "eventCountry": "New Zealand",
      "eventExpectedVolatility": "Moderate",
      "eventName": "Trade Balance (MoM) (Jan)",
      "eventTimeZone": "GMT",
      "eventPrevious": "-526.20M",
      "eventCurrency": "NZD",
      "eventForecast": ""
    },
    {
      "eventDateTime": "2005-02-01T09:00:00",
      "eventActual": "-3,930.00M",
      "eventCountry": "New Zealand",
      "eventExpectedVolatility": "Moderate",
      "eventName": "Trade Balance (YoY) (Jan)",
      "eventTimeZone": "GMT",
      "eventPrevious": "-4,200.00M",
      "eventCurrency": "NZD",
      "eventForecast": ""
    }
  ]}}
