"Core Retail Sales (MoM) (Oct)";"Canada";"CAD";"2018-12-21T13:30:00";"GMT";"0.1%";"0.2%";"0.0%";"High"
"GDP (MoM) (Oct)";"Canada";"CAD";"2018-12-21T13:30:00";"GMT";"-0.1%";"0.2%";"0.3%";"High"
"GDP (YoY)";"Canada";"CAD";"2018-12-21T13:30:00";"GMT";"2.0%";"2.2%";"2.2%";"Moderate"
"Retail Sales (MoM) (Oct)";"Canada";"CAD";"2018-12-21T13:30:00";"GMT";"0.1%";"0.4%";"0.3%";"Moderate"
"BoC Business Outlook Survey";"Canada";"CAD";"2018-12-21T15:00:00";"GMT";" ";"";"";"Moderate"
"Budget Balance (Oct)";"Canada";"CAD";"2018-12-21T16:00:00";"GMT";"-1.36B";"";"-1.11B";"Low"
"Budget Balance (YoY) (Oct)";"Canada";"CAD";"2018-12-21T16:00:00";"GMT";"1.21B";"";"0.09B";"Low"
"CFTC CAD speculative net positions";"Canada";"CAD";"2018-12-21T20:30:00";"GMT";"-11.7K";"";"-7.5K";"Low"
