{"events": {"event": [
    {
      "eventDateTime": "2018-12-19T13:30:00",
      "eventActual": "3.0%",
      "eventCountry": "Russia",
      "eventExpectedVolatility": "Moderate",
      "eventName": "Retail Sales (YoY)",
      "eventTimeZone": "GMT",
      "eventPrevious": "2.0%",
      "eventCurrency": "RUB",
      "eventForecast": "2.1%"
    },
    {
      "eventDateTime": "2018-12-19T13:30:00",
      "eventActual": "4.8%",
      "eventCountry": "Russia",
      "eventExpectedVolatility": "Moderate",
      "eventName": "Unemployment Rate (Nov)",
      "eventTimeZone": "GMT",
      "eventPrevious": "4.7%",
      "eventCurrency": "RUB",
      "eventForecast": "4.8%"
    },
    {
      "eventDateTime": "2018-12-19T14:30:00",
      "eventActual": "1.8%",
      "eventCountry": "Russia",
      "eventExpectedVolatility": "Moderate",
      "eventName": "GDP Monthly (YoY) (Nov)",
      "eventTimeZone": "GMT",
      "eventPrevious": "2.8%",
      "eventCurrency": "RUB",
      "eventForecast": "2.0%"
    }
  ]}}
