{"events": {"event": {
    "eventDateTime": "2011-01-20T10:00:00",
    "eventActual": "-18.4",
    "eventCountry": "Switzerland",
    "eventExpectedVolatility": "Low",
    "eventName": "ZEW Expectations",
    "eventTimeZone": "GMT",
    "eventPrevious": "-12.5",
    "eventCurrency": "CHF",
    "eventForecast": ""
  }}}
