{"events": {"event": [
    {
      "eventDateTime": "2013-10-23T10:00:00",
      "eventActual": "111.70",
      "eventCountry": "Brazil",
      "eventExpectedVolatility": "Low",
      "eventName": "FGV Consumer confidence",
      "eventTimeZone": "GMT",
      "eventPrevious": "114.20",
      "eventCurrency": "BRL",
      "eventForecast": "112.00"
    },
    {
      "eventDateTime": "2013-10-23T14:30:00",
      "eventActual": "-4.48B",
      "eventCountry": "Brazil",
      "eventExpectedVolatility": "Low",
      "eventName": "Foreign Exchange Flows",
      "eventTimeZone": "GMT",
      "eventPrevious": "-4.34B",
      "eventCurrency": "BRL",
      "eventForecast": ""
    }
  ]}}
