"MBA 30-Year Mortgage Rate";"United States";"USD";"2016-04-06T11:00:00";"GMT";"3.94%";"";"3.86%";"Low"
"MBA Mortgage Applications (WoW)";"United States";"USD";"2016-04-06T11:00:00";"GMT";"-1.0%";"";"2.7%";"Low"
"MBA Purchase Index";"United States";"USD";"2016-04-06T11:00:00";"GMT";"228.6";"";"223.1";"Low"
"Mortgage Market Index";"United States";"USD";"2016-04-06T11:00:00";"GMT";"460.5";"";"472.8";"Low"
"Mortgage Refinance Index";"United States";"USD";"2016-04-06T11:00:00";"GMT";"1,784.7";"";"1,906.0";"Low"
"Crude Oil Imports";"United States";"USD";"2016-04-06T14:30:00";"GMT";"-0.636M";"";"-0.446M";"Low"
"Crude Oil Inventories";"United States";"USD";"2016-04-06T14:30:00";"GMT";"2.299M";"3.150M";"-4.937M";"High"
"Cushing Crude Oil Inventories";"United States";"USD";"2016-04-06T14:30:00";"GMT";"-0.272M";"";"0.357M";"Moderate"
"Distillate Fuel Production";"United States";"USD";"2016-04-06T14:30:00";"GMT";"0.185M";"";"-0.089M";"Low"
"EIA Weekly Distillates Stocks";"United States";"USD";"2016-04-06T14:30:00";"GMT";"-1.075M";"-0.333M";"1.799M";"Low"
"Gasoline Inventories";"United States";"USD";"2016-04-06T14:30:00";"GMT";"-2.514M";"-0.967M";"1.438M";"Low"
"Gasoline Production";"United States";"USD";"2016-04-06T14:30:00";"GMT";"-0.253M";"";"0.187M";"Low"
"Heating Oil Stockpiles";"United States";"USD";"2016-04-06T14:30:00";"GMT";"-0.579M";"";"-0.935M";"Low"
"FOMC Member Mester Speaks";"United States";"USD";"2016-04-06T16:20:00";"GMT";" ";"";"";"Moderate"
"FOMC Meeting Minutes";"United States";"USD";"2016-04-06T18:00:00";"GMT";" ";"";"";"High"
"FOMC Member Bullard Speaks";"United States";"USD";"2016-04-06T22:30:00";"GMT";" ";"";"";"Moderate"
