{"events": {"event": {
    "eventDateTime": "2008-05-09T19:30:00",
    "eventActual": "65.4K",
    "eventCountry": "Australia",
    "eventExpectedVolatility": "Moderate",
    "eventName": "CFTC AUD speculative net positions",
    "eventTimeZone": "GMT",
    "eventPrevious": "50.5K",
    "eventCurrency": "AUD",
    "eventForecast": ""
  }}}
