"M3 Money Supply (YoY) (May)";"South Africa";"ZAR";"2015-06-30T06:00:00";"GMT";"8.38%";"7.90%";"8.37%";"Low"
"Private Sector Credit (May)";"South Africa";"ZAR";"2015-06-30T06:00:00";"GMT";"9.35%";"9.40%";"9.53%";"Low"
"Trade Balance (May)";"South Africa";"ZAR";"2015-06-30T12:00:00";"GMT";"-1.44B";"-3.50B";"4.99B";"Low"
