"GDP (MoM)";"Canada";"CAD";"2009-06-30T12:30:00";"GMT";"-0.3%";"-0.1%";"-0.1%";"High"
"IPPI (MoM)";"Canada";"CAD";"2009-06-30T12:30:00";"GMT";"-0.5%";"-0.3%";"-1.1%";"Low"
"RMPI (MoM)";"Canada";"CAD";"2009-06-30T12:30:00";"GMT";"-0.3%";"2.0%";"2.2%";"Moderate"
