{"events": {"event": [
    {
      "eventDateTime": "2020-01-29T12:30:00",
      "eventActual": "1.6%",
      "eventCountry": "Brazil",
      "eventExpectedVolatility": "Low",
      "eventName": "Bank lending (MoM) (Dec)",
      "eventTimeZone": "GMT",
      "eventPrevious": "1.1%",
      "eventCurrency": "BRL",
      "eventForecast": ""
    },
    {
      "eventDateTime": "2020-01-29T17:30:00",
      "eventActual": "-0.011B",
      "eventCountry": "Brazil",
      "eventExpectedVolatility": "Low",
      "eventName": "Foreign Exchange Flows",
      "eventTimeZone": "GMT",
      "eventPrevious": "0.235B",
      "eventCurrency": "BRL",
      "eventForecast": ""
    }
  ]}}
