"Italian Trade Balance";"Italy";"EUR";"2011-10-14T08:00:00";"GMT";"1.44B";"0.74B";"-3.15B";"Low"
"CPI (YoY)";"Euro Zone";"EUR";"2011-10-14T09:00:00";"GMT";"3.0%";"3.0%";"3.0%";"High"
"Core CPI (YoY)";"Euro Zone";"EUR";"2011-10-14T09:00:00";"GMT";"1.2%";"1.5%";"1.6%";"Moderate"
"Italian CPI (MoM)";"Italy";"EUR";"2011-10-14T09:00:00";"GMT";"0.1%";"0.1%";"0.0%";"Moderate"
"Trade Balance";"Euro Zone";"EUR";"2011-10-14T09:00:00";"GMT";"-3.7B";"-1.1B";"-1.0B";"Moderate"
"CFTC EUR speculative net positions";"Euro Zone";"EUR";"2011-10-14T19:30:00";"GMT";"-82.7K";"";"-73.8K";"Moderate"
