"CPI (MoM) (Sep)";"South Africa";"ZAR";"2014-10-22T08:00:00";"GMT";"0.4%";"0.2%";"0.0%";"Moderate"
"CPI (YoY) (Sep)";"South Africa";"ZAR";"2014-10-22T08:00:00";"GMT";"6.4%";"6.1%";"5.9%";"Low"
"Core CPI (MoM) (Sep)";"South Africa";"ZAR";"2014-10-22T08:00:00";"GMT";"0.30%";"0.50%";"0.40%";"Moderate"
"Core CPI (YoY) (Sep)";"South Africa";"ZAR";"2014-10-22T08:00:00";"GMT";"5.80%";"5.70%";"5.60%";"Low"
