"Investing.com USD/CHF Index";"Switzerland";"CHF";"2019-04-01T05:30:00";"GMT";"53.7%";"";"57.9%";"Moderate"
"Retail Sales (YoY) (Feb)";"Switzerland";"CHF";"2019-04-01T06:30:00";"GMT";"-0.2%";"0.3%";"-0.2%";"Moderate"
"procure.ch PMI (Mar)";"Switzerland";"CHF";"2019-04-01T07:30:00";"GMT";"55.4";"53.6";"50.3";"Moderate"
