{"events": {"event": [
    {
      "eventDateTime": "2019-04-01T05:30:00",
      "eventActual": "57.9%",
      "eventCountry": "Switzerland",
      "eventExpectedVolatility": "Moderate",
      "eventName": "Investing.com USD/CHF Index",
      "eventTimeZone": "GMT",
      "eventPrevious": "53.7%",
      "eventCurrency": "CHF",
      "eventForecast": ""
    },
    {
      "eventDateTime": "2019-04-01T06:30:00",
      "eventActual": "-0.2%",
      "eventCountry": "Switzerland",
      "eventExpectedVolatility": "Moderate",
      "eventName": "Retail Sales (YoY) (Feb)",
      "eventTimeZone": "GMT",
      "eventPrevious": "-0.2%",
      "eventCurrency": "CHF",
      "eventForecast": "0.3%"
    },
    {
      "eventDateTime": "2019-04-01T07:30:00",
      "eventActual": "50.3",
      "eventCountry": "Switzerland",
      "eventExpectedVolatility": "Moderate",
      "eventName": "procure.ch PMI (Mar)",
      "eventTimeZone": "GMT",
      "eventPrevious": "55.4",
      "eventCurrency": "CHF",
      "eventForecast": "53.6"
    }
  ]}}
