{"events": {"event": [
    {
      "eventDateTime": "2010-04-21T11:00:00",
      "eventActual": "13.6%",
      "eventCountry": "United States",
      "eventExpectedVolatility": "Low",
      "eventName": "MBA Mortgage Applications (WoW)",
      "eventTimeZone": "GMT",
      "eventPrevious": "-9.6%",
      "eventCurrency": "USD",
      "eventForecast": ""
    },
    {
      "eventDateTime": "2010-04-21T14:30:00",
      "eventActual": "1.900M",
      "eventCountry": "United States",
      "eventExpectedVolatility": "High",
      "eventName": "Crude Oil Inventories",
      "eventTimeZone": "GMT",
      "eventPrevious": "-2.200M",
      "eventCurrency": "USD",
      "eventForecast": ""
    }
  ]}}
