{"events": {"event": [
    {
      "eventDateTime": "2018-04-16T05:30:00",
      "eventActual": "65.2%",
      "eventCountry": "Euro Zone",
      "eventExpectedVolatility": "Moderate",
      "eventName": "Investing.com EUR/USD Index",
      "eventTimeZone": "GMT",
      "eventPrevious": "60.4%",
      "eventCurrency": "EUR",
      "eventForecast": ""
    },
    {
      "eventDateTime": "2018-04-16T06:00:00",
      "eventActual": "0.0%",
      "eventCountry": "Germany",
      "eventExpectedVolatility": "Low",
      "eventName": "German WPI (MoM) (Mar)",
      "eventTimeZone": "GMT",
      "eventPrevious": "-0.3%",
      "eventCurrency": "EUR",
      "eventForecast": "0.4%"
    },
    {
      "eventDateTime": "2018-04-16T06:00:00",
      "eventActual": "1.2%",
      "eventCountry": "Germany",
      "eventExpectedVolatility": "Low",
      "eventName": "German WPI (YoY) (Mar)",
      "eventTimeZone": "GMT",
      "eventPrevious": "1.2%",
      "eventCurrency": "EUR",
      "eventForecast": "1.5%"
    },
    {
      "eventDateTime": "2018-04-16T13:00:00",
      "eventActual": "-0.550%",
      "eventCountry": "France",
      "eventExpectedVolatility": "Low",
      "eventName": "French 12-Month BTF Auction",
      "eventTimeZone": "GMT",
      "eventPrevious": "-0.559%",
      "eventCurrency": "EUR",
      "eventForecast": ""
    },
    {
      "eventDateTime": "2018-04-16T13:00:00",
      "eventActual": "-0.573%",
      "eventCountry": "France",
      "eventExpectedVolatility": "Low",
      "eventName": "French 3-Month BTF Auction",
      "eventTimeZone": "GMT",
      "eventPrevious": "-0.573%",
      "eventCurrency": "EUR",
      "eventForecast": ""
    },
    {
      "eventDateTime": "2018-04-16T13:00:00",
      "eventActual": "-0.566%",
      "eventCountry": "France",
      "eventExpectedVolatility": "Low",
      "eventName": "French 6-Month BTF Auction",
      "eventTimeZone": "GMT",
      "eventPrevious": "-0.569%",
      "eventCurrency": "EUR",
      "eventForecast": ""
    }
  ]}}
