"Continuing Jobless Claims";"United States";"USD";"2015-12-31T13:30:00";"GMT";"2,195K";"2,201K";"2,198K";"Low"
"Initial Jobless Claims";"United States";"USD";"2015-12-31T13:30:00";"GMT";"267K";"270K";"287K";"Moderate"
"Jobless Claims 4-Week Avg.";"United States";"USD";"2015-12-31T13:30:00";"GMT";"272.50K";"";"277.00K";"Low"
"Chicago PMI (Dec)";"United States";"USD";"2015-12-31T14:45:00";"GMT";"48.7";"49.8";"42.9";"Moderate"
"Bloomberg Consumer Confidence";"United States";"USD";"2015-12-31T14:50:00";"GMT";"42.2";"";"43.6";"Low"
"Natural Gas Storage";"United States";"USD";"2015-12-31T15:30:00";"GMT";"-32B";"-57B";"-58B";"Low"
"U.S. Baker Hughes Oil Rig Count";"United States";"USD";"2015-12-31T18:00:00";"GMT";"538";"";"536";"Moderate"
