{"events": {"event": [
    {
      "eventDateTime": "2011-10-03T12:00:00",
      "eventActual": "0.7%",
      "eventCountry": "United States",
      "eventExpectedVolatility": "Low",
      "eventName": "Global Semiconductor Sales (MoM)",
      "eventTimeZone": "GMT",
      "eventPrevious": "-0.1%",
      "eventCurrency": "USD",
      "eventForecast": ""
    },
    {
      "eventDateTime": "2011-10-03T14:00:00",
      "eventActual": "1.4%",
      "eventCountry": "United States",
      "eventExpectedVolatility": "Low",
      "eventName": "Construction Spending (MoM)",
      "eventTimeZone": "GMT",
      "eventPrevious": "-1.4%",
      "eventCurrency": "USD",
      "eventForecast": "-0.2%"
    },
    {
      "eventDateTime": "2011-10-03T14:00:00",
      "eventActual": "51.6",
      "eventCountry": "United States",
      "eventExpectedVolatility": "High",
      "eventName": "ISM Manufacturing PMI",
      "eventTimeZone": "GMT",
      "eventPrevious": "50.6",
      "eventCurrency": "USD",
      "eventForecast": "50.5"
    },
    {
      "eventDateTime": "2011-10-03T14:00:00",
      "eventActual": "56.0",
      "eventCountry": "United States",
      "eventExpectedVolatility": "Low",
      "eventName": "ISM Manufacturing Prices",
      "eventTimeZone": "GMT",
      "eventPrevious": "55.5",
      "eventCurrency": "USD",
      "eventForecast": "54.3"
    },
    {
      "eventDateTime": "2011-10-03T20:00:00",
      "eventActual": "13.10M",
      "eventCountry": "United States",
      "eventExpectedVolatility": "Low",
      "eventName": "Total Vehicle Sales",
      "eventTimeZone": "GMT",
      "eventPrevious": "12.10M",
      "eventCurrency": "USD",
      "eventForecast": "12.50M"
    }
  ]}}
