{"events": {"event": [
    {
      "eventDateTime": "2011-04-15T12:30:00",
      "eventActual": "0.5%",
      "eventCountry": "United States",
      "eventExpectedVolatility": "Moderate",
      "eventName": "CPI (MoM)",
      "eventTimeZone": "GMT",
      "eventPrevious": "0.5%",
      "eventCurrency": "USD",
      "eventForecast": "0.5%"
    },
    {
      "eventDateTime": "2011-04-15T12:30:00",
      "eventActual": "0.1%",
      "eventCountry": "United States",
      "eventExpectedVolatility": "High",
      "eventName": "Core CPI (MoM)",
      "eventTimeZone": "GMT",
      "eventPrevious": "0.2%",
      "eventCurrency": "USD",
      "eventForecast": "0.2%"
    },
    {
      "eventDateTime": "2011-04-15T12:30:00",
      "eventActual": "21.7",
      "eventCountry": "United States",
      "eventExpectedVolatility": "Moderate",
      "eventName": "NY Empire State Manufacturing Index",
      "eventTimeZone": "GMT",
      "eventPrevious": "17.5",
      "eventCurrency": "USD",
      "eventForecast": "15.5"
    },
    {
      "eventDateTime": "2011-04-15T13:00:00",
      "eventActual": "26.9B",
      "eventCountry": "United States",
      "eventExpectedVolatility": "Moderate",
      "eventName": "TIC Net Long-Term Transactions",
      "eventTimeZone": "GMT",
      "eventPrevious": "51.1B",
      "eventCurrency": "USD",
      "eventForecast": "59.4B"
    },
    {
      "eventDateTime": "2011-04-15T13:15:00",
      "eventActual": "77.4%",
      "eventCountry": "United States",
      "eventExpectedVolatility": "Low",
      "eventName": "Capacity Utilization Rate",
      "eventTimeZone": "GMT",
      "eventPrevious": "76.9%",
      "eventCurrency": "USD",
      "eventForecast": "77.4%"
    },
    {
      "eventDateTime": "2011-04-15T13:15:00",
      "eventActual": "0.8%",
      "eventCountry": "United States",
      "eventExpectedVolatility": "Moderate",
      "eventName": "Industrial Production (MoM)",
      "eventTimeZone": "GMT",
      "eventPrevious": "0.1%",
      "eventCurrency": "USD",
      "eventForecast": "0.6%"
    },
    {
      "eventDateTime": "2011-04-15T13:55:00",
      "eventActual": "69.6",
      "eventCountry": "United States",
      "eventExpectedVolatility": "Moderate",
      "eventName": "Michigan Consumer Sentiment",
      "eventTimeZone": "GMT",
      "eventPrevious": "67.5",
      "eventCurrency": "USD",
      "eventForecast": "68.8"
    },
    {
      "eventDateTime": "2011-04-15T13:55:00",
      "eventActual": "4.6%",
      "eventCountry": "United States",
      "eventExpectedVolatility": "Low",
      "eventName": "Michigan Inflation Expectations",
      "eventTimeZone": "GMT",
      "eventPrevious": "4.6%",
      "eventCurrency": "USD",
      "eventForecast": ""
    },
    {
      "eventDateTime": "2011-04-15T15:15:00",
      "eventActual": "",
      "eventCountry": "United States",
      "eventExpectedVolatility": "Low",
      "eventName": "Chicago Fed President Evans Speaks",
      "eventTimeZone": "GMT",
      "eventPrevious": "",
      "eventCurrency": "USD",
      "eventForecast": ""
    },
    {
      "eventDateTime": "2011-04-15T17:00:00",
      "eventActual": "880",
      "eventCountry": "United States",
      "eventExpectedVolatility": "Moderate",
      "eventName": "U.S. Baker Hughes Oil Rig Count",
      "eventTimeZone": "GMT",
      "eventPrevious": "886",
      "eventCurrency": "USD",
      "eventForecast": ""
    },
    {
      "eventDateTime": "2011-04-15T19:30:00",
      "eventActual": "201.7K",
      "eventCountry": "United States",
      "eventExpectedVolatility": "Moderate",
      "eventName": "CFTC Gold speculative net positions",
      "eventTimeZone": "GMT",
      "eventPrevious": "204.7K",
      "eventCurrency": "USD",
      "eventForecast": ""
    },
    {
      "eventDateTime": "2011-04-15T19:30:00",
      "eventActual": "32.7K",
      "eventCountry": "United States",
      "eventExpectedVolatility": "Low",
      "eventName": "CFTC Silver speculative net positions",
      "eventTimeZone": "GMT",
      "eventPrevious": "36.8K",
      "eventCurrency": "USD",
      "eventForecast": ""
    },
    {
      "eventDateTime": "2011-04-15T20:30:00",
      "eventActual": "243.3k",
      "eventCountry": "United States",
      "eventExpectedVolatility": "Moderate",
      "eventName": "CFTC Crude Oil speculative net positions",
      "eventTimeZone": "GMT",
      "eventPrevious": "252.2k",
      "eventCurrency": "USD",
      "eventForecast": ""
    }
  ]}}
