"10-Year Note Auction (Mar)";"United States";"USD";"2008-04-01T09:00:00";"GMT";"3.50%";"";"3.50%";"Moderate"
"5-Year Note Auction (Mar)";"United States";"USD";"2008-04-01T09:00:00";"GMT";"2.75%";"";"2.50%";"Low"
"All Car Sales (Mar)";"United States";"USD";"2008-04-01T09:00:00";"GMT";"7.24M";"";"7.28M";"Low"
"All Truck Sales (Mar)";"United States";"USD";"2008-04-01T09:00:00";"GMT";"7.92M";"";"7.51M";"Low"
"Average Weekly Hours (Mar)";"United States";"USD";"2008-04-01T09:00:00";"GMT";"34.50";"";"34.60";"Low"
"CB Employment Trends Index (Mar)";"United States";"USD";"2008-04-01T09:00:00";"GMT";"122.20";"";"120.70";"Low"
"CPI (YoY) (Mar)";"United States";"USD";"2008-04-01T09:00:00";"GMT";"4.00%";"";"4.00%";"Low"
"CPI Index, n.s.a. (Mar)";"United States";"USD";"2008-04-01T09:00:00";"GMT";"211.69";"";"213.53";"Low"
"Chain Store Sales (MoM) (Mar)";"United States";"USD";"2008-04-01T09:00:00";"GMT";"1.90%";"";"-0.50%";"Low"
"Chain Store Sales (WoW) (Mar)";"United States";"USD";"2008-04-01T09:00:00";"GMT";"-0.11%";"";"0.06%";"Low"
"Chain Store Sales (YoY) (Mar)";"United States";"USD";"2008-04-01T09:00:00";"GMT";"2.00%";"";"1.13%";"Low"
"Challenger Job Cuts (Mar)";"United States";"USD";"2008-04-01T09:00:00";"GMT";"72.09K";"";"53.58K";"Low"
"Chicago Fed National Activity (Mar)";"United States";"USD";"2008-04-01T09:00:00";"GMT";"-1.19";"";"-1.28";"Low"
"Cleveland CPI (MoM) (Mar)";"United States";"USD";"2008-04-01T09:00:00";"GMT";"0.20%";"";"0.20%";"Low"
"Continuing Jobless Claims (Mar)";"United States";"USD";"2008-04-01T09:00:00";"GMT";"2,856.19K";"";"2,926.38K";"Low"
"Core CPI (YoY) (Mar)";"United States";"USD";"2008-04-01T09:00:00";"GMT";"2.30%";"";"2.40%";"Moderate"
"Core CPI Index (Mar)";"United States";"USD";"2008-04-01T09:00:00";"GMT";"213.94";"";"214.42";"Low"
"Core PCE Price Index (YoY) (Mar)";"United States";"USD";"2008-04-01T09:00:00";"GMT";"2.00%";"";"2.20%";"Moderate"
"Dallas Fed Mfg Business Index (Mar)";"United States";"USD";"2008-04-01T09:00:00";"GMT";"-24.40";"";"-30.10";"Low"
"Dallas Fed PCE (Mar)";"United States";"USD";"2008-04-01T09:00:00";"GMT";"2.00%";"";"2.90%";"Low"
"Dallas Fed Services Revenues (Mar)";"United States";"USD";"2008-04-01T09:00:00";"GMT";"4.00";"";"1.90";"Low"
"Domestic Truck Sales (Mar)";"United States";"USD";"2008-04-01T09:00:00";"GMT";"6.62M";"";"6.25M";"Low"
"Durables Excluding Defense (MoM) (Mar)";"United States";"USD";"2008-04-01T09:00:00";"GMT";"-2.10%";"";"-1.30%";"Low"
"EIA Weekly Distillates Stocks (Mar)";"United States";"USD";"2008-04-01T09:00:00";"GMT";"-2.26M";"";"-2.06M";"Low"
"Existing Home Sales (MoM) (Mar)";"United States";"USD";"2008-04-01T09:00:00";"GMT";"-1.20%";"";"1.00%";"Moderate"
"Export Price Index (MoM) (Mar)";"United States";"USD";"2008-04-01T09:00:00";"GMT";"0.90%";"";"1.60%";"Moderate"
"Factory orders ex transportation (MoM) (Mar)";"United States";"USD";"2008-04-01T09:00:00";"GMT";"-1.30%";"";"1.20%";"Low"
"Federal Budget Balance (Mar)";"United States";"USD";"2008-04-01T09:00:00";"GMT";"-175.60B";"";"-48.20B";"Moderate"
"Gasoline Inventories (Mar)";"United States";"USD";"2008-04-01T09:00:00";"GMT";"1.79M";"";"-2.44M";"Low"
"Government Payrolls (Mar)";"United States";"USD";"2008-04-01T09:00:00";"GMT";"29.00K";"";"26.00K";"Low"
"House Price Index (Mar)";"United States";"USD";"2008-04-01T09:00:00";"GMT";"214.90";"";"213.00";"Low"
"House Price Index (MoM) (Mar)";"United States";"USD";"2008-04-01T09:00:00";"GMT";"-0.50%";"";"-0.90%";"Low"
"House Price Index (YoY) (Mar)";"United States";"USD";"2008-04-01T09:00:00";"GMT";"-4.80%";"";"-6.20%";"Low"
"Housing Starts (MoM) (Mar)";"United States";"USD";"2008-04-01T09:00:00";"GMT";"1.80%";"";"-8.90%";"Moderate"
"ISM Manufacturing Employment (Mar)";"United States";"USD";"2008-04-01T09:00:00";"GMT";"45.80";"";"48.20";"Moderate"
"ISM Manufacturing New Orders Index (Mar)";"United States";"USD";"2008-04-01T09:00:00";"GMT";"46.40";"";"45.60";"Low"
"ISM Non-Manufacturing Business Activity (Mar)";"United States";"USD";"2008-04-01T09:00:00";"GMT";"52.20";"";"51.70";"Low"
"ISM Non-Manufacturing Employment (Mar)";"United States";"USD";"2008-04-01T09:00:00";"GMT";"47.30";"";"47.40";"Moderate"
"ISM Non-Manufacturing New Orders (Mar)";"United States";"USD";"2008-04-01T09:00:00";"GMT";"50.10";"";"49.30";"Low"
"ISM Non-Manufacturing Prices (Mar)";"United States";"USD";"2008-04-01T09:00:00";"GMT";"68.80";"";"69.80";"Low"
"ISM-New York Index (Mar)";"United States";"USD";"2008-04-01T09:00:00";"GMT";"426.30";"";"422.90";"Low"
"JOLTs Job Openings (Mar)";"United States";"USD";"2008-04-01T09:00:00";"GMT";"4.04M";"";"4.01M";"High"
"Jobless Claims 4-Week Avg. (Mar)";"United States";"USD";"2008-04-01T09:00:00";"GMT";"346.48K";"";"357.12K";"Low"
"KC Fed Composite Index (Mar)";"United States";"USD";"2008-04-01T09:00:00";"GMT";"2.00";"";"-2.00";"Low"
"KC Fed Manufacturing Index (Mar)";"United States";"USD";"2008-04-01T09:00:00";"GMT";"-1.00";"";"-3.00";"Low"
"MBA 30-Year Mortgage Rate (Mar)";"United States";"USD";"2008-04-01T09:00:00";"GMT";"6.00%";"";"5.95%";"Low"
"MBA Purchase Index (Mar)";"United States";"USD";"2008-04-01T09:00:00";"GMT";"372.35";"";"373.91";"Low"
"Manufacturing Payrolls (Mar)";"United States";"USD";"2008-04-01T09:00:00";"GMT";"-29.00K";"";"-37.00K";"Low"
"Manufacturing Production (MoM) (Mar)";"United States";"USD";"2008-04-01T09:00:00";"GMT";"-0.60%";"";"-0.30%";"Low"
"Michigan 5-Year Inflation Expectations (Mar)";"United States";"USD";"2008-04-01T09:00:00";"GMT";"3.00%";"";"2.90%";"Low"
"Michigan Consumer Expectations (Mar)";"United States";"USD";"2008-04-01T09:00:00";"GMT";"62.40";"";"61.40";"Moderate"
"Michigan Current Conditions (Mar)";"United States";"USD";"2008-04-01T09:00:00";"GMT";"85.40";"";"84.20";"Low"
"Michigan Inflation Expectations (Mar)";"United States";"USD";"2008-04-01T09:00:00";"GMT";"3.60%";"";"4.30%";"Low"
"Midwest Manufacturing (Mar)";"United States";"USD";"2008-04-01T09:00:00";"GMT";"100.50";"";"99.80";"Low"
"Mortgage Market Index (Mar)";"United States";"USD";"2008-04-01T09:00:00";"GMT";"822.29";"";"743.58";"Low"
"Mortgage Refinance Index (Mar)";"United States";"USD";"2008-04-01T09:00:00";"GMT";"3,446.19";"";"2,909.41";"Low"
"NFIB Small Business Optimism (Mar)";"United States";"USD";"2008-04-01T09:00:00";"GMT";"92.90";"";"89.60";"Low"
"Natural Gas Storage (Mar)";"United States";"USD";"2008-04-01T09:00:00";"GMT";"-147.14B";"";"-56.86B";"Low"
"New Home Sales (MoM) (Mar)";"United States";"USD";"2008-04-01T09:00:00";"GMT";"-5.40%";"";"-9.80%";"Moderate"
"Overall Net Capital Flow (Mar)";"United States";"USD";"2008-04-01T09:00:00";"GMT";"44.40B";"";"-52.20B";"Low"
"Pending Home Sales Index (Mar)";"United States";"USD";"2008-04-01T09:00:00";"GMT";"87.80";"";"82.80";"Low"
"Philly Fed Business Conditions (Mar)";"United States";"USD";"2008-04-01T09:00:00";"GMT";"-12.40";"";"5.00";"Low"
"Philly Fed CAPEX Index (Mar)";"United States";"USD";"2008-04-01T09:00:00";"GMT";"6.30";"";"3.70";"Low"
"Philly Fed Employment (Mar)";"United States";"USD";"2008-04-01T09:00:00";"GMT";"4.30";"";"-0.50";"Moderate"
"Philly Fed New Orders (Mar)";"United States";"USD";"2008-04-01T09:00:00";"GMT";"-9.90";"";"-6.60";"Low"
"Philly Fed Prices Paid (Mar)";"United States";"USD";"2008-04-01T09:00:00";"GMT";"49.40";"";"52.10";"Low"
"Private Nonfarm Payrolls (Mar)";"United States";"USD";"2008-04-01T09:00:00";"GMT";"-116.00K";"";"-105.00K";"Moderate"
"Real Earnings (MoM) (Mar)";"United States";"USD";"2008-04-01T09:00:00";"GMT";"0.10%";"";"0.40%";"Low"
"Real Personal Consumption (MoM) (Mar)";"United States";"USD";"2008-04-01T09:00:00";"GMT";"-0.30%";"";"0.20%";"Low"
"Redbook (MoM) (Mar)";"United States";"USD";"2008-04-01T09:00:00";"GMT";"-1.16%";"";"1.70%";"Low"
"Redbook (YoY) (Mar)";"United States";"USD";"2008-04-01T09:00:00";"GMT";"0.46%";"";"1.11%";"Low"
"Retail Control (MoM) (Mar)";"United States";"USD";"2008-04-01T09:00:00";"GMT";"-0.60%";"";"0.30%";"Low"
"Retail Sales Ex Gas/Autos (MoM) (Mar)";"United States";"USD";"2008-04-01T09:00:00";"GMT";"-0.80%";"";"0.20%";"Low"
"Richmond Manufacturing Shipments (Mar)";"United States";"USD";"2008-04-01T09:00:00";"GMT";"-14.00";"";"-6.00";"Low"
"Richmond Services Index (Mar)";"United States";"USD";"2008-04-01T09:00:00";"GMT";"-1.00";"";"-6.00";"Low"
"Sandamp;P/CS HPI Composite - 20 n.s.a. (MoM) (Mar)";"United States";"USD";"2008-04-01T09:00:00";"GMT";"-2.60%";"";"-2.10%";"Low"
"Sandamp;P/CS HPI Composite - 20 s.a. (MoM) (Mar)";"United States";"USD";"2008-04-01T09:00:00";"GMT";"-2.00%";"";"-1.70%";"Low"
"TIC Net Long-Term Transactions including Swaps (Mar)";"United States";"USD";"2008-04-01T09:00:00";"GMT";"32.40B";"";"49.50B";"Low"
"Texas Services Sector Outlook (Mar)";"United States";"USD";"2008-04-01T09:00:00";"GMT";"-12.20";"";"-29.20";"Low"
"US Foreign Buying, T-bonds (Mar)";"United States";"USD";"2008-04-01T09:00:00";"GMT";"12.20B";"";"51.00B";"Low"
"U6 Unemployment Rate (Mar)";"United States";"USD";"2008-04-01T12:30:00";"GMT";"9.00%";"";"9.10%";"Low"
"Unemployment Rate (Mar)";"United States";"USD";"2008-04-01T12:30:00";"GMT";"4.9%";"";"5.1%";"High"
"Construction Spending (MoM)";"United States";"USD";"2008-04-01T14:00:00";"GMT";"-1.7%";"-1.0%";"-0.3%";"Low"
"ISM Manufacturing PMI";"United States";"USD";"2008-04-01T14:00:00";"GMT";"48.3";"47.5";"48.6";"High"
"ISM Manufacturing Prices";"United States";"USD";"2008-04-01T14:00:00";"GMT";"75.5";"75.1";"83.5";"Low"
