{"events": {"event": [
    {
      "eventDateTime": "2017-02-24T11:00:00",
      "eventActual": "12.6%",
      "eventCountry": "Brazil",
      "eventExpectedVolatility": "Moderate",
      "eventName": "Unemployment Rate",
      "eventTimeZone": "GMT",
      "eventPrevious": "12.0%",
      "eventCurrency": "BRL",
      "eventForecast": "12.5%"
    },
    {
      "eventDateTime": "2017-02-24T13:30:00",
      "eventActual": "0.300B",
      "eventCountry": "Brazil",
      "eventExpectedVolatility": "Low",
      "eventName": "Budget Balance (Jan)",
      "eventTimeZone": "GMT",
      "eventPrevious": "-105.237B",
      "eventCurrency": "BRL",
      "eventForecast": "-13.200B"
    },
    {
      "eventDateTime": "2017-02-24T13:30:00",
      "eventActual": "36.700B",
      "eventCountry": "Brazil",
      "eventExpectedVolatility": "Low",
      "eventName": "Budget Surplus (Jan)",
      "eventTimeZone": "GMT",
      "eventPrevious": "-70.737B",
      "eventCurrency": "BRL",
      "eventForecast": "11.600B"
    },
    {
      "eventDateTime": "2017-02-24T13:30:00",
      "eventActual": "46.4%",
      "eventCountry": "Brazil",
      "eventExpectedVolatility": "Low",
      "eventName": "Debt-to-GDP ratio (Jan)",
      "eventTimeZone": "GMT",
      "eventPrevious": "45.9%",
      "eventCurrency": "BRL",
      "eventForecast": "46.5%"
    }
  ]}}
