"Investing.com EUR/USD Index";"Euro Zone";"EUR";"2018-06-11T05:30:00";"GMT";"61.2%";"";"65.2%";"Moderate"
"Italian Industrial Production (MoM) (Apr)";"Italy";"EUR";"2018-06-11T08:00:00";"GMT";"1.2%";"-0.6%";"-1.2%";"Low"
"Italian Industrial Production (YoY) (Apr)";"Italy";"EUR";"2018-06-11T08:00:00";"GMT";"3.5%";"3.4%";"1.9%";"Low"
"French 12-Month BTF Auction";"France";"EUR";"2018-06-11T13:00:00";"GMT";"-0.565%";"";"-0.592%";"Low"
"French 3-Month BTF Auction";"France";"EUR";"2018-06-11T13:00:00";"GMT";"-0.596%";"";"-0.594%";"Low"
"French 6-Month BTF Auction";"France";"EUR";"2018-06-11T13:00:00";"GMT";"-0.595%";"";"-0.590%";"Low"
