{"events": {"event": [
    {
      "eventDateTime": "2016-11-03T11:30:00",
      "eventActual": "30.7K",
      "eventCountry": "United States",
      "eventExpectedVolatility": "Low",
      "eventName": "Challenger Job Cuts (Oct)",
      "eventTimeZone": "GMT",
      "eventPrevious": "44.3K",
      "eventCurrency": "USD",
      "eventForecast": ""
    },
    {
      "eventDateTime": "2016-11-03T11:30:00",
      "eventActual": "-39.1%",
      "eventCountry": "United States",
      "eventExpectedVolatility": "Low",
      "eventName": "Challenger Job Cuts (YoY)",
      "eventTimeZone": "GMT",
      "eventPrevious": "-24.7%",
      "eventCurrency": "USD",
      "eventForecast": ""
    },
    {
      "eventDateTime": "2016-11-03T12:30:00",
      "eventActual": "2,026K",
      "eventCountry": "United States",
      "eventExpectedVolatility": "Low",
      "eventName": "Continuing Jobless Claims",
      "eventTimeZone": "GMT",
      "eventPrevious": "2,040K",
      "eventCurrency": "USD",
      "eventForecast": "2,044K"
    },
    {
      "eventDateTime": "2016-11-03T12:30:00",
      "eventActual": "265K",
      "eventCountry": "United States",
      "eventExpectedVolatility": "Moderate",
      "eventName": "Initial Jobless Claims",
      "eventTimeZone": "GMT",
      "eventPrevious": "258K",
      "eventCurrency": "USD",
      "eventForecast": "258K"
    },
    {
      "eventDateTime": "2016-11-03T12:30:00",
      "eventActual": "257.75K",
      "eventCountry": "United States",
      "eventExpectedVolatility": "Low",
      "eventName": "Jobless Claims 4-Week Avg.",
      "eventTimeZone": "GMT",
      "eventPrevious": "253.00K",
      "eventCurrency": "USD",
      "eventForecast": ""
    },
    {
      "eventDateTime": "2016-11-03T12:30:00",
      "eventActual": "3.1%",
      "eventCountry": "United States",
      "eventExpectedVolatility": "Moderate",
      "eventName": "Nonfarm Productivity (QoQ) (Q3)",
      "eventTimeZone": "GMT",
      "eventPrevious": "-0.2%",
      "eventCurrency": "USD",
      "eventForecast": "2.0%"
    },
    {
      "eventDateTime": "2016-11-03T12:30:00",
      "eventActual": "0.3%",
      "eventCountry": "United States",
      "eventExpectedVolatility": "Moderate",
      "eventName": "Unit Labor Costs (QoQ) (Q3)",
      "eventTimeZone": "GMT",
      "eventPrevious": "3.9%",
      "eventCurrency": "USD",
      "eventForecast": "1.3%"
    },
    {
      "eventDateTime": "2016-11-03T13:45:00",
      "eventActual": "54.9",
      "eventCountry": "United States",
      "eventExpectedVolatility": "Moderate",
      "eventName": "Markit Composite PMI (Oct)",
      "eventTimeZone": "GMT",
      "eventPrevious": "54.9",
      "eventCurrency": "USD",
      "eventForecast": ""
    },
    {
      "eventDateTime": "2016-11-03T13:45:00",
      "eventActual": "54.8",
      "eventCountry": "United States",
      "eventExpectedVolatility": "Moderate",
      "eventName": "Services PMI (Oct)",
      "eventTimeZone": "GMT",
      "eventPrevious": "54.8",
      "eventCurrency": "USD",
      "eventForecast": "54.8"
    },
    {
      "eventDateTime": "2016-11-03T13:50:00",
      "eventActual": "44.6",
      "eventCountry": "United States",
      "eventExpectedVolatility": "Low",
      "eventName": "Bloomberg Consumer Confidence",
      "eventTimeZone": "GMT",
      "eventPrevious": "43.9",
      "eventCurrency": "USD",
      "eventForecast": ""
    },
    {
      "eventDateTime": "2016-11-03T14:00:00",
      "eventActual": "0.3%",
      "eventCountry": "United States",
      "eventExpectedVolatility": "Moderate",
      "eventName": "Factory Orders (MoM) (Sep)",
      "eventTimeZone": "GMT",
      "eventPrevious": "0.4%",
      "eventCurrency": "USD",
      "eventForecast": "0.2%"
    },
    {
      "eventDateTime": "2016-11-03T14:00:00",
      "eventActual": "0.6%",
      "eventCountry": "United States",
      "eventExpectedVolatility": "Low",
      "eventName": "Factory orders ex transportation (MoM) (Sep)",
      "eventTimeZone": "GMT",
      "eventPrevious": "0.3%",
      "eventCurrency": "USD",
      "eventForecast": ""
    },
    {
      "eventDateTime": "2016-11-03T14:00:00",
      "eventActual": "57.7",
      "eventCountry": "United States",
      "eventExpectedVolatility": "Low",
      "eventName": "ISM Non-Manufacturing Business Activity (Oct)",
      "eventTimeZone": "GMT",
      "eventPrevious": "60.3",
      "eventCurrency": "USD",
      "eventForecast": "59.7"
    },
    {
      "eventDateTime": "2016-11-03T14:00:00",
      "eventActual": "53.1",
      "eventCountry": "United States",
      "eventExpectedVolatility": "Moderate",
      "eventName": "ISM Non-Manufacturing Employment (Oct)",
      "eventTimeZone": "GMT",
      "eventPrevious": "57.2",
      "eventCurrency": "USD",
      "eventForecast": ""
    },
    {
      "eventDateTime": "2016-11-03T14:00:00",
      "eventActual": "57.7",
      "eventCountry": "United States",
      "eventExpectedVolatility": "Low",
      "eventName": "ISM Non-Manufacturing New Orders (Oct)",
      "eventTimeZone": "GMT",
      "eventPrevious": "60.0",
      "eventCurrency": "USD",
      "eventForecast": ""
    },
    {
      "eventDateTime": "2016-11-03T14:00:00",
      "eventActual": "54.8",
      "eventCountry": "United States",
      "eventExpectedVolatility": "High",
      "eventName": "ISM Non-Manufacturing PMI (Oct)",
      "eventTimeZone": "GMT",
      "eventPrevious": "57.1",
      "eventCurrency": "USD",
      "eventForecast": "56.0"
    },
    {
      "eventDateTime": "2016-11-03T14:00:00",
      "eventActual": "56.6",
      "eventCountry": "United States",
      "eventExpectedVolatility": "Low",
      "eventName": "ISM Non-Manufacturing Prices (Oct)",
      "eventTimeZone": "GMT",
      "eventPrevious": "54.0",
      "eventCurrency": "USD",
      "eventForecast": ""
    },
    {
      "eventDateTime": "2016-11-03T14:30:00",
      "eventActual": "54B",
      "eventCountry": "United States",
      "eventExpectedVolatility": "Low",
      "eventName": "Natural Gas Storage",
      "eventTimeZone": "GMT",
      "eventPrevious": "73B",
      "eventCurrency": "USD",
      "eventForecast": "56B"
    }
  ]}}
