{"events": {"event": [
    {
      "eventDateTime": "2009-04-01T09:00:00",
      "eventActual": "17.87%",
      "eventCountry": "India",
      "eventExpectedVolatility": "Low",
      "eventName": "Bank Loan Growth (Mar)",
      "eventTimeZone": "GMT",
      "eventPrevious": "19.05%",
      "eventCurrency": "INR",
      "eventForecast": ""
    },
    {
      "eventDateTime": "2009-04-01T09:00:00",
      "eventActual": "5.00%",
      "eventCountry": "India",
      "eventExpectedVolatility": "Low",
      "eventName": "Cash Reserve Ratio (Mar)",
      "eventTimeZone": "GMT",
      "eventPrevious": "5.00%",
      "eventCurrency": "INR",
      "eventForecast": ""
    },
    {
      "eventDateTime": "2009-04-01T09:00:00",
      "eventActual": "2.80%",
      "eventCountry": "India",
      "eventExpectedVolatility": "Low",
      "eventName": "Cumulative Industrial Production (Mar)",
      "eventTimeZone": "GMT",
      "eventPrevious": "3.00%",
      "eventCurrency": "INR",
      "eventForecast": ""
    },
    {
      "eventDateTime": "2009-04-01T09:00:00",
      "eventActual": "20.47%",
      "eventCountry": "India",
      "eventExpectedVolatility": "Low",
      "eventName": "Deposit Growth (Mar)",
      "eventTimeZone": "GMT",
      "eventPrevious": "21.20%",
      "eventCurrency": "INR",
      "eventForecast": ""
    },
    {
      "eventDateTime": "2009-04-01T09:00:00",
      "eventActual": "12.92B",
      "eventCountry": "India",
      "eventExpectedVolatility": "Low",
      "eventName": "Exports (USD) (Mar)",
      "eventTimeZone": "GMT",
      "eventPrevious": "11.94B",
      "eventCurrency": "INR",
      "eventForecast": ""
    },
    {
      "eventDateTime": "2009-04-01T09:00:00",
      "eventActual": "255.16B",
      "eventCountry": "India",
      "eventExpectedVolatility": "Low",
      "eventName": "FX Reserves, USD (Mar)",
      "eventTimeZone": "GMT",
      "eventPrevious": "249.28B",
      "eventCurrency": "INR",
      "eventForecast": ""
    },
    {
      "eventDateTime": "2009-04-01T09:00:00",
      "eventActual": "3,369.92B",
      "eventCountry": "India",
      "eventExpectedVolatility": "Low",
      "eventName": "Federal Fiscal Deficit (Mar)",
      "eventTimeZone": "GMT",
      "eventPrevious": "3,071.33B",
      "eventCurrency": "INR",
      "eventForecast": ""
    },
    {
      "eventDateTime": "2009-04-01T09:00:00",
      "eventActual": "16.60B",
      "eventCountry": "India",
      "eventExpectedVolatility": "Low",
      "eventName": "Imports (USD) (Mar)",
      "eventTimeZone": "GMT",
      "eventPrevious": "15.06B",
      "eventCurrency": "INR",
      "eventForecast": ""
    },
    {
      "eventDateTime": "2009-04-01T09:00:00",
      "eventActual": "-5.20%",
      "eventCountry": "India",
      "eventExpectedVolatility": "Low",
      "eventName": "Industrial Production (YoY) (Mar)",
      "eventTimeZone": "GMT",
      "eventPrevious": "-7.20%",
      "eventCurrency": "INR",
      "eventForecast": ""
    },
    {
      "eventDateTime": "2009-04-01T09:00:00",
      "eventActual": "3.58%",
      "eventCountry": "India",
      "eventExpectedVolatility": "Low",
      "eventName": "Infrastructure Output (YoY) (Mar)",
      "eventTimeZone": "GMT",
      "eventPrevious": "0.93%",
      "eventCurrency": "INR",
      "eventForecast": ""
    },
    {
      "eventDateTime": "2009-04-01T09:00:00",
      "eventActual": "5.05%",
      "eventCountry": "India",
      "eventExpectedVolatility": "High",
      "eventName": "Interest Rate Decision (Mar)",
      "eventTimeZone": "GMT",
      "eventPrevious": "5.50%",
      "eventCurrency": "INR",
      "eventForecast": ""
    },
    {
      "eventDateTime": "2009-04-01T09:00:00",
      "eventActual": "19.70%",
      "eventCountry": "India",
      "eventExpectedVolatility": "Low",
      "eventName": "M3 Money Supply (Mar)",
      "eventTimeZone": "GMT",
      "eventPrevious": "20.37%",
      "eventCurrency": "INR",
      "eventForecast": ""
    },
    {
      "eventDateTime": "2009-04-01T09:00:00",
      "eventActual": "-7.20%",
      "eventCountry": "India",
      "eventExpectedVolatility": "Low",
      "eventName": "Manufacturing Output (MoM) (Mar)",
      "eventTimeZone": "GMT",
      "eventPrevious": "-9.10%",
      "eventCurrency": "INR",
      "eventForecast": ""
    },
    {
      "eventDateTime": "2009-04-01T09:00:00",
      "eventActual": "3.55%",
      "eventCountry": "India",
      "eventExpectedVolatility": "Low",
      "eventName": "Reverse REPO Rate (Mar)",
      "eventTimeZone": "GMT",
      "eventPrevious": "4.00%",
      "eventCurrency": "INR",
      "eventForecast": ""
    },
    {
      "eventDateTime": "2009-04-01T09:00:00",
      "eventActual": "-3.68B",
      "eventCountry": "India",
      "eventExpectedVolatility": "Low",
      "eventName": "Trade Balance (Mar)",
      "eventTimeZone": "GMT",
      "eventPrevious": "-3.12B",
      "eventCurrency": "INR",
      "eventForecast": ""
    },
    {
      "eventDateTime": "2009-04-01T09:00:00",
      "eventActual": "8.00%",
      "eventCountry": "India",
      "eventExpectedVolatility": "Low",
      "eventName": "WPI Food (YoY) (Mar)",
      "eventTimeZone": "GMT",
      "eventPrevious": "9.50%",
      "eventCurrency": "INR",
      "eventForecast": ""
    },
    {
      "eventDateTime": "2009-04-01T09:00:00",
      "eventActual": "-3.40%",
      "eventCountry": "India",
      "eventExpectedVolatility": "Low",
      "eventName": "WPI Fuel (YoY) (Mar)",
      "eventTimeZone": "GMT",
      "eventPrevious": "0.00%",
      "eventCurrency": "INR",
      "eventForecast": ""
    },
    {
      "eventDateTime": "2009-04-01T09:00:00",
      "eventActual": "1.65%",
      "eventCountry": "India",
      "eventExpectedVolatility": "Moderate",
      "eventName": "WPI Inflation (YoY) (Mar)",
      "eventTimeZone": "GMT",
      "eventPrevious": "3.61%",
      "eventCurrency": "INR",
      "eventForecast": ""
    },
    {
      "eventDateTime": "2009-04-01T09:00:00",
      "eventActual": "1.70%",
      "eventCountry": "India",
      "eventExpectedVolatility": "Low",
      "eventName": "WPI Manufacturing Inflation (YoY) (Mar)",
      "eventTimeZone": "GMT",
      "eventPrevious": "3.19%",
      "eventCurrency": "INR",
      "eventForecast": ""
    }
  ]}}
