"Investing.com Gold Index";"United States";"USD";"2015-02-09T06:30:00";"GMT";"56.3%";"";"55.0%";"Moderate"
"Investing.com Sandamp:P 500 Index";"United States";"USD";"2015-02-09T06:30:00";"GMT";"49.6%";"";"54.4%";"Moderate"
"CB Employment Trends Index (Feb)";"United States";"USD";"2015-02-09T15:00:00";"GMT";"127.17";"";"127.86";"Low"
"Fed Labor Market Conditions Index";"United States";"USD";"2015-02-09T15:00:00";"GMT";"7.3";"";"4.9";"Low"
"3-Month Bill Auction";"United States";"USD";"2015-02-09T16:30:00";"GMT";"0.015%";"";"0.020%";"Low"
"6-Month Bill Auction";"United States";"USD";"2015-02-09T16:30:00";"GMT";"0.065%";"";"0.085%";"Low"
"FOMC Member Powell Speaks";"United States";"USD";"2015-02-09T21:00:00";"GMT";" ";"";"";"High"
