{"events": {"event": [
    {
      "eventDateTime": "2010-09-03T08:00:00",
      "eventActual": "55.9",
      "eventCountry": "Euro Zone",
      "eventExpectedVolatility": "Moderate",
      "eventName": "Services PMI",
      "eventTimeZone": "GMT",
      "eventPrevious": "55.6",
      "eventCurrency": "EUR",
      "eventForecast": "55.6"
    },
    {
      "eventDateTime": "2010-09-03T09:00:00",
      "eventActual": "0.1%",
      "eventCountry": "Euro Zone",
      "eventExpectedVolatility": "Moderate",
      "eventName": "Retail Sales (MoM)",
      "eventTimeZone": "GMT",
      "eventPrevious": "0.2%",
      "eventCurrency": "EUR",
      "eventForecast": "0.3%"
    },
    {
      "eventDateTime": "2010-09-03T19:30:00",
      "eventActual": "-25.6K",
      "eventCountry": "Euro Zone",
      "eventExpectedVolatility": "Moderate",
      "eventName": "CFTC EUR speculative net positions",
      "eventTimeZone": "GMT",
      "eventPrevious": "-21.6K",
      "eventCurrency": "EUR",
      "eventForecast": ""
    }
  ]}}
