"Investing.com GBP/USD Index";"United Kingdom";"GBP";"2017-01-09T06:30:00";"GMT";"50.0%";"";"45.2%";"Moderate"
"Halifax House Price Index (MoM) (Dec)";"United Kingdom";"GBP";"2017-01-09T08:30:00";"GMT";"0.6%";"0.2%";"1.7%";"Moderate"
"Halifax House Price Index (YoY) (Dec)";"United Kingdom";"GBP";"2017-01-09T08:30:00";"GMT";"6.0%";"5.8%";"6.5%";"Moderate"
