{"events": {"event": {
    "eventDateTime": "2015-12-06T22:30:00",
    "eventActual": "50.7",
    "eventCountry": "Australia",
    "eventExpectedVolatility": "Low",
    "eventName": "AIG Construction Index (Nov)",
    "eventTimeZone": "GMT",
    "eventPrevious": "52.1",
    "eventCurrency": "AUD",
    "eventForecast": ""
  }}}
