"German Retail Sales (MoM) (May)";"Germany";"EUR";"2016-06-30T06:00:00";"GMT";"-0.3%";"0.7%";"0.9%";"Moderate"
"German Retail Sales (YoY) (May)";"Germany";"EUR";"2016-06-30T06:00:00";"GMT";"2.7%";"3.0%";"2.6%";"Low"
"French CPI (MoM) (Jun)";"France";"EUR";"2016-06-30T06:45:00";"GMT";"0.4%";"0.1%";"0.2%";"Moderate"
"French Consumer Spending (MoM) (May)";"France";"EUR";"2016-06-30T06:45:00";"GMT";"-0.1%";"-0.1%";"-0.7%";"Moderate"
"French HICP (MoM) (Jun)";"France";"EUR";"2016-06-30T06:45:00";"GMT";"0.5%";"0.1%";"0.2%";"Moderate"
"French HICP (YoY) (Jun)";"France";"EUR";"2016-06-30T06:45:00";"GMT";"0.1%";"0.3%";"0.3%";"Low"
"French PPI (MoM) (May)";"France";"EUR";"2016-06-30T06:45:00";"GMT";"-0.5%";"";"0.3%";"Low"
"German Unemployment (Jun)";"Germany";"EUR";"2016-06-30T07:55:00";"GMT";"2.700M";"";"2.700M";"Low"
"German Unemployment Change (Jun)";"Germany";"EUR";"2016-06-30T07:55:00";"GMT";"-10K";"-5K";"-6K";"High"
"German Unemployment Rate (Jun)";"Germany";"EUR";"2016-06-30T07:55:00";"GMT";"6.1%";"6.1%";"6.1%";"Moderate"
"German Unemployment n.s.a. (Jun)";"Germany";"EUR";"2016-06-30T07:55:00";"GMT";"2.664M";"2.600M";"2.600M";"Low"
"Italian Public Deficit (Q1)";"Italy";"EUR";"2016-06-30T08:00:00";"GMT";"2.2%";"";"4.7%";"Low"
"Spanish Current account (Apr)";"Spain";"EUR";"2016-06-30T08:00:00";"GMT";"0.84B";"";"2.63B";"Low"
"CPI (YoY) (Jun)";"Euro Zone";"EUR";"2016-06-30T09:00:00";"GMT";"-0.1%";"0.0%";"0.1%";"High"
"Core CPI (YoY)";"Euro Zone";"EUR";"2016-06-30T09:00:00";"GMT";"0.8%";"0.8%";"0.9%";"Moderate"
"Italian CPI (MoM) (Jun)";"Italy";"EUR";"2016-06-30T09:00:00";"GMT";"0.3%";"0.3%";"0.1%";"Moderate"
"Italian CPI (YoY) (Jun)";"Italy";"EUR";"2016-06-30T09:00:00";"GMT";"-0.3%";"-0.2%";"-0.4%";"Low"
"Italian HICP (MoM) (Jun)";"Italy";"EUR";"2016-06-30T09:00:00";"GMT";"0.3%";"0.2%";"0.1%";"Low"
"Italian HICP (YoY) (Jun)";"Italy";"EUR";"2016-06-30T09:00:00";"GMT";"-0.3%";"-0.2%";"-0.3%";"Low"
"Italian 10-Year BTP Auction";"Italy";"EUR";"2016-06-30T09:25:00";"GMT";"1.42%";"";"1.35%";"Moderate"
"Italian 5-Year BTP Auction";"Italy";"EUR";"2016-06-30T09:25:00";"GMT";"0.40%";"";"0.33%";"Low"
"Italian PPI (MoM) (May)";"Italy";"EUR";"2016-06-30T10:00:00";"GMT";"-0.6%";"";"0.5%";"Low"
"Italian PPI (YoY) (May)";"Italy";"EUR";"2016-06-30T10:00:00";"GMT";"-4.0%";"";"-3.7%";"Low"
