"CPI Tokyo Ex Food and Energy (MoM) (Jul)";"Japan";"JPY";"2019-07-25T23:30:00";"GMT";"-0.1%";"";"0.0%";"Moderate"
"Tokyo CPI (YoY) (Jul)";"Japan";"JPY";"2019-07-25T23:30:00";"GMT";"1.1%";"1.0%";"0.9%";"Low"
"Tokyo Core CPI (YoY) (Jul)";"Japan";"JPY";"2019-07-25T23:30:00";"GMT";"0.9%";"0.8%";"0.9%";"Moderate"
