{"events": {"event": {
    "eventDateTime": "2002-02-26T09:00:00",
    "eventActual": "88.7",
    "eventCountry": "Germany",
    "eventExpectedVolatility": "High",
    "eventName": "German Ifo Business Climate Index",
    "eventTimeZone": "GMT",
    "eventPrevious": "88.5",
    "eventCurrency": "EUR",
    "eventForecast": "87"
  }}}
