{"events": {"event": [
    {
      "eventDateTime": "2012-11-29T23:00:00",
      "eventActual": "0.6%",
      "eventCountry": "South Korea",
      "eventExpectedVolatility": "Low",
      "eventName": "Industrial Production (MoM)",
      "eventTimeZone": "GMT",
      "eventPrevious": "0.7%",
      "eventCurrency": "KRW",
      "eventForecast": "0.8%"
    },
    {
      "eventDateTime": "2012-11-29T23:00:00",
      "eventActual": "-0.8%",
      "eventCountry": "South Korea",
      "eventExpectedVolatility": "Low",
      "eventName": "Industrial Production (YoY)",
      "eventTimeZone": "GMT",
      "eventPrevious": "0.7%",
      "eventCurrency": "KRW",
      "eventForecast": "0.9%"
    },
    {
      "eventDateTime": "2012-11-29T23:00:00",
      "eventActual": "-1.00%",
      "eventCountry": "South Korea",
      "eventExpectedVolatility": "Low",
      "eventName": "Service Sector Output (MoM)",
      "eventTimeZone": "GMT",
      "eventPrevious": "0.80%",
      "eventCurrency": "KRW",
      "eventForecast": ""
    }
  ]}}
