{"events": {"event": [
    {
      "eventDateTime": "2011-02-28T13:30:00",
      "eventActual": "-11.1B",
      "eventCountry": "Canada",
      "eventExpectedVolatility": "Moderate",
      "eventName": "Current Account",
      "eventTimeZone": "GMT",
      "eventPrevious": "-17.0B",
      "eventCurrency": "CAD",
      "eventForecast": "-9.4B"
    },
    {
      "eventDateTime": "2011-02-28T13:30:00",
      "eventActual": "0.5%",
      "eventCountry": "Canada",
      "eventExpectedVolatility": "High",
      "eventName": "GDP (MoM)",
      "eventTimeZone": "GMT",
      "eventPrevious": "0.4%",
      "eventCurrency": "CAD",
      "eventForecast": "0.3%"
    }
  ]}}
