"Cap Goods Ship Non Defense Ex Air (MoM)";"United States";"USD";"2018-05-25T12:30:00";"GMT";"-0.7%";"0.4%";"0.8%";"Moderate"
"Core Durable Goods Orders (MoM) (Apr)";"United States";"USD";"2018-05-25T12:30:00";"GMT";"0.4%";"0.5%";"0.9%";"High"
"Durable Goods Orders (MoM) (Apr)";"United States";"USD";"2018-05-25T12:30:00";"GMT";"2.7%";"-1.4%";"-1.7%";"Moderate"
"Durables Excluding Defense (MoM) (Apr)";"United States";"USD";"2018-05-25T12:30:00";"GMT";"4.3%";"-1.0%";"-1.9%";"Low"
"Goods Orders Non Defense Ex Air (MoM) (Apr)";"United States";"USD";"2018-05-25T12:30:00";"GMT";"-0.9%";"0.7%";"1.0%";"Low"
"Fed Chair Powell Speaks";"United States";"USD";"2018-05-25T13:20:00";"GMT";" ";"";"";"High"
"Michigan 5-Year Inflation Expectations (May)";"United States";"USD";"2018-05-25T14:00:00";"GMT";"2.50%";"";"2.50%";"Low"
"Michigan Consumer Expectations (May)";"United States";"USD";"2018-05-25T14:00:00";"GMT";"89.5";"86.9";"89.1";"Moderate"
"Michigan Consumer Sentiment (May)";"United States";"USD";"2018-05-25T14:00:00";"GMT";"98.8";"98.8";"98.0";"Moderate"
"Michigan Current Conditions (May)";"United States";"USD";"2018-05-25T14:00:00";"GMT";"113.3";"115.0";"111.8";"Low"
"Michigan Inflation Expectations (May)";"United States";"USD";"2018-05-25T14:00:00";"GMT";"2.8%";"";"2.8%";"Low"
"Chicago Fed President Evans Speaks";"United States";"USD";"2018-05-25T15:45:00";"GMT";" ";"";"";"Low"
"FOMC Member Bostic Speaks";"United States";"USD";"2018-05-25T15:45:00";"GMT";" ";"";"";"Moderate"
"FOMC Member Kaplan Speaks";"United States";"USD";"2018-05-25T15:45:00";"GMT";" ";"";"";"Moderate"
"U.S. Baker Hughes Oil Rig Count";"United States";"USD";"2018-05-25T17:00:00";"GMT";"844";"";"859";"Moderate"
"U.S. Baker Hughes Total Rig Count";"United States";"USD";"2018-05-25T17:00:00";"GMT";"1,046.0";"1,045.0";"1,059.0";"Moderate"
"CFTC Copper speculative net positions";"United States";"USD";"2018-05-25T19:30:00";"GMT";"36.4K";"";"39.0K";"Low"
"CFTC Crude Oil speculative net positions";"United States";"USD";"2018-05-25T19:30:00";"GMT";"644.4K";"";"633.4K";"Moderate"
"CFTC Gold speculative net positions";"United States";"USD";"2018-05-25T19:30:00";"GMT";"92.4K";"";"91.0K";"Moderate"
"CFTC Sandamp:P 500 speculative net positions";"United States";"USD";"2018-05-25T19:30:00";"GMT";"198.8K";"";"185.2K";"Moderate"
"CFTC Silver speculative net positions";"United States";"USD";"2018-05-25T19:30:00";"GMT";"0.7K";"";"15.2K";"Low"
