{"events": {"event": {
    "eventDateTime": "2017-02-27T06:30:00",
    "eventActual": "40.1%",
    "eventCountry": "United Kingdom",
    "eventExpectedVolatility": "Moderate",
    "eventName": "Investing.com GBP/USD Index",
    "eventTimeZone": "GMT",
    "eventPrevious": "43.1%",
    "eventCurrency": "GBP",
    "eventForecast": ""
  }}}
