{"events": {"event": [
    {
      "eventDateTime": "2005-11-04T12:30:00",
      "eventActual": "84K",
      "eventCountry": "United States",
      "eventExpectedVolatility": "High",
      "eventName": "Nonfarm Payrolls (Oct)",
      "eventTimeZone": "GMT",
      "eventPrevious": "66K",
      "eventCurrency": "USD",
      "eventForecast": ""
    },
    {
      "eventDateTime": "2005-11-04T17:00:00",
      "eventActual": "231",
      "eventCountry": "United States",
      "eventExpectedVolatility": "Moderate",
      "eventName": "U.S. Baker Hughes Oil Rig Count",
      "eventTimeZone": "GMT",
      "eventPrevious": "227",
      "eventCurrency": "USD",
      "eventForecast": ""
    },
    {
      "eventDateTime": "2005-11-04T20:30:00",
      "eventActual": "-42.0k",
      "eventCountry": "United States",
      "eventExpectedVolatility": "Moderate",
      "eventName": "CFTC Crude Oil speculative net positions",
      "eventTimeZone": "GMT",
      "eventPrevious": "-38.1k",
      "eventCurrency": "USD",
      "eventForecast": ""
    }
  ]}}
