"Manufacturing PMI";"United States";"USD";"2012-12-03T14:00:00";"GMT";"52.40";"52.40";"52.80";"Moderate"
"Construction Spending (MoM)";"United States";"USD";"2012-12-03T15:00:00";"GMT";"0.5%";"0.5%";"1.4%";"Low"
"ISM Manufacturing PMI";"United States";"USD";"2012-12-03T15:00:00";"GMT";"51.7";"51.3";"49.5";"High"
"ISM Manufacturing Prices";"United States";"USD";"2012-12-03T15:00:00";"GMT";"55.0";"53.0";"52.5";"Low"
"3-Month Bill Auction";"United States";"USD";"2012-12-03T16:30:00";"GMT";"0.100%";"";"0.090%";"Low"
"6-Month Bill Auction";"United States";"USD";"2012-12-03T16:30:00";"GMT";"0.145%";"";"0.140%";"Low"
"Total Vehicle Sales";"United States";"USD";"2012-12-03T21:00:00";"GMT";"14.23M";"14.80M";"15.50M";"Low"
