"German GDP (QoQ) (Q4)";"Germany";"EUR";"2019-02-22T07:00:00";"GMT";"0.0%";"0.0%";"0.0%";"High"
"German GDP (YoY) (Q4)";"Germany";"EUR";"2019-02-22T07:00:00";"GMT";"0.9%";"0.9%";"0.9%";"Moderate"
"German Business Expectations";"Germany";"EUR";"2019-02-22T09:00:00";"GMT";"94.2";"94.2";"93.8";"Moderate"
"German Current Assessment";"Germany";"EUR";"2019-02-22T09:00:00";"GMT";"104.3";"103.9";"103.4";"Moderate"
"German Ifo Business Climate Index";"Germany";"EUR";"2019-02-22T09:00:00";"GMT";"99.3";"99.0";"98.5";"High"
"CPI (MoM) (Jan)";"Euro Zone";"EUR";"2019-02-22T10:00:00";"GMT";"0.0%";"-1.1%";"-1.0%";"Moderate"
"CPI (YoY) (Jan)";"Euro Zone";"EUR";"2019-02-22T10:00:00";"GMT";"1.5%";"1.4%";"1.4%";"High"
"CPI ex Tobacco (MoM) (Jan)";"Euro Zone";"EUR";"2019-02-22T10:00:00";"GMT";" ";"";"-1.1%";"Low"
"CPI ex Tobacco (YoY) (Jan)";"Euro Zone";"EUR";"2019-02-22T10:00:00";"GMT";"1.5%";"";"1.3%";"Low"
"Core CPI (MoM) (Jan)";"Euro Zone";"EUR";"2019-02-22T10:00:00";"GMT";"-1.5%";"-1.5%";"-1.5%";"Low"
"Core CPI (YoY) (Jan)";"Euro Zone";"EUR";"2019-02-22T10:00:00";"GMT";"0.9%";"1.1%";"1.1%";"Moderate"
"ECB President Draghi Speaks";"Euro Zone";"EUR";"2019-02-22T15:30:00";"GMT";" ";"";"";"High"
"CFTC EUR speculative net positions";"Euro Zone";"EUR";"2019-02-22T20:30:00";"GMT";"-41.0K";"";"-52.0K";"Moderate"
