"French GDP (QoQ)";"France";"EUR";"2013-02-14T06:30:00";"GMT";"0.1%";"-0.2%";"-0.3%";"Moderate"
"German GDP (QoQ)";"Germany";"EUR";"2013-02-14T07:00:00";"GMT";"0.2%";"-0.5%";"-0.6%";"High"
"German GDP (YoY)";"Germany";"EUR";"2013-02-14T07:00:00";"GMT";"0.4%";"0.2%";"0.1%";"Moderate"
"French Non-Farm Payrolls (QoQ)";"France";"EUR";"2013-02-14T07:45:00";"GMT";"-0.3%";"-0.2%";"-0.2%";"Moderate"
"ECB Economic Bulletin";"Euro Zone";"EUR";"2013-02-14T09:00:00";"GMT";" ";"";"";"Moderate"
"Italian GDP (QoQ)";"Italy";"EUR";"2013-02-14T09:00:00";"GMT";"-0.2%";"-0.6%";"-0.9%";"Low"
"Italian GDP (YoY)";"Italy";"EUR";"2013-02-14T09:00:00";"GMT";"-2.4%";"-2.3%";"-2.7%";"Low"
"Spanish industrial New Orders (YoY)";"Spain";"EUR";"2013-02-14T09:00:00";"GMT";"-1.5%";"-1.0%";"-3.1%";"Low"
"GDP (QoQ)";"Euro Zone";"EUR";"2013-02-14T10:00:00";"GMT";"-0.1%";"-0.4%";"-0.6%";"Moderate"
