"Exports (YoY) (Nov)";"South Korea";"KRW";"2014-12-15T02:13:00";"GMT";"-1.90%";"";"-2.10%";"Low"
"Imports (YoY) (Nov)";"South Korea";"KRW";"2014-12-15T02:13:00";"GMT";"-4.0%";"";"-4.0%";"Low"
"Trade Balance (Nov)";"South Korea";"KRW";"2014-12-15T02:13:00";"GMT";"5.61B";"";"5.51B";"Low"
