{"events": {"event": {
    "eventDateTime": "2015-02-15T23:20:00",
    "eventActual": "2.1%",
    "eventCountry": "United Kingdom",
    "eventExpectedVolatility": "Low",
    "eventName": "Rightmove House Price Index (MoM)",
    "eventTimeZone": "GMT",
    "eventPrevious": "1.4%",
    "eventCurrency": "GBP",
    "eventForecast": ""
  }}}
