{"events": {"event": {
    "eventDateTime": "2014-02-04T09:30:00",
    "eventActual": "64.6",
    "eventCountry": "United Kingdom",
    "eventExpectedVolatility": "High",
    "eventName": "Construction PMI",
    "eventTimeZone": "GMT",
    "eventPrevious": "62.1",
    "eventCurrency": "GBP",
    "eventForecast": "61.5"
  }}}
