"GDP Quarterly (YoY)";"Russia";"RUB";"2018-08-10T13:00:00";"GMT";"1.3%";"";"1.8%";"Moderate"
"Trade Balance (Jun)";"Russia";"RUB";"2018-08-10T13:00:00";"GMT";"15.15B";"15.85B";"15.56B";"Low"
"CFTC RUB speculative positions";"Russia";"RUB";"2018-08-10T19:30:00";"GMT";"7.7K";"";"7.7K";"Moderate"
