{"events": {"event": {
    "eventDateTime": "2016-04-08T19:30:00",
    "eventActual": "3.4K",
    "eventCountry": "Russia",
    "eventExpectedVolatility": "Moderate",
    "eventName": "CFTC RUB speculative positions",
    "eventTimeZone": "GMT",
    "eventPrevious": "3.0K",
    "eventCurrency": "RUB",
    "eventForecast": ""
  }}}
