{"events": {"event": [
    {
      "eventDateTime": "2019-03-20T11:00:00",
      "eventActual": "4.55%",
      "eventCountry": "United States",
      "eventExpectedVolatility": "Low",
      "eventName": "MBA 30-Year Mortgage Rate",
      "eventTimeZone": "GMT",
      "eventPrevious": "4.64%",
      "eventCurrency": "USD",
      "eventForecast": ""
    },
    {
      "eventDateTime": "2019-03-20T11:00:00",
      "eventActual": "1.6%",
      "eventCountry": "United States",
      "eventExpectedVolatility": "Low",
      "eventName": "MBA Mortgage Applications (WoW)",
      "eventTimeZone": "GMT",
      "eventPrevious": "2.3%",
      "eventCurrency": "USD",
      "eventForecast": ""
    },
    {
      "eventDateTime": "2019-03-20T11:00:00",
      "eventActual": "251.5",
      "eventCountry": "United States",
      "eventExpectedVolatility": "Low",
      "eventName": "MBA Purchase Index",
      "eventTimeZone": "GMT",
      "eventPrevious": "250.8",
      "eventCurrency": "USD",
      "eventForecast": ""
    },
    {
      "eventDateTime": "2019-03-20T11:00:00",
      "eventActual": "390.0",
      "eventCountry": "United States",
      "eventExpectedVolatility": "Low",
      "eventName": "Mortgage Market Index",
      "eventTimeZone": "GMT",
      "eventPrevious": "384.0",
      "eventCurrency": "USD",
      "eventForecast": ""
    },
    {
      "eventDateTime": "2019-03-20T11:00:00",
      "eventActual": "1,146.8",
      "eventCountry": "United States",
      "eventExpectedVolatility": "Low",
      "eventName": "Mortgage Refinance Index",
      "eventTimeZone": "GMT",
      "eventPrevious": "1,108.3",
      "eventCurrency": "USD",
      "eventForecast": ""
    },
    {
      "eventDateTime": "2019-03-20T14:30:00",
      "eventActual": "-0.660M",
      "eventCountry": "United States",
      "eventExpectedVolatility": "Low",
      "eventName": "Crude Oil Imports",
      "eventTimeZone": "GMT",
      "eventPrevious": "0.002M",
      "eventCurrency": "USD",
      "eventForecast": ""
    },
    {
      "eventDateTime": "2019-03-20T14:30:00",
      "eventActual": "-9.589M",
      "eventCountry": "United States",
      "eventExpectedVolatility": "High",
      "eventName": "Crude Oil Inventories",
      "eventTimeZone": "GMT",
      "eventPrevious": "-3.862M",
      "eventCurrency": "USD",
      "eventForecast": "0.309M"
    },
    {
      "eventDateTime": "2019-03-20T14:30:00",
      "eventActual": "-0.468M",
      "eventCountry": "United States",
      "eventExpectedVolatility": "Moderate",
      "eventName": "Cushing Crude Oil Inventories",
      "eventTimeZone": "GMT",
      "eventPrevious": "-0.672M",
      "eventCurrency": "USD",
      "eventForecast": ""
    },
    {
      "eventDateTime": "2019-03-20T14:30:00",
      "eventActual": "0.067M",
      "eventCountry": "United States",
      "eventExpectedVolatility": "Low",
      "eventName": "Distillate Fuel Production",
      "eventTimeZone": "GMT",
      "eventPrevious": "-0.063M",
      "eventCurrency": "USD",
      "eventForecast": ""
    },
    {
      "eventDateTime": "2019-03-20T14:30:00",
      "eventActual": "-4.127M",
      "eventCountry": "United States",
      "eventExpectedVolatility": "Low",
      "eventName": "EIA Weekly Distillates Stocks",
      "eventTimeZone": "GMT",
      "eventPrevious": "0.383M",
      "eventCurrency": "USD",
      "eventForecast": "-1.094M"
    },
    {
      "eventDateTime": "2019-03-20T14:30:00",
      "eventActual": "-4.587M",
      "eventCountry": "United States",
      "eventExpectedVolatility": "Low",
      "eventName": "Gasoline Inventories",
      "eventTimeZone": "GMT",
      "eventPrevious": "-4.624M",
      "eventCurrency": "USD",
      "eventForecast": "-2.414M"
    },
    {
      "eventDateTime": "2019-03-20T14:30:00",
      "eventActual": "0.190M",
      "eventCountry": "United States",
      "eventExpectedVolatility": "Low",
      "eventName": "Gasoline Production",
      "eventTimeZone": "GMT",
      "eventPrevious": "-0.117M",
      "eventCurrency": "USD",
      "eventForecast": ""
    },
    {
      "eventDateTime": "2019-03-20T14:30:00",
      "eventActual": "-0.558M",
      "eventCountry": "United States",
      "eventExpectedVolatility": "Low",
      "eventName": "Heating Oil Stockpiles",
      "eventTimeZone": "GMT",
      "eventPrevious": "-0.273M",
      "eventCurrency": "USD",
      "eventForecast": ""
    },
    {
      "eventDateTime": "2019-03-20T18:00:00",
      "eventActual": "",
      "eventCountry": "United States",
      "eventExpectedVolatility": "High",
      "eventName": "FOMC Economic Projections",
      "eventTimeZone": "GMT",
      "eventPrevious": "",
      "eventCurrency": "USD",
      "eventForecast": ""
    },
    {
      "eventDateTime": "2019-03-20T18:00:00",
      "eventActual": "",
      "eventCountry": "United States",
      "eventExpectedVolatility": "High",
      "eventName": "FOMC Statement",
      "eventTimeZone": "GMT",
      "eventPrevious": "",
      "eventCurrency": "USD",
      "eventForecast": ""
    },
    {
      "eventDateTime": "2019-03-20T18:00:00",
      "eventActual": "2.50%",
      "eventCountry": "United States",
      "eventExpectedVolatility": "High",
      "eventName": "Fed Interest Rate Decision",
      "eventTimeZone": "GMT",
      "eventPrevious": "2.50%",
      "eventCurrency": "USD",
      "eventForecast": "2.50%"
    },
    {
      "eventDateTime": "2019-03-20T18:30:00",
      "eventActual": "",
      "eventCountry": "United States",
      "eventExpectedVolatility": "High",
      "eventName": "FOMC Press Conference",
      "eventTimeZone": "GMT",
      "eventPrevious": "",
      "eventCurrency": "USD",
      "eventForecast": ""
    }
  ]}}
