{"events": {"event": [
    {
      "eventDateTime": "2018-08-30T01:30:00",
      "eventActual": "-5.2%",
      "eventCountry": "Australia",
      "eventExpectedVolatility": "Moderate",
      "eventName": "Building Approvals (MoM) (Jul)",
      "eventTimeZone": "GMT",
      "eventPrevious": "6.8%",
      "eventCurrency": "AUD",
      "eventForecast": "-2.5%"
    },
    {
      "eventDateTime": "2018-08-30T01:30:00",
      "eventActual": "-3.9%",
      "eventCountry": "Australia",
      "eventExpectedVolatility": "Low",
      "eventName": "Building Capital Expenditure (MoM) (Q2)",
      "eventTimeZone": "GMT",
      "eventPrevious": "-0.9%",
      "eventCurrency": "AUD",
      "eventForecast": "0.5%"
    },
    {
      "eventDateTime": "2018-08-30T01:30:00",
      "eventActual": "-0.9%",
      "eventCountry": "Australia",
      "eventExpectedVolatility": "Low",
      "eventName": "Plant/Machinery Capital Expenditure (QoQ) (Q2)",
      "eventTimeZone": "GMT",
      "eventPrevious": "3.6%",
      "eventCurrency": "AUD",
      "eventForecast": "1.0%"
    },
    {
      "eventDateTime": "2018-08-30T01:30:00",
      "eventActual": "-6.6%",
      "eventCountry": "Australia",
      "eventExpectedVolatility": "Low",
      "eventName": "Private House Approvals (Jul)",
      "eventTimeZone": "GMT",
      "eventPrevious": "5.0%",
      "eventCurrency": "AUD",
      "eventForecast": ""
    },
    {
      "eventDateTime": "2018-08-30T01:30:00",
      "eventActual": "-2.5%",
      "eventCountry": "Australia",
      "eventExpectedVolatility": "Moderate",
      "eventName": "Private New Capital Expenditure (QoQ) (Q2)",
      "eventTimeZone": "GMT",
      "eventPrevious": "1.2%",
      "eventCurrency": "AUD",
      "eventForecast": "0.6%"
    }
  ]}}
