{"events": {"event": {
    "eventDateTime": "2015-09-14T05:30:00",
    "eventActual": "47.2%",
    "eventCountry": "Canada",
    "eventExpectedVolatility": "Moderate",
    "eventName": "Investing.com USD/CAD Index",
    "eventTimeZone": "GMT",
    "eventPrevious": "46.6%",
    "eventCurrency": "CAD",
    "eventForecast": ""
  }}}
