{"events": {"event": {
    "eventDateTime": "2016-02-14T21:30:00",
    "eventActual": "55.4",
    "eventCountry": "New Zealand",
    "eventExpectedVolatility": "Low",
    "eventName": "Performance of Services Index",
    "eventTimeZone": "GMT",
    "eventPrevious": "58.5",
    "eventCurrency": "NZD",
    "eventForecast": ""
  }}}
