"Exports (YoY) (Apr)";"South Korea";"KRW";"2017-05-01T00:00:00";"GMT";"13.7%";"15.3%";"24.2%";"Low"
"Imports (YoY) (Apr)";"South Korea";"KRW";"2017-05-01T00:00:00";"GMT";"26.9%";"21.0%";"16.6%";"Low"
"Trade Balance (Apr)";"South Korea";"KRW";"2017-05-01T00:00:00";"GMT";"6.60B";"8.00B";"13.30B";"Low"
"CPI (MoM) (Apr)";"South Korea";"KRW";"2017-05-01T23:00:00";"GMT";"0.0%";"";"-0.1%";"Low"
"CPI (YoY) (Apr)";"South Korea";"KRW";"2017-05-01T23:00:00";"GMT";"2.2%";"2.0%";"1.9%";"Moderate"
