{"events": {"event": [
    {
      "eventDateTime": "2002-09-01T09:00:00",
      "eventActual": "-3.30%",
      "eventCountry": "Hong Kong",
      "eventExpectedVolatility": "Low",
      "eventName": "CPI (YoY) (Aug)",
      "eventTimeZone": "GMT",
      "eventPrevious": "-3.50%",
      "eventCurrency": "HKD",
      "eventForecast": ""
    },
    {
      "eventDateTime": "2002-09-01T09:00:00",
      "eventActual": "5.80%",
      "eventCountry": "Hong Kong",
      "eventExpectedVolatility": "Low",
      "eventName": "Exports (MoM) (Aug)",
      "eventTimeZone": "GMT",
      "eventPrevious": "9.80%",
      "eventCurrency": "HKD",
      "eventForecast": ""
    },
    {
      "eventDateTime": "2002-09-01T09:00:00",
      "eventActual": "112.33B",
      "eventCountry": "Hong Kong",
      "eventExpectedVolatility": "Low",
      "eventName": "Foreign Reserves (USD) (Aug)",
      "eventTimeZone": "GMT",
      "eventPrevious": "112.51B",
      "eventCurrency": "HKD",
      "eventForecast": ""
    },
    {
      "eventDateTime": "2002-09-01T09:00:00",
      "eventActual": "5.80%",
      "eventCountry": "Hong Kong",
      "eventExpectedVolatility": "Low",
      "eventName": "Imports (MoM) (Aug)",
      "eventTimeZone": "GMT",
      "eventPrevious": "7.30%",
      "eventCurrency": "HKD",
      "eventForecast": ""
    },
    {
      "eventDateTime": "2002-09-01T09:00:00",
      "eventActual": "-0.66%",
      "eventCountry": "Hong Kong",
      "eventExpectedVolatility": "Low",
      "eventName": "M3 Money Supply (Aug)",
      "eventTimeZone": "GMT",
      "eventPrevious": "0.03%",
      "eventCurrency": "HKD",
      "eventForecast": ""
    },
    {
      "eventDateTime": "2002-09-01T09:00:00",
      "eventActual": "-4.40%",
      "eventCountry": "Hong Kong",
      "eventExpectedVolatility": "Low",
      "eventName": "Retail Sales (YoY) (Aug)",
      "eventTimeZone": "GMT",
      "eventPrevious": "-4.20%",
      "eventCurrency": "HKD",
      "eventForecast": ""
    },
    {
      "eventDateTime": "2002-09-01T09:00:00",
      "eventActual": "7.40%",
      "eventCountry": "Hong Kong",
      "eventExpectedVolatility": "Low",
      "eventName": "Unemployment Rate (Aug)",
      "eventTimeZone": "GMT",
      "eventPrevious": "7.50%",
      "eventCurrency": "HKD",
      "eventForecast": ""
    }
  ]}}
