{"events": {"event": [
    {
      "eventDateTime": "2002-01-04T12:30:00",
      "eventActual": "-171K",
      "eventCountry": "United States",
      "eventExpectedVolatility": "High",
      "eventName": "Nonfarm Payrolls (Dec)",
      "eventTimeZone": "GMT",
      "eventPrevious": "-294K",
      "eventCurrency": "USD",
      "eventForecast": ""
    },
    {
      "eventDateTime": "2002-01-04T17:00:00",
      "eventActual": "138",
      "eventCountry": "United States",
      "eventExpectedVolatility": "Moderate",
      "eventName": "U.S. Baker Hughes Oil Rig Count",
      "eventTimeZone": "GMT",
      "eventPrevious": "137",
      "eventCurrency": "USD",
      "eventForecast": ""
    }
  ]}}
