{"events": {"event": {
    "eventDateTime": "2014-04-06T10:00:00",
    "eventActual": "62.5%",
    "eventCountry": "Switzerland",
    "eventExpectedVolatility": "Moderate",
    "eventName": "Investing.com USD/CHF Index",
    "eventTimeZone": "GMT",
    "eventPrevious": "",
    "eventCurrency": "CHF",
    "eventForecast": ""
  }}}
