{"events": {"event": [
    {
      "eventDateTime": "2010-11-01T09:00:00",
      "eventActual": "2.22%",
      "eventCountry": "United States",
      "eventExpectedVolatility": "Moderate",
      "eventName": "10-Year Note Auction (Oct)",
      "eventTimeZone": "GMT",
      "eventPrevious": "2.63%",
      "eventCurrency": "USD",
      "eventForecast": ""
    },
    {
      "eventDateTime": "2010-11-01T09:00:00",
      "eventActual": "0.50%",
      "eventCountry": "United States",
      "eventExpectedVolatility": "Low",
      "eventName": "3-Year Note Auction (Oct)",
      "eventTimeZone": "GMT",
      "eventPrevious": "0.75%",
      "eventCurrency": "USD",
      "eventForecast": ""
    },
    {
      "eventDateTime": "2010-11-01T09:00:00",
      "eventActual": "3.88%",
      "eventCountry": "United States",
      "eventExpectedVolatility": "Low",
      "eventName": "30-Year Bond Auction (Oct)",
      "eventTimeZone": "GMT",
      "eventPrevious": "3.88%",
      "eventCurrency": "USD",
      "eventForecast": ""
    },
    {
      "eventDateTime": "2010-11-01T09:00:00",
      "eventActual": "1.25%",
      "eventCountry": "United States",
      "eventExpectedVolatility": "Low",
      "eventName": "5-Year Note Auction (Oct)",
      "eventTimeZone": "GMT",
      "eventPrevious": "1.25%",
      "eventCurrency": "USD",
      "eventForecast": ""
    },
    {
      "eventDateTime": "2010-11-01T09:00:00",
      "eventActual": "1.88%",
      "eventCountry": "United States",
      "eventExpectedVolatility": "Low",
      "eventName": "7-Year Note Auction (Oct)",
      "eventTimeZone": "GMT",
      "eventPrevious": "1.88%",
      "eventCurrency": "USD",
      "eventForecast": ""
    },
    {
      "eventDateTime": "2010-11-01T09:00:00",
      "eventActual": "5.76M",
      "eventCountry": "United States",
      "eventExpectedVolatility": "Low",
      "eventName": "All Car Sales (Oct)",
      "eventTimeZone": "GMT",
      "eventPrevious": "5.76M",
      "eventCurrency": "USD",
      "eventForecast": ""
    },
    {
      "eventDateTime": "2010-11-01T09:00:00",
      "eventActual": "6.44M",
      "eventCountry": "United States",
      "eventExpectedVolatility": "Low",
      "eventName": "All Truck Sales (Oct)",
      "eventTimeZone": "GMT",
      "eventPrevious": "5.94M",
      "eventCurrency": "USD",
      "eventForecast": ""
    },
    {
      "eventDateTime": "2010-11-01T09:00:00",
      "eventActual": "0.50%",
      "eventCountry": "United States",
      "eventExpectedVolatility": "Moderate",
      "eventName": "Building Permits (MoM) (Oct)",
      "eventTimeZone": "GMT",
      "eventPrevious": "-5.60%",
      "eventCurrency": "USD",
      "eventForecast": ""
    },
    {
      "eventDateTime": "2010-11-01T09:00:00",
      "eventActual": "101.70",
      "eventCountry": "United States",
      "eventExpectedVolatility": "Low",
      "eventName": "CB Employment Trends Index (Oct)",
      "eventTimeZone": "GMT",
      "eventPrevious": "101.20",
      "eventCurrency": "USD",
      "eventForecast": ""
    },
    {
      "eventDateTime": "2010-11-01T09:00:00",
      "eventActual": "1.20%",
      "eventCountry": "United States",
      "eventExpectedVolatility": "Low",
      "eventName": "CPI (YoY) (Oct)",
      "eventTimeZone": "GMT",
      "eventPrevious": "1.10%",
      "eventCurrency": "USD",
      "eventForecast": ""
    },
    {
      "eventDateTime": "2010-11-01T09:00:00",
      "eventActual": "218.71",
      "eventCountry": "United States",
      "eventExpectedVolatility": "Low",
      "eventName": "CPI Index, n.s.a. (Oct)",
      "eventTimeZone": "GMT",
      "eventPrevious": "218.44",
      "eventCurrency": "USD",
      "eventForecast": ""
    },
    {
      "eventDateTime": "2010-11-01T09:00:00",
      "eventActual": "1.60%",
      "eventCountry": "United States",
      "eventExpectedVolatility": "Low",
      "eventName": "Chain Store Sales (MoM) (Oct)",
      "eventTimeZone": "GMT",
      "eventPrevious": "2.60%",
      "eventCurrency": "USD",
      "eventForecast": ""
    },
    {
      "eventDateTime": "2010-11-01T09:00:00",
      "eventActual": "0.08%",
      "eventCountry": "United States",
      "eventExpectedVolatility": "Low",
      "eventName": "Chain Store Sales (WoW) (Oct)",
      "eventTimeZone": "GMT",
      "eventPrevious": "-0.25%",
      "eventCurrency": "USD",
      "eventForecast": ""
    },
    {
      "eventDateTime": "2010-11-01T09:00:00",
      "eventActual": "2.07%",
      "eventCountry": "United States",
      "eventExpectedVolatility": "Low",
      "eventName": "Chain Store Sales (YoY) (Oct)",
      "eventTimeZone": "GMT",
      "eventPrevious": "2.84%",
      "eventCurrency": "USD",
      "eventForecast": ""
    },
    {
      "eventDateTime": "2010-11-01T09:00:00",
      "eventActual": "37.99K",
      "eventCountry": "United States",
      "eventExpectedVolatility": "Low",
      "eventName": "Challenger Job Cuts (Oct)",
      "eventTimeZone": "GMT",
      "eventPrevious": "37.15K",
      "eventCurrency": "USD",
      "eventForecast": ""
    },
    {
      "eventDateTime": "2010-11-01T09:00:00",
      "eventActual": "-0.23",
      "eventCountry": "United States",
      "eventExpectedVolatility": "Low",
      "eventName": "Chicago Fed National Activity (Oct)",
      "eventTimeZone": "GMT",
      "eventPrevious": "-0.24",
      "eventCurrency": "USD",
      "eventForecast": ""
    },
    {
      "eventDateTime": "2010-11-01T09:00:00",
      "eventActual": "0.10%",
      "eventCountry": "United States",
      "eventExpectedVolatility": "Low",
      "eventName": "Cleveland CPI (MoM) (Oct)",
      "eventTimeZone": "GMT",
      "eventPrevious": "0.10%",
      "eventCurrency": "USD",
      "eventForecast": ""
    },
    {
      "eventDateTime": "2010-11-01T09:00:00",
      "eventActual": "0.60%",
      "eventCountry": "United States",
      "eventExpectedVolatility": "Moderate",
      "eventName": "Core CPI (YoY) (Oct)",
      "eventTimeZone": "GMT",
      "eventPrevious": "0.80%",
      "eventCurrency": "USD",
      "eventForecast": ""
    },
    {
      "eventDateTime": "2010-11-01T09:00:00",
      "eventActual": "221.83",
      "eventCountry": "United States",
      "eventExpectedVolatility": "Low",
      "eventName": "Core CPI Index (Oct)",
      "eventTimeZone": "GMT",
      "eventPrevious": "221.71",
      "eventCurrency": "USD",
      "eventForecast": ""
    },
    {
      "eventDateTime": "2010-11-01T09:00:00",
      "eventActual": "1.00%",
      "eventCountry": "United States",
      "eventExpectedVolatility": "Moderate",
      "eventName": "Core PCE Price Index (YoY) (Oct)",
      "eventTimeZone": "GMT",
      "eventPrevious": "1.20%",
      "eventCurrency": "USD",
      "eventForecast": ""
    },
    {
      "eventDateTime": "2010-11-01T09:00:00",
      "eventActual": "4.40",
      "eventCountry": "United States",
      "eventExpectedVolatility": "Low",
      "eventName": "Dallas Fed Mfg Business Index (Oct)",
      "eventTimeZone": "GMT",
      "eventPrevious": "-12.70",
      "eventCurrency": "USD",
      "eventForecast": ""
    },
    {
      "eventDateTime": "2010-11-01T09:00:00",
      "eventActual": "0.50%",
      "eventCountry": "United States",
      "eventExpectedVolatility": "Low",
      "eventName": "Dallas Fed PCE (Oct)",
      "eventTimeZone": "GMT",
      "eventPrevious": "1.10%",
      "eventCurrency": "USD",
      "eventForecast": ""
    },
    {
      "eventDateTime": "2010-11-01T09:00:00",
      "eventActual": "21.70",
      "eventCountry": "United States",
      "eventExpectedVolatility": "Low",
      "eventName": "Dallas Fed Services Revenues (Oct)",
      "eventTimeZone": "GMT",
      "eventPrevious": "5.00",
      "eventCurrency": "USD",
      "eventForecast": ""
    },
    {
      "eventDateTime": "2010-11-01T09:00:00",
      "eventActual": "5.46M",
      "eventCountry": "United States",
      "eventExpectedVolatility": "Low",
      "eventName": "Domestic Truck Sales (Oct)",
      "eventTimeZone": "GMT",
      "eventPrevious": "5.01M",
      "eventCurrency": "USD",
      "eventForecast": ""
    },
    {
      "eventDateTime": "2010-11-01T09:00:00",
      "eventActual": "-2.10%",
      "eventCountry": "United States",
      "eventExpectedVolatility": "Low",
      "eventName": "Durables Excluding Defense (MoM) (Oct)",
      "eventTimeZone": "GMT",
      "eventPrevious": "3.80%",
      "eventCurrency": "USD",
      "eventForecast": ""
    },
    {
      "eventDateTime": "2010-11-01T09:00:00",
      "eventActual": "-1.86M",
      "eventCountry": "United States",
      "eventExpectedVolatility": "Low",
      "eventName": "EIA Weekly Distillates Stocks (Oct)",
      "eventTimeZone": "GMT",
      "eventPrevious": "-0.54M",
      "eventCurrency": "USD",
      "eventForecast": ""
    },
    {
      "eventDateTime": "2010-11-01T09:00:00",
      "eventActual": "-0.30%",
      "eventCountry": "United States",
      "eventExpectedVolatility": "Moderate",
      "eventName": "Existing Home Sales (MoM) (Oct)",
      "eventTimeZone": "GMT",
      "eventPrevious": "4.30%",
      "eventCurrency": "USD",
      "eventForecast": ""
    },
    {
      "eventDateTime": "2010-11-01T09:00:00",
      "eventActual": "0.80%",
      "eventCountry": "United States",
      "eventExpectedVolatility": "Moderate",
      "eventName": "Export Price Index (MoM) (Oct)",
      "eventTimeZone": "GMT",
      "eventPrevious": "0.60%",
      "eventCurrency": "USD",
      "eventForecast": ""
    },
    {
      "eventDateTime": "2010-11-01T09:00:00",
      "eventActual": "-0.60%",
      "eventCountry": "United States",
      "eventExpectedVolatility": "Low",
      "eventName": "Factory orders ex transportation (MoM) (Oct)",
      "eventTimeZone": "GMT",
      "eventPrevious": "1.00%",
      "eventCurrency": "USD",
      "eventForecast": ""
    },
    {
      "eventDateTime": "2010-11-01T09:00:00",
      "eventActual": "-4.50%",
      "eventCountry": "United States",
      "eventExpectedVolatility": "Low",
      "eventName": "Goods Orders Non Defense Ex Air (MoM) (Oct)",
      "eventTimeZone": "GMT",
      "eventPrevious": "-0.60%",
      "eventCurrency": "USD",
      "eventForecast": ""
    },
    {
      "eventDateTime": "2010-11-01T09:00:00",
      "eventActual": "50.00K",
      "eventCountry": "United States",
      "eventExpectedVolatility": "Low",
      "eventName": "Government Payrolls (Oct)",
      "eventTimeZone": "GMT",
      "eventPrevious": "-173.00K",
      "eventCurrency": "USD",
      "eventForecast": ""
    },
    {
      "eventDateTime": "2010-11-01T09:00:00",
      "eventActual": "186.40",
      "eventCountry": "United States",
      "eventExpectedVolatility": "Low",
      "eventName": "House Price Index (Oct)",
      "eventTimeZone": "GMT",
      "eventPrevious": "186.30",
      "eventCurrency": "USD",
      "eventForecast": ""
    },
    {
      "eventDateTime": "2010-11-01T09:00:00",
      "eventActual": "-3.70%",
      "eventCountry": "United States",
      "eventExpectedVolatility": "Low",
      "eventName": "House Price Index (YoY) (Oct)",
      "eventTimeZone": "GMT",
      "eventPrevious": "-3.40%",
      "eventCurrency": "USD",
      "eventForecast": ""
    },
    {
      "eventDateTime": "2010-11-01T09:00:00",
      "eventActual": "-8.60%",
      "eventCountry": "United States",
      "eventExpectedVolatility": "Moderate",
      "eventName": "Housing Starts (MoM) (Oct)",
      "eventTimeZone": "GMT",
      "eventPrevious": "-0.80%",
      "eventCurrency": "USD",
      "eventForecast": ""
    },
    {
      "eventDateTime": "2010-11-01T09:00:00",
      "eventActual": "59.50",
      "eventCountry": "United States",
      "eventExpectedVolatility": "Moderate",
      "eventName": "ISM Manufacturing Employment (Oct)",
      "eventTimeZone": "GMT",
      "eventPrevious": "57.90",
      "eventCurrency": "USD",
      "eventForecast": ""
    },
    {
      "eventDateTime": "2010-11-01T09:00:00",
      "eventActual": "59.50",
      "eventCountry": "United States",
      "eventExpectedVolatility": "Low",
      "eventName": "ISM Manufacturing New Orders Index (Oct)",
      "eventTimeZone": "GMT",
      "eventPrevious": "53.50",
      "eventCurrency": "USD",
      "eventForecast": ""
    },
    {
      "eventDateTime": "2010-11-01T09:00:00",
      "eventActual": "59.70",
      "eventCountry": "United States",
      "eventExpectedVolatility": "Low",
      "eventName": "ISM Non-Manufacturing Business Activity (Oct)",
      "eventTimeZone": "GMT",
      "eventPrevious": "53.30",
      "eventCurrency": "USD",
      "eventForecast": ""
    },
    {
      "eventDateTime": "2010-11-01T09:00:00",
      "eventActual": "52.10",
      "eventCountry": "United States",
      "eventExpectedVolatility": "Moderate",
      "eventName": "ISM Non-Manufacturing Employment (Oct)",
      "eventTimeZone": "GMT",
      "eventPrevious": "51.50",
      "eventCurrency": "USD",
      "eventForecast": ""
    },
    {
      "eventDateTime": "2010-11-01T09:00:00",
      "eventActual": "58.40",
      "eventCountry": "United States",
      "eventExpectedVolatility": "Low",
      "eventName": "ISM Non-Manufacturing New Orders (Oct)",
      "eventTimeZone": "GMT",
      "eventPrevious": "54.70",
      "eventCurrency": "USD",
      "eventForecast": ""
    },
    {
      "eventDateTime": "2010-11-01T09:00:00",
      "eventActual": "69.70",
      "eventCountry": "United States",
      "eventExpectedVolatility": "Low",
      "eventName": "ISM Non-Manufacturing Prices (Oct)",
      "eventTimeZone": "GMT",
      "eventPrevious": "60.30",
      "eventCurrency": "USD",
      "eventForecast": ""
    },
    {
      "eventDateTime": "2010-11-01T09:00:00",
      "eventActual": "474.00",
      "eventCountry": "United States",
      "eventExpectedVolatility": "Low",
      "eventName": "ISM-New York Index (Oct)",
      "eventTimeZone": "GMT",
      "eventPrevious": "463.60",
      "eventCurrency": "USD",
      "eventForecast": ""
    },
    {
      "eventDateTime": "2010-11-01T09:00:00",
      "eventActual": "3.03M",
      "eventCountry": "United States",
      "eventExpectedVolatility": "High",
      "eventName": "JOLTs Job Openings (Oct)",
      "eventTimeZone": "GMT",
      "eventPrevious": "2.78M",
      "eventCurrency": "USD",
      "eventForecast": ""
    },
    {
      "eventDateTime": "2010-11-01T09:00:00",
      "eventActual": "450.10K",
      "eventCountry": "United States",
      "eventExpectedVolatility": "Low",
      "eventName": "Jobless Claims 4-Week Avg. (Oct)",
      "eventTimeZone": "GMT",
      "eventPrevious": "456.30K",
      "eventCurrency": "USD",
      "eventForecast": ""
    },
    {
      "eventDateTime": "2010-11-01T09:00:00",
      "eventActual": "5.00",
      "eventCountry": "United States",
      "eventExpectedVolatility": "Low",
      "eventName": "KC Fed Composite Index (Oct)",
      "eventTimeZone": "GMT",
      "eventPrevious": "6.00",
      "eventCurrency": "USD",
      "eventForecast": ""
    },
    {
      "eventDateTime": "2010-11-01T09:00:00",
      "eventActual": "13.00",
      "eventCountry": "United States",
      "eventExpectedVolatility": "Low",
      "eventName": "KC Fed Manufacturing Index (Oct)",
      "eventTimeZone": "GMT",
      "eventPrevious": "16.00",
      "eventCurrency": "USD",
      "eventForecast": ""
    },
    {
      "eventDateTime": "2010-11-01T09:00:00",
      "eventActual": "4.27%",
      "eventCountry": "United States",
      "eventExpectedVolatility": "Low",
      "eventName": "MBA 30-Year Mortgage Rate (Oct)",
      "eventTimeZone": "GMT",
      "eventPrevious": "4.41%",
      "eventCurrency": "USD",
      "eventForecast": ""
    },
    {
      "eventDateTime": "2010-11-01T09:00:00",
      "eventActual": "177.75",
      "eventCountry": "United States",
      "eventExpectedVolatility": "Low",
      "eventName": "MBA Purchase Index (Oct)",
      "eventTimeZone": "GMT",
      "eventPrevious": "184.72",
      "eventCurrency": "USD",
      "eventForecast": ""
    },
    {
      "eventDateTime": "2010-11-01T09:00:00",
      "eventActual": "-1.00K",
      "eventCountry": "United States",
      "eventExpectedVolatility": "Low",
      "eventName": "Manufacturing Payrolls (Oct)",
      "eventTimeZone": "GMT",
      "eventPrevious": "10.00K",
      "eventCurrency": "USD",
      "eventForecast": ""
    },
    {
      "eventDateTime": "2010-11-01T09:00:00",
      "eventActual": "0.10%",
      "eventCountry": "United States",
      "eventExpectedVolatility": "Low",
      "eventName": "Manufacturing Production (MoM) (Oct)",
      "eventTimeZone": "GMT",
      "eventPrevious": "0.10%",
      "eventCurrency": "USD",
      "eventForecast": ""
    },
    {
      "eventDateTime": "2010-11-01T09:00:00",
      "eventActual": "2.80%",
      "eventCountry": "United States",
      "eventExpectedVolatility": "Low",
      "eventName": "Michigan 5-Year Inflation Expectations (Oct)",
      "eventTimeZone": "GMT",
      "eventPrevious": "2.80%",
      "eventCurrency": "USD",
      "eventForecast": ""
    },
    {
      "eventDateTime": "2010-11-01T09:00:00",
      "eventActual": "64.60",
      "eventCountry": "United States",
      "eventExpectedVolatility": "Moderate",
      "eventName": "Michigan Consumer Expectations (Oct)",
      "eventTimeZone": "GMT",
      "eventPrevious": "60.90",
      "eventCurrency": "USD",
      "eventForecast": ""
    },
    {
      "eventDateTime": "2010-11-01T09:00:00",
      "eventActual": "76.60",
      "eventCountry": "United States",
      "eventExpectedVolatility": "Low",
      "eventName": "Michigan Current Conditions (Oct)",
      "eventTimeZone": "GMT",
      "eventPrevious": "78.40",
      "eventCurrency": "USD",
      "eventForecast": ""
    },
    {
      "eventDateTime": "2010-11-01T09:00:00",
      "eventActual": "80.40",
      "eventCountry": "United States",
      "eventExpectedVolatility": "Low",
      "eventName": "Midwest Manufacturing (Oct)",
      "eventTimeZone": "GMT",
      "eventPrevious": "80.10",
      "eventCurrency": "USD",
      "eventForecast": ""
    },
    {
      "eventDateTime": "2010-11-01T09:00:00",
      "eventActual": "826.98",
      "eventCountry": "United States",
      "eventExpectedVolatility": "Low",
      "eventName": "Mortgage Market Index (Oct)",
      "eventTimeZone": "GMT",
      "eventPrevious": "802.31",
      "eventCurrency": "USD",
      "eventForecast": ""
    },
    {
      "eventDateTime": "2010-11-01T09:00:00",
      "eventActual": "4,605.35",
      "eventCountry": "United States",
      "eventExpectedVolatility": "Low",
      "eventName": "Mortgage Refinance Index (Oct)",
      "eventTimeZone": "GMT",
      "eventPrevious": "4,395.99",
      "eventCurrency": "USD",
      "eventForecast": ""
    },
    {
      "eventDateTime": "2010-11-01T09:00:00",
      "eventActual": "91.70",
      "eventCountry": "United States",
      "eventExpectedVolatility": "Low",
      "eventName": "NFIB Small Business Optimism (Oct)",
      "eventTimeZone": "GMT",
      "eventPrevious": "89.00",
      "eventCurrency": "USD",
      "eventForecast": ""
    },
    {
      "eventDateTime": "2010-11-01T09:00:00",
      "eventActual": "-8.20%",
      "eventCountry": "United States",
      "eventExpectedVolatility": "Moderate",
      "eventName": "New Home Sales (MoM) (Oct)",
      "eventTimeZone": "GMT",
      "eventPrevious": "12.40%",
      "eventCurrency": "USD",
      "eventForecast": ""
    },
    {
      "eventDateTime": "2010-11-01T09:00:00",
      "eventActual": "1.70B",
      "eventCountry": "United States",
      "eventExpectedVolatility": "Low",
      "eventName": "Overall Net Capital Flow (Oct)",
      "eventTimeZone": "GMT",
      "eventPrevious": "85.60B",
      "eventCurrency": "USD",
      "eventForecast": ""
    },
    {
      "eventDateTime": "2010-11-01T09:00:00",
      "eventActual": "85.70",
      "eventCountry": "United States",
      "eventExpectedVolatility": "Low",
      "eventName": "Pending Home Sales Index (Oct)",
      "eventTimeZone": "GMT",
      "eventPrevious": "81.30",
      "eventCurrency": "USD",
      "eventForecast": ""
    },
    {
      "eventDateTime": "2010-11-01T09:00:00",
      "eventActual": "41.80",
      "eventCountry": "United States",
      "eventExpectedVolatility": "Low",
      "eventName": "Philly Fed Business Conditions (Oct)",
      "eventTimeZone": "GMT",
      "eventPrevious": "29.90",
      "eventCurrency": "USD",
      "eventForecast": ""
    },
    {
      "eventDateTime": "2010-11-01T09:00:00",
      "eventActual": "22.90",
      "eventCountry": "United States",
      "eventExpectedVolatility": "Low",
      "eventName": "Philly Fed CAPEX Index (Oct)",
      "eventTimeZone": "GMT",
      "eventPrevious": "9.10",
      "eventCurrency": "USD",
      "eventForecast": ""
    },
    {
      "eventDateTime": "2010-11-01T09:00:00",
      "eventActual": "6.10",
      "eventCountry": "United States",
      "eventExpectedVolatility": "Moderate",
      "eventName": "Philly Fed Employment (Oct)",
      "eventTimeZone": "GMT",
      "eventPrevious": "4.30",
      "eventCurrency": "USD",
      "eventForecast": ""
    },
    {
      "eventDateTime": "2010-11-01T09:00:00",
      "eventActual": "-4.00",
      "eventCountry": "United States",
      "eventExpectedVolatility": "Low",
      "eventName": "Philly Fed New Orders (Oct)",
      "eventTimeZone": "GMT",
      "eventPrevious": "-2.30",
      "eventCurrency": "USD",
      "eventForecast": ""
    },
    {
      "eventDateTime": "2010-11-01T09:00:00",
      "eventActual": "32.80",
      "eventCountry": "United States",
      "eventExpectedVolatility": "Low",
      "eventName": "Philly Fed Prices Paid (Oct)",
      "eventTimeZone": "GMT",
      "eventPrevious": "18.60",
      "eventCurrency": "USD",
      "eventForecast": ""
    },
    {
      "eventDateTime": "2010-11-01T09:00:00",
      "eventActual": "198.00K",
      "eventCountry": "United States",
      "eventExpectedVolatility": "Moderate",
      "eventName": "Private Nonfarm Payrolls (Oct)",
      "eventTimeZone": "GMT",
      "eventPrevious": "124.00K",
      "eventCurrency": "USD",
      "eventForecast": ""
    },
    {
      "eventDateTime": "2010-11-01T09:00:00",
      "eventActual": "0.20%",
      "eventCountry": "United States",
      "eventExpectedVolatility": "Low",
      "eventName": "Real Earnings (MoM) (Oct)",
      "eventTimeZone": "GMT",
      "eventPrevious": "0.00%",
      "eventCurrency": "USD",
      "eventForecast": ""
    },
    {
      "eventDateTime": "2010-11-01T09:00:00",
      "eventActual": "0.50%",
      "eventCountry": "United States",
      "eventExpectedVolatility": "Low",
      "eventName": "Real Personal Consumption (MoM) (Oct)",
      "eventTimeZone": "GMT",
      "eventPrevious": "0.10%",
      "eventCurrency": "USD",
      "eventForecast": ""
    },
    {
      "eventDateTime": "2010-11-01T09:00:00",
      "eventActual": "0.20%",
      "eventCountry": "United States",
      "eventExpectedVolatility": "Low",
      "eventName": "Redbook (MoM) (Oct)",
      "eventTimeZone": "GMT",
      "eventPrevious": "-0.29%",
      "eventCurrency": "USD",
      "eventForecast": ""
    },
    {
      "eventDateTime": "2010-11-01T09:00:00",
      "eventActual": "2.63%",
      "eventCountry": "United States",
      "eventExpectedVolatility": "Low",
      "eventName": "Redbook (YoY) (Oct)",
      "eventTimeZone": "GMT",
      "eventPrevious": "2.63%",
      "eventCurrency": "USD",
      "eventForecast": ""
    },
    {
      "eventDateTime": "2010-11-01T09:00:00",
      "eventActual": "0.50%",
      "eventCountry": "United States",
      "eventExpectedVolatility": "Low",
      "eventName": "Retail Control (MoM) (Oct)",
      "eventTimeZone": "GMT",
      "eventPrevious": "0.30%",
      "eventCurrency": "USD",
      "eventForecast": ""
    },
    {
      "eventDateTime": "2010-11-01T09:00:00",
      "eventActual": "0.60%",
      "eventCountry": "United States",
      "eventExpectedVolatility": "Low",
      "eventName": "Retail Sales Ex Gas/Autos (MoM) (Oct)",
      "eventTimeZone": "GMT",
      "eventPrevious": "0.30%",
      "eventCurrency": "USD",
      "eventForecast": ""
    },
    {
      "eventDateTime": "2010-11-01T09:00:00",
      "eventActual": "12.00",
      "eventCountry": "United States",
      "eventExpectedVolatility": "Low",
      "eventName": "Richmond Manufacturing Shipments (Oct)",
      "eventTimeZone": "GMT",
      "eventPrevious": "2.00",
      "eventCurrency": "USD",
      "eventForecast": ""
    },
    {
      "eventDateTime": "2010-11-01T09:00:00",
      "eventActual": "3.00",
      "eventCountry": "United States",
      "eventExpectedVolatility": "Low",
      "eventName": "Richmond Services Index (Oct)",
      "eventTimeZone": "GMT",
      "eventPrevious": "-6.00",
      "eventCurrency": "USD",
      "eventForecast": ""
    },
    {
      "eventDateTime": "2010-11-01T09:00:00",
      "eventActual": "-1.40%",
      "eventCountry": "United States",
      "eventExpectedVolatility": "Low",
      "eventName": "Sandamp;P/CS HPI Composite - 20 n.s.a. (MoM) (Oct)",
      "eventTimeZone": "GMT",
      "eventPrevious": "-0.80%",
      "eventCurrency": "USD",
      "eventForecast": ""
    },
    {
      "eventDateTime": "2010-11-01T09:00:00",
      "eventActual": "-0.70%",
      "eventCountry": "United States",
      "eventExpectedVolatility": "Low",
      "eventName": "Sandamp;P/CS HPI Composite - 20 s.a. (MoM) (Oct)",
      "eventTimeZone": "GMT",
      "eventPrevious": "-0.70%",
      "eventCurrency": "USD",
      "eventForecast": ""
    },
    {
      "eventDateTime": "2010-11-01T09:00:00",
      "eventActual": "8.60B",
      "eventCountry": "United States",
      "eventExpectedVolatility": "Low",
      "eventName": "TIC Net Long-Term Transactions including Swaps (Oct)",
      "eventTimeZone": "GMT",
      "eventPrevious": "54.40B",
      "eventCurrency": "USD",
      "eventForecast": ""
    },
    {
      "eventDateTime": "2010-11-01T09:00:00",
      "eventActual": "12.50",
      "eventCountry": "United States",
      "eventExpectedVolatility": "Low",
      "eventName": "Texas Services Sector Outlook (Oct)",
      "eventTimeZone": "GMT",
      "eventPrevious": "10.00",
      "eventCurrency": "USD",
      "eventForecast": ""
    },
    {
      "eventDateTime": "2010-11-01T09:00:00",
      "eventActual": "23.30B",
      "eventCountry": "United States",
      "eventExpectedVolatility": "Low",
      "eventName": "US Foreign Buying, T-bonds (Oct)",
      "eventTimeZone": "GMT",
      "eventPrevious": "77.20B",
      "eventCurrency": "USD",
      "eventForecast": ""
    },
    {
      "eventDateTime": "2010-11-01T11:00:00",
      "eventActual": "2.9%",
      "eventCountry": "United States",
      "eventExpectedVolatility": "Low",
      "eventName": "Global Semiconductor Sales (MoM)",
      "eventTimeZone": "GMT",
      "eventPrevious": "1.8%",
      "eventCurrency": "USD",
      "eventForecast": ""
    },
    {
      "eventDateTime": "2010-11-01T12:30:00",
      "eventActual": "0.0%",
      "eventCountry": "United States",
      "eventExpectedVolatility": "Moderate",
      "eventName": "Core PCE Price Index (MoM)",
      "eventTimeZone": "GMT",
      "eventPrevious": "0.1%",
      "eventCurrency": "USD",
      "eventForecast": "0.1%"
    },
    {
      "eventDateTime": "2010-11-01T12:30:00",
      "eventActual": "-0.1%",
      "eventCountry": "United States",
      "eventExpectedVolatility": "Low",
      "eventName": "Personal Income (MoM)",
      "eventTimeZone": "GMT",
      "eventPrevious": "0.4%",
      "eventCurrency": "USD",
      "eventForecast": "0.3%"
    },
    {
      "eventDateTime": "2010-11-01T12:30:00",
      "eventActual": "0.2%",
      "eventCountry": "United States",
      "eventExpectedVolatility": "Moderate",
      "eventName": "Personal Spending (MoM)",
      "eventTimeZone": "GMT",
      "eventPrevious": "0.5%",
      "eventCurrency": "USD",
      "eventForecast": "0.4%"
    },
    {
      "eventDateTime": "2010-11-01T14:00:00",
      "eventActual": "0.5%",
      "eventCountry": "United States",
      "eventExpectedVolatility": "Low",
      "eventName": "Construction Spending (MoM)",
      "eventTimeZone": "GMT",
      "eventPrevious": "-0.2%",
      "eventCurrency": "USD",
      "eventForecast": "-0.5%"
    },
    {
      "eventDateTime": "2010-11-01T14:00:00",
      "eventActual": "56.9",
      "eventCountry": "United States",
      "eventExpectedVolatility": "High",
      "eventName": "ISM Manufacturing PMI",
      "eventTimeZone": "GMT",
      "eventPrevious": "54.4",
      "eventCurrency": "USD",
      "eventForecast": "53.6"
    },
    {
      "eventDateTime": "2010-11-01T14:00:00",
      "eventActual": "71.0",
      "eventCountry": "United States",
      "eventExpectedVolatility": "Low",
      "eventName": "ISM Manufacturing Prices",
      "eventTimeZone": "GMT",
      "eventPrevious": "70.5",
      "eventCurrency": "USD",
      "eventForecast": "70.5"
    }
  ]}}
