{"events": {"event": [
    {
      "eventDateTime": "2011-01-05T13:30:00",
      "eventActual": "0.5%",
      "eventCountry": "Canada",
      "eventExpectedVolatility": "Low",
      "eventName": "IPPI (MoM)",
      "eventTimeZone": "GMT",
      "eventPrevious": "0.5%",
      "eventCurrency": "CAD",
      "eventForecast": "0.5%"
    },
    {
      "eventDateTime": "2011-01-05T13:30:00",
      "eventActual": "3.5%",
      "eventCountry": "Canada",
      "eventExpectedVolatility": "Moderate",
      "eventName": "RMPI (MoM)",
      "eventTimeZone": "GMT",
      "eventPrevious": "2.1%",
      "eventCurrency": "CAD",
      "eventForecast": "2.2%"
    }
  ]}}
