"Nationwide HPI (MoM)";"United Kingdom";"GBP";"2014-06-03T06:00:00";"GMT";"1.2%";"0.6%";"0.7%";"Moderate"
"Nationwide HPI (YoY)";"United Kingdom";"GBP";"2014-06-03T06:00:00";"GMT";"10.9%";"10.9%";"11.1%";"Moderate"
"Construction PMI";"United Kingdom";"GBP";"2014-06-03T08:30:00";"GMT";"60.8";"60.8";"60.0";"High"
"BRC Shop Price Index (YoY)";"United Kingdom";"GBP";"2014-06-03T23:01:00";"GMT";"-1.4%";"-1.3%";"-1.4%";"Low"
