{"events": {"event": {
    "eventDateTime": "2019-07-25T21:00:00",
    "eventActual": "95.9",
    "eventCountry": "South Korea",
    "eventExpectedVolatility": "Low",
    "eventName": "Consumer Confidence (Jul)",
    "eventTimeZone": "GMT",
    "eventPrevious": "97.5",
    "eventCurrency": "KRW",
    "eventForecast": ""
  }}}
