"Housing Credit (Oct)";"Australia";"AUD";"2018-11-30T00:30:00";"GMT";"0.3%";"";"0.3%";"Low"
"Private Sector Credit (MoM) (Oct)";"Australia";"AUD";"2018-11-30T00:30:00";"GMT";"0.4%";"0.4%";"0.4%";"Moderate"
"CFTC AUD speculative net positions";"Australia";"AUD";"2018-11-30T20:30:00";"GMT";"-59.2K";"";"-53.9K";"Moderate"
