{"events": {"event": [
    {
      "eventDateTime": "2010-02-01T09:00:00",
      "eventActual": "-2.99%",
      "eventCountry": "Brazil",
      "eventExpectedVolatility": "Low",
      "eventName": "Auto Production (MoM) (Jan)",
      "eventTimeZone": "GMT",
      "eventPrevious": "-14.84%",
      "eventCurrency": "BRL",
      "eventForecast": ""
    },
    {
      "eventDateTime": "2010-02-01T09:00:00",
      "eventActual": "-27.20%",
      "eventCountry": "Brazil",
      "eventExpectedVolatility": "Low",
      "eventName": "Auto Sales (MoM) (Jan)",
      "eventTimeZone": "GMT",
      "eventPrevious": "16.42%",
      "eventCurrency": "BRL",
      "eventForecast": ""
    },
    {
      "eventDateTime": "2010-02-01T09:00:00",
      "eventActual": "0.71%",
      "eventCountry": "Brazil",
      "eventExpectedVolatility": "Low",
      "eventName": "Bank lending (MoM) (Jan)",
      "eventTimeZone": "GMT",
      "eventPrevious": "1.98%",
      "eventCurrency": "BRL",
      "eventForecast": ""
    },
    {
      "eventDateTime": "2010-02-01T09:00:00",
      "eventActual": "1.96B",
      "eventCountry": "Brazil",
      "eventExpectedVolatility": "Low",
      "eventName": "Budget Balance (Jan)",
      "eventTimeZone": "GMT",
      "eventPrevious": "-14.22B",
      "eventCurrency": "BRL",
      "eventForecast": ""
    },
    {
      "eventDateTime": "2010-02-01T09:00:00",
      "eventActual": "16.08B",
      "eventCountry": "Brazil",
      "eventExpectedVolatility": "Low",
      "eventName": "Budget Surplus (Jan)",
      "eventTimeZone": "GMT",
      "eventPrevious": "0.16B",
      "eventCurrency": "BRL",
      "eventForecast": ""
    },
    {
      "eventDateTime": "2010-02-01T09:00:00",
      "eventActual": "181.00K",
      "eventCountry": "Brazil",
      "eventExpectedVolatility": "Moderate",
      "eventName": "CAGED Net Payroll Jobs (Jan)",
      "eventTimeZone": "GMT",
      "eventPrevious": "-415.00K",
      "eventCurrency": "BRL",
      "eventForecast": ""
    },
    {
      "eventDateTime": "2010-02-01T09:00:00",
      "eventActual": "81.90%",
      "eventCountry": "Brazil",
      "eventExpectedVolatility": "Low",
      "eventName": "CNI Factory Utilization (Jan)",
      "eventTimeZone": "GMT",
      "eventPrevious": "82.70%",
      "eventCurrency": "BRL",
      "eventForecast": ""
    },
    {
      "eventDateTime": "2010-02-01T09:00:00",
      "eventActual": "0.75%",
      "eventCountry": "Brazil",
      "eventExpectedVolatility": "Moderate",
      "eventName": "CPI (MoM) (Jan)",
      "eventTimeZone": "GMT",
      "eventPrevious": "0.37%",
      "eventCurrency": "BRL",
      "eventForecast": ""
    },
    {
      "eventDateTime": "2010-02-01T09:00:00",
      "eventActual": "4.59%",
      "eventCountry": "Brazil",
      "eventExpectedVolatility": "Moderate",
      "eventName": "CPI (YoY) (Jan)",
      "eventTimeZone": "GMT",
      "eventPrevious": "4.31%",
      "eventCurrency": "BRL",
      "eventForecast": ""
    },
    {
      "eventDateTime": "2010-02-01T09:00:00",
      "eventActual": "39.60%",
      "eventCountry": "Brazil",
      "eventExpectedVolatility": "Low",
      "eventName": "Debt-to-GDP ratio (Jan)",
      "eventTimeZone": "GMT",
      "eventPrevious": "40.90%",
      "eventCurrency": "BRL",
      "eventForecast": ""
    },
    {
      "eventDateTime": "2010-02-01T09:00:00",
      "eventActual": "112.60",
      "eventCountry": "Brazil",
      "eventExpectedVolatility": "Low",
      "eventName": "FGV Consumer confidence (Jan)",
      "eventTimeZone": "GMT",
      "eventPrevious": "111.60",
      "eventCurrency": "BRL",
      "eventForecast": ""
    },
    {
      "eventDateTime": "2010-02-01T09:00:00",
      "eventActual": "74.00B",
      "eventCountry": "Brazil",
      "eventExpectedVolatility": "Low",
      "eventName": "Federal Tax Revenue (Jan)",
      "eventTimeZone": "GMT",
      "eventPrevious": "76.00B",
      "eventCurrency": "BRL",
      "eventForecast": ""
    },
    {
      "eventDateTime": "2010-02-01T09:00:00",
      "eventActual": "0.59B",
      "eventCountry": "Brazil",
      "eventExpectedVolatility": "Low",
      "eventName": "Foreign direct investment (USD) (Jan)",
      "eventTimeZone": "GMT",
      "eventPrevious": "5.11B",
      "eventCurrency": "BRL",
      "eventForecast": ""
    },
    {
      "eventDateTime": "2010-02-01T09:00:00",
      "eventActual": "1.96%",
      "eventCountry": "Brazil",
      "eventExpectedVolatility": "Low",
      "eventName": "IBC-Br Economic Activity (Jan)",
      "eventTimeZone": "GMT",
      "eventPrevious": "0.47%",
      "eventCurrency": "BRL",
      "eventForecast": ""
    },
    {
      "eventDateTime": "2010-02-01T09:00:00",
      "eventActual": "1.01%",
      "eventCountry": "Brazil",
      "eventExpectedVolatility": "Low",
      "eventName": "IGP-DI Inflation Index (MoM) (Jan)",
      "eventTimeZone": "GMT",
      "eventPrevious": "-0.11%",
      "eventCurrency": "BRL",
      "eventForecast": ""
    },
    {
      "eventDateTime": "2010-02-01T09:00:00",
      "eventActual": "0.63%",
      "eventCountry": "Brazil",
      "eventExpectedVolatility": "Low",
      "eventName": "IGP-M Inflation Index (MoM) (Jan)",
      "eventTimeZone": "GMT",
      "eventPrevious": "-0.26%",
      "eventCurrency": "BRL",
      "eventForecast": ""
    },
    {
      "eventDateTime": "2010-02-01T09:00:00",
      "eventActual": "1.34%",
      "eventCountry": "Brazil",
      "eventExpectedVolatility": "Moderate",
      "eventName": "IPC-Fipe Inflation Index (MoM) (Jan)",
      "eventTimeZone": "GMT",
      "eventPrevious": "0.18%",
      "eventCurrency": "BRL",
      "eventForecast": ""
    },
    {
      "eventDateTime": "2010-02-01T09:00:00",
      "eventActual": "2.12%",
      "eventCountry": "Brazil",
      "eventExpectedVolatility": "Low",
      "eventName": "Industrial Production (MoM) (Jan)",
      "eventTimeZone": "GMT",
      "eventPrevious": "0.00%",
      "eventCurrency": "BRL",
      "eventForecast": ""
    },
    {
      "eventDateTime": "2010-02-01T09:00:00",
      "eventActual": "15.88%",
      "eventCountry": "Brazil",
      "eventExpectedVolatility": "Moderate",
      "eventName": "Industrial Production (YoY) (Jan)",
      "eventTimeZone": "GMT",
      "eventPrevious": "18.96%",
      "eventCurrency": "BRL",
      "eventForecast": ""
    },
    {
      "eventDateTime": "2010-02-01T09:00:00",
      "eventActual": "8.75%",
      "eventCountry": "Brazil",
      "eventExpectedVolatility": "Moderate",
      "eventName": "Interest Rate Decision (Jan)",
      "eventTimeZone": "GMT",
      "eventPrevious": "8.75%",
      "eventCurrency": "BRL",
      "eventForecast": ""
    },
    {
      "eventDateTime": "2010-02-01T09:00:00",
      "eventActual": "0.52%",
      "eventCountry": "Brazil",
      "eventExpectedVolatility": "Low",
      "eventName": "Mid-Month CPI (MoM) (Jan)",
      "eventTimeZone": "GMT",
      "eventPrevious": "0.38%",
      "eventCurrency": "BRL",
      "eventForecast": ""
    },
    {
      "eventDateTime": "2010-02-01T09:00:00",
      "eventActual": "4.31%",
      "eventCountry": "Brazil",
      "eventExpectedVolatility": "Low",
      "eventName": "Mid-Month CPI (YoY) (Jan)",
      "eventTimeZone": "GMT",
      "eventPrevious": "4.18%",
      "eventCurrency": "BRL",
      "eventForecast": ""
    },
    {
      "eventDateTime": "2010-02-01T09:00:00",
      "eventActual": "1.82%",
      "eventCountry": "Brazil",
      "eventExpectedVolatility": "Moderate",
      "eventName": "Retail Sales (MoM) (Jan)",
      "eventTimeZone": "GMT",
      "eventPrevious": "-0.23%",
      "eventCurrency": "BRL",
      "eventForecast": ""
    },
    {
      "eventDateTime": "2010-02-01T09:00:00",
      "eventActual": "10.38%",
      "eventCountry": "Brazil",
      "eventExpectedVolatility": "Moderate",
      "eventName": "Retail Sales (YoY) (Jan)",
      "eventTimeZone": "GMT",
      "eventPrevious": "9.24%",
      "eventCurrency": "BRL",
      "eventForecast": ""
    },
    {
      "eventDateTime": "2010-02-01T09:00:00",
      "eventActual": "-0.18B",
      "eventCountry": "Brazil",
      "eventExpectedVolatility": "Low",
      "eventName": "Trade Balance (Jan)",
      "eventTimeZone": "GMT",
      "eventPrevious": "2.17B",
      "eventCurrency": "BRL",
      "eventForecast": ""
    },
    {
      "eventDateTime": "2010-02-01T09:00:00",
      "eventActual": "7.20%",
      "eventCountry": "Brazil",
      "eventExpectedVolatility": "Moderate",
      "eventName": "Unemployment Rate (Jan)",
      "eventTimeZone": "GMT",
      "eventPrevious": "6.80%",
      "eventCurrency": "BRL",
      "eventForecast": ""
    }
  ]}}
