"French PPI (MoM)";"France";"EUR";"2012-02-27T07:45:00";"GMT";"-0.1%";"0.3%";"0.6%";"Low"
"Italian Business Confidence";"Italy";"EUR";"2012-02-27T09:00:00";"GMT";"92.1";"92.0";"91.5";"Low"
"M3 Money Supply (YoY)";"Euro Zone";"EUR";"2012-02-27T09:00:00";"GMT";"1.5%";"1.8%";"2.5%";"Low"
"Private Sector Loans (YoY)";"Euro Zone";"EUR";"2012-02-27T09:00:00";"GMT";"1.0%";"1.2%";"1.1%";"Low"
"German 12-Month Bubill Auction";"Germany";"EUR";"2012-02-27T10:30:00";"GMT";"0.070%";"";"0.077%";"Low"
