{"events": {"event": {
    "eventDateTime": "2013-01-02T00:00:00",
    "eventActual": "1.1%",
    "eventCountry": "Singapore",
    "eventExpectedVolatility": "Low",
    "eventName": "GDP (YoY)",
    "eventTimeZone": "GMT",
    "eventPrevious": "0.3%",
    "eventCurrency": "SGD",
    "eventForecast": "1.4%"
  }}}
