"Adjusted Trade Balance";"Japan";"JPY";"2013-08-18T23:50:00";"GMT";"-0.66T";"-0.73T";"-0.94T";"Moderate"
"Exports (YoY)";"Japan";"JPY";"2013-08-18T23:50:00";"GMT";"7.4%";"13.1%";"12.2%";"Moderate"
"Imports (YoY)";"Japan";"JPY";"2013-08-18T23:50:00";"GMT";"11.8%";"15.4%";"19.6%";"Low"
"Trade Balance";"Japan";"JPY";"2013-08-18T23:50:00";"GMT";"-181B";"-786B";"-1,024B";"Moderate"
