{"events": {"event": {
    "eventDateTime": "2019-11-08T19:30:00",
    "eventActual": "-39.0K",
    "eventCountry": "New Zealand",
    "eventExpectedVolatility": "Low",
    "eventName": "CFTC NZD speculative net positions",
    "eventTimeZone": "GMT",
    "eventPrevious": "-40.4K",
    "eventCurrency": "NZD",
    "eventForecast": ""
  }}}
