{"events": {"event": [
    {
      "eventDateTime": "2012-02-10T13:30:00",
      "eventActual": "-48.8B",
      "eventCountry": "United States",
      "eventExpectedVolatility": "Moderate",
      "eventName": "Trade Balance",
      "eventTimeZone": "GMT",
      "eventPrevious": "-47.1B",
      "eventCurrency": "USD",
      "eventForecast": "-48.4B"
    },
    {
      "eventDateTime": "2012-02-10T14:55:00",
      "eventActual": "72.5",
      "eventCountry": "United States",
      "eventExpectedVolatility": "Moderate",
      "eventName": "Michigan Consumer Sentiment",
      "eventTimeZone": "GMT",
      "eventPrevious": "75.0",
      "eventCurrency": "USD",
      "eventForecast": "74.3"
    },
    {
      "eventDateTime": "2012-02-10T14:55:00",
      "eventActual": "3.2%",
      "eventCountry": "United States",
      "eventExpectedVolatility": "Low",
      "eventName": "Michigan Inflation Expectations",
      "eventTimeZone": "GMT",
      "eventPrevious": "3.3%",
      "eventCurrency": "USD",
      "eventForecast": ""
    },
    {
      "eventDateTime": "2012-02-10T17:00:00",
      "eventActual": "1263",
      "eventCountry": "United States",
      "eventExpectedVolatility": "Moderate",
      "eventName": "U.S. Baker Hughes Oil Rig Count",
      "eventTimeZone": "GMT",
      "eventPrevious": "1245",
      "eventCurrency": "USD",
      "eventForecast": ""
    },
    {
      "eventDateTime": "2012-02-10T17:30:00",
      "eventActual": "",
      "eventCountry": "United States",
      "eventExpectedVolatility": "High",
      "eventName": "Fed Chairman Bernanke Speaks",
      "eventTimeZone": "GMT",
      "eventPrevious": "",
      "eventCurrency": "USD",
      "eventForecast": ""
    },
    {
      "eventDateTime": "2012-02-10T19:00:00",
      "eventActual": "-27.4B",
      "eventCountry": "United States",
      "eventExpectedVolatility": "Moderate",
      "eventName": "Federal Budget Balance",
      "eventTimeZone": "GMT",
      "eventPrevious": "-86.0B",
      "eventCurrency": "USD",
      "eventForecast": "-65.2B"
    },
    {
      "eventDateTime": "2012-02-10T20:30:00",
      "eventActual": "168.9k",
      "eventCountry": "United States",
      "eventExpectedVolatility": "Moderate",
      "eventName": "CFTC Crude Oil speculative net positions",
      "eventTimeZone": "GMT",
      "eventPrevious": "170.7k",
      "eventCurrency": "USD",
      "eventForecast": ""
    },
    {
      "eventDateTime": "2012-02-10T20:30:00",
      "eventActual": "177.5K",
      "eventCountry": "United States",
      "eventExpectedVolatility": "Moderate",
      "eventName": "CFTC Gold speculative net positions",
      "eventTimeZone": "GMT",
      "eventPrevious": "171.4K",
      "eventCurrency": "USD",
      "eventForecast": ""
    },
    {
      "eventDateTime": "2012-02-10T20:30:00",
      "eventActual": "23.6K",
      "eventCountry": "United States",
      "eventExpectedVolatility": "Low",
      "eventName": "CFTC Silver speculative net positions",
      "eventTimeZone": "GMT",
      "eventPrevious": "19.1K",
      "eventCurrency": "USD",
      "eventForecast": ""
    }
  ]}}
