"Industrial Production (MoM) (Apr)";"United Kingdom";"GBP";"2016-06-08T08:30:00";"GMT";"0.3%";"0.0%";"2.0%";"Moderate"
"Industrial Production (YoY) (Apr)";"United Kingdom";"GBP";"2016-06-08T08:30:00";"GMT";"-0.2%";"-0.4%";"1.6%";"Low"
"Manufacturing Production (MoM) (Apr)";"United Kingdom";"GBP";"2016-06-08T08:30:00";"GMT";"0.1%";"0.1%";"2.3%";"High"
"Manufacturing Production (YoY) (Apr)";"United Kingdom";"GBP";"2016-06-08T08:30:00";"GMT";"-1.9%";"-1.5%";"0.8%";"Low"
"NIESR GDP Estimate";"United Kingdom";"GBP";"2016-06-08T14:00:00";"GMT";"0.4%";"";"0.5%";"Moderate"
"RICS House Price Balance (May)";"United Kingdom";"GBP";"2016-06-08T23:01:00";"GMT";"39%";"35%";"19%";"Moderate"
