"RICS House Price Balance";"United Kingdom";"GBP";"2011-12-13T00:01:00";"GMT";"-24%";"-25%";"-17%";"Moderate"
"CPI (YoY)";"United Kingdom";"GBP";"2011-12-13T09:30:00";"GMT";"5.0%";"4.8%";"4.8%";"High"
"Core CPI (YoY)";"United Kingdom";"GBP";"2011-12-13T09:30:00";"GMT";"3.4%";"3.3%";"3.2%";"Low"
"House Price Index (YoY)";"United Kingdom";"GBP";"2011-12-13T09:30:00";"GMT";"-1.4%";"-0.9%";"-0.4%";"Low"
"RPI (YoY)";"United Kingdom";"GBP";"2011-12-13T09:30:00";"GMT";"5.4%";"5.1%";"5.2%";"Low"
