"Exports (MoM) (Jul)";"Hong Kong";"HKD";"2018-08-27T08:30:00";"GMT";"3.3%";"";"10.0%";"Low"
"Imports (MoM) (Jul)";"Hong Kong";"HKD";"2018-08-27T08:30:00";"GMT";"4.4%";"";"14.0%";"Low"
"Trade Balance";"Hong Kong";"HKD";"2018-08-27T08:30:00";"GMT";"-54.1B";"";"-47.1B";"Low"
