{"events": {"event": [
    {
      "eventDateTime": "2015-11-26T05:00:00",
      "eventActual": "2.5%",
      "eventCountry": "Singapore",
      "eventExpectedVolatility": "Low",
      "eventName": "Industrial Production (MoM) (Oct)",
      "eventTimeZone": "GMT",
      "eventPrevious": "0.6%",
      "eventCurrency": "SGD",
      "eventForecast": "2.0%"
    },
    {
      "eventDateTime": "2015-11-26T05:00:00",
      "eventActual": "-5.4%",
      "eventCountry": "Singapore",
      "eventExpectedVolatility": "Low",
      "eventName": "Industrial Production (YoY) (Oct)",
      "eventTimeZone": "GMT",
      "eventPrevious": "-4.7%",
      "eventCurrency": "SGD",
      "eventForecast": "-5.3%"
    }
  ]}}
