{"events": {"event": [
    {
      "eventDateTime": "2003-04-04T12:30:00",
      "eventActual": "-210K",
      "eventCountry": "United States",
      "eventExpectedVolatility": "High",
      "eventName": "Nonfarm Payrolls (Mar)",
      "eventTimeZone": "GMT",
      "eventPrevious": "-151K",
      "eventCurrency": "USD",
      "eventForecast": ""
    },
    {
      "eventDateTime": "2003-04-04T17:00:00",
      "eventActual": "187",
      "eventCountry": "United States",
      "eventExpectedVolatility": "Moderate",
      "eventName": "U.S. Baker Hughes Oil Rig Count",
      "eventTimeZone": "GMT",
      "eventPrevious": "178",
      "eventCurrency": "USD",
      "eventForecast": ""
    },
    {
      "eventDateTime": "2003-04-04T20:30:00",
      "eventActual": "-57.1k",
      "eventCountry": "United States",
      "eventExpectedVolatility": "Moderate",
      "eventName": "CFTC Crude Oil speculative net positions",
      "eventTimeZone": "GMT",
      "eventPrevious": "-45.5k",
      "eventCurrency": "USD",
      "eventForecast": ""
    }
  ]}}
