"Housing Equity Withdrawal (QoQ)";"United Kingdom";"GBP";"2009-07-03T08:30:00";"GMT";"-7.8B";"-8.9B";"-8.1B";"Low"
"Services PMI";"United Kingdom";"GBP";"2009-07-03T08:30:00";"GMT";"51.7";"51.7";"51.6";"High"
"CFTC GBP speculative net positions";"United Kingdom";"GBP";"2009-07-03T19:30:00";"GMT";"-12.2K";"";"-4.1K";"Moderate"
