{"events": {"event": {
    "eventDateTime": "2012-08-21T08:45:00",
    "eventActual": "3.070%",
    "eventCountry": "Spain",
    "eventExpectedVolatility": "Low",
    "eventName": "Spanish 12-Month Letras Auction",
    "eventTimeZone": "GMT",
    "eventPrevious": "3.918%",
    "eventCurrency": "EUR",
    "eventForecast": ""
  }}}
