{"events": {"event": [
    {
      "eventDateTime": "2014-06-11T09:00:00",
      "eventActual": "-4.30B",
      "eventCountry": "Spain",
      "eventExpectedVolatility": "Low",
      "eventName": "Spanish Government Budget Balance",
      "eventTimeZone": "GMT",
      "eventPrevious": "2.40B",
      "eventCurrency": "EUR",
      "eventForecast": "-4.50B"
    },
    {
      "eventDateTime": "2014-06-11T09:10:00",
      "eventActual": "0.495%",
      "eventCountry": "Italy",
      "eventExpectedVolatility": "Low",
      "eventName": "Italian 12-Month BOT Auction",
      "eventTimeZone": "GMT",
      "eventPrevious": "0.650%",
      "eventCurrency": "EUR",
      "eventForecast": ""
    },
    {
      "eventDateTime": "2014-06-11T12:45:00",
      "eventActual": "-0.10%",
      "eventCountry": "Euro Zone",
      "eventExpectedVolatility": "High",
      "eventName": "Deposit Facility Rate",
      "eventTimeZone": "GMT",
      "eventPrevious": "0.00%",
      "eventCurrency": "EUR",
      "eventForecast": ""
    }
  ]}}
