"M3 Money Supply (YoY) (May)";"South Africa";"ZAR";"2019-06-28T06:00:00";"GMT";"8.77%";"8.60%";"9.07%";"Low"
"Private Sector Credit (May)";"South Africa";"ZAR";"2019-06-28T06:00:00";"GMT";"7.95%";"8.00%";"7.66%";"Low"
"Trade Balance (May)";"South Africa";"ZAR";"2019-06-28T12:00:00";"GMT";"-3.53B";"2.70B";"1.74B";"Low"
