{"events": {"event": {
    "eventDateTime": "2015-01-09T20:30:00",
    "eventActual": "4.0K",
    "eventCountry": "Russia",
    "eventExpectedVolatility": "Moderate",
    "eventName": "CFTC RUB speculative positions",
    "eventTimeZone": "GMT",
    "eventPrevious": "3.9K",
    "eventCurrency": "RUB",
    "eventForecast": ""
  }}}
