"French Business Survey";"France";"EUR";"2011-12-16T07:45:00";"GMT";"96";"95";"94";"Low"
"ECB President Draghi Speaks";"Euro Zone";"EUR";"2011-12-16T08:30:00";"GMT";" ";"";"";"High"
"Trade Balance";"Euro Zone";"EUR";"2011-12-16T10:00:00";"GMT";"2.2B";"1.3B";"0.3B";"Moderate"
"CFTC EUR speculative net positions";"Euro Zone";"EUR";"2011-12-16T20:30:00";"GMT";"-95.8K";"";"-116.5K";"Moderate"
