{"events": {"event": [
    {
      "eventDateTime": "2011-12-16T07:45:00",
      "eventActual": "94",
      "eventCountry": "France",
      "eventExpectedVolatility": "Low",
      "eventName": "French Business Survey",
      "eventTimeZone": "GMT",
      "eventPrevious": "96",
      "eventCurrency": "EUR",
      "eventForecast": "95"
    },
    {
      "eventDateTime": "2011-12-16T08:30:00",
      "eventActual": "",
      "eventCountry": "Euro Zone",
      "eventExpectedVolatility": "High",
      "eventName": "ECB President Draghi Speaks",
      "eventTimeZone": "GMT",
      "eventPrevious": "",
      "eventCurrency": "EUR",
      "eventForecast": ""
    },
    {
      "eventDateTime": "2011-12-16T10:00:00",
      "eventActual": "0.3B",
      "eventCountry": "Euro Zone",
      "eventExpectedVolatility": "Moderate",
      "eventName": "Trade Balance",
      "eventTimeZone": "GMT",
      "eventPrevious": "2.2B",
      "eventCurrency": "EUR",
      "eventForecast": "1.3B"
    },
    {
      "eventDateTime": "2011-12-16T20:30:00",
      "eventActual": "-116.5K",
      "eventCountry": "Euro Zone",
      "eventExpectedVolatility": "Moderate",
      "eventName": "CFTC EUR speculative net positions",
      "eventTimeZone": "GMT",
      "eventPrevious": "-95.8K",
      "eventCurrency": "EUR",
      "eventForecast": ""
    }
  ]}}
