"Retail Sales (MoM) (Mar)";"Brazil";"BRL";"2016-05-11T12:00:00";"GMT";"1.1%";"-0.5%";"-0.9%";"Moderate"
"Retail Sales (YoY) (Mar)";"Brazil";"BRL";"2016-05-11T12:00:00";"GMT";"-4.2%";"-4.5%";"-5.7%";"Moderate"
"Foreign Exchange Flows";"Brazil";"BRL";"2016-05-11T15:30:00";"GMT";"6.52B";"";"-1.22B";"Low"
