{"events": {"event": {
    "eventDateTime": "2008-10-20T00:30:00",
    "eventActual": "",
    "eventCountry": "Japan",
    "eventExpectedVolatility": "Moderate",
    "eventName": "BoJ Governor Shirakawa Speaks",
    "eventTimeZone": "GMT",
    "eventPrevious": "",
    "eventCurrency": "JPY",
    "eventForecast": ""
  }}}
