{"events": {"event": {
    "eventDateTime": "2014-11-17T05:00:00",
    "eventActual": "55.7%",
    "eventCountry": "Switzerland",
    "eventExpectedVolatility": "Moderate",
    "eventName": "Investing.com USD/CHF Index",
    "eventTimeZone": "GMT",
    "eventPrevious": "56.0%",
    "eventCurrency": "CHF",
    "eventForecast": ""
  }}}
