{"events": {"event": {
    "eventDateTime": "2014-03-20T08:30:00",
    "eventActual": "3.90%",
    "eventCountry": "Hong Kong",
    "eventExpectedVolatility": "Low",
    "eventName": "CPI (YoY)",
    "eventTimeZone": "GMT",
    "eventPrevious": "4.60%",
    "eventCurrency": "HKD",
    "eventForecast": ""
  }}}
