"French CPI (MoM) (May)";"France";"EUR";"2016-06-15T06:45:00";"GMT";"0.4%";"0.4%";"0.4%";"Moderate"
"French HICP (MoM) (May)";"France";"EUR";"2016-06-15T06:45:00";"GMT";"0.3%";"0.3%";"0.5%";"Moderate"
"French HICP (YoY) (May)";"France";"EUR";"2016-06-15T06:45:00";"GMT";"0.0%";"0.0%";"0.1%";"Low"
"Trade Balance (Apr)";"Euro Zone";"EUR";"2016-06-15T09:00:00";"GMT";"28.6B";"26.0B";"27.5B";"Moderate"
"German 10-Year Bund Auction";"Germany";"EUR";"2016-06-15T09:35:00";"GMT";"0.140%";"";"0.010%";"Moderate"
"German Buba President Weidmann Speaks";"Germany";"EUR";"2016-06-15T14:00:00";"GMT";" ";"";"";"Moderate"
