{"events": {"event": [
    {
      "eventDateTime": "2016-09-02T12:30:00",
      "eventActual": "0.1%",
      "eventCountry": "United States",
      "eventExpectedVolatility": "Moderate",
      "eventName": "Average Hourly Earnings (MoM) (Aug)",
      "eventTimeZone": "GMT",
      "eventPrevious": "0.3%",
      "eventCurrency": "USD",
      "eventForecast": "0.2%"
    },
    {
      "eventDateTime": "2016-09-02T12:30:00",
      "eventActual": "34.3",
      "eventCountry": "United States",
      "eventExpectedVolatility": "Low",
      "eventName": "Average Weekly Hours (Aug)",
      "eventTimeZone": "GMT",
      "eventPrevious": "34.4",
      "eventCurrency": "USD",
      "eventForecast": "34.5"
    },
    {
      "eventDateTime": "2016-09-02T12:30:00",
      "eventActual": "25.0K",
      "eventCountry": "United States",
      "eventExpectedVolatility": "Low",
      "eventName": "Government Payrolls (Aug)",
      "eventTimeZone": "GMT",
      "eventPrevious": "50.0K",
      "eventCurrency": "USD",
      "eventForecast": ""
    },
    {
      "eventDateTime": "2016-09-02T12:30:00",
      "eventActual": "-14.0K",
      "eventCountry": "United States",
      "eventExpectedVolatility": "Low",
      "eventName": "Manufacturing Payrolls (Aug)",
      "eventTimeZone": "GMT",
      "eventPrevious": "6.0K",
      "eventCurrency": "USD",
      "eventForecast": "-2.0K"
    },
    {
      "eventDateTime": "2016-09-02T12:30:00",
      "eventActual": "151K",
      "eventCountry": "United States",
      "eventExpectedVolatility": "High",
      "eventName": "Nonfarm Payrolls (Aug)",
      "eventTimeZone": "GMT",
      "eventPrevious": "275K",
      "eventCurrency": "USD",
      "eventForecast": "180K"
    },
    {
      "eventDateTime": "2016-09-02T12:30:00",
      "eventActual": "62.8%",
      "eventCountry": "United States",
      "eventExpectedVolatility": "Moderate",
      "eventName": "Participation Rate (Aug)",
      "eventTimeZone": "GMT",
      "eventPrevious": "62.8%",
      "eventCurrency": "USD",
      "eventForecast": ""
    },
    {
      "eventDateTime": "2016-09-02T12:30:00",
      "eventActual": "126K",
      "eventCountry": "United States",
      "eventExpectedVolatility": "Moderate",
      "eventName": "Private Nonfarm Payrolls (Aug)",
      "eventTimeZone": "GMT",
      "eventPrevious": "225K",
      "eventCurrency": "USD",
      "eventForecast": "178K"
    },
    {
      "eventDateTime": "2016-09-02T12:30:00",
      "eventActual": "-39.47B",
      "eventCountry": "United States",
      "eventExpectedVolatility": "Moderate",
      "eventName": "Trade Balance (Jul)",
      "eventTimeZone": "GMT",
      "eventPrevious": "-44.66B",
      "eventCurrency": "USD",
      "eventForecast": "-42.70B"
    },
    {
      "eventDateTime": "2016-09-02T12:30:00",
      "eventActual": "9.7%",
      "eventCountry": "United States",
      "eventExpectedVolatility": "Low",
      "eventName": "U6 Unemployment Rate (Aug)",
      "eventTimeZone": "GMT",
      "eventPrevious": "9.7%",
      "eventCurrency": "USD",
      "eventForecast": ""
    },
    {
      "eventDateTime": "2016-09-02T12:30:00",
      "eventActual": "4.9%",
      "eventCountry": "United States",
      "eventExpectedVolatility": "High",
      "eventName": "Unemployment Rate (Aug)",
      "eventTimeZone": "GMT",
      "eventPrevious": "4.9%",
      "eventCurrency": "USD",
      "eventForecast": "4.8%"
    },
    {
      "eventDateTime": "2016-09-02T13:45:00",
      "eventActual": "719.9",
      "eventCountry": "United States",
      "eventExpectedVolatility": "Low",
      "eventName": "ISM-New York Index (Aug)",
      "eventTimeZone": "GMT",
      "eventPrevious": "721.1",
      "eventCurrency": "USD",
      "eventForecast": ""
    },
    {
      "eventDateTime": "2016-09-02T14:00:00",
      "eventActual": "1.9%",
      "eventCountry": "United States",
      "eventExpectedVolatility": "Moderate",
      "eventName": "Factory Orders (MoM) (Jul)",
      "eventTimeZone": "GMT",
      "eventPrevious": "-1.8%",
      "eventCurrency": "USD",
      "eventForecast": "2.0%"
    },
    {
      "eventDateTime": "2016-09-02T14:00:00",
      "eventActual": "0.2%",
      "eventCountry": "United States",
      "eventExpectedVolatility": "Low",
      "eventName": "Factory orders ex transportation (MoM) (Jul)",
      "eventTimeZone": "GMT",
      "eventPrevious": "0.4%",
      "eventCurrency": "USD",
      "eventForecast": ""
    },
    {
      "eventDateTime": "2016-09-02T17:00:00",
      "eventActual": "",
      "eventCountry": "United States",
      "eventExpectedVolatility": "Moderate",
      "eventName": "FOMC Member Lacker Speaks",
      "eventTimeZone": "GMT",
      "eventPrevious": "",
      "eventCurrency": "USD",
      "eventForecast": ""
    },
    {
      "eventDateTime": "2016-09-02T17:00:00",
      "eventActual": "407",
      "eventCountry": "United States",
      "eventExpectedVolatility": "Moderate",
      "eventName": "U.S. Baker Hughes Oil Rig Count",
      "eventTimeZone": "GMT",
      "eventPrevious": "406",
      "eventCurrency": "USD",
      "eventForecast": ""
    },
    {
      "eventDateTime": "2016-09-02T19:30:00",
      "eventActual": "-21.9K",
      "eventCountry": "United States",
      "eventExpectedVolatility": "Low",
      "eventName": "CFTC Copper speculative net positions",
      "eventTimeZone": "GMT",
      "eventPrevious": "-6.7K",
      "eventCurrency": "USD",
      "eventForecast": ""
    },
    {
      "eventDateTime": "2016-09-02T19:30:00",
      "eventActual": "341.3K",
      "eventCountry": "United States",
      "eventExpectedVolatility": "Moderate",
      "eventName": "CFTC Crude Oil speculative net positions",
      "eventTimeZone": "GMT",
      "eventPrevious": "353.7K",
      "eventCurrency": "USD",
      "eventForecast": ""
    },
    {
      "eventDateTime": "2016-09-02T19:30:00",
      "eventActual": "276.3K",
      "eventCountry": "United States",
      "eventExpectedVolatility": "Moderate",
      "eventName": "CFTC Gold speculative net positions",
      "eventTimeZone": "GMT",
      "eventPrevious": "294.6K",
      "eventCurrency": "USD",
      "eventForecast": ""
    },
    {
      "eventDateTime": "2016-09-02T19:30:00",
      "eventActual": "200.1K",
      "eventCountry": "United States",
      "eventExpectedVolatility": "Moderate",
      "eventName": "CFTC Sandamp:P 500 speculative net positions",
      "eventTimeZone": "GMT",
      "eventPrevious": "192.4K",
      "eventCurrency": "USD",
      "eventForecast": ""
    },
    {
      "eventDateTime": "2016-09-02T19:30:00",
      "eventActual": "84.4K",
      "eventCountry": "United States",
      "eventExpectedVolatility": "Low",
      "eventName": "CFTC Silver speculative net positions",
      "eventTimeZone": "GMT",
      "eventPrevious": "83.2K",
      "eventCurrency": "USD",
      "eventForecast": ""
    }
  ]}}
