"Average Hourly Earnings (MoM) (Aug)";"United States";"USD";"2016-09-02T12:30:00";"GMT";"0.3%";"0.2%";"0.1%";"Moderate"
"Average Weekly Hours (Aug)";"United States";"USD";"2016-09-02T12:30:00";"GMT";"34.4";"34.5";"34.3";"Low"
"Government Payrolls (Aug)";"United States";"USD";"2016-09-02T12:30:00";"GMT";"50.0K";"";"25.0K";"Low"
"Manufacturing Payrolls (Aug)";"United States";"USD";"2016-09-02T12:30:00";"GMT";"6.0K";"-2.0K";"-14.0K";"Low"
"Nonfarm Payrolls (Aug)";"United States";"USD";"2016-09-02T12:30:00";"GMT";"275K";"180K";"151K";"High"
"Participation Rate (Aug)";"United States";"USD";"2016-09-02T12:30:00";"GMT";"62.8%";"";"62.8%";"Moderate"
"Private Nonfarm Payrolls (Aug)";"United States";"USD";"2016-09-02T12:30:00";"GMT";"225K";"178K";"126K";"Moderate"
"Trade Balance (Jul)";"United States";"USD";"2016-09-02T12:30:00";"GMT";"-44.66B";"-42.70B";"-39.47B";"Moderate"
"U6 Unemployment Rate (Aug)";"United States";"USD";"2016-09-02T12:30:00";"GMT";"9.7%";"";"9.7%";"Low"
"Unemployment Rate (Aug)";"United States";"USD";"2016-09-02T12:30:00";"GMT";"4.9%";"4.8%";"4.9%";"High"
"ISM-New York Index (Aug)";"United States";"USD";"2016-09-02T13:45:00";"GMT";"721.1";"";"719.9";"Low"
"Factory Orders (MoM) (Jul)";"United States";"USD";"2016-09-02T14:00:00";"GMT";"-1.8%";"2.0%";"1.9%";"Moderate"
"Factory orders ex transportation (MoM) (Jul)";"United States";"USD";"2016-09-02T14:00:00";"GMT";"0.4%";"";"0.2%";"Low"
"FOMC Member Lacker Speaks";"United States";"USD";"2016-09-02T17:00:00";"GMT";" ";"";"";"Moderate"
"U.S. Baker Hughes Oil Rig Count";"United States";"USD";"2016-09-02T17:00:00";"GMT";"406";"";"407";"Moderate"
"CFTC Copper speculative net positions";"United States";"USD";"2016-09-02T19:30:00";"GMT";"-6.7K";"";"-21.9K";"Low"
"CFTC Crude Oil speculative net positions";"United States";"USD";"2016-09-02T19:30:00";"GMT";"353.7K";"";"341.3K";"Moderate"
"CFTC Gold speculative net positions";"United States";"USD";"2016-09-02T19:30:00";"GMT";"294.6K";"";"276.3K";"Moderate"
"CFTC Sandamp:P 500 speculative net positions";"United States";"USD";"2016-09-02T19:30:00";"GMT";"192.4K";"";"200.1K";"Moderate"
"CFTC Silver speculative net positions";"United States";"USD";"2016-09-02T19:30:00";"GMT";"83.2K";"";"84.4K";"Low"
