{"events": {"event": {
    "eventDateTime": "2008-02-20T07:00:00",
    "eventActual": "0.8%",
    "eventCountry": "Germany",
    "eventExpectedVolatility": "Moderate",
    "eventName": "German PPI (MoM)",
    "eventTimeZone": "GMT",
    "eventPrevious": "-0.1%",
    "eventCurrency": "EUR",
    "eventForecast": "0.3%"
  }}}
