"Investing.com Gold Index";"United States";"USD";"2014-09-01T06:35:00";"GMT";"56.5%";"";"65.2%";"Moderate"
"Investing.com Sandamp;P 500 Index";"United States";"USD";"2014-09-01T06:35:00";"GMT";"36.8%";"";"31.9%";"Moderate"
"All Truck Sales (Aug)";"United States";"USD";"2014-09-01T09:00:00";"GMT";"8.62M";"";"9.22M";"Low"
"Domestic Truck Sales (Aug)";"United States";"USD";"2014-09-01T09:00:00";"GMT";"7.27M";"";"7.75M";"Low"
"Government Payrolls (Aug)";"United States";"USD";"2014-09-01T09:00:00";"GMT";"6.00K";"";"4.00K";"Low"
"ISM Manufacturing New Orders Index (Aug)";"United States";"USD";"2014-09-01T09:00:00";"GMT";"62.00";"";"63.90";"Low"
"ISM Non-Manufacturing Business Activity (Aug)";"United States";"USD";"2014-09-01T09:00:00";"GMT";"61.30";"";"63.10";"Low"
"Manufacturing Payrolls (Aug)";"United States";"USD";"2014-09-01T09:00:00";"GMT";"14.00K";"";"14.00K";"Low"
"Markit Composite PMI (Aug)";"United States";"USD";"2014-09-01T09:00:00";"GMT";"60.60";"";"59.70";"Moderate"
"Michigan 5-Year Inflation Expectations (Aug)";"United States";"USD";"2014-09-01T09:00:00";"GMT";"2.60%";"";"2.90%";"Low"
"Retail Control (MoM) (Aug)";"United States";"USD";"2014-09-01T09:00:00";"GMT";"0.20%";"";"0.50%";"Low"
"Retail Sales Ex Gas/Autos (MoM) (Aug)";"United States";"USD";"2014-09-01T09:00:00";"GMT";"0.20%";"";"0.60%";"Low"
