{"events": {"event": [
    {
      "eventDateTime": "2009-05-20T08:30:00",
      "eventActual": "",
      "eventCountry": "United Kingdom",
      "eventExpectedVolatility": "High",
      "eventName": "BoE MPC Meeting Minutes",
      "eventTimeZone": "GMT",
      "eventPrevious": "",
      "eventCurrency": "GBP",
      "eventForecast": ""
    },
    {
      "eventDateTime": "2009-05-20T10:00:00",
      "eventActual": "-56",
      "eventCountry": "United Kingdom",
      "eventExpectedVolatility": "Moderate",
      "eventName": "CBI Industrial Trends Orders",
      "eventTimeZone": "GMT",
      "eventPrevious": "-57",
      "eventCurrency": "GBP",
      "eventForecast": "-50"
    }
  ]}}
