"German WPI (MoM) (Jul)";"Germany";"EUR";"2015-08-11T06:00:00";"GMT";"-0.2%";"0.2%";"0.1%";"Low"
"German WPI (YoY) (Jul)";"Germany";"EUR";"2015-08-11T06:00:00";"GMT";"-0.5%";"";"-0.5%";"Low"
"Italian CPI (MoM) (Jul)";"Italy";"EUR";"2015-08-11T08:00:00";"GMT";"-0.1%";"-0.1%";"-0.1%";"Moderate"
"Italian CPI (YoY) (Jul)";"Italy";"EUR";"2015-08-11T08:00:00";"GMT";"0.2%";"0.2%";"0.2%";"Low"
"Italian HICP (MoM) (Jul)";"Italy";"EUR";"2015-08-11T08:00:00";"GMT";"-2.0%";"-1.9%";"-2.0%";"Low"
"Italian HICP (YoY) (Jul)";"Italy";"EUR";"2015-08-11T08:00:00";"GMT";"0.4%";"0.4%";"0.3%";"Low"
"German ZEW Current Conditions (Aug)";"Germany";"EUR";"2015-08-11T09:00:00";"GMT";"63.9";"64.3";"65.7";"Moderate"
"German ZEW Economic Sentiment (Aug)";"Germany";"EUR";"2015-08-11T09:00:00";"GMT";"29.7";"32.0";"25.0";"High"
"ZEW Economic Sentiment";"Euro Zone";"EUR";"2015-08-11T09:00:00";"GMT";"42.7";"43.9";"47.6";"Moderate"
