"Investing.com NZD/USD Index";"New Zealand";"NZD";"2017-02-27T06:30:00";"GMT";"48.2%";"";"47.1%";"Moderate"
"Exports (Jan)";"New Zealand";"NZD";"2017-02-27T21:45:00";"GMT";"4.38B";"3.90B";"3.91B";"Low"
"Imports (Jan)";"New Zealand";"NZD";"2017-02-27T21:45:00";"GMT";"4.42B";"3.90B";"4.19B";"Low"
"Trade Balance (MoM) (Jan)";"New Zealand";"NZD";"2017-02-27T21:45:00";"GMT";"-36M";"-3M";"-285M";"Moderate"
"Trade Balance (YoY) (Jan)";"New Zealand";"NZD";"2017-02-27T21:45:00";"GMT";"-3,170M";"-3,195M";"-3,470M";"Moderate"
