{"events": {"event": {
    "eventDateTime": "2013-02-22T01:30:00",
    "eventActual": "0.80%",
    "eventCountry": "China",
    "eventExpectedVolatility": "Low",
    "eventName": "House Prices (YoY)",
    "eventTimeZone": "GMT",
    "eventPrevious": "-0.04%",
    "eventCurrency": "CNY",
    "eventForecast": ""
  }}}
