"Investing.com EUR/USD Index";"Euro Zone";"EUR";"2019-07-29T05:30:00";"GMT";"53.3%";"";"51.4%";"Moderate"
"Spanish CPI (MoM)";"Spain";"EUR";"2019-07-29T07:00:00";"GMT";"-0.1%";"0.2%";"-0.6%";"Low"
"Spanish CPI (YoY) (Jul)";"Spain";"EUR";"2019-07-29T07:00:00";"GMT";"0.4%";"0.6%";"0.5%";"Moderate"
"Spanish HICP (MoM)";"Spain";"EUR";"2019-07-29T07:00:00";"GMT";"-0.1%";"-1.5%";"-1.1%";"Low"
"Spanish HICP (YoY) (Jul)";"Spain";"EUR";"2019-07-29T07:00:00";"GMT";"0.6%";"0.8%";"0.7%";"Moderate"
"Spanish Retail Sales (YoY) (Jun)";"Spain";"EUR";"2019-07-29T07:00:00";"GMT";"2.6%";"";"2.4%";"Low"
"Italian PPI (MoM) (Jun)";"Italy";"EUR";"2019-07-29T08:00:00";"GMT";"0.1%";"-0.1%";"-0.3%";"Low"
"Italian PPI (YoY) (Jun)";"Italy";"EUR";"2019-07-29T08:00:00";"GMT";"1.5%";"0.9%";"0.9%";"Low"
"Italian 6-Month BOT Auction";"Italy";"EUR";"2019-07-29T09:45:00";"GMT";"-0.063%";"";"-0.210%";"Low"
"French 12-Month BTF Auction";"France";"EUR";"2019-07-29T13:00:00";"GMT";"-0.655%";"";"-0.650%";"Low"
"French 3-Month BTF Auction";"France";"EUR";"2019-07-29T13:00:00";"GMT";"-0.545%";"";"-0.541%";"Low"
"French 6-Month BTF Auction";"France";"EUR";"2019-07-29T13:00:00";"GMT";"-0.596%";"";"-0.589%";"Low"
