{"events": {"event": [
    {
      "eventDateTime": "2017-05-01T01:00:00",
      "eventActual": "0.5%",
      "eventCountry": "Australia",
      "eventExpectedVolatility": "Low",
      "eventName": "MI Inflation Gauge (MoM)",
      "eventTimeZone": "GMT",
      "eventPrevious": "0.1%",
      "eventCurrency": "AUD",
      "eventForecast": ""
    },
    {
      "eventDateTime": "2017-05-01T05:30:00",
      "eventActual": "60.8%",
      "eventCountry": "Australia",
      "eventExpectedVolatility": "Moderate",
      "eventName": "Investing.com AUD/USD Index",
      "eventTimeZone": "GMT",
      "eventPrevious": "59.7%",
      "eventCurrency": "AUD",
      "eventForecast": ""
    },
    {
      "eventDateTime": "2017-05-01T06:30:00",
      "eventActual": "38.6%",
      "eventCountry": "Australia",
      "eventExpectedVolatility": "Low",
      "eventName": "Commodity Prices (YoY)",
      "eventTimeZone": "GMT",
      "eventPrevious": "46.8%",
      "eventCurrency": "AUD",
      "eventForecast": ""
    }
  ]}}
