{"events": {"event": [
    {
      "eventDateTime": "2003-01-01T09:00:00",
      "eventActual": "-8.00%",
      "eventCountry": "New Zealand",
      "eventExpectedVolatility": "Moderate",
      "eventName": "ANZ Business Confidence (Dec)",
      "eventTimeZone": "GMT",
      "eventPrevious": "-0.10%",
      "eventCurrency": "NZD",
      "eventForecast": ""
    },
    {
      "eventDateTime": "2003-01-01T09:00:00",
      "eventActual": "20.00%",
      "eventCountry": "New Zealand",
      "eventExpectedVolatility": "Moderate",
      "eventName": "Building Consents (MoM) (Dec)",
      "eventTimeZone": "GMT",
      "eventPrevious": "-33.60%",
      "eventCurrency": "NZD",
      "eventForecast": ""
    },
    {
      "eventDateTime": "2003-01-01T09:00:00",
      "eventActual": "3.10%",
      "eventCountry": "New Zealand",
      "eventExpectedVolatility": "Moderate",
      "eventName": "Electronic Card Retail Sales (MoM) (Dec)",
      "eventTimeZone": "GMT",
      "eventPrevious": "-1.40%",
      "eventCurrency": "NZD",
      "eventForecast": ""
    },
    {
      "eventDateTime": "2003-01-01T09:00:00",
      "eventActual": "2.39B",
      "eventCountry": "New Zealand",
      "eventExpectedVolatility": "Low",
      "eventName": "Exports (Dec)",
      "eventTimeZone": "GMT",
      "eventPrevious": "2.45B",
      "eventCurrency": "NZD",
      "eventForecast": ""
    },
    {
      "eventDateTime": "2003-01-01T09:00:00",
      "eventActual": "10.79%",
      "eventCountry": "New Zealand",
      "eventExpectedVolatility": "Low",
      "eventName": "External Migration andamp; Visitors (Dec)",
      "eventTimeZone": "GMT",
      "eventPrevious": "20.69%",
      "eventCurrency": "NZD",
      "eventForecast": ""
    },
    {
      "eventDateTime": "2003-01-01T09:00:00",
      "eventActual": "-0.70%",
      "eventCountry": "New Zealand",
      "eventExpectedVolatility": "Low",
      "eventName": "FPI (MoM) (Dec)",
      "eventTimeZone": "GMT",
      "eventPrevious": "-0.40%",
      "eventCurrency": "NZD",
      "eventForecast": ""
    },
    {
      "eventDateTime": "2003-01-01T09:00:00",
      "eventActual": "14.70%",
      "eventCountry": "New Zealand",
      "eventExpectedVolatility": "Low",
      "eventName": "Government Monthly Debt (Dec)",
      "eventTimeZone": "GMT",
      "eventPrevious": "14.30%",
      "eventCurrency": "NZD",
      "eventForecast": ""
    },
    {
      "eventDateTime": "2003-01-01T09:00:00",
      "eventActual": "2.66B",
      "eventCountry": "New Zealand",
      "eventExpectedVolatility": "Low",
      "eventName": "Imports (Dec)",
      "eventTimeZone": "GMT",
      "eventPrevious": "2.94B",
      "eventCurrency": "NZD",
      "eventForecast": ""
    },
    {
      "eventDateTime": "2003-01-01T09:00:00",
      "eventActual": "24.20%",
      "eventCountry": "New Zealand",
      "eventExpectedVolatility": "Low",
      "eventName": "NBNZ Own Activity (Dec)",
      "eventTimeZone": "GMT",
      "eventPrevious": "31.20%",
      "eventCurrency": "NZD",
      "eventForecast": ""
    },
    {
      "eventDateTime": "2003-01-01T09:00:00",
      "eventActual": "3,110.00",
      "eventCountry": "New Zealand",
      "eventExpectedVolatility": "Low",
      "eventName": "Permanent/Long-Term Migration (Dec)",
      "eventTimeZone": "GMT",
      "eventPrevious": "3,750.00",
      "eventCurrency": "NZD",
      "eventForecast": ""
    },
    {
      "eventDateTime": "2003-01-01T09:00:00",
      "eventActual": "5.75%",
      "eventCountry": "New Zealand",
      "eventExpectedVolatility": "High",
      "eventName": "RBNZ Interest Rate Decision (Dec)",
      "eventTimeZone": "GMT",
      "eventPrevious": "5.75%",
      "eventCurrency": "NZD",
      "eventForecast": ""
    },
    {
      "eventDateTime": "2003-01-01T09:00:00",
      "eventActual": "42.60%",
      "eventCountry": "New Zealand",
      "eventExpectedVolatility": "Low",
      "eventName": "RBNZ Offshore Holdings (Dec)",
      "eventTimeZone": "GMT",
      "eventPrevious": "45.40%",
      "eventCurrency": "NZD",
      "eventForecast": ""
    },
    {
      "eventDateTime": "2003-01-01T09:00:00",
      "eventActual": "2.50%",
      "eventCountry": "New Zealand",
      "eventExpectedVolatility": "Low",
      "eventName": "REINZ House Price Index (MoM) (Dec)",
      "eventTimeZone": "GMT",
      "eventPrevious": "-0.30%",
      "eventCurrency": "NZD",
      "eventForecast": ""
    },
    {
      "eventDateTime": "2003-01-01T09:00:00",
      "eventActual": "12.80%",
      "eventCountry": "New Zealand",
      "eventExpectedVolatility": "Low",
      "eventName": "REINZ House Price Index (YoY) (Dec)",
      "eventTimeZone": "GMT",
      "eventPrevious": "10.50%",
      "eventCurrency": "NZD",
      "eventForecast": ""
    },
    {
      "eventDateTime": "2003-01-01T09:00:00",
      "eventActual": "-267.80M",
      "eventCountry": "New Zealand",
      "eventExpectedVolatility": "Moderate",
      "eventName": "Trade Balance (MoM) (Dec)",
      "eventTimeZone": "GMT",
      "eventPrevious": "-484.90M",
      "eventCurrency": "NZD",
      "eventForecast": ""
    },
    {
      "eventDateTime": "2003-01-01T09:00:00",
      "eventActual": "-1,300.00M",
      "eventCountry": "New Zealand",
      "eventExpectedVolatility": "Moderate",
      "eventName": "Trade Balance (YoY) (Dec)",
      "eventTimeZone": "GMT",
      "eventPrevious": "-1,020.00M",
      "eventCurrency": "NZD",
      "eventForecast": ""
    }
  ]}}
