{"events": {"event": [
    {
      "eventDateTime": "2016-06-27T08:30:00",
      "eventActual": "-0.1%",
      "eventCountry": "Hong Kong",
      "eventExpectedVolatility": "Low",
      "eventName": "Exports (MoM) (May)",
      "eventTimeZone": "GMT",
      "eventPrevious": "-2.3%",
      "eventCurrency": "HKD",
      "eventForecast": ""
    },
    {
      "eventDateTime": "2016-06-27T08:30:00",
      "eventActual": "-4.3%",
      "eventCountry": "Hong Kong",
      "eventExpectedVolatility": "Low",
      "eventName": "Imports (MoM) (May)",
      "eventTimeZone": "GMT",
      "eventPrevious": "-4.5%",
      "eventCurrency": "HKD",
      "eventForecast": ""
    },
    {
      "eventDateTime": "2016-06-27T08:30:00",
      "eventActual": "-26.2B",
      "eventCountry": "Hong Kong",
      "eventExpectedVolatility": "Low",
      "eventName": "Trade Balance",
      "eventTimeZone": "GMT",
      "eventPrevious": "-31.0B",
      "eventCurrency": "HKD",
      "eventForecast": ""
    }
  ]}}
