{"events": {"event": {
    "eventDateTime": "2009-10-20T06:00:00",
    "eventActual": "-0.5%",
    "eventCountry": "Germany",
    "eventExpectedVolatility": "Moderate",
    "eventName": "German PPI (MoM)",
    "eventTimeZone": "GMT",
    "eventPrevious": "0.5%",
    "eventCurrency": "EUR",
    "eventForecast": "0.0%"
  }}}
