{"events": {"event": {
    "eventDateTime": "2010-04-05T22:00:00",
    "eventActual": "22",
    "eventCountry": "New Zealand",
    "eventExpectedVolatility": "Moderate",
    "eventName": "NZIER Business Confidence",
    "eventTimeZone": "GMT",
    "eventPrevious": "31",
    "eventCurrency": "NZD",
    "eventForecast": ""
  }}}
