{"events": {"event": {
    "eventDateTime": "2007-07-20T10:00:00",
    "eventActual": "6.84%",
    "eventCountry": "China",
    "eventExpectedVolatility": "High",
    "eventName": "PBoC Interest Rate",
    "eventTimeZone": "GMT",
    "eventPrevious": "6.57%",
    "eventCurrency": "CNY",
    "eventForecast": ""
  }}}
