{"events": {"event": [
    {
      "eventDateTime": "2014-07-14T00:00:00",
      "eventActual": "-0.8%",
      "eventCountry": "Singapore",
      "eventExpectedVolatility": "Low",
      "eventName": "GDP (QoQ)",
      "eventTimeZone": "GMT",
      "eventPrevious": "1.6%",
      "eventCurrency": "SGD",
      "eventForecast": "2.5%"
    },
    {
      "eventDateTime": "2014-07-14T00:00:00",
      "eventActual": "2.1%",
      "eventCountry": "Singapore",
      "eventExpectedVolatility": "Low",
      "eventName": "GDP (YoY)",
      "eventTimeZone": "GMT",
      "eventPrevious": "4.7%",
      "eventCurrency": "SGD",
      "eventForecast": "3.1%"
    }
  ]}}
