{"events": {"event": [
    {
      "eventDateTime": "2012-02-03T08:50:00",
      "eventActual": "52.3",
      "eventCountry": "France",
      "eventExpectedVolatility": "Moderate",
      "eventName": "French Services PMI",
      "eventTimeZone": "GMT",
      "eventPrevious": "51.7",
      "eventCurrency": "EUR",
      "eventForecast": "51.7"
    },
    {
      "eventDateTime": "2012-02-03T08:55:00",
      "eventActual": "53.7",
      "eventCountry": "Germany",
      "eventExpectedVolatility": "Moderate",
      "eventName": "German Services PMI",
      "eventTimeZone": "GMT",
      "eventPrevious": "54.5",
      "eventCurrency": "EUR",
      "eventForecast": "54.5"
    },
    {
      "eventDateTime": "2012-02-03T09:00:00",
      "eventActual": "50.4",
      "eventCountry": "Euro Zone",
      "eventExpectedVolatility": "Moderate",
      "eventName": "Services PMI",
      "eventTimeZone": "GMT",
      "eventPrevious": "50.5",
      "eventCurrency": "EUR",
      "eventForecast": "50.5"
    },
    {
      "eventDateTime": "2012-02-03T10:00:00",
      "eventActual": "0.3%",
      "eventCountry": "Italy",
      "eventExpectedVolatility": "Moderate",
      "eventName": "Italian CPI (MoM)",
      "eventTimeZone": "GMT",
      "eventPrevious": "0.4%",
      "eventCurrency": "EUR",
      "eventForecast": "0.2%"
    },
    {
      "eventDateTime": "2012-02-03T10:00:00",
      "eventActual": "-0.4%",
      "eventCountry": "Euro Zone",
      "eventExpectedVolatility": "Moderate",
      "eventName": "Retail Sales (MoM)",
      "eventTimeZone": "GMT",
      "eventPrevious": "-0.4%",
      "eventCurrency": "EUR",
      "eventForecast": "0.4%"
    },
    {
      "eventDateTime": "2012-02-03T20:30:00",
      "eventActual": "-157.5K",
      "eventCountry": "Euro Zone",
      "eventExpectedVolatility": "Moderate",
      "eventName": "CFTC EUR speculative net positions",
      "eventTimeZone": "GMT",
      "eventPrevious": "-171.3K",
      "eventCurrency": "EUR",
      "eventForecast": ""
    }
  ]}}
