"Chain Store Sales (WoW)";"United States";"USD";"2014-05-20T11:45:00";"GMT";"-0.1%";"";"-1.3%";"Low"
"Chain Store Sales (YoY)";"United States";"USD";"2014-05-20T11:45:00";"GMT";"3.9%";"";"2.4%";"Low"
"Redbook (MoM)";"United States";"USD";"2014-05-20T12:55:00";"GMT";"1.1%";"";"1.0%";"Low"
"Redbook (YoY)";"United States";"USD";"2014-05-20T12:55:00";"GMT";"4.2%";"";"3.9%";"Low"
"4-Week Bill Auction";"United States";"USD";"2014-05-20T15:30:00";"GMT";"0.025%";"";"0.030%";"Low"
"FOMC Member Plosser Speaks";"United States";"USD";"2014-05-20T16:30:00";"GMT";" ";"";"";"Moderate"
"FOMC Member Dudley Speaks";"United States";"USD";"2014-05-20T17:00:00";"GMT";" ";"";"";"Moderate"
"API Weekly Crude Oil Stock";"United States";"USD";"2014-05-20T20:30:00";"GMT";"0.912M";"-0.300M";"-10.300M";"Moderate"
"API Weekly Distillates Stocks";"United States";"USD";"2014-05-20T20:30:00";"GMT";"0.883M";"-0.250M";"1.360M";"Low"
"API Weekly Gasoline Stock";"United States";"USD";"2014-05-20T20:30:00";"GMT";"-2.020M";"0.150M";"0.135M";"Low"
