{"events": {"event": [
    {
      "eventDateTime": "2013-03-15T12:30:00",
      "eventActual": "0.7%",
      "eventCountry": "United States",
      "eventExpectedVolatility": "Moderate",
      "eventName": "CPI (MoM)",
      "eventTimeZone": "GMT",
      "eventPrevious": "0.0%",
      "eventCurrency": "USD",
      "eventForecast": "0.5%"
    },
    {
      "eventDateTime": "2013-03-15T12:30:00",
      "eventActual": "2.0%",
      "eventCountry": "United States",
      "eventExpectedVolatility": "Low",
      "eventName": "CPI (YoY)",
      "eventTimeZone": "GMT",
      "eventPrevious": "1.6%",
      "eventCurrency": "USD",
      "eventForecast": "1.9%"
    },
    {
      "eventDateTime": "2013-03-15T12:30:00",
      "eventActual": "0.2%",
      "eventCountry": "United States",
      "eventExpectedVolatility": "High",
      "eventName": "Core CPI (MoM)",
      "eventTimeZone": "GMT",
      "eventPrevious": "0.3%",
      "eventCurrency": "USD",
      "eventForecast": "0.2%"
    },
    {
      "eventDateTime": "2013-03-15T12:30:00",
      "eventActual": "2.0%",
      "eventCountry": "United States",
      "eventExpectedVolatility": "Moderate",
      "eventName": "Core CPI (YoY)",
      "eventTimeZone": "GMT",
      "eventPrevious": "1.9%",
      "eventCurrency": "USD",
      "eventForecast": "2.0%"
    },
    {
      "eventDateTime": "2013-03-15T12:30:00",
      "eventActual": "9.24",
      "eventCountry": "United States",
      "eventExpectedVolatility": "Moderate",
      "eventName": "NY Empire State Manufacturing Index",
      "eventTimeZone": "GMT",
      "eventPrevious": "10.04",
      "eventCurrency": "USD",
      "eventForecast": "8.40"
    },
    {
      "eventDateTime": "2013-03-15T13:00:00",
      "eventActual": "110.90B",
      "eventCountry": "United States",
      "eventExpectedVolatility": "Low",
      "eventName": "Overall Net Capital Flow",
      "eventTimeZone": "GMT",
      "eventPrevious": "22.20B",
      "eventCurrency": "USD",
      "eventForecast": ""
    },
    {
      "eventDateTime": "2013-03-15T13:00:00",
      "eventActual": "25.7B",
      "eventCountry": "United States",
      "eventExpectedVolatility": "Moderate",
      "eventName": "TIC Net Long-Term Transactions",
      "eventTimeZone": "GMT",
      "eventPrevious": "64.2B",
      "eventCurrency": "USD",
      "eventForecast": "55.3B"
    },
    {
      "eventDateTime": "2013-03-15T13:00:00",
      "eventActual": "32.30B",
      "eventCountry": "United States",
      "eventExpectedVolatility": "Low",
      "eventName": "US Foreign Buying, T-bonds",
      "eventTimeZone": "GMT",
      "eventPrevious": "29.90B",
      "eventCurrency": "USD",
      "eventForecast": ""
    },
    {
      "eventDateTime": "2013-03-15T13:15:00",
      "eventActual": "79.6%",
      "eventCountry": "United States",
      "eventExpectedVolatility": "Low",
      "eventName": "Capacity Utilization Rate",
      "eventTimeZone": "GMT",
      "eventPrevious": "79.2%",
      "eventCurrency": "USD",
      "eventForecast": "79.3%"
    },
    {
      "eventDateTime": "2013-03-15T13:15:00",
      "eventActual": "0.7%",
      "eventCountry": "United States",
      "eventExpectedVolatility": "Moderate",
      "eventName": "Industrial Production (MoM)",
      "eventTimeZone": "GMT",
      "eventPrevious": "-0.1%",
      "eventCurrency": "USD",
      "eventForecast": "0.4%"
    },
    {
      "eventDateTime": "2013-03-15T13:30:00",
      "eventActual": "",
      "eventCountry": "United States",
      "eventExpectedVolatility": "Moderate",
      "eventName": "FOMC Member Fisher Speaks",
      "eventTimeZone": "GMT",
      "eventPrevious": "",
      "eventCurrency": "USD",
      "eventForecast": ""
    },
    {
      "eventDateTime": "2013-03-15T13:55:00",
      "eventActual": "71.8",
      "eventCountry": "United States",
      "eventExpectedVolatility": "Moderate",
      "eventName": "Michigan Consumer Sentiment",
      "eventTimeZone": "GMT",
      "eventPrevious": "77.6",
      "eventCurrency": "USD",
      "eventForecast": "78.0"
    },
    {
      "eventDateTime": "2013-03-15T13:55:00",
      "eventActual": "3.3%",
      "eventCountry": "United States",
      "eventExpectedVolatility": "Low",
      "eventName": "Michigan Inflation Expectations",
      "eventTimeZone": "GMT",
      "eventPrevious": "3.3%",
      "eventCurrency": "USD",
      "eventForecast": ""
    },
    {
      "eventDateTime": "2013-03-15T17:00:00",
      "eventActual": "1341",
      "eventCountry": "United States",
      "eventExpectedVolatility": "Moderate",
      "eventName": "U.S. Baker Hughes Oil Rig Count",
      "eventTimeZone": "GMT",
      "eventPrevious": "1341",
      "eventCurrency": "USD",
      "eventForecast": ""
    },
    {
      "eventDateTime": "2013-03-15T19:30:00",
      "eventActual": "114.5K",
      "eventCountry": "United States",
      "eventExpectedVolatility": "Moderate",
      "eventName": "CFTC Gold speculative net positions",
      "eventTimeZone": "GMT",
      "eventPrevious": "107.6K",
      "eventCurrency": "USD",
      "eventForecast": ""
    },
    {
      "eventDateTime": "2013-03-15T19:30:00",
      "eventActual": "18.1K",
      "eventCountry": "United States",
      "eventExpectedVolatility": "Low",
      "eventName": "CFTC Silver speculative net positions",
      "eventTimeZone": "GMT",
      "eventPrevious": "18.6K",
      "eventCurrency": "USD",
      "eventForecast": ""
    },
    {
      "eventDateTime": "2013-03-15T20:30:00",
      "eventActual": "228.2k",
      "eventCountry": "United States",
      "eventExpectedVolatility": "Moderate",
      "eventName": "CFTC Crude Oil speculative net positions",
      "eventTimeZone": "GMT",
      "eventPrevious": "235.7k",
      "eventCurrency": "USD",
      "eventForecast": ""
    }
  ]}}
