"CPI (MoM) (Jul)";"South Korea";"KRW";"2001-08-01T09:00:00";"GMT";"0.30%";"";"0.20%";"Low"
"CPI (YoY) (Jul)";"South Korea";"KRW";"2001-08-01T09:00:00";"GMT";"5.00%";"";"4.80%";"Moderate"
"Current Account (Jul)";"South Korea";"KRW";"2001-08-01T09:00:00";"GMT";"0.83B";"";"-0.06B";"Low"
"Export Price Index (YoY) (Jul)";"South Korea";"KRW";"2001-08-01T09:00:00";"GMT";"-3.20%";"";"-6.30%";"Low"
"Exports (YoY) (Jul)";"South Korea";"KRW";"2001-08-01T09:00:00";"GMT";"-15.20%";"";"-21.20%";"Low"
"FX Reserves - USD (Jul)";"South Korea";"KRW";"2001-08-01T09:00:00";"GMT";"94.26B";"";"97.06B";"Low"
"Import Price Index (YoY) (Jul)";"South Korea";"KRW";"2001-08-01T09:00:00";"GMT";"6.60%";"";"5.40%";"Low"
"Imports (YoY) (Jul)";"South Korea";"KRW";"2001-08-01T09:00:00";"GMT";"-11.10%";"";"-18.80%";"Low"
"Industrial Production (MoM) (Jul)";"South Korea";"KRW";"2001-08-01T09:00:00";"GMT";"-0.40%";"";"-1.30%";"Low"
"Industrial Production (YoY) (Jul)";"South Korea";"KRW";"2001-08-01T09:00:00";"GMT";"1.00%";"";"-4.10%";"Low"
"Interest Rate Decision (Jul)";"South Korea";"KRW";"2001-08-01T09:00:00";"GMT";"5.00%";"";"4.75%";"Low"
"M2 Money supply (Jul)";"South Korea";"KRW";"2001-08-01T09:00:00";"GMT";"10.90%";"";"11.00%";"Low"
"PPI (MoM) (Jul)";"South Korea";"KRW";"2001-08-01T09:00:00";"GMT";"-0.40%";"";"-0.10%";"Low"
"PPI (YoY) (Jul)";"South Korea";"KRW";"2001-08-01T09:00:00";"GMT";"0.20%";"";"0.00%";"Low"
"Service Sector Output (MoM) (Jul)";"South Korea";"KRW";"2001-08-01T09:00:00";"GMT";"-0.40%";"";"-1.00%";"Low"
"Trade Balance (Jul)";"South Korea";"KRW";"2001-08-01T09:00:00";"GMT";"1.21B";"";"0.00B";"Low"
"Unemployment Rate (Jul)";"South Korea";"KRW";"2001-08-01T09:00:00";"GMT";"3.80%";"";"3.80%";"Low"
