{"events": {"event": [
    {
      "eventDateTime": "2015-10-13T08:30:00",
      "eventActual": "",
      "eventCountry": "United Kingdom",
      "eventExpectedVolatility": "Moderate",
      "eventName": "BOE Credit Conditions Survey",
      "eventTimeZone": "GMT",
      "eventPrevious": "",
      "eventCurrency": "GBP",
      "eventForecast": ""
    },
    {
      "eventDateTime": "2015-10-13T08:30:00",
      "eventActual": "-0.1%",
      "eventCountry": "United Kingdom",
      "eventExpectedVolatility": "Moderate",
      "eventName": "CPI (MoM) (Sep)",
      "eventTimeZone": "GMT",
      "eventPrevious": "0.2%",
      "eventCurrency": "GBP",
      "eventForecast": "0.0%"
    },
    {
      "eventDateTime": "2015-10-13T08:30:00",
      "eventActual": "-0.1%",
      "eventCountry": "United Kingdom",
      "eventExpectedVolatility": "High",
      "eventName": "CPI (YoY) (Sep)",
      "eventTimeZone": "GMT",
      "eventPrevious": "0.0%",
      "eventCurrency": "GBP",
      "eventForecast": "0.0%"
    },
    {
      "eventDateTime": "2015-10-13T08:30:00",
      "eventActual": "1.0%",
      "eventCountry": "United Kingdom",
      "eventExpectedVolatility": "Low",
      "eventName": "Core CPI (YoY)",
      "eventTimeZone": "GMT",
      "eventPrevious": "1.0%",
      "eventCurrency": "GBP",
      "eventForecast": "1.1%"
    },
    {
      "eventDateTime": "2015-10-13T08:30:00",
      "eventActual": "0.1%",
      "eventCountry": "United Kingdom",
      "eventExpectedVolatility": "Low",
      "eventName": "Core PPI Output (MoM) (Sep)",
      "eventTimeZone": "GMT",
      "eventPrevious": "-0.1%",
      "eventCurrency": "GBP",
      "eventForecast": "0.0%"
    },
    {
      "eventDateTime": "2015-10-13T08:30:00",
      "eventActual": "0.2%",
      "eventCountry": "United Kingdom",
      "eventExpectedVolatility": "Low",
      "eventName": "Core PPI Output (YoY) (Sep)",
      "eventTimeZone": "GMT",
      "eventPrevious": "0.1%",
      "eventCurrency": "GBP",
      "eventForecast": "0.2%"
    },
    {
      "eventDateTime": "2015-10-13T08:30:00",
      "eventActual": "-0.1%",
      "eventCountry": "United Kingdom",
      "eventExpectedVolatility": "Low",
      "eventName": "Core RPI (MoM) (Sep)",
      "eventTimeZone": "GMT",
      "eventPrevious": "0.5%",
      "eventCurrency": "GBP",
      "eventForecast": "0.1%"
    },
    {
      "eventDateTime": "2015-10-13T08:30:00",
      "eventActual": "0.9%",
      "eventCountry": "United Kingdom",
      "eventExpectedVolatility": "Low",
      "eventName": "Core RPI (YoY) (Sep)",
      "eventTimeZone": "GMT",
      "eventPrevious": "1.2%",
      "eventCurrency": "GBP",
      "eventForecast": "1.1%"
    },
    {
      "eventDateTime": "2015-10-13T08:30:00",
      "eventActual": "5.2%",
      "eventCountry": "United Kingdom",
      "eventExpectedVolatility": "Low",
      "eventName": "House Price Index (YoY)",
      "eventTimeZone": "GMT",
      "eventPrevious": "5.2%",
      "eventCurrency": "GBP",
      "eventForecast": "5.5%"
    },
    {
      "eventDateTime": "2015-10-13T08:30:00",
      "eventActual": "0.6%",
      "eventCountry": "United Kingdom",
      "eventExpectedVolatility": "Moderate",
      "eventName": "PPI Input (MoM) (Sep)",
      "eventTimeZone": "GMT",
      "eventPrevious": "-3.0%",
      "eventCurrency": "GBP",
      "eventForecast": "0.4%"
    },
    {
      "eventDateTime": "2015-10-13T08:30:00",
      "eventActual": "-13.3%",
      "eventCountry": "United Kingdom",
      "eventExpectedVolatility": "Low",
      "eventName": "PPI Input (YoY) (Sep)",
      "eventTimeZone": "GMT",
      "eventPrevious": "-14.6%",
      "eventCurrency": "GBP",
      "eventForecast": "-12.9%"
    },
    {
      "eventDateTime": "2015-10-13T08:30:00",
      "eventActual": "-0.1%",
      "eventCountry": "United Kingdom",
      "eventExpectedVolatility": "Low",
      "eventName": "PPI Output (MoM) (Sep)",
      "eventTimeZone": "GMT",
      "eventPrevious": "-0.5%",
      "eventCurrency": "GBP",
      "eventForecast": "-0.1%"
    },
    {
      "eventDateTime": "2015-10-13T08:30:00",
      "eventActual": "-1.8%",
      "eventCountry": "United Kingdom",
      "eventExpectedVolatility": "Low",
      "eventName": "PPI Output (YoY) (Sep)",
      "eventTimeZone": "GMT",
      "eventPrevious": "-1.9%",
      "eventCurrency": "GBP",
      "eventForecast": "-1.8%"
    },
    {
      "eventDateTime": "2015-10-13T08:30:00",
      "eventActual": "-0.1%",
      "eventCountry": "United Kingdom",
      "eventExpectedVolatility": "Low",
      "eventName": "RPI (MoM) (Sep)",
      "eventTimeZone": "GMT",
      "eventPrevious": "0.5%",
      "eventCurrency": "GBP",
      "eventForecast": "0.1%"
    },
    {
      "eventDateTime": "2015-10-13T08:30:00",
      "eventActual": "0.8%",
      "eventCountry": "United Kingdom",
      "eventExpectedVolatility": "Low",
      "eventName": "RPI (YoY) (Sep)",
      "eventTimeZone": "GMT",
      "eventPrevious": "1.1%",
      "eventCurrency": "GBP",
      "eventForecast": "1.0%"
    },
    {
      "eventDateTime": "2015-10-13T10:00:00",
      "eventActual": "",
      "eventCountry": "United Kingdom",
      "eventExpectedVolatility": "Moderate",
      "eventName": "BoE MPC Member McCafferty Speaks",
      "eventTimeZone": "GMT",
      "eventPrevious": "",
      "eventCurrency": "GBP",
      "eventForecast": ""
    }
  ]}}
