{"events": {"event": {
    "eventDateTime": "2010-01-25T23:50:00",
    "eventActual": "-1.5%",
    "eventCountry": "Japan",
    "eventExpectedVolatility": "Low",
    "eventName": "Corporate Services Price Index (CSPI) (YoY)",
    "eventTimeZone": "GMT",
    "eventPrevious": "-2.2%",
    "eventCurrency": "JPY",
    "eventForecast": "-1.4%"
  }}}
