{"events": {"event": {
    "eventDateTime": "2019-12-04T23:00:00",
    "eventActual": "7.83B",
    "eventCountry": "South Korea",
    "eventExpectedVolatility": "Low",
    "eventName": "Current Account (Oct)",
    "eventTimeZone": "GMT",
    "eventPrevious": "7.48B",
    "eventCurrency": "KRW",
    "eventForecast": "7.47B"
  }}}
