{"events": {"event": [
    {
      "eventDateTime": "2006-11-01T09:00:00",
      "eventActual": "3.90%",
      "eventCountry": "United Kingdom",
      "eventExpectedVolatility": "High",
      "eventName": "Average Earnings Index +Bonus (Oct)",
      "eventTimeZone": "GMT",
      "eventPrevious": "4.00%",
      "eventCurrency": "GBP",
      "eventForecast": ""
    },
    {
      "eventDateTime": "2006-11-01T09:00:00",
      "eventActual": "3.70%",
      "eventCountry": "United Kingdom",
      "eventExpectedVolatility": "Low",
      "eventName": "Average Earnings ex Bonus (Oct)",
      "eventTimeZone": "GMT",
      "eventPrevious": "3.50%",
      "eventCurrency": "GBP",
      "eventForecast": ""
    },
    {
      "eventDateTime": "2006-11-01T09:00:00",
      "eventActual": "2.60%",
      "eventCountry": "United Kingdom",
      "eventExpectedVolatility": "Moderate",
      "eventName": "BRC Retail Sales Monitor (YoY) (Oct)",
      "eventTimeZone": "GMT",
      "eventPrevious": "2.40%",
      "eventCurrency": "GBP",
      "eventForecast": ""
    },
    {
      "eventDateTime": "2006-11-01T09:00:00",
      "eventActual": "0.79B",
      "eventCountry": "United Kingdom",
      "eventExpectedVolatility": "Low",
      "eventName": "BoE Consumer Credit (Oct)",
      "eventTimeZone": "GMT",
      "eventPrevious": "0.77B",
      "eventCurrency": "GBP",
      "eventForecast": ""
    },
    {
      "eventDateTime": "2006-11-01T09:00:00",
      "eventActual": "4.75%",
      "eventCountry": "United Kingdom",
      "eventExpectedVolatility": "High",
      "eventName": "BoE Interest Rate Decision (Oct)",
      "eventTimeZone": "GMT",
      "eventPrevious": "4.75%",
      "eventCurrency": "GBP",
      "eventForecast": ""
    },
    {
      "eventDateTime": "2006-11-01T09:00:00",
      "eventActual": "-4.00",
      "eventCountry": "United Kingdom",
      "eventExpectedVolatility": "Low",
      "eventName": "CBI Distributive Trades Survey (Oct)",
      "eventTimeZone": "GMT",
      "eventPrevious": "14.00",
      "eventCurrency": "GBP",
      "eventForecast": ""
    },
    {
      "eventDateTime": "2006-11-01T09:00:00",
      "eventActual": "-20.00",
      "eventCountry": "United Kingdom",
      "eventExpectedVolatility": "Moderate",
      "eventName": "CBI Industrial Trends Orders (Oct)",
      "eventTimeZone": "GMT",
      "eventPrevious": "-5.00",
      "eventCurrency": "GBP",
      "eventForecast": ""
    },
    {
      "eventDateTime": "2006-11-01T09:00:00",
      "eventActual": "0.20%",
      "eventCountry": "United Kingdom",
      "eventExpectedVolatility": "Moderate",
      "eventName": "CPI (MoM) (Oct)",
      "eventTimeZone": "GMT",
      "eventPrevious": "0.10%",
      "eventCurrency": "GBP",
      "eventForecast": ""
    },
    {
      "eventDateTime": "2006-11-01T09:00:00",
      "eventActual": "2.40%",
      "eventCountry": "United Kingdom",
      "eventExpectedVolatility": "High",
      "eventName": "CPI (YoY) (Oct)",
      "eventTimeZone": "GMT",
      "eventPrevious": "2.40%",
      "eventCurrency": "GBP",
      "eventForecast": ""
    },
    {
      "eventDateTime": "2006-11-01T09:00:00",
      "eventActual": "0.60K",
      "eventCountry": "United Kingdom",
      "eventExpectedVolatility": "High",
      "eventName": "Claimant Count Change (Oct)",
      "eventTimeZone": "GMT",
      "eventPrevious": "6.50K",
      "eventCurrency": "GBP",
      "eventForecast": ""
    },
    {
      "eventDateTime": "2006-11-01T09:00:00",
      "eventActual": "0.10%",
      "eventCountry": "United Kingdom",
      "eventExpectedVolatility": "Low",
      "eventName": "Core PPI Output (MoM) (Oct)",
      "eventTimeZone": "GMT",
      "eventPrevious": "0.10%",
      "eventCurrency": "GBP",
      "eventForecast": ""
    },
    {
      "eventDateTime": "2006-11-01T09:00:00",
      "eventActual": "1.60%",
      "eventCountry": "United Kingdom",
      "eventExpectedVolatility": "Low",
      "eventName": "Core PPI Output (YoY) (Oct)",
      "eventTimeZone": "GMT",
      "eventPrevious": "1.80%",
      "eventCurrency": "GBP",
      "eventForecast": ""
    },
    {
      "eventDateTime": "2006-11-01T09:00:00",
      "eventActual": "0.10%",
      "eventCountry": "United Kingdom",
      "eventExpectedVolatility": "Low",
      "eventName": "Core RPI (MoM) (Oct)",
      "eventTimeZone": "GMT",
      "eventPrevious": "0.20%",
      "eventCurrency": "GBP",
      "eventForecast": ""
    },
    {
      "eventDateTime": "2006-11-01T09:00:00",
      "eventActual": "3.20%",
      "eventCountry": "United Kingdom",
      "eventExpectedVolatility": "Low",
      "eventName": "Core RPI (YoY) (Oct)",
      "eventTimeZone": "GMT",
      "eventPrevious": "3.20%",
      "eventCurrency": "GBP",
      "eventForecast": ""
    },
    {
      "eventDateTime": "2006-11-01T09:00:00",
      "eventActual": "0.80%",
      "eventCountry": "United Kingdom",
      "eventExpectedVolatility": "Moderate",
      "eventName": "Core Retail Sales (MoM) (Oct)",
      "eventTimeZone": "GMT",
      "eventPrevious": "-0.70%",
      "eventCurrency": "GBP",
      "eventForecast": ""
    },
    {
      "eventDateTime": "2006-11-01T09:00:00",
      "eventActual": "2.30%",
      "eventCountry": "United Kingdom",
      "eventExpectedVolatility": "Moderate",
      "eventName": "Core Retail Sales (YoY) (Oct)",
      "eventTimeZone": "GMT",
      "eventPrevious": "1.90%",
      "eventCurrency": "GBP",
      "eventForecast": ""
    },
    {
      "eventDateTime": "2006-11-01T09:00:00",
      "eventActual": "-5.00",
      "eventCountry": "United Kingdom",
      "eventExpectedVolatility": "Low",
      "eventName": "GfK Consumer Confidence (Oct)",
      "eventTimeZone": "GMT",
      "eventPrevious": "-7.00",
      "eventCurrency": "GBP",
      "eventForecast": ""
    },
    {
      "eventDateTime": "2006-11-01T09:00:00",
      "eventActual": "1.60%",
      "eventCountry": "United Kingdom",
      "eventExpectedVolatility": "Moderate",
      "eventName": "Halifax House Price Index (MoM) (Oct)",
      "eventTimeZone": "GMT",
      "eventPrevious": "1.10%",
      "eventCurrency": "GBP",
      "eventForecast": ""
    },
    {
      "eventDateTime": "2006-11-01T09:00:00",
      "eventActual": "8.60%",
      "eventCountry": "United Kingdom",
      "eventExpectedVolatility": "Moderate",
      "eventName": "Halifax House Price Index (YoY) (Oct)",
      "eventTimeZone": "GMT",
      "eventPrevious": "8.00%",
      "eventCurrency": "GBP",
      "eventForecast": ""
    },
    {
      "eventDateTime": "2006-11-01T09:00:00",
      "eventActual": "-0.50%",
      "eventCountry": "United Kingdom",
      "eventExpectedVolatility": "Moderate",
      "eventName": "Industrial Production (MoM) (Oct)",
      "eventTimeZone": "GMT",
      "eventPrevious": "0.40%",
      "eventCurrency": "GBP",
      "eventForecast": ""
    },
    {
      "eventDateTime": "2006-11-01T09:00:00",
      "eventActual": "1.90%",
      "eventCountry": "United Kingdom",
      "eventExpectedVolatility": "Low",
      "eventName": "Industrial Production (YoY) (Oct)",
      "eventTimeZone": "GMT",
      "eventPrevious": "2.30%",
      "eventCurrency": "GBP",
      "eventForecast": ""
    },
    {
      "eventDateTime": "2006-11-01T09:00:00",
      "eventActual": "0.80%",
      "eventCountry": "United Kingdom",
      "eventExpectedVolatility": "Low",
      "eventName": "M4 Money Supply (MoM) (Oct)",
      "eventTimeZone": "GMT",
      "eventPrevious": "1.80%",
      "eventCurrency": "GBP",
      "eventForecast": ""
    },
    {
      "eventDateTime": "2006-11-01T09:00:00",
      "eventActual": "0.00%",
      "eventCountry": "United Kingdom",
      "eventExpectedVolatility": "High",
      "eventName": "Manufacturing Production (MoM) (Oct)",
      "eventTimeZone": "GMT",
      "eventPrevious": "0.10%",
      "eventCurrency": "GBP",
      "eventForecast": ""
    },
    {
      "eventDateTime": "2006-11-01T09:00:00",
      "eventActual": "3.80%",
      "eventCountry": "United Kingdom",
      "eventExpectedVolatility": "Low",
      "eventName": "Manufacturing Production (YoY) (Oct)",
      "eventTimeZone": "GMT",
      "eventPrevious": "3.90%",
      "eventCurrency": "GBP",
      "eventForecast": ""
    },
    {
      "eventDateTime": "2006-11-01T09:00:00",
      "eventActual": "127.21K",
      "eventCountry": "United Kingdom",
      "eventExpectedVolatility": "Low",
      "eventName": "Mortgage Approvals (Oct)",
      "eventTimeZone": "GMT",
      "eventPrevious": "123.44K",
      "eventCurrency": "GBP",
      "eventForecast": ""
    },
    {
      "eventDateTime": "2006-11-01T09:00:00",
      "eventActual": "10.31B",
      "eventCountry": "United Kingdom",
      "eventExpectedVolatility": "Low",
      "eventName": "Mortgage Lending (Oct)",
      "eventTimeZone": "GMT",
      "eventPrevious": "8.69B",
      "eventCurrency": "GBP",
      "eventForecast": ""
    },
    {
      "eventDateTime": "2006-11-01T09:00:00",
      "eventActual": "0.60%",
      "eventCountry": "United Kingdom",
      "eventExpectedVolatility": "Moderate",
      "eventName": "Nationwide HPI (MoM) (Oct)",
      "eventTimeZone": "GMT",
      "eventPrevious": "1.20%",
      "eventCurrency": "GBP",
      "eventForecast": ""
    },
    {
      "eventDateTime": "2006-11-01T09:00:00",
      "eventActual": "8.00%",
      "eventCountry": "United Kingdom",
      "eventExpectedVolatility": "Moderate",
      "eventName": "Nationwide HPI (YoY) (Oct)",
      "eventTimeZone": "GMT",
      "eventPrevious": "8.20%",
      "eventCurrency": "GBP",
      "eventForecast": ""
    },
    {
      "eventDateTime": "2006-11-01T09:00:00",
      "eventActual": "-0.70%",
      "eventCountry": "United Kingdom",
      "eventExpectedVolatility": "Moderate",
      "eventName": "PPI Input (MoM) (Oct)",
      "eventTimeZone": "GMT",
      "eventPrevious": "-3.50%",
      "eventCurrency": "GBP",
      "eventForecast": ""
    },
    {
      "eventDateTime": "2006-11-01T09:00:00",
      "eventActual": "3.80%",
      "eventCountry": "United Kingdom",
      "eventExpectedVolatility": "Low",
      "eventName": "PPI Input (YoY) (Oct)",
      "eventTimeZone": "GMT",
      "eventPrevious": "5.40%",
      "eventCurrency": "GBP",
      "eventForecast": ""
    },
    {
      "eventDateTime": "2006-11-01T09:00:00",
      "eventActual": "-0.30%",
      "eventCountry": "United Kingdom",
      "eventExpectedVolatility": "Low",
      "eventName": "PPI Output (MoM) (Oct)",
      "eventTimeZone": "GMT",
      "eventPrevious": "-0.30%",
      "eventCurrency": "GBP",
      "eventForecast": ""
    },
    {
      "eventDateTime": "2006-11-01T09:00:00",
      "eventActual": "1.00%",
      "eventCountry": "United Kingdom",
      "eventExpectedVolatility": "Low",
      "eventName": "PPI Output (YoY) (Oct)",
      "eventTimeZone": "GMT",
      "eventPrevious": "1.50%",
      "eventCurrency": "GBP",
      "eventForecast": ""
    },
    {
      "eventDateTime": "2006-11-01T09:00:00",
      "eventActual": "-3.00B",
      "eventCountry": "United Kingdom",
      "eventExpectedVolatility": "Low",
      "eventName": "Public Sector Net Borrowing (Oct)",
      "eventTimeZone": "GMT",
      "eventPrevious": "6.56B",
      "eventCurrency": "GBP",
      "eventForecast": ""
    },
    {
      "eventDateTime": "2006-11-01T09:00:00",
      "eventActual": "-8.52B",
      "eventCountry": "United Kingdom",
      "eventExpectedVolatility": "Low",
      "eventName": "Public Sector Net Cash Requirement (Oct)",
      "eventTimeZone": "GMT",
      "eventPrevious": "12.37B",
      "eventCurrency": "GBP",
      "eventForecast": ""
    },
    {
      "eventDateTime": "2006-11-01T09:00:00",
      "eventActual": "40.00%",
      "eventCountry": "United Kingdom",
      "eventExpectedVolatility": "Moderate",
      "eventName": "RICS House Price Balance (Oct)",
      "eventTimeZone": "GMT",
      "eventPrevious": "41.00%",
      "eventCurrency": "GBP",
      "eventForecast": ""
    },
    {
      "eventDateTime": "2006-11-01T09:00:00",
      "eventActual": "0.10%",
      "eventCountry": "United Kingdom",
      "eventExpectedVolatility": "Low",
      "eventName": "RPI (MoM) (Oct)",
      "eventTimeZone": "GMT",
      "eventPrevious": "0.50%",
      "eventCurrency": "GBP",
      "eventForecast": ""
    },
    {
      "eventDateTime": "2006-11-01T09:00:00",
      "eventActual": "3.70%",
      "eventCountry": "United Kingdom",
      "eventExpectedVolatility": "Low",
      "eventName": "RPI (YoY) (Oct)",
      "eventTimeZone": "GMT",
      "eventPrevious": "3.60%",
      "eventCurrency": "GBP",
      "eventForecast": ""
    },
    {
      "eventDateTime": "2006-11-01T09:00:00",
      "eventActual": "0.80%",
      "eventCountry": "United Kingdom",
      "eventExpectedVolatility": "High",
      "eventName": "Retail Sales (MoM) (Oct)",
      "eventTimeZone": "GMT",
      "eventPrevious": "-0.40%",
      "eventCurrency": "GBP",
      "eventForecast": ""
    },
    {
      "eventDateTime": "2006-11-01T09:00:00",
      "eventActual": "3.70%",
      "eventCountry": "United Kingdom",
      "eventExpectedVolatility": "Moderate",
      "eventName": "Retail Sales (YoY) (Oct)",
      "eventTimeZone": "GMT",
      "eventPrevious": "3.20%",
      "eventCurrency": "GBP",
      "eventForecast": ""
    },
    {
      "eventDateTime": "2006-11-01T09:00:00",
      "eventActual": "-6.99B",
      "eventCountry": "United Kingdom",
      "eventExpectedVolatility": "Moderate",
      "eventName": "Trade Balance (Oct)",
      "eventTimeZone": "GMT",
      "eventPrevious": "-6.52B",
      "eventCurrency": "GBP",
      "eventForecast": ""
    },
    {
      "eventDateTime": "2006-11-01T09:00:00",
      "eventActual": "-4.22B",
      "eventCountry": "United Kingdom",
      "eventExpectedVolatility": "Moderate",
      "eventName": "Trade Balance Non-EU (Oct)",
      "eventTimeZone": "GMT",
      "eventPrevious": "-3.71B",
      "eventCurrency": "GBP",
      "eventForecast": ""
    },
    {
      "eventDateTime": "2006-11-01T09:00:00",
      "eventActual": "5.50%",
      "eventCountry": "United Kingdom",
      "eventExpectedVolatility": "Moderate",
      "eventName": "Unemployment Rate (Oct)",
      "eventTimeZone": "GMT",
      "eventPrevious": "5.50%",
      "eventCurrency": "GBP",
      "eventForecast": ""
    }
  ]}}
