{"events": {"event": [
    {
      "eventDateTime": "2010-03-08T09:30:00",
      "eventActual": "-7.5",
      "eventCountry": "Euro Zone",
      "eventExpectedVolatility": "Low",
      "eventName": "Sentix Investor Confidence",
      "eventTimeZone": "GMT",
      "eventPrevious": "-8.2",
      "eventCurrency": "EUR",
      "eventForecast": "-7.6"
    },
    {
      "eventDateTime": "2010-03-08T11:00:00",
      "eventActual": "0.6%",
      "eventCountry": "Germany",
      "eventExpectedVolatility": "Moderate",
      "eventName": "German Industrial Production (MoM)",
      "eventTimeZone": "GMT",
      "eventPrevious": "-1.0%",
      "eventCurrency": "EUR",
      "eventForecast": "1.0%"
    }
  ]}}
