"BCB Focus Market Readout";"Brazil";"BRL";"2019-06-24T11:30:00";"GMT";" ";"";"";"Moderate"
"Current Account (USD) (May)";"Brazil";"BRL";"2019-06-24T13:30:00";"GMT";"-0.06B";"";"0.66B";"Low"
"Foreign direct investment (USD) (May)";"Brazil";"BRL";"2019-06-24T13:30:00";"GMT";"6.96B";"";"7.10B";"Low"
"Federal Tax Revenue (May)";"Brazil";"BRL";"2019-06-24T17:00:00";"GMT";"139.03B";"114.25B";"113.28B";"Low"
