{"events": {"event": {
    "eventDateTime": "2013-01-10T11:00:00",
    "eventActual": "5.84%",
    "eventCountry": "Brazil",
    "eventExpectedVolatility": "Moderate",
    "eventName": "CPI (YoY)",
    "eventTimeZone": "GMT",
    "eventPrevious": "5.53%",
    "eventCurrency": "BRL",
    "eventForecast": "5.79%"
  }}}
