{"events": {"event": {
    "eventDateTime": "2017-11-16T08:30:00",
    "eventActual": "3.0%",
    "eventCountry": "Hong Kong",
    "eventExpectedVolatility": "Low",
    "eventName": "Unemployment Rate (Oct)",
    "eventTimeZone": "GMT",
    "eventPrevious": "3.1%",
    "eventCurrency": "HKD",
    "eventForecast": ""
  }}}
