{"events": {"event": [
    {
      "eventDateTime": "2008-12-24T23:50:00",
      "eventActual": "-1.9%",
      "eventCountry": "Japan",
      "eventExpectedVolatility": "Low",
      "eventName": "Corporate Services Price Index (CSPI) (YoY)",
      "eventTimeZone": "GMT",
      "eventPrevious": "-1.4%",
      "eventCurrency": "JPY",
      "eventForecast": "-1.9%"
    },
    {
      "eventDateTime": "2008-12-24T23:50:00",
      "eventActual": "",
      "eventCountry": "Japan",
      "eventExpectedVolatility": "Moderate",
      "eventName": "Monetary Policy Meeting Minutes",
      "eventTimeZone": "GMT",
      "eventPrevious": "",
      "eventCurrency": "JPY",
      "eventForecast": ""
    }
  ]}}
