{"events": {"event": {
    "eventDateTime": "2015-06-17T15:30:00",
    "eventActual": "-0.65B",
    "eventCountry": "Brazil",
    "eventExpectedVolatility": "Low",
    "eventName": "Foreign Exchange Flows",
    "eventTimeZone": "GMT",
    "eventPrevious": "0.38B",
    "eventCurrency": "BRL",
    "eventForecast": ""
  }}}
