{"events": {"event": [
    {
      "eventDateTime": "2016-07-24T23:50:00",
      "eventActual": "0.33T",
      "eventCountry": "Japan",
      "eventExpectedVolatility": "Moderate",
      "eventName": "Adjusted Trade Balance",
      "eventTimeZone": "GMT",
      "eventPrevious": "0.29T",
      "eventCurrency": "JPY",
      "eventForecast": "0.24T"
    },
    {
      "eventDateTime": "2016-07-24T23:50:00",
      "eventActual": "-7.4%",
      "eventCountry": "Japan",
      "eventExpectedVolatility": "Moderate",
      "eventName": "Exports (YoY) (Jun)",
      "eventTimeZone": "GMT",
      "eventPrevious": "-11.3%",
      "eventCurrency": "JPY",
      "eventForecast": "-11.6%"
    },
    {
      "eventDateTime": "2016-07-24T23:50:00",
      "eventActual": "-18.8%",
      "eventCountry": "Japan",
      "eventExpectedVolatility": "Low",
      "eventName": "Imports (YoY) (Jun)",
      "eventTimeZone": "GMT",
      "eventPrevious": "-13.8%",
      "eventCurrency": "JPY",
      "eventForecast": "-19.7%"
    },
    {
      "eventDateTime": "2016-07-24T23:50:00",
      "eventActual": "693B",
      "eventCountry": "Japan",
      "eventExpectedVolatility": "Moderate",
      "eventName": "Trade Balance (Jun)",
      "eventTimeZone": "GMT",
      "eventPrevious": "-41B",
      "eventCurrency": "JPY",
      "eventForecast": "495B"
    }
  ]}}
