"Infrastructure Output (YoY) (Sep)";"India";"INR";"2015-10-30T08:02:00";"GMT";"2.6%";"";"0.0%";"Low"
"Federal Fiscal Deficit (Sep)";"India";"INR";"2015-10-30T10:30:00";"GMT";"3,692.95B";"";"3,785.63B";"Low"
"Bank Loan Growth (2wk)";"India";"INR";"2015-10-30T11:30:00";"GMT";"9.5%";"";"9.5%";"Low"
"Deposit Growth (2wk)";"India";"INR";"2015-10-30T11:30:00";"GMT";"11.3%";"";"11.2%";"Low"
"FX Reserves, USD";"India";"INR";"2015-10-30T11:30:00";"GMT";"353.53B";"";"351.55B";"Low"
