{"events": {"event": [
    {
      "eventDateTime": "2017-12-20T12:30:00",
      "eventActual": "-2.39B",
      "eventCountry": "Brazil",
      "eventExpectedVolatility": "Low",
      "eventName": "Current Account (USD) (Nov)",
      "eventTimeZone": "GMT",
      "eventPrevious": "-0.34B",
      "eventCurrency": "BRL",
      "eventForecast": "-1.80B"
    },
    {
      "eventDateTime": "2017-12-20T12:30:00",
      "eventActual": "5.02B",
      "eventCountry": "Brazil",
      "eventExpectedVolatility": "Low",
      "eventName": "Foreign direct investment (USD) (Nov)",
      "eventTimeZone": "GMT",
      "eventPrevious": "8.20B",
      "eventCurrency": "BRL",
      "eventForecast": "4.30B"
    },
    {
      "eventDateTime": "2017-12-20T14:30:00",
      "eventActual": "-2.76B",
      "eventCountry": "Brazil",
      "eventExpectedVolatility": "Low",
      "eventName": "Foreign Exchange Flows",
      "eventTimeZone": "GMT",
      "eventPrevious": "-0.13B",
      "eventCurrency": "BRL",
      "eventForecast": ""
    }
  ]}}
