{"events": {"event": {
    "eventDateTime": "2009-05-13T05:00:00",
    "eventActual": "34.2",
    "eventCountry": "Japan",
    "eventExpectedVolatility": "Low",
    "eventName": "Economy Watchers Current Index",
    "eventTimeZone": "GMT",
    "eventPrevious": "28.4",
    "eventCurrency": "JPY",
    "eventForecast": "30.1"
  }}}
