{"events": {"event": {
    "eventDateTime": "2016-05-25T13:00:00",
    "eventActual": "-4",
    "eventCountry": "Russia",
    "eventExpectedVolatility": "Low",
    "eventName": "Business Confidence",
    "eventTimeZone": "GMT",
    "eventPrevious": "-4",
    "eventCurrency": "RUB",
    "eventForecast": ""
  }}}
