{"events": {"event": {
    "eventDateTime": "2012-06-05T13:30:00",
    "eventActual": "50.40",
    "eventCountry": "Singapore",
    "eventExpectedVolatility": "Low",
    "eventName": "Manufacturing PMI",
    "eventTimeZone": "GMT",
    "eventPrevious": "49.70",
    "eventCurrency": "SGD",
    "eventForecast": "49.00"
  }}}
