{"events": {"event": [
    {
      "eventDateTime": "2016-01-29T02:00:00",
      "eventActual": "599.8B",
      "eventCountry": "Singapore",
      "eventExpectedVolatility": "Low",
      "eventName": "Bank Lending (Dec)",
      "eventTimeZone": "GMT",
      "eventPrevious": "603.9B",
      "eventCurrency": "SGD",
      "eventForecast": ""
    },
    {
      "eventDateTime": "2016-01-29T05:00:00",
      "eventActual": "-22.00",
      "eventCountry": "Singapore",
      "eventExpectedVolatility": "Low",
      "eventName": "Business Expectations (Q1)",
      "eventTimeZone": "GMT",
      "eventPrevious": "-16.00",
      "eventCurrency": "SGD",
      "eventForecast": ""
    }
  ]}}
