{"events": {"event": [
    {
      "eventDateTime": "2009-08-27T06:00:00",
      "eventActual": "1.6%",
      "eventCountry": "United Kingdom",
      "eventExpectedVolatility": "Moderate",
      "eventName": "Nationwide HPI (MoM)",
      "eventTimeZone": "GMT",
      "eventPrevious": "1.4%",
      "eventCurrency": "GBP",
      "eventForecast": "0.6%"
    },
    {
      "eventDateTime": "2009-08-27T08:30:00",
      "eventActual": "-10.4%",
      "eventCountry": "United Kingdom",
      "eventExpectedVolatility": "Moderate",
      "eventName": "Business Investment (QoQ)",
      "eventTimeZone": "GMT",
      "eventPrevious": "-7.6%",
      "eventCurrency": "GBP",
      "eventForecast": "-3.6%"
    },
    {
      "eventDateTime": "2009-08-27T10:00:00",
      "eventActual": "-16",
      "eventCountry": "United Kingdom",
      "eventExpectedVolatility": "Low",
      "eventName": "CBI Distributive Trades Survey",
      "eventTimeZone": "GMT",
      "eventPrevious": "-15",
      "eventCurrency": "GBP",
      "eventForecast": "-11"
    },
    {
      "eventDateTime": "2009-08-27T23:01:00",
      "eventActual": "-25",
      "eventCountry": "United Kingdom",
      "eventExpectedVolatility": "Low",
      "eventName": "GfK Consumer Confidence",
      "eventTimeZone": "GMT",
      "eventPrevious": "-25",
      "eventCurrency": "GBP",
      "eventForecast": "-24"
    }
  ]}}
