{"events": {"event": [
    {
      "eventDateTime": "2017-02-23T11:00:00",
      "eventActual": "0.08%",
      "eventCountry": "Brazil",
      "eventExpectedVolatility": "Low",
      "eventName": "IGP-M Inflation Index (MoM) (Feb)",
      "eventTimeZone": "GMT",
      "eventPrevious": "0.64%",
      "eventCurrency": "BRL",
      "eventForecast": "0.01%"
    },
    {
      "eventDateTime": "2017-02-23T13:30:00",
      "eventActual": "-1.0%",
      "eventCountry": "Brazil",
      "eventExpectedVolatility": "Low",
      "eventName": "Bank lending (MoM) (Jan)",
      "eventTimeZone": "GMT",
      "eventPrevious": "0.1%",
      "eventCurrency": "BRL",
      "eventForecast": ""
    }
  ]}}
