{"events": {"event": {
    "eventDateTime": "2011-04-13T07:15:00",
    "eventActual": "0.4%",
    "eventCountry": "Switzerland",
    "eventExpectedVolatility": "Moderate",
    "eventName": "PPI (MoM)",
    "eventTimeZone": "GMT",
    "eventPrevious": "0.2%",
    "eventCurrency": "CHF",
    "eventForecast": "0.4%"
  }}}
