"GDP (MoM)";"Canada";"CAD";"2009-09-30T12:30:00";"GMT";"0.1%";"0.4%";"0.0%";"High"
"IPPI (MoM)";"Canada";"CAD";"2009-09-30T12:30:00";"GMT";"-0.6%";"0.5%";"0.5%";"Low"
"RMPI (MoM)";"Canada";"CAD";"2009-09-30T12:30:00";"GMT";"-3.9%";"3.0%";"3.7%";"Moderate"
