{"events": {"event": [
    {
      "eventDateTime": "2017-11-16T00:00:00",
      "eventActual": "3.7%",
      "eventCountry": "Australia",
      "eventExpectedVolatility": "Low",
      "eventName": "MI Inflation Expectations",
      "eventTimeZone": "GMT",
      "eventPrevious": "4.3%",
      "eventCurrency": "AUD",
      "eventForecast": ""
    },
    {
      "eventDateTime": "2017-11-16T00:30:00",
      "eventActual": "3.7K",
      "eventCountry": "Australia",
      "eventExpectedVolatility": "High",
      "eventName": "Employment Change (Oct)",
      "eventTimeZone": "GMT",
      "eventPrevious": "26.6K",
      "eventCurrency": "AUD",
      "eventForecast": "17.5K"
    },
    {
      "eventDateTime": "2017-11-16T00:30:00",
      "eventActual": "24.3K",
      "eventCountry": "Australia",
      "eventExpectedVolatility": "Moderate",
      "eventName": "Full Employment Change (Oct)",
      "eventTimeZone": "GMT",
      "eventPrevious": "9.3K",
      "eventCurrency": "AUD",
      "eventForecast": ""
    },
    {
      "eventDateTime": "2017-11-16T00:30:00",
      "eventActual": "65.1%",
      "eventCountry": "Australia",
      "eventExpectedVolatility": "Low",
      "eventName": "Participation Rate (Oct)",
      "eventTimeZone": "GMT",
      "eventPrevious": "65.2%",
      "eventCurrency": "AUD",
      "eventForecast": "65.2%"
    },
    {
      "eventDateTime": "2017-11-16T00:30:00",
      "eventActual": "5.4%",
      "eventCountry": "Australia",
      "eventExpectedVolatility": "Moderate",
      "eventName": "Unemployment Rate (Oct)",
      "eventTimeZone": "GMT",
      "eventPrevious": "5.5%",
      "eventCurrency": "AUD",
      "eventForecast": "5.5%"
    }
  ]}}
