"Budget Balance % of GDP (Nov)";"Russia";"RUB";"2003-12-01T09:00:00";"GMT";"2.60%";"";"2.60%";"Low"
"CPI (MoM) (Nov)";"Russia";"RUB";"2003-12-01T09:00:00";"GMT";"1.00%";"";"1.00%";"Moderate"
"CPI (YoY) (Nov)";"Russia";"RUB";"2003-12-01T09:00:00";"GMT";"13.20%";"";"12.50%";"Moderate"
"Central Bank reserves (USD) (Nov)";"Russia";"RUB";"2003-12-01T09:00:00";"GMT";"64.90B";"";"68.10B";"Moderate"
"Industrial Production (YoY) (Nov)";"Russia";"RUB";"2003-12-01T09:00:00";"GMT";"7.90%";"";"9.00%";"Low"
"Interest Rate Decision (Nov)";"Russia";"RUB";"2003-12-01T09:00:00";"GMT";"6.50%";"";"6.50%";"High"
"PPI (MoM) (Nov)";"Russia";"RUB";"2003-12-01T09:00:00";"GMT";"0.80%";"";"0.20%";"Low"
"Trade Balance (Nov)";"Russia";"RUB";"2003-12-01T09:00:00";"GMT";"5.57B";"";"4.76B";"Low"
"Unemployment Rate (Nov)";"Russia";"RUB";"2003-12-01T09:00:00";"GMT";"8.20%";"";"8.20%";"Moderate"
