{"events": {"event": {
    "eventDateTime": "2012-05-24T08:30:00",
    "eventActual": "-42.9B",
    "eventCountry": "Hong Kong",
    "eventExpectedVolatility": "Low",
    "eventName": "Trade Balance",
    "eventTimeZone": "GMT",
    "eventPrevious": "-43.9B",
    "eventCurrency": "HKD",
    "eventForecast": "-41.5B"
  }}}
