"Investing.com Gold Index";"United States";"USD";"2018-04-30T05:30:00";"GMT";"63.2%";"";"61.0%";"Moderate"
"Investing.com Sandamp:P 500 Index";"United States";"USD";"2018-04-30T05:30:00";"GMT";"65.6%";"";"66.6%";"Moderate"
"Core PCE Price Index (MoM) (Mar)";"United States";"USD";"2018-04-30T12:30:00";"GMT";"0.2%";"0.2%";"0.2%";"Moderate"
"Core PCE Price Index (YoY) (Mar)";"United States";"USD";"2018-04-30T12:30:00";"GMT";"1.6%";"1.9%";"1.9%";"Moderate"
"PCE Deflator (MoM)";"United States";"USD";"2018-04-30T12:30:00";"GMT";"0.2%";"0.0%";"0.0%";"Moderate"
"PCE Deflator (YoY)";"United States";"USD";"2018-04-30T12:30:00";"GMT";"1.7%";"2.0%";"2.0%";"Moderate"
"Personal Income (MoM) (Mar)";"United States";"USD";"2018-04-30T12:30:00";"GMT";"0.3%";"0.4%";"0.3%";"Low"
"Personal Spending (MoM) (Mar)";"United States";"USD";"2018-04-30T12:30:00";"GMT";"0.2%";"0.4%";"0.4%";"Moderate"
"Real Personal Consumption (MoM) (Mar)";"United States";"USD";"2018-04-30T12:30:00";"GMT";"-0.2%";"0.5%";"0.4%";"Low"
"Dallas Fed PCE (Mar)";"United States";"USD";"2018-04-30T13:00:00";"GMT";"1.70%";"";"1.50%";"Low"
"Chicago PMI (Apr)";"United States";"USD";"2018-04-30T13:45:00";"GMT";"57.4";"58.2";"57.6";"Moderate"
"Pending Home Sales (MoM) (Mar)";"United States";"USD";"2018-04-30T14:00:00";"GMT";"2.8%";"0.6%";"0.4%";"High"
"Pending Home Sales Index (Mar)";"United States";"USD";"2018-04-30T14:00:00";"GMT";"107.2";"";"107.6";"Low"
"Dallas Fed Mfg Business Index (Apr)";"United States";"USD";"2018-04-30T14:30:00";"GMT";"22.8";"25.0";"21.8";"Low"
"3-Month Bill Auction";"United States";"USD";"2018-04-30T15:30:00";"GMT";"1.830%";"";"1.835%";"Low"
"6-Month Bill Auction";"United States";"USD";"2018-04-30T15:30:00";"GMT";"1.985%";"";"1.990%";"Low"
