{"events": {"event": [
    {
      "eventDateTime": "2009-08-18T22:45:00",
      "eventActual": "0.0%",
      "eventCountry": "New Zealand",
      "eventExpectedVolatility": "Moderate",
      "eventName": "PPI Input (QoQ)",
      "eventTimeZone": "GMT",
      "eventPrevious": "-2.5%",
      "eventCurrency": "NZD",
      "eventForecast": "-1.0%"
    },
    {
      "eventDateTime": "2009-08-18T22:45:00",
      "eventActual": "-0.7%",
      "eventCountry": "New Zealand",
      "eventExpectedVolatility": "Low",
      "eventName": "PPI Output (QoQ)",
      "eventTimeZone": "GMT",
      "eventPrevious": "-1.4%",
      "eventCurrency": "NZD",
      "eventForecast": "-0.5%"
    }
  ]}}
