"MBA 30-Year Mortgage Rate";"United States";"USD";"2015-06-10T11:00:00";"GMT";"4.02%";"";"4.17%";"Low"
"MBA Mortgage Applications (WoW)";"United States";"USD";"2015-06-10T11:00:00";"GMT";"-7.6%";"";"8.4%";"Low"
"MBA Purchase Index";"United States";"USD";"2015-06-10T11:00:00";"GMT";"195.4";"";"214.3";"Low"
"Mortgage Market Index";"United States";"USD";"2015-06-10T11:00:00";"GMT";"369.5";"";"400.5";"Low"
"Mortgage Refinance Index";"United States";"USD";"2015-06-10T11:00:00";"GMT";"1,360.3";"";"1,455.2";"Low"
"Crude Oil Inventories";"United States";"USD";"2015-06-10T14:30:00";"GMT";"-1.948M";"-1.720M";"-6.812M";"High"
"EIA Weekly Distillates Stocks";"United States";"USD";"2015-06-10T14:30:00";"GMT";"3.773M";"1.340M";"0.865M";"Low"
"Gasoline Inventories";"United States";"USD";"2015-06-10T14:30:00";"GMT";"-0.334M";"0.280M";"-2.939M";"Low"
"10-Year Note Auction";"United States";"USD";"2015-06-10T17:00:00";"GMT";"2.237%";"";"2.461%";"Moderate"
"Federal Budget Balance (May)";"United States";"USD";"2015-06-10T18:00:00";"GMT";"157.0B";"-98.0B";"-82.4B";"Moderate"
