{"events": {"event": [
    {
      "eventDateTime": "2012-08-02T08:30:00",
      "eventActual": "50.9",
      "eventCountry": "United Kingdom",
      "eventExpectedVolatility": "High",
      "eventName": "Construction PMI",
      "eventTimeZone": "GMT",
      "eventPrevious": "48.2",
      "eventCurrency": "GBP",
      "eventForecast": "48.0"
    },
    {
      "eventDateTime": "2012-08-02T11:00:00",
      "eventActual": "0.50%",
      "eventCountry": "United Kingdom",
      "eventExpectedVolatility": "High",
      "eventName": "BoE Interest Rate Decision",
      "eventTimeZone": "GMT",
      "eventPrevious": "0.50%",
      "eventCurrency": "GBP",
      "eventForecast": "0.50%"
    },
    {
      "eventDateTime": "2012-08-02T11:00:00",
      "eventActual": "375B",
      "eventCountry": "United Kingdom",
      "eventExpectedVolatility": "Moderate",
      "eventName": "BoE QE Total",
      "eventTimeZone": "GMT",
      "eventPrevious": "375B",
      "eventCurrency": "GBP",
      "eventForecast": "375B"
    }
  ]}}
