{"events": {"event": [
    {
      "eventDateTime": "2006-04-01T09:00:00",
      "eventActual": "0.77",
      "eventCountry": "Euro Zone",
      "eventExpectedVolatility": "Low",
      "eventName": "Business Climate (Mar)",
      "eventTimeZone": "GMT",
      "eventPrevious": "0.56",
      "eventCurrency": "EUR",
      "eventForecast": ""
    },
    {
      "eventDateTime": "2006-04-01T09:00:00",
      "eventActual": "105.60",
      "eventCountry": "Euro Zone",
      "eventExpectedVolatility": "Low",
      "eventName": "Business and Consumer Survey (Mar)",
      "eventTimeZone": "GMT",
      "eventPrevious": "104.30",
      "eventCurrency": "EUR",
      "eventForecast": ""
    },
    {
      "eventDateTime": "2006-04-01T09:00:00",
      "eventActual": "0.60%",
      "eventCountry": "Euro Zone",
      "eventExpectedVolatility": "Moderate",
      "eventName": "CPI (MoM) (Mar)",
      "eventTimeZone": "GMT",
      "eventPrevious": "0.30%",
      "eventCurrency": "EUR",
      "eventForecast": ""
    },
    {
      "eventDateTime": "2006-04-01T09:00:00",
      "eventActual": "2.20%",
      "eventCountry": "Euro Zone",
      "eventExpectedVolatility": "High",
      "eventName": "CPI (YoY) (Mar)",
      "eventTimeZone": "GMT",
      "eventPrevious": "2.30%",
      "eventCurrency": "EUR",
      "eventForecast": ""
    },
    {
      "eventDateTime": "2006-04-01T09:00:00",
      "eventActual": "0.57%",
      "eventCountry": "Euro Zone",
      "eventExpectedVolatility": "Low",
      "eventName": "CPI ex Tobacco (MoM) (Mar)",
      "eventTimeZone": "GMT",
      "eventPrevious": "0.28%",
      "eventCurrency": "EUR",
      "eventForecast": ""
    },
    {
      "eventDateTime": "2006-04-01T09:00:00",
      "eventActual": "2.11%",
      "eventCountry": "Euro Zone",
      "eventExpectedVolatility": "Low",
      "eventName": "CPI ex Tobacco (YoY) (Mar)",
      "eventTimeZone": "GMT",
      "eventPrevious": "2.31%",
      "eventCurrency": "EUR",
      "eventForecast": ""
    },
    {
      "eventDateTime": "2006-04-01T09:00:00",
      "eventActual": "-11.40",
      "eventCountry": "Euro Zone",
      "eventExpectedVolatility": "Low",
      "eventName": "Consumer Confidence (Mar)",
      "eventTimeZone": "GMT",
      "eventPrevious": "-10.90",
      "eventCurrency": "EUR",
      "eventForecast": ""
    },
    {
      "eventDateTime": "2006-04-01T09:00:00",
      "eventActual": "16.00",
      "eventCountry": "Euro Zone",
      "eventExpectedVolatility": "Low",
      "eventName": "Consumer Inflation Expectation (Mar)",
      "eventTimeZone": "GMT",
      "eventPrevious": "16.60",
      "eventCurrency": "EUR",
      "eventForecast": ""
    },
    {
      "eventDateTime": "2006-04-01T09:00:00",
      "eventActual": "0.70%",
      "eventCountry": "Euro Zone",
      "eventExpectedVolatility": "Low",
      "eventName": "Core CPI (MoM) (Mar)",
      "eventTimeZone": "GMT",
      "eventPrevious": "0.30%",
      "eventCurrency": "EUR",
      "eventForecast": ""
    },
    {
      "eventDateTime": "2006-04-01T09:00:00",
      "eventActual": "1.30%",
      "eventCountry": "Euro Zone",
      "eventExpectedVolatility": "Moderate",
      "eventName": "Core CPI (YoY) (Mar)",
      "eventTimeZone": "GMT",
      "eventPrevious": "1.20%",
      "eventCurrency": "EUR",
      "eventForecast": ""
    },
    {
      "eventDateTime": "2006-04-01T09:00:00",
      "eventActual": "0.20B",
      "eventCountry": "Euro Zone",
      "eventExpectedVolatility": "Low",
      "eventName": "Current Account n.s.a. (Mar)",
      "eventTimeZone": "GMT",
      "eventPrevious": "-5.50B",
      "eventCurrency": "EUR",
      "eventForecast": ""
    },
    {
      "eventDateTime": "2006-04-01T09:00:00",
      "eventActual": "2.50%",
      "eventCountry": "Euro Zone",
      "eventExpectedVolatility": "High",
      "eventName": "ECB Interest Rate Decision (Mar)",
      "eventTimeZone": "GMT",
      "eventPrevious": "2.25%",
      "eventCurrency": "EUR",
      "eventForecast": ""
    },
    {
      "eventDateTime": "2006-04-01T09:00:00",
      "eventActual": "106.00",
      "eventCountry": "France",
      "eventExpectedVolatility": "Low",
      "eventName": "French Business Survey (Mar)",
      "eventTimeZone": "GMT",
      "eventPrevious": "107.00",
      "eventCurrency": "EUR",
      "eventForecast": ""
    },
    {
      "eventDateTime": "2006-04-01T09:00:00",
      "eventActual": "0.30%",
      "eventCountry": "France",
      "eventExpectedVolatility": "Moderate",
      "eventName": "French CPI (MoM) (Mar)",
      "eventTimeZone": "GMT",
      "eventPrevious": "0.40%",
      "eventCurrency": "EUR",
      "eventForecast": ""
    },
    {
      "eventDateTime": "2006-04-01T09:00:00",
      "eventActual": "97.00",
      "eventCountry": "France",
      "eventExpectedVolatility": "Low",
      "eventName": "French Consumer Confidence (Mar)",
      "eventTimeZone": "GMT",
      "eventPrevious": "98.00",
      "eventCurrency": "EUR",
      "eventForecast": ""
    },
    {
      "eventDateTime": "2006-04-01T09:00:00",
      "eventActual": "-0.30%",
      "eventCountry": "France",
      "eventExpectedVolatility": "Moderate",
      "eventName": "French Consumer Spending (MoM) (Mar)",
      "eventTimeZone": "GMT",
      "eventPrevious": "0.30%",
      "eventCurrency": "EUR",
      "eventForecast": ""
    },
    {
      "eventDateTime": "2006-04-01T09:00:00",
      "eventActual": "32.98B",
      "eventCountry": "France",
      "eventExpectedVolatility": "Low",
      "eventName": "French Exports (Mar)",
      "eventTimeZone": "GMT",
      "eventPrevious": "32.00B",
      "eventCurrency": "EUR",
      "eventForecast": ""
    },
    {
      "eventDateTime": "2006-04-01T09:00:00",
      "eventActual": "-15.37B",
      "eventCountry": "France",
      "eventExpectedVolatility": "Low",
      "eventName": "French Government Budget Balance (Mar)",
      "eventTimeZone": "GMT",
      "eventPrevious": "-13.35B",
      "eventCurrency": "EUR",
      "eventForecast": ""
    },
    {
      "eventDateTime": "2006-04-01T09:00:00",
      "eventActual": "0.40%",
      "eventCountry": "France",
      "eventExpectedVolatility": "Moderate",
      "eventName": "French HICP (MoM) (Mar)",
      "eventTimeZone": "GMT",
      "eventPrevious": "0.40%",
      "eventCurrency": "EUR",
      "eventForecast": ""
    },
    {
      "eventDateTime": "2006-04-01T09:00:00",
      "eventActual": "1.71%",
      "eventCountry": "France",
      "eventExpectedVolatility": "Low",
      "eventName": "French HICP (YoY) (Mar)",
      "eventTimeZone": "GMT",
      "eventPrevious": "1.97%",
      "eventCurrency": "EUR",
      "eventForecast": ""
    },
    {
      "eventDateTime": "2006-04-01T09:00:00",
      "eventActual": "35.27B",
      "eventCountry": "France",
      "eventExpectedVolatility": "Low",
      "eventName": "French Imports (Mar)",
      "eventTimeZone": "GMT",
      "eventPrevious": "34.20B",
      "eventCurrency": "EUR",
      "eventForecast": ""
    },
    {
      "eventDateTime": "2006-04-01T09:00:00",
      "eventActual": "1.30%",
      "eventCountry": "France",
      "eventExpectedVolatility": "Low",
      "eventName": "French Industrial Production (MoM) (Mar)",
      "eventTimeZone": "GMT",
      "eventPrevious": "-1.10%",
      "eventCurrency": "EUR",
      "eventForecast": ""
    },
    {
      "eventDateTime": "2006-04-01T09:00:00",
      "eventActual": "0.60%",
      "eventCountry": "France",
      "eventExpectedVolatility": "Low",
      "eventName": "French PPI (MoM) (Mar)",
      "eventTimeZone": "GMT",
      "eventPrevious": "0.00%",
      "eventCurrency": "EUR",
      "eventForecast": ""
    },
    {
      "eventDateTime": "2006-04-01T09:00:00",
      "eventActual": "-2.30B",
      "eventCountry": "France",
      "eventExpectedVolatility": "Low",
      "eventName": "French Trade Balance (Mar)",
      "eventTimeZone": "GMT",
      "eventPrevious": "-2.20B",
      "eventCurrency": "EUR",
      "eventForecast": ""
    },
    {
      "eventDateTime": "2006-04-01T09:00:00",
      "eventActual": "107.20",
      "eventCountry": "Germany",
      "eventExpectedVolatility": "Moderate",
      "eventName": "German Business Expectations (Mar)",
      "eventTimeZone": "GMT",
      "eventPrevious": "106.50",
      "eventCurrency": "EUR",
      "eventForecast": ""
    },
    {
      "eventDateTime": "2006-04-01T09:00:00",
      "eventActual": "0.00%",
      "eventCountry": "Germany",
      "eventExpectedVolatility": "Moderate",
      "eventName": "German CPI (MoM) (Mar)",
      "eventTimeZone": "GMT",
      "eventPrevious": "0.40%",
      "eventCurrency": "EUR",
      "eventForecast": ""
    },
    {
      "eventDateTime": "2006-04-01T09:00:00",
      "eventActual": "1.40%",
      "eventCountry": "Germany",
      "eventExpectedVolatility": "Low",
      "eventName": "German CPI (YoY) (Mar)",
      "eventTimeZone": "GMT",
      "eventPrevious": "1.90%",
      "eventCurrency": "EUR",
      "eventForecast": ""
    },
    {
      "eventDateTime": "2006-04-01T09:00:00",
      "eventActual": "109.60",
      "eventCountry": "Germany",
      "eventExpectedVolatility": "Moderate",
      "eventName": "German Current Assessment (Mar)",
      "eventTimeZone": "GMT",
      "eventPrevious": "107.20",
      "eventCurrency": "EUR",
      "eventForecast": ""
    },
    {
      "eventDateTime": "2006-04-01T09:00:00",
      "eventActual": "-2.58%",
      "eventCountry": "Germany",
      "eventExpectedVolatility": "Low",
      "eventName": "German Exports (MoM) (Mar)",
      "eventTimeZone": "GMT",
      "eventPrevious": "3.05%",
      "eventCurrency": "EUR",
      "eventForecast": ""
    },
    {
      "eventDateTime": "2006-04-01T09:00:00",
      "eventActual": "-0.90%",
      "eventCountry": "Germany",
      "eventExpectedVolatility": "Moderate",
      "eventName": "German Factory Orders (MoM) (Mar)",
      "eventTimeZone": "GMT",
      "eventPrevious": "0.40%",
      "eventCurrency": "EUR",
      "eventForecast": ""
    },
    {
      "eventDateTime": "2006-04-01T09:00:00",
      "eventActual": "0.10%",
      "eventCountry": "Germany",
      "eventExpectedVolatility": "Low",
      "eventName": "German HICP (MoM) (Mar)",
      "eventTimeZone": "GMT",
      "eventPrevious": "0.40%",
      "eventCurrency": "EUR",
      "eventForecast": ""
    },
    {
      "eventDateTime": "2006-04-01T09:00:00",
      "eventActual": "1.90%",
      "eventCountry": "Germany",
      "eventExpectedVolatility": "Low",
      "eventName": "German HICP (YoY) (Mar)",
      "eventTimeZone": "GMT",
      "eventPrevious": "2.10%",
      "eventCurrency": "EUR",
      "eventForecast": ""
    },
    {
      "eventDateTime": "2006-04-01T09:00:00",
      "eventActual": "0.40%",
      "eventCountry": "Germany",
      "eventExpectedVolatility": "Low",
      "eventName": "German Import Price Index (MoM) (Mar)",
      "eventTimeZone": "GMT",
      "eventPrevious": "0.30%",
      "eventCurrency": "EUR",
      "eventForecast": ""
    },
    {
      "eventDateTime": "2006-04-01T09:00:00",
      "eventActual": "4.50%",
      "eventCountry": "Germany",
      "eventExpectedVolatility": "Low",
      "eventName": "German Import Price Index (YoY) (Mar)",
      "eventTimeZone": "GMT",
      "eventPrevious": "5.00%",
      "eventCurrency": "EUR",
      "eventForecast": ""
    },
    {
      "eventDateTime": "2006-04-01T09:00:00",
      "eventActual": "0.40%",
      "eventCountry": "Germany",
      "eventExpectedVolatility": "Low",
      "eventName": "German Imports (MoM) (Mar)",
      "eventTimeZone": "GMT",
      "eventPrevious": "2.30%",
      "eventCurrency": "EUR",
      "eventForecast": ""
    },
    {
      "eventDateTime": "2006-04-01T09:00:00",
      "eventActual": "-1.20%",
      "eventCountry": "Germany",
      "eventExpectedVolatility": "Moderate",
      "eventName": "German Industrial Production (MoM) (Mar)",
      "eventTimeZone": "GMT",
      "eventPrevious": "0.20%",
      "eventCurrency": "EUR",
      "eventForecast": ""
    },
    {
      "eventDateTime": "2006-04-01T09:00:00",
      "eventActual": "0.50%",
      "eventCountry": "Germany",
      "eventExpectedVolatility": "Moderate",
      "eventName": "German PPI (MoM) (Mar)",
      "eventTimeZone": "GMT",
      "eventPrevious": "0.60%",
      "eventCurrency": "EUR",
      "eventForecast": ""
    },
    {
      "eventDateTime": "2006-04-01T09:00:00",
      "eventActual": "5.80%",
      "eventCountry": "Germany",
      "eventExpectedVolatility": "Low",
      "eventName": "German PPI (YoY) (Mar)",
      "eventTimeZone": "GMT",
      "eventPrevious": "5.80%",
      "eventCurrency": "EUR",
      "eventForecast": ""
    },
    {
      "eventDateTime": "2006-04-01T09:00:00",
      "eventActual": "-0.20%",
      "eventCountry": "Germany",
      "eventExpectedVolatility": "Moderate",
      "eventName": "German Retail Sales (MoM) (Mar)",
      "eventTimeZone": "GMT",
      "eventPrevious": "0.70%",
      "eventCurrency": "EUR",
      "eventForecast": ""
    },
    {
      "eventDateTime": "2006-04-01T09:00:00",
      "eventActual": "0.10%",
      "eventCountry": "Germany",
      "eventExpectedVolatility": "Low",
      "eventName": "German Retail Sales (YoY) (Mar)",
      "eventTimeZone": "GMT",
      "eventPrevious": "0.30%",
      "eventCurrency": "EUR",
      "eventForecast": ""
    },
    {
      "eventDateTime": "2006-04-01T09:00:00",
      "eventActual": "10.80B",
      "eventCountry": "Germany",
      "eventExpectedVolatility": "Moderate",
      "eventName": "German Trade Balance (Mar)",
      "eventTimeZone": "GMT",
      "eventPrevious": "12.90B",
      "eventCurrency": "EUR",
      "eventForecast": ""
    },
    {
      "eventDateTime": "2006-04-01T09:00:00",
      "eventActual": "4.73M",
      "eventCountry": "Germany",
      "eventExpectedVolatility": "Low",
      "eventName": "German Unemployment (Mar)",
      "eventTimeZone": "GMT",
      "eventPrevious": "4.74M",
      "eventCurrency": "EUR",
      "eventForecast": ""
    },
    {
      "eventDateTime": "2006-04-01T09:00:00",
      "eventActual": "-8.00K",
      "eventCountry": "Germany",
      "eventExpectedVolatility": "High",
      "eventName": "German Unemployment Change (Mar)",
      "eventTimeZone": "GMT",
      "eventPrevious": "-2.00K",
      "eventCurrency": "EUR",
      "eventForecast": ""
    },
    {
      "eventDateTime": "2006-04-01T09:00:00",
      "eventActual": "11.40%",
      "eventCountry": "Germany",
      "eventExpectedVolatility": "Moderate",
      "eventName": "German Unemployment Rate (Mar)",
      "eventTimeZone": "GMT",
      "eventPrevious": "11.40%",
      "eventCurrency": "EUR",
      "eventForecast": ""
    },
    {
      "eventDateTime": "2006-04-01T09:00:00",
      "eventActual": "5.00M",
      "eventCountry": "Germany",
      "eventExpectedVolatility": "Low",
      "eventName": "German Unemployment n.s.a. (Mar)",
      "eventTimeZone": "GMT",
      "eventPrevious": "5.00M",
      "eventCurrency": "EUR",
      "eventForecast": ""
    },
    {
      "eventDateTime": "2006-04-01T09:00:00",
      "eventActual": "0.40%",
      "eventCountry": "Germany",
      "eventExpectedVolatility": "Low",
      "eventName": "German WPI (MoM) (Mar)",
      "eventTimeZone": "GMT",
      "eventPrevious": "0.50%",
      "eventCurrency": "EUR",
      "eventForecast": ""
    },
    {
      "eventDateTime": "2006-04-01T09:00:00",
      "eventActual": "2.80%",
      "eventCountry": "Germany",
      "eventExpectedVolatility": "Low",
      "eventName": "German WPI (YoY) (Mar)",
      "eventTimeZone": "GMT",
      "eventPrevious": "3.10%",
      "eventCurrency": "EUR",
      "eventForecast": ""
    },
    {
      "eventDateTime": "2006-04-01T09:00:00",
      "eventActual": "-8.40",
      "eventCountry": "Germany",
      "eventExpectedVolatility": "Moderate",
      "eventName": "German ZEW Current Conditions (Mar)",
      "eventTimeZone": "GMT",
      "eventPrevious": "-19.50",
      "eventCurrency": "EUR",
      "eventForecast": ""
    },
    {
      "eventDateTime": "2006-04-01T09:00:00",
      "eventActual": "63.40",
      "eventCountry": "Germany",
      "eventExpectedVolatility": "High",
      "eventName": "German ZEW Economic Sentiment (Mar)",
      "eventTimeZone": "GMT",
      "eventPrevious": "69.80",
      "eventCurrency": "EUR",
      "eventForecast": ""
    },
    {
      "eventDateTime": "2006-04-01T09:00:00",
      "eventActual": "5.10",
      "eventCountry": "Germany",
      "eventExpectedVolatility": "Moderate",
      "eventName": "GfK German Consumer Climate (Mar)",
      "eventTimeZone": "GMT",
      "eventPrevious": "4.70",
      "eventCurrency": "EUR",
      "eventForecast": ""
    },
    {
      "eventDateTime": "2006-04-01T09:00:00",
      "eventActual": "0.50%",
      "eventCountry": "Euro Zone",
      "eventExpectedVolatility": "Moderate",
      "eventName": "Industrial Production (MoM) (Mar)",
      "eventTimeZone": "GMT",
      "eventPrevious": "0.00%",
      "eventCurrency": "EUR",
      "eventForecast": ""
    },
    {
      "eventDateTime": "2006-04-01T09:00:00",
      "eventActual": "4.00%",
      "eventCountry": "Euro Zone",
      "eventExpectedVolatility": "Low",
      "eventName": "Industrial Production (YoY) (Mar)",
      "eventTimeZone": "GMT",
      "eventPrevious": "3.30%",
      "eventCurrency": "EUR",
      "eventForecast": ""
    },
    {
      "eventDateTime": "2006-04-01T09:00:00",
      "eventActual": "0.60",
      "eventCountry": "Euro Zone",
      "eventExpectedVolatility": "Low",
      "eventName": "Industrial Sentiment (Mar)",
      "eventTimeZone": "GMT",
      "eventPrevious": "-1.10",
      "eventCurrency": "EUR",
      "eventForecast": ""
    },
    {
      "eventDateTime": "2006-04-01T09:00:00",
      "eventActual": "110.20",
      "eventCountry": "Italy",
      "eventExpectedVolatility": "Low",
      "eventName": "Italian Business Confidence (Mar)",
      "eventTimeZone": "GMT",
      "eventPrevious": "109.10",
      "eventCurrency": "EUR",
      "eventForecast": ""
    },
    {
      "eventDateTime": "2006-04-01T09:00:00",
      "eventActual": "0.20%",
      "eventCountry": "Italy",
      "eventExpectedVolatility": "Moderate",
      "eventName": "Italian CPI (MoM) (Mar)",
      "eventTimeZone": "GMT",
      "eventPrevious": "0.30%",
      "eventCurrency": "EUR",
      "eventForecast": ""
    },
    {
      "eventDateTime": "2006-04-01T09:00:00",
      "eventActual": "2.10%",
      "eventCountry": "Italy",
      "eventExpectedVolatility": "Low",
      "eventName": "Italian CPI (YoY) (Mar)",
      "eventTimeZone": "GMT",
      "eventPrevious": "2.20%",
      "eventCurrency": "EUR",
      "eventForecast": ""
    },
    {
      "eventDateTime": "2006-04-01T09:00:00",
      "eventActual": "101.40",
      "eventCountry": "Italy",
      "eventExpectedVolatility": "Low",
      "eventName": "Italian Consumer Confidence (Mar)",
      "eventTimeZone": "GMT",
      "eventPrevious": "102.00",
      "eventCurrency": "EUR",
      "eventForecast": ""
    },
    {
      "eventDateTime": "2006-04-01T09:00:00",
      "eventActual": "1.20%",
      "eventCountry": "Italy",
      "eventExpectedVolatility": "Low",
      "eventName": "Italian HICP (MoM) (Mar)",
      "eventTimeZone": "GMT",
      "eventPrevious": "-0.10%",
      "eventCurrency": "EUR",
      "eventForecast": ""
    },
    {
      "eventDateTime": "2006-04-01T09:00:00",
      "eventActual": "2.20%",
      "eventCountry": "Italy",
      "eventExpectedVolatility": "Low",
      "eventName": "Italian HICP (YoY) (Mar)",
      "eventTimeZone": "GMT",
      "eventPrevious": "2.20%",
      "eventCurrency": "EUR",
      "eventForecast": ""
    },
    {
      "eventDateTime": "2006-04-01T09:00:00",
      "eventActual": "-5.07%",
      "eventCountry": "Italy",
      "eventExpectedVolatility": "Low",
      "eventName": "Italian Industrial New Orders (MoM) (Mar)",
      "eventTimeZone": "GMT",
      "eventPrevious": "-3.18%",
      "eventCurrency": "EUR",
      "eventForecast": ""
    },
    {
      "eventDateTime": "2006-04-01T09:00:00",
      "eventActual": "4.85%",
      "eventCountry": "Italy",
      "eventExpectedVolatility": "Low",
      "eventName": "Italian Industrial New Orders (YoY) (Mar)",
      "eventTimeZone": "GMT",
      "eventPrevious": "13.48%",
      "eventCurrency": "EUR",
      "eventForecast": ""
    },
    {
      "eventDateTime": "2006-04-01T09:00:00",
      "eventActual": "0.40%",
      "eventCountry": "Italy",
      "eventExpectedVolatility": "Low",
      "eventName": "Italian Industrial Production (MoM) (Mar)",
      "eventTimeZone": "GMT",
      "eventPrevious": "1.30%",
      "eventCurrency": "EUR",
      "eventForecast": ""
    },
    {
      "eventDateTime": "2006-04-01T09:00:00",
      "eventActual": "3.60%",
      "eventCountry": "Italy",
      "eventExpectedVolatility": "Low",
      "eventName": "Italian Industrial Production (YoY) (Mar)",
      "eventTimeZone": "GMT",
      "eventPrevious": "2.70%",
      "eventCurrency": "EUR",
      "eventForecast": ""
    },
    {
      "eventDateTime": "2006-04-01T09:00:00",
      "eventActual": "0.99%",
      "eventCountry": "Italy",
      "eventExpectedVolatility": "Low",
      "eventName": "Italian Industrial Sales (MoM) (Mar)",
      "eventTimeZone": "GMT",
      "eventPrevious": "1.50%",
      "eventCurrency": "EUR",
      "eventForecast": ""
    },
    {
      "eventDateTime": "2006-04-01T09:00:00",
      "eventActual": "13.12%",
      "eventCountry": "Italy",
      "eventExpectedVolatility": "Low",
      "eventName": "Italian Industrial Sales (YoY) (Mar)",
      "eventTimeZone": "GMT",
      "eventPrevious": "8.35%",
      "eventCurrency": "EUR",
      "eventForecast": ""
    },
    {
      "eventDateTime": "2006-04-01T09:00:00",
      "eventActual": "7.10%",
      "eventCountry": "Italy",
      "eventExpectedVolatility": "Low",
      "eventName": "Italian Monthly Unemployment Rate (Mar)",
      "eventTimeZone": "GMT",
      "eventPrevious": "7.30%",
      "eventCurrency": "EUR",
      "eventForecast": ""
    },
    {
      "eventDateTime": "2006-04-01T09:00:00",
      "eventActual": "0.40%",
      "eventCountry": "Italy",
      "eventExpectedVolatility": "Low",
      "eventName": "Italian PPI (MoM) (Mar)",
      "eventTimeZone": "GMT",
      "eventPrevious": "0.70%",
      "eventCurrency": "EUR",
      "eventForecast": ""
    },
    {
      "eventDateTime": "2006-04-01T09:00:00",
      "eventActual": "4.40%",
      "eventCountry": "Italy",
      "eventExpectedVolatility": "Low",
      "eventName": "Italian PPI (YoY) (Mar)",
      "eventTimeZone": "GMT",
      "eventPrevious": "4.50%",
      "eventCurrency": "EUR",
      "eventForecast": ""
    },
    {
      "eventDateTime": "2006-04-01T09:00:00",
      "eventActual": "-0.30%",
      "eventCountry": "Italy",
      "eventExpectedVolatility": "Low",
      "eventName": "Italian Retail Sales (MoM) (Mar)",
      "eventTimeZone": "GMT",
      "eventPrevious": "0.00%",
      "eventCurrency": "EUR",
      "eventForecast": ""
    },
    {
      "eventDateTime": "2006-04-01T09:00:00",
      "eventActual": "-0.86%",
      "eventCountry": "Italy",
      "eventExpectedVolatility": "Low",
      "eventName": "Italian Retail Sales (YoY) (Mar)",
      "eventTimeZone": "GMT",
      "eventPrevious": "1.55%",
      "eventCurrency": "EUR",
      "eventForecast": ""
    },
    {
      "eventDateTime": "2006-04-01T09:00:00",
      "eventActual": "-1.88B",
      "eventCountry": "Italy",
      "eventExpectedVolatility": "Low",
      "eventName": "Italian Trade Balance (Mar)",
      "eventTimeZone": "GMT",
      "eventPrevious": "-2.93B",
      "eventCurrency": "EUR",
      "eventForecast": ""
    },
    {
      "eventDateTime": "2006-04-01T09:00:00",
      "eventActual": "-0.29B",
      "eventCountry": "Italy",
      "eventExpectedVolatility": "Low",
      "eventName": "Italian Trade Balance EU (Mar)",
      "eventTimeZone": "GMT",
      "eventPrevious": "-0.30B",
      "eventCurrency": "EUR",
      "eventForecast": ""
    },
    {
      "eventDateTime": "2006-04-01T09:00:00",
      "eventActual": "-1.58B",
      "eventCountry": "Italy",
      "eventExpectedVolatility": "Low",
      "eventName": "Italian Trade Balance Non-EU (Mar)",
      "eventTimeZone": "GMT",
      "eventPrevious": "-2.63B",
      "eventCurrency": "EUR",
      "eventForecast": ""
    },
    {
      "eventDateTime": "2006-04-01T09:00:00",
      "eventActual": "0.23%",
      "eventCountry": "Italy",
      "eventExpectedVolatility": "Low",
      "eventName": "Italian Wage Inflation (MoM) (Mar)",
      "eventTimeZone": "GMT",
      "eventPrevious": "0.57%",
      "eventCurrency": "EUR",
      "eventForecast": ""
    },
    {
      "eventDateTime": "2006-04-01T09:00:00",
      "eventActual": "2.80%",
      "eventCountry": "Italy",
      "eventExpectedVolatility": "Low",
      "eventName": "Italian Wage Inflation (YoY) (Mar)",
      "eventTimeZone": "GMT",
      "eventPrevious": "2.80%",
      "eventCurrency": "EUR",
      "eventForecast": ""
    },
    {
      "eventDateTime": "2006-04-01T09:00:00",
      "eventActual": "8.30%",
      "eventCountry": "Euro Zone",
      "eventExpectedVolatility": "Low",
      "eventName": "M3 Money Supply (YoY) (Mar)",
      "eventTimeZone": "GMT",
      "eventPrevious": "7.80%",
      "eventCurrency": "EUR",
      "eventForecast": ""
    },
    {
      "eventDateTime": "2006-04-01T09:00:00",
      "eventActual": "8.30%",
      "eventCountry": "Euro Zone",
      "eventExpectedVolatility": "Low",
      "eventName": "Money-M3 3-Month-Moving Average (Mar)",
      "eventTimeZone": "GMT",
      "eventPrevious": "7.90%",
      "eventCurrency": "EUR",
      "eventForecast": ""
    },
    {
      "eventDateTime": "2006-04-01T09:00:00",
      "eventActual": "0.50%",
      "eventCountry": "Euro Zone",
      "eventExpectedVolatility": "Low",
      "eventName": "PPI (MoM) (Mar)",
      "eventTimeZone": "GMT",
      "eventPrevious": "0.50%",
      "eventCurrency": "EUR",
      "eventForecast": ""
    },
    {
      "eventDateTime": "2006-04-01T09:00:00",
      "eventActual": "5.40%",
      "eventCountry": "Euro Zone",
      "eventExpectedVolatility": "Low",
      "eventName": "PPI (YoY) (Mar)",
      "eventTimeZone": "GMT",
      "eventPrevious": "5.60%",
      "eventCurrency": "EUR",
      "eventForecast": ""
    },
    {
      "eventDateTime": "2006-04-01T09:00:00",
      "eventActual": "10.80%",
      "eventCountry": "Euro Zone",
      "eventExpectedVolatility": "Low",
      "eventName": "Private Sector Loans (YoY) (Mar)",
      "eventTimeZone": "GMT",
      "eventPrevious": "10.40%",
      "eventCurrency": "EUR",
      "eventForecast": ""
    },
    {
      "eventDateTime": "2006-04-01T09:00:00",
      "eventActual": "-0.20%",
      "eventCountry": "Euro Zone",
      "eventExpectedVolatility": "Moderate",
      "eventName": "Retail Sales (MoM) (Mar)",
      "eventTimeZone": "GMT",
      "eventPrevious": "0.60%",
      "eventCurrency": "EUR",
      "eventForecast": ""
    },
    {
      "eventDateTime": "2006-04-01T09:00:00",
      "eventActual": "1.20%",
      "eventCountry": "Euro Zone",
      "eventExpectedVolatility": "Low",
      "eventName": "Retail Sales (YoY) (Mar)",
      "eventTimeZone": "GMT",
      "eventPrevious": "1.90%",
      "eventCurrency": "EUR",
      "eventForecast": ""
    },
    {
      "eventDateTime": "2006-04-01T09:00:00",
      "eventActual": "7.40",
      "eventCountry": "Euro Zone",
      "eventExpectedVolatility": "Low",
      "eventName": "Selling Price Expectations (Mar)",
      "eventTimeZone": "GMT",
      "eventPrevious": "7.60",
      "eventCurrency": "EUR",
      "eventForecast": ""
    },
    {
      "eventDateTime": "2006-04-01T09:00:00",
      "eventActual": "26.30",
      "eventCountry": "Euro Zone",
      "eventExpectedVolatility": "Low",
      "eventName": "Sentix Investor Confidence (Mar)",
      "eventTimeZone": "GMT",
      "eventPrevious": "32.70",
      "eventCurrency": "EUR",
      "eventForecast": ""
    },
    {
      "eventDateTime": "2006-04-01T09:00:00",
      "eventActual": "12.70",
      "eventCountry": "Euro Zone",
      "eventExpectedVolatility": "Low",
      "eventName": "Services Sentiment (Mar)",
      "eventTimeZone": "GMT",
      "eventPrevious": "10.80",
      "eventCurrency": "EUR",
      "eventForecast": ""
    },
    {
      "eventDateTime": "2006-04-01T09:00:00",
      "eventActual": "0.70%",
      "eventCountry": "Spain",
      "eventExpectedVolatility": "Low",
      "eventName": "Spanish CPI (MoM) (Mar)",
      "eventTimeZone": "GMT",
      "eventPrevious": "0.00%",
      "eventCurrency": "EUR",
      "eventForecast": ""
    },
    {
      "eventDateTime": "2006-04-01T09:00:00",
      "eventActual": "3.90%",
      "eventCountry": "Spain",
      "eventExpectedVolatility": "Moderate",
      "eventName": "Spanish CPI (YoY) (Mar)",
      "eventTimeZone": "GMT",
      "eventPrevious": "4.00%",
      "eventCurrency": "EUR",
      "eventForecast": ""
    },
    {
      "eventDateTime": "2006-04-01T09:00:00",
      "eventActual": "-8.37B",
      "eventCountry": "Spain",
      "eventExpectedVolatility": "Low",
      "eventName": "Spanish Current account (Mar)",
      "eventTimeZone": "GMT",
      "eventPrevious": "-8.98B",
      "eventCurrency": "EUR",
      "eventForecast": ""
    },
    {
      "eventDateTime": "2006-04-01T09:00:00",
      "eventActual": "0.70%",
      "eventCountry": "Spain",
      "eventExpectedVolatility": "Low",
      "eventName": "Spanish HICP (MoM) (Mar)",
      "eventTimeZone": "GMT",
      "eventPrevious": "0.10%",
      "eventCurrency": "EUR",
      "eventForecast": ""
    },
    {
      "eventDateTime": "2006-04-01T09:00:00",
      "eventActual": "3.90%",
      "eventCountry": "Spain",
      "eventExpectedVolatility": "Moderate",
      "eventName": "Spanish HICP (YoY) (Mar)",
      "eventTimeZone": "GMT",
      "eventPrevious": "4.10%",
      "eventCurrency": "EUR",
      "eventForecast": ""
    },
    {
      "eventDateTime": "2006-04-01T09:00:00",
      "eventActual": "3.50%",
      "eventCountry": "Spain",
      "eventExpectedVolatility": "Low",
      "eventName": "Spanish Industrial Production (YoY) (Mar)",
      "eventTimeZone": "GMT",
      "eventPrevious": "4.10%",
      "eventCurrency": "EUR",
      "eventForecast": ""
    },
    {
      "eventDateTime": "2006-04-01T09:00:00",
      "eventActual": "1.20%",
      "eventCountry": "Spain",
      "eventExpectedVolatility": "Low",
      "eventName": "Spanish Retail Sales (YoY) (Mar)",
      "eventTimeZone": "GMT",
      "eventPrevious": "0.70%",
      "eventCurrency": "EUR",
      "eventForecast": ""
    },
    {
      "eventDateTime": "2006-04-01T09:00:00",
      "eventActual": "-1.40B",
      "eventCountry": "Euro Zone",
      "eventExpectedVolatility": "Moderate",
      "eventName": "Trade Balance (Mar)",
      "eventTimeZone": "GMT",
      "eventPrevious": "-4.40B",
      "eventCurrency": "EUR",
      "eventForecast": ""
    },
    {
      "eventDateTime": "2006-04-01T09:00:00",
      "eventActual": "8.70%",
      "eventCountry": "Euro Zone",
      "eventExpectedVolatility": "Moderate",
      "eventName": "Unemployment Rate (Mar)",
      "eventTimeZone": "GMT",
      "eventPrevious": "8.80%",
      "eventCurrency": "EUR",
      "eventForecast": ""
    }
  ]}}
