{"events": {"event": {
    "eventDateTime": "2019-05-01T22:45:00",
    "eventActual": "-6.9%",
    "eventCountry": "New Zealand",
    "eventExpectedVolatility": "Moderate",
    "eventName": "Building Consents (MoM) (Mar)",
    "eventTimeZone": "GMT",
    "eventPrevious": "1.7%",
    "eventCurrency": "NZD",
    "eventForecast": "-1.6%"
  }}}
