{"events": {"event": [
    {
      "eventDateTime": "2017-01-12T04:30:00",
      "eventActual": "",
      "eventCountry": "India",
      "eventExpectedVolatility": "Low",
      "eventName": "RBI Foreign Exchange Reserves Report",
      "eventTimeZone": "GMT",
      "eventPrevious": "",
      "eventCurrency": "INR",
      "eventForecast": ""
    },
    {
      "eventDateTime": "2017-01-12T12:00:00",
      "eventActual": "3.41%",
      "eventCountry": "India",
      "eventExpectedVolatility": "Moderate",
      "eventName": "CPI (YoY) (Dec)",
      "eventTimeZone": "GMT",
      "eventPrevious": "3.63%",
      "eventCurrency": "INR",
      "eventForecast": "3.57%"
    },
    {
      "eventDateTime": "2017-01-12T12:00:00",
      "eventActual": "0.40%",
      "eventCountry": "India",
      "eventExpectedVolatility": "Low",
      "eventName": "Cumulative Industrial Production (Nov)",
      "eventTimeZone": "GMT",
      "eventPrevious": "-0.30%",
      "eventCurrency": "INR",
      "eventForecast": ""
    },
    {
      "eventDateTime": "2017-01-12T12:00:00",
      "eventActual": "5.7%",
      "eventCountry": "India",
      "eventExpectedVolatility": "Low",
      "eventName": "Industrial Production (YoY) (Nov)",
      "eventTimeZone": "GMT",
      "eventPrevious": "-1.9%",
      "eventCurrency": "INR",
      "eventForecast": "1.3%"
    },
    {
      "eventDateTime": "2017-01-12T12:00:00",
      "eventActual": "5.5%",
      "eventCountry": "India",
      "eventExpectedVolatility": "Low",
      "eventName": "Manufacturing Output (MoM) (Nov)",
      "eventTimeZone": "GMT",
      "eventPrevious": "-2.4%",
      "eventCurrency": "INR",
      "eventForecast": ""
    }
  ]}}
