"Capacity Utilization (MoM) (Jun)";"Japan";"JPY";"2012-07-01T09:00:00";"GMT";"-1.50%";"";"-2.10%";"Low"
"Coincident Indicator (MoM) (Jun)";"Japan";"JPY";"2012-07-01T09:00:00";"GMT";"-0.90%";"";"-1.70%";"Low"
"Construction Orders (YoY) (Jun)";"Japan";"JPY";"2012-07-01T09:00:00";"GMT";"-0.90%";"";"4.60%";"Low"
"Core Machinery Orders (YoY) (Jun)";"Japan";"JPY";"2012-07-01T09:00:00";"GMT";"1.00%";"";"-9.90%";"Low"
"Current Account n.s.a. (Jun)";"Japan";"JPY";"2012-07-01T09:00:00";"GMT";"0.35T";"";"0.41T";"Moderate"
"Exports (YoY) (Jun)";"Japan";"JPY";"2012-07-01T09:00:00";"GMT";"10.00%";"";"-2.30%";"Moderate"
"Foreign Bonds Buying (Jun)";"Japan";"JPY";"2012-07-01T09:00:00";"GMT";"7,967.90B";"";"11,167.00B";"Low"
"Foreign Investments in Japanese Stocks (Jun)";"Japan";"JPY";"2012-07-01T09:00:00";"GMT";"-3,103.90B";"";"-716.40B";"Low"
"Foreign Reserves (USD) (Jun)";"Japan";"JPY";"2012-07-01T09:00:00";"GMT";"1,277.72B";"";"1,270.55B";"Low"
"Household Spending (MoM) (Jun)";"Japan";"JPY";"2012-07-01T09:00:00";"GMT";"0.50%";"";"-0.20%";"Moderate"
"Imports (YoY) (Jun)";"Japan";"JPY";"2012-07-01T09:00:00";"GMT";"9.30%";"";"-2.20%";"Low"
"Industrial Production forecast 1m ahead (MoM) (Jun)";"Japan";"JPY";"2012-07-01T09:00:00";"GMT";"-0.60%";"";"0.30%";"Low"
"Industrial Production forecast 2m ahead (MoM) (Jun)";"Japan";"JPY";"2012-07-01T09:00:00";"GMT";"-2.40%";"";"-0.20%";"Low"
"Jobs/applications ratio (Jun)";"Japan";"JPY";"2012-07-01T09:00:00";"GMT";"0.80";"";"0.80";"Moderate"
"Leading Index (MoM) (Jun)";"Japan";"JPY";"2012-07-01T09:00:00";"GMT";"-0.40%";"";"-1.20%";"Low"
"National CPI (YoY) (Jun)";"Japan";"JPY";"2012-07-01T09:00:00";"GMT";"0.20%";"";"-0.20%";"Low"
"Overtime Pay (YoY) (Jun)";"Japan";"JPY";"2012-07-01T09:00:00";"GMT";"6.70%";"";"4.80%";"Low"
"PPI (MoM) (Jun)";"Japan";"JPY";"2012-07-01T09:00:00";"GMT";"-0.40%";"";"-0.60%";"Low"
"Reuters Tankan Index (Jun)";"Japan";"JPY";"2012-07-01T09:00:00";"GMT";"2.00";"";"-3.00";"Low"
"Tokyo CPI (YoY) (Jun)";"Japan";"JPY";"2012-07-01T09:00:00";"GMT";"-0.50%";"";"-0.60%";"Low"
"Trade Balance (Jun)";"Japan";"JPY";"2012-07-01T09:00:00";"GMT";"-907.90B";"";"56.10B";"Moderate"
"Tankan Large Manufacturers Index";"Japan";"JPY";"2012-07-01T23:50:00";"GMT";"-4";"-4";"-1";"High"
"Tankan Large Non-Manufacturers Index";"Japan";"JPY";"2012-07-01T23:50:00";"GMT";"5";"7";"8";"High"
