"CPI (MoM) (Jul)";"South Korea";"KRW";"2005-08-01T09:00:00";"GMT";"-0.30%";"";"0.40%";"Low"
"CPI (YoY) (Jul)";"South Korea";"KRW";"2005-08-01T09:00:00";"GMT";"2.80%";"";"2.60%";"Moderate"
"Current Account (Jul)";"South Korea";"KRW";"2005-08-01T09:00:00";"GMT";"0.98B";"";"0.54B";"Low"
"Export Price Index (YoY) (Jul)";"South Korea";"KRW";"2005-08-01T09:00:00";"GMT";"-8.00%";"";"-7.10%";"Low"
"Exports (YoY) (Jul)";"South Korea";"KRW";"2005-08-01T09:00:00";"GMT";"9.50%";"";"10.60%";"Low"
"FX Reserves - USD (Jul)";"South Korea";"KRW";"2005-08-01T09:00:00";"GMT";"204.99B";"";"205.68B";"Low"
"Import Price Index (YoY) (Jul)";"South Korea";"KRW";"2005-08-01T09:00:00";"GMT";"1.90%";"";"3.00%";"Low"
"Imports (YoY) (Jul)";"South Korea";"KRW";"2005-08-01T09:00:00";"GMT";"14.80%";"";"17.00%";"Low"
"Industrial Production (MoM) (Jul)";"South Korea";"KRW";"2005-08-01T09:00:00";"GMT";"1.00%";"";"0.70%";"Low"
"Industrial Production (YoY) (Jul)";"South Korea";"KRW";"2005-08-01T09:00:00";"GMT";"4.30%";"";"7.90%";"Low"
"Interest Rate Decision (Jul)";"South Korea";"KRW";"2005-08-01T09:00:00";"GMT";"3.25%";"";"3.25%";"Low"
"M2 Money supply (Jul)";"South Korea";"KRW";"2005-08-01T09:00:00";"GMT";"8.10%";"";"8.70%";"Low"
"Manufacturing BSI Index (Jul)";"South Korea";"KRW";"2005-08-01T09:00:00";"GMT";"88.00";"";"89.00";"Low"
"PPI (MoM) (Jul)";"South Korea";"KRW";"2005-08-01T09:00:00";"GMT";"-0.50%";"";"0.60%";"Low"
"PPI (YoY) (Jul)";"South Korea";"KRW";"2005-08-01T09:00:00";"GMT";"1.50%";"";"1.70%";"Low"
"Service Sector Output (MoM) (Jul)";"South Korea";"KRW";"2005-08-01T09:00:00";"GMT";"1.40%";"";"-0.10%";"Low"
"Trade Balance (Jul)";"South Korea";"KRW";"2005-08-01T09:00:00";"GMT";"2.42B";"";"0.00B";"Low"
"Unemployment Rate (Jul)";"South Korea";"KRW";"2005-08-01T09:00:00";"GMT";"3.80%";"";"3.80%";"Low"
