"FX Reserves (USD)";"China";"CNY";"2015-01-15T02:05:00";"GMT";"3.99T";"3.90T";"3.84T";"Low"
"M2 Money Stock (YoY)";"China";"CNY";"2015-01-15T02:05:00";"GMT";"12.3%";"12.5%";"12.2%";"Low"
"New Loans";"China";"CNY";"2015-01-15T02:05:00";"GMT";"852.7B";"885.0B";"697.3B";"Moderate"
"Outstanding Loan Growth (YoY)";"China";"CNY";"2015-01-15T02:05:00";"GMT";"13.4%";"13.8%";"13.6%";"Low"
