{"events": {"event": [
    {
      "eventDateTime": "2019-12-12T02:30:00",
      "eventActual": "2.3%",
      "eventCountry": "Singapore",
      "eventExpectedVolatility": "Low",
      "eventName": "Unemployment Rate (Q3)",
      "eventTimeZone": "GMT",
      "eventPrevious": "2.3%",
      "eventCurrency": "SGD",
      "eventForecast": ""
    },
    {
      "eventDateTime": "2019-12-12T05:00:00",
      "eventActual": "-2.2%",
      "eventCountry": "Singapore",
      "eventExpectedVolatility": "Low",
      "eventName": "Retail Sales (MoM) (Oct)",
      "eventTimeZone": "GMT",
      "eventPrevious": "2.0%",
      "eventCurrency": "SGD",
      "eventForecast": ""
    },
    {
      "eventDateTime": "2019-12-12T05:00:00",
      "eventActual": "-4.3%",
      "eventCountry": "Singapore",
      "eventExpectedVolatility": "Low",
      "eventName": "Retail Sales (YoY) (Oct)",
      "eventTimeZone": "GMT",
      "eventPrevious": "-2.1%",
      "eventCurrency": "SGD",
      "eventForecast": ""
    }
  ]}}
