"French Manufacturing PMI (Oct)";"France";"EUR";"2016-10-24T07:00:00";"GMT";"49.7";"50.0";"51.3";"Moderate"
"French Markit Composite PMI (Oct)";"France";"EUR";"2016-10-24T07:00:00";"GMT";"52.7";"52.2";"52.2";"Low"
"French Services PMI (Oct)";"France";"EUR";"2016-10-24T07:00:00";"GMT";"53.3";"53.0";"52.1";"Moderate"
"German Composite PMI (Oct)";"Germany";"EUR";"2016-10-24T07:30:00";"GMT";"52.8";"53.3";"55.1";"Low"
"German Manufacturing PMI (Oct)";"Germany";"EUR";"2016-10-24T07:30:00";"GMT";"54.3";"54.3";"55.1";"High"
"German Services PMI (Oct)";"Germany";"EUR";"2016-10-24T07:30:00";"GMT";"50.9";"51.5";"54.1";"Moderate"
"Italian Trade Balance Non-EU (Sep)";"Italy";"EUR";"2016-10-24T08:00:00";"GMT";"2.13B";"";"2.88B";"Low"
"Manufacturing PMI (Oct)";"Euro Zone";"EUR";"2016-10-24T08:00:00";"GMT";"52.6";"52.6";"53.3";"Moderate"
"Markit Composite PMI (Oct)";"Euro Zone";"EUR";"2016-10-24T08:00:00";"GMT";"52.6";"52.8";"53.7";"Moderate"
"Services PMI (Oct)";"Euro Zone";"EUR";"2016-10-24T08:00:00";"GMT";"52.2";"52.4";"53.5";"Moderate"
"French 12-Month BTF Auction";"France";"EUR";"2016-10-24T13:00:00";"GMT";"-0.616%";"";"-0.635%";"Low"
"French 3-Month BTF Auction";"France";"EUR";"2016-10-24T13:00:00";"GMT";"-0.685%";"";"-0.687%";"Low"
"French 6-Month BTF Auction";"France";"EUR";"2016-10-24T13:00:00";"GMT";"-0.660%";"";"-0.662%";"Low"
