"Investing.com Gold Index";"United States";"USD";"2015-09-28T05:30:00";"GMT";"48.3%";"";"56.0%";"Moderate"
"Investing.com Sandamp:P 500 Index";"United States";"USD";"2015-09-28T05:30:00";"GMT";"28.4%";"";"38.2%";"Moderate"
"FOMC Member Tarullo Speaks";"United States";"USD";"2015-09-28T09:15:00";"GMT";" ";"";"";"Moderate"
"Core PCE Price Index (MoM) (Aug)";"United States";"USD";"2015-09-28T12:30:00";"GMT";"0.1%";"0.1%";"0.1%";"Moderate"
"Core PCE Price Index (YoY) (Aug)";"United States";"USD";"2015-09-28T12:30:00";"GMT";"1.2%";"1.2%";"1.3%";"Moderate"
"FOMC Member Dudley Speaks";"United States";"USD";"2015-09-28T12:30:00";"GMT";" ";"";"";"Moderate"
"Personal Income (MoM) (Aug)";"United States";"USD";"2015-09-28T12:30:00";"GMT";"0.5%";"0.4%";"0.3%";"Low"
"Personal Spending (MoM) (Aug)";"United States";"USD";"2015-09-28T12:30:00";"GMT";"0.4%";"0.3%";"0.4%";"Moderate"
"Real Personal Consumption (MoM) (Aug)";"United States";"USD";"2015-09-28T12:30:00";"GMT";"0.3%";"";"0.4%";"Low"
"Pending Home Sales (MoM) (Aug)";"United States";"USD";"2015-09-28T14:00:00";"GMT";"0.5%";"0.4%";"-1.4%";"High"
"Pending Home Sales Index (Aug)";"United States";"USD";"2015-09-28T14:00:00";"GMT";"110.9";"";"109.4";"Low"
"Dallas Fed Mfg Business Index (Sep)";"United States";"USD";"2015-09-28T14:30:00";"GMT";"-15.8";"-9.5";"-9.5";"Low"
"3-Month Bill Auction";"United States";"USD";"2015-09-28T15:30:00";"GMT";"0.005%";"";"0.015%";"Low"
"6-Month Bill Auction";"United States";"USD";"2015-09-28T15:30:00";"GMT";"0.115%";"";"0.105%";"Low"
"Dallas Fed PCE (Aug)";"United States";"USD";"2015-09-28T17:00:00";"GMT";"1.40%";"";"1.70%";"Low"
"Chicago Fed President Evans Speaks";"United States";"USD";"2015-09-28T17:30:00";"GMT";" ";"";"";"Low"
"FOMC Member Williams Speaks";"United States";"USD";"2015-09-28T21:00:00";"GMT";" ";"";"";"Moderate"
