{"events": {"event": {
    "eventDateTime": "2014-09-19T19:30:00",
    "eventActual": "-11.4K",
    "eventCountry": "Switzerland",
    "eventExpectedVolatility": "Low",
    "eventName": "CFTC CHF speculative net positions",
    "eventTimeZone": "GMT",
    "eventPrevious": "-13.8K",
    "eventCurrency": "CHF",
    "eventForecast": ""
  }}}
