"German Exports (MoM) (Nov)";"Germany";"EUR";"2015-01-09T07:00:00";"GMT";"-0.5%";"-0.2%";"-2.1%";"Low"
"German Imports (MoM) (Nov)";"Germany";"EUR";"2015-01-09T07:00:00";"GMT";"-3.3%";"0.4%";"1.5%";"Low"
"German Industrial Production (MoM) (Nov)";"Germany";"EUR";"2015-01-09T07:00:00";"GMT";"0.6%";"0.4%";"-0.1%";"Moderate"
"German Trade Balance (Nov)";"Germany";"EUR";"2015-01-09T07:00:00";"GMT";"20.8B";"20.7B";"17.7B";"Moderate"
"French Exports (Nov)";"France";"EUR";"2015-01-09T07:45:00";"GMT";"36.9B";"";"37.2B";"Low"
"French Imports (Nov)";"France";"EUR";"2015-01-09T07:45:00";"GMT";"41.5B";"";"40.4B";"Low"
"French Industrial Production (MoM) (Nov)";"France";"EUR";"2015-01-09T07:45:00";"GMT";"-0.7%";"0.3%";"-0.3%";"Low"
"French Trade Balance (Nov)";"France";"EUR";"2015-01-09T07:45:00";"GMT";"-4.6B";"-4.5B";"-3.2B";"Low"
"Spanish Industrial Production (YoY) (Nov)";"Spain";"EUR";"2015-01-09T08:00:00";"GMT";"1.1%";"0.7%";"0.0%";"Low"
"Italian Public Deficit (Q3)";"Italy";"EUR";"2015-01-09T09:00:00";"GMT";"1.3%";"";"3.5%";"Low"
"Spanish Business Confidence";"Spain";"EUR";"2015-01-09T11:00:00";"GMT";"-5.6";"";"-6.9";"Low"
"CFTC EUR speculative net positions";"Euro Zone";"EUR";"2015-01-09T20:30:00";"GMT";"-152.2K";"";"-161.0K";"Moderate"
