"MBA Mortgage Applications (WoW)";"United States";"USD";"2012-09-26T11:00:00";"GMT";"-0.2%";"";"2.8%";"Low"
"New Home Sales";"United States";"USD";"2012-09-26T14:00:00";"GMT";"374K";"380K";"373K";"High"
"Crude Oil Inventories";"United States";"USD";"2012-09-26T14:30:00";"GMT";"8.534M";"0.920M";"-2.446M";"High"
"Gasoline Inventories";"United States";"USD";"2012-09-26T14:30:00";"GMT";"-1.407M";"0.150M";"-0.481M";"Low"
"Chicago Fed President Evans Speaks";"United States";"USD";"2012-09-26T16:15:00";"GMT";" ";"";"";"Low"
"5-Year Note Auction";"United States";"USD";"2012-09-26T17:00:00";"GMT";"0.708%";"";"0.647%";"Low"
