"CPI (MoM) (Jun)";"Russia";"RUB";"2015-07-06T13:00:00";"GMT";"0.4%";"0.3%";"0.2%";"Moderate"
"CPI (YoY) (Jun)";"Russia";"RUB";"2015-07-06T13:00:00";"GMT";"15.8%";"15.5%";"15.3%";"Moderate"
"CFTC RUB speculative positions";"Russia";"RUB";"2015-07-06T19:30:00";"GMT";"2.1K";"";"2.0K";"Moderate"
