{"events": {"event": [
    {
      "eventDateTime": "2018-07-05T08:30:00",
      "eventActual": "-6.7B",
      "eventCountry": "United Kingdom",
      "eventExpectedVolatility": "Low",
      "eventName": "Housing Equity Withdrawal (QoQ)",
      "eventTimeZone": "GMT",
      "eventPrevious": "-7.1B",
      "eventCurrency": "GBP",
      "eventForecast": "-7.3B"
    },
    {
      "eventDateTime": "2018-07-05T10:00:00",
      "eventActual": "",
      "eventCountry": "United Kingdom",
      "eventExpectedVolatility": "High",
      "eventName": "BoE Gov Carney Speaks",
      "eventTimeZone": "GMT",
      "eventPrevious": "",
      "eventCurrency": "GBP",
      "eventForecast": ""
    }
  ]}}
