{"events": {"event": [
    {
      "eventDateTime": "2012-09-12T08:30:00",
      "eventActual": "1.5%",
      "eventCountry": "United Kingdom",
      "eventExpectedVolatility": "High",
      "eventName": "Average Earnings Index +Bonus",
      "eventTimeZone": "GMT",
      "eventPrevious": "1.8%",
      "eventCurrency": "GBP",
      "eventForecast": "1.6%"
    },
    {
      "eventDateTime": "2012-09-12T08:30:00",
      "eventActual": "-15.0K",
      "eventCountry": "United Kingdom",
      "eventExpectedVolatility": "High",
      "eventName": "Claimant Count Change",
      "eventTimeZone": "GMT",
      "eventPrevious": "-13.6K",
      "eventCurrency": "GBP",
      "eventForecast": "0.5K"
    },
    {
      "eventDateTime": "2012-09-12T08:30:00",
      "eventActual": "8.1%",
      "eventCountry": "United Kingdom",
      "eventExpectedVolatility": "Moderate",
      "eventName": "Unemployment Rate",
      "eventTimeZone": "GMT",
      "eventPrevious": "8.0%",
      "eventCurrency": "GBP",
      "eventForecast": "8.0%"
    }
  ]}}
