{"events": {"event": [
    {
      "eventDateTime": "2016-03-11T13:30:00",
      "eventActual": "-0.4%",
      "eventCountry": "United States",
      "eventExpectedVolatility": "Moderate",
      "eventName": "Export Price Index (MoM) (Feb)",
      "eventTimeZone": "GMT",
      "eventPrevious": "-0.8%",
      "eventCurrency": "USD",
      "eventForecast": "-0.5%"
    },
    {
      "eventDateTime": "2016-03-11T13:30:00",
      "eventActual": "-0.3%",
      "eventCountry": "United States",
      "eventExpectedVolatility": "Moderate",
      "eventName": "Import Price Index (MoM) (Feb)",
      "eventTimeZone": "GMT",
      "eventPrevious": "-1.0%",
      "eventCurrency": "USD",
      "eventForecast": "-0.6%"
    },
    {
      "eventDateTime": "2016-03-11T18:05:00",
      "eventActual": "386",
      "eventCountry": "United States",
      "eventExpectedVolatility": "Moderate",
      "eventName": "U.S. Baker Hughes Oil Rig Count",
      "eventTimeZone": "GMT",
      "eventPrevious": "392",
      "eventCurrency": "USD",
      "eventForecast": ""
    },
    {
      "eventDateTime": "2016-03-11T20:30:00",
      "eventActual": "-2.9K",
      "eventCountry": "United States",
      "eventExpectedVolatility": "Low",
      "eventName": "CFTC Copper speculative net positions",
      "eventTimeZone": "GMT",
      "eventPrevious": "-24.6K",
      "eventCurrency": "USD",
      "eventForecast": ""
    },
    {
      "eventDateTime": "2016-03-11T20:30:00",
      "eventActual": "244.3K",
      "eventCountry": "United States",
      "eventExpectedVolatility": "Moderate",
      "eventName": "CFTC Crude Oil speculative net positions",
      "eventTimeZone": "GMT",
      "eventPrevious": "212.5K",
      "eventCurrency": "USD",
      "eventForecast": ""
    },
    {
      "eventDateTime": "2016-03-11T20:30:00",
      "eventActual": "174.8K",
      "eventCountry": "United States",
      "eventExpectedVolatility": "Moderate",
      "eventName": "CFTC Gold speculative net positions",
      "eventTimeZone": "GMT",
      "eventPrevious": "152.4K",
      "eventCurrency": "USD",
      "eventForecast": ""
    },
    {
      "eventDateTime": "2016-03-11T20:30:00",
      "eventActual": "-205.7K",
      "eventCountry": "United States",
      "eventExpectedVolatility": "Moderate",
      "eventName": "CFTC Sandamp:P 500 speculative net positions",
      "eventTimeZone": "GMT",
      "eventPrevious": "-191.4K",
      "eventCurrency": "USD",
      "eventForecast": ""
    },
    {
      "eventDateTime": "2016-03-11T20:30:00",
      "eventActual": "59.9K",
      "eventCountry": "United States",
      "eventExpectedVolatility": "Low",
      "eventName": "CFTC Silver speculative net positions",
      "eventTimeZone": "GMT",
      "eventPrevious": "55.5K",
      "eventCurrency": "USD",
      "eventForecast": ""
    }
  ]}}
