{"events": {"event": [
    {
      "eventDateTime": "2013-02-15T04:30:00",
      "eventActual": "2.4%",
      "eventCountry": "Japan",
      "eventExpectedVolatility": "Moderate",
      "eventName": "Industrial Production (MoM)",
      "eventTimeZone": "GMT",
      "eventPrevious": "2.5%",
      "eventCurrency": "JPY",
      "eventForecast": "2.5%"
    },
    {
      "eventDateTime": "2013-02-15T05:00:00",
      "eventActual": "",
      "eventCountry": "Japan",
      "eventExpectedVolatility": "Moderate",
      "eventName": "BoJ Monthly Report",
      "eventTimeZone": "GMT",
      "eventPrevious": "",
      "eventCurrency": "JPY",
      "eventForecast": ""
    },
    {
      "eventDateTime": "2013-02-15T20:30:00",
      "eventActual": "-61.3K",
      "eventCountry": "Japan",
      "eventExpectedVolatility": "Moderate",
      "eventName": "CFTC JPY speculative net positions",
      "eventTimeZone": "GMT",
      "eventPrevious": "-68.4K",
      "eventCurrency": "JPY",
      "eventForecast": ""
    }
  ]}}
