{"events": {"event": [
    {
      "eventDateTime": "2013-07-31T01:30:00",
      "eventActual": "0.4%",
      "eventCountry": "Australia",
      "eventExpectedVolatility": "Moderate",
      "eventName": "Private Sector Credit (MoM)",
      "eventTimeZone": "GMT",
      "eventPrevious": "0.3%",
      "eventCurrency": "AUD",
      "eventForecast": "0.3%"
    },
    {
      "eventDateTime": "2013-07-31T23:30:00",
      "eventActual": "42.0",
      "eventCountry": "Australia",
      "eventExpectedVolatility": "Moderate",
      "eventName": "AIG Manufacturing Index",
      "eventTimeZone": "GMT",
      "eventPrevious": "49.6",
      "eventCurrency": "AUD",
      "eventForecast": ""
    }
  ]}}
