"Spanish Services PMI";"Spain";"EUR";"2012-10-03T07:13:00";"GMT";"44.0";"42.5";"40.2";"Moderate"
"Italian Services PMI";"Italy";"EUR";"2012-10-03T07:45:00";"GMT";"44.0";"43.6";"44.5";"Moderate"
"French Markit Composite PMI";"France";"EUR";"2012-10-03T07:48:00";"GMT";"44.10";"";"43.20";"Low"
"French Services PMI";"France";"EUR";"2012-10-03T07:50:00";"GMT";"46.1";"46.1";"45.0";"Moderate"
"German Services PMI";"Germany";"EUR";"2012-10-03T07:55:00";"GMT";"50.6";"50.6";"49.7";"Moderate"
"Services PMI";"Euro Zone";"EUR";"2012-10-03T08:00:00";"GMT";"46.0";"46.0";"46.1";"Moderate"
"Retail Sales (MoM)";"Euro Zone";"EUR";"2012-10-03T09:00:00";"GMT";"0.1%";"-0.1%";"0.1%";"Moderate"
