"Continuing Jobless Claims";"United States";"USD";"2016-06-09T12:30:00";"GMT";"2,172K";"2,171K";"2,095K";"Low"
"Initial Jobless Claims";"United States";"USD";"2016-06-09T12:30:00";"GMT";"268K";"270K";"264K";"Moderate"
"Jobless Claims 4-Week Avg.";"United States";"USD";"2016-06-09T12:30:00";"GMT";"277.00K";"";"269.50K";"Low"
"Bloomberg Consumer Confidence";"United States";"USD";"2016-06-09T13:45:00";"GMT";"43.2";"";"43.2";"Low"
"Wholesale Inventories (MoM) (Apr)";"United States";"USD";"2016-06-09T14:00:00";"GMT";"0.2%";"0.1%";"0.6%";"Low"
"Natural Gas Storage";"United States";"USD";"2016-06-09T14:30:00";"GMT";"82B";"78B";"65B";"Low"
"30-Year Bond Auction";"United States";"USD";"2016-06-09T17:00:00";"GMT";"2.615%";"";"2.475%";"Low"
