"FOMC Member Tarullo Speaks";"United States";"USD";"2015-06-25T12:00:00";"GMT";" ";"";"";"Moderate"
"Continuing Jobless Claims";"United States";"USD";"2015-06-25T12:30:00";"GMT";"2,225K";"2,215K";"2,247K";"Low"
"Core PCE Price Index (MoM) (May)";"United States";"USD";"2015-06-25T12:30:00";"GMT";"0.1%";"0.1%";"0.1%";"Moderate"
"Core PCE Price Index (YoY) (May)";"United States";"USD";"2015-06-25T12:30:00";"GMT";"1.3%";"1.2%";"1.2%";"Moderate"
"Initial Jobless Claims";"United States";"USD";"2015-06-25T12:30:00";"GMT";"268K";"272K";"271K";"Moderate"
"Jobless Claims 4-Week Avg.";"United States";"USD";"2015-06-25T12:30:00";"GMT";"277.00K";"";"273.75K";"Low"
"Personal Income (MoM) (May)";"United States";"USD";"2015-06-25T12:30:00";"GMT";"0.5%";"0.5%";"0.5%";"Low"
"Personal Spending (MoM) (May)";"United States";"USD";"2015-06-25T12:30:00";"GMT";"0.1%";"0.7%";"0.9%";"Moderate"
"Real Personal Consumption (MoM) (May)";"United States";"USD";"2015-06-25T12:30:00";"GMT";"0.0%";"0.4%";"0.6%";"Low"
"Bloomberg Consumer Confidence";"United States";"USD";"2015-06-25T13:45:00";"GMT";"40.9";"";"42.6";"Low"
"FOMC Member Powell Speaks";"United States";"USD";"2015-06-25T13:45:00";"GMT";" ";"";"";"High"
"Services PMI (Jun)";"United States";"USD";"2015-06-25T13:45:00";"GMT";"56.2";"56.7";"54.8";"Moderate"
"Natural Gas Storage";"United States";"USD";"2015-06-25T14:30:00";"GMT";"89B";"77B";"75B";"Low"
"KC Fed Composite Index (Jun)";"United States";"USD";"2015-06-25T15:00:00";"GMT";"-13";"";"-9";"Low"
"KC Fed Manufacturing Index (Jun)";"United States";"USD";"2015-06-25T15:00:00";"GMT";"-13";"-10";"-21";"Low"
"7-Year Note Auction";"United States";"USD";"2015-06-25T17:00:00";"GMT";"1.888%";"";"2.120%";"Low"
"Dallas Fed PCE (May)";"United States";"USD";"2015-06-25T17:00:00";"GMT";"2.30%";"";"2.30%";"Low"
