{"events": {"event": [
    {
      "eventDateTime": "2015-06-17T23:30:00",
      "eventActual": "14",
      "eventCountry": "Japan",
      "eventExpectedVolatility": "Low",
      "eventName": "Reuters Tankan Index (Jun)",
      "eventTimeZone": "GMT",
      "eventPrevious": "13",
      "eventCurrency": "JPY",
      "eventForecast": ""
    },
    {
      "eventDateTime": "2015-06-17T23:50:00",
      "eventActual": "-1,850.6B",
      "eventCountry": "Japan",
      "eventExpectedVolatility": "Low",
      "eventName": "Foreign Bonds Buying",
      "eventTimeZone": "GMT",
      "eventPrevious": "-384.6B",
      "eventCurrency": "JPY",
      "eventForecast": ""
    },
    {
      "eventDateTime": "2015-06-17T23:50:00",
      "eventActual": "-413.2B",
      "eventCountry": "Japan",
      "eventExpectedVolatility": "Low",
      "eventName": "Foreign Investments in Japanese Stocks",
      "eventTimeZone": "GMT",
      "eventPrevious": "255.2B",
      "eventCurrency": "JPY",
      "eventForecast": ""
    }
  ]}}
