"CPI (MoM) (Sep)";"China";"CNY";"2009-10-01T09:00:00";"GMT";"0.50%";"";"0.40%";"Moderate"
"CPI (YoY) (Sep)";"China";"CNY";"2009-10-01T09:00:00";"GMT";"-1.20%";"";"-0.80%";"Moderate"
"Exports (YoY) (Sep)";"China";"CNY";"2009-10-01T09:00:00";"GMT";"-23.40%";"";"-15.30%";"Moderate"
"FDI (Sep)";"China";"CNY";"2009-10-01T09:00:00";"GMT";"-17.52%";"";"-14.26%";"Low"
"Fixed Asset Investment (YoY) (Sep)";"China";"CNY";"2009-10-01T09:00:00";"GMT";"33.00%";"";"33.30%";"Moderate"
"Imports (YoY) (Sep)";"China";"CNY";"2009-10-01T09:00:00";"GMT";"-17.00%";"";"-3.50%";"Moderate"
"Industrial Production (YoY) (Sep)";"China";"CNY";"2009-10-01T09:00:00";"GMT";"12.30%";"";"13.90%";"High"
"M2 Money Stock (YoY) (Sep)";"China";"CNY";"2009-10-01T09:00:00";"GMT";"28.50%";"";"29.30%";"Low"
"Manufacturing PMI (Sep)";"China";"CNY";"2009-10-01T09:00:00";"GMT";"54.00";"";"54.30";"High"
"New Loans (Sep)";"China";"CNY";"2009-10-01T09:00:00";"GMT";"410.40B";"";"516.70B";"Moderate"
"Non-Manufacturing PMI (Sep)";"China";"CNY";"2009-10-01T09:00:00";"GMT";"57.30";"";"57.90";"Moderate"
"Outstanding Loan Growth (YoY) (Sep)";"China";"CNY";"2009-10-01T09:00:00";"GMT";"34.10%";"";"34.20%";"Low"
"PBoC Deposit Rate (Sep)";"China";"CNY";"2009-10-01T09:00:00";"GMT";"2.25%";"";"2.25%";"Moderate"
"PBoC Reserve Requirement Ratio (Sep)";"China";"CNY";"2009-10-01T09:00:00";"GMT";"15.50%";"";"15.50%";"Moderate"
"PPI (YoY) (Sep)";"China";"CNY";"2009-10-01T09:00:00";"GMT";"-7.90%";"";"-7.00%";"Moderate"
"Retail Sales (YoY) (Sep)";"China";"CNY";"2009-10-01T09:00:00";"GMT";"15.40%";"";"15.50%";"Low"
"Trade Balance (USD) (Sep)";"China";"CNY";"2009-10-01T09:00:00";"GMT";"15.42B";"";"12.67B";"Moderate"
