{"events": {"event": {
    "eventDateTime": "2015-08-27T07:15:00",
    "eventActual": "-2.4%",
    "eventCountry": "Switzerland",
    "eventExpectedVolatility": "Low",
    "eventName": "Industrial orders (Q2)",
    "eventTimeZone": "GMT",
    "eventPrevious": "-4.8%",
    "eventCurrency": "CHF",
    "eventForecast": ""
  }}}
