{"events": {"event": {
    "eventDateTime": "2014-10-27T06:00:00",
    "eventActual": "55.4%",
    "eventCountry": "Switzerland",
    "eventExpectedVolatility": "Moderate",
    "eventName": "Investing.com USD/CHF Index",
    "eventTimeZone": "GMT",
    "eventPrevious": "58.7%",
    "eventCurrency": "CHF",
    "eventForecast": ""
  }}}
