"WPI Food (YoY) (Jun)";"India";"INR";"2018-07-16T06:30:00";"GMT";"1.60%";"";"1.80%";"Low"
"WPI Fuel (YoY) (Jun)";"India";"INR";"2018-07-16T06:30:00";"GMT";"11.22%";"";"16.18%";"Low"
"WPI Inflation (YoY) (Jun)";"India";"INR";"2018-07-16T06:30:00";"GMT";"4.43%";"4.93%";"5.77%";"Moderate"
"WPI Manufacturing Inflation (YoY) (Jun)";"India";"INR";"2018-07-16T06:30:00";"GMT";"3.73%";"";"4.17%";"Low"
