{"events": {"event": [
    {
      "eventDateTime": "2009-01-28T07:00:00",
      "eventActual": "2.2",
      "eventCountry": "Germany",
      "eventExpectedVolatility": "Moderate",
      "eventName": "GfK German Consumer Climate",
      "eventTimeZone": "GMT",
      "eventPrevious": "2.1",
      "eventCurrency": "EUR",
      "eventForecast": "2.0"
    },
    {
      "eventDateTime": "2009-01-28T08:00:00",
      "eventActual": "-0.5%",
      "eventCountry": "Germany",
      "eventExpectedVolatility": "Moderate",
      "eventName": "German CPI (MoM)",
      "eventTimeZone": "GMT",
      "eventPrevious": "0.3%",
      "eventCurrency": "EUR",
      "eventForecast": "-0.3%"
    }
  ]}}
