{"events": {"event": [
    {
      "eventDateTime": "2006-04-01T09:00:00",
      "eventActual": "51.00",
      "eventCountry": "Australia",
      "eventExpectedVolatility": "Low",
      "eventName": "AIG Construction Index (Mar)",
      "eventTimeZone": "GMT",
      "eventPrevious": "53.00",
      "eventCurrency": "AUD",
      "eventForecast": ""
    },
    {
      "eventDateTime": "2006-04-01T09:00:00",
      "eventActual": "52.91",
      "eventCountry": "Australia",
      "eventExpectedVolatility": "Moderate",
      "eventName": "AIG Manufacturing Index (Mar)",
      "eventTimeZone": "GMT",
      "eventPrevious": "48.33",
      "eventCurrency": "AUD",
      "eventForecast": ""
    },
    {
      "eventDateTime": "2006-04-01T09:00:00",
      "eventActual": "53.82",
      "eventCountry": "Australia",
      "eventExpectedVolatility": "Low",
      "eventName": "AIG Services Index (Mar)",
      "eventTimeZone": "GMT",
      "eventPrevious": "52.34",
      "eventCurrency": "AUD",
      "eventForecast": ""
    },
    {
      "eventDateTime": "2006-04-01T09:00:00",
      "eventActual": "2.90%",
      "eventCountry": "Australia",
      "eventExpectedVolatility": "Low",
      "eventName": "ANZ Internet Job Ads (MoM) (Mar)",
      "eventTimeZone": "GMT",
      "eventPrevious": "3.50%",
      "eventCurrency": "AUD",
      "eventForecast": ""
    },
    {
      "eventDateTime": "2006-04-01T09:00:00",
      "eventActual": "0.90%",
      "eventCountry": "Australia",
      "eventExpectedVolatility": "Low",
      "eventName": "ANZ Newspaper Job Ads (MoM) (Mar)",
      "eventTimeZone": "GMT",
      "eventPrevious": "0.40%",
      "eventCurrency": "AUD",
      "eventForecast": ""
    },
    {
      "eventDateTime": "2006-04-01T09:00:00",
      "eventActual": "2.60%",
      "eventCountry": "Australia",
      "eventExpectedVolatility": "Moderate",
      "eventName": "Building Approvals (MoM) (Mar)",
      "eventTimeZone": "GMT",
      "eventPrevious": "-0.70%",
      "eventCurrency": "AUD",
      "eventForecast": ""
    },
    {
      "eventDateTime": "2006-04-01T09:00:00",
      "eventActual": "42.10K",
      "eventCountry": "Australia",
      "eventExpectedVolatility": "High",
      "eventName": "Employment Change (Mar)",
      "eventTimeZone": "GMT",
      "eventPrevious": "38.20K",
      "eventCurrency": "AUD",
      "eventForecast": ""
    },
    {
      "eventDateTime": "2006-04-01T09:00:00",
      "eventActual": "-3.30%",
      "eventCountry": "Australia",
      "eventExpectedVolatility": "Low",
      "eventName": "Exports (MoM) (Mar)",
      "eventTimeZone": "GMT",
      "eventPrevious": "9.30%",
      "eventCurrency": "AUD",
      "eventForecast": ""
    },
    {
      "eventDateTime": "2006-04-01T09:00:00",
      "eventActual": "5.60K",
      "eventCountry": "Australia",
      "eventExpectedVolatility": "Moderate",
      "eventName": "Full Employment Change (Mar)",
      "eventTimeZone": "GMT",
      "eventPrevious": "3.40K",
      "eventCurrency": "AUD",
      "eventForecast": ""
    },
    {
      "eventDateTime": "2006-04-01T09:00:00",
      "eventActual": "5.20%",
      "eventCountry": "Australia",
      "eventExpectedVolatility": "Moderate",
      "eventName": "HIA New Home Sales (MoM) (Mar)",
      "eventTimeZone": "GMT",
      "eventPrevious": "3.20%",
      "eventCurrency": "AUD",
      "eventForecast": ""
    },
    {
      "eventDateTime": "2006-04-01T09:00:00",
      "eventActual": "0.90%",
      "eventCountry": "Australia",
      "eventExpectedVolatility": "Moderate",
      "eventName": "Home Loans (MoM) (Mar)",
      "eventTimeZone": "GMT",
      "eventPrevious": "2.20%",
      "eventCurrency": "AUD",
      "eventForecast": ""
    },
    {
      "eventDateTime": "2006-04-01T09:00:00",
      "eventActual": "0.90%",
      "eventCountry": "Australia",
      "eventExpectedVolatility": "Low",
      "eventName": "Housing Credit (Mar)",
      "eventTimeZone": "GMT",
      "eventPrevious": "1.10%",
      "eventCurrency": "AUD",
      "eventForecast": ""
    },
    {
      "eventDateTime": "2006-04-01T09:00:00",
      "eventActual": "0.90%",
      "eventCountry": "Australia",
      "eventExpectedVolatility": "Low",
      "eventName": "Imports (MoM) (Mar)",
      "eventTimeZone": "GMT",
      "eventPrevious": "-1.60%",
      "eventCurrency": "AUD",
      "eventForecast": ""
    },
    {
      "eventDateTime": "2006-04-01T09:00:00",
      "eventActual": "3.20%",
      "eventCountry": "Australia",
      "eventExpectedVolatility": "Low",
      "eventName": "Invest Housing Finance (MoM) (Mar)",
      "eventTimeZone": "GMT",
      "eventPrevious": "1.80%",
      "eventCurrency": "AUD",
      "eventForecast": ""
    },
    {
      "eventDateTime": "2006-04-01T09:00:00",
      "eventActual": "0.30%",
      "eventCountry": "Australia",
      "eventExpectedVolatility": "Low",
      "eventName": "MI Inflation Gauge (MoM) (Mar)",
      "eventTimeZone": "GMT",
      "eventPrevious": "0.00%",
      "eventCurrency": "AUD",
      "eventForecast": ""
    },
    {
      "eventDateTime": "2006-04-01T09:00:00",
      "eventActual": "15.00",
      "eventCountry": "Australia",
      "eventExpectedVolatility": "Moderate",
      "eventName": "NAB Business Confidence (Mar)",
      "eventTimeZone": "GMT",
      "eventPrevious": "12.00",
      "eventCurrency": "AUD",
      "eventForecast": ""
    },
    {
      "eventDateTime": "2006-04-01T09:00:00",
      "eventActual": "19.90",
      "eventCountry": "Australia",
      "eventExpectedVolatility": "Low",
      "eventName": "NAB Business Survey (Mar)",
      "eventTimeZone": "GMT",
      "eventPrevious": "9.50",
      "eventCurrency": "AUD",
      "eventForecast": ""
    },
    {
      "eventDateTime": "2006-04-01T09:00:00",
      "eventActual": "64.50%",
      "eventCountry": "Australia",
      "eventExpectedVolatility": "Low",
      "eventName": "Participation Rate (Mar)",
      "eventTimeZone": "GMT",
      "eventPrevious": "64.50%",
      "eventCurrency": "AUD",
      "eventForecast": ""
    },
    {
      "eventDateTime": "2006-04-01T09:00:00",
      "eventActual": "-3.20%",
      "eventCountry": "Australia",
      "eventExpectedVolatility": "Low",
      "eventName": "Private House Approvals (Mar)",
      "eventTimeZone": "GMT",
      "eventPrevious": "2.20%",
      "eventCurrency": "AUD",
      "eventForecast": ""
    },
    {
      "eventDateTime": "2006-04-01T09:00:00",
      "eventActual": "0.80%",
      "eventCountry": "Australia",
      "eventExpectedVolatility": "Moderate",
      "eventName": "Private Sector Credit (MoM) (Mar)",
      "eventTimeZone": "GMT",
      "eventPrevious": "1.30%",
      "eventCurrency": "AUD",
      "eventForecast": ""
    },
    {
      "eventDateTime": "2006-04-01T09:00:00",
      "eventActual": "5.50%",
      "eventCountry": "Australia",
      "eventExpectedVolatility": "High",
      "eventName": "RBA Interest Rate Decision (Mar)",
      "eventTimeZone": "GMT",
      "eventPrevious": "5.50%",
      "eventCurrency": "AUD",
      "eventForecast": ""
    },
    {
      "eventDateTime": "2006-04-01T09:00:00",
      "eventActual": "0.50%",
      "eventCountry": "Australia",
      "eventExpectedVolatility": "High",
      "eventName": "Retail Sales (MoM) (Mar)",
      "eventTimeZone": "GMT",
      "eventPrevious": "0.90%",
      "eventCurrency": "AUD",
      "eventForecast": ""
    },
    {
      "eventDateTime": "2006-04-01T09:00:00",
      "eventActual": "-1.44B",
      "eventCountry": "Australia",
      "eventExpectedVolatility": "Moderate",
      "eventName": "Trade Balance (Mar)",
      "eventTimeZone": "GMT",
      "eventPrevious": "-0.73B",
      "eventCurrency": "AUD",
      "eventForecast": ""
    },
    {
      "eventDateTime": "2006-04-01T09:00:00",
      "eventActual": "4.90%",
      "eventCountry": "Australia",
      "eventExpectedVolatility": "Moderate",
      "eventName": "Unemployment Rate (Mar)",
      "eventTimeZone": "GMT",
      "eventPrevious": "5.10%",
      "eventCurrency": "AUD",
      "eventForecast": ""
    },
    {
      "eventDateTime": "2006-04-01T09:00:00",
      "eventActual": "3.40%",
      "eventCountry": "Australia",
      "eventExpectedVolatility": "Moderate",
      "eventName": "Westpac Consumer Sentiment (Mar)",
      "eventTimeZone": "GMT",
      "eventPrevious": "1.60%",
      "eventCurrency": "AUD",
      "eventForecast": ""
    }
  ]}}
