{"events": {"event": [
    {
      "eventDateTime": "2019-05-09T07:00:00",
      "eventActual": "-3.1%",
      "eventCountry": "Spain",
      "eventExpectedVolatility": "Low",
      "eventName": "Spanish Industrial Production (YoY) (Mar)",
      "eventTimeZone": "GMT",
      "eventPrevious": "-0.2%",
      "eventCurrency": "EUR",
      "eventForecast": "-1.3%"
    },
    {
      "eventDateTime": "2019-05-09T08:40:00",
      "eventActual": "0.936%",
      "eventCountry": "Spain",
      "eventExpectedVolatility": "Moderate",
      "eventName": "Spanish 10-Year Obligacion Auction",
      "eventTimeZone": "GMT",
      "eventPrevious": "1.121%",
      "eventCurrency": "EUR",
      "eventForecast": ""
    },
    {
      "eventDateTime": "2019-05-09T08:40:00",
      "eventActual": "0.089%",
      "eventCountry": "Spain",
      "eventExpectedVolatility": "Low",
      "eventName": "Spanish 5-Year Bonos Auction",
      "eventTimeZone": "GMT",
      "eventPrevious": "0.171%",
      "eventCurrency": "EUR",
      "eventForecast": ""
    }
  ]}}
