{"events": {"event": [
    {
      "eventDateTime": "2002-01-01T09:00:00",
      "eventActual": "-4.30%",
      "eventCountry": "Japan",
      "eventExpectedVolatility": "Low",
      "eventName": "Bank Lending (YoY) (Dec)",
      "eventTimeZone": "GMT",
      "eventPrevious": "-4.30%",
      "eventCurrency": "JPY",
      "eventForecast": ""
    },
    {
      "eventDateTime": "2002-01-01T09:00:00",
      "eventActual": "0.00%",
      "eventCountry": "Japan",
      "eventExpectedVolatility": "Low",
      "eventName": "Capacity Utilization (MoM) (Dec)",
      "eventTimeZone": "GMT",
      "eventPrevious": "-0.90%",
      "eventCurrency": "JPY",
      "eventForecast": ""
    },
    {
      "eventDateTime": "2002-01-01T09:00:00",
      "eventActual": "0.00%",
      "eventCountry": "Japan",
      "eventExpectedVolatility": "Low",
      "eventName": "Coincident Indicator (MoM) (Dec)",
      "eventTimeZone": "GMT",
      "eventPrevious": "-1.00%",
      "eventCurrency": "JPY",
      "eventForecast": ""
    },
    {
      "eventDateTime": "2002-01-01T09:00:00",
      "eventActual": "-7.30%",
      "eventCountry": "Japan",
      "eventExpectedVolatility": "Low",
      "eventName": "Construction Orders (YoY) (Dec)",
      "eventTimeZone": "GMT",
      "eventPrevious": "-6.90%",
      "eventCurrency": "JPY",
      "eventForecast": ""
    },
    {
      "eventDateTime": "2002-01-01T09:00:00",
      "eventActual": "-0.10%",
      "eventCountry": "Japan",
      "eventExpectedVolatility": "Low",
      "eventName": "Core Machinery Orders (MoM) (Dec)",
      "eventTimeZone": "GMT",
      "eventPrevious": "14.70%",
      "eventCurrency": "JPY",
      "eventForecast": ""
    },
    {
      "eventDateTime": "2002-01-01T09:00:00",
      "eventActual": "-11.40%",
      "eventCountry": "Japan",
      "eventExpectedVolatility": "Low",
      "eventName": "Core Machinery Orders (YoY) (Dec)",
      "eventTimeZone": "GMT",
      "eventPrevious": "-12.10%",
      "eventCurrency": "JPY",
      "eventForecast": ""
    },
    {
      "eventDateTime": "2002-01-01T09:00:00",
      "eventActual": "0.83T",
      "eventCountry": "Japan",
      "eventExpectedVolatility": "Moderate",
      "eventName": "Current Account n.s.a. (Dec)",
      "eventTimeZone": "GMT",
      "eventPrevious": "0.99T",
      "eventCurrency": "JPY",
      "eventForecast": ""
    },
    {
      "eventDateTime": "2002-01-01T09:00:00",
      "eventActual": "31.60",
      "eventCountry": "Japan",
      "eventExpectedVolatility": "Low",
      "eventName": "Economy Watchers Current Index (Dec)",
      "eventTimeZone": "GMT",
      "eventPrevious": "29.60",
      "eventCurrency": "JPY",
      "eventForecast": ""
    },
    {
      "eventDateTime": "2002-01-01T09:00:00",
      "eventActual": "-14.50%",
      "eventCountry": "Japan",
      "eventExpectedVolatility": "Moderate",
      "eventName": "Exports (YoY) (Dec)",
      "eventTimeZone": "GMT",
      "eventPrevious": "-9.20%",
      "eventCurrency": "JPY",
      "eventForecast": ""
    },
    {
      "eventDateTime": "2002-01-01T09:00:00",
      "eventActual": "401.96B",
      "eventCountry": "Japan",
      "eventExpectedVolatility": "Low",
      "eventName": "Foreign Reserves (USD) (Dec)",
      "eventTimeZone": "GMT",
      "eventPrevious": "403.88B",
      "eventCurrency": "JPY",
      "eventForecast": ""
    },
    {
      "eventDateTime": "2002-01-01T09:00:00",
      "eventActual": "34.10",
      "eventCountry": "Japan",
      "eventExpectedVolatility": "Low",
      "eventName": "Household Confidence (Dec)",
      "eventTimeZone": "GMT",
      "eventPrevious": "34.10",
      "eventCurrency": "JPY",
      "eventForecast": ""
    },
    {
      "eventDateTime": "2002-01-01T09:00:00",
      "eventActual": "-0.90%",
      "eventCountry": "Japan",
      "eventExpectedVolatility": "Moderate",
      "eventName": "Household Spending (MoM) (Dec)",
      "eventTimeZone": "GMT",
      "eventPrevious": "1.20%",
      "eventCurrency": "JPY",
      "eventForecast": ""
    },
    {
      "eventDateTime": "2002-01-01T09:00:00",
      "eventActual": "-6.60%",
      "eventCountry": "Japan",
      "eventExpectedVolatility": "Moderate",
      "eventName": "Household Spending (YoY) (Dec)",
      "eventTimeZone": "GMT",
      "eventPrevious": "0.60%",
      "eventCurrency": "JPY",
      "eventForecast": ""
    },
    {
      "eventDateTime": "2002-01-01T09:00:00",
      "eventActual": "-12.90%",
      "eventCountry": "Japan",
      "eventExpectedVolatility": "Low",
      "eventName": "Housing Starts (YoY) (Dec)",
      "eventTimeZone": "GMT",
      "eventPrevious": "-1.20%",
      "eventCurrency": "JPY",
      "eventForecast": ""
    },
    {
      "eventDateTime": "2002-01-01T09:00:00",
      "eventActual": "-13.40%",
      "eventCountry": "Japan",
      "eventExpectedVolatility": "Low",
      "eventName": "Imports (YoY) (Dec)",
      "eventTimeZone": "GMT",
      "eventPrevious": "-7.90%",
      "eventCurrency": "JPY",
      "eventForecast": ""
    },
    {
      "eventDateTime": "2002-01-01T09:00:00",
      "eventActual": "1.10%",
      "eventCountry": "Japan",
      "eventExpectedVolatility": "Moderate",
      "eventName": "Industrial Production (MoM) (Dec)",
      "eventTimeZone": "GMT",
      "eventPrevious": "-1.70%",
      "eventCurrency": "JPY",
      "eventForecast": ""
    },
    {
      "eventDateTime": "2002-01-01T09:00:00",
      "eventActual": "0.51",
      "eventCountry": "Japan",
      "eventExpectedVolatility": "Moderate",
      "eventName": "Jobs/applications ratio (Dec)",
      "eventTimeZone": "GMT",
      "eventPrevious": "0.52",
      "eventCurrency": "JPY",
      "eventForecast": ""
    },
    {
      "eventDateTime": "2002-01-01T09:00:00",
      "eventActual": "-0.10%",
      "eventCountry": "Japan",
      "eventExpectedVolatility": "Low",
      "eventName": "Leading Index (MoM) (Dec)",
      "eventTimeZone": "GMT",
      "eventPrevious": "0.70%",
      "eventCurrency": "JPY",
      "eventForecast": ""
    },
    {
      "eventDateTime": "2002-01-01T09:00:00",
      "eventActual": "-1.20%",
      "eventCountry": "Japan",
      "eventExpectedVolatility": "Low",
      "eventName": "National CPI (YoY) (Dec)",
      "eventTimeZone": "GMT",
      "eventPrevious": "-1.00%",
      "eventCurrency": "JPY",
      "eventForecast": ""
    },
    {
      "eventDateTime": "2002-01-01T09:00:00",
      "eventActual": "-0.90%",
      "eventCountry": "Japan",
      "eventExpectedVolatility": "Moderate",
      "eventName": "National Core CPI (YoY) (Dec)",
      "eventTimeZone": "GMT",
      "eventPrevious": "-0.80%",
      "eventCurrency": "JPY",
      "eventForecast": ""
    },
    {
      "eventDateTime": "2002-01-01T09:00:00",
      "eventActual": "-9.50%",
      "eventCountry": "Japan",
      "eventExpectedVolatility": "Low",
      "eventName": "Overtime Pay (YoY) (Dec)",
      "eventTimeZone": "GMT",
      "eventPrevious": "-9.80%",
      "eventCurrency": "JPY",
      "eventForecast": ""
    },
    {
      "eventDateTime": "2002-01-01T09:00:00",
      "eventActual": "-0.10%",
      "eventCountry": "Japan",
      "eventExpectedVolatility": "Low",
      "eventName": "PPI (MoM) (Dec)",
      "eventTimeZone": "GMT",
      "eventPrevious": "-0.10%",
      "eventCurrency": "JPY",
      "eventForecast": ""
    },
    {
      "eventDateTime": "2002-01-01T09:00:00",
      "eventActual": "-2.70%",
      "eventCountry": "Japan",
      "eventExpectedVolatility": "Low",
      "eventName": "PPI (YoY) (Dec)",
      "eventTimeZone": "GMT",
      "eventPrevious": "-2.60%",
      "eventCurrency": "JPY",
      "eventForecast": ""
    },
    {
      "eventDateTime": "2002-01-01T09:00:00",
      "eventActual": "-5.20%",
      "eventCountry": "Japan",
      "eventExpectedVolatility": "Moderate",
      "eventName": "Retail Sales (YoY) (Dec)",
      "eventTimeZone": "GMT",
      "eventPrevious": "-2.40%",
      "eventCurrency": "JPY",
      "eventForecast": ""
    },
    {
      "eventDateTime": "2002-01-01T09:00:00",
      "eventActual": "-56.00",
      "eventCountry": "Japan",
      "eventExpectedVolatility": "Low",
      "eventName": "Reuters Tankan Index (Dec)",
      "eventTimeZone": "GMT",
      "eventPrevious": "-51.00",
      "eventCurrency": "JPY",
      "eventForecast": ""
    },
    {
      "eventDateTime": "2002-01-01T09:00:00",
      "eventActual": "-1.40%",
      "eventCountry": "Japan",
      "eventExpectedVolatility": "Low",
      "eventName": "Tokyo CPI (YoY) (Dec)",
      "eventTimeZone": "GMT",
      "eventPrevious": "-1.30%",
      "eventCurrency": "JPY",
      "eventForecast": ""
    },
    {
      "eventDateTime": "2002-01-01T09:00:00",
      "eventActual": "-1.00%",
      "eventCountry": "Japan",
      "eventExpectedVolatility": "Moderate",
      "eventName": "Tokyo Core CPI (YoY) (Dec)",
      "eventTimeZone": "GMT",
      "eventPrevious": "-1.00%",
      "eventCurrency": "JPY",
      "eventForecast": ""
    },
    {
      "eventDateTime": "2002-01-01T09:00:00",
      "eventActual": "659.40B",
      "eventCountry": "Japan",
      "eventExpectedVolatility": "Moderate",
      "eventName": "Trade Balance (Dec)",
      "eventTimeZone": "GMT",
      "eventPrevious": "492.20B",
      "eventCurrency": "JPY",
      "eventForecast": ""
    },
    {
      "eventDateTime": "2002-01-01T09:00:00",
      "eventActual": "5.40%",
      "eventCountry": "Japan",
      "eventExpectedVolatility": "Low",
      "eventName": "Unemployment Rate (Dec)",
      "eventTimeZone": "GMT",
      "eventPrevious": "5.40%",
      "eventCurrency": "JPY",
      "eventForecast": ""
    }
  ]}}
