{"events": {"event": [
    {
      "eventDateTime": "2011-11-01T09:00:00",
      "eventActual": "5.80%",
      "eventCountry": "Hong Kong",
      "eventExpectedVolatility": "Low",
      "eventName": "CPI (YoY) (Oct)",
      "eventTimeZone": "GMT",
      "eventPrevious": "5.80%",
      "eventCurrency": "HKD",
      "eventForecast": ""
    },
    {
      "eventDateTime": "2011-11-01T09:00:00",
      "eventActual": "11.50%",
      "eventCountry": "Hong Kong",
      "eventExpectedVolatility": "Low",
      "eventName": "Exports (MoM) (Oct)",
      "eventTimeZone": "GMT",
      "eventPrevious": "-3.10%",
      "eventCurrency": "HKD",
      "eventForecast": ""
    },
    {
      "eventDateTime": "2011-11-01T09:00:00",
      "eventActual": "281.71B",
      "eventCountry": "Hong Kong",
      "eventExpectedVolatility": "Low",
      "eventName": "Foreign Reserves (USD) (Oct)",
      "eventTimeZone": "GMT",
      "eventPrevious": "277.61B",
      "eventCurrency": "HKD",
      "eventForecast": ""
    },
    {
      "eventDateTime": "2011-11-01T09:00:00",
      "eventActual": "10.90%",
      "eventCountry": "Hong Kong",
      "eventExpectedVolatility": "Low",
      "eventName": "Imports (MoM) (Oct)",
      "eventTimeZone": "GMT",
      "eventPrevious": "2.30%",
      "eventCurrency": "HKD",
      "eventForecast": ""
    },
    {
      "eventDateTime": "2011-11-01T09:00:00",
      "eventActual": "-3.85%",
      "eventCountry": "Hong Kong",
      "eventExpectedVolatility": "Low",
      "eventName": "M3 Money Supply (Oct)",
      "eventTimeZone": "GMT",
      "eventPrevious": "-0.44%",
      "eventCurrency": "HKD",
      "eventForecast": ""
    },
    {
      "eventDateTime": "2011-11-01T09:00:00",
      "eventActual": "23.00%",
      "eventCountry": "Hong Kong",
      "eventExpectedVolatility": "Low",
      "eventName": "Retail Sales (YoY) (Oct)",
      "eventTimeZone": "GMT",
      "eventPrevious": "24.00%",
      "eventCurrency": "HKD",
      "eventForecast": ""
    },
    {
      "eventDateTime": "2011-11-01T09:00:00",
      "eventActual": "3.30%",
      "eventCountry": "Hong Kong",
      "eventExpectedVolatility": "Low",
      "eventName": "Unemployment Rate (Oct)",
      "eventTimeZone": "GMT",
      "eventPrevious": "3.20%",
      "eventCurrency": "HKD",
      "eventForecast": ""
    }
  ]}}
