"MBA 30-Year Mortgage Rate";"United States";"USD";"2018-01-03T12:00:00";"GMT";"4.16%";"";"4.25%";"Low"
"MBA Mortgage Applications (WoW)";"United States";"USD";"2018-01-03T12:00:00";"GMT";"-4.9%";"";"0.7%";"Low"
"MBA Purchase Index";"United States";"USD";"2018-01-03T12:00:00";"GMT";"234.3";"";"236.9";"Low"
"Mortgage Market Index";"United States";"USD";"2018-01-03T12:00:00";"GMT";"379.2";"";"368.6";"Low"
"Mortgage Refinance Index";"United States";"USD";"2018-01-03T12:00:00";"GMT";"1,240.5";"";"1,151.9";"Low"
"Redbook (MoM)";"United States";"USD";"2018-01-03T13:55:00";"GMT";"0.1%";"";"0.3%";"Low"
"Redbook (YoY)";"United States";"USD";"2018-01-03T13:55:00";"GMT";"5.7%";"";"5.0%";"Low"
"ISM-New York Index (Dec)";"United States";"USD";"2018-01-03T14:45:00";"GMT";"753.5";"";"756.7";"Low"
"Construction Spending (MoM) (Nov)";"United States";"USD";"2018-01-03T15:00:00";"GMT";"0.9%";"0.6%";"0.8%";"Low"
"ISM Manufacturing Employment (Dec)";"United States";"USD";"2018-01-03T15:00:00";"GMT";"59.7";"59.0";"57.0";"Moderate"
"ISM Manufacturing New Orders Index (Dec)";"United States";"USD";"2018-01-03T15:00:00";"GMT";"64.0";"";"69.4";"Low"
"ISM Manufacturing PMI (Dec)";"United States";"USD";"2018-01-03T15:00:00";"GMT";"58.2";"58.1";"59.7";"High"
"ISM Manufacturing Prices (Dec)";"United States";"USD";"2018-01-03T15:00:00";"GMT";"65.5";"64.8";"69.0";"Low"
"FOMC Meeting Minutes";"United States";"USD";"2018-01-03T19:00:00";"GMT";" ";"";"";"High"
"All Car Sales";"United States";"USD";"2018-01-03T20:00:00";"GMT";"5.77M";"";"";"Low"
"All Truck Sales (Dec)";"United States";"USD";"2018-01-03T20:30:00";"GMT";"11.21M";"";"11.76M";"Low"
"Domestic Car Sales";"United States";"USD";"2018-01-03T20:30:00";"GMT";"4.61M";"";"4.40M";"Low"
"Domestic Truck Sales (Dec)";"United States";"USD";"2018-01-03T20:30:00";"GMT";"9.17M";"9.07M";"9.61M";"Low"
"Total Vehicle Sales";"United States";"USD";"2018-01-03T20:30:00";"GMT";"17.48M";"17.50M";"17.85M";"Low"
"All Car Sales";"United States";"USD";"2018-01-03T21:00:00";"GMT";"6.39M";"";"6.09M";"Low"
"API Weekly Crude Oil Stock";"United States";"USD";"2018-01-03T21:30:00";"GMT";"-6.000M";"-5.250M";"-4.992M";"Moderate"
