{"events": {"event": [
    {
      "eventDateTime": "2010-11-01T09:00:00",
      "eventActual": "101.30",
      "eventCountry": "South Africa",
      "eventExpectedVolatility": "Low",
      "eventName": "Business Confidence (Oct)",
      "eventTimeZone": "GMT",
      "eventPrevious": "103.60",
      "eventCurrency": "ZAR",
      "eventForecast": ""
    },
    {
      "eventDateTime": "2010-11-01T09:00:00",
      "eventActual": "0.23%",
      "eventCountry": "South Africa",
      "eventExpectedVolatility": "Moderate",
      "eventName": "CPI (MoM) (Oct)",
      "eventTimeZone": "GMT",
      "eventPrevious": "0.11%",
      "eventCurrency": "ZAR",
      "eventForecast": ""
    },
    {
      "eventDateTime": "2010-11-01T09:00:00",
      "eventActual": "3.37%",
      "eventCountry": "South Africa",
      "eventExpectedVolatility": "Low",
      "eventName": "CPI (YoY) (Oct)",
      "eventTimeZone": "GMT",
      "eventPrevious": "3.14%",
      "eventCurrency": "ZAR",
      "eventForecast": ""
    },
    {
      "eventDateTime": "2010-11-01T09:00:00",
      "eventActual": "0.10%",
      "eventCountry": "South Africa",
      "eventExpectedVolatility": "Moderate",
      "eventName": "Core CPI (MoM) (Oct)",
      "eventTimeZone": "GMT",
      "eventPrevious": "0.30%",
      "eventCurrency": "ZAR",
      "eventForecast": ""
    },
    {
      "eventDateTime": "2010-11-01T09:00:00",
      "eventActual": "3.40%",
      "eventCountry": "South Africa",
      "eventExpectedVolatility": "Low",
      "eventName": "Core CPI (YoY) (Oct)",
      "eventTimeZone": "GMT",
      "eventPrevious": "3.30%",
      "eventCurrency": "ZAR",
      "eventForecast": ""
    },
    {
      "eventDateTime": "2010-11-01T09:00:00",
      "eventActual": "44.20B",
      "eventCountry": "South Africa",
      "eventExpectedVolatility": "Low",
      "eventName": "Foreign Reserves (USD) (Oct)",
      "eventTimeZone": "GMT",
      "eventPrevious": "44.07B",
      "eventCurrency": "ZAR",
      "eventForecast": ""
    },
    {
      "eventDateTime": "2010-11-01T09:00:00",
      "eventActual": "-1.17%",
      "eventCountry": "South Africa",
      "eventExpectedVolatility": "Low",
      "eventName": "Gold Production (YoY) (Oct)",
      "eventTimeZone": "GMT",
      "eventPrevious": "-7.99%",
      "eventCurrency": "ZAR",
      "eventForecast": ""
    },
    {
      "eventDateTime": "2010-11-01T09:00:00",
      "eventActual": "6.00%",
      "eventCountry": "South Africa",
      "eventExpectedVolatility": "Moderate",
      "eventName": "Interest Rate Decision (Oct)",
      "eventTimeZone": "GMT",
      "eventPrevious": "6.00%",
      "eventCurrency": "ZAR",
      "eventForecast": ""
    },
    {
      "eventDateTime": "2010-11-01T09:00:00",
      "eventActual": "6.36%",
      "eventCountry": "South Africa",
      "eventExpectedVolatility": "Low",
      "eventName": "M3 Money Supply (YoY) (Oct)",
      "eventTimeZone": "GMT",
      "eventPrevious": "5.09%",
      "eventCurrency": "ZAR",
      "eventForecast": ""
    },
    {
      "eventDateTime": "2010-11-01T09:00:00",
      "eventActual": "4.50%",
      "eventCountry": "South Africa",
      "eventExpectedVolatility": "Low",
      "eventName": "Mining Production (Oct)",
      "eventTimeZone": "GMT",
      "eventPrevious": "11.61%",
      "eventCurrency": "ZAR",
      "eventForecast": ""
    },
    {
      "eventDateTime": "2010-11-01T09:00:00",
      "eventActual": "43.11B",
      "eventCountry": "South Africa",
      "eventExpectedVolatility": "Low",
      "eventName": "Net FX Reserves (USD) (Oct)",
      "eventTimeZone": "GMT",
      "eventPrevious": "40.85B",
      "eventCurrency": "ZAR",
      "eventForecast": ""
    },
    {
      "eventDateTime": "2010-11-01T09:00:00",
      "eventActual": "9.50%",
      "eventCountry": "South Africa",
      "eventExpectedVolatility": "Low",
      "eventName": "Prime Rate (Oct)",
      "eventTimeZone": "GMT",
      "eventPrevious": "9.50%",
      "eventCurrency": "ZAR",
      "eventForecast": ""
    },
    {
      "eventDateTime": "2010-11-01T09:00:00",
      "eventActual": "5.05%",
      "eventCountry": "South Africa",
      "eventExpectedVolatility": "Low",
      "eventName": "Private Sector Credit (Oct)",
      "eventTimeZone": "GMT",
      "eventPrevious": "4.39%",
      "eventCurrency": "ZAR",
      "eventForecast": ""
    },
    {
      "eventDateTime": "2010-11-01T09:00:00",
      "eventActual": "6.50%",
      "eventCountry": "South Africa",
      "eventExpectedVolatility": "Low",
      "eventName": "Retail Sales (YoY) (Oct)",
      "eventTimeZone": "GMT",
      "eventPrevious": "6.10%",
      "eventCurrency": "ZAR",
      "eventForecast": ""
    },
    {
      "eventDateTime": "2010-11-01T09:00:00",
      "eventActual": "44.89K",
      "eventCountry": "South Africa",
      "eventExpectedVolatility": "Low",
      "eventName": "Total Vehicle Sales (Oct)",
      "eventTimeZone": "GMT",
      "eventPrevious": "43.16K",
      "eventCurrency": "ZAR",
      "eventForecast": ""
    },
    {
      "eventDateTime": "2010-11-01T09:00:00",
      "eventActual": "25.20%",
      "eventCountry": "South Africa",
      "eventExpectedVolatility": "Low",
      "eventName": "Total Vehicle Sales (YoY) (Oct)",
      "eventTimeZone": "GMT",
      "eventPrevious": "21.50%",
      "eventCurrency": "ZAR",
      "eventForecast": ""
    },
    {
      "eventDateTime": "2010-11-01T09:00:00",
      "eventActual": "5.02B",
      "eventCountry": "South Africa",
      "eventExpectedVolatility": "Low",
      "eventName": "Trade Balance (Oct)",
      "eventTimeZone": "GMT",
      "eventPrevious": "8.42B",
      "eventCurrency": "ZAR",
      "eventForecast": ""
    }
  ]}}
