{"events": {"event": {
    "eventDateTime": "2017-03-22T10:35:00",
    "eventActual": "1.787%",
    "eventCountry": "United Kingdom",
    "eventExpectedVolatility": "Low",
    "eventName": "30-Year Treasury Gilt Auction",
    "eventTimeZone": "GMT",
    "eventPrevious": "1.863%",
    "eventCurrency": "GBP",
    "eventForecast": ""
  }}}
