{"events": {"event": [
    {
      "eventDateTime": "2019-04-07T08:00:00",
      "eventActual": "3.099T",
      "eventCountry": "China",
      "eventExpectedVolatility": "Low",
      "eventName": "FX Reserves (USD)",
      "eventTimeZone": "GMT",
      "eventPrevious": "3.090T",
      "eventCurrency": "CNY",
      "eventForecast": "3.095T"
    },
    {
      "eventDateTime": "2019-04-07T16:00:00",
      "eventActual": "8.0%",
      "eventCountry": "China",
      "eventExpectedVolatility": "Low",
      "eventName": "M2 Money Stock (YoY) (Mar)",
      "eventTimeZone": "GMT",
      "eventPrevious": "8.0%",
      "eventCurrency": "CNY",
      "eventForecast": "8.2%"
    },
    {
      "eventDateTime": "2019-04-07T16:00:00",
      "eventActual": "885.8B",
      "eventCountry": "China",
      "eventExpectedVolatility": "Moderate",
      "eventName": "New Loans (Mar)",
      "eventTimeZone": "GMT",
      "eventPrevious": "885.8B",
      "eventCurrency": "CNY",
      "eventForecast": "1,200.0B"
    },
    {
      "eventDateTime": "2019-04-07T16:00:00",
      "eventActual": "13.4%",
      "eventCountry": "China",
      "eventExpectedVolatility": "Low",
      "eventName": "Outstanding Loan Growth (YoY) (Mar)",
      "eventTimeZone": "GMT",
      "eventPrevious": "13.4%",
      "eventCurrency": "CNY",
      "eventForecast": "13.4%"
    }
  ]}}
