"Bank Loan Growth (2wk)";"India";"INR";"2016-03-04T11:30:00";"GMT";"11.5%";"";"11.6%";"Low"
"Deposit Growth (2wk)";"India";"INR";"2016-03-04T11:30:00";"GMT";"11.3%";"";"11.0%";"Low"
"FX Reserves, USD";"India";"INR";"2016-03-04T11:30:00";"GMT";"350.37B";"";"346.79B";"Low"
