"Coincident Indicator (MoM) (Apr)";"Japan";"JPY";"2015-06-05T05:00:00";"GMT";"-1.2%";"";"1.9%";"Low"
"Leading Index";"Japan";"JPY";"2015-06-05T05:00:00";"GMT";"106.0";"107.3";"107.2";"Low"
"Leading Index (MoM) (Apr)";"Japan";"JPY";"2015-06-05T05:00:00";"GMT";"0.8%";"";"1.2%";"Low"
"CFTC JPY speculative net positions";"Japan";"JPY";"2015-06-05T19:30:00";"GMT";"-62.2K";"";"-85.7K";"Moderate"
