"German Industrial Production (MoM) (Oct)";"Germany";"EUR";"2016-12-07T07:00:00";"GMT";"-1.6%";"0.8%";"0.3%";"Moderate"
"French Current Account (Oct)";"France";"EUR";"2016-12-07T07:45:00";"GMT";"-3.70B";"";"-3.50B";"Low"
"French Exports (Oct)";"France";"EUR";"2016-12-07T07:45:00";"GMT";"37.0B";"";"36.7B";"Low"
"French Imports (Oct)";"France";"EUR";"2016-12-07T07:45:00";"GMT";"41.8B";"";"41.9B";"Low"
"French Trade Balance (Oct)";"France";"EUR";"2016-12-07T07:45:00";"GMT";"-4.8B";"";"-5.2B";"Low"
"Italian Quarterly Unemployment Rate";"Italy";"EUR";"2016-12-07T09:00:00";"GMT";"11.6%";"11.6%";"11.6%";"Low"
"Spanish 12-Month Letras Auction";"Spain";"EUR";"2016-12-07T10:00:00";"GMT";"-0.212%";"";"-0.229%";"Low"
"Spanish 6-Month Letras Auction";"Spain";"EUR";"2016-12-07T10:00:00";"GMT";"-0.282%";"";"-0.327%";"Low"
"German 2-Year Schatz Auction";"Germany";"EUR";"2016-12-07T10:45:00";"GMT";"-0.640%";"";"-0.710%";"Low"
