{"events": {"event": [
    {
      "eventDateTime": "2016-04-19T12:30:00",
      "eventActual": "1.086M",
      "eventCountry": "United States",
      "eventExpectedVolatility": "High",
      "eventName": "Building Permits (Mar)",
      "eventTimeZone": "GMT",
      "eventPrevious": "1.177M",
      "eventCurrency": "USD",
      "eventForecast": "1.200M"
    },
    {
      "eventDateTime": "2016-04-19T12:30:00",
      "eventActual": "-7.7%",
      "eventCountry": "United States",
      "eventExpectedVolatility": "Moderate",
      "eventName": "Building Permits (MoM) (Mar)",
      "eventTimeZone": "GMT",
      "eventPrevious": "-2.2%",
      "eventCurrency": "USD",
      "eventForecast": ""
    },
    {
      "eventDateTime": "2016-04-19T12:30:00",
      "eventActual": "1.089M",
      "eventCountry": "United States",
      "eventExpectedVolatility": "Moderate",
      "eventName": "Housing Starts (Mar)",
      "eventTimeZone": "GMT",
      "eventPrevious": "1.194M",
      "eventCurrency": "USD",
      "eventForecast": "1.170M"
    },
    {
      "eventDateTime": "2016-04-19T12:30:00",
      "eventActual": "-8.8%",
      "eventCountry": "United States",
      "eventExpectedVolatility": "Moderate",
      "eventName": "Housing Starts (MoM) (Mar)",
      "eventTimeZone": "GMT",
      "eventPrevious": "6.9%",
      "eventCurrency": "USD",
      "eventForecast": ""
    },
    {
      "eventDateTime": "2016-04-19T12:55:00",
      "eventActual": "-3.1%",
      "eventCountry": "United States",
      "eventExpectedVolatility": "Low",
      "eventName": "Redbook (MoM)",
      "eventTimeZone": "GMT",
      "eventPrevious": "-2.8%",
      "eventCurrency": "USD",
      "eventForecast": ""
    },
    {
      "eventDateTime": "2016-04-19T12:55:00",
      "eventActual": "0.5%",
      "eventCountry": "United States",
      "eventExpectedVolatility": "Low",
      "eventName": "Redbook (YoY)",
      "eventTimeZone": "GMT",
      "eventPrevious": "1.1%",
      "eventCurrency": "USD",
      "eventForecast": ""
    },
    {
      "eventDateTime": "2016-04-19T15:30:00",
      "eventActual": "0.175%",
      "eventCountry": "United States",
      "eventExpectedVolatility": "Low",
      "eventName": "4-Week Bill Auction",
      "eventTimeZone": "GMT",
      "eventPrevious": "0.200%",
      "eventCurrency": "USD",
      "eventForecast": ""
    },
    {
      "eventDateTime": "2016-04-19T20:35:00",
      "eventActual": "3.100M",
      "eventCountry": "United States",
      "eventExpectedVolatility": "Moderate",
      "eventName": "API Weekly Crude Oil Stock",
      "eventTimeZone": "GMT",
      "eventPrevious": "6.223M",
      "eventCurrency": "USD",
      "eventForecast": "1.600M"
    },
    {
      "eventDateTime": "2016-04-19T20:35:00",
      "eventActual": "-0.235M",
      "eventCountry": "United States",
      "eventExpectedVolatility": "Moderate",
      "eventName": "API Weekly Cushing Crude Oil Stock",
      "eventTimeZone": "GMT",
      "eventPrevious": "-1.930M",
      "eventCurrency": "USD",
      "eventForecast": ""
    },
    {
      "eventDateTime": "2016-04-19T20:35:00",
      "eventActual": "-2.350M",
      "eventCountry": "United States",
      "eventExpectedVolatility": "Low",
      "eventName": "API Weekly Distillates Stocks",
      "eventTimeZone": "GMT",
      "eventPrevious": "-0.530M",
      "eventCurrency": "USD",
      "eventForecast": ""
    },
    {
      "eventDateTime": "2016-04-19T20:35:00",
      "eventActual": "-1.020M",
      "eventCountry": "United States",
      "eventExpectedVolatility": "Low",
      "eventName": "API Weekly Gasoline Stock",
      "eventTimeZone": "GMT",
      "eventPrevious": "-1.580M",
      "eventCurrency": "USD",
      "eventForecast": "-1.500M"
    }
  ]}}
