{"events": {"event": [
    {
      "eventDateTime": "2014-06-01T09:00:00",
      "eventActual": "88.90",
      "eventCountry": "South Africa",
      "eventExpectedVolatility": "Low",
      "eventName": "Business Confidence (May)",
      "eventTimeZone": "GMT",
      "eventPrevious": "92.60",
      "eventCurrency": "ZAR",
      "eventForecast": ""
    },
    {
      "eventDateTime": "2014-06-01T09:00:00",
      "eventActual": "6.63%",
      "eventCountry": "South Africa",
      "eventExpectedVolatility": "Low",
      "eventName": "CPI (YoY) (May)",
      "eventTimeZone": "GMT",
      "eventPrevious": "6.12%",
      "eventCurrency": "ZAR",
      "eventForecast": ""
    },
    {
      "eventDateTime": "2014-06-01T09:00:00",
      "eventActual": "0.10%",
      "eventCountry": "South Africa",
      "eventExpectedVolatility": "Moderate",
      "eventName": "Core CPI (MoM) (May)",
      "eventTimeZone": "GMT",
      "eventPrevious": "0.40%",
      "eventCurrency": "ZAR",
      "eventForecast": ""
    },
    {
      "eventDateTime": "2014-06-01T09:00:00",
      "eventActual": "5.50%",
      "eventCountry": "South Africa",
      "eventExpectedVolatility": "Low",
      "eventName": "Core CPI (YoY) (May)",
      "eventTimeZone": "GMT",
      "eventPrevious": "5.50%",
      "eventCurrency": "ZAR",
      "eventForecast": ""
    },
    {
      "eventDateTime": "2014-06-01T09:00:00",
      "eventActual": "49.21B",
      "eventCountry": "South Africa",
      "eventExpectedVolatility": "Low",
      "eventName": "Foreign Reserves (USD) (May)",
      "eventTimeZone": "GMT",
      "eventPrevious": "49.56B",
      "eventCurrency": "ZAR",
      "eventForecast": ""
    },
    {
      "eventDateTime": "2014-06-01T09:00:00",
      "eventActual": "-2.10%",
      "eventCountry": "South Africa",
      "eventExpectedVolatility": "Low",
      "eventName": "Gold Production (YoY) (May)",
      "eventTimeZone": "GMT",
      "eventPrevious": "-4.23%",
      "eventCurrency": "ZAR",
      "eventForecast": ""
    },
    {
      "eventDateTime": "2014-06-01T09:00:00",
      "eventActual": "7.50%",
      "eventCountry": "South Africa",
      "eventExpectedVolatility": "Low",
      "eventName": "M3 Money Supply (YoY) (May)",
      "eventTimeZone": "GMT",
      "eventPrevious": "6.89%",
      "eventCurrency": "ZAR",
      "eventForecast": ""
    },
    {
      "eventDateTime": "2014-06-01T09:00:00",
      "eventActual": "-4.47%",
      "eventCountry": "South Africa",
      "eventExpectedVolatility": "Low",
      "eventName": "Mining Production (May)",
      "eventTimeZone": "GMT",
      "eventPrevious": "3.70%",
      "eventCurrency": "ZAR",
      "eventForecast": ""
    },
    {
      "eventDateTime": "2014-06-01T09:00:00",
      "eventActual": "44.51B",
      "eventCountry": "South Africa",
      "eventExpectedVolatility": "Low",
      "eventName": "Net FX Reserves (USD) (May)",
      "eventTimeZone": "GMT",
      "eventPrevious": "44.86B",
      "eventCurrency": "ZAR",
      "eventForecast": ""
    },
    {
      "eventDateTime": "2014-06-01T09:00:00",
      "eventActual": "8.67%",
      "eventCountry": "South Africa",
      "eventExpectedVolatility": "Low",
      "eventName": "PPI (YoY) (May)",
      "eventTimeZone": "GMT",
      "eventPrevious": "8.80%",
      "eventCurrency": "ZAR",
      "eventForecast": ""
    },
    {
      "eventDateTime": "2014-06-01T09:00:00",
      "eventActual": "9.00%",
      "eventCountry": "South Africa",
      "eventExpectedVolatility": "Low",
      "eventName": "Prime Rate (May)",
      "eventTimeZone": "GMT",
      "eventPrevious": "9.00%",
      "eventCurrency": "ZAR",
      "eventForecast": ""
    },
    {
      "eventDateTime": "2014-06-01T09:00:00",
      "eventActual": "8.34%",
      "eventCountry": "South Africa",
      "eventExpectedVolatility": "Low",
      "eventName": "Private Sector Credit (May)",
      "eventTimeZone": "GMT",
      "eventPrevious": "8.27%",
      "eventCurrency": "ZAR",
      "eventForecast": ""
    },
    {
      "eventDateTime": "2014-06-01T09:00:00",
      "eventActual": "49.70",
      "eventCountry": "South Africa",
      "eventExpectedVolatility": "Low",
      "eventName": "South Africa Standard Bank PMI (May)",
      "eventTimeZone": "GMT",
      "eventPrevious": "49.40",
      "eventCurrency": "ZAR",
      "eventForecast": ""
    },
    {
      "eventDateTime": "2014-06-01T09:00:00",
      "eventActual": "49.11K",
      "eventCountry": "South Africa",
      "eventExpectedVolatility": "Low",
      "eventName": "Total Vehicle Sales (May)",
      "eventTimeZone": "GMT",
      "eventPrevious": "45.71K",
      "eventCurrency": "ZAR",
      "eventForecast": ""
    },
    {
      "eventDateTime": "2014-06-01T09:00:00",
      "eventActual": "-9.00%",
      "eventCountry": "South Africa",
      "eventExpectedVolatility": "Low",
      "eventName": "Total Vehicle Sales (YoY) (May)",
      "eventTimeZone": "GMT",
      "eventPrevious": "-10.30%",
      "eventCurrency": "ZAR",
      "eventForecast": ""
    }
  ]}}
