"Business Confidence (May)";"South Africa";"ZAR";"2014-06-01T09:00:00";"GMT";"92.60";"";"88.90";"Low"
"CPI (YoY) (May)";"South Africa";"ZAR";"2014-06-01T09:00:00";"GMT";"6.12%";"";"6.63%";"Low"
"Core CPI (MoM) (May)";"South Africa";"ZAR";"2014-06-01T09:00:00";"GMT";"0.40%";"";"0.10%";"Moderate"
"Core CPI (YoY) (May)";"South Africa";"ZAR";"2014-06-01T09:00:00";"GMT";"5.50%";"";"5.50%";"Low"
"Foreign Reserves (USD) (May)";"South Africa";"ZAR";"2014-06-01T09:00:00";"GMT";"49.56B";"";"49.21B";"Low"
"Gold Production (YoY) (May)";"South Africa";"ZAR";"2014-06-01T09:00:00";"GMT";"-4.23%";"";"-2.10%";"Low"
"M3 Money Supply (YoY) (May)";"South Africa";"ZAR";"2014-06-01T09:00:00";"GMT";"6.89%";"";"7.50%";"Low"
"Mining Production (May)";"South Africa";"ZAR";"2014-06-01T09:00:00";"GMT";"3.70%";"";"-4.47%";"Low"
"Net FX Reserves (USD) (May)";"South Africa";"ZAR";"2014-06-01T09:00:00";"GMT";"44.86B";"";"44.51B";"Low"
"PPI (YoY) (May)";"South Africa";"ZAR";"2014-06-01T09:00:00";"GMT";"8.80%";"";"8.67%";"Low"
"Prime Rate (May)";"South Africa";"ZAR";"2014-06-01T09:00:00";"GMT";"9.00%";"";"9.00%";"Low"
"Private Sector Credit (May)";"South Africa";"ZAR";"2014-06-01T09:00:00";"GMT";"8.27%";"";"8.34%";"Low"
"South Africa Standard Bank PMI (May)";"South Africa";"ZAR";"2014-06-01T09:00:00";"GMT";"49.40";"";"49.70";"Low"
"Total Vehicle Sales (May)";"South Africa";"ZAR";"2014-06-01T09:00:00";"GMT";"45.71K";"";"49.11K";"Low"
"Total Vehicle Sales (YoY) (May)";"South Africa";"ZAR";"2014-06-01T09:00:00";"GMT";"-10.30%";"";"-9.00%";"Low"
