{"events": {"event": [
    {
      "eventDateTime": "2013-08-15T21:00:00",
      "eventActual": "0.00%",
      "eventCountry": "South Korea",
      "eventExpectedVolatility": "Low",
      "eventName": "PPI (MoM)",
      "eventTimeZone": "GMT",
      "eventPrevious": "0.00%",
      "eventCurrency": "KRW",
      "eventForecast": ""
    },
    {
      "eventDateTime": "2013-08-15T21:00:00",
      "eventActual": "-0.90%",
      "eventCountry": "South Korea",
      "eventExpectedVolatility": "Low",
      "eventName": "PPI (YoY)",
      "eventTimeZone": "GMT",
      "eventPrevious": "-1.40%",
      "eventCurrency": "KRW",
      "eventForecast": ""
    }
  ]}}
