"Markit Manufacturing PMI (Apr)";"Brazil";"BRL";"2018-05-02T13:00:00";"GMT";"53.4";"";"52.3";"Low"
"Foreign Exchange Flows";"Brazil";"BRL";"2018-05-02T15:30:00";"GMT";"8.77B";"";"13.08B";"Low"
"Trade Balance (Apr)";"Brazil";"BRL";"2018-05-02T19:00:00";"GMT";"6.28B";"6.30B";"6.14B";"Low"
