"Continuing Jobless Claims";"United States";"USD";"2018-12-27T13:30:00";"GMT";"1,705K";"1,665K";"1,701K";"Low"
"Initial Jobless Claims";"United States";"USD";"2018-12-27T13:30:00";"GMT";"217K";"217K";"216K";"Moderate"
"Jobless Claims 4-Week Avg.";"United States";"USD";"2018-12-27T13:30:00";"GMT";"222.75K";"";"218.00K";"Low"
"House Price Index (MoM) (Oct)";"United States";"USD";"2018-12-27T14:00:00";"GMT";"0.2%";"0.3%";"0.3%";"Low"
"House Price Index (Oct)";"United States";"USD";"2018-12-27T14:00:00";"GMT";"267.0";"";"267.9";"Low"
"House Price Index (YoY) (Oct)";"United States";"USD";"2018-12-27T14:00:00";"GMT";"6.0%";"";"5.7%";"Low"
"CB Consumer Confidence (Dec)";"United States";"USD";"2018-12-27T15:00:00";"GMT";"136.4";"133.7";"128.1";"High"
"4-Week Bill Auction";"United States";"USD";"2018-12-27T16:30:00";"GMT";"2.360%";"";"2.400%";"Low"
"8-Week Bill Auction";"United States";"USD";"2018-12-27T16:30:00";"GMT";"2.375%";"";"2.420%";"Low"
"7-Year Note Auction";"United States";"USD";"2018-12-27T18:00:00";"GMT";"2.974%";"";"2.680%";"Low"
"API Weekly Crude Oil Stock";"United States";"USD";"2018-12-27T21:30:00";"GMT";"3.450M";"";"6.920M";"Moderate"
