{"events": {"event": [
    {
      "eventDateTime": "2016-04-29T02:00:00",
      "eventActual": "590.6B",
      "eventCountry": "Singapore",
      "eventExpectedVolatility": "Low",
      "eventName": "Bank Lending (Mar)",
      "eventTimeZone": "GMT",
      "eventPrevious": "596.2B",
      "eventCurrency": "SGD",
      "eventForecast": ""
    },
    {
      "eventDateTime": "2016-04-29T05:00:00",
      "eventActual": "1.00",
      "eventCountry": "Singapore",
      "eventExpectedVolatility": "Low",
      "eventName": "Business Expectations (Q2)",
      "eventTimeZone": "GMT",
      "eventPrevious": "-22.00",
      "eventCurrency": "SGD",
      "eventForecast": ""
    }
  ]}}
