{"events": {"event": [
    {
      "eventDateTime": "2013-07-12T01:30:00",
      "eventActual": "1.8%",
      "eventCountry": "Australia",
      "eventExpectedVolatility": "Moderate",
      "eventName": "Home Loans (MoM)",
      "eventTimeZone": "GMT",
      "eventPrevious": "1.2%",
      "eventCurrency": "AUD",
      "eventForecast": "2.5%"
    },
    {
      "eventDateTime": "2013-07-12T19:30:00",
      "eventActual": "-63.3K",
      "eventCountry": "Australia",
      "eventExpectedVolatility": "Moderate",
      "eventName": "CFTC AUD speculative net positions",
      "eventTimeZone": "GMT",
      "eventPrevious": "-70.5K",
      "eventCurrency": "AUD",
      "eventForecast": ""
    }
  ]}}
