"Budget Balance (Mar)";"Canada";"CAD";"2011-04-01T09:00:00";"GMT";"-0.59B";"";"-6.18B";"Low"
"Budget Balance (YoY) (Mar)";"Canada";"CAD";"2011-04-01T09:00:00";"GMT";"-28.26B";"";"-34.44B";"Low"
"CPI (YoY) (Mar)";"Canada";"CAD";"2011-04-01T09:00:00";"GMT";"2.20%";"";"3.30%";"Low"
"Core CPI (YoY) (Mar)";"Canada";"CAD";"2011-04-01T09:00:00";"GMT";"0.90%";"";"1.70%";"Moderate"
"Exports (Mar)";"Canada";"CAD";"2011-04-01T09:00:00";"GMT";"35.66B";"";"36.33B";"Low"
"Foreign Securities Purchases by Canadians (Mar)";"Canada";"CAD";"2011-04-01T09:00:00";"GMT";"2.86B";"";"-1.63B";"Low"
"Full Employment Change (Mar)";"Canada";"CAD";"2011-04-01T09:00:00";"GMT";"-47.60K";"";"100.30K";"Low"
"IPPI (YoY) (Mar)";"Canada";"CAD";"2011-04-01T09:00:00";"GMT";"6.00%";"";"7.60%";"Low"
"Imports (Mar)";"Canada";"CAD";"2011-04-01T09:00:00";"GMT";"35.71B";"";"37.33B";"Low"
"Ivey PMI n.s.a (Mar)";"Canada";"CAD";"2011-04-01T09:00:00";"GMT";"69.30";"";"73.20";"Low"
"Part Time Employment Change (Mar)";"Canada";"CAD";"2011-04-01T09:00:00";"GMT";"44.40K";"";"-77.50K";"Low"
"Participation Rate (Mar)";"Canada";"CAD";"2011-04-01T09:00:00";"GMT";"66.80%";"";"66.90%";"Low"
"RMPI (YoY) (Mar)";"Canada";"CAD";"2011-04-01T09:00:00";"GMT";"18.40%";"";"22.40%";"Low"
"CFTC CAD speculative net positions";"Canada";"CAD";"2011-04-01T19:30:00";"GMT";"46.0K";"";"51.2K";"Low"
