{"events": {"event": {
    "eventDateTime": "2018-02-05T06:30:00",
    "eventActual": "30.6%",
    "eventCountry": "Canada",
    "eventExpectedVolatility": "Moderate",
    "eventName": "Investing.com USD/CAD Index",
    "eventTimeZone": "GMT",
    "eventPrevious": "49.9%",
    "eventCurrency": "CAD",
    "eventForecast": ""
  }}}
