{"events": {"event": [
    {
      "eventDateTime": "2009-01-30T00:01:00",
      "eventActual": "-37",
      "eventCountry": "United Kingdom",
      "eventExpectedVolatility": "Low",
      "eventName": "GfK Consumer Confidence",
      "eventTimeZone": "GMT",
      "eventPrevious": "-33",
      "eventCurrency": "GBP",
      "eventForecast": "-34"
    },
    {
      "eventDateTime": "2009-01-30T09:30:00",
      "eventActual": "31K",
      "eventCountry": "United Kingdom",
      "eventExpectedVolatility": "Low",
      "eventName": "Mortgage Approvals",
      "eventTimeZone": "GMT",
      "eventPrevious": "27K",
      "eventCurrency": "GBP",
      "eventForecast": "27K"
    },
    {
      "eventDateTime": "2009-01-30T09:30:00",
      "eventActual": "2.2B",
      "eventCountry": "United Kingdom",
      "eventExpectedVolatility": "Low",
      "eventName": "Net Lending to Individuals",
      "eventTimeZone": "GMT",
      "eventPrevious": "1.5B",
      "eventCurrency": "GBP",
      "eventForecast": "1.3B"
    },
    {
      "eventDateTime": "2009-01-30T20:30:00",
      "eventActual": "-37.0K",
      "eventCountry": "United Kingdom",
      "eventExpectedVolatility": "Moderate",
      "eventName": "CFTC GBP speculative net positions",
      "eventTimeZone": "GMT",
      "eventPrevious": "-39.0K",
      "eventCurrency": "GBP",
      "eventForecast": ""
    }
  ]}}
