"Investing.com USD/CHF Index";"Switzerland";"CHF";"2014-12-08T01:00:00";"GMT";"59.6%";"";"56.7%";"Moderate"
"CPI (MoM) (Nov)";"Switzerland";"CHF";"2014-12-08T08:15:00";"GMT";"0.0%";"-0.1%";"0.0%";"Moderate"
"CPI (YoY) (Nov)";"Switzerland";"CHF";"2014-12-08T08:15:00";"GMT";"0.0%";"-0.1%";"-0.1%";"Low"
"Retail Sales (YoY) (Oct)";"Switzerland";"CHF";"2014-12-08T08:15:00";"GMT";"0.5%";"0.9%";"0.3%";"Moderate"
