{"events": {"event": [
    {
      "eventDateTime": "2014-12-08T01:00:00",
      "eventActual": "56.7%",
      "eventCountry": "Switzerland",
      "eventExpectedVolatility": "Moderate",
      "eventName": "Investing.com USD/CHF Index",
      "eventTimeZone": "GMT",
      "eventPrevious": "59.6%",
      "eventCurrency": "CHF",
      "eventForecast": ""
    },
    {
      "eventDateTime": "2014-12-08T08:15:00",
      "eventActual": "0.0%",
      "eventCountry": "Switzerland",
      "eventExpectedVolatility": "Moderate",
      "eventName": "CPI (MoM) (Nov)",
      "eventTimeZone": "GMT",
      "eventPrevious": "0.0%",
      "eventCurrency": "CHF",
      "eventForecast": "-0.1%"
    },
    {
      "eventDateTime": "2014-12-08T08:15:00",
      "eventActual": "-0.1%",
      "eventCountry": "Switzerland",
      "eventExpectedVolatility": "Low",
      "eventName": "CPI (YoY) (Nov)",
      "eventTimeZone": "GMT",
      "eventPrevious": "0.0%",
      "eventCurrency": "CHF",
      "eventForecast": "-0.1%"
    },
    {
      "eventDateTime": "2014-12-08T08:15:00",
      "eventActual": "0.3%",
      "eventCountry": "Switzerland",
      "eventExpectedVolatility": "Moderate",
      "eventName": "Retail Sales (YoY) (Oct)",
      "eventTimeZone": "GMT",
      "eventPrevious": "0.5%",
      "eventCurrency": "CHF",
      "eventForecast": "0.9%"
    }
  ]}}
