{"events": {"event": [
    {
      "eventDateTime": "2014-04-25T09:30:00",
      "eventActual": "7.50%",
      "eventCountry": "Russia",
      "eventExpectedVolatility": "High",
      "eventName": "Interest Rate Decision",
      "eventTimeZone": "GMT",
      "eventPrevious": "7.00%",
      "eventCurrency": "RUB",
      "eventForecast": "7.00%"
    },
    {
      "eventDateTime": "2014-04-25T20:30:00",
      "eventActual": "-2.2K",
      "eventCountry": "Russia",
      "eventExpectedVolatility": "Moderate",
      "eventName": "CFTC RUB speculative positions",
      "eventTimeZone": "GMT",
      "eventPrevious": "-4.1K",
      "eventCurrency": "RUB",
      "eventForecast": ""
    }
  ]}}
