{"events": {"event": [
    {
      "eventDateTime": "2016-01-21T12:00:00",
      "eventActual": "121.50B",
      "eventCountry": "Brazil",
      "eventExpectedVolatility": "Low",
      "eventName": "Federal Tax Revenue (Dec)",
      "eventTimeZone": "GMT",
      "eventPrevious": "95.00B",
      "eventCurrency": "BRL",
      "eventForecast": "117.00B"
    },
    {
      "eventDateTime": "2016-01-21T13:00:00",
      "eventActual": "-596.21K",
      "eventCountry": "Brazil",
      "eventExpectedVolatility": "Moderate",
      "eventName": "CAGED Net Payroll Jobs (Dec)",
      "eventTimeZone": "GMT",
      "eventPrevious": "-131.00K",
      "eventCurrency": "BRL",
      "eventForecast": "-655.00K"
    }
  ]}}
