{"events": {"event": [
    {
      "eventDateTime": "2016-11-24T00:30:00",
      "eventActual": "51.1",
      "eventCountry": "Japan",
      "eventExpectedVolatility": "Low",
      "eventName": "Manufacturing PMI (Nov)",
      "eventTimeZone": "GMT",
      "eventPrevious": "51.4",
      "eventCurrency": "JPY",
      "eventForecast": "51.7"
    },
    {
      "eventDateTime": "2016-11-24T05:00:00",
      "eventActual": "103.0",
      "eventCountry": "Japan",
      "eventExpectedVolatility": "Low",
      "eventName": "Leading Index",
      "eventTimeZone": "GMT",
      "eventPrevious": "100.5",
      "eventCurrency": "JPY",
      "eventForecast": "100.5"
    },
    {
      "eventDateTime": "2016-11-24T23:30:00",
      "eventActual": "0.1%",
      "eventCountry": "Japan",
      "eventExpectedVolatility": "Low",
      "eventName": "National CPI (YoY) (Oct)",
      "eventTimeZone": "GMT",
      "eventPrevious": "-0.5%",
      "eventCurrency": "JPY",
      "eventForecast": ""
    },
    {
      "eventDateTime": "2016-11-24T23:30:00",
      "eventActual": "-0.4%",
      "eventCountry": "Japan",
      "eventExpectedVolatility": "Moderate",
      "eventName": "National Core CPI (YoY) (Oct)",
      "eventTimeZone": "GMT",
      "eventPrevious": "-0.5%",
      "eventCurrency": "JPY",
      "eventForecast": "-0.4%"
    },
    {
      "eventDateTime": "2016-11-24T23:30:00",
      "eventActual": "0.5%",
      "eventCountry": "Japan",
      "eventExpectedVolatility": "Low",
      "eventName": "Tokyo CPI (YoY) (Nov)",
      "eventTimeZone": "GMT",
      "eventPrevious": "0.1%",
      "eventCurrency": "JPY",
      "eventForecast": "-0.3%"
    },
    {
      "eventDateTime": "2016-11-24T23:30:00",
      "eventActual": "-0.4%",
      "eventCountry": "Japan",
      "eventExpectedVolatility": "Moderate",
      "eventName": "Tokyo Core CPI (YoY) (Nov)",
      "eventTimeZone": "GMT",
      "eventPrevious": "-0.4%",
      "eventCurrency": "JPY",
      "eventForecast": "-0.4%"
    },
    {
      "eventDateTime": "2016-11-24T23:50:00",
      "eventActual": "0.5%",
      "eventCountry": "Japan",
      "eventExpectedVolatility": "Low",
      "eventName": "Corporate Services Price Index (CSPI) (YoY)",
      "eventTimeZone": "GMT",
      "eventPrevious": "0.2%",
      "eventCurrency": "JPY",
      "eventForecast": "0.3%"
    },
    {
      "eventDateTime": "2016-11-24T23:50:00",
      "eventActual": "-260.6B",
      "eventCountry": "Japan",
      "eventExpectedVolatility": "Low",
      "eventName": "Foreign Bonds Buying",
      "eventTimeZone": "GMT",
      "eventPrevious": "466.2B",
      "eventCurrency": "JPY",
      "eventForecast": ""
    },
    {
      "eventDateTime": "2016-11-24T23:50:00",
      "eventActual": "461.7B",
      "eventCountry": "Japan",
      "eventExpectedVolatility": "Low",
      "eventName": "Foreign Investments in Japanese Stocks",
      "eventTimeZone": "GMT",
      "eventPrevious": "546.0B",
      "eventCurrency": "JPY",
      "eventForecast": ""
    }
  ]}}
