"Bank Lending (Sep)";"Singapore";"SGD";"2003-10-01T09:00:00";"GMT";"166.00B";"";"167.00B";"Low"
"CPI (YoY) (Sep)";"Singapore";"SGD";"2003-10-01T09:00:00";"GMT";"0.46%";"";"0.69%";"Moderate"
"Foreign Reserves USD (MoM) (Sep)";"Singapore";"SGD";"2003-10-01T09:00:00";"GMT";"87.70B";"";"91.00B";"Low"
"Industrial Production (MoM) (Sep)";"Singapore";"SGD";"2003-10-01T09:00:00";"GMT";"16.60%";"";"-11.60%";"Low"
"Industrial Production (YoY) (Sep)";"Singapore";"SGD";"2003-10-01T09:00:00";"GMT";"10.80%";"";"5.90%";"Low"
"Manufacturing PMI (Sep)";"Singapore";"SGD";"2003-10-01T09:00:00";"GMT";"51.30";"";"52.00";"Low"
"Non-Oil Exports (MoM) (Sep)";"Singapore";"SGD";"2003-10-01T09:00:00";"GMT";"-2.00%";"";"9.90%";"Low"
"Non-Oil Exports (YoY) (Sep)";"Singapore";"SGD";"2003-10-01T09:00:00";"GMT";"12.00%";"";"35.80%";"Low"
"Retail Sales (MoM) (Sep)";"Singapore";"SGD";"2003-10-01T09:00:00";"GMT";"-1.70%";"";"2.90%";"Low"
"Retail Sales (YoY) (Sep)";"Singapore";"SGD";"2003-10-01T09:00:00";"GMT";"7.50%";"";"13.90%";"Low"
