"Nationwide HPI (MoM) (Sep)";"United Kingdom";"GBP";"2016-09-30T06:00:00";"GMT";"0.6%";"0.3%";"0.3%";"Moderate"
"Nationwide HPI (YoY) (Sep)";"United Kingdom";"GBP";"2016-09-30T06:00:00";"GMT";"5.6%";"5.3%";"5.3%";"Moderate"
"Business Investment (QoQ) (Q2)";"United Kingdom";"GBP";"2016-09-30T08:30:00";"GMT";"-1.1%";"0.5%";"1.0%";"Moderate"
"Business Investment (YoY) (Q2)";"United Kingdom";"GBP";"2016-09-30T08:30:00";"GMT";"-1.9%";"-0.8%";"-0.8%";"Low"
"Current Account (Q2)";"United Kingdom";"GBP";"2016-09-30T08:30:00";"GMT";"-27.0B";"-30.5B";"-28.7B";"Moderate"
"GDP (QoQ) (Q2)";"United Kingdom";"GBP";"2016-09-30T08:30:00";"GMT";"0.6%";"0.6%";"0.7%";"High"
"GDP (YoY) (Q2)";"United Kingdom";"GBP";"2016-09-30T08:30:00";"GMT";"1.9%";"2.2%";"2.1%";"High"
"Index of Services";"United Kingdom";"GBP";"2016-09-30T08:30:00";"GMT";"0.6%";"0.3%";"0.6%";"Low"
"CFTC GBP speculative net positions";"United Kingdom";"GBP";"2016-09-30T19:30:00";"GMT";"-58.7K";"";"-87.7K";"Moderate"
