{"events": {"event": [
    {
      "eventDateTime": "2017-03-17T00:30:00",
      "eventActual": "1.40%",
      "eventCountry": "Singapore",
      "eventExpectedVolatility": "Low",
      "eventName": "Non-Oil Exports (MoM) (Feb)",
      "eventTimeZone": "GMT",
      "eventPrevious": "5.00%",
      "eventCurrency": "SGD",
      "eventForecast": "0.80%"
    },
    {
      "eventDateTime": "2017-03-17T00:30:00",
      "eventActual": "21.50%",
      "eventCountry": "Singapore",
      "eventExpectedVolatility": "Low",
      "eventName": "Non-Oil Exports (YoY) (Feb)",
      "eventTimeZone": "GMT",
      "eventPrevious": "8.60%",
      "eventCurrency": "SGD",
      "eventForecast": "12.80%"
    },
    {
      "eventDateTime": "2017-03-17T00:30:00",
      "eventActual": "7.800B",
      "eventCountry": "Singapore",
      "eventExpectedVolatility": "Low",
      "eventName": "Trade Balance",
      "eventTimeZone": "GMT",
      "eventPrevious": "3.630B",
      "eventCurrency": "SGD",
      "eventForecast": ""
    }
  ]}}
