{"events": {"event": {
    "eventDateTime": "2018-02-15T14:30:00",
    "eventActual": "2.25B",
    "eventCountry": "Brazil",
    "eventExpectedVolatility": "Low",
    "eventName": "Foreign Exchange Flows",
    "eventTimeZone": "GMT",
    "eventPrevious": "4.75B",
    "eventCurrency": "BRL",
    "eventForecast": ""
  }}}
