{"events": {"event": {
    "eventDateTime": "2018-12-21T20:30:00",
    "eventActual": "-22.9K",
    "eventCountry": "Switzerland",
    "eventExpectedVolatility": "Low",
    "eventName": "CFTC CHF speculative net positions",
    "eventTimeZone": "GMT",
    "eventPrevious": "-18.3K",
    "eventCurrency": "CHF",
    "eventForecast": ""
  }}}
