{"events": {"event": [
    {
      "eventDateTime": "2016-09-08T05:00:00",
      "eventActual": "45.6",
      "eventCountry": "Japan",
      "eventExpectedVolatility": "Low",
      "eventName": "Economy Watchers Current Index (Aug)",
      "eventTimeZone": "GMT",
      "eventPrevious": "45.1",
      "eventCurrency": "JPY",
      "eventForecast": "45.2"
    },
    {
      "eventDateTime": "2016-09-08T23:50:00",
      "eventActual": "3.3%",
      "eventCountry": "Japan",
      "eventExpectedVolatility": "Low",
      "eventName": "M2 Money Stock (YoY)",
      "eventTimeZone": "GMT",
      "eventPrevious": "3.4%",
      "eventCurrency": "JPY",
      "eventForecast": "3.3%"
    }
  ]}}
