{"events": {"event": {
    "eventDateTime": "2006-03-28T09:00:00",
    "eventActual": "105.4",
    "eventCountry": "Germany",
    "eventExpectedVolatility": "High",
    "eventName": "German Ifo Business Climate Index",
    "eventTimeZone": "GMT",
    "eventPrevious": "103.3",
    "eventCurrency": "EUR",
    "eventForecast": "102.9"
  }}}
