"ANZ Business Confidence (Jun)";"New Zealand";"NZD";"2018-06-27T01:00:00";"GMT";"-27.2";"";"-39.0";"Moderate"
"NBNZ Own Activity (Jun)";"New Zealand";"NZD";"2018-06-27T01:00:00";"GMT";"13.6%";"";"9.4%";"Low"
"RBNZ Interest Rate Decision";"New Zealand";"NZD";"2018-06-27T21:00:00";"GMT";"1.75%";"1.75%";"1.75%";"High"
"RBNZ Rate Statement";"New Zealand";"NZD";"2018-06-27T21:00:00";"GMT";" ";"";"";"High"
