{"events": {"event": [
    {
      "eventDateTime": "2001-05-11T17:00:00",
      "eventActual": "236",
      "eventCountry": "United States",
      "eventExpectedVolatility": "Moderate",
      "eventName": "U.S. Baker Hughes Oil Rig Count",
      "eventTimeZone": "GMT",
      "eventPrevious": "244",
      "eventCurrency": "USD",
      "eventForecast": ""
    },
    {
      "eventDateTime": "2001-05-11T20:30:00",
      "eventActual": "-0.5k",
      "eventCountry": "United States",
      "eventExpectedVolatility": "Moderate",
      "eventName": "CFTC Crude Oil speculative net positions",
      "eventTimeZone": "GMT",
      "eventPrevious": "6.1k",
      "eventCurrency": "USD",
      "eventForecast": ""
    }
  ]}}
