{"events": {"event": [
    {
      "eventDateTime": "2009-08-20T12:30:00",
      "eventActual": "576K",
      "eventCountry": "United States",
      "eventExpectedVolatility": "Moderate",
      "eventName": "Initial Jobless Claims",
      "eventTimeZone": "GMT",
      "eventPrevious": "561K",
      "eventCurrency": "USD",
      "eventForecast": "548K"
    },
    {
      "eventDateTime": "2009-08-20T14:00:00",
      "eventActual": "4.2",
      "eventCountry": "United States",
      "eventExpectedVolatility": "High",
      "eventName": "Philadelphia Fed Manufacturing Index",
      "eventTimeZone": "GMT",
      "eventPrevious": "-7.5",
      "eventCurrency": "USD",
      "eventForecast": "-1.9"
    },
    {
      "eventDateTime": "2009-08-20T14:30:00",
      "eventActual": "52B",
      "eventCountry": "United States",
      "eventExpectedVolatility": "Low",
      "eventName": "Natural Gas Storage",
      "eventTimeZone": "GMT",
      "eventPrevious": "63B",
      "eventCurrency": "USD",
      "eventForecast": ""
    },
    {
      "eventDateTime": "2009-08-20T17:30:00",
      "eventActual": "",
      "eventCountry": "United States",
      "eventExpectedVolatility": "Moderate",
      "eventName": "Treasury Secretary Geithner Speaks",
      "eventTimeZone": "GMT",
      "eventPrevious": "",
      "eventCurrency": "USD",
      "eventForecast": ""
    }
  ]}}
