{"events": {"event": [
    {
      "eventDateTime": "2015-07-15T00:00:00",
      "eventActual": "-2.4%",
      "eventCountry": "South Korea",
      "eventExpectedVolatility": "Low",
      "eventName": "Exports (YoY) (Jun)",
      "eventTimeZone": "GMT",
      "eventPrevious": "-1.8%",
      "eventCurrency": "KRW",
      "eventForecast": "-1.8%"
    },
    {
      "eventDateTime": "2015-07-15T00:00:00",
      "eventActual": "-13.6%",
      "eventCountry": "South Korea",
      "eventExpectedVolatility": "Low",
      "eventName": "Imports (YoY) (Jun)",
      "eventTimeZone": "GMT",
      "eventPrevious": "-13.6%",
      "eventCurrency": "KRW",
      "eventForecast": "-13.6%"
    },
    {
      "eventDateTime": "2015-07-15T00:00:00",
      "eventActual": "10.00B",
      "eventCountry": "South Korea",
      "eventExpectedVolatility": "Low",
      "eventName": "Trade Balance (Jun)",
      "eventTimeZone": "GMT",
      "eventPrevious": "10.20B",
      "eventCurrency": "KRW",
      "eventForecast": "10.20B"
    }
  ]}}
