{"events": {"event": {
    "eventDateTime": "2013-02-05T20:00:00",
    "eventActual": "4.20%",
    "eventCountry": "New Zealand",
    "eventExpectedVolatility": "Moderate",
    "eventName": "GlobalDairyTrade Price Index",
    "eventTimeZone": "GMT",
    "eventPrevious": "1.90%",
    "eventCurrency": "NZD",
    "eventForecast": ""
  }}}
