{"events": {"event": {
    "eventDateTime": "2013-07-26T19:30:00",
    "eventActual": "-49.7K",
    "eventCountry": "United Kingdom",
    "eventExpectedVolatility": "Moderate",
    "eventName": "CFTC GBP speculative net positions",
    "eventTimeZone": "GMT",
    "eventPrevious": "-37.4K",
    "eventCurrency": "GBP",
    "eventForecast": ""
  }}}
