"Bank Loan Growth (2wk)";"India";"INR";"2015-06-26T11:30:00";"GMT";"9.8%";"";"9.8%";"Low"
"Deposit Growth (2wk)";"India";"INR";"2015-06-26T11:30:00";"GMT";"11.5%";"";"11.7%";"Low"
"FX Reserves, USD";"India";"INR";"2015-06-26T11:30:00";"GMT";"354.29B";"";"355.46B";"Low"
