{"events": {"event": [
    {
      "eventDateTime": "2018-02-23T07:00:00",
      "eventActual": "0.6%",
      "eventCountry": "Germany",
      "eventExpectedVolatility": "High",
      "eventName": "German GDP (QoQ) (Q4)",
      "eventTimeZone": "GMT",
      "eventPrevious": "0.8%",
      "eventCurrency": "EUR",
      "eventForecast": "0.6%"
    },
    {
      "eventDateTime": "2018-02-23T07:00:00",
      "eventActual": "2.3%",
      "eventCountry": "Germany",
      "eventExpectedVolatility": "Moderate",
      "eventName": "German GDP (YoY) (Q4)",
      "eventTimeZone": "GMT",
      "eventPrevious": "2.3%",
      "eventCurrency": "EUR",
      "eventForecast": "2.3%"
    },
    {
      "eventDateTime": "2018-02-23T08:00:00",
      "eventActual": "0.1%",
      "eventCountry": "Spain",
      "eventExpectedVolatility": "Low",
      "eventName": "Spanish PPI (YoY)",
      "eventTimeZone": "GMT",
      "eventPrevious": "1.8%",
      "eventCurrency": "EUR",
      "eventForecast": ""
    },
    {
      "eventDateTime": "2018-02-23T10:00:00",
      "eventActual": "-0.9%",
      "eventCountry": "Euro Zone",
      "eventExpectedVolatility": "Moderate",
      "eventName": "CPI (MoM) (Jan)",
      "eventTimeZone": "GMT",
      "eventPrevious": "0.4%",
      "eventCurrency": "EUR",
      "eventForecast": "-0.9%"
    },
    {
      "eventDateTime": "2018-02-23T10:00:00",
      "eventActual": "1.3%",
      "eventCountry": "Euro Zone",
      "eventExpectedVolatility": "High",
      "eventName": "CPI (YoY) (Jan)",
      "eventTimeZone": "GMT",
      "eventPrevious": "1.3%",
      "eventCurrency": "EUR",
      "eventForecast": "1.3%"
    },
    {
      "eventDateTime": "2018-02-23T10:00:00",
      "eventActual": "-0.9%",
      "eventCountry": "Euro Zone",
      "eventExpectedVolatility": "Low",
      "eventName": "CPI ex Tobacco (MoM) (Jan)",
      "eventTimeZone": "GMT",
      "eventPrevious": "0.4%",
      "eventCurrency": "EUR",
      "eventForecast": ""
    },
    {
      "eventDateTime": "2018-02-23T10:00:00",
      "eventActual": "1.2%",
      "eventCountry": "Euro Zone",
      "eventExpectedVolatility": "Low",
      "eventName": "CPI ex Tobacco (YoY) (Jan)",
      "eventTimeZone": "GMT",
      "eventPrevious": "1.3%",
      "eventCurrency": "EUR",
      "eventForecast": ""
    },
    {
      "eventDateTime": "2018-02-23T10:00:00",
      "eventActual": "-1.7%",
      "eventCountry": "Euro Zone",
      "eventExpectedVolatility": "Low",
      "eventName": "Core CPI (MoM) (Jan)",
      "eventTimeZone": "GMT",
      "eventPrevious": "0.5%",
      "eventCurrency": "EUR",
      "eventForecast": ""
    },
    {
      "eventDateTime": "2018-02-23T10:00:00",
      "eventActual": "1.0%",
      "eventCountry": "Euro Zone",
      "eventExpectedVolatility": "Moderate",
      "eventName": "Core CPI (YoY) (Jan)",
      "eventTimeZone": "GMT",
      "eventPrevious": "0.9%",
      "eventCurrency": "EUR",
      "eventForecast": "1.0%"
    },
    {
      "eventDateTime": "2018-02-23T18:30:00",
      "eventActual": "",
      "eventCountry": "Euro Zone",
      "eventExpectedVolatility": "Moderate",
      "eventName": "ECB's Coeure Speaks",
      "eventTimeZone": "GMT",
      "eventPrevious": "",
      "eventCurrency": "EUR",
      "eventForecast": ""
    },
    {
      "eventDateTime": "2018-02-23T20:30:00",
      "eventActual": "126.1K",
      "eventCountry": "Euro Zone",
      "eventExpectedVolatility": "Moderate",
      "eventName": "CFTC EUR speculative net positions",
      "eventTimeZone": "GMT",
      "eventPrevious": "127.3K",
      "eventCurrency": "EUR",
      "eventForecast": ""
    }
  ]}}
