{"events": {"event": [
    {
      "eventDateTime": "2017-06-07T07:30:00",
      "eventActual": "0.4%",
      "eventCountry": "United Kingdom",
      "eventExpectedVolatility": "Moderate",
      "eventName": "Halifax House Price Index (MoM) (May)",
      "eventTimeZone": "GMT",
      "eventPrevious": "-0.1%",
      "eventCurrency": "GBP",
      "eventForecast": "-0.1%"
    },
    {
      "eventDateTime": "2017-06-07T07:30:00",
      "eventActual": "3.3%",
      "eventCountry": "United Kingdom",
      "eventExpectedVolatility": "Moderate",
      "eventName": "Halifax House Price Index (YoY) (May)",
      "eventTimeZone": "GMT",
      "eventPrevious": "3.8%",
      "eventCurrency": "GBP",
      "eventForecast": "3.0%"
    },
    {
      "eventDateTime": "2017-06-07T23:01:00",
      "eventActual": "17%",
      "eventCountry": "United Kingdom",
      "eventExpectedVolatility": "Moderate",
      "eventName": "RICS House Price Balance (May)",
      "eventTimeZone": "GMT",
      "eventPrevious": "22%",
      "eventCurrency": "GBP",
      "eventForecast": "20%"
    }
  ]}}
