{"events": {"event": {
    "eventDateTime": "2019-09-10T11:00:00",
    "eventActual": "0.4%",
    "eventCountry": "South Africa",
    "eventExpectedVolatility": "Low",
    "eventName": "Manufacturing Production (MoM) (Jul)",
    "eventTimeZone": "GMT",
    "eventPrevious": "-1.5%",
    "eventCurrency": "ZAR",
    "eventForecast": "1.2%"
  }}}
