{"events": {"event": {
    "eventDateTime": "2013-11-14T06:30:00",
    "eventActual": "7.00%",
    "eventCountry": "India",
    "eventExpectedVolatility": "Moderate",
    "eventName": "WPI Inflation (YoY)",
    "eventTimeZone": "GMT",
    "eventPrevious": "6.46%",
    "eventCurrency": "INR",
    "eventForecast": "6.90%"
  }}}
