"Nationwide HPI (MoM) (Oct)";"United Kingdom";"GBP";"2015-10-29T07:00:00";"GMT";"0.5%";"0.5%";"0.6%";"Moderate"
"Nationwide HPI (YoY) (Oct)";"United Kingdom";"GBP";"2015-10-29T07:00:00";"GMT";"3.8%";"3.8%";"3.9%";"Moderate"
"BoE Consumer Credit (Sep)";"United Kingdom";"GBP";"2015-10-29T09:30:00";"GMT";"1.263B";"1.100B";"1.261B";"Low"
"M4 Money Supply (MoM) (Sep)";"United Kingdom";"GBP";"2015-10-29T09:30:00";"GMT";"-0.5%";"-0.2%";"-1.0%";"Low"
"Mortgage Approvals (Sep)";"United Kingdom";"GBP";"2015-10-29T09:30:00";"GMT";"70.66K";"72.45K";"68.87K";"Low"
"Mortgage Lending (Sep)";"United Kingdom";"GBP";"2015-10-29T09:30:00";"GMT";"3.40B";"3.50B";"3.60B";"Low"
"Net Lending to Individuals";"United Kingdom";"GBP";"2015-10-29T09:30:00";"GMT";"4.7B";"4.4B";"4.9B";"Low"
"CBI Distributive Trades Survey (Oct)";"United Kingdom";"GBP";"2015-10-29T11:00:00";"GMT";"49";"35";"19";"Low"
