"Continuing Jobless Claims";"United States";"USD";"2019-08-22T12:30:00";"GMT";"1,728K";"1,700K";"1,674K";"Low"
"Initial Jobless Claims";"United States";"USD";"2019-08-22T12:30:00";"GMT";"221K";"216K";"209K";"Moderate"
"Jobless Claims 4-Week Avg.";"United States";"USD";"2019-08-22T12:30:00";"GMT";"214.00K";"";"214.50K";"Low"
"Manufacturing PMI (Aug)";"United States";"USD";"2019-08-22T13:45:00";"GMT";"50.4";"50.5";"49.9";"Moderate"
"Markit Composite PMI (Aug)";"United States";"USD";"2019-08-22T13:45:00";"GMT";"52.6";"";"50.9";"Moderate"
"Services PMI (Aug)";"United States";"USD";"2019-08-22T13:45:00";"GMT";"53.0";"52.9";"50.9";"Moderate"
"Natural Gas Storage";"United States";"USD";"2019-08-22T14:30:00";"GMT";"49B";"60B";"59B";"Low"
"KC Fed Composite Index (Aug)";"United States";"USD";"2019-08-22T15:00:00";"GMT";"-1";"";"-6";"Low"
"KC Fed Manufacturing Index (Aug)";"United States";"USD";"2019-08-22T15:00:00";"GMT";"-6";"-10";"-2";"Low"
"4-Week Bill Auction";"United States";"USD";"2019-08-22T15:30:00";"GMT";"2.040%";"";"2.060%";"Low"
"8-Week Bill Auction";"United States";"USD";"2019-08-22T15:30:00";"GMT";"1.950%";"";"1.985%";"Low"
"Jackson Hole Symposium";"United States";"USD";"2019-08-22T16:30:00";"GMT";" ";"";"";"Moderate"
"30-Year TIPS Auction";"United States";"USD";"2019-08-22T17:00:00";"GMT";"1.093%";"";"0.501%";"Low"
