{"events": {"event": [
    {
      "eventDateTime": "2010-01-12T13:30:00",
      "eventActual": "-36.4B",
      "eventCountry": "United States",
      "eventExpectedVolatility": "Moderate",
      "eventName": "Trade Balance",
      "eventTimeZone": "GMT",
      "eventPrevious": "-33.2B",
      "eventCurrency": "USD",
      "eventForecast": "-34.5B"
    },
    {
      "eventDateTime": "2010-01-12T15:00:00",
      "eventActual": "48.8",
      "eventCountry": "United States",
      "eventExpectedVolatility": "Low",
      "eventName": "IBD/TIPP Economic Optimism",
      "eventTimeZone": "GMT",
      "eventPrevious": "46.8",
      "eventCurrency": "USD",
      "eventForecast": "49.1"
    },
    {
      "eventDateTime": "2010-01-12T22:00:00",
      "eventActual": "26.5",
      "eventCountry": "United States",
      "eventExpectedVolatility": "Low",
      "eventName": "Bloomberg Consumer Confidence",
      "eventTimeZone": "GMT",
      "eventPrevious": "29.5",
      "eventCurrency": "USD",
      "eventForecast": ""
    }
  ]}}
