"GDP (MoM) (Jan)";"Canada";"CAD";"2019-03-29T12:30:00";"GMT";"-0.1%";"0.1%";"0.3%";"High"
"GDP (YoY)";"Canada";"CAD";"2019-03-29T12:30:00";"GMT";"1.1%";"1.5%";"1.6%";"Moderate"
"IPPI (MoM) (Feb)";"Canada";"CAD";"2019-03-29T12:30:00";"GMT";"-0.3%";"";"0.3%";"Low"
"IPPI (YoY) (Feb)";"Canada";"CAD";"2019-03-29T12:30:00";"GMT";"1.0%";"";"1.2%";"Low"
"RMPI (MoM) (Feb)";"Canada";"CAD";"2019-03-29T12:30:00";"GMT";"4.0%";"";"4.6%";"Moderate"
"RMPI (YoY) (Feb)";"Canada";"CAD";"2019-03-29T12:30:00";"GMT";"-5.1%";"";"-0.6%";"Low"
"Budget Balance (Jan)";"Canada";"CAD";"2019-03-29T15:00:00";"GMT";"2.45B";"";"-1.50B";"Low"
"Budget Balance (YoY) (Jan)";"Canada";"CAD";"2019-03-29T15:00:00";"GMT";"0.32B";"";"";"Low"
"CFTC CAD speculative net positions";"Canada";"CAD";"2019-03-29T19:30:00";"GMT";"-47.8K";"";"-39.6K";"Low"
