{"events": {"event": [
    {
      "eventDateTime": "2019-06-20T13:00:00",
      "eventActual": "504.5B",
      "eventCountry": "Russia",
      "eventExpectedVolatility": "Moderate",
      "eventName": "Central Bank reserves (USD)",
      "eventTimeZone": "GMT",
      "eventPrevious": "502.7B",
      "eventCurrency": "RUB",
      "eventForecast": ""
    },
    {
      "eventDateTime": "2019-06-20T13:00:00",
      "eventActual": "1.4%",
      "eventCountry": "Russia",
      "eventExpectedVolatility": "Moderate",
      "eventName": "Retail Sales (YoY)",
      "eventTimeZone": "GMT",
      "eventPrevious": "1.6%",
      "eventCurrency": "RUB",
      "eventForecast": "1.2%"
    },
    {
      "eventDateTime": "2019-06-20T13:00:00",
      "eventActual": "2.8%",
      "eventCountry": "Russia",
      "eventExpectedVolatility": "Low",
      "eventName": "Russian Real Wage Growth (YoY)",
      "eventTimeZone": "GMT",
      "eventPrevious": "3.1%",
      "eventCurrency": "RUB",
      "eventForecast": "1.5%"
    },
    {
      "eventDateTime": "2019-06-20T13:00:00",
      "eventActual": "4.5%",
      "eventCountry": "Russia",
      "eventExpectedVolatility": "Moderate",
      "eventName": "Unemployment Rate (May)",
      "eventTimeZone": "GMT",
      "eventPrevious": "4.7%",
      "eventCurrency": "RUB",
      "eventForecast": "4.6%"
    }
  ]}}
