"German CPI (MoM)";"Germany";"EUR";"2008-08-14T06:00:00";"GMT";"0.6%";"0.6%";"0.6%";"Moderate"
"German GDP (QoQ)";"Germany";"EUR";"2008-08-14T06:00:00";"GMT";"1.5%";"-0.8%";"-0.5%";"High"
"French GDP (QoQ)";"France";"EUR";"2008-08-14T06:45:00";"GMT";"0.5%";"0.1%";"-0.3%";"Moderate"
"French Non-Farm Payrolls (QoQ)";"France";"EUR";"2008-08-14T06:45:00";"GMT";"0.4%";"0.2%";"-0.1%";"Moderate"
"CPI (YoY)";"Euro Zone";"EUR";"2008-08-14T09:00:00";"GMT";"4.1%";"4.1%";"4.0%";"High"
