"10-Year Note Auction (Jun)";"United States";"USD";"2006-07-01T09:00:00";"GMT";"5.13%";"";"5.13%";"Moderate"
"5-Year Note Auction (Jun)";"United States";"USD";"2006-07-01T09:00:00";"GMT";"4.88%";"";"5.13%";"Low"
"All Car Sales (Jun)";"United States";"USD";"2006-07-01T09:00:00";"GMT";"7.63M";"";"7.59M";"Low"
"All Truck Sales (Jun)";"United States";"USD";"2006-07-01T09:00:00";"GMT";"8.54M";"";"8.76M";"Low"
"Average Hourly Earnings (MoM) (Jun)";"United States";"USD";"2006-07-01T09:00:00";"GMT";"-0.10%";"";"0.50%";"Moderate"
"Average Weekly Hours (Jun)";"United States";"USD";"2006-07-01T09:00:00";"GMT";"34.50";"";"34.60";"Low"
"Business Inventories (MoM) (Jun)";"United States";"USD";"2006-07-01T09:00:00";"GMT";"1.10%";"";"0.90%";"Moderate"
"CB Consumer Confidence (Jun)";"United States";"USD";"2006-07-01T09:00:00";"GMT";"104.70";"";"105.40";"High"
"CB Employment Trends Index (Jun)";"United States";"USD";"2006-07-01T09:00:00";"GMT";"126.60";"";"126.40";"Low"
"CPI (MoM) (Jun)";"United States";"USD";"2006-07-01T09:00:00";"GMT";"0.30%";"";"0.20%";"Moderate"
"CPI (YoY) (Jun)";"United States";"USD";"2006-07-01T09:00:00";"GMT";"4.20%";"";"4.30%";"Low"
"CPI Index, n.s.a. (Jun)";"United States";"USD";"2006-07-01T09:00:00";"GMT";"202.50";"";"202.90";"Low"
"Capacity Utilization Rate (Jun)";"United States";"USD";"2006-07-01T09:00:00";"GMT";"80.20%";"";"80.40%";"Low"
"Chain Store Sales (MoM) (Jun)";"United States";"USD";"2006-07-01T09:00:00";"GMT";"4.50%";"";"3.00%";"Low"
"Chain Store Sales (WoW) (Jun)";"United States";"USD";"2006-07-01T09:00:00";"GMT";"-0.47%";"";"0.03%";"Low"
"Chain Store Sales (YoY) (Jun)";"United States";"USD";"2006-07-01T09:00:00";"GMT";"3.57%";"";"3.70%";"Low"
"Challenger Job Cuts (Jun)";"United States";"USD";"2006-07-01T09:00:00";"GMT";"53.72K";"";"75.08K";"Low"
"Chicago Fed National Activity (Jun)";"United States";"USD";"2006-07-01T09:00:00";"GMT";"-0.16";"";"0.02";"Low"
"Chicago PMI (Jun)";"United States";"USD";"2006-07-01T09:00:00";"GMT";"58.80";"";"56.50";"Moderate"
"Cleveland CPI (MoM) (Jun)";"United States";"USD";"2006-07-01T09:00:00";"GMT";"0.40%";"";"0.30%";"Low"
"Construction Spending (MoM) (Jun)";"United States";"USD";"2006-07-01T09:00:00";"GMT";"-0.30%";"";"-0.60%";"Low"
"Consumer Credit (Jun)";"United States";"USD";"2006-07-01T09:00:00";"GMT";"10.50B";"";"-11.05B";"Low"
"Continuing Jobless Claims (Jun)";"United States";"USD";"2006-07-01T09:00:00";"GMT";"2,386.91K";"";"2,406.41K";"Low"
"Core CPI (MoM) (Jun)";"United States";"USD";"2006-07-01T09:00:00";"GMT";"0.30%";"";"0.20%";"High"
"Core CPI (YoY) (Jun)";"United States";"USD";"2006-07-01T09:00:00";"GMT";"2.40%";"";"2.60%";"Moderate"
"Core CPI Index (Jun)";"United States";"USD";"2006-07-01T09:00:00";"GMT";"205.40";"";"205.90";"Low"
"Core PCE Price Index (MoM) (Jun)";"United States";"USD";"2006-07-01T09:00:00";"GMT";"0.20%";"";"0.20%";"Moderate"
"Core PCE Price Index (YoY) (Jun)";"United States";"USD";"2006-07-01T09:00:00";"GMT";"2.20%";"";"2.40%";"Moderate"
"Core Retail Sales (MoM) (Jun)";"United States";"USD";"2006-07-01T09:00:00";"GMT";"-0.10%";"";"0.00%";"High"
"Crude Oil Inventories (Jun)";"United States";"USD";"2006-07-01T09:00:00";"GMT";"-0.11M";"";"-1.11M";"High"
"Dallas Fed Mfg Business Index (Jun)";"United States";"USD";"2006-07-01T09:00:00";"GMT";"14.90";"";"14.50";"Low"
"Dallas Fed PCE (Jun)";"United States";"USD";"2006-07-01T09:00:00";"GMT";"3.50%";"";"3.60%";"Low"
"Domestic Truck Sales (Jun)";"United States";"USD";"2006-07-01T09:00:00";"GMT";"7.21M";"";"7.48M";"Low"
"Durables Excluding Defense (MoM) (Jun)";"United States";"USD";"2006-07-01T09:00:00";"GMT";"1.20%";"";"0.60%";"Low"
"EIA Weekly Distillates Stocks (Jun)";"United States";"USD";"2006-07-01T09:00:00";"GMT";"1.18M";"";"1.68M";"Low"
"Existing Home Sales (Jun)";"United States";"USD";"2006-07-01T09:00:00";"GMT";"6.58M";"";"6.48M";"High"
"Existing Home Sales (MoM) (Jun)";"United States";"USD";"2006-07-01T09:00:00";"GMT";"-1.80%";"";"-1.50%";"Moderate"
"Export Price Index (MoM) (Jun)";"United States";"USD";"2006-07-01T09:00:00";"GMT";"0.70%";"";"0.70%";"Moderate"
"Factory Orders (MoM) (Jun)";"United States";"USD";"2006-07-01T09:00:00";"GMT";"1.30%";"";"1.10%";"Moderate"
"Factory orders ex transportation (MoM) (Jun)";"United States";"USD";"2006-07-01T09:00:00";"GMT";"1.80%";"";"0.20%";"Low"
"Federal Budget Balance (Jun)";"United States";"USD";"2006-07-01T09:00:00";"GMT";"-42.90B";"";"20.50B";"Moderate"
"Gasoline Inventories (Jun)";"United States";"USD";"2006-07-01T09:00:00";"GMT";"1.57M";"";"0.72M";"Low"
"Government Payrolls (Jun)";"United States";"USD";"2006-07-01T09:00:00";"GMT";"7.00K";"";"-4.00K";"Low"
"House Price Index (Jun)";"United States";"USD";"2006-07-01T09:00:00";"GMT";"223.30";"";"223.30";"Low"
"House Price Index (MoM) (Jun)";"United States";"USD";"2006-07-01T09:00:00";"GMT";"0.30%";"";"0.00%";"Low"
"House Price Index (YoY) (Jun)";"United States";"USD";"2006-07-01T09:00:00";"GMT";"7.30%";"";"6.40%";"Low"
"Housing Starts (Jun)";"United States";"USD";"2006-07-01T09:00:00";"GMT";"1.94M";"";"1.80M";"Moderate"
"Housing Starts (MoM) (Jun)";"United States";"USD";"2006-07-01T09:00:00";"GMT";"6.60%";"";"-7.20%";"Moderate"
"ISM Manufacturing Employment (Jun)";"United States";"USD";"2006-07-01T09:00:00";"GMT";"53.20";"";"49.90";"Moderate"
"ISM Manufacturing New Orders Index (Jun)";"United States";"USD";"2006-07-01T09:00:00";"GMT";"54.90";"";"55.00";"Low"
"ISM Manufacturing PMI (Jun)";"United States";"USD";"2006-07-01T09:00:00";"GMT";"53.70";"";"52.00";"High"
"ISM Manufacturing Prices (Jun)";"United States";"USD";"2006-07-01T09:00:00";"GMT";"77.00";"";"76.50";"Low"
"ISM Non-Manufacturing Business Activity (Jun)";"United States";"USD";"2006-07-01T09:00:00";"GMT";"58.10";"";"56.40";"Low"
"ISM Non-Manufacturing Employment (Jun)";"United States";"USD";"2006-07-01T09:00:00";"GMT";"54.60";"";"51.20";"Moderate"
"ISM Non-Manufacturing New Orders (Jun)";"United States";"USD";"2006-07-01T09:00:00";"GMT";"58.60";"";"57.00";"Low"
"ISM Non-Manufacturing PMI (Jun)";"United States";"USD";"2006-07-01T09:00:00";"GMT";"57.00";"";"55.20";"High"
"ISM Non-Manufacturing Prices (Jun)";"United States";"USD";"2006-07-01T09:00:00";"GMT";"70.50";"";"69.00";"Low"
"ISM-New York Index (Jun)";"United States";"USD";"2006-07-01T09:00:00";"GMT";"375.70";"";"382.10";"Low"
"Import Price Index (MoM) (Jun)";"United States";"USD";"2006-07-01T09:00:00";"GMT";"1.80%";"";"0.10%";"Moderate"
"Industrial Production (MoM) (Jun)";"United States";"USD";"2006-07-01T09:00:00";"GMT";"-0.10%";"";"0.40%";"Moderate"
"Initial Jobless Claims (Jun)";"United States";"USD";"2006-07-01T09:00:00";"GMT";"329.39K";"";"307.68K";"Moderate"
"JOLTs Job Openings (Jun)";"United States";"USD";"2006-07-01T09:00:00";"GMT";"4.43M";"";"4.33M";"High"
"Jobless Claims 4-Week Avg. (Jun)";"United States";"USD";"2006-07-01T09:00:00";"GMT";"326.83K";"";"310.59K";"Low"
"KC Fed Composite Index (Jun)";"United States";"USD";"2006-07-01T09:00:00";"GMT";"17.00";"";"17.00";"Low"
"KC Fed Manufacturing Index (Jun)";"United States";"USD";"2006-07-01T09:00:00";"GMT";"25.00";"";"19.00";"Low"
"MBA 30-Year Mortgage Rate (Jun)";"United States";"USD";"2006-07-01T09:00:00";"GMT";"6.63%";"";"6.74%";"Low"
"MBA Purchase Index (Jun)";"United States";"USD";"2006-07-01T09:00:00";"GMT";"407.06";"";"407.01";"Low"
"Manufacturing Payrolls (Jun)";"United States";"USD";"2006-07-01T09:00:00";"GMT";"-23.00K";"";"10.00K";"Low"
"Manufacturing Production (MoM) (Jun)";"United States";"USD";"2006-07-01T09:00:00";"GMT";"-0.50%";"";"0.30%";"Low"
"Michigan 5-Year Inflation Expectations (Jun)";"United States";"USD";"2006-07-01T09:00:00";"GMT";"3.20%";"";"2.90%";"Low"
"Michigan Consumer Expectations (Jun)";"United States";"USD";"2006-07-01T09:00:00";"GMT";"68.20";"";"69.20";"Moderate"
"Michigan Consumer Sentiment (Jun)";"United States";"USD";"2006-07-01T09:00:00";"GMT";"79.00";"";"84.90";"Moderate"
"Michigan Current Conditions (Jun)";"United States";"USD";"2006-07-01T09:00:00";"GMT";"96.20";"";"105.00";"Low"
"Michigan Inflation Expectations (Jun)";"United States";"USD";"2006-07-01T09:00:00";"GMT";"4.00%";"";"3.30%";"Low"
"Midwest Manufacturing (Jun)";"United States";"USD";"2006-07-01T09:00:00";"GMT";"99.00";"";"99.60";"Low"
"Mortgage Market Index (Jun)";"United States";"USD";"2006-07-01T09:00:00";"GMT";"557.66";"";"555.42";"Low"
"Mortgage Refinance Index (Jun)";"United States";"USD";"2006-07-01T09:00:00";"GMT";"1,451.59";"";"1,429.05";"Low"
"NAHB Housing Market Index (Jun)";"United States";"USD";"2006-07-01T09:00:00";"GMT";"46.00";"";"42.00";"Low"
"NFIB Small Business Optimism (Jun)";"United States";"USD";"2006-07-01T09:00:00";"GMT";"98.50";"";"96.70";"Low"
"NY Empire State Manufacturing Index (Jun)";"United States";"USD";"2006-07-01T09:00:00";"GMT";"18.62";"";"26.49";"Moderate"
"Natural Gas Storage (Jun)";"United States";"USD";"2006-07-01T09:00:00";"GMT";"83.74B";"";"74.05B";"Low"
"New Home Sales (Jun)";"United States";"USD";"2006-07-01T09:00:00";"GMT";"1,086.00K";"";"1,074.00K";"High"
"New Home Sales (MoM) (Jun)";"United States";"USD";"2006-07-01T09:00:00";"GMT";"-3.30%";"";"-1.10%";"Moderate"
"Overall Net Capital Flow (Jun)";"United States";"USD";"2006-07-01T09:00:00";"GMT";"104.70B";"";"3.40B";"Low"
"Pending Home Sales (MoM) (Jun)";"United States";"USD";"2006-07-01T09:00:00";"GMT";"-1.10%";"";"-1.20%";"High"
"Pending Home Sales Index (Jun)";"United States";"USD";"2006-07-01T09:00:00";"GMT";"112.50";"";"111.10";"Low"
"Personal Income (MoM) (Jun)";"United States";"USD";"2006-07-01T09:00:00";"GMT";"0.10%";"";"0.40%";"Low"
"Personal Spending (MoM) (Jun)";"United States";"USD";"2006-07-01T09:00:00";"GMT";"0.30%";"";"0.30%";"Moderate"
"Philadelphia Fed Manufacturing Index (Jun)";"United States";"USD";"2006-07-01T09:00:00";"GMT";"13.70";"";"11.60";"High"
"Philly Fed Business Conditions (Jun)";"United States";"USD";"2006-07-01T09:00:00";"GMT";"17.10";"";"5.80";"Low"
"Philly Fed CAPEX Index (Jun)";"United States";"USD";"2006-07-01T09:00:00";"GMT";"18.60";"";"15.60";"Low"
"Philly Fed Employment (Jun)";"United States";"USD";"2006-07-01T09:00:00";"GMT";"0.60";"";"7.40";"Moderate"
"Philly Fed New Orders (Jun)";"United States";"USD";"2006-07-01T09:00:00";"GMT";"3.20";"";"15.20";"Low"
"Philly Fed Prices Paid (Jun)";"United States";"USD";"2006-07-01T09:00:00";"GMT";"51.80";"";"43.70";"Low"
"Private Nonfarm Payrolls (Jun)";"United States";"USD";"2006-07-01T09:00:00";"GMT";"17.00K";"";"81.00K";"Moderate"
"Real Earnings (MoM) (Jun)";"United States";"USD";"2006-07-01T09:00:00";"GMT";"-0.70%";"";"0.50%";"Low"
"Real Personal Consumption (MoM) (Jun)";"United States";"USD";"2006-07-01T09:00:00";"GMT";"0.10%";"";"0.10%";"Low"
"Redbook (MoM) (Jun)";"United States";"USD";"2006-07-01T09:00:00";"GMT";"-2.25%";"";"1.88%";"Low"
"Redbook (YoY) (Jun)";"United States";"USD";"2006-07-01T09:00:00";"GMT";"3.13%";"";"3.12%";"Low"
"Retail Control (MoM) (Jun)";"United States";"USD";"2006-07-01T09:00:00";"GMT";"0.20%";"";"0.20%";"Low"
"Retail Sales (MoM) (Jun)";"United States";"USD";"2006-07-01T09:00:00";"GMT";"-0.40%";"";"0.40%";"High"
"Retail Sales Ex Gas/Autos (MoM) (Jun)";"United States";"USD";"2006-07-01T09:00:00";"GMT";"-0.20%";"";"0.00%";"Low"
"Richmond Manufacturing Index (Jun)";"United States";"USD";"2006-07-01T09:00:00";"GMT";"-9.00";"";"-2.00";"Low"
"Richmond Manufacturing Shipments (Jun)";"United States";"USD";"2006-07-01T09:00:00";"GMT";"-14.00";"";"-7.00";"Low"
"Richmond Services Index (Jun)";"United States";"USD";"2006-07-01T09:00:00";"GMT";"13.00";"";"14.00";"Low"
"Sandamp;P/CS HPI Composite - 20 n.s.a. (MoM) (Jun)";"United States";"USD";"2006-07-01T09:00:00";"GMT";"0.50%";"";"0.30%";"Low"
"Sandamp;P/CS HPI Composite - 20 n.s.a. (YoY) (Jun)";"United States";"USD";"2006-07-01T09:00:00";"GMT";"10.00%";"";"8.60%";"Moderate"
"Sandamp;P/CS HPI Composite - 20 s.a. (MoM) (Jun)";"United States";"USD";"2006-07-01T09:00:00";"GMT";"-0.10%";"";"-0.30%";"Low"
"TIC Net Long-Term Transactions (Jun)";"United States";"USD";"2006-07-01T09:00:00";"GMT";"81.00B";"";"83.50B";"Moderate"
"TIC Net Long-Term Transactions including Swaps (Jun)";"United States";"USD";"2006-07-01T09:00:00";"GMT";"70.70B";"";"66.20B";"Low"
"Trade Balance (Jun)";"United States";"USD";"2006-07-01T09:00:00";"GMT";"-64.80B";"";"-63.50B";"Moderate"
"US Foreign Buying, T-bonds (Jun)";"United States";"USD";"2006-07-01T09:00:00";"GMT";"15.40B";"";"28.70B";"Low"
"Wholesale Inventories (MoM) (Jun)";"United States";"USD";"2006-07-01T09:00:00";"GMT";"0.70%";"";"0.70%";"Low"
"ADP Nonfarm Employment Change (Jun)";"United States";"USD";"2006-07-01T12:15:00";"GMT";"143K";"";"125K";"High"
"U6 Unemployment Rate (Jun)";"United States";"USD";"2006-07-01T12:30:00";"GMT";"8.20%";"";"8.40%";"Low"
"Unemployment Rate (Jun)";"United States";"USD";"2006-07-01T12:30:00";"GMT";"4.6%";"";"4.6%";"High"
