"ANZ Internet Job Ads (MoM) (Apr)";"Australia";"AUD";"2000-05-01T09:00:00";"GMT";"10.40%";"";"6.50%";"Low"
"ANZ Newspaper Job Ads (MoM) (Apr)";"Australia";"AUD";"2000-05-01T09:00:00";"GMT";"1.00%";"";"0.00%";"Low"
"Building Approvals (MoM) (Apr)";"Australia";"AUD";"2000-05-01T09:00:00";"GMT";"-9.90%";"";"-4.10%";"Moderate"
"Employment Change (Apr)";"Australia";"AUD";"2000-05-01T09:00:00";"GMT";"48.20K";"";"36.70K";"High"
"Exports (MoM) (Apr)";"Australia";"AUD";"2000-05-01T09:00:00";"GMT";"1.00%";"";"-0.20%";"Low"
"Full Employment Change (Apr)";"Australia";"AUD";"2000-05-01T09:00:00";"GMT";"44.00K";"";"14.50K";"Moderate"
"HIA New Home Sales (MoM) (Apr)";"Australia";"AUD";"2000-05-01T09:00:00";"GMT";"13.60%";"";"9.80%";"Moderate"
"Home Loans (MoM) (Apr)";"Australia";"AUD";"2000-05-01T09:00:00";"GMT";"-6.60%";"";"-6.30%";"Moderate"
"Housing Credit (Apr)";"Australia";"AUD";"2000-05-01T09:00:00";"GMT";"1.60%";"";"1.20%";"Low"
"Imports (MoM) (Apr)";"Australia";"AUD";"2000-05-01T09:00:00";"GMT";"0.40%";"";"-2.20%";"Low"
"Invest Housing Finance (MoM) (Apr)";"Australia";"AUD";"2000-05-01T09:00:00";"GMT";"-6.80%";"";"-3.00%";"Low"
"NAB Business Confidence (Apr)";"Australia";"AUD";"2000-05-01T09:00:00";"GMT";"7.00";"";"0.00";"Moderate"
"NAB Business Survey (Apr)";"Australia";"AUD";"2000-05-01T09:00:00";"GMT";"9.60";"";"7.40";"Low"
"Participation Rate (Apr)";"Australia";"AUD";"2000-05-01T09:00:00";"GMT";"63.10%";"";"63.20%";"Low"
"Private House Approvals (Apr)";"Australia";"AUD";"2000-05-01T09:00:00";"GMT";"-3.20%";"";"-10.40%";"Low"
"Private Sector Credit (MoM) (Apr)";"Australia";"AUD";"2000-05-01T09:00:00";"GMT";"0.60%";"";"0.60%";"Moderate"
"RBA Interest Rate Decision (Apr)";"Australia";"AUD";"2000-05-01T09:00:00";"GMT";"5.50%";"";"5.75%";"High"
"Retail Sales (MoM) (Apr)";"Australia";"AUD";"2000-05-01T09:00:00";"GMT";"0.30%";"";"0.10%";"High"
"Trade Balance (Apr)";"Australia";"AUD";"2000-05-01T09:00:00";"GMT";"-0.66B";"";"-0.42B";"Moderate"
"Unemployment Rate (Apr)";"Australia";"AUD";"2000-05-01T09:00:00";"GMT";"6.60%";"";"6.40%";"Moderate"
"Westpac Consumer Sentiment (Apr)";"Australia";"AUD";"2000-05-01T09:00:00";"GMT";"0.70%";"";"-4.20%";"Moderate"
