{"events": {"event": [
    {
      "eventDateTime": "2017-08-09T12:00:00",
      "eventActual": "0.24%",
      "eventCountry": "Brazil",
      "eventExpectedVolatility": "Moderate",
      "eventName": "CPI (MoM) (Jul)",
      "eventTimeZone": "GMT",
      "eventPrevious": "-0.23%",
      "eventCurrency": "BRL",
      "eventForecast": "0.19%"
    },
    {
      "eventDateTime": "2017-08-09T12:00:00",
      "eventActual": "2.71%",
      "eventCountry": "Brazil",
      "eventExpectedVolatility": "Moderate",
      "eventName": "CPI (YoY) (Jul)",
      "eventTimeZone": "GMT",
      "eventPrevious": "3.00%",
      "eventCurrency": "BRL",
      "eventForecast": "2.66%"
    },
    {
      "eventDateTime": "2017-08-09T15:30:00",
      "eventActual": "0.36B",
      "eventCountry": "Brazil",
      "eventExpectedVolatility": "Low",
      "eventName": "Foreign Exchange Flows",
      "eventTimeZone": "GMT",
      "eventPrevious": "-2.63B",
      "eventCurrency": "BRL",
      "eventForecast": ""
    },
    {
      "eventDateTime": "2017-08-09T18:00:00",
      "eventActual": "35.90K",
      "eventCountry": "Brazil",
      "eventExpectedVolatility": "Moderate",
      "eventName": "CAGED Net Payroll Jobs (Jul)",
      "eventTimeZone": "GMT",
      "eventPrevious": "9.82K",
      "eventCurrency": "BRL",
      "eventForecast": ""
    }
  ]}}
