{"events": {"event": [
    {
      "eventDateTime": "2013-07-10T06:00:00",
      "eventActual": "0.1%",
      "eventCountry": "Germany",
      "eventExpectedVolatility": "Moderate",
      "eventName": "German CPI (MoM)",
      "eventTimeZone": "GMT",
      "eventPrevious": "0.1%",
      "eventCurrency": "EUR",
      "eventForecast": "0.1%"
    },
    {
      "eventDateTime": "2013-07-10T06:00:00",
      "eventActual": "1.8%",
      "eventCountry": "Germany",
      "eventExpectedVolatility": "Low",
      "eventName": "German CPI (YoY)",
      "eventTimeZone": "GMT",
      "eventPrevious": "1.8%",
      "eventCurrency": "EUR",
      "eventForecast": "1.8%"
    },
    {
      "eventDateTime": "2013-07-10T06:45:00",
      "eventActual": "-4.10B",
      "eventCountry": "France",
      "eventExpectedVolatility": "Low",
      "eventName": "French Current Account",
      "eventTimeZone": "GMT",
      "eventPrevious": "-2.80B",
      "eventCurrency": "EUR",
      "eventForecast": ""
    },
    {
      "eventDateTime": "2013-07-10T06:45:00",
      "eventActual": "-0.4%",
      "eventCountry": "France",
      "eventExpectedVolatility": "Low",
      "eventName": "French Industrial Production (MoM)",
      "eventTimeZone": "GMT",
      "eventPrevious": "2.2%",
      "eventCurrency": "EUR",
      "eventForecast": "-0.8%"
    },
    {
      "eventDateTime": "2013-07-10T08:00:00",
      "eventActual": "0.1%",
      "eventCountry": "Italy",
      "eventExpectedVolatility": "Low",
      "eventName": "Italian Industrial Production (MoM)",
      "eventTimeZone": "GMT",
      "eventPrevious": "-0.3%",
      "eventCurrency": "EUR",
      "eventForecast": "0.3%"
    },
    {
      "eventDateTime": "2013-07-10T08:00:00",
      "eventActual": "-4.2%",
      "eventCountry": "Italy",
      "eventExpectedVolatility": "Low",
      "eventName": "Italian Industrial Production (YoY)",
      "eventTimeZone": "GMT",
      "eventPrevious": "-4.7%",
      "eventCurrency": "EUR",
      "eventForecast": "-4.7%"
    },
    {
      "eventDateTime": "2013-07-10T09:10:00",
      "eventActual": "1.078%",
      "eventCountry": "Italy",
      "eventExpectedVolatility": "Low",
      "eventName": "Italian 12-Month BOT Auction",
      "eventTimeZone": "GMT",
      "eventPrevious": "0.962%",
      "eventCurrency": "EUR",
      "eventForecast": ""
    },
    {
      "eventDateTime": "2013-07-10T09:10:00",
      "eventActual": "0.599%",
      "eventCountry": "Italy",
      "eventExpectedVolatility": "Low",
      "eventName": "Italian 3-Month BOT Auction",
      "eventTimeZone": "GMT",
      "eventPrevious": "0.393%",
      "eventCurrency": "EUR",
      "eventForecast": ""
    },
    {
      "eventDateTime": "2013-07-10T09:30:00",
      "eventActual": "0.180%",
      "eventCountry": "Germany",
      "eventExpectedVolatility": "Low",
      "eventName": "German 2-Year Schatz Auction",
      "eventTimeZone": "GMT",
      "eventPrevious": "0.180%",
      "eventCurrency": "EUR",
      "eventForecast": ""
    }
  ]}}
