{"events": {"event": {
    "eventDateTime": "2012-11-28T21:00:00",
    "eventActual": "69.00",
    "eventCountry": "South Korea",
    "eventExpectedVolatility": "Low",
    "eventName": "Manufacturing BSI Index",
    "eventTimeZone": "GMT",
    "eventPrevious": "72.00",
    "eventCurrency": "KRW",
    "eventForecast": ""
  }}}
