{"events": {"event": [
    {
      "eventDateTime": "2017-12-05T03:45:00",
      "eventActual": "0.059%",
      "eventCountry": "Japan",
      "eventExpectedVolatility": "Moderate",
      "eventName": "10-Year JGB Auction",
      "eventTimeZone": "GMT",
      "eventPrevious": "0.062%",
      "eventCurrency": "JPY",
      "eventForecast": ""
    },
    {
      "eventDateTime": "2017-12-05T05:00:00",
      "eventActual": "0.5%",
      "eventCountry": "Japan",
      "eventExpectedVolatility": "Low",
      "eventName": "BoJ Core CPI (YoY)",
      "eventTimeZone": "GMT",
      "eventPrevious": "0.5%",
      "eventCurrency": "JPY",
      "eventForecast": "0.5%"
    }
  ]}}
