"Unemployment Rate n.s.a.";"Switzerland";"CHF";"2014-06-10T05:45:00";"GMT";"3.2%";"3.1%";"3.0%";"Moderate"
"Unemployment Rate s.a.";"Switzerland";"CHF";"2014-06-10T05:45:00";"GMT";"3.2%";"3.2%";"3.2%";"Moderate"
"Retail Sales (YoY)";"Switzerland";"CHF";"2014-06-10T07:15:00";"GMT";"3.4%";"3.5%";"0.4%";"Moderate"
