"Core Retail Sales (MoM) (Oct)";"United Kingdom";"GBP";"2017-11-16T09:30:00";"GMT";"-0.6%";"0.1%";"0.1%";"Moderate"
"Core Retail Sales (YoY) (Oct)";"United Kingdom";"GBP";"2017-11-16T09:30:00";"GMT";"1.6%";"-0.4%";"-0.3%";"Moderate"
"Retail Sales (MoM) (Oct)";"United Kingdom";"GBP";"2017-11-16T09:30:00";"GMT";"-0.7%";"0.1%";"0.3%";"High"
"Retail Sales (YoY) (Oct)";"United Kingdom";"GBP";"2017-11-16T09:30:00";"GMT";"1.3%";"-0.6%";"-0.3%";"Moderate"
"10-Year Treasury Gilt Auction";"United Kingdom";"GBP";"2017-11-16T10:40:00";"GMT";"1.317%";"";"1.340%";"Low"
"BoE Gov Carney Speaks";"United Kingdom";"GBP";"2017-11-16T14:00:00";"GMT";" ";"";"";"High"
"BoE MPC Member Broadbent Speaks";"United Kingdom";"GBP";"2017-11-16T14:00:00";"GMT";" ";"";"";"Moderate"
"BoE MPC Member Cunliffe Speaks";"United Kingdom";"GBP";"2017-11-16T14:00:00";"GMT";" ";"";"";"Moderate"
