{"events": {"event": [
    {
      "eventDateTime": "2011-01-18T04:30:00",
      "eventActual": "1.0%",
      "eventCountry": "Japan",
      "eventExpectedVolatility": "Moderate",
      "eventName": "Industrial Production (MoM)",
      "eventTimeZone": "GMT",
      "eventPrevious": "1.0%",
      "eventCurrency": "JPY",
      "eventForecast": "1.0%"
    },
    {
      "eventDateTime": "2011-01-18T23:50:00",
      "eventActual": "0.6%",
      "eventCountry": "Japan",
      "eventExpectedVolatility": "Moderate",
      "eventName": "Tertiary Industry Activity Index (MoM)",
      "eventTimeZone": "GMT",
      "eventPrevious": "0.3%",
      "eventCurrency": "JPY",
      "eventForecast": "0.6%"
    }
  ]}}
