{"events": {"event": [
    {
      "eventDateTime": "2012-02-07T05:00:00",
      "eventActual": "94.3",
      "eventCountry": "Japan",
      "eventExpectedVolatility": "Low",
      "eventName": "Leading Index",
      "eventTimeZone": "GMT",
      "eventPrevious": "93.7",
      "eventCurrency": "JPY",
      "eventForecast": "93.8"
    },
    {
      "eventDateTime": "2012-02-07T23:50:00",
      "eventActual": "0.75T",
      "eventCountry": "Japan",
      "eventExpectedVolatility": "Moderate",
      "eventName": "Adjusted Current Account",
      "eventTimeZone": "GMT",
      "eventPrevious": "0.48T",
      "eventCurrency": "JPY",
      "eventForecast": "0.63T"
    },
    {
      "eventDateTime": "2012-02-07T23:50:00",
      "eventActual": "0.6%",
      "eventCountry": "Japan",
      "eventExpectedVolatility": "Low",
      "eventName": "Bank Lending (YoY)",
      "eventTimeZone": "GMT",
      "eventPrevious": "0.4%",
      "eventCurrency": "JPY",
      "eventForecast": "0.6%"
    }
  ]}}
