{"events": {"event": {
    "eventDateTime": "2019-09-29T18:00:00",
    "eventActual": "",
    "eventCountry": "Euro Zone",
    "eventExpectedVolatility": "Moderate",
    "eventName": "ECB's Lautenschlaeger Speaks",
    "eventTimeZone": "GMT",
    "eventPrevious": "",
    "eventCurrency": "EUR",
    "eventForecast": ""
  }}}
