{"events": {"event": [
    {
      "eventDateTime": "2015-07-08T07:00:00",
      "eventActual": "1.7%",
      "eventCountry": "United Kingdom",
      "eventExpectedVolatility": "Moderate",
      "eventName": "Halifax House Price Index (MoM) (Jun)",
      "eventTimeZone": "GMT",
      "eventPrevious": "0.3%",
      "eventCurrency": "GBP",
      "eventForecast": "0.3%"
    },
    {
      "eventDateTime": "2015-07-08T07:00:00",
      "eventActual": "9.6%",
      "eventCountry": "United Kingdom",
      "eventExpectedVolatility": "Moderate",
      "eventName": "Halifax House Price Index (YoY) (Jun)",
      "eventTimeZone": "GMT",
      "eventPrevious": "8.6%",
      "eventCurrency": "GBP",
      "eventForecast": "8.3%"
    },
    {
      "eventDateTime": "2015-07-08T11:30:00",
      "eventActual": "",
      "eventCountry": "United Kingdom",
      "eventExpectedVolatility": "High",
      "eventName": "Annual Budget Release",
      "eventTimeZone": "GMT",
      "eventPrevious": "",
      "eventCurrency": "GBP",
      "eventForecast": ""
    },
    {
      "eventDateTime": "2015-07-08T23:01:00",
      "eventActual": "40%",
      "eventCountry": "United Kingdom",
      "eventExpectedVolatility": "Moderate",
      "eventName": "RICS House Price Balance (Jun)",
      "eventTimeZone": "GMT",
      "eventPrevious": "34%",
      "eventCurrency": "GBP",
      "eventForecast": "37%"
    }
  ]}}
