"Bank Lending (YoY) (Jan)";"Japan";"JPY";"2005-02-01T09:00:00";"GMT";"-2.90%";"";"-2.80%";"Low"
"Capacity Utilization (MoM) (Jan)";"Japan";"JPY";"2005-02-01T09:00:00";"GMT";"-2.10%";"";"2.60%";"Low"
"Coincident Indicator (MoM) (Jan)";"Japan";"JPY";"2005-02-01T09:00:00";"GMT";"-1.00%";"";"1.10%";"Low"
"Construction Orders (YoY) (Jan)";"Japan";"JPY";"2005-02-01T09:00:00";"GMT";"1.40%";"";"15.80%";"Low"
"Core Machinery Orders (MoM) (Jan)";"Japan";"JPY";"2005-02-01T09:00:00";"GMT";"-10.70%";"";"3.40%";"Low"
"Core Machinery Orders (YoY) (Jan)";"Japan";"JPY";"2005-02-01T09:00:00";"GMT";"3.70%";"";"7.90%";"Low"
"Current Account n.s.a. (Jan)";"Japan";"JPY";"2005-02-01T09:00:00";"GMT";"1.70T";"";"0.83T";"Moderate"
"Economy Watchers Current Index (Jan)";"Japan";"JPY";"2005-02-01T09:00:00";"GMT";"44.20";"";"45.00";"Low"
"Exports (YoY) (Jan)";"Japan";"JPY";"2005-02-01T09:00:00";"GMT";"8.80%";"";"3.20%";"Moderate"
"Foreign Bonds Buying (Jan)";"Japan";"JPY";"2005-02-01T09:00:00";"GMT";" ";"";"3,403.60B";"Low"
"Foreign Investments in Japanese Stocks (Jan)";"Japan";"JPY";"2005-02-01T09:00:00";"GMT";" ";"";"4,720.10B";"Low"
"Foreign Reserves (USD) (Jan)";"Japan";"JPY";"2005-02-01T09:00:00";"GMT";"844.54B";"";"840.97B";"Low"
"Household Confidence (Jan)";"Japan";"JPY";"2005-02-01T09:00:00";"GMT";"45.00";"";"47.70";"Low"
"Household Spending (MoM) (Jan)";"Japan";"JPY";"2005-02-01T09:00:00";"GMT";"0.60%";"";"0.90%";"Moderate"
"Household Spending (YoY) (Jan)";"Japan";"JPY";"2005-02-01T09:00:00";"GMT";"-3.00%";"";"0.30%";"Moderate"
"Housing Starts (YoY) (Jan)";"Japan";"JPY";"2005-02-01T09:00:00";"GMT";"-2.00%";"";"6.90%";"Low"
"Imports (YoY) (Jan)";"Japan";"JPY";"2005-02-01T09:00:00";"GMT";"11.10%";"";"11.60%";"Low"
"Industrial Production (MoM) (Jan)";"Japan";"JPY";"2005-02-01T09:00:00";"GMT";"-1.30%";"";"2.30%";"Moderate"
"Jobs/applications ratio (Jan)";"Japan";"JPY";"2005-02-01T09:00:00";"GMT";"0.92";"";"0.91";"Moderate"
"Leading Index (MoM) (Jan)";"Japan";"JPY";"2005-02-01T09:00:00";"GMT";"-0.50%";"";"-0.20%";"Low"
"National CPI (YoY) (Jan)";"Japan";"JPY";"2005-02-01T09:00:00";"GMT";"0.20%";"";"-0.10%";"Low"
"National Core CPI (YoY) (Jan)";"Japan";"JPY";"2005-02-01T09:00:00";"GMT";"-0.20%";"";"-0.30%";"Moderate"
"Overtime Pay (YoY) (Jan)";"Japan";"JPY";"2005-02-01T09:00:00";"GMT";"1.50%";"";"1.40%";"Low"
"PPI (MoM) (Jan)";"Japan";"JPY";"2005-02-01T09:00:00";"GMT";"-0.10%";"";"0.00%";"Low"
"PPI (YoY) (Jan)";"Japan";"JPY";"2005-02-01T09:00:00";"GMT";"1.90%";"";"1.70%";"Low"
"Retail Sales (YoY) (Jan)";"Japan";"JPY";"2005-02-01T09:00:00";"GMT";"-0.50%";"";"2.60%";"Moderate"
"Reuters Tankan Index (Jan)";"Japan";"JPY";"2005-02-01T09:00:00";"GMT";"15.00";"";"17.00";"Low"
"Tokyo CPI (YoY) (Jan)";"Japan";"JPY";"2005-02-01T09:00:00";"GMT";"0.00%";"";"0.00%";"Low"
"Tokyo Core CPI (YoY) (Jan)";"Japan";"JPY";"2005-02-01T09:00:00";"GMT";"-0.50%";"";"-0.20%";"Moderate"
"Trade Balance (Jan)";"Japan";"JPY";"2005-02-01T09:00:00";"GMT";"1,133.20B";"";"188.20B";"Moderate"
"Unemployment Rate (Jan)";"Japan";"JPY";"2005-02-01T09:00:00";"GMT";"4.50%";"";"4.50%";"Low"
