{"events": {"event": {
    "eventDateTime": "2017-03-31T12:00:00",
    "eventActual": "5.22B",
    "eventCountry": "South Africa",
    "eventExpectedVolatility": "Low",
    "eventName": "Trade Balance (Feb)",
    "eventTimeZone": "GMT",
    "eventPrevious": "-11.22B",
    "eventCurrency": "ZAR",
    "eventForecast": ""
  }}}
