"M4 Money Supply (MoM)";"United Kingdom";"GBP";"2008-04-29T08:30:00";"GMT";"0.8%";"0.0%";"0.8%";"Low"
"Mortgage Approvals";"United Kingdom";"GBP";"2008-04-29T08:30:00";"GMT";"73K";"65K";"64K";"Low"
"Net Lending to Individuals";"United Kingdom";"GBP";"2008-04-29T08:30:00";"GMT";"9.8B";"8.4B";"8.1B";"Low"
"CBI Distributive Trades Survey";"United Kingdom";"GBP";"2008-04-29T10:00:00";"GMT";"1";"-3";"-26";"Low"
"BoE MPC Member Blanchflower Speaks";"United Kingdom";"GBP";"2008-04-29T17:00:00";"GMT";"0.00";"0.00";"0.00";"Low"
"GfK Consumer Confidence";"United Kingdom";"GBP";"2008-04-29T23:00:00";"GMT";"-19";"-20";"-24";"Low"
