{"events": {"event": [
    {
      "eventDateTime": "2008-04-29T08:30:00",
      "eventActual": "0.8%",
      "eventCountry": "United Kingdom",
      "eventExpectedVolatility": "Low",
      "eventName": "M4 Money Supply (MoM)",
      "eventTimeZone": "GMT",
      "eventPrevious": "0.8%",
      "eventCurrency": "GBP",
      "eventForecast": "0.0%"
    },
    {
      "eventDateTime": "2008-04-29T08:30:00",
      "eventActual": "64K",
      "eventCountry": "United Kingdom",
      "eventExpectedVolatility": "Low",
      "eventName": "Mortgage Approvals",
      "eventTimeZone": "GMT",
      "eventPrevious": "73K",
      "eventCurrency": "GBP",
      "eventForecast": "65K"
    },
    {
      "eventDateTime": "2008-04-29T08:30:00",
      "eventActual": "8.1B",
      "eventCountry": "United Kingdom",
      "eventExpectedVolatility": "Low",
      "eventName": "Net Lending to Individuals",
      "eventTimeZone": "GMT",
      "eventPrevious": "9.8B",
      "eventCurrency": "GBP",
      "eventForecast": "8.4B"
    },
    {
      "eventDateTime": "2008-04-29T10:00:00",
      "eventActual": "-26",
      "eventCountry": "United Kingdom",
      "eventExpectedVolatility": "Low",
      "eventName": "CBI Distributive Trades Survey",
      "eventTimeZone": "GMT",
      "eventPrevious": "1",
      "eventCurrency": "GBP",
      "eventForecast": "-3"
    },
    {
      "eventDateTime": "2008-04-29T17:00:00",
      "eventActual": "0.00",
      "eventCountry": "United Kingdom",
      "eventExpectedVolatility": "Low",
      "eventName": "BoE MPC Member Blanchflower Speaks",
      "eventTimeZone": "GMT",
      "eventPrevious": "0.00",
      "eventCurrency": "GBP",
      "eventForecast": "0.00"
    },
    {
      "eventDateTime": "2008-04-29T23:00:00",
      "eventActual": "-24",
      "eventCountry": "United Kingdom",
      "eventExpectedVolatility": "Low",
      "eventName": "GfK Consumer Confidence",
      "eventTimeZone": "GMT",
      "eventPrevious": "-19",
      "eventCurrency": "GBP",
      "eventForecast": "-20"
    }
  ]}}
