{"events": {"event": {
    "eventDateTime": "2014-01-09T00:00:00",
    "eventActual": "1.0%",
    "eventCountry": "New Zealand",
    "eventExpectedVolatility": "Low",
    "eventName": "ANZ Commodity Price Index (MoM)",
    "eventTimeZone": "GMT",
    "eventPrevious": "-0.3%",
    "eventCurrency": "NZD",
    "eventForecast": ""
  }}}
