"Budget Balance (Mar)";"Canada";"CAD";"2008-04-01T09:00:00";"GMT";"3.02B";"";"-1.20B";"Low"
"Budget Balance (YoY) (Mar)";"Canada";"CAD";"2008-04-01T09:00:00";"GMT";"12.63B";"";"11.43B";"Low"
"CPI (YoY) (Mar)";"Canada";"CAD";"2008-04-01T09:00:00";"GMT";"1.80%";"";"1.40%";"Low"
"Core CPI (YoY) (Mar)";"Canada";"CAD";"2008-04-01T09:00:00";"GMT";"1.50%";"";"1.30%";"Moderate"
"Exports (Mar)";"Canada";"CAD";"2008-04-01T09:00:00";"GMT";"39.00B";"";"40.13B";"Low"
"Foreign Securities Purchases by Canadians (Mar)";"Canada";"CAD";"2008-04-01T09:00:00";"GMT";"6.34B";"";"-3.23B";"Low"
"Full Employment Change (Mar)";"Canada";"CAD";"2008-04-01T09:00:00";"GMT";"60.20K";"";"-31.50K";"Low"
"IPPI (YoY) (Mar)";"Canada";"CAD";"2008-04-01T09:00:00";"GMT";"-0.60%";"";"0.00%";"Low"
"Imports (Mar)";"Canada";"CAD";"2008-04-01T09:00:00";"GMT";"35.22B";"";"34.41B";"Low"
"Ivey PMI n.s.a (Mar)";"Canada";"CAD";"2008-04-01T09:00:00";"GMT";"62.00";"";"59.00";"Low"
"Part Time Employment Change (Mar)";"Canada";"CAD";"2008-04-01T09:00:00";"GMT";"-14.80K";"";"16.10K";"Low"
"Participation Rate (Mar)";"Canada";"CAD";"2008-04-01T09:00:00";"GMT";"67.70%";"";"67.70%";"Low"
"RMPI (YoY) (Mar)";"Canada";"CAD";"2008-04-01T09:00:00";"GMT";"15.90%";"";"20.80%";"Low"
"IPPI (MoM)";"Canada";"CAD";"2008-04-01T12:30:00";"GMT";"0.9%";"0.7%";"0.1%";"Low"
"RMPI (MoM)";"Canada";"CAD";"2008-04-01T12:30:00";"GMT";"3.4%";"2.6%";"0.5%";"Moderate"
