{"events": {"event": {
    "eventDateTime": "2004-01-27T09:00:00",
    "eventActual": "97.4",
    "eventCountry": "Germany",
    "eventExpectedVolatility": "High",
    "eventName": "German Ifo Business Climate Index",
    "eventTimeZone": "GMT",
    "eventPrevious": "97.5",
    "eventCurrency": "EUR",
    "eventForecast": "96.7"
  }}}
