{"events": {"event": {
    "eventDateTime": "2017-11-07T08:30:00",
    "eventActual": "419.20B",
    "eventCountry": "Hong Kong",
    "eventExpectedVolatility": "Low",
    "eventName": "Foreign Reserves (USD) (Oct)",
    "eventTimeZone": "GMT",
    "eventPrevious": "419.30B",
    "eventCurrency": "HKD",
    "eventForecast": ""
  }}}
