{"events": {"event": [
    {
      "eventDateTime": "2019-12-02T07:30:00",
      "eventActual": "0.7%",
      "eventCountry": "Switzerland",
      "eventExpectedVolatility": "Moderate",
      "eventName": "Retail Sales (YoY) (Oct)",
      "eventTimeZone": "GMT",
      "eventPrevious": "1.6%",
      "eventCurrency": "CHF",
      "eventForecast": ""
    },
    {
      "eventDateTime": "2019-12-02T08:30:00",
      "eventActual": "48.8",
      "eventCountry": "Switzerland",
      "eventExpectedVolatility": "Moderate",
      "eventName": "procure.ch PMI (Nov)",
      "eventTimeZone": "GMT",
      "eventPrevious": "49.4",
      "eventCurrency": "CHF",
      "eventForecast": "48.6"
    },
    {
      "eventDateTime": "2019-12-02T19:30:00",
      "eventActual": "-21.0K",
      "eventCountry": "Switzerland",
      "eventExpectedVolatility": "Low",
      "eventName": "CFTC CHF speculative net positions",
      "eventTimeZone": "GMT",
      "eventPrevious": "-16.2K",
      "eventCurrency": "CHF",
      "eventForecast": ""
    }
  ]}}
