{"events": {"event": [
    {
      "eventDateTime": "2015-02-08T02:38:00",
      "eventActual": "-3.3%",
      "eventCountry": "China",
      "eventExpectedVolatility": "Moderate",
      "eventName": "Exports (YoY) (Jan)",
      "eventTimeZone": "GMT",
      "eventPrevious": "9.7%",
      "eventCurrency": "CNY",
      "eventForecast": "6.3%"
    },
    {
      "eventDateTime": "2015-02-08T02:38:00",
      "eventActual": "-19.9%",
      "eventCountry": "China",
      "eventExpectedVolatility": "Moderate",
      "eventName": "Imports (YoY) (Jan)",
      "eventTimeZone": "GMT",
      "eventPrevious": "-2.4%",
      "eventCurrency": "CNY",
      "eventForecast": "-3.0%"
    },
    {
      "eventDateTime": "2015-02-08T02:38:00",
      "eventActual": "60.03B",
      "eventCountry": "China",
      "eventExpectedVolatility": "Moderate",
      "eventName": "Trade Balance (USD) (Jan)",
      "eventTimeZone": "GMT",
      "eventPrevious": "49.60B",
      "eventCurrency": "CNY",
      "eventForecast": "48.90B"
    }
  ]}}
