"Building Permits (MoM) (Nov)";"United States";"USD";"2018-12-18T13:30:00";"GMT";"-0.4%";"-0.4%";"5.0%";"Moderate"
"Building Permits (Nov)";"United States";"USD";"2018-12-18T13:30:00";"GMT";"1.265M";"1.259M";"1.328M";"High"
"Housing Starts (MoM) (Nov)";"United States";"USD";"2018-12-18T13:30:00";"GMT";"-1.6%";"-0.2%";"3.2%";"Moderate"
"Housing Starts (Nov)";"United States";"USD";"2018-12-18T13:30:00";"GMT";"1.217M";"1.225M";"1.256M";"Moderate"
"Redbook (MoM)";"United States";"USD";"2018-12-18T13:55:00";"GMT";"-0.5%";"";"-0.3%";"Low"
"Redbook (YoY)";"United States";"USD";"2018-12-18T13:55:00";"GMT";"6.6%";"";"7.1%";"Low"
"API Weekly Crude Oil Stock";"United States";"USD";"2018-12-18T21:30:00";"GMT";"-10.180M";"";"3.450M";"Moderate"
