{"events": {"event": [
    {
      "eventDateTime": "2018-12-18T13:30:00",
      "eventActual": "5.0%",
      "eventCountry": "United States",
      "eventExpectedVolatility": "Moderate",
      "eventName": "Building Permits (MoM) (Nov)",
      "eventTimeZone": "GMT",
      "eventPrevious": "-0.4%",
      "eventCurrency": "USD",
      "eventForecast": "-0.4%"
    },
    {
      "eventDateTime": "2018-12-18T13:30:00",
      "eventActual": "1.328M",
      "eventCountry": "United States",
      "eventExpectedVolatility": "High",
      "eventName": "Building Permits (Nov)",
      "eventTimeZone": "GMT",
      "eventPrevious": "1.265M",
      "eventCurrency": "USD",
      "eventForecast": "1.259M"
    },
    {
      "eventDateTime": "2018-12-18T13:30:00",
      "eventActual": "3.2%",
      "eventCountry": "United States",
      "eventExpectedVolatility": "Moderate",
      "eventName": "Housing Starts (MoM) (Nov)",
      "eventTimeZone": "GMT",
      "eventPrevious": "-1.6%",
      "eventCurrency": "USD",
      "eventForecast": "-0.2%"
    },
    {
      "eventDateTime": "2018-12-18T13:30:00",
      "eventActual": "1.256M",
      "eventCountry": "United States",
      "eventExpectedVolatility": "Moderate",
      "eventName": "Housing Starts (Nov)",
      "eventTimeZone": "GMT",
      "eventPrevious": "1.217M",
      "eventCurrency": "USD",
      "eventForecast": "1.225M"
    },
    {
      "eventDateTime": "2018-12-18T13:55:00",
      "eventActual": "-0.3%",
      "eventCountry": "United States",
      "eventExpectedVolatility": "Low",
      "eventName": "Redbook (MoM)",
      "eventTimeZone": "GMT",
      "eventPrevious": "-0.5%",
      "eventCurrency": "USD",
      "eventForecast": ""
    },
    {
      "eventDateTime": "2018-12-18T13:55:00",
      "eventActual": "7.1%",
      "eventCountry": "United States",
      "eventExpectedVolatility": "Low",
      "eventName": "Redbook (YoY)",
      "eventTimeZone": "GMT",
      "eventPrevious": "6.6%",
      "eventCurrency": "USD",
      "eventForecast": ""
    },
    {
      "eventDateTime": "2018-12-18T21:30:00",
      "eventActual": "3.450M",
      "eventCountry": "United States",
      "eventExpectedVolatility": "Moderate",
      "eventName": "API Weekly Crude Oil Stock",
      "eventTimeZone": "GMT",
      "eventPrevious": "-10.180M",
      "eventCurrency": "USD",
      "eventForecast": ""
    }
  ]}}
