{"events": {"event": [
    {
      "eventDateTime": "2014-06-30T05:00:00",
      "eventActual": "69.6%",
      "eventCountry": "United States",
      "eventExpectedVolatility": "Moderate",
      "eventName": "Investing.com Gold Index",
      "eventTimeZone": "GMT",
      "eventPrevious": "60.3%",
      "eventCurrency": "USD",
      "eventForecast": ""
    },
    {
      "eventDateTime": "2014-06-30T05:00:00",
      "eventActual": "28.6%",
      "eventCountry": "United States",
      "eventExpectedVolatility": "Moderate",
      "eventName": "Investing.com Sandamp;P 500 Index",
      "eventTimeZone": "GMT",
      "eventPrevious": "27.7%",
      "eventCurrency": "USD",
      "eventForecast": ""
    },
    {
      "eventDateTime": "2014-06-30T13:45:00",
      "eventActual": "62.6",
      "eventCountry": "United States",
      "eventExpectedVolatility": "Moderate",
      "eventName": "Chicago PMI",
      "eventTimeZone": "GMT",
      "eventPrevious": "65.5",
      "eventCurrency": "USD",
      "eventForecast": "63.0"
    },
    {
      "eventDateTime": "2014-06-30T14:00:00",
      "eventActual": "6.1%",
      "eventCountry": "United States",
      "eventExpectedVolatility": "High",
      "eventName": "Pending Home Sales (MoM)",
      "eventTimeZone": "GMT",
      "eventPrevious": "0.5%",
      "eventCurrency": "USD",
      "eventForecast": "1.5%"
    },
    {
      "eventDateTime": "2014-06-30T14:30:00",
      "eventActual": "11.4",
      "eventCountry": "United States",
      "eventExpectedVolatility": "Low",
      "eventName": "Dallas Fed Mfg Business Index",
      "eventTimeZone": "GMT",
      "eventPrevious": "8.0",
      "eventCurrency": "USD",
      "eventForecast": "10.0"
    },
    {
      "eventDateTime": "2014-06-30T15:30:00",
      "eventActual": "0.040%",
      "eventCountry": "United States",
      "eventExpectedVolatility": "Low",
      "eventName": "3-Month Bill Auction",
      "eventTimeZone": "GMT",
      "eventPrevious": "0.025%",
      "eventCurrency": "USD",
      "eventForecast": ""
    },
    {
      "eventDateTime": "2014-06-30T15:30:00",
      "eventActual": "0.065%",
      "eventCountry": "United States",
      "eventExpectedVolatility": "Low",
      "eventName": "6-Month Bill Auction",
      "eventTimeZone": "GMT",
      "eventPrevious": "0.050%",
      "eventCurrency": "USD",
      "eventForecast": ""
    }
  ]}}
