{"events": {"event": [
    {
      "eventDateTime": "2012-05-24T12:30:00",
      "eventActual": "3,260K",
      "eventCountry": "United States",
      "eventExpectedVolatility": "Low",
      "eventName": "Continuing Jobless Claims",
      "eventTimeZone": "GMT",
      "eventPrevious": "3,289K",
      "eventCurrency": "USD",
      "eventForecast": "3,250K"
    },
    {
      "eventDateTime": "2012-05-24T12:30:00",
      "eventActual": "-0.6%",
      "eventCountry": "United States",
      "eventExpectedVolatility": "High",
      "eventName": "Core Durable Goods Orders (MoM)",
      "eventTimeZone": "GMT",
      "eventPrevious": "-0.8%",
      "eventCurrency": "USD",
      "eventForecast": "0.9%"
    },
    {
      "eventDateTime": "2012-05-24T12:30:00",
      "eventActual": "0.2%",
      "eventCountry": "United States",
      "eventExpectedVolatility": "Moderate",
      "eventName": "Durable Goods Orders (MoM)",
      "eventTimeZone": "GMT",
      "eventPrevious": "-3.7%",
      "eventCurrency": "USD",
      "eventForecast": "0.5%"
    },
    {
      "eventDateTime": "2012-05-24T12:30:00",
      "eventActual": "370K",
      "eventCountry": "United States",
      "eventExpectedVolatility": "Moderate",
      "eventName": "Initial Jobless Claims",
      "eventTimeZone": "GMT",
      "eventPrevious": "372K",
      "eventCurrency": "USD",
      "eventForecast": "370K"
    },
    {
      "eventDateTime": "2012-05-24T13:45:00",
      "eventActual": "29",
      "eventCountry": "United States",
      "eventExpectedVolatility": "Low",
      "eventName": "Bloomberg Consumer Confidence",
      "eventTimeZone": "GMT",
      "eventPrevious": "28.2",
      "eventCurrency": "USD",
      "eventForecast": ""
    },
    {
      "eventDateTime": "2012-05-24T14:30:00",
      "eventActual": "77B",
      "eventCountry": "United States",
      "eventExpectedVolatility": "Low",
      "eventName": "Natural Gas Storage",
      "eventTimeZone": "GMT",
      "eventPrevious": "61B",
      "eventCurrency": "USD",
      "eventForecast": "76B"
    },
    {
      "eventDateTime": "2012-05-24T15:00:00",
      "eventActual": "9.00",
      "eventCountry": "United States",
      "eventExpectedVolatility": "Low",
      "eventName": "KC Fed Composite Index",
      "eventTimeZone": "GMT",
      "eventPrevious": "3.00",
      "eventCurrency": "USD",
      "eventForecast": ""
    },
    {
      "eventDateTime": "2012-05-24T17:00:00",
      "eventActual": "1.203%",
      "eventCountry": "United States",
      "eventExpectedVolatility": "Low",
      "eventName": "7-Year Note Auction",
      "eventTimeZone": "GMT",
      "eventPrevious": "1.347%",
      "eventCurrency": "USD",
      "eventForecast": ""
    },
    {
      "eventDateTime": "2012-05-24T19:00:00",
      "eventActual": "",
      "eventCountry": "United States",
      "eventExpectedVolatility": "Moderate",
      "eventName": "Treasury Secretary Geithner Speaks",
      "eventTimeZone": "GMT",
      "eventPrevious": "",
      "eventCurrency": "USD",
      "eventForecast": ""
    }
  ]}}
