"All Truck Sales (Jul)";"United States";"USD";"2014-08-01T09:00:00";"GMT";"8.78M";"";"8.62M";"Low"
"CPI Index, n.s.a. (Jul)";"United States";"USD";"2014-08-01T09:00:00";"GMT";"238.34";"";"238.25";"Low"
"Dallas Fed PCE (Jul)";"United States";"USD";"2014-08-01T09:00:00";"GMT";"1.90%";"";"1.30%";"Low"
"Dallas Fed Services Revenues (Jul)";"United States";"USD";"2014-08-01T09:00:00";"GMT";"19.50";"";"24.20";"Low"
"Domestic Truck Sales (Jul)";"United States";"USD";"2014-08-01T09:00:00";"GMT";"7.39M";"";"7.27M";"Low"
"Durables Excluding Defense (MoM) (Jul)";"United States";"USD";"2014-08-01T09:00:00";"GMT";"2.60%";"";"24.90%";"Low"
"Government Payrolls (Jul)";"United States";"USD";"2014-08-01T09:00:00";"GMT";"14.00K";"";"6.00K";"Low"
"ISM Manufacturing New Orders Index (Jul)";"United States";"USD";"2014-08-01T09:00:00";"GMT";"59.10";"";"62.00";"Low"
"ISM Non-Manufacturing Business Activity (Jul)";"United States";"USD";"2014-08-01T09:00:00";"GMT";"59.20";"";"61.30";"Low"
"MBA Purchase Index (Jul)";"United States";"USD";"2014-08-01T09:00:00";"GMT";"179.53";"";"170.30";"Low"
"Manufacturing Payrolls (Jul)";"United States";"USD";"2014-08-01T09:00:00";"GMT";"23.00K";"";"14.00K";"Low"
"Markit Composite PMI (Jul)";"United States";"USD";"2014-08-01T09:00:00";"GMT";"61.00";"";"60.60";"Moderate"
"Michigan 5-Year Inflation Expectations (Jul)";"United States";"USD";"2014-08-01T09:00:00";"GMT";"2.90%";"";"2.70%";"Low"
"Mortgage Market Index (Jul)";"United States";"USD";"2014-08-01T09:00:00";"GMT";"358.30";"";"346.29";"Low"
"Mortgage Refinance Index (Jul)";"United States";"USD";"2014-08-01T09:00:00";"GMT";"1,375.04";"";"1,348.00";"Low"
"Philly Fed CAPEX Index (Jul)";"United States";"USD";"2014-08-01T09:00:00";"GMT";"25.50";"";"18.20";"Low"
"Philly Fed New Orders (Jul)";"United States";"USD";"2014-08-01T09:00:00";"GMT";"14.40";"";"31.40";"Low"
"Philly Fed Prices Paid (Jul)";"United States";"USD";"2014-08-01T09:00:00";"GMT";"32.00";"";"32.30";"Low"
"QE MBS (Jul)";"United States";"USD";"2014-08-01T09:00:00";"GMT";"15.00B";"";"10.00B";"Low"
"QE Total (Jul)";"United States";"USD";"2014-08-01T09:00:00";"GMT";"35.00B";"";"25.00B";"Low"
"QE Treasuries (Jul)";"United States";"USD";"2014-08-01T09:00:00";"GMT";"20.00B";"";"15.00B";"Low"
"Retail Control (MoM) (Jul)";"United States";"USD";"2014-08-01T09:00:00";"GMT";"0.70%";"";"0.20%";"Low"
"Retail Sales Ex Gas/Autos (MoM) (Jul)";"United States";"USD";"2014-08-01T09:00:00";"GMT";"0.70%";"";"0.20%";"Low"
"Richmond Manufacturing Shipments (Jul)";"United States";"USD";"2014-08-01T09:00:00";"GMT";"2.00";"";"3.00";"Low"
"Richmond Services Index (Jul)";"United States";"USD";"2014-08-01T09:00:00";"GMT";"6.00";"";"12.00";"Low"
"Texas Services Sector Outlook (Jul)";"United States";"USD";"2014-08-01T09:00:00";"GMT";"22.20";"";"23.00";"Low"
"Average Hourly Earnings (MoM)";"United States";"USD";"2014-08-01T12:30:00";"GMT";"0.2%";"0.2%";"0.0%";"Moderate"
"Average Weekly Hours";"United States";"USD";"2014-08-01T12:30:00";"GMT";"34.5";"34.5";"34.5";"Low"
"Core PCE Price Index (MoM)";"United States";"USD";"2014-08-01T12:30:00";"GMT";"0.2%";"0.1%";"0.1%";"Moderate"
"Nonfarm Payrolls";"United States";"USD";"2014-08-01T12:30:00";"GMT";"298K";"233K";"209K";"High"
"Personal Income (MoM)";"United States";"USD";"2014-08-01T12:30:00";"GMT";"0.4%";"0.4%";"0.4%";"Low"
"Personal Spending (MoM)";"United States";"USD";"2014-08-01T12:30:00";"GMT";"0.3%";"0.4%";"0.4%";"Moderate"
"Private Nonfarm Payrolls";"United States";"USD";"2014-08-01T12:30:00";"GMT";"270K";"230K";"198K";"Moderate"
"Real Personal Consumption (MoM)";"United States";"USD";"2014-08-01T12:30:00";"GMT";"0.1%";"";"0.2%";"Low"
"U6 Unemployment Rate (Jul)";"United States";"USD";"2014-08-01T12:30:00";"GMT";"12.00%";"";"12.20%";"Low"
"Unemployment Rate";"United States";"USD";"2014-08-01T12:30:00";"GMT";"6.1%";"6.1%";"6.2%";"High"
"Manufacturing PMI";"United States";"USD";"2014-08-01T13:45:00";"GMT";"56.3";"56.3";"55.8";"Moderate"
"Michigan Consumer Expectations";"United States";"USD";"2014-08-01T13:55:00";"GMT";"71.1";"71.5";"71.8";"Moderate"
"Michigan Consumer Sentiment";"United States";"USD";"2014-08-01T13:55:00";"GMT";"81.3";"82.0";"81.8";"Moderate"
"Michigan Current Conditions";"United States";"USD";"2014-08-01T13:55:00";"GMT";"97.1";"97.1";"97.4";"Low"
"Michigan Inflation Expectations";"United States";"USD";"2014-08-01T13:55:00";"GMT";"3.3%";"";"3.3%";"Low"
"Construction Spending (MoM)";"United States";"USD";"2014-08-01T14:00:00";"GMT";"0.8%";"0.5%";"-1.8%";"Low"
"ISM Manufacturing Employment";"United States";"USD";"2014-08-01T14:00:00";"GMT";"52.8";"53.0";"58.2";"Moderate"
"ISM Manufacturing PMI";"United States";"USD";"2014-08-01T14:00:00";"GMT";"55.3";"56.0";"57.1";"High"
"ISM Manufacturing Prices";"United States";"USD";"2014-08-01T14:00:00";"GMT";"58.0";"59.0";"59.5";"Low"
"U.S. Baker Hughes Oil Rig Count";"United States";"USD";"2014-08-01T17:00:00";"GMT";"1562";"";"1573";"Moderate"
"CFTC Gold speculative net positions";"United States";"USD";"2014-08-01T19:30:00";"GMT";"146.1K";"";"139.2K";"Moderate"
"CFTC Silver speculative net positions";"United States";"USD";"2014-08-01T19:30:00";"GMT";"47.5K";"";"44.1K";"Low"
"All Car Sales";"United States";"USD";"2014-08-01T20:00:00";"GMT";"8.29M";"";"8.00M";"Low"
"Domestic Car Sales";"United States";"USD";"2014-08-01T20:00:00";"GMT";"5.90M";"5.70M";"5.78M";"Low"
"Total Vehicle Sales";"United States";"USD";"2014-08-01T20:00:00";"GMT";"16.90M";"16.70M";"16.48M";"Low"
"CFTC Crude Oil speculative net positions";"United States";"USD";"2014-08-01T20:30:00";"GMT";"371.4k";"";"364.7k";"Moderate"
