{"events": {"event": {
    "eventDateTime": "2018-06-08T19:30:00",
    "eventActual": "11.6K",
    "eventCountry": "Russia",
    "eventExpectedVolatility": "Moderate",
    "eventName": "CFTC RUB speculative positions",
    "eventTimeZone": "GMT",
    "eventPrevious": "11.6K",
    "eventCurrency": "RUB",
    "eventForecast": ""
  }}}
