{"events": {"event": [
    {
      "eventDateTime": "2008-07-01T09:00:00",
      "eventActual": "6.51%",
      "eventCountry": "Brazil",
      "eventExpectedVolatility": "Low",
      "eventName": "Auto Production (MoM) (Jun)",
      "eventTimeZone": "GMT",
      "eventPrevious": "-3.09%",
      "eventCurrency": "BRL",
      "eventForecast": ""
    },
    {
      "eventDateTime": "2008-07-01T09:00:00",
      "eventActual": "5.78%",
      "eventCountry": "Brazil",
      "eventExpectedVolatility": "Low",
      "eventName": "Auto Sales (MoM) (Jun)",
      "eventTimeZone": "GMT",
      "eventPrevious": "-7.36%",
      "eventCurrency": "BRL",
      "eventForecast": ""
    },
    {
      "eventDateTime": "2008-07-01T09:00:00",
      "eventActual": "2.18%",
      "eventCountry": "Brazil",
      "eventExpectedVolatility": "Low",
      "eventName": "Bank lending (MoM) (Jun)",
      "eventTimeZone": "GMT",
      "eventPrevious": "2.63%",
      "eventCurrency": "BRL",
      "eventForecast": ""
    },
    {
      "eventDateTime": "2008-07-01T09:00:00",
      "eventActual": "-6.89B",
      "eventCountry": "Brazil",
      "eventExpectedVolatility": "Low",
      "eventName": "Budget Balance (Jun)",
      "eventTimeZone": "GMT",
      "eventPrevious": "-7.92B",
      "eventCurrency": "BRL",
      "eventForecast": ""
    },
    {
      "eventDateTime": "2008-07-01T09:00:00",
      "eventActual": "10.38B",
      "eventCountry": "Brazil",
      "eventExpectedVolatility": "Low",
      "eventName": "Budget Surplus (Jun)",
      "eventTimeZone": "GMT",
      "eventPrevious": "8.52B",
      "eventCurrency": "BRL",
      "eventForecast": ""
    },
    {
      "eventDateTime": "2008-07-01T09:00:00",
      "eventActual": "309.00K",
      "eventCountry": "Brazil",
      "eventExpectedVolatility": "Moderate",
      "eventName": "CAGED Net Payroll Jobs (Jun)",
      "eventTimeZone": "GMT",
      "eventPrevious": "203.00K",
      "eventCurrency": "BRL",
      "eventForecast": ""
    },
    {
      "eventDateTime": "2008-07-01T09:00:00",
      "eventActual": "83.70%",
      "eventCountry": "Brazil",
      "eventExpectedVolatility": "Low",
      "eventName": "CNI Factory Utilization (Jun)",
      "eventTimeZone": "GMT",
      "eventPrevious": "83.50%",
      "eventCurrency": "BRL",
      "eventForecast": ""
    },
    {
      "eventDateTime": "2008-07-01T09:00:00",
      "eventActual": "0.74%",
      "eventCountry": "Brazil",
      "eventExpectedVolatility": "Moderate",
      "eventName": "CPI (MoM) (Jun)",
      "eventTimeZone": "GMT",
      "eventPrevious": "0.79%",
      "eventCurrency": "BRL",
      "eventForecast": ""
    },
    {
      "eventDateTime": "2008-07-01T09:00:00",
      "eventActual": "6.06%",
      "eventCountry": "Brazil",
      "eventExpectedVolatility": "Moderate",
      "eventName": "CPI (YoY) (Jun)",
      "eventTimeZone": "GMT",
      "eventPrevious": "5.58%",
      "eventCurrency": "BRL",
      "eventForecast": ""
    },
    {
      "eventDateTime": "2008-07-01T09:00:00",
      "eventActual": "42.90%",
      "eventCountry": "Brazil",
      "eventExpectedVolatility": "Low",
      "eventName": "Debt-to-GDP ratio (Jun)",
      "eventTimeZone": "GMT",
      "eventPrevious": "43.10%",
      "eventCurrency": "BRL",
      "eventForecast": ""
    },
    {
      "eventDateTime": "2008-07-01T09:00:00",
      "eventActual": "109.50",
      "eventCountry": "Brazil",
      "eventExpectedVolatility": "Low",
      "eventName": "FGV Consumer confidence (Jun)",
      "eventTimeZone": "GMT",
      "eventPrevious": "116.10",
      "eventCurrency": "BRL",
      "eventForecast": ""
    },
    {
      "eventDateTime": "2008-07-01T09:00:00",
      "eventActual": "57.00B",
      "eventCountry": "Brazil",
      "eventExpectedVolatility": "Low",
      "eventName": "Federal Tax Revenue (Jun)",
      "eventTimeZone": "GMT",
      "eventPrevious": "52.00B",
      "eventCurrency": "BRL",
      "eventForecast": ""
    },
    {
      "eventDateTime": "2008-07-01T09:00:00",
      "eventActual": "2.73B",
      "eventCountry": "Brazil",
      "eventExpectedVolatility": "Low",
      "eventName": "Foreign direct investment (USD) (Jun)",
      "eventTimeZone": "GMT",
      "eventPrevious": "1.31B",
      "eventCurrency": "BRL",
      "eventForecast": ""
    },
    {
      "eventDateTime": "2008-07-01T09:00:00",
      "eventActual": "3.70%",
      "eventCountry": "Brazil",
      "eventExpectedVolatility": "Low",
      "eventName": "IBC-Br Economic Activity (Jun)",
      "eventTimeZone": "GMT",
      "eventPrevious": "-0.69%",
      "eventCurrency": "BRL",
      "eventForecast": ""
    },
    {
      "eventDateTime": "2008-07-01T09:00:00",
      "eventActual": "1.89%",
      "eventCountry": "Brazil",
      "eventExpectedVolatility": "Low",
      "eventName": "IGP-DI Inflation Index (MoM) (Jun)",
      "eventTimeZone": "GMT",
      "eventPrevious": "1.88%",
      "eventCurrency": "BRL",
      "eventForecast": ""
    },
    {
      "eventDateTime": "2008-07-01T09:00:00",
      "eventActual": "1.98%",
      "eventCountry": "Brazil",
      "eventExpectedVolatility": "Low",
      "eventName": "IGP-M Inflation Index (MoM) (Jun)",
      "eventTimeZone": "GMT",
      "eventPrevious": "1.61%",
      "eventCurrency": "BRL",
      "eventForecast": ""
    },
    {
      "eventDateTime": "2008-07-01T09:00:00",
      "eventActual": "0.96%",
      "eventCountry": "Brazil",
      "eventExpectedVolatility": "Moderate",
      "eventName": "IPC-Fipe Inflation Index (MoM) (Jun)",
      "eventTimeZone": "GMT",
      "eventPrevious": "1.23%",
      "eventCurrency": "BRL",
      "eventForecast": ""
    },
    {
      "eventDateTime": "2008-07-01T09:00:00",
      "eventActual": "6.05%",
      "eventCountry": "Brazil",
      "eventExpectedVolatility": "Low",
      "eventName": "Industrial Production (MoM) (Jun)",
      "eventTimeZone": "GMT",
      "eventPrevious": "-1.00%",
      "eventCurrency": "BRL",
      "eventForecast": ""
    },
    {
      "eventDateTime": "2008-07-01T09:00:00",
      "eventActual": "6.60%",
      "eventCountry": "Brazil",
      "eventExpectedVolatility": "Moderate",
      "eventName": "Industrial Production (YoY) (Jun)",
      "eventTimeZone": "GMT",
      "eventPrevious": "2.60%",
      "eventCurrency": "BRL",
      "eventForecast": ""
    },
    {
      "eventDateTime": "2008-07-01T09:00:00",
      "eventActual": "12.25%",
      "eventCountry": "Brazil",
      "eventExpectedVolatility": "Moderate",
      "eventName": "Interest Rate Decision (Jun)",
      "eventTimeZone": "GMT",
      "eventPrevious": "11.75%",
      "eventCurrency": "BRL",
      "eventForecast": ""
    },
    {
      "eventDateTime": "2008-07-01T09:00:00",
      "eventActual": "0.90%",
      "eventCountry": "Brazil",
      "eventExpectedVolatility": "Low",
      "eventName": "Mid-Month CPI (MoM) (Jun)",
      "eventTimeZone": "GMT",
      "eventPrevious": "0.56%",
      "eventCurrency": "BRL",
      "eventForecast": ""
    },
    {
      "eventDateTime": "2008-07-01T09:00:00",
      "eventActual": "5.89%",
      "eventCountry": "Brazil",
      "eventExpectedVolatility": "Low",
      "eventName": "Mid-Month CPI (YoY) (Jun)",
      "eventTimeZone": "GMT",
      "eventPrevious": "5.25%",
      "eventCurrency": "BRL",
      "eventForecast": ""
    },
    {
      "eventDateTime": "2008-07-01T09:00:00",
      "eventActual": "0.50%",
      "eventCountry": "Brazil",
      "eventExpectedVolatility": "Moderate",
      "eventName": "Retail Sales (MoM) (Jun)",
      "eventTimeZone": "GMT",
      "eventPrevious": "0.89%",
      "eventCurrency": "BRL",
      "eventForecast": ""
    },
    {
      "eventDateTime": "2008-07-01T09:00:00",
      "eventActual": "8.14%",
      "eventCountry": "Brazil",
      "eventExpectedVolatility": "Moderate",
      "eventName": "Retail Sales (YoY) (Jun)",
      "eventTimeZone": "GMT",
      "eventPrevious": "11.07%",
      "eventCurrency": "BRL",
      "eventForecast": ""
    },
    {
      "eventDateTime": "2008-07-01T09:00:00",
      "eventActual": "2.73B",
      "eventCountry": "Brazil",
      "eventExpectedVolatility": "Low",
      "eventName": "Trade Balance (Jun)",
      "eventTimeZone": "GMT",
      "eventPrevious": "4.08B",
      "eventCurrency": "BRL",
      "eventForecast": ""
    },
    {
      "eventDateTime": "2008-07-01T09:00:00",
      "eventActual": "7.90%",
      "eventCountry": "Brazil",
      "eventExpectedVolatility": "Moderate",
      "eventName": "Unemployment Rate (Jun)",
      "eventTimeZone": "GMT",
      "eventPrevious": "7.90%",
      "eventCurrency": "BRL",
      "eventForecast": ""
    }
  ]}}
