{"events": {"event": [
    {
      "eventDateTime": "2017-07-31T01:00:00",
      "eventActual": "51.4",
      "eventCountry": "China",
      "eventExpectedVolatility": "High",
      "eventName": "Manufacturing PMI (Jul)",
      "eventTimeZone": "GMT",
      "eventPrevious": "51.7",
      "eventCurrency": "CNY",
      "eventForecast": "51.6"
    },
    {
      "eventDateTime": "2017-07-31T01:00:00",
      "eventActual": "54.5",
      "eventCountry": "China",
      "eventExpectedVolatility": "Moderate",
      "eventName": "Non-Manufacturing PMI (Jul)",
      "eventTimeZone": "GMT",
      "eventPrevious": "54.9",
      "eventCurrency": "CNY",
      "eventForecast": ""
    }
  ]}}
