{"events": {"event": {
    "eventDateTime": "2012-02-24T20:30:00",
    "eventActual": "17.3K",
    "eventCountry": "Japan",
    "eventExpectedVolatility": "Moderate",
    "eventName": "CFTC JPY speculative net positions",
    "eventTimeZone": "GMT",
    "eventPrevious": "29.5K",
    "eventCurrency": "JPY",
    "eventForecast": ""
  }}}
