{"events": {"event": {
    "eventDateTime": "2012-10-16T20:00:00",
    "eventActual": "4.70%",
    "eventCountry": "New Zealand",
    "eventExpectedVolatility": "Moderate",
    "eventName": "GlobalDairyTrade Price Index",
    "eventTimeZone": "GMT",
    "eventPrevious": "-0.10%",
    "eventCurrency": "NZD",
    "eventForecast": ""
  }}}
