{"events": {"event": [
    {
      "eventDateTime": "2015-05-28T08:30:00",
      "eventActual": "1.7%",
      "eventCountry": "United Kingdom",
      "eventExpectedVolatility": "Moderate",
      "eventName": "Business Investment (QoQ) (Q1)",
      "eventTimeZone": "GMT",
      "eventPrevious": "-0.9%",
      "eventCurrency": "GBP",
      "eventForecast": "1.0%"
    },
    {
      "eventDateTime": "2015-05-28T08:30:00",
      "eventActual": "3.7%",
      "eventCountry": "United Kingdom",
      "eventExpectedVolatility": "Low",
      "eventName": "Business Investment (YoY) (Q1)",
      "eventTimeZone": "GMT",
      "eventPrevious": "3.7%",
      "eventCurrency": "GBP",
      "eventForecast": ""
    },
    {
      "eventDateTime": "2015-05-28T08:30:00",
      "eventActual": "0.3%",
      "eventCountry": "United Kingdom",
      "eventExpectedVolatility": "High",
      "eventName": "GDP (QoQ) (Q1)",
      "eventTimeZone": "GMT",
      "eventPrevious": "0.3%",
      "eventCurrency": "GBP",
      "eventForecast": "0.4%"
    },
    {
      "eventDateTime": "2015-05-28T08:30:00",
      "eventActual": "2.4%",
      "eventCountry": "United Kingdom",
      "eventExpectedVolatility": "High",
      "eventName": "GDP (YoY) (Q1)",
      "eventTimeZone": "GMT",
      "eventPrevious": "2.4%",
      "eventCurrency": "GBP",
      "eventForecast": "2.5%"
    },
    {
      "eventDateTime": "2015-05-28T08:30:00",
      "eventActual": "42.1K",
      "eventCountry": "United Kingdom",
      "eventExpectedVolatility": "Moderate",
      "eventName": "Gross Mortgage Approvals",
      "eventTimeZone": "GMT",
      "eventPrevious": "39.2K",
      "eventCurrency": "GBP",
      "eventForecast": "39.2K"
    },
    {
      "eventDateTime": "2015-05-28T08:30:00",
      "eventActual": "0.4%",
      "eventCountry": "United Kingdom",
      "eventExpectedVolatility": "Low",
      "eventName": "Index of Services",
      "eventTimeZone": "GMT",
      "eventPrevious": "0.7%",
      "eventCurrency": "GBP",
      "eventForecast": "0.5%"
    },
    {
      "eventDateTime": "2015-05-28T23:05:00",
      "eventActual": "1",
      "eventCountry": "United Kingdom",
      "eventExpectedVolatility": "Low",
      "eventName": "GfK Consumer Confidence (May)",
      "eventTimeZone": "GMT",
      "eventPrevious": "4",
      "eventCurrency": "GBP",
      "eventForecast": "4"
    }
  ]}}
