"German Unemployment Change";"Germany";"EUR";"2010-04-29T07:55:00";"GMT";"-42K";"-11K";"-68K";"High"
"German Unemployment Rate";"Germany";"EUR";"2010-04-29T07:55:00";"GMT";"8.0%";"8.0%";"7.8%";"Moderate"
"M3 Money Supply (YoY)";"Euro Zone";"EUR";"2010-04-29T08:00:00";"GMT";"-0.3%";"-0.1%";"-0.1%";"Low"
"Private Sector Loans (YoY)";"Euro Zone";"EUR";"2010-04-29T08:00:00";"GMT";"-0.4%";"-0.1%";"-0.2%";"Low"
"ECB President Trichet Speaks";"Euro Zone";"EUR";"2010-04-29T11:30:00";"GMT";" ";"";"";"High"
