{"events": {"event": {
    "eventDateTime": "2010-02-15T09:00:00",
    "eventActual": "-0.12B",
    "eventCountry": "Italy",
    "eventExpectedVolatility": "Low",
    "eventName": "Italian Trade Balance",
    "eventTimeZone": "GMT",
    "eventPrevious": "-0.91B",
    "eventCurrency": "EUR",
    "eventForecast": "-0.75B"
  }}}
