{"events": {"event": [
    {
      "eventDateTime": "2009-08-24T12:30:00",
      "eventActual": "1.0%",
      "eventCountry": "Canada",
      "eventExpectedVolatility": "High",
      "eventName": "Core Retail Sales (MoM)",
      "eventTimeZone": "GMT",
      "eventPrevious": "0.6%",
      "eventCurrency": "CAD",
      "eventForecast": "0.2%"
    },
    {
      "eventDateTime": "2009-08-24T12:30:00",
      "eventActual": "1.0%",
      "eventCountry": "Canada",
      "eventExpectedVolatility": "Moderate",
      "eventName": "Retail Sales (MoM)",
      "eventTimeZone": "GMT",
      "eventPrevious": "1.1%",
      "eventCurrency": "CAD",
      "eventForecast": "0.0%"
    }
  ]}}
