"Average Earnings Index +Bonus (Aug)";"United Kingdom";"GBP";"2001-09-01T09:00:00";"GMT";"5.20%";"";"5.20%";"High"
"Average Earnings ex Bonus (Aug)";"United Kingdom";"GBP";"2001-09-01T09:00:00";"GMT";"5.10%";"";"5.30%";"Low"
"BRC Retail Sales Monitor (YoY) (Aug)";"United Kingdom";"GBP";"2001-09-01T09:00:00";"GMT";"6.10%";"";"5.60%";"Moderate"
"BoE Consumer Credit (Aug)";"United Kingdom";"GBP";"2001-09-01T09:00:00";"GMT";"1.42B";"";"1.35B";"Low"
"BoE Interest Rate Decision (Aug)";"United Kingdom";"GBP";"2001-09-01T09:00:00";"GMT";"5.25%";"";"5.00%";"High"
"CBI Distributive Trades Survey (Aug)";"United Kingdom";"GBP";"2001-09-01T09:00:00";"GMT";"44.00";"";"49.00";"Low"
"CBI Industrial Trends Orders (Aug)";"United Kingdom";"GBP";"2001-09-01T09:00:00";"GMT";"-26.00";"";"-29.00";"Moderate"
"CPI (MoM) (Aug)";"United Kingdom";"GBP";"2001-09-01T09:00:00";"GMT";"-0.80%";"";"0.40%";"Moderate"
"CPI (YoY) (Aug)";"United Kingdom";"GBP";"2001-09-01T09:00:00";"GMT";"1.40%";"";"1.80%";"High"
"Claimant Count Change (Aug)";"United Kingdom";"GBP";"2001-09-01T09:00:00";"GMT";"-9.80K";"";"-0.60K";"High"
"Core PPI Output (MoM) (Aug)";"United Kingdom";"GBP";"2001-09-01T09:00:00";"GMT";"-0.10%";"";"0.00%";"Low"
"Core PPI Output (YoY) (Aug)";"United Kingdom";"GBP";"2001-09-01T09:00:00";"GMT";"-0.80%";"";"-0.70%";"Low"
"Core RPI (MoM) (Aug)";"United Kingdom";"GBP";"2001-09-01T09:00:00";"GMT";"-0.60%";"";"0.40%";"Low"
"Core RPI (YoY) (Aug)";"United Kingdom";"GBP";"2001-09-01T09:00:00";"GMT";"2.20%";"";"2.60%";"Low"
"Core Retail Sales (MoM) (Aug)";"United Kingdom";"GBP";"2001-09-01T09:00:00";"GMT";"1.00%";"";"0.00%";"Moderate"
"Core Retail Sales (YoY) (Aug)";"United Kingdom";"GBP";"2001-09-01T09:00:00";"GMT";"8.00%";"";"6.50%";"Moderate"
"GfK Consumer Confidence (Aug)";"United Kingdom";"GBP";"2001-09-01T09:00:00";"GMT";"4.00";"";"0.00";"Low"
"Halifax House Price Index (MoM) (Aug)";"United Kingdom";"GBP";"2001-09-01T09:00:00";"GMT";"0.70%";"";"1.80%";"Moderate"
"Halifax House Price Index (YoY) (Aug)";"United Kingdom";"GBP";"2001-09-01T09:00:00";"GMT";"8.90%";"";"10.10%";"Moderate"
"Industrial Production (MoM) (Aug)";"United Kingdom";"GBP";"2001-09-01T09:00:00";"GMT";"-0.90%";"";"1.60%";"Moderate"
"Industrial Production (YoY) (Aug)";"United Kingdom";"GBP";"2001-09-01T09:00:00";"GMT";"-1.80%";"";"-1.20%";"Low"
"M4 Money Supply (MoM) (Aug)";"United Kingdom";"GBP";"2001-09-01T09:00:00";"GMT";"0.60%";"";"0.80%";"Low"
"Manufacturing Production (MoM) (Aug)";"United Kingdom";"GBP";"2001-09-01T09:00:00";"GMT";"-1.40%";"";"2.30%";"High"
"Manufacturing Production (YoY) (Aug)";"United Kingdom";"GBP";"2001-09-01T09:00:00";"GMT";"-1.50%";"";"-0.80%";"Low"
"Mortgage Approvals (Aug)";"United Kingdom";"GBP";"2001-09-01T09:00:00";"GMT";"112.08K";"";"111.31K";"Low"
"Mortgage Lending (Aug)";"United Kingdom";"GBP";"2001-09-01T09:00:00";"GMT";"4.56B";"";"4.89B";"Low"
"Nationwide HPI (MoM) (Aug)";"United Kingdom";"GBP";"2001-09-01T09:00:00";"GMT";"1.30%";"";"0.80%";"Moderate"
"Nationwide HPI (YoY) (Aug)";"United Kingdom";"GBP";"2001-09-01T09:00:00";"GMT";"10.90%";"";"11.90%";"Moderate"
"PPI Input (MoM) (Aug)";"United Kingdom";"GBP";"2001-09-01T09:00:00";"GMT";"-2.70%";"";"-1.10%";"Moderate"
"PPI Input (YoY) (Aug)";"United Kingdom";"GBP";"2001-09-01T09:00:00";"GMT";"-0.60%";"";"-3.00%";"Low"
"PPI Output (MoM) (Aug)";"United Kingdom";"GBP";"2001-09-01T09:00:00";"GMT";"-0.20%";"";"-0.10%";"Low"
"PPI Output (YoY) (Aug)";"United Kingdom";"GBP";"2001-09-01T09:00:00";"GMT";"-0.60%";"";"-0.40%";"Low"
"Public Sector Net Borrowing (Aug)";"United Kingdom";"GBP";"2001-09-01T09:00:00";"GMT";"-3.71B";"";"0.18B";"Low"
"Public Sector Net Cash Requirement (Aug)";"United Kingdom";"GBP";"2001-09-01T09:00:00";"GMT";"-9.46B";"";"-0.29B";"Low"
"RICS House Price Balance (Aug)";"United Kingdom";"GBP";"2001-09-01T09:00:00";"GMT";"55.00%";"";"52.00%";"Moderate"
"RPI (MoM) (Aug)";"United Kingdom";"GBP";"2001-09-01T09:00:00";"GMT";"-0.60%";"";"0.40%";"Low"
"RPI (YoY) (Aug)";"United Kingdom";"GBP";"2001-09-01T09:00:00";"GMT";"1.60%";"";"2.10%";"Low"
"Retail Sales (MoM) (Aug)";"United Kingdom";"GBP";"2001-09-01T09:00:00";"GMT";"1.00%";"";"0.00%";"High"
"Retail Sales (YoY) (Aug)";"United Kingdom";"GBP";"2001-09-01T09:00:00";"GMT";"7.20%";"";"5.40%";"Moderate"
"Trade Balance (Aug)";"United Kingdom";"GBP";"2001-09-01T09:00:00";"GMT";"-3.26B";"";"-4.23B";"Moderate"
"Trade Balance Non-EU (Aug)";"United Kingdom";"GBP";"2001-09-01T09:00:00";"GMT";"-2.21B";"";"-3.11B";"Moderate"
"Unemployment Rate (Aug)";"United Kingdom";"GBP";"2001-09-01T09:00:00";"GMT";"5.00%";"";"5.10%";"Moderate"
