{"events": {"event": [
    {
      "eventDateTime": "2017-07-25T12:55:00",
      "eventActual": "-1.3%",
      "eventCountry": "United States",
      "eventExpectedVolatility": "Low",
      "eventName": "Redbook (MoM)",
      "eventTimeZone": "GMT",
      "eventPrevious": "-1.3%",
      "eventCurrency": "USD",
      "eventForecast": ""
    },
    {
      "eventDateTime": "2017-07-25T12:55:00",
      "eventActual": "2.1%",
      "eventCountry": "United States",
      "eventExpectedVolatility": "Low",
      "eventName": "Redbook (YoY)",
      "eventTimeZone": "GMT",
      "eventPrevious": "2.0%",
      "eventCurrency": "USD",
      "eventForecast": ""
    },
    {
      "eventDateTime": "2017-07-25T13:00:00",
      "eventActual": "249.2",
      "eventCountry": "United States",
      "eventExpectedVolatility": "Low",
      "eventName": "House Price Index (May)",
      "eventTimeZone": "GMT",
      "eventPrevious": "248.3",
      "eventCurrency": "USD",
      "eventForecast": ""
    },
    {
      "eventDateTime": "2017-07-25T13:00:00",
      "eventActual": "0.4%",
      "eventCountry": "United States",
      "eventExpectedVolatility": "Low",
      "eventName": "House Price Index (MoM) (May)",
      "eventTimeZone": "GMT",
      "eventPrevious": "0.6%",
      "eventCurrency": "USD",
      "eventForecast": "0.6%"
    },
    {
      "eventDateTime": "2017-07-25T13:00:00",
      "eventActual": "6.9%",
      "eventCountry": "United States",
      "eventExpectedVolatility": "Low",
      "eventName": "House Price Index (YoY) (May)",
      "eventTimeZone": "GMT",
      "eventPrevious": "6.8%",
      "eventCurrency": "USD",
      "eventForecast": ""
    },
    {
      "eventDateTime": "2017-07-25T13:00:00",
      "eventActual": "0.8%",
      "eventCountry": "United States",
      "eventExpectedVolatility": "Low",
      "eventName": "Sandamp:P/CS HPI Composite - 20 n.s.a. (MoM) (May)",
      "eventTimeZone": "GMT",
      "eventPrevious": "1.0%",
      "eventCurrency": "USD",
      "eventForecast": ""
    },
    {
      "eventDateTime": "2017-07-25T13:00:00",
      "eventActual": "5.7%",
      "eventCountry": "United States",
      "eventExpectedVolatility": "Moderate",
      "eventName": "Sandamp:P/CS HPI Composite - 20 n.s.a. (YoY) (May)",
      "eventTimeZone": "GMT",
      "eventPrevious": "5.7%",
      "eventCurrency": "USD",
      "eventForecast": "5.8%"
    },
    {
      "eventDateTime": "2017-07-25T13:00:00",
      "eventActual": "0.1%",
      "eventCountry": "United States",
      "eventExpectedVolatility": "Low",
      "eventName": "Sandamp:P/CS HPI Composite - 20 s.a. (MoM) (May)",
      "eventTimeZone": "GMT",
      "eventPrevious": "-0.2%",
      "eventCurrency": "USD",
      "eventForecast": "0.3%"
    },
    {
      "eventDateTime": "2017-07-25T14:00:00",
      "eventActual": "121.1",
      "eventCountry": "United States",
      "eventExpectedVolatility": "High",
      "eventName": "CB Consumer Confidence (Jul)",
      "eventTimeZone": "GMT",
      "eventPrevious": "117.3",
      "eventCurrency": "USD",
      "eventForecast": "116.5"
    },
    {
      "eventDateTime": "2017-07-25T14:00:00",
      "eventActual": "14",
      "eventCountry": "United States",
      "eventExpectedVolatility": "Low",
      "eventName": "Richmond Manufacturing Index (Jul)",
      "eventTimeZone": "GMT",
      "eventPrevious": "7",
      "eventCurrency": "USD",
      "eventForecast": "7"
    },
    {
      "eventDateTime": "2017-07-25T14:00:00",
      "eventActual": "13",
      "eventCountry": "United States",
      "eventExpectedVolatility": "Low",
      "eventName": "Richmond Manufacturing Shipments (Jul)",
      "eventTimeZone": "GMT",
      "eventPrevious": "11",
      "eventCurrency": "USD",
      "eventForecast": ""
    },
    {
      "eventDateTime": "2017-07-25T14:00:00",
      "eventActual": "12",
      "eventCountry": "United States",
      "eventExpectedVolatility": "Low",
      "eventName": "Richmond Services Index (Jul)",
      "eventTimeZone": "GMT",
      "eventPrevious": "19",
      "eventCurrency": "USD",
      "eventForecast": ""
    },
    {
      "eventDateTime": "2017-07-25T15:30:00",
      "eventActual": "0.980%",
      "eventCountry": "United States",
      "eventExpectedVolatility": "Low",
      "eventName": "4-Week Bill Auction",
      "eventTimeZone": "GMT",
      "eventPrevious": "0.955%",
      "eventCurrency": "USD",
      "eventForecast": ""
    },
    {
      "eventDateTime": "2017-07-25T17:00:00",
      "eventActual": "1.395%",
      "eventCountry": "United States",
      "eventExpectedVolatility": "Low",
      "eventName": "2-Year Note Auction",
      "eventTimeZone": "GMT",
      "eventPrevious": "1.348%",
      "eventCurrency": "USD",
      "eventForecast": ""
    },
    {
      "eventDateTime": "2017-07-25T20:35:00",
      "eventActual": "-10.230M",
      "eventCountry": "United States",
      "eventExpectedVolatility": "Moderate",
      "eventName": "API Weekly Crude Oil Stock",
      "eventTimeZone": "GMT",
      "eventPrevious": "1.628M",
      "eventCurrency": "USD",
      "eventForecast": "-3.000M"
    }
  ]}}
