"Federal Fiscal Deficit (Nov)";"India";"INR";"2017-12-29T10:00:00";"GMT";"5,253.21B";"";"6,121.05B";"Low"
"FX Reserves, USD";"India";"INR";"2017-12-29T11:30:00";"GMT";"401.39B";"";"404.92B";"Low"
"Foreign Debt (USD) (Q3)";"India";"INR";"2017-12-29T12:25:00";"GMT";"485.8B";"";"495.7B";"Low"
