{"events": {"event": {
    "eventDateTime": "2010-06-07T22:45:00",
    "eventActual": "0.9%",
    "eventCountry": "New Zealand",
    "eventExpectedVolatility": "Low",
    "eventName": "Manufacturing Sales Volume (QoQ)",
    "eventTimeZone": "GMT",
    "eventPrevious": "0.7%",
    "eventCurrency": "NZD",
    "eventForecast": ""
  }}}
