"German Factory Orders (MoM) (Feb)";"Germany";"EUR";"2015-04-08T06:00:00";"GMT";"-2.6%";"1.5%";"-0.9%";"Moderate"
"French Exports (Feb)";"France";"EUR";"2015-04-08T06:45:00";"GMT";"36.8B";"";"37.3B";"Low"
"French Imports (Feb)";"France";"EUR";"2015-04-08T06:45:00";"GMT";"40.6B";"";"40.8B";"Low"
"French Trade Balance (Feb)";"France";"EUR";"2015-04-08T06:45:00";"GMT";"-3.7B";"-3.8B";"-3.5B";"Low"
"Retail PMI";"Euro Zone";"EUR";"2015-04-08T08:10:00";"GMT";"46.4";"";"48.6";"Low"
"Retail Sales (MoM) (Feb)";"Euro Zone";"EUR";"2015-04-08T09:00:00";"GMT";"0.9%";"-0.2%";"-0.2%";"Moderate"
"Retail Sales (YoY) (Feb)";"Euro Zone";"EUR";"2015-04-08T09:00:00";"GMT";"3.2%";"3.0%";"3.0%";"Low"
"German 2-Year Schatz Auction";"Germany";"EUR";"2015-04-08T09:35:00";"GMT";"-0.240%";"";"-0.280%";"Low"
