"German WPI (MoM)";"Germany";"EUR";"2014-05-13T06:00:00";"GMT";"0.0%";"-0.1%";"0.2%";"Low"
"French Current Account";"France";"EUR";"2014-05-13T06:45:00";"GMT";"-1.40B";"";"-1.50B";"Low"
"Italian CPI (MoM)";"Italy";"EUR";"2014-05-13T08:00:00";"GMT";"0.2%";"0.2%";"0.2%";"Moderate"
"Italian CPI (YoY)";"Italy";"EUR";"2014-05-13T08:00:00";"GMT";"0.6%";"0.6%";"0.6%";"Low"
"Italian HICP (MoM)";"Italy";"EUR";"2014-05-13T08:00:00";"GMT";"0.5%";"0.6%";"0.5%";"Low"
"Italian HICP (YoY)";"Italy";"EUR";"2014-05-13T08:00:00";"GMT";"0.5%";"0.6%";"0.5%";"Low"
"Spanish 12-Month Letras Auction";"Spain";"EUR";"2014-05-13T08:45:00";"GMT";"0.556%";"";"0.598%";"Low"
"Spanish 6-Month Letras Auction";"Spain";"EUR";"2014-05-13T08:45:00";"GMT";"0.369%";"";"0.362%";"Low"
"German ZEW Current Conditions";"Germany";"EUR";"2014-05-13T09:00:00";"GMT";"59.5";"60.5";"62.1";"Moderate"
"German ZEW Economic Sentiment";"Germany";"EUR";"2014-05-13T09:00:00";"GMT";"43.2";"41.0";"33.1";"High"
"ZEW Economic Sentiment";"Euro Zone";"EUR";"2014-05-13T09:00:00";"GMT";"61.2";"63.5";"55.2";"Moderate"
