"CPI (MoM) (May)";"South Korea";"KRW";"2006-06-01T09:00:00";"GMT";"0.10%";"";"0.20%";"Low"
"CPI (YoY) (May)";"South Korea";"KRW";"2006-06-01T09:00:00";"GMT";"2.00%";"";"2.30%";"Moderate"
"Current Account (May)";"South Korea";"KRW";"2006-06-01T09:00:00";"GMT";"-1.03B";"";"0.33B";"Low"
"Export Price Index (YoY) (May)";"South Korea";"KRW";"2006-06-01T09:00:00";"GMT";"-9.80%";"";"-7.20%";"Low"
"Exports (YoY) (May)";"South Korea";"KRW";"2006-06-01T09:00:00";"GMT";"11.90%";"";"20.80%";"Low"
"FX Reserves - USD (May)";"South Korea";"KRW";"2006-06-01T09:00:00";"GMT";"222.89B";"";"224.69B";"Low"
"Import Price Index (YoY) (May)";"South Korea";"KRW";"2006-06-01T09:00:00";"GMT";"0.20%";"";"4.40%";"Low"
"Imports (YoY) (May)";"South Korea";"KRW";"2006-06-01T09:00:00";"GMT";"15.30%";"";"23.90%";"Low"
"Industrial Production (MoM) (May)";"South Korea";"KRW";"2006-06-01T09:00:00";"GMT";"-0.90%";"";"2.00%";"Low"
"Industrial Production (YoY) (May)";"South Korea";"KRW";"2006-06-01T09:00:00";"GMT";"7.80%";"";"9.80%";"Low"
"Interest Rate Decision (May)";"South Korea";"KRW";"2006-06-01T09:00:00";"GMT";"4.00%";"";"4.00%";"Low"
"M2 Money supply (May)";"South Korea";"KRW";"2006-06-01T09:00:00";"GMT";"7.90%";"";"8.80%";"Low"
"Manufacturing BSI Index (May)";"South Korea";"KRW";"2006-06-01T09:00:00";"GMT";"92.00";"";"88.00";"Low"
"PPI (MoM) (May)";"South Korea";"KRW";"2006-06-01T09:00:00";"GMT";"0.20%";"";"0.30%";"Low"
"PPI (YoY) (May)";"South Korea";"KRW";"2006-06-01T09:00:00";"GMT";"0.40%";"";"1.40%";"Low"
"Service Sector Output (MoM) (May)";"South Korea";"KRW";"2006-06-01T09:00:00";"GMT";"0.00%";"";"0.40%";"Low"
"Trade Balance (May)";"South Korea";"KRW";"2006-06-01T09:00:00";"GMT";"1.10B";"";"0.00B";"Low"
"Unemployment Rate (May)";"South Korea";"KRW";"2006-06-01T09:00:00";"GMT";"3.40%";"";"3.30%";"Low"
