{"events": {"event": [
    {
      "eventDateTime": "2014-05-02T00:00:00",
      "eventActual": "0.2%",
      "eventCountry": "Australia",
      "eventExpectedVolatility": "Moderate",
      "eventName": "HIA New Home Sales (MoM)",
      "eventTimeZone": "GMT",
      "eventPrevious": "4.6%",
      "eventCurrency": "AUD",
      "eventForecast": ""
    },
    {
      "eventDateTime": "2014-05-02T01:30:00",
      "eventActual": "0.9%",
      "eventCountry": "Australia",
      "eventExpectedVolatility": "Moderate",
      "eventName": "PPI (QoQ)",
      "eventTimeZone": "GMT",
      "eventPrevious": "0.2%",
      "eventCurrency": "AUD",
      "eventForecast": "0.5%"
    },
    {
      "eventDateTime": "2014-05-02T19:30:00",
      "eventActual": "10.7K",
      "eventCountry": "Australia",
      "eventExpectedVolatility": "Moderate",
      "eventName": "CFTC AUD speculative net positions",
      "eventTimeZone": "GMT",
      "eventPrevious": "16.4K",
      "eventCurrency": "AUD",
      "eventForecast": ""
    }
  ]}}
