{"events": {"event": [
    {
      "eventDateTime": "2019-11-21T22:00:00",
      "eventActual": "49.9",
      "eventCountry": "Australia",
      "eventExpectedVolatility": "Low",
      "eventName": "Manufacturing PMI",
      "eventTimeZone": "GMT",
      "eventPrevious": "50.0",
      "eventCurrency": "AUD",
      "eventForecast": ""
    },
    {
      "eventDateTime": "2019-11-21T22:00:00",
      "eventActual": "49.5",
      "eventCountry": "Australia",
      "eventExpectedVolatility": "Low",
      "eventName": "Services PMI",
      "eventTimeZone": "GMT",
      "eventPrevious": "50.1",
      "eventCurrency": "AUD",
      "eventForecast": ""
    }
  ]}}
