"Spanish Unemployment Change";"Spain";"EUR";"2015-07-02T07:00:00";"GMT";"-118.0K";"-124.0K";"-94.7K";"Moderate"
"Spanish 10-Year Obligacion Auction";"Spain";"EUR";"2015-07-02T08:50:00";"GMT";"2.349%";"";"2.258%";"Moderate"
"Spanish 3-Year Bonos Auction";"Spain";"EUR";"2015-07-02T08:50:00";"GMT";"0.655%";"";"0.691%";"Low"
"Spanish 5-Year Bonos Auction";"Spain";"EUR";"2015-07-02T08:50:00";"GMT";"1.282%";"";"1.291%";"Low"
"French 10-Year OAT Auction";"France";"EUR";"2015-07-02T09:00:00";"GMT";"1.28%";"";"1.30%";"Low"
"PPI (MoM) (May)";"Euro Zone";"EUR";"2015-07-02T09:00:00";"GMT";"-0.1%";"0.1%";"0.0%";"Low"
"PPI (YoY) (May)";"Euro Zone";"EUR";"2015-07-02T09:00:00";"GMT";"-2.2%";"-2.0%";"-2.0%";"Low"
"ECB Publishes Account of Monetary Policy Meeting";"Euro Zone";"EUR";"2015-07-02T11:30:00";"GMT";" ";"";"";"High"
