{"events": {"event": [
    {
      "eventDateTime": "2016-11-28T20:30:00",
      "eventActual": "10.9K",
      "eventCountry": "Japan",
      "eventExpectedVolatility": "Moderate",
      "eventName": "CFTC JPY speculative net positions",
      "eventTimeZone": "GMT",
      "eventPrevious": "20.7K",
      "eventCurrency": "JPY",
      "eventForecast": ""
    },
    {
      "eventDateTime": "2016-11-28T23:30:00",
      "eventActual": "-1.0%",
      "eventCountry": "Japan",
      "eventExpectedVolatility": "Moderate",
      "eventName": "Household Spending (MoM) (Oct)",
      "eventTimeZone": "GMT",
      "eventPrevious": "2.8%",
      "eventCurrency": "JPY",
      "eventForecast": "0.1%"
    },
    {
      "eventDateTime": "2016-11-28T23:30:00",
      "eventActual": "-0.4%",
      "eventCountry": "Japan",
      "eventExpectedVolatility": "Moderate",
      "eventName": "Household Spending (YoY) (Oct)",
      "eventTimeZone": "GMT",
      "eventPrevious": "-2.1%",
      "eventCurrency": "JPY",
      "eventForecast": "-0.6%"
    },
    {
      "eventDateTime": "2016-11-28T23:30:00",
      "eventActual": "1.40",
      "eventCountry": "Japan",
      "eventExpectedVolatility": "Moderate",
      "eventName": "Jobs/applications ratio (Oct)",
      "eventTimeZone": "GMT",
      "eventPrevious": "1.38",
      "eventCurrency": "JPY",
      "eventForecast": "1.39"
    },
    {
      "eventDateTime": "2016-11-28T23:30:00",
      "eventActual": "3.0%",
      "eventCountry": "Japan",
      "eventExpectedVolatility": "Low",
      "eventName": "Unemployment Rate (Oct)",
      "eventTimeZone": "GMT",
      "eventPrevious": "3.0%",
      "eventCurrency": "JPY",
      "eventForecast": "3.0%"
    },
    {
      "eventDateTime": "2016-11-28T23:50:00",
      "eventActual": "-0.1%",
      "eventCountry": "Japan",
      "eventExpectedVolatility": "Moderate",
      "eventName": "Retail Sales (YoY) (Oct)",
      "eventTimeZone": "GMT",
      "eventPrevious": "-1.9%",
      "eventCurrency": "JPY",
      "eventForecast": "-1.2%"
    }
  ]}}
