{"events": {"event": {
    "eventDateTime": "2017-10-09T08:35:00",
    "eventActual": "419.20B",
    "eventCountry": "Hong Kong",
    "eventExpectedVolatility": "Low",
    "eventName": "Foreign Reserves (USD) (Sep)",
    "eventTimeZone": "GMT",
    "eventPrevious": "413.80B",
    "eventCurrency": "HKD",
    "eventForecast": ""
  }}}
