{"events": {"event": [
    {
      "eventDateTime": "2016-09-02T07:00:00",
      "eventActual": "14.4K",
      "eventCountry": "Spain",
      "eventExpectedVolatility": "Moderate",
      "eventName": "Spanish Unemployment Change",
      "eventTimeZone": "GMT",
      "eventPrevious": "-84.0K",
      "eventCurrency": "EUR",
      "eventForecast": "15.0K"
    },
    {
      "eventDateTime": "2016-09-02T08:00:00",
      "eventActual": "0.0%",
      "eventCountry": "Italy",
      "eventExpectedVolatility": "Low",
      "eventName": "Italian GDP (QoQ) (Q2)",
      "eventTimeZone": "GMT",
      "eventPrevious": "0.0%",
      "eventCurrency": "EUR",
      "eventForecast": "0.0%"
    },
    {
      "eventDateTime": "2016-09-02T08:00:00",
      "eventActual": "0.8%",
      "eventCountry": "Italy",
      "eventExpectedVolatility": "Low",
      "eventName": "Italian GDP (YoY) (Q2)",
      "eventTimeZone": "GMT",
      "eventPrevious": "0.8%",
      "eventCurrency": "EUR",
      "eventForecast": "0.7%"
    },
    {
      "eventDateTime": "2016-09-02T09:00:00",
      "eventActual": "0.1%",
      "eventCountry": "Euro Zone",
      "eventExpectedVolatility": "Low",
      "eventName": "PPI (MoM) (Jul)",
      "eventTimeZone": "GMT",
      "eventPrevious": "0.8%",
      "eventCurrency": "EUR",
      "eventForecast": "0.1%"
    },
    {
      "eventDateTime": "2016-09-02T09:00:00",
      "eventActual": "-2.8%",
      "eventCountry": "Euro Zone",
      "eventExpectedVolatility": "Low",
      "eventName": "PPI (YoY) (Jul)",
      "eventTimeZone": "GMT",
      "eventPrevious": "-3.1%",
      "eventCurrency": "EUR",
      "eventForecast": "-2.9%"
    },
    {
      "eventDateTime": "2016-09-02T19:30:00",
      "eventActual": "-81.9K",
      "eventCountry": "Euro Zone",
      "eventExpectedVolatility": "Moderate",
      "eventName": "CFTC EUR speculative net positions",
      "eventTimeZone": "GMT",
      "eventPrevious": "-76.7K",
      "eventCurrency": "EUR",
      "eventForecast": ""
    }
  ]}}
