{"events": {"event": [
    {
      "eventDateTime": "2014-08-29T12:00:00",
      "eventActual": "-0.6%",
      "eventCountry": "Brazil",
      "eventExpectedVolatility": "Moderate",
      "eventName": "GDP (QoQ) (Q2)",
      "eventTimeZone": "GMT",
      "eventPrevious": "-0.2%",
      "eventCurrency": "BRL",
      "eventForecast": "-0.4%"
    },
    {
      "eventDateTime": "2014-08-29T12:00:00",
      "eventActual": "-0.9%",
      "eventCountry": "Brazil",
      "eventExpectedVolatility": "Moderate",
      "eventName": "GDP (YoY) (Q2)",
      "eventTimeZone": "GMT",
      "eventPrevious": "1.9%",
      "eventCurrency": "BRL",
      "eventForecast": "-0.6%"
    },
    {
      "eventDateTime": "2014-08-29T13:30:00",
      "eventActual": "-32.710B",
      "eventCountry": "Brazil",
      "eventExpectedVolatility": "Low",
      "eventName": "Budget Balance",
      "eventTimeZone": "GMT",
      "eventPrevious": "-20.792B",
      "eventCurrency": "BRL",
      "eventForecast": "-22.000B"
    },
    {
      "eventDateTime": "2014-08-29T13:30:00",
      "eventActual": "35.1%",
      "eventCountry": "Brazil",
      "eventExpectedVolatility": "Low",
      "eventName": "Debt-to-GDP ratio",
      "eventTimeZone": "GMT",
      "eventPrevious": "34.9%",
      "eventCurrency": "BRL",
      "eventForecast": "35.0%"
    }
  ]}}
