{"events": {"event": {
    "eventDateTime": "2018-02-08T13:00:00",
    "eventActual": "449.8B",
    "eventCountry": "Russia",
    "eventExpectedVolatility": "Moderate",
    "eventName": "Central Bank reserves (USD)",
    "eventTimeZone": "GMT",
    "eventPrevious": "452.8B",
    "eventCurrency": "RUB",
    "eventForecast": ""
  }}}
