{"events": {"event": {
    "eventDateTime": "2012-12-21T11:30:00",
    "eventActual": "296.63B",
    "eventCountry": "India",
    "eventExpectedVolatility": "Low",
    "eventName": "FX Reserves, USD",
    "eventTimeZone": "GMT",
    "eventPrevious": "294.99B",
    "eventCurrency": "INR",
    "eventForecast": ""
  }}}
