{"events": {"event": [
    {
      "eventDateTime": "2010-04-30T12:30:00",
      "eventActual": "0.6%",
      "eventCountry": "United States",
      "eventExpectedVolatility": "Moderate",
      "eventName": "Employment Cost Index (QoQ)",
      "eventTimeZone": "GMT",
      "eventPrevious": "0.4%",
      "eventCurrency": "USD",
      "eventForecast": "0.5%"
    },
    {
      "eventDateTime": "2010-04-30T12:30:00",
      "eventActual": "3.2%",
      "eventCountry": "United States",
      "eventExpectedVolatility": "High",
      "eventName": "GDP (QoQ)",
      "eventTimeZone": "GMT",
      "eventPrevious": "5.6%",
      "eventCurrency": "USD",
      "eventForecast": "3.3%"
    },
    {
      "eventDateTime": "2010-04-30T12:30:00",
      "eventActual": "0.9%",
      "eventCountry": "United States",
      "eventExpectedVolatility": "Moderate",
      "eventName": "GDP Price Index (QoQ)",
      "eventTimeZone": "GMT",
      "eventPrevious": "0.5%",
      "eventCurrency": "USD",
      "eventForecast": "0.9%"
    },
    {
      "eventDateTime": "2010-04-30T13:45:00",
      "eventActual": "63.8",
      "eventCountry": "United States",
      "eventExpectedVolatility": "Moderate",
      "eventName": "Chicago PMI",
      "eventTimeZone": "GMT",
      "eventPrevious": "58.8",
      "eventCurrency": "USD",
      "eventForecast": "59.8"
    },
    {
      "eventDateTime": "2010-04-30T13:55:00",
      "eventActual": "72.2",
      "eventCountry": "United States",
      "eventExpectedVolatility": "Moderate",
      "eventName": "Michigan Consumer Sentiment",
      "eventTimeZone": "GMT",
      "eventPrevious": "69.5",
      "eventCurrency": "USD",
      "eventForecast": "71.5"
    },
    {
      "eventDateTime": "2010-04-30T13:55:00",
      "eventActual": "2.9%",
      "eventCountry": "United States",
      "eventExpectedVolatility": "Low",
      "eventName": "Michigan Inflation Expectations",
      "eventTimeZone": "GMT",
      "eventPrevious": "2.9%",
      "eventCurrency": "USD",
      "eventForecast": ""
    },
    {
      "eventDateTime": "2010-04-30T17:00:00",
      "eventActual": "513",
      "eventCountry": "United States",
      "eventExpectedVolatility": "Moderate",
      "eventName": "U.S. Baker Hughes Oil Rig Count",
      "eventTimeZone": "GMT",
      "eventPrevious": "514",
      "eventCurrency": "USD",
      "eventForecast": ""
    },
    {
      "eventDateTime": "2010-04-30T19:30:00",
      "eventActual": "225.7K",
      "eventCountry": "United States",
      "eventExpectedVolatility": "Moderate",
      "eventName": "CFTC Gold speculative net positions",
      "eventTimeZone": "GMT",
      "eventPrevious": "210.7K",
      "eventCurrency": "USD",
      "eventForecast": ""
    },
    {
      "eventDateTime": "2010-04-30T19:30:00",
      "eventActual": "40.6K",
      "eventCountry": "United States",
      "eventExpectedVolatility": "Low",
      "eventName": "CFTC Silver speculative net positions",
      "eventTimeZone": "GMT",
      "eventPrevious": "38.9K",
      "eventCurrency": "USD",
      "eventForecast": ""
    },
    {
      "eventDateTime": "2010-04-30T20:30:00",
      "eventActual": "109.3k",
      "eventCountry": "United States",
      "eventExpectedVolatility": "Moderate",
      "eventName": "CFTC Crude Oil speculative net positions",
      "eventTimeZone": "GMT",
      "eventPrevious": "121.5k",
      "eventCurrency": "USD",
      "eventForecast": ""
    }
  ]}}
