{"events": {"event": [
    {
      "eventDateTime": "2012-06-05T12:30:00",
      "eventActual": "-5.2%",
      "eventCountry": "Canada",
      "eventExpectedVolatility": "Moderate",
      "eventName": "Building Permits (MoM)",
      "eventTimeZone": "GMT",
      "eventPrevious": "4.9%",
      "eventCurrency": "CAD",
      "eventForecast": "-2.0%"
    },
    {
      "eventDateTime": "2012-06-05T13:00:00",
      "eventActual": "1.00%",
      "eventCountry": "Canada",
      "eventExpectedVolatility": "High",
      "eventName": "BoC Interest Rate Decision",
      "eventTimeZone": "GMT",
      "eventPrevious": "1.00%",
      "eventCurrency": "CAD",
      "eventForecast": "1.00%"
    }
  ]}}
