{"events": {"event": [
    {
      "eventDateTime": "2014-05-26T05:00:00",
      "eventActual": "-4.7%",
      "eventCountry": "Singapore",
      "eventExpectedVolatility": "Low",
      "eventName": "Industrial Production (MoM)",
      "eventTimeZone": "GMT",
      "eventPrevious": "6.0%",
      "eventCurrency": "SGD",
      "eventForecast": "-2.9%"
    },
    {
      "eventDateTime": "2014-05-26T05:00:00",
      "eventActual": "4.6%",
      "eventCountry": "Singapore",
      "eventExpectedVolatility": "Low",
      "eventName": "Industrial Production (YoY)",
      "eventTimeZone": "GMT",
      "eventPrevious": "12.1%",
      "eventCurrency": "SGD",
      "eventForecast": "6.5%"
    }
  ]}}
