"Initial Jobless Claims";"United States";"USD";"2008-02-21T13:30:00";"GMT";"339K";"345K";"349K";"Moderate"
"Philadelphia Fed Manufacturing Index";"United States";"USD";"2008-02-21T15:00:00";"GMT";"-20.9";"-10.0";"-24.0";"High"
"Crude Oil Inventories";"United States";"USD";"2008-02-21T15:30:00";"GMT";"1.100M";"0.000M";"4.200M";"High"
