"Employment Change (Nov)";"Canada";"CAD";"2019-12-06T13:30:00";"GMT";"-1.8K";"10.0K";"-71.2K";"High"
"Full Employment Change (Nov)";"Canada";"CAD";"2019-12-06T13:30:00";"GMT";"-16.1K";"";"-38.4K";"Low"
"Part Time Employment Change (Nov)";"Canada";"CAD";"2019-12-06T13:30:00";"GMT";"14.3K";"";"-32.8K";"Low"
"Participation Rate (Nov)";"Canada";"CAD";"2019-12-06T13:30:00";"GMT";"65.7%";"65.7%";"65.6%";"Low"
"Unemployment Rate (Nov)";"Canada";"CAD";"2019-12-06T13:30:00";"GMT";"5.5%";"5.5%";"5.9%";"Moderate"
"CFTC CAD speculative net positions";"Canada";"CAD";"2019-12-06T19:30:00";"GMT";"20.3K";"";"21.5K";"Low"
