"MBA Mortgage Applications (WoW)";"United States";"USD";"2010-04-14T11:00:00";"GMT";"-11.0%";"";"-9.6%";"Low"
"CPI (MoM)";"United States";"USD";"2010-04-14T12:30:00";"GMT";"0.0%";"0.1%";"0.1%";"Moderate"
"Core CPI (MoM)";"United States";"USD";"2010-04-14T12:30:00";"GMT";"0.1%";"0.1%";"0.0%";"High"
"Core Retail Sales (MoM)";"United States";"USD";"2010-04-14T12:30:00";"GMT";"1.0%";"0.5%";"0.6%";"High"
"Retail Sales (MoM)";"United States";"USD";"2010-04-14T12:30:00";"GMT";"0.5%";"1.1%";"1.6%";"High"
"Business Inventories (MoM)";"United States";"USD";"2010-04-14T14:00:00";"GMT";"0.2%";"0.3%";"0.5%";"Moderate"
"Fed Chairman Bernanke Testifies";"United States";"USD";"2010-04-14T14:00:00";"GMT";" ";"";"";"High"
"Crude Oil Inventories";"United States";"USD";"2010-04-14T14:30:00";"GMT";"2.000M";"1.400M";"-2.200M";"High"
"Beige Book";"United States";"USD";"2010-04-14T18:00:00";"GMT";" ";"";"";"Moderate"
