"Employment Change (Dec)";"Australia";"AUD";"2015-01-15T00:30:00";"GMT";"44.9K";"3.8K";"37.4K";"High"
"Full Employment Change (Dec)";"Australia";"AUD";"2015-01-15T00:30:00";"GMT";"2.6K";"";"41.6K";"Moderate"
"Participation Rate (Dec)";"Australia";"AUD";"2015-01-15T00:30:00";"GMT";"64.7%";"64.7%";"64.8%";"Low"
"Unemployment Rate (Dec)";"Australia";"AUD";"2015-01-15T00:30:00";"GMT";"6.2%";"6.3%";"6.1%";"Moderate"
