{"events": {"event": [
    {
      "eventDateTime": "2015-04-12T22:45:00",
      "eventActual": "0.8%",
      "eventCountry": "New Zealand",
      "eventExpectedVolatility": "Moderate",
      "eventName": "Electronic Card Retail Sales (MoM) (Mar)",
      "eventTimeZone": "GMT",
      "eventPrevious": "1.1%",
      "eventCurrency": "NZD",
      "eventForecast": "0.8%"
    },
    {
      "eventDateTime": "2015-04-12T22:45:00",
      "eventActual": "3.7%",
      "eventCountry": "New Zealand",
      "eventExpectedVolatility": "Low",
      "eventName": "Electronic Card Retail Sales (YoY) (Mar)",
      "eventTimeZone": "GMT",
      "eventPrevious": "3.8%",
      "eventCurrency": "NZD",
      "eventForecast": ""
    }
  ]}}
