"CPI (MoM) (Jan)";"China";"CNY";"2012-02-01T09:00:00";"GMT";"0.30%";"";"1.50%";"Moderate"
"Exports (YoY) (Jan)";"China";"CNY";"2012-02-01T09:00:00";"GMT";"13.30%";"";"-0.60%";"Moderate"
"FDI (Jan)";"China";"CNY";"2012-02-01T09:00:00";"GMT";"9.72%";"";"-0.30%";"Low"
"House Prices (YoY) (Jan)";"China";"CNY";"2012-02-01T09:00:00";"GMT";"1.40%";"";"0.50%";"Low"
"Imports (YoY) (Jan)";"China";"CNY";"2012-02-01T09:00:00";"GMT";"11.80%";"";"-15.30%";"Moderate"
"Manufacturing PMI (Jan)";"China";"CNY";"2012-02-01T09:00:00";"GMT";"50.30";"";"50.50";"High"
"New Loans (Jan)";"China";"CNY";"2012-02-01T09:00:00";"GMT";"640.50B";"";"738.10B";"Moderate"
"Non-Manufacturing PMI (Jan)";"China";"CNY";"2012-02-01T09:00:00";"GMT";"56.30";"";"55.70";"Moderate"
"Outstanding Loan Growth (YoY) (Jan)";"China";"CNY";"2012-02-01T09:00:00";"GMT";"15.80%";"";"15.00%";"Low"
"PBoC Deposit Rate (Jan)";"China";"CNY";"2012-02-01T09:00:00";"GMT";"3.50%";"";"3.50%";"Moderate"
"PBoC Reserve Requirement Ratio (Jan)";"China";"CNY";"2012-02-01T09:00:00";"GMT";"21.05%";"";"21.00%";"Moderate"
