{"events": {"event": [
    {
      "eventDateTime": "2019-09-04T06:00:00",
      "eventActual": "52.1",
      "eventCountry": "Russia",
      "eventExpectedVolatility": "Moderate",
      "eventName": "Markit Services PMI (Aug)",
      "eventTimeZone": "GMT",
      "eventPrevious": "50.4",
      "eventCurrency": "RUB",
      "eventForecast": ""
    },
    {
      "eventDateTime": "2019-09-04T09:00:00",
      "eventActual": "187.1B",
      "eventCountry": "Russia",
      "eventExpectedVolatility": "Low",
      "eventName": "Russian Forex Intervention (Sep)",
      "eventTimeZone": "GMT",
      "eventPrevious": "246.2B",
      "eventCurrency": "RUB",
      "eventForecast": "212.5B"
    }
  ]}}
