{"events": {"event": {
    "eventDateTime": "2018-10-03T21:00:00",
    "eventActual": "403.00B",
    "eventCountry": "South Korea",
    "eventExpectedVolatility": "Low",
    "eventName": "FX Reserves - USD",
    "eventTimeZone": "GMT",
    "eventPrevious": "401.13B",
    "eventCurrency": "KRW",
    "eventForecast": ""
  }}}
