{"events": {"event": [
    {
      "eventDateTime": "2011-04-04T03:00:00",
      "eventActual": "4.7%",
      "eventCountry": "New Zealand",
      "eventExpectedVolatility": "Low",
      "eventName": "ANZ Commodity Price Index (MoM)",
      "eventTimeZone": "GMT",
      "eventPrevious": "2.7%",
      "eventCurrency": "NZD",
      "eventForecast": ""
    },
    {
      "eventDateTime": "2011-04-04T22:00:00",
      "eventActual": "-27",
      "eventCountry": "New Zealand",
      "eventExpectedVolatility": "Moderate",
      "eventName": "NZIER Business Confidence",
      "eventTimeZone": "GMT",
      "eventPrevious": "8",
      "eventCurrency": "NZD",
      "eventForecast": ""
    }
  ]}}
