{"events": {"event": [
    {
      "eventDateTime": "2010-01-28T23:15:00",
      "eventActual": "52.5",
      "eventCountry": "Japan",
      "eventExpectedVolatility": "Low",
      "eventName": "Manufacturing PMI",
      "eventTimeZone": "GMT",
      "eventPrevious": "53.8",
      "eventCurrency": "JPY",
      "eventForecast": ""
    },
    {
      "eventDateTime": "2010-01-28T23:30:00",
      "eventActual": "2.1%",
      "eventCountry": "Japan",
      "eventExpectedVolatility": "Moderate",
      "eventName": "Household Spending (YoY)",
      "eventTimeZone": "GMT",
      "eventPrevious": "2.2%",
      "eventCurrency": "JPY",
      "eventForecast": "1.6%"
    },
    {
      "eventDateTime": "2010-01-28T23:30:00",
      "eventActual": "-1.3%",
      "eventCountry": "Japan",
      "eventExpectedVolatility": "Moderate",
      "eventName": "National Core CPI (YoY)",
      "eventTimeZone": "GMT",
      "eventPrevious": "-1.7%",
      "eventCurrency": "JPY",
      "eventForecast": "-1.3%"
    },
    {
      "eventDateTime": "2010-01-28T23:30:00",
      "eventActual": "-2.0%",
      "eventCountry": "Japan",
      "eventExpectedVolatility": "Moderate",
      "eventName": "Tokyo Core CPI (YoY)",
      "eventTimeZone": "GMT",
      "eventPrevious": "-1.9%",
      "eventCurrency": "JPY",
      "eventForecast": "-1.8%"
    },
    {
      "eventDateTime": "2010-01-28T23:30:00",
      "eventActual": "5.1%",
      "eventCountry": "Japan",
      "eventExpectedVolatility": "Low",
      "eventName": "Unemployment Rate",
      "eventTimeZone": "GMT",
      "eventPrevious": "5.2%",
      "eventCurrency": "JPY",
      "eventForecast": "5.3%"
    },
    {
      "eventDateTime": "2010-01-28T23:50:00",
      "eventActual": "2.2%",
      "eventCountry": "Japan",
      "eventExpectedVolatility": "Moderate",
      "eventName": "Industrial Production (MoM)",
      "eventTimeZone": "GMT",
      "eventPrevious": "2.2%",
      "eventCurrency": "JPY",
      "eventForecast": "2.5%"
    },
    {
      "eventDateTime": "2010-01-28T23:50:00",
      "eventActual": "",
      "eventCountry": "Japan",
      "eventExpectedVolatility": "Moderate",
      "eventName": "Monetary Policy Meeting Minutes",
      "eventTimeZone": "GMT",
      "eventPrevious": "",
      "eventCurrency": "JPY",
      "eventForecast": ""
    }
  ]}}
