{"events": {"event": {
    "eventDateTime": "2012-07-12T10:30:00",
    "eventActual": "17.40B",
    "eventCountry": "Russia",
    "eventExpectedVolatility": "Low",
    "eventName": "Trade Balance",
    "eventTimeZone": "GMT",
    "eventPrevious": "19.10B",
    "eventCurrency": "RUB",
    "eventForecast": "15.60B"
  }}}
