"U.S. President Trump Speaks";"United States";"USD";"2017-02-28T11:00:00";"GMT";" ";"";"";"High"
"FOMC Member Kaplan Speaks";"United States";"USD";"2017-02-28T12:30:00";"GMT";" ";"";"";"Moderate"
"GDP (QoQ) (Q4)";"United States";"USD";"2017-02-28T13:30:00";"GMT";"1.9%";"2.1%";"1.9%";"High"
"GDP Price Index (QoQ) (Q4)";"United States";"USD";"2017-02-28T13:30:00";"GMT";"2.1%";"2.1%";"2.0%";"Moderate"
"Goods Trade Balance (Jan)";"United States";"USD";"2017-02-28T13:30:00";"GMT";"-64.40B";"-66.00B";"-69.20B";"Moderate"
"Real Consumer Spending (Q4)";"United States";"USD";"2017-02-28T13:30:00";"GMT";"2.5%";"2.5%";"3.0%";"Low"
"Wholesale Inventories (MoM) (Jan)";"United States";"USD";"2017-02-28T13:30:00";"GMT";"1.0%";"0.5%";"-0.1%";"Low"
"Redbook (MoM)";"United States";"USD";"2017-02-28T13:55:00";"GMT";"0.5%";"";"0.7%";"Low"
"Redbook (YoY)";"United States";"USD";"2017-02-28T13:55:00";"GMT";"1.1%";"";"1.4%";"Low"
"Sandamp:P/CS HPI Composite - 20 n.s.a. (MoM) (Dec)";"United States";"USD";"2017-02-28T14:00:00";"GMT";"0.2%";"";"0.3%";"Low"
"Sandamp:P/CS HPI Composite - 20 n.s.a. (YoY) (Dec)";"United States";"USD";"2017-02-28T14:00:00";"GMT";"5.2%";"5.3%";"5.6%";"Moderate"
"Sandamp:P/CS HPI Composite - 20 s.a. (MoM) (Dec)";"United States";"USD";"2017-02-28T14:00:00";"GMT";"0.9%";"0.7%";"0.9%";"Low"
"Chicago PMI (Feb)";"United States";"USD";"2017-02-28T14:45:00";"GMT";"50.3";"53.0";"57.4";"Moderate"
"CB Consumer Confidence (Feb)";"United States";"USD";"2017-02-28T15:00:00";"GMT";"111.6";"111.0";"114.8";"High"
"Richmond Manufacturing Index (Feb)";"United States";"USD";"2017-02-28T15:00:00";"GMT";"12";"10";"17";"Low"
"Richmond Manufacturing Shipments (Feb)";"United States";"USD";"2017-02-28T15:00:00";"GMT";"13";"";"16";"Low"
"Richmond Services Index (Feb)";"United States";"USD";"2017-02-28T15:00:00";"GMT";"15";"";"15";"Low"
"Dallas Fed Services Revenues (Feb)";"United States";"USD";"2017-02-28T15:30:00";"GMT";"16.2";"";"14.1";"Low"
"Texas Services Sector Outlook (Feb)";"United States";"USD";"2017-02-28T15:30:00";"GMT";"21.2";"";"15.6";"Low"
"4-Week Bill Auction";"United States";"USD";"2017-02-28T16:30:00";"GMT";"0.480%";"";"0.400%";"Low"
"52-Week Bill Auction";"United States";"USD";"2017-02-28T16:30:00";"GMT";"0.810%";"";"0.850%";"Low"
"FOMC Member Harker Speaks";"United States";"USD";"2017-02-28T20:00:00";"GMT";" ";"";"";"Moderate"
"FOMC Member Williams Speaks";"United States";"USD";"2017-02-28T20:30:00";"GMT";" ";"";"";"Moderate"
"API Weekly Crude Oil Stock";"United States";"USD";"2017-02-28T21:35:00";"GMT";"-0.884M";"3.000M";"2.502M";"Moderate"
"FOMC Member Bullard Speaks";"United States";"USD";"2017-02-28T23:50:00";"GMT";" ";"";"";"Moderate"
