{"events": {"event": [
    {
      "eventDateTime": "2010-11-03T11:00:00",
      "eventActual": "-5.0%",
      "eventCountry": "United States",
      "eventExpectedVolatility": "Low",
      "eventName": "MBA Mortgage Applications (WoW)",
      "eventTimeZone": "GMT",
      "eventPrevious": "3.2%",
      "eventCurrency": "USD",
      "eventForecast": ""
    },
    {
      "eventDateTime": "2010-11-03T11:30:00",
      "eventActual": "-31.8%",
      "eventCountry": "United States",
      "eventExpectedVolatility": "Low",
      "eventName": "Challenger Job Cuts (YoY)",
      "eventTimeZone": "GMT",
      "eventPrevious": "-44.1%",
      "eventCurrency": "USD",
      "eventForecast": ""
    },
    {
      "eventDateTime": "2010-11-03T12:15:00",
      "eventActual": "43K",
      "eventCountry": "United States",
      "eventExpectedVolatility": "High",
      "eventName": "ADP Nonfarm Employment Change",
      "eventTimeZone": "GMT",
      "eventPrevious": "-2K",
      "eventCurrency": "USD",
      "eventForecast": "25K"
    },
    {
      "eventDateTime": "2010-11-03T14:00:00",
      "eventActual": "2.1%",
      "eventCountry": "United States",
      "eventExpectedVolatility": "Moderate",
      "eventName": "Factory Orders (MoM)",
      "eventTimeZone": "GMT",
      "eventPrevious": "0.0%",
      "eventCurrency": "USD",
      "eventForecast": "0.6%"
    },
    {
      "eventDateTime": "2010-11-03T14:00:00",
      "eventActual": "54.3",
      "eventCountry": "United States",
      "eventExpectedVolatility": "High",
      "eventName": "ISM Non-Manufacturing PMI",
      "eventTimeZone": "GMT",
      "eventPrevious": "53.2",
      "eventCurrency": "USD",
      "eventForecast": "53.6"
    },
    {
      "eventDateTime": "2010-11-03T14:30:00",
      "eventActual": "2.000M",
      "eventCountry": "United States",
      "eventExpectedVolatility": "High",
      "eventName": "Crude Oil Inventories",
      "eventTimeZone": "GMT",
      "eventPrevious": "5.000M",
      "eventCurrency": "USD",
      "eventForecast": ""
    },
    {
      "eventDateTime": "2010-11-03T15:30:00",
      "eventActual": "-2.700M",
      "eventCountry": "United States",
      "eventExpectedVolatility": "Low",
      "eventName": "Gasoline Inventories",
      "eventTimeZone": "GMT",
      "eventPrevious": "-4.400M",
      "eventCurrency": "USD",
      "eventForecast": "0.000M"
    },
    {
      "eventDateTime": "2010-11-03T18:15:00",
      "eventActual": "",
      "eventCountry": "United States",
      "eventExpectedVolatility": "High",
      "eventName": "FOMC Statement",
      "eventTimeZone": "GMT",
      "eventPrevious": "",
      "eventCurrency": "USD",
      "eventForecast": ""
    },
    {
      "eventDateTime": "2010-11-03T18:15:00",
      "eventActual": "0.25%",
      "eventCountry": "United States",
      "eventExpectedVolatility": "High",
      "eventName": "Fed Interest Rate Decision",
      "eventTimeZone": "GMT",
      "eventPrevious": "0.25%",
      "eventCurrency": "USD",
      "eventForecast": "0.25%"
    },
    {
      "eventDateTime": "2010-11-03T20:00:00",
      "eventActual": "12.30M",
      "eventCountry": "United States",
      "eventExpectedVolatility": "Low",
      "eventName": "Total Vehicle Sales",
      "eventTimeZone": "GMT",
      "eventPrevious": "11.80M",
      "eventCurrency": "USD",
      "eventForecast": "11.80M"
    }
  ]}}
