"BoC Interest Rate Decision (Aug)";"Canada";"CAD";"2001-09-01T09:00:00";"GMT";"4.25%";"";"4.00%";"High"
"Budget Balance (Aug)";"Canada";"CAD";"2001-09-01T09:00:00";"GMT";"1.48B";"";"0.39B";"Low"
"Building Permits (MoM) (Aug)";"Canada";"CAD";"2001-09-01T09:00:00";"GMT";"2.30%";"";"-1.60%";"Moderate"
"CPI (MoM) (Aug)";"Canada";"CAD";"2001-09-01T09:00:00";"GMT";"-0.30%";"";"0.00%";"Moderate"
"CPI (YoY) (Aug)";"Canada";"CAD";"2001-09-01T09:00:00";"GMT";"2.70%";"";"2.80%";"Low"
"Core CPI (MoM) (Aug)";"Canada";"CAD";"2001-09-01T09:00:00";"GMT";"0.30%";"";"0.10%";"High"
"Core CPI (YoY) (Aug)";"Canada";"CAD";"2001-09-01T09:00:00";"GMT";"2.50%";"";"2.40%";"Moderate"
"Core Retail Sales (MoM) (Aug)";"Canada";"CAD";"2001-09-01T09:00:00";"GMT";"-1.40%";"";"0.90%";"High"
"Employment Change (Aug)";"Canada";"CAD";"2001-09-01T09:00:00";"GMT";"23.80K";"";"2.20K";"High"
"Exports (Aug)";"Canada";"CAD";"2001-09-01T09:00:00";"GMT";"34.11B";"";"33.95B";"Low"
"Foreign Securities Purchases (Aug)";"Canada";"CAD";"2001-09-01T09:00:00";"GMT";"-5.17B";"";"5.85B";"Moderate"
"Foreign Securities Purchases by Canadians (Aug)";"Canada";"CAD";"2001-09-01T09:00:00";"GMT";"-0.25B";"";"1.29B";"Low"
"Full Employment Change (Aug)";"Canada";"CAD";"2001-09-01T09:00:00";"GMT";"-31.10K";"";"75.40K";"Low"
"GDP (MoM) (Aug)";"Canada";"CAD";"2001-09-01T09:00:00";"GMT";"-0.20%";"";"0.30%";"High"
"Housing Starts (Aug)";"Canada";"CAD";"2001-09-01T09:00:00";"GMT";"149.40K";"";"167.70K";"Moderate"
"IPPI (MoM) (Aug)";"Canada";"CAD";"2001-09-01T09:00:00";"GMT";"-0.80%";"";"0.00%";"Low"
"IPPI (YoY) (Aug)";"Canada";"CAD";"2001-09-01T09:00:00";"GMT";"0.80%";"";"0.80%";"Low"
"Imports (Aug)";"Canada";"CAD";"2001-09-01T09:00:00";"GMT";"28.86B";"";"29.32B";"Low"
"Ivey PMI n.s.a (Aug)";"Canada";"CAD";"2001-09-01T09:00:00";"GMT";"44.70";"";"53.50";"Low"
"Manufacturing Sales (MoM) (Aug)";"Canada";"CAD";"2001-09-01T09:00:00";"GMT";"-1.90%";"";"0.50%";"Moderate"
"New Housing Price Index (MoM) (Aug)";"Canada";"CAD";"2001-09-01T09:00:00";"GMT";"0.30%";"";"0.10%";"Moderate"
"Part Time Employment Change (Aug)";"Canada";"CAD";"2001-09-01T09:00:00";"GMT";"54.90K";"";"-73.20K";"Low"
"Participation Rate (Aug)";"Canada";"CAD";"2001-09-01T09:00:00";"GMT";"65.80%";"";"65.80%";"Low"
"RMPI (MoM) (Aug)";"Canada";"CAD";"2001-09-01T09:00:00";"GMT";"-1.80%";"";"0.00%";"Moderate"
"RMPI (YoY) (Aug)";"Canada";"CAD";"2001-09-01T09:00:00";"GMT";"0.60%";"";"-1.60%";"Low"
"Retail Sales (MoM) (Aug)";"Canada";"CAD";"2001-09-01T09:00:00";"GMT";"-1.50%";"";"0.80%";"Moderate"
"Trade Balance (Aug)";"Canada";"CAD";"2001-09-01T09:00:00";"GMT";"5.25B";"";"4.63B";"Moderate"
"Unemployment Rate (Aug)";"Canada";"CAD";"2001-09-01T09:00:00";"GMT";"7.10%";"";"7.20%";"Moderate"
"Wholesale Sales (MoM) (Aug)";"Canada";"CAD";"2001-09-01T09:00:00";"GMT";"0.60%";"";"-0.10%";"Moderate"
