{"events": {"event": {
    "eventDateTime": "2015-04-06T06:00:00",
    "eventActual": "47.9%",
    "eventCountry": "Switzerland",
    "eventExpectedVolatility": "Moderate",
    "eventName": "Investing.com USD/CHF Index",
    "eventTimeZone": "GMT",
    "eventPrevious": "51.7%",
    "eventCurrency": "CHF",
    "eventForecast": ""
  }}}
