"Manufacturing PMI";"South Africa";"ZAR";"2019-06-03T09:00:00";"GMT";"47.2";"";"45.4";"Low"
"Total Vehicle Sales (May)";"South Africa";"ZAR";"2019-06-03T12:00:00";"GMT";"36.79K";"";"40.51K";"Low"
"Total Vehicle Sales (YoY) (May)";"South Africa";"ZAR";"2019-06-03T12:00:00";"GMT";"0.70%";"";"-5.70%";"Low"
