{"events": {"event": {
    "eventDateTime": "2008-10-08T11:00:00",
    "eventActual": "2.50%",
    "eventCountry": "Switzerland",
    "eventExpectedVolatility": "High",
    "eventName": "SNB Interest Rate Decision",
    "eventTimeZone": "GMT",
    "eventPrevious": "2.75%",
    "eventCurrency": "CHF",
    "eventForecast": ""
  }}}
