{"events": {"event": [
    {
      "eventDateTime": "2004-12-01T09:00:00",
      "eventActual": "0.31",
      "eventCountry": "Euro Zone",
      "eventExpectedVolatility": "Low",
      "eventName": "Business Climate (Nov)",
      "eventTimeZone": "GMT",
      "eventPrevious": "0.51",
      "eventCurrency": "EUR",
      "eventForecast": ""
    },
    {
      "eventDateTime": "2004-12-01T09:00:00",
      "eventActual": "102.90",
      "eventCountry": "Euro Zone",
      "eventExpectedVolatility": "Low",
      "eventName": "Business and Consumer Survey (Nov)",
      "eventTimeZone": "GMT",
      "eventPrevious": "103.40",
      "eventCurrency": "EUR",
      "eventForecast": ""
    },
    {
      "eventDateTime": "2004-12-01T09:00:00",
      "eventActual": "-0.10%",
      "eventCountry": "Euro Zone",
      "eventExpectedVolatility": "Moderate",
      "eventName": "CPI (MoM) (Nov)",
      "eventTimeZone": "GMT",
      "eventPrevious": "0.30%",
      "eventCurrency": "EUR",
      "eventForecast": ""
    },
    {
      "eventDateTime": "2004-12-01T09:00:00",
      "eventActual": "2.20%",
      "eventCountry": "Euro Zone",
      "eventExpectedVolatility": "High",
      "eventName": "CPI (YoY) (Nov)",
      "eventTimeZone": "GMT",
      "eventPrevious": "2.40%",
      "eventCurrency": "EUR",
      "eventForecast": ""
    },
    {
      "eventDateTime": "2004-12-01T09:00:00",
      "eventActual": "-0.07%",
      "eventCountry": "Euro Zone",
      "eventExpectedVolatility": "Low",
      "eventName": "CPI ex Tobacco (MoM) (Nov)",
      "eventTimeZone": "GMT",
      "eventPrevious": "0.41%",
      "eventCurrency": "EUR",
      "eventForecast": ""
    },
    {
      "eventDateTime": "2004-12-01T09:00:00",
      "eventActual": "2.08%",
      "eventCountry": "Euro Zone",
      "eventExpectedVolatility": "Low",
      "eventName": "CPI ex Tobacco (YoY) (Nov)",
      "eventTimeZone": "GMT",
      "eventPrevious": "2.15%",
      "eventCurrency": "EUR",
      "eventForecast": ""
    },
    {
      "eventDateTime": "2004-12-01T09:00:00",
      "eventActual": "-13.90",
      "eventCountry": "Euro Zone",
      "eventExpectedVolatility": "Low",
      "eventName": "Consumer Confidence (Nov)",
      "eventTimeZone": "GMT",
      "eventPrevious": "-14.30",
      "eventCurrency": "EUR",
      "eventForecast": ""
    },
    {
      "eventDateTime": "2004-12-01T09:00:00",
      "eventActual": "7.20",
      "eventCountry": "Euro Zone",
      "eventExpectedVolatility": "Low",
      "eventName": "Consumer Inflation Expectation (Nov)",
      "eventTimeZone": "GMT",
      "eventPrevious": "6.90",
      "eventCurrency": "EUR",
      "eventForecast": ""
    },
    {
      "eventDateTime": "2004-12-01T09:00:00",
      "eventActual": "0.00%",
      "eventCountry": "Euro Zone",
      "eventExpectedVolatility": "Low",
      "eventName": "Core CPI (MoM) (Nov)",
      "eventTimeZone": "GMT",
      "eventPrevious": "0.20%",
      "eventCurrency": "EUR",
      "eventForecast": ""
    },
    {
      "eventDateTime": "2004-12-01T09:00:00",
      "eventActual": "1.90%",
      "eventCountry": "Euro Zone",
      "eventExpectedVolatility": "Moderate",
      "eventName": "Core CPI (YoY) (Nov)",
      "eventTimeZone": "GMT",
      "eventPrevious": "1.80%",
      "eventCurrency": "EUR",
      "eventForecast": ""
    },
    {
      "eventDateTime": "2004-12-01T09:00:00",
      "eventActual": "1.70B",
      "eventCountry": "Euro Zone",
      "eventExpectedVolatility": "Low",
      "eventName": "Current Account n.s.a. (Nov)",
      "eventTimeZone": "GMT",
      "eventPrevious": "7.30B",
      "eventCurrency": "EUR",
      "eventForecast": ""
    },
    {
      "eventDateTime": "2004-12-01T09:00:00",
      "eventActual": "2.00%",
      "eventCountry": "Euro Zone",
      "eventExpectedVolatility": "High",
      "eventName": "ECB Interest Rate Decision (Nov)",
      "eventTimeZone": "GMT",
      "eventPrevious": "2.00%",
      "eventCurrency": "EUR",
      "eventForecast": ""
    },
    {
      "eventDateTime": "2004-12-01T09:00:00",
      "eventActual": "103.00",
      "eventCountry": "France",
      "eventExpectedVolatility": "Low",
      "eventName": "French Business Survey (Nov)",
      "eventTimeZone": "GMT",
      "eventPrevious": "105.00",
      "eventCurrency": "EUR",
      "eventForecast": ""
    },
    {
      "eventDateTime": "2004-12-01T09:00:00",
      "eventActual": "0.10%",
      "eventCountry": "France",
      "eventExpectedVolatility": "Moderate",
      "eventName": "French CPI (MoM) (Nov)",
      "eventTimeZone": "GMT",
      "eventPrevious": "0.30%",
      "eventCurrency": "EUR",
      "eventForecast": ""
    },
    {
      "eventDateTime": "2004-12-01T09:00:00",
      "eventActual": "100.00",
      "eventCountry": "France",
      "eventExpectedVolatility": "Low",
      "eventName": "French Consumer Confidence (Nov)",
      "eventTimeZone": "GMT",
      "eventPrevious": "101.00",
      "eventCurrency": "EUR",
      "eventForecast": ""
    },
    {
      "eventDateTime": "2004-12-01T09:00:00",
      "eventActual": "0.80%",
      "eventCountry": "France",
      "eventExpectedVolatility": "Moderate",
      "eventName": "French Consumer Spending (MoM) (Nov)",
      "eventTimeZone": "GMT",
      "eventPrevious": "0.70%",
      "eventCurrency": "EUR",
      "eventForecast": ""
    },
    {
      "eventDateTime": "2004-12-01T09:00:00",
      "eventActual": "29.99B",
      "eventCountry": "France",
      "eventExpectedVolatility": "Low",
      "eventName": "French Exports (Nov)",
      "eventTimeZone": "GMT",
      "eventPrevious": "29.38B",
      "eventCurrency": "EUR",
      "eventForecast": ""
    },
    {
      "eventDateTime": "2004-12-01T09:00:00",
      "eventActual": "-58.43B",
      "eventCountry": "France",
      "eventExpectedVolatility": "Low",
      "eventName": "French Government Budget Balance (Nov)",
      "eventTimeZone": "GMT",
      "eventPrevious": "-50.97B",
      "eventCurrency": "EUR",
      "eventForecast": ""
    },
    {
      "eventDateTime": "2004-12-01T09:00:00",
      "eventActual": "0.00%",
      "eventCountry": "France",
      "eventExpectedVolatility": "Moderate",
      "eventName": "French HICP (MoM) (Nov)",
      "eventTimeZone": "GMT",
      "eventPrevious": "0.40%",
      "eventCurrency": "EUR",
      "eventForecast": ""
    },
    {
      "eventDateTime": "2004-12-01T09:00:00",
      "eventActual": "2.25%",
      "eventCountry": "France",
      "eventExpectedVolatility": "Low",
      "eventName": "French HICP (YoY) (Nov)",
      "eventTimeZone": "GMT",
      "eventPrevious": "2.33%",
      "eventCurrency": "EUR",
      "eventForecast": ""
    },
    {
      "eventDateTime": "2004-12-01T09:00:00",
      "eventActual": "30.48B",
      "eventCountry": "France",
      "eventExpectedVolatility": "Low",
      "eventName": "French Imports (Nov)",
      "eventTimeZone": "GMT",
      "eventPrevious": "30.89B",
      "eventCurrency": "EUR",
      "eventForecast": ""
    },
    {
      "eventDateTime": "2004-12-01T09:00:00",
      "eventActual": "-0.90%",
      "eventCountry": "France",
      "eventExpectedVolatility": "Low",
      "eventName": "French Industrial Production (MoM) (Nov)",
      "eventTimeZone": "GMT",
      "eventPrevious": "0.40%",
      "eventCurrency": "EUR",
      "eventForecast": ""
    },
    {
      "eventDateTime": "2004-12-01T09:00:00",
      "eventActual": "-0.10%",
      "eventCountry": "France",
      "eventExpectedVolatility": "Low",
      "eventName": "French PPI (MoM) (Nov)",
      "eventTimeZone": "GMT",
      "eventPrevious": "0.60%",
      "eventCurrency": "EUR",
      "eventForecast": ""
    },
    {
      "eventDateTime": "2004-12-01T09:00:00",
      "eventActual": "-0.50B",
      "eventCountry": "France",
      "eventExpectedVolatility": "Low",
      "eventName": "French Trade Balance (Nov)",
      "eventTimeZone": "GMT",
      "eventPrevious": "-1.50B",
      "eventCurrency": "EUR",
      "eventForecast": ""
    },
    {
      "eventDateTime": "2004-12-01T09:00:00",
      "eventActual": "101.00",
      "eventCountry": "Germany",
      "eventExpectedVolatility": "Moderate",
      "eventName": "German Business Expectations (Nov)",
      "eventTimeZone": "GMT",
      "eventPrevious": "101.50",
      "eventCurrency": "EUR",
      "eventForecast": ""
    },
    {
      "eventDateTime": "2004-12-01T09:00:00",
      "eventActual": "-0.20%",
      "eventCountry": "Germany",
      "eventExpectedVolatility": "Moderate",
      "eventName": "German CPI (MoM) (Nov)",
      "eventTimeZone": "GMT",
      "eventPrevious": "0.10%",
      "eventCurrency": "EUR",
      "eventForecast": ""
    },
    {
      "eventDateTime": "2004-12-01T09:00:00",
      "eventActual": "1.90%",
      "eventCountry": "Germany",
      "eventExpectedVolatility": "Low",
      "eventName": "German CPI (YoY) (Nov)",
      "eventTimeZone": "GMT",
      "eventPrevious": "1.90%",
      "eventCurrency": "EUR",
      "eventForecast": ""
    },
    {
      "eventDateTime": "2004-12-01T09:00:00",
      "eventActual": "100.10",
      "eventCountry": "Germany",
      "eventExpectedVolatility": "Moderate",
      "eventName": "German Current Assessment (Nov)",
      "eventTimeZone": "GMT",
      "eventPrevious": "99.50",
      "eventCurrency": "EUR",
      "eventForecast": ""
    },
    {
      "eventDateTime": "2004-12-01T09:00:00",
      "eventActual": "1.87%",
      "eventCountry": "Germany",
      "eventExpectedVolatility": "Low",
      "eventName": "German Exports (MoM) (Nov)",
      "eventTimeZone": "GMT",
      "eventPrevious": "1.95%",
      "eventCurrency": "EUR",
      "eventForecast": ""
    },
    {
      "eventDateTime": "2004-12-01T09:00:00",
      "eventActual": "-1.70%",
      "eventCountry": "Germany",
      "eventExpectedVolatility": "Moderate",
      "eventName": "German Factory Orders (MoM) (Nov)",
      "eventTimeZone": "GMT",
      "eventPrevious": "-0.70%",
      "eventCurrency": "EUR",
      "eventForecast": ""
    },
    {
      "eventDateTime": "2004-12-01T09:00:00",
      "eventActual": "-0.40%",
      "eventCountry": "Germany",
      "eventExpectedVolatility": "Low",
      "eventName": "German HICP (MoM) (Nov)",
      "eventTimeZone": "GMT",
      "eventPrevious": "0.20%",
      "eventCurrency": "EUR",
      "eventForecast": ""
    },
    {
      "eventDateTime": "2004-12-01T09:00:00",
      "eventActual": "2.00%",
      "eventCountry": "Germany",
      "eventExpectedVolatility": "Low",
      "eventName": "German HICP (YoY) (Nov)",
      "eventTimeZone": "GMT",
      "eventPrevious": "2.30%",
      "eventCurrency": "EUR",
      "eventForecast": ""
    },
    {
      "eventDateTime": "2004-12-01T09:00:00",
      "eventActual": "-1.30%",
      "eventCountry": "Germany",
      "eventExpectedVolatility": "Low",
      "eventName": "German Import Price Index (MoM) (Nov)",
      "eventTimeZone": "GMT",
      "eventPrevious": "1.10%",
      "eventCurrency": "EUR",
      "eventForecast": ""
    },
    {
      "eventDateTime": "2004-12-01T09:00:00",
      "eventActual": "2.70%",
      "eventCountry": "Germany",
      "eventExpectedVolatility": "Low",
      "eventName": "German Import Price Index (YoY) (Nov)",
      "eventTimeZone": "GMT",
      "eventPrevious": "4.10%",
      "eventCurrency": "EUR",
      "eventForecast": ""
    },
    {
      "eventDateTime": "2004-12-01T09:00:00",
      "eventActual": "4.30%",
      "eventCountry": "Germany",
      "eventExpectedVolatility": "Low",
      "eventName": "German Imports (MoM) (Nov)",
      "eventTimeZone": "GMT",
      "eventPrevious": "-0.10%",
      "eventCurrency": "EUR",
      "eventForecast": ""
    },
    {
      "eventDateTime": "2004-12-01T09:00:00",
      "eventActual": "-1.30%",
      "eventCountry": "Germany",
      "eventExpectedVolatility": "Moderate",
      "eventName": "German Industrial Production (MoM) (Nov)",
      "eventTimeZone": "GMT",
      "eventPrevious": "0.80%",
      "eventCurrency": "EUR",
      "eventForecast": ""
    },
    {
      "eventDateTime": "2004-12-01T09:00:00",
      "eventActual": "-0.40%",
      "eventCountry": "Germany",
      "eventExpectedVolatility": "Moderate",
      "eventName": "German PPI (MoM) (Nov)",
      "eventTimeZone": "GMT",
      "eventPrevious": "1.00%",
      "eventCurrency": "EUR",
      "eventForecast": ""
    },
    {
      "eventDateTime": "2004-12-01T09:00:00",
      "eventActual": "2.80%",
      "eventCountry": "Germany",
      "eventExpectedVolatility": "Low",
      "eventName": "German PPI (YoY) (Nov)",
      "eventTimeZone": "GMT",
      "eventPrevious": "3.30%",
      "eventCurrency": "EUR",
      "eventForecast": ""
    },
    {
      "eventDateTime": "2004-12-01T09:00:00",
      "eventActual": "0.70%",
      "eventCountry": "Germany",
      "eventExpectedVolatility": "Moderate",
      "eventName": "German Retail Sales (MoM) (Nov)",
      "eventTimeZone": "GMT",
      "eventPrevious": "-0.10%",
      "eventCurrency": "EUR",
      "eventForecast": ""
    },
    {
      "eventDateTime": "2004-12-01T09:00:00",
      "eventActual": "4.80%",
      "eventCountry": "Germany",
      "eventExpectedVolatility": "Low",
      "eventName": "German Retail Sales (YoY) (Nov)",
      "eventTimeZone": "GMT",
      "eventPrevious": "-1.10%",
      "eventCurrency": "EUR",
      "eventForecast": ""
    },
    {
      "eventDateTime": "2004-12-01T09:00:00",
      "eventActual": "11.40B",
      "eventCountry": "Germany",
      "eventExpectedVolatility": "Moderate",
      "eventName": "German Trade Balance (Nov)",
      "eventTimeZone": "GMT",
      "eventPrevious": "12.40B",
      "eventCurrency": "EUR",
      "eventForecast": ""
    },
    {
      "eventDateTime": "2004-12-01T09:00:00",
      "eventActual": "4.47M",
      "eventCountry": "Germany",
      "eventExpectedVolatility": "Low",
      "eventName": "German Unemployment (Nov)",
      "eventTimeZone": "GMT",
      "eventPrevious": "4.44M",
      "eventCurrency": "EUR",
      "eventForecast": ""
    },
    {
      "eventDateTime": "2004-12-01T09:00:00",
      "eventActual": "31.00K",
      "eventCountry": "Germany",
      "eventExpectedVolatility": "High",
      "eventName": "German Unemployment Change (Nov)",
      "eventTimeZone": "GMT",
      "eventPrevious": "20.00K",
      "eventCurrency": "EUR",
      "eventForecast": ""
    },
    {
      "eventDateTime": "2004-12-01T09:00:00",
      "eventActual": "10.80%",
      "eventCountry": "Germany",
      "eventExpectedVolatility": "Moderate",
      "eventName": "German Unemployment Rate (Nov)",
      "eventTimeZone": "GMT",
      "eventPrevious": "10.70%",
      "eventCurrency": "EUR",
      "eventForecast": ""
    },
    {
      "eventDateTime": "2004-12-01T09:00:00",
      "eventActual": "4.30M",
      "eventCountry": "Germany",
      "eventExpectedVolatility": "Low",
      "eventName": "German Unemployment n.s.a. (Nov)",
      "eventTimeZone": "GMT",
      "eventPrevious": "4.20M",
      "eventCurrency": "EUR",
      "eventForecast": ""
    },
    {
      "eventDateTime": "2004-12-01T09:00:00",
      "eventActual": "-0.10%",
      "eventCountry": "Germany",
      "eventExpectedVolatility": "Low",
      "eventName": "German WPI (MoM) (Nov)",
      "eventTimeZone": "GMT",
      "eventPrevious": "0.80%",
      "eventCurrency": "EUR",
      "eventForecast": ""
    },
    {
      "eventDateTime": "2004-12-01T09:00:00",
      "eventActual": "4.10%",
      "eventCountry": "Germany",
      "eventExpectedVolatility": "Low",
      "eventName": "German WPI (YoY) (Nov)",
      "eventTimeZone": "GMT",
      "eventPrevious": "4.20%",
      "eventCurrency": "EUR",
      "eventForecast": ""
    },
    {
      "eventDateTime": "2004-12-01T09:00:00",
      "eventActual": "-57.80",
      "eventCountry": "Germany",
      "eventExpectedVolatility": "Moderate",
      "eventName": "German ZEW Current Conditions (Nov)",
      "eventTimeZone": "GMT",
      "eventPrevious": "-58.90",
      "eventCurrency": "EUR",
      "eventForecast": ""
    },
    {
      "eventDateTime": "2004-12-01T09:00:00",
      "eventActual": "13.90",
      "eventCountry": "Germany",
      "eventExpectedVolatility": "High",
      "eventName": "German ZEW Economic Sentiment (Nov)",
      "eventTimeZone": "GMT",
      "eventPrevious": "31.30",
      "eventCurrency": "EUR",
      "eventForecast": ""
    },
    {
      "eventDateTime": "2004-12-01T09:00:00",
      "eventActual": "2.40",
      "eventCountry": "Germany",
      "eventExpectedVolatility": "Moderate",
      "eventName": "GfK German Consumer Climate (Nov)",
      "eventTimeZone": "GMT",
      "eventPrevious": "2.30",
      "eventCurrency": "EUR",
      "eventForecast": ""
    },
    {
      "eventDateTime": "2004-12-01T09:00:00",
      "eventActual": "-0.90%",
      "eventCountry": "Euro Zone",
      "eventExpectedVolatility": "Moderate",
      "eventName": "Industrial Production (MoM) (Nov)",
      "eventTimeZone": "GMT",
      "eventPrevious": "0.40%",
      "eventCurrency": "EUR",
      "eventForecast": ""
    },
    {
      "eventDateTime": "2004-12-01T09:00:00",
      "eventActual": "1.00%",
      "eventCountry": "Euro Zone",
      "eventExpectedVolatility": "Low",
      "eventName": "Industrial Production (YoY) (Nov)",
      "eventTimeZone": "GMT",
      "eventPrevious": "1.90%",
      "eventCurrency": "EUR",
      "eventForecast": ""
    },
    {
      "eventDateTime": "2004-12-01T09:00:00",
      "eventActual": "-2.20",
      "eventCountry": "Euro Zone",
      "eventExpectedVolatility": "Low",
      "eventName": "Industrial Sentiment (Nov)",
      "eventTimeZone": "GMT",
      "eventPrevious": "-1.10",
      "eventCurrency": "EUR",
      "eventForecast": ""
    },
    {
      "eventDateTime": "2004-12-01T09:00:00",
      "eventActual": "103.60",
      "eventCountry": "Italy",
      "eventExpectedVolatility": "Low",
      "eventName": "Italian Business Confidence (Nov)",
      "eventTimeZone": "GMT",
      "eventPrevious": "104.90",
      "eventCurrency": "EUR",
      "eventForecast": ""
    },
    {
      "eventDateTime": "2004-12-01T09:00:00",
      "eventActual": "1.80%",
      "eventCountry": "Italy",
      "eventExpectedVolatility": "Low",
      "eventName": "Italian CPI (YoY) (Nov)",
      "eventTimeZone": "GMT",
      "eventPrevious": "2.10%",
      "eventCurrency": "EUR",
      "eventForecast": ""
    },
    {
      "eventDateTime": "2004-12-01T09:00:00",
      "eventActual": "96.40",
      "eventCountry": "Italy",
      "eventExpectedVolatility": "Low",
      "eventName": "Italian Consumer Confidence (Nov)",
      "eventTimeZone": "GMT",
      "eventPrevious": "97.90",
      "eventCurrency": "EUR",
      "eventForecast": ""
    },
    {
      "eventDateTime": "2004-12-01T09:00:00",
      "eventActual": "0.20%",
      "eventCountry": "Italy",
      "eventExpectedVolatility": "Low",
      "eventName": "Italian HICP (MoM) (Nov)",
      "eventTimeZone": "GMT",
      "eventPrevious": "0.30%",
      "eventCurrency": "EUR",
      "eventForecast": ""
    },
    {
      "eventDateTime": "2004-12-01T09:00:00",
      "eventActual": "2.10%",
      "eventCountry": "Italy",
      "eventExpectedVolatility": "Low",
      "eventName": "Italian HICP (YoY) (Nov)",
      "eventTimeZone": "GMT",
      "eventPrevious": "2.10%",
      "eventCurrency": "EUR",
      "eventForecast": ""
    },
    {
      "eventDateTime": "2004-12-01T09:00:00",
      "eventActual": "-1.42%",
      "eventCountry": "Italy",
      "eventExpectedVolatility": "Low",
      "eventName": "Italian Industrial New Orders (MoM) (Nov)",
      "eventTimeZone": "GMT",
      "eventPrevious": "1.13%",
      "eventCurrency": "EUR",
      "eventForecast": ""
    },
    {
      "eventDateTime": "2004-12-01T09:00:00",
      "eventActual": "8.88%",
      "eventCountry": "Italy",
      "eventExpectedVolatility": "Low",
      "eventName": "Italian Industrial New Orders (YoY) (Nov)",
      "eventTimeZone": "GMT",
      "eventPrevious": "-0.60%",
      "eventCurrency": "EUR",
      "eventForecast": ""
    },
    {
      "eventDateTime": "2004-12-01T09:00:00",
      "eventActual": "-1.70%",
      "eventCountry": "Italy",
      "eventExpectedVolatility": "Low",
      "eventName": "Italian Industrial Production (MoM) (Nov)",
      "eventTimeZone": "GMT",
      "eventPrevious": "0.50%",
      "eventCurrency": "EUR",
      "eventForecast": ""
    },
    {
      "eventDateTime": "2004-12-01T09:00:00",
      "eventActual": "-2.60%",
      "eventCountry": "Italy",
      "eventExpectedVolatility": "Low",
      "eventName": "Italian Industrial Production (YoY) (Nov)",
      "eventTimeZone": "GMT",
      "eventPrevious": "1.00%",
      "eventCurrency": "EUR",
      "eventForecast": ""
    },
    {
      "eventDateTime": "2004-12-01T09:00:00",
      "eventActual": "-3.60%",
      "eventCountry": "Italy",
      "eventExpectedVolatility": "Low",
      "eventName": "Italian Industrial Sales (MoM) (Nov)",
      "eventTimeZone": "GMT",
      "eventPrevious": "3.51%",
      "eventCurrency": "EUR",
      "eventForecast": ""
    },
    {
      "eventDateTime": "2004-12-01T09:00:00",
      "eventActual": "4.81%",
      "eventCountry": "Italy",
      "eventExpectedVolatility": "Low",
      "eventName": "Italian Industrial Sales (YoY) (Nov)",
      "eventTimeZone": "GMT",
      "eventPrevious": "1.60%",
      "eventCurrency": "EUR",
      "eventForecast": ""
    },
    {
      "eventDateTime": "2004-12-01T09:00:00",
      "eventActual": "8.00%",
      "eventCountry": "Italy",
      "eventExpectedVolatility": "Low",
      "eventName": "Italian Monthly Unemployment Rate (Nov)",
      "eventTimeZone": "GMT",
      "eventPrevious": "7.80%",
      "eventCurrency": "EUR",
      "eventForecast": ""
    },
    {
      "eventDateTime": "2004-12-01T09:00:00",
      "eventActual": "-0.20%",
      "eventCountry": "Italy",
      "eventExpectedVolatility": "Low",
      "eventName": "Italian PPI (MoM) (Nov)",
      "eventTimeZone": "GMT",
      "eventPrevious": "0.60%",
      "eventCurrency": "EUR",
      "eventForecast": ""
    },
    {
      "eventDateTime": "2004-12-01T09:00:00",
      "eventActual": "3.60%",
      "eventCountry": "Italy",
      "eventExpectedVolatility": "Low",
      "eventName": "Italian PPI (YoY) (Nov)",
      "eventTimeZone": "GMT",
      "eventPrevious": "4.00%",
      "eventCurrency": "EUR",
      "eventForecast": ""
    },
    {
      "eventDateTime": "2004-12-01T09:00:00",
      "eventActual": "0.72%",
      "eventCountry": "Italy",
      "eventExpectedVolatility": "Low",
      "eventName": "Italian Retail Sales (MoM) (Nov)",
      "eventTimeZone": "GMT",
      "eventPrevious": "0.31%",
      "eventCurrency": "EUR",
      "eventForecast": ""
    },
    {
      "eventDateTime": "2004-12-01T09:00:00",
      "eventActual": "-0.38%",
      "eventCountry": "Italy",
      "eventExpectedVolatility": "Low",
      "eventName": "Italian Retail Sales (YoY) (Nov)",
      "eventTimeZone": "GMT",
      "eventPrevious": "-2.65%",
      "eventCurrency": "EUR",
      "eventForecast": ""
    },
    {
      "eventDateTime": "2004-12-01T09:00:00",
      "eventActual": "-0.62B",
      "eventCountry": "Italy",
      "eventExpectedVolatility": "Low",
      "eventName": "Italian Trade Balance (Nov)",
      "eventTimeZone": "GMT",
      "eventPrevious": "0.20B",
      "eventCurrency": "EUR",
      "eventForecast": ""
    },
    {
      "eventDateTime": "2004-12-01T09:00:00",
      "eventActual": "-0.74B",
      "eventCountry": "Italy",
      "eventExpectedVolatility": "Low",
      "eventName": "Italian Trade Balance EU (Nov)",
      "eventTimeZone": "GMT",
      "eventPrevious": "-0.19B",
      "eventCurrency": "EUR",
      "eventForecast": ""
    },
    {
      "eventDateTime": "2004-12-01T09:00:00",
      "eventActual": "0.12B",
      "eventCountry": "Italy",
      "eventExpectedVolatility": "Low",
      "eventName": "Italian Trade Balance Non-EU (Nov)",
      "eventTimeZone": "GMT",
      "eventPrevious": "0.39B",
      "eventCurrency": "EUR",
      "eventForecast": ""
    },
    {
      "eventDateTime": "2004-12-01T09:00:00",
      "eventActual": "0.00%",
      "eventCountry": "Italy",
      "eventExpectedVolatility": "Low",
      "eventName": "Italian Wage Inflation (MoM) (Nov)",
      "eventTimeZone": "GMT",
      "eventPrevious": "0.18%",
      "eventCurrency": "EUR",
      "eventForecast": ""
    },
    {
      "eventDateTime": "2004-12-01T09:00:00",
      "eventActual": "2.70%",
      "eventCountry": "Italy",
      "eventExpectedVolatility": "Low",
      "eventName": "Italian Wage Inflation (YoY) (Nov)",
      "eventTimeZone": "GMT",
      "eventPrevious": "2.70%",
      "eventCurrency": "EUR",
      "eventForecast": ""
    },
    {
      "eventDateTime": "2004-12-01T09:00:00",
      "eventActual": "6.00%",
      "eventCountry": "Euro Zone",
      "eventExpectedVolatility": "Low",
      "eventName": "M3 Money Supply (YoY) (Nov)",
      "eventTimeZone": "GMT",
      "eventPrevious": "5.80%",
      "eventCurrency": "EUR",
      "eventForecast": ""
    },
    {
      "eventDateTime": "2004-12-01T09:00:00",
      "eventActual": "6.10%",
      "eventCountry": "Euro Zone",
      "eventExpectedVolatility": "Low",
      "eventName": "Money-M3 3-Month-Moving Average (Nov)",
      "eventTimeZone": "GMT",
      "eventPrevious": "5.90%",
      "eventCurrency": "EUR",
      "eventForecast": ""
    },
    {
      "eventDateTime": "2004-12-01T09:00:00",
      "eventActual": "-0.20%",
      "eventCountry": "Euro Zone",
      "eventExpectedVolatility": "Low",
      "eventName": "PPI (MoM) (Nov)",
      "eventTimeZone": "GMT",
      "eventPrevious": "0.80%",
      "eventCurrency": "EUR",
      "eventForecast": ""
    },
    {
      "eventDateTime": "2004-12-01T09:00:00",
      "eventActual": "3.80%",
      "eventCountry": "Euro Zone",
      "eventExpectedVolatility": "Low",
      "eventName": "PPI (YoY) (Nov)",
      "eventTimeZone": "GMT",
      "eventPrevious": "4.10%",
      "eventCurrency": "EUR",
      "eventForecast": ""
    },
    {
      "eventDateTime": "2004-12-01T09:00:00",
      "eventActual": "6.90%",
      "eventCountry": "Euro Zone",
      "eventExpectedVolatility": "Low",
      "eventName": "Private Sector Loans (YoY) (Nov)",
      "eventTimeZone": "GMT",
      "eventPrevious": "6.70%",
      "eventCurrency": "EUR",
      "eventForecast": ""
    },
    {
      "eventDateTime": "2004-12-01T09:00:00",
      "eventActual": "0.70%",
      "eventCountry": "Euro Zone",
      "eventExpectedVolatility": "Moderate",
      "eventName": "Retail Sales (MoM) (Nov)",
      "eventTimeZone": "GMT",
      "eventPrevious": "0.20%",
      "eventCurrency": "EUR",
      "eventForecast": ""
    },
    {
      "eventDateTime": "2004-12-01T09:00:00",
      "eventActual": "2.10%",
      "eventCountry": "Euro Zone",
      "eventExpectedVolatility": "Low",
      "eventName": "Retail Sales (YoY) (Nov)",
      "eventTimeZone": "GMT",
      "eventPrevious": "0.50%",
      "eventCurrency": "EUR",
      "eventForecast": ""
    },
    {
      "eventDateTime": "2004-12-01T09:00:00",
      "eventActual": "12.20",
      "eventCountry": "Euro Zone",
      "eventExpectedVolatility": "Low",
      "eventName": "Selling Price Expectations (Nov)",
      "eventTimeZone": "GMT",
      "eventPrevious": "8.90",
      "eventCurrency": "EUR",
      "eventForecast": ""
    },
    {
      "eventDateTime": "2004-12-01T09:00:00",
      "eventActual": "4.00",
      "eventCountry": "Euro Zone",
      "eventExpectedVolatility": "Low",
      "eventName": "Sentix Investor Confidence (Nov)",
      "eventTimeZone": "GMT",
      "eventPrevious": "13.10",
      "eventCurrency": "EUR",
      "eventForecast": ""
    },
    {
      "eventDateTime": "2004-12-01T09:00:00",
      "eventActual": "10.50",
      "eventCountry": "Euro Zone",
      "eventExpectedVolatility": "Low",
      "eventName": "Services Sentiment (Nov)",
      "eventTimeZone": "GMT",
      "eventPrevious": "10.30",
      "eventCurrency": "EUR",
      "eventForecast": ""
    },
    {
      "eventDateTime": "2004-12-01T09:00:00",
      "eventActual": "0.30%",
      "eventCountry": "Spain",
      "eventExpectedVolatility": "Low",
      "eventName": "Spanish CPI (MoM) (Nov)",
      "eventTimeZone": "GMT",
      "eventPrevious": "1.00%",
      "eventCurrency": "EUR",
      "eventForecast": ""
    },
    {
      "eventDateTime": "2004-12-01T09:00:00",
      "eventActual": "3.50%",
      "eventCountry": "Spain",
      "eventExpectedVolatility": "Moderate",
      "eventName": "Spanish CPI (YoY) (Nov)",
      "eventTimeZone": "GMT",
      "eventPrevious": "3.60%",
      "eventCurrency": "EUR",
      "eventForecast": ""
    },
    {
      "eventDateTime": "2004-12-01T09:00:00",
      "eventActual": "-3.04B",
      "eventCountry": "Spain",
      "eventExpectedVolatility": "Low",
      "eventName": "Spanish Current account (Nov)",
      "eventTimeZone": "GMT",
      "eventPrevious": "-3.77B",
      "eventCurrency": "EUR",
      "eventForecast": ""
    },
    {
      "eventDateTime": "2004-12-01T09:00:00",
      "eventActual": "0.20%",
      "eventCountry": "Spain",
      "eventExpectedVolatility": "Low",
      "eventName": "Spanish HICP (MoM) (Nov)",
      "eventTimeZone": "GMT",
      "eventPrevious": "1.00%",
      "eventCurrency": "EUR",
      "eventForecast": ""
    },
    {
      "eventDateTime": "2004-12-01T09:00:00",
      "eventActual": "3.50%",
      "eventCountry": "Spain",
      "eventExpectedVolatility": "Moderate",
      "eventName": "Spanish HICP (YoY) (Nov)",
      "eventTimeZone": "GMT",
      "eventPrevious": "3.60%",
      "eventCurrency": "EUR",
      "eventForecast": ""
    },
    {
      "eventDateTime": "2004-12-01T09:00:00",
      "eventActual": "2.10%",
      "eventCountry": "Spain",
      "eventExpectedVolatility": "Low",
      "eventName": "Spanish Industrial Production (YoY) (Nov)",
      "eventTimeZone": "GMT",
      "eventPrevious": "-0.40%",
      "eventCurrency": "EUR",
      "eventForecast": ""
    },
    {
      "eventDateTime": "2004-12-01T09:00:00",
      "eventActual": "3.70%",
      "eventCountry": "Spain",
      "eventExpectedVolatility": "Low",
      "eventName": "Spanish Retail Sales (YoY) (Nov)",
      "eventTimeZone": "GMT",
      "eventPrevious": "2.30%",
      "eventCurrency": "EUR",
      "eventForecast": ""
    },
    {
      "eventDateTime": "2004-12-01T09:00:00",
      "eventActual": "1.20B",
      "eventCountry": "Euro Zone",
      "eventExpectedVolatility": "Moderate",
      "eventName": "Trade Balance (Nov)",
      "eventTimeZone": "GMT",
      "eventPrevious": "3.80B",
      "eventCurrency": "EUR",
      "eventForecast": ""
    },
    {
      "eventDateTime": "2004-12-01T09:00:00",
      "eventActual": "9.20%",
      "eventCountry": "Euro Zone",
      "eventExpectedVolatility": "Moderate",
      "eventName": "Unemployment Rate (Nov)",
      "eventTimeZone": "GMT",
      "eventPrevious": "9.20%",
      "eventCurrency": "EUR",
      "eventForecast": ""
    }
  ]}}
