{"events": {"event": {
    "eventDateTime": "2010-08-20T19:30:00",
    "eventActual": "50.0K",
    "eventCountry": "Japan",
    "eventExpectedVolatility": "Moderate",
    "eventName": "CFTC JPY speculative net positions",
    "eventTimeZone": "GMT",
    "eventPrevious": "52.5K",
    "eventCurrency": "JPY",
    "eventForecast": ""
  }}}
