{"events": {"event": [
    {
      "eventDateTime": "2014-03-12T06:30:00",
      "eventActual": "0.1%",
      "eventCountry": "France",
      "eventExpectedVolatility": "Moderate",
      "eventName": "French Non-Farm Payrolls (QoQ)",
      "eventTimeZone": "GMT",
      "eventPrevious": "0.1%",
      "eventCurrency": "EUR",
      "eventForecast": "0.1%"
    },
    {
      "eventDateTime": "2014-03-12T08:00:00",
      "eventActual": "0.0%",
      "eventCountry": "Spain",
      "eventExpectedVolatility": "Low",
      "eventName": "Spanish CPI (MoM)",
      "eventTimeZone": "GMT",
      "eventPrevious": "-1.3%",
      "eventCurrency": "EUR",
      "eventForecast": "-0.1%"
    },
    {
      "eventDateTime": "2014-03-12T08:00:00",
      "eventActual": "0.0%",
      "eventCountry": "Spain",
      "eventExpectedVolatility": "Moderate",
      "eventName": "Spanish CPI (YoY)",
      "eventTimeZone": "GMT",
      "eventPrevious": "0.2%",
      "eventCurrency": "EUR",
      "eventForecast": "-0.1%"
    },
    {
      "eventDateTime": "2014-03-12T10:00:00",
      "eventActual": "-0.2%",
      "eventCountry": "Euro Zone",
      "eventExpectedVolatility": "Moderate",
      "eventName": "Industrial Production (MoM)",
      "eventTimeZone": "GMT",
      "eventPrevious": "-0.4%",
      "eventCurrency": "EUR",
      "eventForecast": "0.5%"
    },
    {
      "eventDateTime": "2014-03-12T10:00:00",
      "eventActual": "2.1%",
      "eventCountry": "Euro Zone",
      "eventExpectedVolatility": "Low",
      "eventName": "Industrial Production (YoY)",
      "eventTimeZone": "GMT",
      "eventPrevious": "1.2%",
      "eventCurrency": "EUR",
      "eventForecast": "1.9%"
    },
    {
      "eventDateTime": "2014-03-12T10:00:00",
      "eventActual": "13.7B",
      "eventCountry": "Euro Zone",
      "eventExpectedVolatility": "Moderate",
      "eventName": "Trade Balance",
      "eventTimeZone": "GMT",
      "eventPrevious": "16.0B",
      "eventCurrency": "EUR",
      "eventForecast": "14.5B"
    },
    {
      "eventDateTime": "2014-03-12T10:10:00",
      "eventActual": "0.592%",
      "eventCountry": "Italy",
      "eventExpectedVolatility": "Low",
      "eventName": "Italian 12-Month BOT Auction",
      "eventTimeZone": "GMT",
      "eventPrevious": "0.676%",
      "eventCurrency": "EUR",
      "eventForecast": ""
    },
    {
      "eventDateTime": "2014-03-12T10:35:00",
      "eventActual": "0.150%",
      "eventCountry": "Germany",
      "eventExpectedVolatility": "Low",
      "eventName": "German 2-Year Schatz Auction",
      "eventTimeZone": "GMT",
      "eventPrevious": "0.110%",
      "eventCurrency": "EUR",
      "eventForecast": ""
    }
  ]}}
