{"events": {"event": [
    {
      "eventDateTime": "2011-06-24T02:45:00",
      "eventActual": "",
      "eventCountry": "Australia",
      "eventExpectedVolatility": "Moderate",
      "eventName": "RBA Governor Lowe Speaks",
      "eventTimeZone": "GMT",
      "eventPrevious": "",
      "eventCurrency": "AUD",
      "eventForecast": ""
    },
    {
      "eventDateTime": "2011-06-24T19:30:00",
      "eventActual": "54.6K",
      "eventCountry": "Australia",
      "eventExpectedVolatility": "Moderate",
      "eventName": "CFTC AUD speculative net positions",
      "eventTimeZone": "GMT",
      "eventPrevious": "67.7K",
      "eventCurrency": "AUD",
      "eventForecast": ""
    }
  ]}}
