{"events": {"event": [
    {
      "eventDateTime": "2016-04-20T12:00:00",
      "eventActual": "0.51%",
      "eventCountry": "Brazil",
      "eventExpectedVolatility": "Low",
      "eventName": "Mid-Month CPI (MoM) (Apr)",
      "eventTimeZone": "GMT",
      "eventPrevious": "0.43%",
      "eventCurrency": "BRL",
      "eventForecast": "0.47%"
    },
    {
      "eventDateTime": "2016-04-20T12:00:00",
      "eventActual": "9.34%",
      "eventCountry": "Brazil",
      "eventExpectedVolatility": "Low",
      "eventName": "Mid-Month CPI (YoY) (Apr)",
      "eventTimeZone": "GMT",
      "eventPrevious": "9.95%",
      "eventCurrency": "BRL",
      "eventForecast": "9.30%"
    },
    {
      "eventDateTime": "2016-04-20T13:30:00",
      "eventActual": "-0.86B",
      "eventCountry": "Brazil",
      "eventExpectedVolatility": "Low",
      "eventName": "Current Account (USD) (Mar)",
      "eventTimeZone": "GMT",
      "eventPrevious": "-1.92B",
      "eventCurrency": "BRL",
      "eventForecast": "-1.10B"
    },
    {
      "eventDateTime": "2016-04-20T13:30:00",
      "eventActual": "5.56B",
      "eventCountry": "Brazil",
      "eventExpectedVolatility": "Low",
      "eventName": "Foreign direct investment (USD) (Mar)",
      "eventTimeZone": "GMT",
      "eventPrevious": "5.92B",
      "eventCurrency": "BRL",
      "eventForecast": "6.00B"
    },
    {
      "eventDateTime": "2016-04-20T15:30:00",
      "eventActual": "3.95B",
      "eventCountry": "Brazil",
      "eventExpectedVolatility": "Low",
      "eventName": "Foreign Exchange Flows",
      "eventTimeZone": "GMT",
      "eventPrevious": "1.84B",
      "eventCurrency": "BRL",
      "eventForecast": ""
    },
    {
      "eventDateTime": "2016-04-20T16:30:00",
      "eventActual": "95.80B",
      "eventCountry": "Brazil",
      "eventExpectedVolatility": "Low",
      "eventName": "Federal Tax Revenue",
      "eventTimeZone": "GMT",
      "eventPrevious": "87.85B",
      "eventCurrency": "BRL",
      "eventForecast": "93.00B"
    }
  ]}}
