{"events": {"event": {
    "eventDateTime": "2014-06-10T23:00:00",
    "eventActual": "3.7%",
    "eventCountry": "South Korea",
    "eventExpectedVolatility": "Low",
    "eventName": "Unemployment Rate",
    "eventTimeZone": "GMT",
    "eventPrevious": "3.7%",
    "eventCurrency": "KRW",
    "eventForecast": "3.6%"
  }}}
