{"events": {"event": {
    "eventDateTime": "2017-12-29T20:30:00",
    "eventActual": "-116.1K",
    "eventCountry": "Japan",
    "eventExpectedVolatility": "Moderate",
    "eventName": "CFTC JPY speculative net positions",
    "eventTimeZone": "GMT",
    "eventPrevious": "-114.4K",
    "eventCurrency": "JPY",
    "eventForecast": ""
  }}}
