"Bank Lending (Aug)";"Singapore";"SGD";"2004-09-01T09:00:00";"GMT";"176.00B";"";"176.30B";"Low"
"CPI (YoY) (Aug)";"Singapore";"SGD";"2004-09-01T09:00:00";"GMT";"2.04%";"";"1.79%";"Moderate"
"Foreign Reserves USD (MoM) (Aug)";"Singapore";"SGD";"2004-09-01T09:00:00";"GMT";"100.10B";"";"101.10B";"Low"
"Industrial Production (MoM) (Aug)";"Singapore";"SGD";"2004-09-01T09:00:00";"GMT";"-1.00%";"";"2.00%";"Low"
"Industrial Production (YoY) (Aug)";"Singapore";"SGD";"2004-09-01T09:00:00";"GMT";"18.10%";"";"4.10%";"Low"
"Manufacturing PMI (Aug)";"Singapore";"SGD";"2004-09-01T09:00:00";"GMT";"53.50";"";"55.00";"Low"
"Non-Oil Exports (MoM) (Aug)";"Singapore";"SGD";"2004-09-01T09:00:00";"GMT";"-2.20%";"";"6.40%";"Low"
"Non-Oil Exports (YoY) (Aug)";"Singapore";"SGD";"2004-09-01T09:00:00";"GMT";"16.40%";"";"28.40%";"Low"
"Retail Sales (MoM) (Aug)";"Singapore";"SGD";"2004-09-01T09:00:00";"GMT";"-2.30%";"";"1.60%";"Low"
"Retail Sales (YoY) (Aug)";"Singapore";"SGD";"2004-09-01T09:00:00";"GMT";"8.40%";"";"10.10%";"Low"
