{"events": {"event": [
    {
      "eventDateTime": "2004-09-01T09:00:00",
      "eventActual": "176.30B",
      "eventCountry": "Singapore",
      "eventExpectedVolatility": "Low",
      "eventName": "Bank Lending (Aug)",
      "eventTimeZone": "GMT",
      "eventPrevious": "176.00B",
      "eventCurrency": "SGD",
      "eventForecast": ""
    },
    {
      "eventDateTime": "2004-09-01T09:00:00",
      "eventActual": "1.79%",
      "eventCountry": "Singapore",
      "eventExpectedVolatility": "Moderate",
      "eventName": "CPI (YoY) (Aug)",
      "eventTimeZone": "GMT",
      "eventPrevious": "2.04%",
      "eventCurrency": "SGD",
      "eventForecast": ""
    },
    {
      "eventDateTime": "2004-09-01T09:00:00",
      "eventActual": "101.10B",
      "eventCountry": "Singapore",
      "eventExpectedVolatility": "Low",
      "eventName": "Foreign Reserves USD (MoM) (Aug)",
      "eventTimeZone": "GMT",
      "eventPrevious": "100.10B",
      "eventCurrency": "SGD",
      "eventForecast": ""
    },
    {
      "eventDateTime": "2004-09-01T09:00:00",
      "eventActual": "2.00%",
      "eventCountry": "Singapore",
      "eventExpectedVolatility": "Low",
      "eventName": "Industrial Production (MoM) (Aug)",
      "eventTimeZone": "GMT",
      "eventPrevious": "-1.00%",
      "eventCurrency": "SGD",
      "eventForecast": ""
    },
    {
      "eventDateTime": "2004-09-01T09:00:00",
      "eventActual": "4.10%",
      "eventCountry": "Singapore",
      "eventExpectedVolatility": "Low",
      "eventName": "Industrial Production (YoY) (Aug)",
      "eventTimeZone": "GMT",
      "eventPrevious": "18.10%",
      "eventCurrency": "SGD",
      "eventForecast": ""
    },
    {
      "eventDateTime": "2004-09-01T09:00:00",
      "eventActual": "55.00",
      "eventCountry": "Singapore",
      "eventExpectedVolatility": "Low",
      "eventName": "Manufacturing PMI (Aug)",
      "eventTimeZone": "GMT",
      "eventPrevious": "53.50",
      "eventCurrency": "SGD",
      "eventForecast": ""
    },
    {
      "eventDateTime": "2004-09-01T09:00:00",
      "eventActual": "6.40%",
      "eventCountry": "Singapore",
      "eventExpectedVolatility": "Low",
      "eventName": "Non-Oil Exports (MoM) (Aug)",
      "eventTimeZone": "GMT",
      "eventPrevious": "-2.20%",
      "eventCurrency": "SGD",
      "eventForecast": ""
    },
    {
      "eventDateTime": "2004-09-01T09:00:00",
      "eventActual": "28.40%",
      "eventCountry": "Singapore",
      "eventExpectedVolatility": "Low",
      "eventName": "Non-Oil Exports (YoY) (Aug)",
      "eventTimeZone": "GMT",
      "eventPrevious": "16.40%",
      "eventCurrency": "SGD",
      "eventForecast": ""
    },
    {
      "eventDateTime": "2004-09-01T09:00:00",
      "eventActual": "1.60%",
      "eventCountry": "Singapore",
      "eventExpectedVolatility": "Low",
      "eventName": "Retail Sales (MoM) (Aug)",
      "eventTimeZone": "GMT",
      "eventPrevious": "-2.30%",
      "eventCurrency": "SGD",
      "eventForecast": ""
    },
    {
      "eventDateTime": "2004-09-01T09:00:00",
      "eventActual": "10.10%",
      "eventCountry": "Singapore",
      "eventExpectedVolatility": "Low",
      "eventName": "Retail Sales (YoY) (Aug)",
      "eventTimeZone": "GMT",
      "eventPrevious": "8.40%",
      "eventCurrency": "SGD",
      "eventForecast": ""
    }
  ]}}
