{"events": {"event": [
    {
      "eventDateTime": "2015-09-11T08:30:00",
      "eventActual": "2.0%",
      "eventCountry": "United Kingdom",
      "eventExpectedVolatility": "Low",
      "eventName": "Inflation Expectations",
      "eventTimeZone": "GMT",
      "eventPrevious": "2.2%",
      "eventCurrency": "GBP",
      "eventForecast": ""
    },
    {
      "eventDateTime": "2015-09-11T19:30:00",
      "eventActual": "-17.6K",
      "eventCountry": "United Kingdom",
      "eventExpectedVolatility": "Moderate",
      "eventName": "CFTC GBP speculative net positions",
      "eventTimeZone": "GMT",
      "eventPrevious": "-11.2K",
      "eventCurrency": "GBP",
      "eventForecast": ""
    }
  ]}}
