{"events": {"event": [
    {
      "eventDateTime": "2014-11-19T12:00:00",
      "eventActual": "4.18%",
      "eventCountry": "United States",
      "eventExpectedVolatility": "Low",
      "eventName": "MBA 30-Year Mortgage Rate",
      "eventTimeZone": "GMT",
      "eventPrevious": "4.19%",
      "eventCurrency": "USD",
      "eventForecast": ""
    },
    {
      "eventDateTime": "2014-11-19T12:00:00",
      "eventActual": "4.9%",
      "eventCountry": "United States",
      "eventExpectedVolatility": "Low",
      "eventName": "MBA Mortgage Applications (WoW)",
      "eventTimeZone": "GMT",
      "eventPrevious": "-0.9%",
      "eventCurrency": "USD",
      "eventForecast": ""
    },
    {
      "eventDateTime": "2014-11-19T12:00:00",
      "eventActual": "179.8",
      "eventCountry": "United States",
      "eventExpectedVolatility": "Low",
      "eventName": "MBA Purchase Index",
      "eventTimeZone": "GMT",
      "eventPrevious": "160.9",
      "eventCurrency": "USD",
      "eventForecast": ""
    },
    {
      "eventDateTime": "2014-11-19T12:00:00",
      "eventActual": "391.3",
      "eventCountry": "United States",
      "eventExpectedVolatility": "Low",
      "eventName": "Mortgage Market Index",
      "eventTimeZone": "GMT",
      "eventPrevious": "372.9",
      "eventCurrency": "USD",
      "eventForecast": ""
    },
    {
      "eventDateTime": "2014-11-19T12:00:00",
      "eventActual": "1,604.6",
      "eventCountry": "United States",
      "eventExpectedVolatility": "Low",
      "eventName": "Mortgage Refinance Index",
      "eventTimeZone": "GMT",
      "eventPrevious": "1,590.3",
      "eventCurrency": "USD",
      "eventForecast": ""
    },
    {
      "eventDateTime": "2014-11-19T13:30:00",
      "eventActual": "4.8%",
      "eventCountry": "United States",
      "eventExpectedVolatility": "Moderate",
      "eventName": "Building Permits (MoM) (Oct)",
      "eventTimeZone": "GMT",
      "eventPrevious": "1.5%",
      "eventCurrency": "USD",
      "eventForecast": "0.9%"
    },
    {
      "eventDateTime": "2014-11-19T13:30:00",
      "eventActual": "1.080M",
      "eventCountry": "United States",
      "eventExpectedVolatility": "High",
      "eventName": "Building Permits (Oct)",
      "eventTimeZone": "GMT",
      "eventPrevious": "1.031M",
      "eventCurrency": "USD",
      "eventForecast": "1.040M"
    },
    {
      "eventDateTime": "2014-11-19T13:30:00",
      "eventActual": "-2.8%",
      "eventCountry": "United States",
      "eventExpectedVolatility": "Moderate",
      "eventName": "Housing Starts (MoM) (Oct)",
      "eventTimeZone": "GMT",
      "eventPrevious": "7.8%",
      "eventCurrency": "USD",
      "eventForecast": "0.8%"
    },
    {
      "eventDateTime": "2014-11-19T13:30:00",
      "eventActual": "1.009M",
      "eventCountry": "United States",
      "eventExpectedVolatility": "Moderate",
      "eventName": "Housing Starts (Oct)",
      "eventTimeZone": "GMT",
      "eventPrevious": "1.038M",
      "eventCurrency": "USD",
      "eventForecast": "1.025M"
    },
    {
      "eventDateTime": "2014-11-19T15:30:00",
      "eventActual": "2.608M",
      "eventCountry": "United States",
      "eventExpectedVolatility": "High",
      "eventName": "Crude Oil Inventories",
      "eventTimeZone": "GMT",
      "eventPrevious": "-1.735M",
      "eventCurrency": "USD",
      "eventForecast": "-0.780M"
    },
    {
      "eventDateTime": "2014-11-19T15:30:00",
      "eventActual": "-2.056M",
      "eventCountry": "United States",
      "eventExpectedVolatility": "Low",
      "eventName": "EIA Weekly Distillates Stocks",
      "eventTimeZone": "GMT",
      "eventPrevious": "-2.803M",
      "eventCurrency": "USD",
      "eventForecast": "-1.880M"
    },
    {
      "eventDateTime": "2014-11-19T15:30:00",
      "eventActual": "1.034M",
      "eventCountry": "United States",
      "eventExpectedVolatility": "Low",
      "eventName": "Gasoline Inventories",
      "eventTimeZone": "GMT",
      "eventPrevious": "1.805M",
      "eventCurrency": "USD",
      "eventForecast": "0.600M"
    },
    {
      "eventDateTime": "2014-11-19T19:00:00",
      "eventActual": "",
      "eventCountry": "United States",
      "eventExpectedVolatility": "High",
      "eventName": "FOMC Meeting Minutes",
      "eventTimeZone": "GMT",
      "eventPrevious": "",
      "eventCurrency": "USD",
      "eventForecast": ""
    }
  ]}}
