{"events": {"event": [
    {
      "eventDateTime": "2019-10-01T00:00:00",
      "eventActual": "-11.7%",
      "eventCountry": "South Korea",
      "eventExpectedVolatility": "Low",
      "eventName": "Exports (YoY) (Sep)",
      "eventTimeZone": "GMT",
      "eventPrevious": "-13.8%",
      "eventCurrency": "KRW",
      "eventForecast": "-11.2%"
    },
    {
      "eventDateTime": "2019-10-01T00:00:00",
      "eventActual": "-5.6%",
      "eventCountry": "South Korea",
      "eventExpectedVolatility": "Low",
      "eventName": "Imports (YoY) (Sep)",
      "eventTimeZone": "GMT",
      "eventPrevious": "-4.2%",
      "eventCurrency": "KRW",
      "eventForecast": "-3.0%"
    },
    {
      "eventDateTime": "2019-10-01T00:00:00",
      "eventActual": "5.97B",
      "eventCountry": "South Korea",
      "eventExpectedVolatility": "Low",
      "eventName": "Trade Balance (Sep)",
      "eventTimeZone": "GMT",
      "eventPrevious": "1.65B",
      "eventCurrency": "KRW",
      "eventForecast": ""
    },
    {
      "eventDateTime": "2019-10-01T00:30:00",
      "eventActual": "48.0",
      "eventCountry": "South Korea",
      "eventExpectedVolatility": "Low",
      "eventName": "Nikkei Manufacturing PMI (Sep)",
      "eventTimeZone": "GMT",
      "eventPrevious": "49.0",
      "eventCurrency": "KRW",
      "eventForecast": "48.1"
    }
  ]}}
