{"events": {"event": [
    {
      "eventDateTime": "2017-12-21T13:30:00",
      "eventActual": "0.15",
      "eventCountry": "United States",
      "eventExpectedVolatility": "Low",
      "eventName": "Chicago Fed National Activity (Nov)",
      "eventTimeZone": "GMT",
      "eventPrevious": "0.76",
      "eventCurrency": "USD",
      "eventForecast": ""
    },
    {
      "eventDateTime": "2017-12-21T13:30:00",
      "eventActual": "1,932K",
      "eventCountry": "United States",
      "eventExpectedVolatility": "Low",
      "eventName": "Continuing Jobless Claims",
      "eventTimeZone": "GMT",
      "eventPrevious": "1,889K",
      "eventCurrency": "USD",
      "eventForecast": "1,900K"
    },
    {
      "eventDateTime": "2017-12-21T13:30:00",
      "eventActual": "1.30%",
      "eventCountry": "United States",
      "eventExpectedVolatility": "Low",
      "eventName": "Core PCE Prices (Q3)",
      "eventTimeZone": "GMT",
      "eventPrevious": "1.40%",
      "eventCurrency": "USD",
      "eventForecast": "1.40%"
    },
    {
      "eventDateTime": "2017-12-21T13:30:00",
      "eventActual": "5.7%",
      "eventCountry": "United States",
      "eventExpectedVolatility": "Low",
      "eventName": "Corporate Profits (QoQ) (Q3)",
      "eventTimeZone": "GMT",
      "eventPrevious": "5.8%",
      "eventCurrency": "USD",
      "eventForecast": "0.9%"
    },
    {
      "eventDateTime": "2017-12-21T13:30:00",
      "eventActual": "3.2%",
      "eventCountry": "United States",
      "eventExpectedVolatility": "High",
      "eventName": "GDP (QoQ) (Q3)",
      "eventTimeZone": "GMT",
      "eventPrevious": "3.3%",
      "eventCurrency": "USD",
      "eventForecast": "3.3%"
    },
    {
      "eventDateTime": "2017-12-21T13:30:00",
      "eventActual": "2.1%",
      "eventCountry": "United States",
      "eventExpectedVolatility": "Moderate",
      "eventName": "GDP Price Index (QoQ) (Q3)",
      "eventTimeZone": "GMT",
      "eventPrevious": "2.1%",
      "eventCurrency": "USD",
      "eventForecast": "2.2%"
    },
    {
      "eventDateTime": "2017-12-21T13:30:00",
      "eventActual": "2.4%",
      "eventCountry": "United States",
      "eventExpectedVolatility": "Low",
      "eventName": "GDP Sales (Q3)",
      "eventTimeZone": "GMT",
      "eventPrevious": "2.5%",
      "eventCurrency": "USD",
      "eventForecast": "2.5%"
    },
    {
      "eventDateTime": "2017-12-21T13:30:00",
      "eventActual": "245K",
      "eventCountry": "United States",
      "eventExpectedVolatility": "Moderate",
      "eventName": "Initial Jobless Claims",
      "eventTimeZone": "GMT",
      "eventPrevious": "225K",
      "eventCurrency": "USD",
      "eventForecast": "231K"
    },
    {
      "eventDateTime": "2017-12-21T13:30:00",
      "eventActual": "236.00K",
      "eventCountry": "United States",
      "eventExpectedVolatility": "Low",
      "eventName": "Jobless Claims 4-Week Avg.",
      "eventTimeZone": "GMT",
      "eventPrevious": "234.75K",
      "eventCurrency": "USD",
      "eventForecast": ""
    },
    {
      "eventDateTime": "2017-12-21T13:30:00",
      "eventActual": "1.5%",
      "eventCountry": "United States",
      "eventExpectedVolatility": "Low",
      "eventName": "PCE Prices (Q3)",
      "eventTimeZone": "GMT",
      "eventPrevious": "1.5%",
      "eventCurrency": "USD",
      "eventForecast": "1.6%"
    },
    {
      "eventDateTime": "2017-12-21T13:30:00",
      "eventActual": "26.2",
      "eventCountry": "United States",
      "eventExpectedVolatility": "High",
      "eventName": "Philadelphia Fed Manufacturing Index (Dec)",
      "eventTimeZone": "GMT",
      "eventPrevious": "22.7",
      "eventCurrency": "USD",
      "eventForecast": "21.5"
    },
    {
      "eventDateTime": "2017-12-21T13:30:00",
      "eventActual": "53.5",
      "eventCountry": "United States",
      "eventExpectedVolatility": "Low",
      "eventName": "Philly Fed Business Conditions (Dec)",
      "eventTimeZone": "GMT",
      "eventPrevious": "50.1",
      "eventCurrency": "USD",
      "eventForecast": ""
    },
    {
      "eventDateTime": "2017-12-21T13:30:00",
      "eventActual": "38.00",
      "eventCountry": "United States",
      "eventExpectedVolatility": "Low",
      "eventName": "Philly Fed CAPEX Index (Dec)",
      "eventTimeZone": "GMT",
      "eventPrevious": "36.70",
      "eventCurrency": "USD",
      "eventForecast": ""
    },
    {
      "eventDateTime": "2017-12-21T13:30:00",
      "eventActual": "18.1",
      "eventCountry": "United States",
      "eventExpectedVolatility": "Moderate",
      "eventName": "Philly Fed Employment (Dec)",
      "eventTimeZone": "GMT",
      "eventPrevious": "22.6",
      "eventCurrency": "USD",
      "eventForecast": ""
    },
    {
      "eventDateTime": "2017-12-21T13:30:00",
      "eventActual": "29.8",
      "eventCountry": "United States",
      "eventExpectedVolatility": "Low",
      "eventName": "Philly Fed New Orders (Dec)",
      "eventTimeZone": "GMT",
      "eventPrevious": "21.4",
      "eventCurrency": "USD",
      "eventForecast": ""
    },
    {
      "eventDateTime": "2017-12-21T13:30:00",
      "eventActual": "25.40",
      "eventCountry": "United States",
      "eventExpectedVolatility": "Low",
      "eventName": "Philly Fed Prices Paid (Dec)",
      "eventTimeZone": "GMT",
      "eventPrevious": "39.00",
      "eventCurrency": "USD",
      "eventForecast": ""
    },
    {
      "eventDateTime": "2017-12-21T13:30:00",
      "eventActual": "2.2%",
      "eventCountry": "United States",
      "eventExpectedVolatility": "Low",
      "eventName": "Real Consumer Spending (Q3)",
      "eventTimeZone": "GMT",
      "eventPrevious": "2.3%",
      "eventCurrency": "USD",
      "eventForecast": ""
    },
    {
      "eventDateTime": "2017-12-21T14:00:00",
      "eventActual": "0.5%",
      "eventCountry": "United States",
      "eventExpectedVolatility": "Low",
      "eventName": "House Price Index (MoM) (Oct)",
      "eventTimeZone": "GMT",
      "eventPrevious": "0.5%",
      "eventCurrency": "USD",
      "eventForecast": "0.2%"
    },
    {
      "eventDateTime": "2017-12-21T14:00:00",
      "eventActual": "254.7",
      "eventCountry": "United States",
      "eventExpectedVolatility": "Low",
      "eventName": "House Price Index (Oct)",
      "eventTimeZone": "GMT",
      "eventPrevious": "253.3",
      "eventCurrency": "USD",
      "eventForecast": ""
    },
    {
      "eventDateTime": "2017-12-21T14:00:00",
      "eventActual": "6.6%",
      "eventCountry": "United States",
      "eventExpectedVolatility": "Low",
      "eventName": "House Price Index (YoY) (Oct)",
      "eventTimeZone": "GMT",
      "eventPrevious": "6.3%",
      "eventCurrency": "USD",
      "eventForecast": ""
    },
    {
      "eventDateTime": "2017-12-21T14:45:00",
      "eventActual": "50.8",
      "eventCountry": "United States",
      "eventExpectedVolatility": "Low",
      "eventName": "Bloomberg Consumer Confidence",
      "eventTimeZone": "GMT",
      "eventPrevious": "52.3",
      "eventCurrency": "USD",
      "eventForecast": ""
    },
    {
      "eventDateTime": "2017-12-21T15:30:00",
      "eventActual": "-182B",
      "eventCountry": "United States",
      "eventExpectedVolatility": "Low",
      "eventName": "Natural Gas Storage",
      "eventTimeZone": "GMT",
      "eventPrevious": "-69B",
      "eventCurrency": "USD",
      "eventForecast": "-170B"
    },
    {
      "eventDateTime": "2017-12-21T18:00:00",
      "eventActual": "0.370%",
      "eventCountry": "United States",
      "eventExpectedVolatility": "Low",
      "eventName": "5-Year TIPS Auction",
      "eventTimeZone": "GMT",
      "eventPrevious": "",
      "eventCurrency": "USD",
      "eventForecast": ""
    }
  ]}}
