"CPI (MoM)";"Canada";"CAD";"2011-07-22T11:00:00";"GMT";"0.7%";"-0.2%";"-0.7%";"Moderate"
"Core CPI (MoM)";"Canada";"CAD";"2011-07-22T11:00:00";"GMT";"0.5%";"0.1%";"-0.6%";"High"
"Core Retail Sales (MoM)";"Canada";"CAD";"2011-07-22T12:30:00";"GMT";"0.0%";"0.4%";"0.5%";"High"
"Retail Sales (MoM)";"Canada";"CAD";"2011-07-22T12:30:00";"GMT";"0.3%";"-0.3%";"0.1%";"Moderate"
"CFTC CAD speculative net positions";"Canada";"CAD";"2011-07-22T19:30:00";"GMT";"15.3K";"";"27.8K";"Low"
