{"events": {"event": [
    {
      "eventDateTime": "2019-08-09T01:30:00",
      "eventActual": "0.4%",
      "eventCountry": "China",
      "eventExpectedVolatility": "Moderate",
      "eventName": "CPI (MoM) (Jul)",
      "eventTimeZone": "GMT",
      "eventPrevious": "-0.1%",
      "eventCurrency": "CNY",
      "eventForecast": "0.2%"
    },
    {
      "eventDateTime": "2019-08-09T01:30:00",
      "eventActual": "2.8%",
      "eventCountry": "China",
      "eventExpectedVolatility": "Moderate",
      "eventName": "CPI (YoY) (Jul)",
      "eventTimeZone": "GMT",
      "eventPrevious": "2.7%",
      "eventCurrency": "CNY",
      "eventForecast": "2.7%"
    },
    {
      "eventDateTime": "2019-08-09T01:30:00",
      "eventActual": "-0.3%",
      "eventCountry": "China",
      "eventExpectedVolatility": "Moderate",
      "eventName": "PPI (YoY) (Jul)",
      "eventTimeZone": "GMT",
      "eventPrevious": "0.0%",
      "eventCurrency": "CNY",
      "eventForecast": "0.0%"
    }
  ]}}
