{"events": {"event": [
    {
      "eventDateTime": "2013-02-07T13:30:00",
      "eventActual": "-11.2%",
      "eventCountry": "Canada",
      "eventExpectedVolatility": "Moderate",
      "eventName": "Building Permits (MoM)",
      "eventTimeZone": "GMT",
      "eventPrevious": "-14.5%",
      "eventCurrency": "CAD",
      "eventForecast": "5.0%"
    },
    {
      "eventDateTime": "2013-02-07T13:30:00",
      "eventActual": "0.2%",
      "eventCountry": "Canada",
      "eventExpectedVolatility": "Moderate",
      "eventName": "New Housing Price Index (MoM)",
      "eventTimeZone": "GMT",
      "eventPrevious": "0.1%",
      "eventCurrency": "CAD",
      "eventForecast": "0.2%"
    }
  ]}}
