"Business Investment (QoQ)";"United Kingdom";"GBP";"2010-08-27T08:30:00";"GMT";"7.8%";"2.3%";"-1.6%";"Moderate"
"GDP (QoQ)";"United Kingdom";"GBP";"2010-08-27T08:30:00";"GMT";"1.1%";"1.1%";"1.2%";"High"
"Index of Services";"United Kingdom";"GBP";"2010-08-27T08:30:00";"GMT";"1.0%";"0.7%";"0.7%";"Low"
"CFTC GBP speculative net positions";"United Kingdom";"GBP";"2010-08-27T19:30:00";"GMT";"-4.4K";"";"-4.4K";"Moderate"
