"Investing.com Gold Index";"United States";"USD";"2019-04-15T05:30:00";"GMT";"73.9%";"";"69.7%";"Moderate"
"Investing.com Sandamp:P 500 Index";"United States";"USD";"2019-04-15T05:30:00";"GMT";"35.2%";"";"35.8%";"Moderate"
"NY Empire State Manufacturing Index (Apr)";"United States";"USD";"2019-04-15T12:30:00";"GMT";"3.70";"6.70";"10.10";"Moderate"
"3-Month Bill Auction";"United States";"USD";"2019-04-15T15:30:00";"GMT";"2.375%";"";"2.380%";"Low"
"6-Month Bill Auction";"United States";"USD";"2019-04-15T15:30:00";"GMT";"2.395%";"";"2.390%";"Low"
"Chicago Fed President Evans Speaks";"United States";"USD";"2019-04-15T17:00:00";"GMT";" ";"";"";"Low"
"Overall Net Capital Flow (Feb)";"United States";"USD";"2019-04-15T20:00:00";"GMT";"-143.70B";"13.30B";"-21.60B";"Low"
"TIC Net Long-Term Transactions (Feb)";"United States";"USD";"2019-04-15T20:00:00";"GMT";"-7.2B";"-18.2B";"51.9B";"Moderate"
"TIC Net Long-Term Transactions including Swaps (Feb)";"United States";"USD";"2019-04-15T20:00:00";"GMT";"-19.50B";"";"33.10B";"Low"
"US Foreign Buying, T-bonds (Feb)";"United States";"USD";"2019-04-15T20:00:00";"GMT";"23.00B";"";"19.90B";"Low"
