{"events": {"event": [
    {
      "eventDateTime": "2012-02-01T09:00:00",
      "eventActual": "1.95B",
      "eventCountry": "Canada",
      "eventExpectedVolatility": "Low",
      "eventName": "Budget Balance (Jan)",
      "eventTimeZone": "GMT",
      "eventPrevious": "-0.54B",
      "eventCurrency": "CAD",
      "eventForecast": ""
    },
    {
      "eventDateTime": "2012-02-01T09:00:00",
      "eventActual": "-15.97B",
      "eventCountry": "Canada",
      "eventExpectedVolatility": "Low",
      "eventName": "Budget Balance (YoY) (Jan)",
      "eventTimeZone": "GMT",
      "eventPrevious": "-17.69B",
      "eventCurrency": "CAD",
      "eventForecast": ""
    },
    {
      "eventDateTime": "2012-02-01T09:00:00",
      "eventActual": "2.50%",
      "eventCountry": "Canada",
      "eventExpectedVolatility": "Low",
      "eventName": "CPI (YoY) (Jan)",
      "eventTimeZone": "GMT",
      "eventPrevious": "2.30%",
      "eventCurrency": "CAD",
      "eventForecast": ""
    },
    {
      "eventDateTime": "2012-02-01T09:00:00",
      "eventActual": "2.10%",
      "eventCountry": "Canada",
      "eventExpectedVolatility": "Moderate",
      "eventName": "Core CPI (YoY) (Jan)",
      "eventTimeZone": "GMT",
      "eventPrevious": "1.90%",
      "eventCurrency": "CAD",
      "eventForecast": ""
    },
    {
      "eventDateTime": "2012-02-01T09:00:00",
      "eventActual": "40.21B",
      "eventCountry": "Canada",
      "eventExpectedVolatility": "Low",
      "eventName": "Exports (Jan)",
      "eventTimeZone": "GMT",
      "eventPrevious": "41.80B",
      "eventCurrency": "CAD",
      "eventForecast": ""
    },
    {
      "eventDateTime": "2012-02-01T09:00:00",
      "eventActual": "0.90B",
      "eventCountry": "Canada",
      "eventExpectedVolatility": "Low",
      "eventName": "Foreign Securities Purchases by Canadians (Jan)",
      "eventTimeZone": "GMT",
      "eventPrevious": "2.80B",
      "eventCurrency": "CAD",
      "eventForecast": ""
    },
    {
      "eventDateTime": "2012-02-01T09:00:00",
      "eventActual": "-11.20K",
      "eventCountry": "Canada",
      "eventExpectedVolatility": "Low",
      "eventName": "Full Employment Change (Jan)",
      "eventTimeZone": "GMT",
      "eventPrevious": "15.60K",
      "eventCurrency": "CAD",
      "eventForecast": ""
    },
    {
      "eventDateTime": "2012-02-01T09:00:00",
      "eventActual": "3.80%",
      "eventCountry": "Canada",
      "eventExpectedVolatility": "Low",
      "eventName": "IPPI (YoY) (Jan)",
      "eventTimeZone": "GMT",
      "eventPrevious": "4.00%",
      "eventCurrency": "CAD",
      "eventForecast": ""
    },
    {
      "eventDateTime": "2012-02-01T09:00:00",
      "eventActual": "39.81B",
      "eventCountry": "Canada",
      "eventExpectedVolatility": "Low",
      "eventName": "Imports (Jan)",
      "eventTimeZone": "GMT",
      "eventPrevious": "39.68B",
      "eventCurrency": "CAD",
      "eventForecast": ""
    },
    {
      "eventDateTime": "2012-02-01T09:00:00",
      "eventActual": "55.70",
      "eventCountry": "Canada",
      "eventExpectedVolatility": "Low",
      "eventName": "Ivey PMI n.s.a (Jan)",
      "eventTimeZone": "GMT",
      "eventPrevious": "53.60",
      "eventCurrency": "CAD",
      "eventForecast": ""
    },
    {
      "eventDateTime": "2012-02-01T09:00:00",
      "eventActual": "-15.80K",
      "eventCountry": "Canada",
      "eventExpectedVolatility": "Low",
      "eventName": "Part Time Employment Change (Jan)",
      "eventTimeZone": "GMT",
      "eventPrevious": "17.90K",
      "eventCurrency": "CAD",
      "eventForecast": ""
    },
    {
      "eventDateTime": "2012-02-01T09:00:00",
      "eventActual": "66.50%",
      "eventCountry": "Canada",
      "eventExpectedVolatility": "Low",
      "eventName": "Participation Rate (Jan)",
      "eventTimeZone": "GMT",
      "eventPrevious": "66.50%",
      "eventCurrency": "CAD",
      "eventForecast": ""
    },
    {
      "eventDateTime": "2012-02-01T09:00:00",
      "eventActual": "6.40%",
      "eventCountry": "Canada",
      "eventExpectedVolatility": "Low",
      "eventName": "RMPI (YoY) (Jan)",
      "eventTimeZone": "GMT",
      "eventPrevious": "6.80%",
      "eventCurrency": "CAD",
      "eventForecast": ""
    }
  ]}}
