"Budget Balance (Jan)";"Canada";"CAD";"2012-02-01T09:00:00";"GMT";"-0.54B";"";"1.95B";"Low"
"Budget Balance (YoY) (Jan)";"Canada";"CAD";"2012-02-01T09:00:00";"GMT";"-17.69B";"";"-15.97B";"Low"
"CPI (YoY) (Jan)";"Canada";"CAD";"2012-02-01T09:00:00";"GMT";"2.30%";"";"2.50%";"Low"
"Core CPI (YoY) (Jan)";"Canada";"CAD";"2012-02-01T09:00:00";"GMT";"1.90%";"";"2.10%";"Moderate"
"Exports (Jan)";"Canada";"CAD";"2012-02-01T09:00:00";"GMT";"41.80B";"";"40.21B";"Low"
"Foreign Securities Purchases by Canadians (Jan)";"Canada";"CAD";"2012-02-01T09:00:00";"GMT";"2.80B";"";"0.90B";"Low"
"Full Employment Change (Jan)";"Canada";"CAD";"2012-02-01T09:00:00";"GMT";"15.60K";"";"-11.20K";"Low"
"IPPI (YoY) (Jan)";"Canada";"CAD";"2012-02-01T09:00:00";"GMT";"4.00%";"";"3.80%";"Low"
"Imports (Jan)";"Canada";"CAD";"2012-02-01T09:00:00";"GMT";"39.68B";"";"39.81B";"Low"
"Ivey PMI n.s.a (Jan)";"Canada";"CAD";"2012-02-01T09:00:00";"GMT";"53.60";"";"55.70";"Low"
"Part Time Employment Change (Jan)";"Canada";"CAD";"2012-02-01T09:00:00";"GMT";"17.90K";"";"-15.80K";"Low"
"Participation Rate (Jan)";"Canada";"CAD";"2012-02-01T09:00:00";"GMT";"66.50%";"";"66.50%";"Low"
"RMPI (YoY) (Jan)";"Canada";"CAD";"2012-02-01T09:00:00";"GMT";"6.80%";"";"6.40%";"Low"
