{"events": {"event": [
    {
      "eventDateTime": "2019-05-02T08:30:00",
      "eventActual": "50.5",
      "eventCountry": "United Kingdom",
      "eventExpectedVolatility": "High",
      "eventName": "Construction PMI (Apr)",
      "eventTimeZone": "GMT",
      "eventPrevious": "49.7",
      "eventCurrency": "GBP",
      "eventForecast": "50.4"
    },
    {
      "eventDateTime": "2019-05-02T11:00:00",
      "eventActual": "",
      "eventCountry": "United Kingdom",
      "eventExpectedVolatility": "High",
      "eventName": "BoE Inflation Report",
      "eventTimeZone": "GMT",
      "eventPrevious": "",
      "eventCurrency": "GBP",
      "eventForecast": ""
    },
    {
      "eventDateTime": "2019-05-02T11:00:00",
      "eventActual": "0.75%",
      "eventCountry": "United Kingdom",
      "eventExpectedVolatility": "High",
      "eventName": "BoE Interest Rate Decision (May)",
      "eventTimeZone": "GMT",
      "eventPrevious": "0.75%",
      "eventCurrency": "GBP",
      "eventForecast": "0.75%"
    },
    {
      "eventDateTime": "2019-05-02T11:00:00",
      "eventActual": "",
      "eventCountry": "United Kingdom",
      "eventExpectedVolatility": "High",
      "eventName": "BoE MPC Meeting Minutes",
      "eventTimeZone": "GMT",
      "eventPrevious": "",
      "eventCurrency": "GBP",
      "eventForecast": ""
    },
    {
      "eventDateTime": "2019-05-02T11:00:00",
      "eventActual": "0",
      "eventCountry": "United Kingdom",
      "eventExpectedVolatility": "Moderate",
      "eventName": "BoE MPC vote cut (May)",
      "eventTimeZone": "GMT",
      "eventPrevious": "0",
      "eventCurrency": "GBP",
      "eventForecast": "0"
    },
    {
      "eventDateTime": "2019-05-02T11:00:00",
      "eventActual": "0",
      "eventCountry": "United Kingdom",
      "eventExpectedVolatility": "Moderate",
      "eventName": "BoE MPC vote hike (May)",
      "eventTimeZone": "GMT",
      "eventPrevious": "0",
      "eventCurrency": "GBP",
      "eventForecast": "0"
    },
    {
      "eventDateTime": "2019-05-02T11:00:00",
      "eventActual": "9",
      "eventCountry": "United Kingdom",
      "eventExpectedVolatility": "Moderate",
      "eventName": "BoE MPC vote unchanged (May)",
      "eventTimeZone": "GMT",
      "eventPrevious": "9",
      "eventCurrency": "GBP",
      "eventForecast": "9"
    },
    {
      "eventDateTime": "2019-05-02T11:00:00",
      "eventActual": "435B",
      "eventCountry": "United Kingdom",
      "eventExpectedVolatility": "Moderate",
      "eventName": "BoE QE Total (May)",
      "eventTimeZone": "GMT",
      "eventPrevious": "435B",
      "eventCurrency": "GBP",
      "eventForecast": "435B"
    },
    {
      "eventDateTime": "2019-05-02T11:30:00",
      "eventActual": "",
      "eventCountry": "United Kingdom",
      "eventExpectedVolatility": "High",
      "eventName": "BoE Gov Carney Speaks",
      "eventTimeZone": "GMT",
      "eventPrevious": "",
      "eventCurrency": "GBP",
      "eventForecast": ""
    }
  ]}}
