{"events": {"event": {
    "eventDateTime": "2016-03-24T13:00:00",
    "eventActual": "386.9B",
    "eventCountry": "Russia",
    "eventExpectedVolatility": "Moderate",
    "eventName": "Central Bank reserves (USD)",
    "eventTimeZone": "GMT",
    "eventPrevious": "381.1B",
    "eventCurrency": "RUB",
    "eventForecast": ""
  }}}
