{"events": {"event": [
    {
      "eventDateTime": "2018-09-11T05:30:00",
      "eventActual": "0.0%",
      "eventCountry": "France",
      "eventExpectedVolatility": "Moderate",
      "eventName": "French Non-Farm Payrolls (QoQ) (Q2)",
      "eventTimeZone": "GMT",
      "eventPrevious": "0.2%",
      "eventCurrency": "EUR",
      "eventForecast": "0.2%"
    },
    {
      "eventDateTime": "2018-09-11T08:40:00",
      "eventActual": "-0.372%",
      "eventCountry": "Spain",
      "eventExpectedVolatility": "Low",
      "eventName": "Spanish 12-Month Letras Auction",
      "eventTimeZone": "GMT",
      "eventPrevious": "-0.362%",
      "eventCurrency": "EUR",
      "eventForecast": ""
    },
    {
      "eventDateTime": "2018-09-11T08:40:00",
      "eventActual": "-0.425%",
      "eventCountry": "Spain",
      "eventExpectedVolatility": "Low",
      "eventName": "Spanish 6-Month Letras Auction",
      "eventTimeZone": "GMT",
      "eventPrevious": "-0.419%",
      "eventCurrency": "EUR",
      "eventForecast": ""
    },
    {
      "eventDateTime": "2018-09-11T09:00:00",
      "eventActual": "0.4%",
      "eventCountry": "Euro Zone",
      "eventExpectedVolatility": "Low",
      "eventName": "Employment Change (QoQ) (Q2)",
      "eventTimeZone": "GMT",
      "eventPrevious": "0.4%",
      "eventCurrency": "EUR",
      "eventForecast": "0.4%"
    },
    {
      "eventDateTime": "2018-09-11T09:00:00",
      "eventActual": "1.5%",
      "eventCountry": "Euro Zone",
      "eventExpectedVolatility": "Low",
      "eventName": "Employment Change (YoY) (Q1)",
      "eventTimeZone": "GMT",
      "eventPrevious": "1.4%",
      "eventCurrency": "EUR",
      "eventForecast": ""
    },
    {
      "eventDateTime": "2018-09-11T09:00:00",
      "eventActual": "76.0",
      "eventCountry": "Germany",
      "eventExpectedVolatility": "Moderate",
      "eventName": "German ZEW Current Conditions (Sep)",
      "eventTimeZone": "GMT",
      "eventPrevious": "72.6",
      "eventCurrency": "EUR",
      "eventForecast": "72.0"
    },
    {
      "eventDateTime": "2018-09-11T09:00:00",
      "eventActual": "-10.6",
      "eventCountry": "Germany",
      "eventExpectedVolatility": "High",
      "eventName": "German ZEW Economic Sentiment (Sep)",
      "eventTimeZone": "GMT",
      "eventPrevious": "-13.7",
      "eventCurrency": "EUR",
      "eventForecast": "-14.0"
    },
    {
      "eventDateTime": "2018-09-11T09:00:00",
      "eventActual": "-7.2",
      "eventCountry": "Euro Zone",
      "eventExpectedVolatility": "Moderate",
      "eventName": "ZEW Economic Sentiment",
      "eventTimeZone": "GMT",
      "eventPrevious": "-11.1",
      "eventCurrency": "EUR",
      "eventForecast": "-10.9"
    }
  ]}}
