"BoC Interest Rate Decision (Feb)";"Canada";"CAD";"2002-03-01T09:00:00";"GMT";"2.00%";"";"2.00%";"High"
"Budget Balance (Feb)";"Canada";"CAD";"2002-03-01T09:00:00";"GMT";"0.13B";"";"4.23B";"Low"
"Building Permits (MoM) (Feb)";"Canada";"CAD";"2002-03-01T09:00:00";"GMT";"7.00%";"";"2.90%";"Moderate"
"CPI (MoM) (Feb)";"Canada";"CAD";"2002-03-01T09:00:00";"GMT";"0.20%";"";"0.60%";"Moderate"
"CPI (YoY) (Feb)";"Canada";"CAD";"2002-03-01T09:00:00";"GMT";"1.30%";"";"1.40%";"Low"
"Core CPI (MoM) (Feb)";"Canada";"CAD";"2002-03-01T09:00:00";"GMT";"0.10%";"";"0.70%";"High"
"Core CPI (YoY) (Feb)";"Canada";"CAD";"2002-03-01T09:00:00";"GMT";"1.90%";"";"2.30%";"Moderate"
"Core Retail Sales (MoM) (Feb)";"Canada";"CAD";"2002-03-01T09:00:00";"GMT";"0.50%";"";"0.60%";"High"
"Employment Change (Feb)";"Canada";"CAD";"2002-03-01T09:00:00";"GMT";"58.20K";"";"19.00K";"High"
"Exports (Feb)";"Canada";"CAD";"2002-03-01T09:00:00";"GMT";"33.63B";"";"34.20B";"Low"
"Foreign Securities Purchases (Feb)";"Canada";"CAD";"2002-03-01T09:00:00";"GMT";"0.43B";"";"4.01B";"Moderate"
"Foreign Securities Purchases by Canadians (Feb)";"Canada";"CAD";"2002-03-01T09:00:00";"GMT";"-1.97B";"";"10.02B";"Low"
"Full Employment Change (Feb)";"Canada";"CAD";"2002-03-01T09:00:00";"GMT";"28.90K";"";"34.40K";"Low"
"GDP (MoM) (Feb)";"Canada";"CAD";"2002-03-01T09:00:00";"GMT";"1.00%";"";"0.50%";"High"
"Housing Starts (Feb)";"Canada";"CAD";"2002-03-01T09:00:00";"GMT";"212.50K";"";"182.70K";"Moderate"
"IPPI (MoM) (Feb)";"Canada";"CAD";"2002-03-01T09:00:00";"GMT";"1.00%";"";"0.40%";"Low"
"IPPI (YoY) (Feb)";"Canada";"CAD";"2002-03-01T09:00:00";"GMT";"-1.10%";"";"-1.10%";"Low"
"Imports (Feb)";"Canada";"CAD";"2002-03-01T09:00:00";"GMT";"27.96B";"";"29.12B";"Low"
"Ivey PMI n.s.a (Feb)";"Canada";"CAD";"2002-03-01T09:00:00";"GMT";"48.50";"";"54.30";"Low"
"Manufacturing Sales (MoM) (Feb)";"Canada";"CAD";"2002-03-01T09:00:00";"GMT";"1.30%";"";"2.80%";"Moderate"
"New Housing Price Index (MoM) (Feb)";"Canada";"CAD";"2002-03-01T09:00:00";"GMT";"0.30%";"";"0.60%";"Moderate"
"Part Time Employment Change (Feb)";"Canada";"CAD";"2002-03-01T09:00:00";"GMT";"29.30K";"";"-15.40K";"Low"
"Participation Rate (Feb)";"Canada";"CAD";"2002-03-01T09:00:00";"GMT";"66.30%";"";"66.30%";"Low"
"RMPI (MoM) (Feb)";"Canada";"CAD";"2002-03-01T09:00:00";"GMT";"2.10%";"";"2.40%";"Moderate"
"RMPI (YoY) (Feb)";"Canada";"CAD";"2002-03-01T09:00:00";"GMT";"-13.40%";"";"-12.20%";"Low"
"Retail Sales (MoM) (Feb)";"Canada";"CAD";"2002-03-01T09:00:00";"GMT";"1.40%";"";"-1.50%";"Moderate"
"Trade Balance (Feb)";"Canada";"CAD";"2002-03-01T09:00:00";"GMT";"5.66B";"";"5.08B";"Moderate"
"Unemployment Rate (Feb)";"Canada";"CAD";"2002-03-01T09:00:00";"GMT";"8.00%";"";"7.90%";"Moderate"
"Wholesale Sales (MoM) (Feb)";"Canada";"CAD";"2002-03-01T09:00:00";"GMT";"2.90%";"";"0.90%";"Moderate"
