"Spanish Unemployment Change";"Spain";"EUR";"2017-08-02T07:00:00";"GMT";"-98.3K";"-66.5K";"-26.9K";"Moderate"
"German 10-Year Bund Auction";"Germany";"EUR";"2017-08-02T09:35:00";"GMT";"0.590%";"";"0.490%";"Moderate"
"PPI (MoM) (Jun)";"Euro Zone";"EUR";"2017-08-02T10:00:00";"GMT";"-0.3%";"-0.1%";"-0.1%";"Low"
"PPI (YoY) (Jun)";"Euro Zone";"EUR";"2017-08-02T10:00:00";"GMT";"3.4%";"2.4%";"2.5%";"Low"
