"Industrial Production (MoM) (Dec)";"South Korea";"KRW";"2019-01-30T23:00:00";"GMT";"-1.6%";"-0.2%";"-1.4%";"Low"
"Industrial Production (YoY) (Dec)";"South Korea";"KRW";"2019-01-30T23:00:00";"GMT";"1.1%";"1.7%";"1.6%";"Low"
"Retail Sales (MoM)";"South Korea";"KRW";"2019-01-30T23:00:00";"GMT";"0.5%";"";"0.8%";"Low"
"Service Sector Output (MoM) (Dec)";"South Korea";"KRW";"2019-01-30T23:00:00";"GMT";"-0.2%";"";"-0.3%";"Low"
