"NFIB Small Business Optimism";"United States";"USD";"2012-04-10T11:30:00";"GMT";"94.3";"95.0";"92.5";"Low"
"Redbook (MoM)";"United States";"USD";"2012-04-10T12:55:00";"GMT";"0.70%";"";"0.80%";"Low"
"IBD/TIPP Economic Optimism";"United States";"USD";"2012-04-10T14:00:00";"GMT";"47.5";"49.1";"49.3";"Low"
"Wholesale Inventories (MoM)";"United States";"USD";"2012-04-10T14:00:00";"GMT";"0.6%";"0.5%";"0.9%";"Low"
"4-Week Bill Auction";"United States";"USD";"2012-04-10T15:30:00";"GMT";"0.055%";"";"0.080%";"Low"
"FOMC Member Fisher Speaks";"United States";"USD";"2012-04-10T16:30:00";"GMT";" ";"";"";"Moderate"
"3-Year Note Auction";"United States";"USD";"2012-04-10T17:00:00";"GMT";"0.456%";"";"0.427%";"Low"
"API Weekly Crude Oil Stock";"United States";"USD";"2012-04-10T20:30:00";"GMT";"7.85M";"2.08M";"6.58M";"Moderate"
"API Weekly Gasoline Stock";"United States";"USD";"2012-04-10T20:30:00";"GMT";"-4.46M";"-0.95M";"1.18M";"Low"
