"Exports (YoY) (Aug)";"South Korea";"KRW";"2016-09-01T00:00:00";"GMT";"-10.3%";"0.6%";"2.6%";"Low"
"Imports (YoY) (Aug)";"South Korea";"KRW";"2016-09-01T00:00:00";"GMT";"-13.6%";"-3.3%";"0.1%";"Low"
"Trade Balance (Aug)";"South Korea";"KRW";"2016-09-01T00:00:00";"GMT";"7.60B";"";"5.30B";"Low"
"Nikkei Manufacturing PMI (Aug)";"South Korea";"KRW";"2016-09-01T00:30:00";"GMT";"50.1";"";"48.6";"Low"
"GDP (QoQ) (Q2)";"South Korea";"KRW";"2016-09-01T23:00:00";"GMT";"0.7%";"0.7%";"0.8%";"Low"
"GDP (YoY) (Q2)";"South Korea";"KRW";"2016-09-01T23:00:00";"GMT";"3.2%";"3.2%";"3.3%";"Low"
