{"events": {"event": {
    "eventDateTime": "2008-09-09T22:45:00",
    "eventActual": "-0.5%",
    "eventCountry": "New Zealand",
    "eventExpectedVolatility": "Low",
    "eventName": "Terms of Trade Index (QoQ)",
    "eventTimeZone": "GMT",
    "eventPrevious": "4.1%",
    "eventCurrency": "NZD",
    "eventForecast": ""
  }}}
