{"events": {"event": [
    {
      "eventDateTime": "2008-03-30T23:15:00",
      "eventActual": "49.5",
      "eventCountry": "Japan",
      "eventExpectedVolatility": "Low",
      "eventName": "Manufacturing PMI",
      "eventTimeZone": "GMT",
      "eventPrevious": "50.8",
      "eventCurrency": "JPY",
      "eventForecast": "0.0"
    },
    {
      "eventDateTime": "2008-03-30T23:50:00",
      "eventActual": "1.3%",
      "eventCountry": "Japan",
      "eventExpectedVolatility": "Low",
      "eventName": "Average Cash Earnings (YoY)",
      "eventTimeZone": "GMT",
      "eventPrevious": "1.0%",
      "eventCurrency": "JPY",
      "eventForecast": "0.0%"
    },
    {
      "eventDateTime": "2008-03-30T23:50:00",
      "eventActual": "-1.2%",
      "eventCountry": "Japan",
      "eventExpectedVolatility": "Moderate",
      "eventName": "Industrial Production (MoM)",
      "eventTimeZone": "GMT",
      "eventPrevious": "-2.2%",
      "eventCurrency": "JPY",
      "eventForecast": "0.0%"
    }
  ]}}
