{"events": {"event": {
    "eventDateTime": "2008-07-29T08:00:00",
    "eventActual": "2.25",
    "eventCountry": "Switzerland",
    "eventExpectedVolatility": "Low",
    "eventName": "Consumption Indicator",
    "eventTimeZone": "GMT",
    "eventPrevious": "1.91",
    "eventCurrency": "CHF",
    "eventForecast": ""
  }}}
