"CPI (YoY)";"China";"CNY";"2011-10-14T02:00:00";"GMT";"6.2%";"6.1%";"6.1%";"Moderate"
"PPI (YoY)";"China";"CNY";"2011-10-14T02:00:00";"GMT";"7.3%";"6.9%";"6.5%";"Moderate"
"M2 Money Stock (YoY)";"China";"CNY";"2011-10-14T07:00:00";"GMT";"13.5%";"14.2%";"13.0%";"Low"
