"Business Climate (May)";"Euro Zone";"EUR";"2003-06-01T09:00:00";"GMT";"-0.42";"";"-0.73";"Low"
"Business and Consumer Survey (May)";"Euro Zone";"EUR";"2003-06-01T09:00:00";"GMT";"93.70";"";"92.90";"Low"
"CPI (MoM) (May)";"Euro Zone";"EUR";"2003-06-01T09:00:00";"GMT";"0.10%";"";"-0.10%";"Moderate"
"CPI (YoY) (May)";"Euro Zone";"EUR";"2003-06-01T09:00:00";"GMT";"2.10%";"";"1.90%";"High"
"CPI ex Tobacco (MoM) (May)";"Euro Zone";"EUR";"2003-06-01T09:00:00";"GMT";"0.11%";"";"-0.06%";"Low"
"CPI ex Tobacco (YoY) (May)";"Euro Zone";"EUR";"2003-06-01T09:00:00";"GMT";"1.92%";"";"1.66%";"Low"
"Consumer Confidence (May)";"Euro Zone";"EUR";"2003-06-01T09:00:00";"GMT";"-18.80";"";"-18.70";"Low"
"Consumer Inflation Expectation (May)";"Euro Zone";"EUR";"2003-06-01T09:00:00";"GMT";"12.10";"";"4.90";"Low"
"Core CPI (MoM) (May)";"Euro Zone";"EUR";"2003-06-01T09:00:00";"GMT";"0.40%";"";"0.10%";"Low"
"Core CPI (YoY) (May)";"Euro Zone";"EUR";"2003-06-01T09:00:00";"GMT";"2.00%";"";"1.80%";"Moderate"
"Current Account n.s.a. (May)";"Euro Zone";"EUR";"2003-06-01T09:00:00";"GMT";"-6.70B";"";"-3.60B";"Low"
"ECB Interest Rate Decision (May)";"Euro Zone";"EUR";"2003-06-01T09:00:00";"GMT";"2.50%";"";"2.50%";"High"
"French Business Survey (May)";"France";"EUR";"2003-06-01T09:00:00";"GMT";"93.00";"";"94.00";"Low"
"French CPI (MoM) (May)";"France";"EUR";"2003-06-01T09:00:00";"GMT";"-0.10%";"";"-0.20%";"Moderate"
"French Consumer Confidence (May)";"France";"EUR";"2003-06-01T09:00:00";"GMT";"99.00";"";"100.00";"Low"
"French Consumer Spending (MoM) (May)";"France";"EUR";"2003-06-01T09:00:00";"GMT";"0.30%";"";"0.30%";"Moderate"
"French Exports (May)";"France";"EUR";"2003-06-01T09:00:00";"GMT";"27.35B";"";"26.58B";"Low"
"French Government Budget Balance (May)";"France";"EUR";"2003-06-01T09:00:00";"GMT";"-39.73B";"";"-44.23B";"Low"
"French HICP (MoM) (May)";"France";"EUR";"2003-06-01T09:00:00";"GMT";"-0.20%";"";"-0.10%";"Moderate"
"French HICP (YoY) (May)";"France";"EUR";"2003-06-01T09:00:00";"GMT";"1.94%";"";"1.75%";"Low"
"French Imports (May)";"France";"EUR";"2003-06-01T09:00:00";"GMT";"27.18B";"";"26.92B";"Low"
"French Industrial Production (MoM) (May)";"France";"EUR";"2003-06-01T09:00:00";"GMT";"-0.20%";"";"-2.20%";"Low"
"French PPI (MoM) (May)";"France";"EUR";"2003-06-01T09:00:00";"GMT";"-0.70%";"";"-0.30%";"Low"
"French Trade Balance (May)";"France";"EUR";"2003-06-01T09:00:00";"GMT";"0.20B";"";"-0.30B";"Low"
"German Business Expectations (May)";"Germany";"EUR";"2003-06-01T09:00:00";"GMT";"93.50";"";"94.40";"Moderate"
"German CPI (MoM) (May)";"Germany";"EUR";"2003-06-01T09:00:00";"GMT";"-0.30%";"";"-0.20%";"Moderate"
"German CPI (YoY) (May)";"Germany";"EUR";"2003-06-01T09:00:00";"GMT";"0.90%";"";"0.60%";"Low"
"German Current Assessment (May)";"Germany";"EUR";"2003-06-01T09:00:00";"GMT";"90.40";"";"90.60";"Moderate"
"German Exports (MoM) (May)";"Germany";"EUR";"2003-06-01T09:00:00";"GMT";"-1.73%";"";"2.29%";"Low"
"German Factory Orders (MoM) (May)";"Germany";"EUR";"2003-06-01T09:00:00";"GMT";"0.20%";"";"-2.40%";"Moderate"
"German HICP (MoM) (May)";"Germany";"EUR";"2003-06-01T09:00:00";"GMT";"-0.30%";"";"-0.20%";"Low"
"German HICP (YoY) (May)";"Germany";"EUR";"2003-06-01T09:00:00";"GMT";"0.90%";"";"0.70%";"Low"
"German Import Price Index (MoM) (May)";"Germany";"EUR";"2003-06-01T09:00:00";"GMT";"-1.50%";"";"-1.30%";"Low"
"German Import Price Index (YoY) (May)";"Germany";"EUR";"2003-06-01T09:00:00";"GMT";"-3.30%";"";"-4.00%";"Low"
"German Imports (MoM) (May)";"Germany";"EUR";"2003-06-01T09:00:00";"GMT";"-3.30%";"";"-0.90%";"Low"
"German Industrial Production (MoM) (May)";"Germany";"EUR";"2003-06-01T09:00:00";"GMT";"-0.70%";"";"-0.70%";"Moderate"
"German PPI (MoM) (May)";"Germany";"EUR";"2003-06-01T09:00:00";"GMT";"-0.10%";"";"-0.20%";"Moderate"
"German PPI (YoY) (May)";"Germany";"EUR";"2003-06-01T09:00:00";"GMT";"1.70%";"";"1.40%";"Low"
"German Retail Sales (MoM) (May)";"Germany";"EUR";"2003-06-01T09:00:00";"GMT";"0.00%";"";"0.40%";"Moderate"
"German Retail Sales (YoY) (May)";"Germany";"EUR";"2003-06-01T09:00:00";"GMT";"0.90%";"";"1.00%";"Low"
"German Trade Balance (May)";"Germany";"EUR";"2003-06-01T09:00:00";"GMT";"9.20B";"";"10.80B";"Moderate"
"German Unemployment (May)";"Germany";"EUR";"2003-06-01T09:00:00";"GMT";"4.40M";"";"4.41M";"Low"
"German Unemployment Change (May)";"Germany";"EUR";"2003-06-01T09:00:00";"GMT";"15.00K";"";"12.00K";"High"
"German Unemployment Rate (May)";"Germany";"EUR";"2003-06-01T09:00:00";"GMT";"10.60%";"";"10.60%";"Moderate"
"German Unemployment n.s.a. (May)";"Germany";"EUR";"2003-06-01T09:00:00";"GMT";"4.50M";"";"4.30M";"Low"
"German WPI (MoM) (May)";"Germany";"EUR";"2003-06-01T09:00:00";"GMT";"-1.00%";"";"-0.60%";"Low"
"German WPI (YoY) (May)";"Germany";"EUR";"2003-06-01T09:00:00";"GMT";"-0.10%";"";"-0.20%";"Low"
"German ZEW Current Conditions (May)";"Germany";"EUR";"2003-06-01T09:00:00";"GMT";"-95.80";"";"-95.10";"Moderate"
"German ZEW Economic Sentiment (May)";"Germany";"EUR";"2003-06-01T09:00:00";"GMT";"18.40";"";"18.70";"High"
"GfK German Consumer Climate (May)";"Germany";"EUR";"2003-06-01T09:00:00";"GMT";"-2.50";"";"-0.80";"Moderate"
"Industrial Production (MoM) (May)";"Euro Zone";"EUR";"2003-06-01T09:00:00";"GMT";"0.20%";"";"-1.50%";"Moderate"
"Industrial Production (YoY) (May)";"Euro Zone";"EUR";"2003-06-01T09:00:00";"GMT";"0.70%";"";"-1.50%";"Low"
"Industrial Sentiment (May)";"Euro Zone";"EUR";"2003-06-01T09:00:00";"GMT";"-10.70";"";"-12.10";"Low"
"Italian Business Confidence (May)";"Italy";"EUR";"2003-06-01T09:00:00";"GMT";"102.40";"";"100.40";"Low"
"Italian CPI (MoM) (May)";"Italy";"EUR";"2003-06-01T09:00:00";"GMT";"0.20%";"";"0.20%";"Moderate"
"Italian CPI (YoY) (May)";"Italy";"EUR";"2003-06-01T09:00:00";"GMT";"2.70%";"";"2.70%";"Low"
"Italian Consumer Confidence (May)";"Italy";"EUR";"2003-06-01T09:00:00";"GMT";"100.60";"";"98.90";"Low"
"Italian HICP (MoM) (May)";"Italy";"EUR";"2003-06-01T09:00:00";"GMT";"0.80%";"";"0.10%";"Low"
"Italian HICP (YoY) (May)";"Italy";"EUR";"2003-06-01T09:00:00";"GMT";"3.00%";"";"2.90%";"Low"
"Italian Industrial New Orders (MoM) (May)";"Italy";"EUR";"2003-06-01T09:00:00";"GMT";"6.01%";"";"-3.42%";"Low"
"Italian Industrial New Orders (YoY) (May)";"Italy";"EUR";"2003-06-01T09:00:00";"GMT";"-1.71%";"";"-9.31%";"Low"
"Italian Industrial Production (MoM) (May)";"Italy";"EUR";"2003-06-01T09:00:00";"GMT";"1.00%";"";"-2.80%";"Low"
"Italian Industrial Production (YoY) (May)";"Italy";"EUR";"2003-06-01T09:00:00";"GMT";"3.10%";"";"-4.20%";"Low"
"Italian Industrial Sales (MoM) (May)";"Italy";"EUR";"2003-06-01T09:00:00";"GMT";"-1.43%";"";"-0.67%";"Low"
"Italian Industrial Sales (YoY) (May)";"Italy";"EUR";"2003-06-01T09:00:00";"GMT";"-1.02%";"";"-6.22%";"Low"
"Italian PPI (MoM) (May)";"Italy";"EUR";"2003-06-01T09:00:00";"GMT";"-0.60%";"";"-0.40%";"Low"
"Italian PPI (YoY) (May)";"Italy";"EUR";"2003-06-01T09:00:00";"GMT";"1.10%";"";"0.70%";"Low"
"Italian Retail Sales (MoM) (May)";"Italy";"EUR";"2003-06-01T09:00:00";"GMT";"-0.20%";"";"-0.20%";"Low"
"Italian Retail Sales (YoY) (May)";"Italy";"EUR";"2003-06-01T09:00:00";"GMT";"4.87%";"";"3.07%";"Low"
"Italian Trade Balance (May)";"Italy";"EUR";"2003-06-01T09:00:00";"GMT";"-0.67B";"";"-0.41B";"Low"
"Italian Trade Balance EU (May)";"Italy";"EUR";"2003-06-01T09:00:00";"GMT";"-0.04B";"";"-0.11B";"Low"
"Italian Trade Balance Non-EU (May)";"Italy";"EUR";"2003-06-01T09:00:00";"GMT";"-0.63B";"";"-0.30B";"Low"
"Italian Wage Inflation (MoM) (May)";"Italy";"EUR";"2003-06-01T09:00:00";"GMT";"0.19%";"";"0.00%";"Low"
"Italian Wage Inflation (YoY) (May)";"Italy";"EUR";"2003-06-01T09:00:00";"GMT";"1.70%";"";"1.70%";"Low"
"M3 Money Supply (YoY) (May)";"Euro Zone";"EUR";"2003-06-01T09:00:00";"GMT";"9.00%";"";"8.70%";"Low"
"Money-M3 3-Month-Moving Average (May)";"Euro Zone";"EUR";"2003-06-01T09:00:00";"GMT";"8.60%";"";"8.70%";"Low"
"PPI (MoM) (May)";"Euro Zone";"EUR";"2003-06-01T09:00:00";"GMT";"-0.60%";"";"-0.40%";"Low"
"PPI (YoY) (May)";"Euro Zone";"EUR";"2003-06-01T09:00:00";"GMT";"1.60%";"";"1.20%";"Low"
"Private Sector Loans (YoY) (May)";"Euro Zone";"EUR";"2003-06-01T09:00:00";"GMT";"4.70%";"";"4.70%";"Low"
"Retail Sales (MoM) (May)";"Euro Zone";"EUR";"2003-06-01T09:00:00";"GMT";"0.30%";"";"0.20%";"Moderate"
"Retail Sales (YoY) (May)";"Euro Zone";"EUR";"2003-06-01T09:00:00";"GMT";"1.20%";"";"0.50%";"Low"
"Selling Price Expectations (May)";"Euro Zone";"EUR";"2003-06-01T09:00:00";"GMT";"1.80";"";"-3.10";"Low"
"Sentix Investor Confidence (May)";"Euro Zone";"EUR";"2003-06-01T09:00:00";"GMT";"-15.30";"";"-26.70";"Low"
"Services Sentiment (May)";"Euro Zone";"EUR";"2003-06-01T09:00:00";"GMT";"-3.40";"";"-4.20";"Low"
"Spanish CPI (MoM) (May)";"Spain";"EUR";"2003-06-01T09:00:00";"GMT";"0.80%";"";"-0.10%";"Low"
"Spanish CPI (YoY) (May)";"Spain";"EUR";"2003-06-01T09:00:00";"GMT";"3.10%";"";"2.70%";"Moderate"
"Spanish Current account (May)";"Spain";"EUR";"2003-06-01T09:00:00";"GMT";"-2.58B";"";"-2.13B";"Low"
"Spanish HICP (MoM) (May)";"Spain";"EUR";"2003-06-01T09:00:00";"GMT";"0.80%";"";"-0.10%";"Low"
"Spanish HICP (YoY) (May)";"Spain";"EUR";"2003-06-01T09:00:00";"GMT";"3.20%";"";"2.70%";"Moderate"
"Spanish Industrial Production (YoY) (May)";"Spain";"EUR";"2003-06-01T09:00:00";"GMT";"1.80%";"";"0.90%";"Low"
"Spanish Retail Sales (YoY) (May)";"Spain";"EUR";"2003-06-01T09:00:00";"GMT";"3.50%";"";"3.30%";"Low"
"Trade Balance (May)";"Euro Zone";"EUR";"2003-06-01T09:00:00";"GMT";"1.50B";"";"3.20B";"Moderate"
"Unemployment Rate (May)";"Euro Zone";"EUR";"2003-06-01T09:00:00";"GMT";"9.00%";"";"9.00%";"Moderate"
