{"events": {"event": [
    {
      "eventDateTime": "2008-07-18T08:30:00",
      "eventActual": "2.0%",
      "eventCountry": "United Kingdom",
      "eventExpectedVolatility": "Low",
      "eventName": "M4 Money Supply (MoM)",
      "eventTimeZone": "GMT",
      "eventPrevious": "0.4%",
      "eventCurrency": "GBP",
      "eventForecast": "0.4%"
    },
    {
      "eventDateTime": "2008-07-18T08:30:00",
      "eventActual": "9.2B",
      "eventCountry": "United Kingdom",
      "eventExpectedVolatility": "Low",
      "eventName": "Public Sector Net Borrowing",
      "eventTimeZone": "GMT",
      "eventPrevious": "11.0B",
      "eventCurrency": "GBP",
      "eventForecast": "7.5B"
    },
    {
      "eventDateTime": "2008-07-18T14:45:00",
      "eventActual": "",
      "eventCountry": "United Kingdom",
      "eventExpectedVolatility": "Moderate",
      "eventName": "BoE MPC Member Gieve Speaks",
      "eventTimeZone": "GMT",
      "eventPrevious": "",
      "eventCurrency": "GBP",
      "eventForecast": ""
    },
    {
      "eventDateTime": "2008-07-18T19:30:00",
      "eventActual": "6.4K",
      "eventCountry": "United Kingdom",
      "eventExpectedVolatility": "Moderate",
      "eventName": "CFTC GBP speculative net positions",
      "eventTimeZone": "GMT",
      "eventPrevious": "-8.3K",
      "eventCurrency": "GBP",
      "eventForecast": ""
    }
  ]}}
