{"events": {"event": {
    "eventDateTime": "2013-02-06T23:50:00",
    "eventActual": "2.8%",
    "eventCountry": "Japan",
    "eventExpectedVolatility": "Low",
    "eventName": "Core Machinery Orders (MoM)",
    "eventTimeZone": "GMT",
    "eventPrevious": "3.9%",
    "eventCurrency": "JPY",
    "eventForecast": "-0.7%"
  }}}
