{"events": {"event": [
    {
      "eventDateTime": "2004-11-12T17:00:00",
      "eventActual": "179",
      "eventCountry": "United States",
      "eventExpectedVolatility": "Moderate",
      "eventName": "U.S. Baker Hughes Oil Rig Count",
      "eventTimeZone": "GMT",
      "eventPrevious": "190",
      "eventCurrency": "USD",
      "eventForecast": ""
    },
    {
      "eventDateTime": "2004-11-12T20:30:00",
      "eventActual": "3.7k",
      "eventCountry": "United States",
      "eventExpectedVolatility": "Moderate",
      "eventName": "CFTC Crude Oil speculative net positions",
      "eventTimeZone": "GMT",
      "eventPrevious": "5.2k",
      "eventCurrency": "USD",
      "eventForecast": ""
    }
  ]}}
