{"events": {"event": [
    {
      "eventDateTime": "2016-10-18T11:00:00",
      "eventActual": "-0.6%",
      "eventCountry": "Brazil",
      "eventExpectedVolatility": "Moderate",
      "eventName": "Retail Sales (MoM) (Aug)",
      "eventTimeZone": "GMT",
      "eventPrevious": "-0.6%",
      "eventCurrency": "BRL",
      "eventForecast": "-0.6%"
    },
    {
      "eventDateTime": "2016-10-18T11:00:00",
      "eventActual": "-5.5%",
      "eventCountry": "Brazil",
      "eventExpectedVolatility": "Moderate",
      "eventName": "Retail Sales (YoY) (Aug)",
      "eventTimeZone": "GMT",
      "eventPrevious": "-5.6%",
      "eventCurrency": "BRL",
      "eventForecast": "-5.0%"
    }
  ]}}
