{"events": {"event": [
    {
      "eventDateTime": "2010-07-29T12:30:00",
      "eventActual": "-0.9%",
      "eventCountry": "Canada",
      "eventExpectedVolatility": "Low",
      "eventName": "IPPI (MoM)",
      "eventTimeZone": "GMT",
      "eventPrevious": "0.4%",
      "eventCurrency": "CAD",
      "eventForecast": "0.6%"
    },
    {
      "eventDateTime": "2010-07-29T12:30:00",
      "eventActual": "-0.3%",
      "eventCountry": "Canada",
      "eventExpectedVolatility": "Moderate",
      "eventName": "RMPI (MoM)",
      "eventTimeZone": "GMT",
      "eventPrevious": "-7.3%",
      "eventCurrency": "CAD",
      "eventForecast": "1.1%"
    }
  ]}}
