"CPI (MoM) (Dec)";"United Kingdom";"GBP";"2016-01-19T09:30:00";"GMT";"0.0%";"0.1%";"0.1%";"Moderate"
"CPI (YoY) (Dec)";"United Kingdom";"GBP";"2016-01-19T09:30:00";"GMT";"0.1%";"0.1%";"0.2%";"High"
"Core CPI (YoY)";"United Kingdom";"GBP";"2016-01-19T09:30:00";"GMT";"1.2%";"1.2%";"1.4%";"Low"
"Core PPI Output (MoM) (Dec)";"United Kingdom";"GBP";"2016-01-19T09:30:00";"GMT";"-0.2%";"-0.1%";"0.2%";"Low"
"Core PPI Output (YoY) (Dec)";"United Kingdom";"GBP";"2016-01-19T09:30:00";"GMT";"-0.1%";"-0.1%";"0.1%";"Low"
"Core RPI (MoM) (Dec)";"United Kingdom";"GBP";"2016-01-19T09:30:00";"GMT";"0.1%";"";"0.3%";"Low"
"Core RPI (YoY) (Dec)";"United Kingdom";"GBP";"2016-01-19T09:30:00";"GMT";"1.1%";"";"1.3%";"Low"
"House Price Index (YoY)";"United Kingdom";"GBP";"2016-01-19T09:30:00";"GMT";"7.0%";"7.3%";"7.7%";"Low"
"PPI Input (MoM) (Dec)";"United Kingdom";"GBP";"2016-01-19T09:30:00";"GMT";"-1.6%";"-1.7%";"-0.8%";"Moderate"
"PPI Input (YoY) (Dec)";"United Kingdom";"GBP";"2016-01-19T09:30:00";"GMT";"-13.1%";"-11.7%";"-10.8%";"Low"
"PPI Output (MoM) (Dec)";"United Kingdom";"GBP";"2016-01-19T09:30:00";"GMT";"-0.2%";"-0.2%";"-0.2%";"Low"
"PPI Output (YoY) (Dec)";"United Kingdom";"GBP";"2016-01-19T09:30:00";"GMT";"-1.5%";"-1.2%";"-1.2%";"Low"
"RPI (MoM) (Dec)";"United Kingdom";"GBP";"2016-01-19T09:30:00";"GMT";"0.1%";"0.2%";"0.3%";"Low"
"RPI (YoY) (Dec)";"United Kingdom";"GBP";"2016-01-19T09:30:00";"GMT";"1.1%";"1.1%";"1.2%";"Low"
"BoE Gov Carney Speaks";"United Kingdom";"GBP";"2016-01-19T12:00:00";"GMT";" ";"";"";"High"
