{"events": {"event": [
    {
      "eventDateTime": "2019-05-21T23:00:00",
      "eventActual": "12",
      "eventCountry": "Japan",
      "eventExpectedVolatility": "Low",
      "eventName": "Reuters Tankan Index (May)",
      "eventTimeZone": "GMT",
      "eventPrevious": "8",
      "eventCurrency": "JPY",
      "eventForecast": ""
    },
    {
      "eventDateTime": "2019-05-21T23:50:00",
      "eventActual": "-0.11T",
      "eventCountry": "Japan",
      "eventExpectedVolatility": "Moderate",
      "eventName": "Adjusted Trade Balance",
      "eventTimeZone": "GMT",
      "eventPrevious": "-0.15T",
      "eventCurrency": "JPY",
      "eventForecast": "-0.12T"
    },
    {
      "eventDateTime": "2019-05-21T23:50:00",
      "eventActual": "3.8%",
      "eventCountry": "Japan",
      "eventExpectedVolatility": "Low",
      "eventName": "Core Machinery Orders (MoM) (Mar)",
      "eventTimeZone": "GMT",
      "eventPrevious": "1.8%",
      "eventCurrency": "JPY",
      "eventForecast": "-0.7%"
    },
    {
      "eventDateTime": "2019-05-21T23:50:00",
      "eventActual": "-0.7%",
      "eventCountry": "Japan",
      "eventExpectedVolatility": "Low",
      "eventName": "Core Machinery Orders (YoY) (Mar)",
      "eventTimeZone": "GMT",
      "eventPrevious": "-5.5%",
      "eventCurrency": "JPY",
      "eventForecast": "-3.4%"
    },
    {
      "eventDateTime": "2019-05-21T23:50:00",
      "eventActual": "-2.4%",
      "eventCountry": "Japan",
      "eventExpectedVolatility": "Moderate",
      "eventName": "Exports (YoY) (Apr)",
      "eventTimeZone": "GMT",
      "eventPrevious": "-2.4%",
      "eventCurrency": "JPY",
      "eventForecast": "-1.8%"
    },
    {
      "eventDateTime": "2019-05-21T23:50:00",
      "eventActual": "6.4%",
      "eventCountry": "Japan",
      "eventExpectedVolatility": "Low",
      "eventName": "Imports (YoY) (Apr)",
      "eventTimeZone": "GMT",
      "eventPrevious": "1.2%",
      "eventCurrency": "JPY",
      "eventForecast": "4.8%"
    },
    {
      "eventDateTime": "2019-05-21T23:50:00",
      "eventActual": "60.4B",
      "eventCountry": "Japan",
      "eventExpectedVolatility": "Moderate",
      "eventName": "Trade Balance (Apr)",
      "eventTimeZone": "GMT",
      "eventPrevious": "527.8B",
      "eventCurrency": "JPY",
      "eventForecast": "203.2B"
    }
  ]}}
