{"events": {"event": {
    "eventDateTime": "2015-12-18T11:30:00",
    "eventActual": "352.51B",
    "eventCountry": "India",
    "eventExpectedVolatility": "Low",
    "eventName": "FX Reserves, USD",
    "eventTimeZone": "GMT",
    "eventPrevious": "352.10B",
    "eventCurrency": "INR",
    "eventForecast": ""
  }}}
