{"events": {"event": {
    "eventDateTime": "2008-06-23T01:30:00",
    "eventActual": "-1.6%",
    "eventCountry": "Australia",
    "eventExpectedVolatility": "Low",
    "eventName": "New Motor Vehicle Sales (MoM)",
    "eventTimeZone": "GMT",
    "eventPrevious": "-0.8%",
    "eventCurrency": "AUD",
    "eventForecast": ""
  }}}
