{"events": {"event": {
    "eventDateTime": "2016-10-25T06:30:00",
    "eventActual": "46.4%",
    "eventCountry": "Australia",
    "eventExpectedVolatility": "Moderate",
    "eventName": "Investing.com AUD/USD Index",
    "eventTimeZone": "GMT",
    "eventPrevious": "42.6%",
    "eventCurrency": "AUD",
    "eventForecast": ""
  }}}
