{"events": {"event": [
    {
      "eventDateTime": "2019-12-10T11:00:00",
      "eventActual": "104.7",
      "eventCountry": "United States",
      "eventExpectedVolatility": "Low",
      "eventName": "NFIB Small Business Optimism (Nov)",
      "eventTimeZone": "GMT",
      "eventPrevious": "102.4",
      "eventCurrency": "USD",
      "eventForecast": "103.1"
    },
    {
      "eventDateTime": "2019-12-10T13:30:00",
      "eventActual": "-0.2%",
      "eventCountry": "United States",
      "eventExpectedVolatility": "Moderate",
      "eventName": "Nonfarm Productivity (QoQ) (Q3)",
      "eventTimeZone": "GMT",
      "eventPrevious": "-0.3%",
      "eventCurrency": "USD",
      "eventForecast": "-0.1%"
    },
    {
      "eventDateTime": "2019-12-10T13:30:00",
      "eventActual": "2.5%",
      "eventCountry": "United States",
      "eventExpectedVolatility": "Moderate",
      "eventName": "Unit Labor Costs (QoQ) (Q3)",
      "eventTimeZone": "GMT",
      "eventPrevious": "3.6%",
      "eventCurrency": "USD",
      "eventForecast": "3.3%"
    },
    {
      "eventDateTime": "2019-12-10T13:55:00",
      "eventActual": "-3.6%",
      "eventCountry": "United States",
      "eventExpectedVolatility": "Low",
      "eventName": "Redbook (MoM)",
      "eventTimeZone": "GMT",
      "eventPrevious": "0.4%",
      "eventCurrency": "USD",
      "eventForecast": ""
    },
    {
      "eventDateTime": "2019-12-10T13:55:00",
      "eventActual": "5.0%",
      "eventCountry": "United States",
      "eventExpectedVolatility": "Low",
      "eventName": "Redbook (YoY)",
      "eventTimeZone": "GMT",
      "eventPrevious": "7.9%",
      "eventCurrency": "USD",
      "eventForecast": ""
    },
    {
      "eventDateTime": "2019-12-10T17:00:00",
      "eventActual": "",
      "eventCountry": "United States",
      "eventExpectedVolatility": "Moderate",
      "eventName": "WASDE Report",
      "eventTimeZone": "GMT",
      "eventPrevious": "",
      "eventCurrency": "USD",
      "eventForecast": ""
    },
    {
      "eventDateTime": "2019-12-10T18:01:00",
      "eventActual": "1.842%",
      "eventCountry": "United States",
      "eventExpectedVolatility": "Moderate",
      "eventName": "10-Year Note Auction",
      "eventTimeZone": "GMT",
      "eventPrevious": "1.809%",
      "eventCurrency": "USD",
      "eventForecast": ""
    },
    {
      "eventDateTime": "2019-12-10T21:30:00",
      "eventActual": "1.410M",
      "eventCountry": "United States",
      "eventExpectedVolatility": "Moderate",
      "eventName": "API Weekly Crude Oil Stock",
      "eventTimeZone": "GMT",
      "eventPrevious": "-3.720M",
      "eventCurrency": "USD",
      "eventForecast": ""
    }
  ]}}
