"GDP (MoM)";"Canada";"CAD";"2010-05-31T12:30:00";"GMT";"0.2%";"0.5%";"0.6%";"High"
"IPPI (MoM)";"Canada";"CAD";"2010-05-31T12:30:00";"GMT";"-0.4%";"-0.3%";"0.3%";"Low"
"RMPI (MoM)";"Canada";"CAD";"2010-05-31T12:30:00";"GMT";"0.8%";"1.1%";"1.7%";"Moderate"
