{"events": {"event": [
    {
      "eventDateTime": "2010-05-31T12:30:00",
      "eventActual": "0.6%",
      "eventCountry": "Canada",
      "eventExpectedVolatility": "High",
      "eventName": "GDP (MoM)",
      "eventTimeZone": "GMT",
      "eventPrevious": "0.2%",
      "eventCurrency": "CAD",
      "eventForecast": "0.5%"
    },
    {
      "eventDateTime": "2010-05-31T12:30:00",
      "eventActual": "0.3%",
      "eventCountry": "Canada",
      "eventExpectedVolatility": "Low",
      "eventName": "IPPI (MoM)",
      "eventTimeZone": "GMT",
      "eventPrevious": "-0.4%",
      "eventCurrency": "CAD",
      "eventForecast": "-0.3%"
    },
    {
      "eventDateTime": "2010-05-31T12:30:00",
      "eventActual": "1.7%",
      "eventCountry": "Canada",
      "eventExpectedVolatility": "Moderate",
      "eventName": "RMPI (MoM)",
      "eventTimeZone": "GMT",
      "eventPrevious": "0.8%",
      "eventCurrency": "CAD",
      "eventForecast": "1.1%"
    }
  ]}}
