{"events": {"event": [
    {
      "eventDateTime": "2015-05-27T06:00:00",
      "eventActual": "10.2",
      "eventCountry": "Germany",
      "eventExpectedVolatility": "Moderate",
      "eventName": "GfK German Consumer Climate (Jun)",
      "eventTimeZone": "GMT",
      "eventPrevious": "10.1",
      "eventCurrency": "EUR",
      "eventForecast": "10.0"
    },
    {
      "eventDateTime": "2015-05-27T06:45:00",
      "eventActual": "93",
      "eventCountry": "France",
      "eventExpectedVolatility": "Low",
      "eventName": "French Consumer Confidence (May)",
      "eventTimeZone": "GMT",
      "eventPrevious": "94",
      "eventCurrency": "EUR",
      "eventForecast": "95"
    },
    {
      "eventDateTime": "2015-05-27T09:10:00",
      "eventActual": "0.004%",
      "eventCountry": "Italy",
      "eventExpectedVolatility": "Low",
      "eventName": "Italian 6-Month BOT Auction",
      "eventTimeZone": "GMT",
      "eventPrevious": "0.000%",
      "eventCurrency": "EUR",
      "eventForecast": ""
    },
    {
      "eventDateTime": "2015-05-27T09:35:00",
      "eventActual": "1.180%",
      "eventCountry": "Germany",
      "eventExpectedVolatility": "Low",
      "eventName": "German 30-Year Bund Auction",
      "eventTimeZone": "GMT",
      "eventPrevious": "1.070%",
      "eventCurrency": "EUR",
      "eventForecast": ""
    }
  ]}}
