"CPI (MoM) (Jun)";"China";"CNY";"2000-07-01T09:00:00";"GMT";"-1.00%";"";"-1.50%";"Moderate"
"CPI (YoY) (Jun)";"China";"CNY";"2000-07-01T09:00:00";"GMT";"0.10%";"";"0.50%";"Moderate"
"Exports (YoY) (Jun)";"China";"CNY";"2000-07-01T09:00:00";"GMT";"29.60%";"";"45.00%";"Moderate"
"FDI (Jun)";"China";"CNY";"2000-07-01T09:00:00";"GMT";"-8.21%";"";"-7.54%";"Low"
"Fixed Asset Investment (YoY) (Jun)";"China";"CNY";"2000-07-01T09:00:00";"GMT";"9.50%";"";"12.10%";"Moderate"
"Imports (YoY) (Jun)";"China";"CNY";"2000-07-01T09:00:00";"GMT";"24.30%";"";"39.80%";"Moderate"
"Industrial Production (YoY) (Jun)";"China";"CNY";"2000-07-01T09:00:00";"GMT";"11.50%";"";"12.20%";"High"
"M2 Money Stock (YoY) (Jun)";"China";"CNY";"2000-07-01T09:00:00";"GMT";"14.00%";"";"14.40%";"Low"
"Outstanding Loan Growth (YoY) (Jun)";"China";"CNY";"2000-07-01T09:00:00";"GMT";"13.90%";"";"13.80%";"Low"
"PBoC Deposit Rate (Jun)";"China";"CNY";"2000-07-01T09:00:00";"GMT";"2.25%";"";"2.25%";"Moderate"
"PBoC Interest Rate (Jun)";"China";"CNY";"2000-07-01T09:00:00";"GMT";"5.85%";"";"5.85%";"High"
"PBoC Reserve Requirement Ratio (Jun)";"China";"CNY";"2000-07-01T09:00:00";"GMT";"6.00%";"";"6.00%";"Moderate"
"PPI (YoY) (Jun)";"China";"CNY";"2000-07-01T09:00:00";"GMT";"2.50%";"";"3.00%";"Moderate"
"Retail Sales (YoY) (Jun)";"China";"CNY";"2000-07-01T09:00:00";"GMT";"11.50%";"";"8.90%";"Low"
"Trade Balance (USD) (Jun)";"China";"CNY";"2000-07-01T09:00:00";"GMT";"3.15B";"";"1.90B";"Moderate"
