{"events": {"event": {
    "eventDateTime": "2016-05-13T00:58:00",
    "eventActual": "1.50%",
    "eventCountry": "South Korea",
    "eventExpectedVolatility": "Low",
    "eventName": "Interest Rate Decision (May)",
    "eventTimeZone": "GMT",
    "eventPrevious": "1.50%",
    "eventCurrency": "KRW",
    "eventForecast": "1.50%"
  }}}
