"MBA Mortgage Applications (WoW)";"United States";"USD";"2011-04-27T11:00:00";"GMT";"5.3%";"";"-5.6%";"Low"
"Core Durable Goods Orders (MoM)";"United States";"USD";"2011-04-27T12:30:00";"GMT";"0.6%";"1.6%";"1.3%";"High"
"Durable Goods Orders (MoM)";"United States";"USD";"2011-04-27T12:30:00";"GMT";"0.7%";"1.9%";"2.5%";"Moderate"
"Crude Oil Inventories";"United States";"USD";"2011-04-27T14:30:00";"GMT";"-2.300M";"1.500M";"6.200M";"High"
"Gasoline Inventories";"United States";"USD";"2011-04-27T14:30:00";"GMT";"-1.600M";"-1.000M";"-2.500M";"Low"
"FOMC Statement";"United States";"USD";"2011-04-27T16:30:00";"GMT";" ";"";"";"High"
"Fed Interest Rate Decision";"United States";"USD";"2011-04-27T16:30:00";"GMT";"0.25%";"0.25%";"0.25%";"High"
"Fed Chairman Bernanke Speaks";"United States";"USD";"2011-04-27T18:15:00";"GMT";" ";"";"";"High"
