{"events": {"event": {
    "eventDateTime": "2008-09-23T23:50:00",
    "eventActual": "-10.0",
    "eventCountry": "Japan",
    "eventExpectedVolatility": "Moderate",
    "eventName": "BSI Large Manufacturing Conditions",
    "eventTimeZone": "GMT",
    "eventPrevious": "-15.1",
    "eventCurrency": "JPY",
    "eventForecast": "-17.0"
  }}}
