"Average Earnings Index +Bonus (Apr)";"United Kingdom";"GBP";"2019-06-11T08:30:00";"GMT";"3.3%";"2.9%";"3.1%";"High"
"Average Earnings ex Bonus (Apr)";"United Kingdom";"GBP";"2019-06-11T08:30:00";"GMT";"3.3%";"3.1%";"3.4%";"Low"
"Claimant Count Change (May)";"United Kingdom";"GBP";"2019-06-11T08:30:00";"GMT";"19.1K";"22.9K";"23.2K";"High"
"Employment Change 3M/3M (MoM)";"United Kingdom";"GBP";"2019-06-11T08:30:00";"GMT";"99.0K";"-1.0K";"32.0K";"Moderate"
"Unemployment Rate (Apr)";"United Kingdom";"GBP";"2019-06-11T08:30:00";"GMT";"3.8%";"3.8%";"3.8%";"Moderate"
"BoE MPC Member Broadbent Speaks";"United Kingdom";"GBP";"2019-06-11T09:00:00";"GMT";" ";"";"";"Moderate"
"BoE MPC Member Saunders Speaks";"United Kingdom";"GBP";"2019-06-11T09:00:00";"GMT";" ";"";"";"Moderate"
"MPC Member Tenreyro Speaks";"United Kingdom";"GBP";"2019-06-11T09:00:00";"GMT";" ";"";"";"Moderate"
