{"events": {"event": {
    "eventDateTime": "2012-06-08T19:30:00",
    "eventActual": "-5.5K",
    "eventCountry": "New Zealand",
    "eventExpectedVolatility": "Low",
    "eventName": "CFTC NZD speculative net positions",
    "eventTimeZone": "GMT",
    "eventPrevious": "-5.2K",
    "eventCurrency": "NZD",
    "eventForecast": ""
  }}}
