{"events": {"event": {
    "eventDateTime": "2009-08-25T03:00:00",
    "eventActual": "2.3%",
    "eventCountry": "New Zealand",
    "eventExpectedVolatility": "Moderate",
    "eventName": "Inflation Expectations (QoQ)",
    "eventTimeZone": "GMT",
    "eventPrevious": "2.2%",
    "eventCurrency": "NZD",
    "eventForecast": ""
  }}}
