{"events": {"event": [
    {
      "eventDateTime": "2018-10-17T08:00:00",
      "eventActual": "8.3%",
      "eventCountry": "China",
      "eventExpectedVolatility": "Low",
      "eventName": "M2 Money Stock (YoY) (Sep)",
      "eventTimeZone": "GMT",
      "eventPrevious": "8.2%",
      "eventCurrency": "CNY",
      "eventForecast": "8.3%"
    },
    {
      "eventDateTime": "2018-10-17T08:00:00",
      "eventActual": "1,380.0B",
      "eventCountry": "China",
      "eventExpectedVolatility": "Moderate",
      "eventName": "New Loans (Sep)",
      "eventTimeZone": "GMT",
      "eventPrevious": "1,280.0B",
      "eventCurrency": "CNY",
      "eventForecast": "1,350.0B"
    },
    {
      "eventDateTime": "2018-10-17T08:00:00",
      "eventActual": "13.2%",
      "eventCountry": "China",
      "eventExpectedVolatility": "Low",
      "eventName": "Outstanding Loan Growth (YoY) (Sep)",
      "eventTimeZone": "GMT",
      "eventPrevious": "13.2%",
      "eventCurrency": "CNY",
      "eventForecast": "13.2%"
    }
  ]}}
