"Cap Goods Ship Non Defense Ex Air (MoM)";"United States";"USD";"2018-12-21T13:30:00";"GMT";"0.8%";"";"-0.1%";"Moderate"
"Core Durable Goods Orders (MoM) (Nov)";"United States";"USD";"2018-12-21T13:30:00";"GMT";"0.4%";"0.3%";"-0.3%";"High"
"Core PCE Prices (Q3)";"United States";"USD";"2018-12-21T13:30:00";"GMT";"2.10%";"1.50%";"1.60%";"Low"
"Corporate Profits (QoQ) (Q3)";"United States";"USD";"2018-12-21T13:30:00";"GMT";"3.3%";"3.3%";"3.5%";"Low"
"Durable Goods Orders (MoM) (Nov)";"United States";"USD";"2018-12-21T13:30:00";"GMT";"-4.3%";"1.6%";"0.8%";"Moderate"
"Durables Excluding Defense (MoM) (Nov)";"United States";"USD";"2018-12-21T13:30:00";"GMT";"-1.4%";"";"-0.1%";"Low"
"GDP (QoQ) (Q3)";"United States";"USD";"2018-12-21T13:30:00";"GMT";"3.5%";"3.5%";"3.4%";"High"
"GDP Price Index (QoQ) (Q3)";"United States";"USD";"2018-12-21T13:30:00";"GMT";"1.4%";"1.4%";"1.5%";"Moderate"
"GDP Sales (Q3)";"United States";"USD";"2018-12-21T13:30:00";"GMT";"1.2%";"1.2%";"1.0%";"Low"
"Goods Orders Non Defense Ex Air (MoM) (Nov)";"United States";"USD";"2018-12-21T13:30:00";"GMT";"0.5%";"0.2%";"-0.6%";"Low"
"PCE Prices (Q3)";"United States";"USD";"2018-12-21T13:30:00";"GMT";"2.0%";"1.9%";"1.6%";"Low"
"Real Consumer Spending (Q3)";"United States";"USD";"2018-12-21T13:30:00";"GMT";"3.6%";"";"3.5%";"Low"
"Core PCE Price Index (MoM) (Nov)";"United States";"USD";"2018-12-21T15:00:00";"GMT";"0.1%";"0.2%";"0.1%";"Moderate"
"Core PCE Price Index (YoY) (Nov)";"United States";"USD";"2018-12-21T15:00:00";"GMT";"1.8%";"1.9%";"1.9%";"Moderate"
"Michigan 5-Year Inflation Expectations (Dec)";"United States";"USD";"2018-12-21T15:00:00";"GMT";"2.40%";"";"2.50%";"Low"
"Michigan Consumer Expectations (Dec)";"United States";"USD";"2018-12-21T15:00:00";"GMT";"86.1";"86.1";"87.0";"Moderate"
"Michigan Consumer Sentiment (Dec)";"United States";"USD";"2018-12-21T15:00:00";"GMT";"97.5";"97.6";"98.3";"Moderate"
"Michigan Current Conditions (Dec)";"United States";"USD";"2018-12-21T15:00:00";"GMT";"115.2";"115.2";"116.1";"Low"
"Michigan Inflation Expectations (Dec)";"United States";"USD";"2018-12-21T15:00:00";"GMT";"2.7%";"";"2.7%";"Low"
"PCE Deflator (MoM)";"United States";"USD";"2018-12-21T15:00:00";"GMT";"0.2%";"";"0.1%";"Moderate"
"PCE Deflator (YoY)";"United States";"USD";"2018-12-21T15:00:00";"GMT";"2.0%";"";"1.8%";"Moderate"
"Personal Income (MoM) (Nov)";"United States";"USD";"2018-12-21T15:00:00";"GMT";"0.5%";"0.3%";"0.2%";"Low"
"Personal Spending (MoM) (Nov)";"United States";"USD";"2018-12-21T15:00:00";"GMT";"0.8%";"0.3%";"0.4%";"Moderate"
"Real Personal Consumption (MoM) (Nov)";"United States";"USD";"2018-12-21T15:00:00";"GMT";"0.6%";"";"0.3%";"Low"
"KC Fed Composite Index (Dec)";"United States";"USD";"2018-12-21T16:00:00";"GMT";"15";"";"3";"Low"
"KC Fed Manufacturing Index (Dec)";"United States";"USD";"2018-12-21T16:00:00";"GMT";"24";"";"-18";"Low"
"U.S. Baker Hughes Oil Rig Count";"United States";"USD";"2018-12-21T18:00:00";"GMT";"873";"";"883";"Moderate"
"U.S. Baker Hughes Total Rig Count";"United States";"USD";"2018-12-21T18:00:00";"GMT";"1,071";"";"1,080";"Moderate"
"Dallas Fed PCE (Nov)";"United States";"USD";"2018-12-21T19:25:00";"GMT";"1.60%";"";"2.40%";"Low"
"CFTC Aluminium speculative net positions";"United States";"USD";"2018-12-21T20:30:00";"GMT";"9.5K";"";"9.5K";"Low"
"CFTC Copper speculative net positions";"United States";"USD";"2018-12-21T20:30:00";"GMT";"7.2K";"";"-2.7K";"Low"
"CFTC Corn speculative net positions";"United States";"USD";"2018-12-21T20:30:00";"GMT";"171.7K";"";"203.1K";"Low"
"CFTC Crude Oil speculative net positions";"United States";"USD";"2018-12-21T20:30:00";"GMT";"309.5K";"";"309.6K";"Moderate"
"CFTC Gold speculative net positions";"United States";"USD";"2018-12-21T20:30:00";"GMT";"60.5K";"";"76.0K";"Moderate"
"CFTC Natural Gas speculative net positions";"United States";"USD";"2018-12-21T20:30:00";"GMT";"22.9K";"";"15.3K";"Low"
"CFTC Sandamp:P 500 speculative net positions";"United States";"USD";"2018-12-21T20:30:00";"GMT";"174.2K";"";"210.3K";"Moderate"
"CFTC Silver speculative net positions";"United States";"USD";"2018-12-21T20:30:00";"GMT";"11.3K";"";"19.8K";"Low"
"CFTC Soybeans speculative net positions";"United States";"USD";"2018-12-21T20:30:00";"GMT";"5.9K";"";"14.5K";"Low"
"CFTC Wheat speculative net positions";"United States";"USD";"2018-12-21T20:30:00";"GMT";"1.7K";"";"17.6K";"Low"
