{"events": {"event": {
    "eventDateTime": "2017-11-17T20:30:00",
    "eventActual": "-28.0K",
    "eventCountry": "Switzerland",
    "eventExpectedVolatility": "Low",
    "eventName": "CFTC CHF speculative net positions",
    "eventTimeZone": "GMT",
    "eventPrevious": "-25.1K",
    "eventCurrency": "CHF",
    "eventForecast": ""
  }}}
