{"events": {"event": [
    {
      "eventDateTime": "2012-10-31T00:30:00",
      "eventActual": "7.8%",
      "eventCountry": "Australia",
      "eventExpectedVolatility": "Moderate",
      "eventName": "Building Approvals (MoM)",
      "eventTimeZone": "GMT",
      "eventPrevious": "8.8%",
      "eventCurrency": "AUD",
      "eventForecast": "1.0%"
    },
    {
      "eventDateTime": "2012-10-31T00:30:00",
      "eventActual": "0.3%",
      "eventCountry": "Australia",
      "eventExpectedVolatility": "Moderate",
      "eventName": "Private Sector Credit (MoM)",
      "eventTimeZone": "GMT",
      "eventPrevious": "0.2%",
      "eventCurrency": "AUD",
      "eventForecast": "0.2%"
    },
    {
      "eventDateTime": "2012-10-31T22:30:00",
      "eventActual": "45.2",
      "eventCountry": "Australia",
      "eventExpectedVolatility": "Moderate",
      "eventName": "AIG Manufacturing Index",
      "eventTimeZone": "GMT",
      "eventPrevious": "44.1",
      "eventCurrency": "AUD",
      "eventForecast": ""
    }
  ]}}
