"Continuing Jobless Claims";"United States";"USD";"2017-04-27T12:30:00";"GMT";"1,978K";"2,005K";"1,988K";"Low"
"Core Durable Goods Orders (MoM) (Mar)";"United States";"USD";"2017-04-27T12:30:00";"GMT";"0.7%";"0.4%";"-0.2%";"High"
"Durable Goods Orders (MoM) (Mar)";"United States";"USD";"2017-04-27T12:30:00";"GMT";"2.3%";"1.2%";"0.7%";"Moderate"
"Durables Excluding Defense (MoM) (Mar)";"United States";"USD";"2017-04-27T12:30:00";"GMT";"2.7%";"";"0.1%";"Low"
"Goods Orders Non Defense Ex Air (MoM) (Mar)";"United States";"USD";"2017-04-27T12:30:00";"GMT";"0.1%";"0.5%";"0.2%";"Low"
"Goods Trade Balance (Mar)";"United States";"USD";"2017-04-27T12:30:00";"GMT";"-63.90B";"-65.50B";"-64.81B";"Moderate"
"Initial Jobless Claims";"United States";"USD";"2017-04-27T12:30:00";"GMT";"243K";"245K";"257K";"Moderate"
"Jobless Claims 4-Week Avg.";"United States";"USD";"2017-04-27T12:30:00";"GMT";"242.75K";"";"242.25K";"Low"
"Wholesale Inventories (MoM)";"United States";"USD";"2017-04-27T12:30:00";"GMT";"0.4%";"0.3%";"-0.1%";"Low"
"Bloomberg Consumer Confidence";"United States";"USD";"2017-04-27T13:45:00";"GMT";"49.9";"";"50.8";"Low"
"Pending Home Sales (MoM) (Mar)";"United States";"USD";"2017-04-27T14:00:00";"GMT";"5.5%";"-1.0%";"-0.8%";"High"
"Pending Home Sales Index (Mar)";"United States";"USD";"2017-04-27T14:00:00";"GMT";"112.3";"";"111.4";"Low"
"Natural Gas Storage";"United States";"USD";"2017-04-27T14:30:00";"GMT";"54B";"72B";"74B";"Low"
"KC Fed Composite Index (Apr)";"United States";"USD";"2017-04-27T15:00:00";"GMT";"20";"17";"7";"Low"
"KC Fed Manufacturing Index (Apr)";"United States";"USD";"2017-04-27T15:00:00";"GMT";"37";"";"12";"Low"
"7-Year Note Auction";"United States";"USD";"2017-04-27T17:00:00";"GMT";"2.215%";"";"2.084%";"Low"
