{"events": {"event": [
    {
      "eventDateTime": "2017-04-27T12:30:00",
      "eventActual": "1,988K",
      "eventCountry": "United States",
      "eventExpectedVolatility": "Low",
      "eventName": "Continuing Jobless Claims",
      "eventTimeZone": "GMT",
      "eventPrevious": "1,978K",
      "eventCurrency": "USD",
      "eventForecast": "2,005K"
    },
    {
      "eventDateTime": "2017-04-27T12:30:00",
      "eventActual": "-0.2%",
      "eventCountry": "United States",
      "eventExpectedVolatility": "High",
      "eventName": "Core Durable Goods Orders (MoM) (Mar)",
      "eventTimeZone": "GMT",
      "eventPrevious": "0.7%",
      "eventCurrency": "USD",
      "eventForecast": "0.4%"
    },
    {
      "eventDateTime": "2017-04-27T12:30:00",
      "eventActual": "0.7%",
      "eventCountry": "United States",
      "eventExpectedVolatility": "Moderate",
      "eventName": "Durable Goods Orders (MoM) (Mar)",
      "eventTimeZone": "GMT",
      "eventPrevious": "2.3%",
      "eventCurrency": "USD",
      "eventForecast": "1.2%"
    },
    {
      "eventDateTime": "2017-04-27T12:30:00",
      "eventActual": "0.1%",
      "eventCountry": "United States",
      "eventExpectedVolatility": "Low",
      "eventName": "Durables Excluding Defense (MoM) (Mar)",
      "eventTimeZone": "GMT",
      "eventPrevious": "2.7%",
      "eventCurrency": "USD",
      "eventForecast": ""
    },
    {
      "eventDateTime": "2017-04-27T12:30:00",
      "eventActual": "0.2%",
      "eventCountry": "United States",
      "eventExpectedVolatility": "Low",
      "eventName": "Goods Orders Non Defense Ex Air (MoM) (Mar)",
      "eventTimeZone": "GMT",
      "eventPrevious": "0.1%",
      "eventCurrency": "USD",
      "eventForecast": "0.5%"
    },
    {
      "eventDateTime": "2017-04-27T12:30:00",
      "eventActual": "-64.81B",
      "eventCountry": "United States",
      "eventExpectedVolatility": "Moderate",
      "eventName": "Goods Trade Balance (Mar)",
      "eventTimeZone": "GMT",
      "eventPrevious": "-63.90B",
      "eventCurrency": "USD",
      "eventForecast": "-65.50B"
    },
    {
      "eventDateTime": "2017-04-27T12:30:00",
      "eventActual": "257K",
      "eventCountry": "United States",
      "eventExpectedVolatility": "Moderate",
      "eventName": "Initial Jobless Claims",
      "eventTimeZone": "GMT",
      "eventPrevious": "243K",
      "eventCurrency": "USD",
      "eventForecast": "245K"
    },
    {
      "eventDateTime": "2017-04-27T12:30:00",
      "eventActual": "242.25K",
      "eventCountry": "United States",
      "eventExpectedVolatility": "Low",
      "eventName": "Jobless Claims 4-Week Avg.",
      "eventTimeZone": "GMT",
      "eventPrevious": "242.75K",
      "eventCurrency": "USD",
      "eventForecast": ""
    },
    {
      "eventDateTime": "2017-04-27T12:30:00",
      "eventActual": "-0.1%",
      "eventCountry": "United States",
      "eventExpectedVolatility": "Low",
      "eventName": "Wholesale Inventories (MoM)",
      "eventTimeZone": "GMT",
      "eventPrevious": "0.4%",
      "eventCurrency": "USD",
      "eventForecast": "0.3%"
    },
    {
      "eventDateTime": "2017-04-27T13:45:00",
      "eventActual": "50.8",
      "eventCountry": "United States",
      "eventExpectedVolatility": "Low",
      "eventName": "Bloomberg Consumer Confidence",
      "eventTimeZone": "GMT",
      "eventPrevious": "49.9",
      "eventCurrency": "USD",
      "eventForecast": ""
    },
    {
      "eventDateTime": "2017-04-27T14:00:00",
      "eventActual": "-0.8%",
      "eventCountry": "United States",
      "eventExpectedVolatility": "High",
      "eventName": "Pending Home Sales (MoM) (Mar)",
      "eventTimeZone": "GMT",
      "eventPrevious": "5.5%",
      "eventCurrency": "USD",
      "eventForecast": "-1.0%"
    },
    {
      "eventDateTime": "2017-04-27T14:00:00",
      "eventActual": "111.4",
      "eventCountry": "United States",
      "eventExpectedVolatility": "Low",
      "eventName": "Pending Home Sales Index (Mar)",
      "eventTimeZone": "GMT",
      "eventPrevious": "112.3",
      "eventCurrency": "USD",
      "eventForecast": ""
    },
    {
      "eventDateTime": "2017-04-27T14:30:00",
      "eventActual": "74B",
      "eventCountry": "United States",
      "eventExpectedVolatility": "Low",
      "eventName": "Natural Gas Storage",
      "eventTimeZone": "GMT",
      "eventPrevious": "54B",
      "eventCurrency": "USD",
      "eventForecast": "72B"
    },
    {
      "eventDateTime": "2017-04-27T15:00:00",
      "eventActual": "7",
      "eventCountry": "United States",
      "eventExpectedVolatility": "Low",
      "eventName": "KC Fed Composite Index (Apr)",
      "eventTimeZone": "GMT",
      "eventPrevious": "20",
      "eventCurrency": "USD",
      "eventForecast": "17"
    },
    {
      "eventDateTime": "2017-04-27T15:00:00",
      "eventActual": "12",
      "eventCountry": "United States",
      "eventExpectedVolatility": "Low",
      "eventName": "KC Fed Manufacturing Index (Apr)",
      "eventTimeZone": "GMT",
      "eventPrevious": "37",
      "eventCurrency": "USD",
      "eventForecast": ""
    },
    {
      "eventDateTime": "2017-04-27T17:00:00",
      "eventActual": "2.084%",
      "eventCountry": "United States",
      "eventExpectedVolatility": "Low",
      "eventName": "7-Year Note Auction",
      "eventTimeZone": "GMT",
      "eventPrevious": "2.215%",
      "eventCurrency": "USD",
      "eventForecast": ""
    }
  ]}}
