{"events": {"event": {
    "eventDateTime": "2015-05-20T00:30:00",
    "eventActual": "6.4%",
    "eventCountry": "Australia",
    "eventExpectedVolatility": "Moderate",
    "eventName": "Westpac Consumer Sentiment (May)",
    "eventTimeZone": "GMT",
    "eventPrevious": "-3.2%",
    "eventCurrency": "AUD",
    "eventForecast": ""
  }}}
