"Industrial Production (MoM)";"United Kingdom";"GBP";"2008-07-07T08:30:00";"GMT";"0.2%";"-0.1%";"-0.8%";"Moderate"
"Manufacturing Production (MoM)";"United Kingdom";"GBP";"2008-07-07T08:30:00";"GMT";"0.1%";"0.0%";"-0.5%";"High"
"NIESR GDP Estimate";"United Kingdom";"GBP";"2008-07-07T23:01:00";"GMT";"0.2%";"";"0.2%";"Moderate"
