"Investing.com USD/CHF Index";"Switzerland";"CHF";"2014-09-08T05:00:00";"GMT";"51.0%";"";"49.5%";"Moderate"
"Unemployment Rate n.s.a.";"Switzerland";"CHF";"2014-09-08T05:45:00";"GMT";"2.9%";"3.0%";"3.0%";"Moderate"
"Unemployment Rate s.a.";"Switzerland";"CHF";"2014-09-08T05:45:00";"GMT";"3.2%";"3.2%";"3.2%";"Moderate"
"CPI (MoM)";"Switzerland";"CHF";"2014-09-08T07:15:00";"GMT";"-0.4%";"-0.1%";"0.0%";"Moderate"
"CPI (YoY)";"Switzerland";"CHF";"2014-09-08T07:15:00";"GMT";"0.0%";"0.0%";"0.1%";"Low"
"Retail Sales (YoY)";"Switzerland";"CHF";"2014-09-08T07:15:00";"GMT";"3.3%";"2.6%";"-0.6%";"Moderate"
