{"events": {"event": {
    "eventDateTime": "2016-06-12T23:50:00",
    "eventActual": "-11.1",
    "eventCountry": "Japan",
    "eventExpectedVolatility": "Moderate",
    "eventName": "BSI Large Manufacturing Conditions (Q2)",
    "eventTimeZone": "GMT",
    "eventPrevious": "-7.9",
    "eventCurrency": "JPY",
    "eventForecast": "-2.1"
  }}}
