{"events": {"event": [
    {
      "eventDateTime": "2009-05-01T09:00:00",
      "eventActual": "-0.20%",
      "eventCountry": "China",
      "eventExpectedVolatility": "Moderate",
      "eventName": "CPI (MoM) (Apr)",
      "eventTimeZone": "GMT",
      "eventPrevious": "-0.30%",
      "eventCurrency": "CNY",
      "eventForecast": ""
    },
    {
      "eventDateTime": "2009-05-01T09:00:00",
      "eventActual": "-1.50%",
      "eventCountry": "China",
      "eventExpectedVolatility": "Moderate",
      "eventName": "CPI (YoY) (Apr)",
      "eventTimeZone": "GMT",
      "eventPrevious": "-1.20%",
      "eventCurrency": "CNY",
      "eventForecast": ""
    },
    {
      "eventDateTime": "2009-05-01T09:00:00",
      "eventActual": "-22.80%",
      "eventCountry": "China",
      "eventExpectedVolatility": "Moderate",
      "eventName": "Exports (YoY) (Apr)",
      "eventTimeZone": "GMT",
      "eventPrevious": "-17.20%",
      "eventCurrency": "CNY",
      "eventForecast": ""
    },
    {
      "eventDateTime": "2009-05-01T09:00:00",
      "eventActual": "-20.98%",
      "eventCountry": "China",
      "eventExpectedVolatility": "Low",
      "eventName": "FDI (Apr)",
      "eventTimeZone": "GMT",
      "eventPrevious": "-20.56%",
      "eventCurrency": "CNY",
      "eventForecast": ""
    },
    {
      "eventDateTime": "2009-05-01T09:00:00",
      "eventActual": "30.50%",
      "eventCountry": "China",
      "eventExpectedVolatility": "Moderate",
      "eventName": "Fixed Asset Investment (YoY) (Apr)",
      "eventTimeZone": "GMT",
      "eventPrevious": "28.60%",
      "eventCurrency": "CNY",
      "eventForecast": ""
    },
    {
      "eventDateTime": "2009-05-01T09:00:00",
      "eventActual": "-23.00%",
      "eventCountry": "China",
      "eventExpectedVolatility": "Moderate",
      "eventName": "Imports (YoY) (Apr)",
      "eventTimeZone": "GMT",
      "eventPrevious": "-25.10%",
      "eventCurrency": "CNY",
      "eventForecast": ""
    },
    {
      "eventDateTime": "2009-05-01T09:00:00",
      "eventActual": "7.30%",
      "eventCountry": "China",
      "eventExpectedVolatility": "High",
      "eventName": "Industrial Production (YoY) (Apr)",
      "eventTimeZone": "GMT",
      "eventPrevious": "8.30%",
      "eventCurrency": "CNY",
      "eventForecast": ""
    },
    {
      "eventDateTime": "2009-05-01T09:00:00",
      "eventActual": "26.00%",
      "eventCountry": "China",
      "eventExpectedVolatility": "Low",
      "eventName": "M2 Money Stock (YoY) (Apr)",
      "eventTimeZone": "GMT",
      "eventPrevious": "25.50%",
      "eventCurrency": "CNY",
      "eventForecast": ""
    },
    {
      "eventDateTime": "2009-05-01T09:00:00",
      "eventActual": "53.50",
      "eventCountry": "China",
      "eventExpectedVolatility": "High",
      "eventName": "Manufacturing PMI (Apr)",
      "eventTimeZone": "GMT",
      "eventPrevious": "52.40",
      "eventCurrency": "CNY",
      "eventForecast": ""
    },
    {
      "eventDateTime": "2009-05-01T09:00:00",
      "eventActual": "591.80B",
      "eventCountry": "China",
      "eventExpectedVolatility": "Moderate",
      "eventName": "New Loans (Apr)",
      "eventTimeZone": "GMT",
      "eventPrevious": "1,890.00B",
      "eventCurrency": "CNY",
      "eventForecast": ""
    },
    {
      "eventDateTime": "2009-05-01T09:00:00",
      "eventActual": "53.50",
      "eventCountry": "China",
      "eventExpectedVolatility": "Moderate",
      "eventName": "Non-Manufacturing PMI (Apr)",
      "eventTimeZone": "GMT",
      "eventPrevious": "54.40",
      "eventCurrency": "CNY",
      "eventForecast": ""
    },
    {
      "eventDateTime": "2009-05-01T09:00:00",
      "eventActual": "29.70%",
      "eventCountry": "China",
      "eventExpectedVolatility": "Low",
      "eventName": "Outstanding Loan Growth (YoY) (Apr)",
      "eventTimeZone": "GMT",
      "eventPrevious": "29.80%",
      "eventCurrency": "CNY",
      "eventForecast": ""
    },
    {
      "eventDateTime": "2009-05-01T09:00:00",
      "eventActual": "2.25%",
      "eventCountry": "China",
      "eventExpectedVolatility": "Moderate",
      "eventName": "PBoC Deposit Rate (Apr)",
      "eventTimeZone": "GMT",
      "eventPrevious": "2.25%",
      "eventCurrency": "CNY",
      "eventForecast": ""
    },
    {
      "eventDateTime": "2009-05-01T09:00:00",
      "eventActual": "15.50%",
      "eventCountry": "China",
      "eventExpectedVolatility": "Moderate",
      "eventName": "PBoC Reserve Requirement Ratio (Apr)",
      "eventTimeZone": "GMT",
      "eventPrevious": "15.50%",
      "eventCurrency": "CNY",
      "eventForecast": ""
    },
    {
      "eventDateTime": "2009-05-01T09:00:00",
      "eventActual": "-6.60%",
      "eventCountry": "China",
      "eventExpectedVolatility": "Moderate",
      "eventName": "PPI (YoY) (Apr)",
      "eventTimeZone": "GMT",
      "eventPrevious": "-6.00%",
      "eventCurrency": "CNY",
      "eventForecast": ""
    },
    {
      "eventDateTime": "2009-05-01T09:00:00",
      "eventActual": "14.80%",
      "eventCountry": "China",
      "eventExpectedVolatility": "Low",
      "eventName": "Retail Sales (YoY) (Apr)",
      "eventTimeZone": "GMT",
      "eventPrevious": "14.70%",
      "eventCurrency": "CNY",
      "eventForecast": ""
    },
    {
      "eventDateTime": "2009-05-01T09:00:00",
      "eventActual": "12.94B",
      "eventCountry": "China",
      "eventExpectedVolatility": "Moderate",
      "eventName": "Trade Balance (USD) (Apr)",
      "eventTimeZone": "GMT",
      "eventPrevious": "18.37B",
      "eventCurrency": "CNY",
      "eventForecast": ""
    }
  ]}}
