{"events": {"event": {
    "eventDateTime": "2015-11-26T12:00:00",
    "eventActual": "364.5B",
    "eventCountry": "Russia",
    "eventExpectedVolatility": "Moderate",
    "eventName": "Central Bank reserves (USD)",
    "eventTimeZone": "GMT",
    "eventPrevious": "364.1B",
    "eventCurrency": "RUB",
    "eventForecast": ""
  }}}
