{"events": {"event": [
    {
      "eventDateTime": "2016-11-14T00:01:00",
      "eventActual": "-1.1%",
      "eventCountry": "United Kingdom",
      "eventExpectedVolatility": "Low",
      "eventName": "Rightmove House Price Index (MoM)",
      "eventTimeZone": "GMT",
      "eventPrevious": "0.9%",
      "eventCurrency": "GBP",
      "eventForecast": ""
    },
    {
      "eventDateTime": "2016-11-14T20:30:00",
      "eventActual": "-89.8K",
      "eventCountry": "United Kingdom",
      "eventExpectedVolatility": "Moderate",
      "eventName": "CFTC GBP speculative net positions",
      "eventTimeZone": "GMT",
      "eventPrevious": "-83.0K",
      "eventCurrency": "GBP",
      "eventForecast": ""
    }
  ]}}
