{"events": {"event": [
    {
      "eventDateTime": "2018-03-28T00:00:00",
      "eventActual": "-20.0",
      "eventCountry": "New Zealand",
      "eventExpectedVolatility": "Moderate",
      "eventName": "ANZ Business Confidence (Mar)",
      "eventTimeZone": "GMT",
      "eventPrevious": "-19.0",
      "eventCurrency": "NZD",
      "eventForecast": ""
    },
    {
      "eventDateTime": "2018-03-28T00:00:00",
      "eventActual": "21.8%",
      "eventCountry": "New Zealand",
      "eventExpectedVolatility": "Low",
      "eventName": "NBNZ Own Activity (Mar)",
      "eventTimeZone": "GMT",
      "eventPrevious": "20.4%",
      "eventCurrency": "NZD",
      "eventForecast": ""
    },
    {
      "eventDateTime": "2018-03-28T21:45:00",
      "eventActual": "5.7%",
      "eventCountry": "New Zealand",
      "eventExpectedVolatility": "Moderate",
      "eventName": "Building Consents (MoM) (Feb)",
      "eventTimeZone": "GMT",
      "eventPrevious": "0.2%",
      "eventCurrency": "NZD",
      "eventForecast": ""
    }
  ]}}
