"Industrial Production (MoM) (Apr)";"South Korea";"KRW";"2019-05-30T23:00:00";"GMT";"2.1%";"0.5%";"1.6%";"Low"
"Industrial Production (YoY) (Apr)";"South Korea";"KRW";"2019-05-30T23:00:00";"GMT";"-2.3%";"-2.2%";"-0.1%";"Low"
"Retail Sales (MoM)";"South Korea";"KRW";"2019-05-30T23:00:00";"GMT";"3.5%";"";"-1.2%";"Low"
"Service Sector Output (MoM) (Apr)";"South Korea";"KRW";"2019-05-30T23:00:00";"GMT";"0.2%";"";"0.3%";"Low"
