"MBA 30-Year Mortgage Rate";"United States";"USD";"2019-11-06T12:00:00";"GMT";"4.05%";"";"3.98%";"Low"
"MBA Mortgage Applications (WoW)";"United States";"USD";"2019-11-06T12:00:00";"GMT";"0.6%";"";"-0.1%";"Low"
"MBA Purchase Index";"United States";"USD";"2019-11-06T12:00:00";"GMT";"247.2";"";"241.0";"Low"
"Mortgage Market Index";"United States";"USD";"2019-11-06T12:00:00";"GMT";"519.2";"";"518.7";"Low"
"Mortgage Refinance Index";"United States";"USD";"2019-11-06T12:00:00";"GMT";"2,066.0";"";"2,102.7";"Low"
"Chicago Fed President Evans Speaks";"United States";"USD";"2019-11-06T13:00:00";"GMT";" ";"";"";"Low"
"Nonfarm Productivity (QoQ) (Q3)";"United States";"USD";"2019-11-06T13:30:00";"GMT";"2.5%";"0.9%";"-0.3%";"Moderate"
"Unit Labor Costs (QoQ) (Q3)";"United States";"USD";"2019-11-06T13:30:00";"GMT";"2.4%";"2.2%";"3.6%";"Moderate"
"FOMC Member Williams Speaks";"United States";"USD";"2019-11-06T14:30:00";"GMT";" ";"";"";"Moderate"
"Crude Oil Imports";"United States";"USD";"2019-11-06T15:30:00";"GMT";"1.196M";"";"0.336M";"Low"
"Crude Oil Inventories";"United States";"USD";"2019-11-06T15:30:00";"GMT";"5.702M";"1.515M";"7.929M";"High"
"Cushing Crude Oil Inventories";"United States";"USD";"2019-11-06T15:30:00";"GMT";"1.572M";"";"1.714M";"Moderate"
"Distillate Fuel Production";"United States";"USD";"2019-11-06T15:30:00";"GMT";"0.205M";"";"-0.095M";"Low"
"EIA Refinery Crude Runs (WoW)";"United States";"USD";"2019-11-06T15:30:00";"GMT";"0.133M";"";"-0.237M";"Low"
"EIA Weekly Distillates Stocks";"United States";"USD";"2019-11-06T15:30:00";"GMT";"-1.032M";"-0.949M";"-0.622M";"Low"
"EIA Weekly Refinery Utilization Rates (WoW)";"United States";"USD";"2019-11-06T15:30:00";"GMT";"2.5%";"0.8%";"-1.7%";"Low"
"Gasoline Inventories";"United States";"USD";"2019-11-06T15:30:00";"GMT";"-3.037M";"-1.809M";"-2.828M";"Low"
"Gasoline Production";"United States";"USD";"2019-11-06T15:30:00";"GMT";"0.086M";"";"-0.148M";"Low"
"Heating Oil Stockpiles";"United States";"USD";"2019-11-06T15:30:00";"GMT";"0.087M";"";"0.106M";"Low"
"10-Year Note Auction";"United States";"USD";"2019-11-06T18:00:00";"GMT";"1.590%";"";"1.809%";"Moderate"
"FOMC Member Harker Speaks";"United States";"USD";"2019-11-06T20:15:00";"GMT";" ";"";"";"Moderate"
"FOMC Member Williams Speaks";"United States";"USD";"2019-11-06T23:30:00";"GMT";" ";"";"";"Moderate"
