{"events": {"event": [
    {
      "eventDateTime": "2015-12-09T06:00:00",
      "eventActual": "-17.9%",
      "eventCountry": "Japan",
      "eventExpectedVolatility": "Low",
      "eventName": "Machine Tool Orders (YoY)",
      "eventTimeZone": "GMT",
      "eventPrevious": "-22.9%",
      "eventCurrency": "JPY",
      "eventForecast": ""
    },
    {
      "eventDateTime": "2015-12-09T23:50:00",
      "eventActual": "3.8",
      "eventCountry": "Japan",
      "eventExpectedVolatility": "Moderate",
      "eventName": "BSI Large Manufacturing Conditions (Q4)",
      "eventTimeZone": "GMT",
      "eventPrevious": "11.0",
      "eventCurrency": "JPY",
      "eventForecast": "12.1"
    },
    {
      "eventDateTime": "2015-12-09T23:50:00",
      "eventActual": "73.1B",
      "eventCountry": "Japan",
      "eventExpectedVolatility": "Low",
      "eventName": "Foreign Bonds Buying",
      "eventTimeZone": "GMT",
      "eventPrevious": "-156.6B",
      "eventCurrency": "JPY",
      "eventForecast": ""
    },
    {
      "eventDateTime": "2015-12-09T23:50:00",
      "eventActual": "104.6B",
      "eventCountry": "Japan",
      "eventExpectedVolatility": "Low",
      "eventName": "Foreign Investments in Japanese Stocks",
      "eventTimeZone": "GMT",
      "eventPrevious": "-54.6B",
      "eventCurrency": "JPY",
      "eventForecast": ""
    },
    {
      "eventDateTime": "2015-12-09T23:50:00",
      "eventActual": "-0.1%",
      "eventCountry": "Japan",
      "eventExpectedVolatility": "Low",
      "eventName": "PPI (MoM) (Nov)",
      "eventTimeZone": "GMT",
      "eventPrevious": "-0.6%",
      "eventCurrency": "JPY",
      "eventForecast": "-0.3%"
    },
    {
      "eventDateTime": "2015-12-09T23:50:00",
      "eventActual": "-3.6%",
      "eventCountry": "Japan",
      "eventExpectedVolatility": "Low",
      "eventName": "PPI (YoY) (Nov)",
      "eventTimeZone": "GMT",
      "eventPrevious": "-3.8%",
      "eventCurrency": "JPY",
      "eventForecast": "-3.8%"
    }
  ]}}
