{"events": {"event": {
    "eventDateTime": "2018-02-08T00:00:00",
    "eventActual": "",
    "eventCountry": "New Zealand",
    "eventExpectedVolatility": "Moderate",
    "eventName": "RBNZ Gov Spencer Speaks",
    "eventTimeZone": "GMT",
    "eventPrevious": "",
    "eventCurrency": "NZD",
    "eventForecast": ""
  }}}
