"French Consumer Spending (MoM)";"France";"EUR";"2009-02-24T07:45:00";"GMT";"-0.9%";"0.2%";"1.8%";"Moderate"
"Current Account";"Euro Zone";"EUR";"2009-02-24T09:00:00";"GMT";"-16.0B";"-14.3B";"-7.3B";"Low"
"German Ifo Business Climate Index";"Germany";"EUR";"2009-02-24T09:00:00";"GMT";"81.8";"";"81.2";"High"
"Industrial New Orders (MoM)";"Euro Zone";"EUR";"2009-02-24T10:00:00";"GMT";"-4.5%";"-5.2%";"-5.2%";"Moderate"
