{"events": {"event": [
    {
      "eventDateTime": "2018-02-07T11:00:00",
      "eventActual": "",
      "eventCountry": "United States",
      "eventExpectedVolatility": "Moderate",
      "eventName": "FOMC Member Kaplan Speaks",
      "eventTimeZone": "GMT",
      "eventPrevious": "",
      "eventCurrency": "USD",
      "eventForecast": ""
    },
    {
      "eventDateTime": "2018-02-07T12:00:00",
      "eventActual": "4.50%",
      "eventCountry": "United States",
      "eventExpectedVolatility": "Low",
      "eventName": "MBA 30-Year Mortgage Rate",
      "eventTimeZone": "GMT",
      "eventPrevious": "4.41%",
      "eventCurrency": "USD",
      "eventForecast": ""
    },
    {
      "eventDateTime": "2018-02-07T12:00:00",
      "eventActual": "0.7%",
      "eventCountry": "United States",
      "eventExpectedVolatility": "Low",
      "eventName": "MBA Mortgage Applications (WoW)",
      "eventTimeZone": "GMT",
      "eventPrevious": "-2.6%",
      "eventCurrency": "USD",
      "eventForecast": ""
    },
    {
      "eventDateTime": "2018-02-07T12:00:00",
      "eventActual": "255.4",
      "eventCountry": "United States",
      "eventExpectedVolatility": "Low",
      "eventName": "MBA Purchase Index",
      "eventTimeZone": "GMT",
      "eventPrevious": "255.5",
      "eventCurrency": "USD",
      "eventForecast": ""
    },
    {
      "eventDateTime": "2018-02-07T12:00:00",
      "eventActual": "416.3",
      "eventCountry": "United States",
      "eventExpectedVolatility": "Low",
      "eventName": "Mortgage Market Index",
      "eventTimeZone": "GMT",
      "eventPrevious": "413.4",
      "eventCurrency": "USD",
      "eventForecast": ""
    },
    {
      "eventDateTime": "2018-02-07T12:00:00",
      "eventActual": "1,299.3",
      "eventCountry": "United States",
      "eventExpectedVolatility": "Low",
      "eventName": "Mortgage Refinance Index",
      "eventTimeZone": "GMT",
      "eventPrevious": "1,288.0",
      "eventCurrency": "USD",
      "eventForecast": ""
    },
    {
      "eventDateTime": "2018-02-07T13:30:00",
      "eventActual": "",
      "eventCountry": "United States",
      "eventExpectedVolatility": "Moderate",
      "eventName": "FOMC Member Dudley Speaks",
      "eventTimeZone": "GMT",
      "eventPrevious": "",
      "eventCurrency": "USD",
      "eventForecast": ""
    },
    {
      "eventDateTime": "2018-02-07T15:15:00",
      "eventActual": "",
      "eventCountry": "United States",
      "eventExpectedVolatility": "Low",
      "eventName": "Chicago Fed President Evans Speaks",
      "eventTimeZone": "GMT",
      "eventPrevious": "",
      "eventCurrency": "USD",
      "eventForecast": ""
    },
    {
      "eventDateTime": "2018-02-07T15:30:00",
      "eventActual": "-0.060M",
      "eventCountry": "United States",
      "eventExpectedVolatility": "Low",
      "eventName": "Crude Oil Imports",
      "eventTimeZone": "GMT",
      "eventPrevious": "0.035M",
      "eventCurrency": "USD",
      "eventForecast": ""
    },
    {
      "eventDateTime": "2018-02-07T15:30:00",
      "eventActual": "1.895M",
      "eventCountry": "United States",
      "eventExpectedVolatility": "High",
      "eventName": "Crude Oil Inventories",
      "eventTimeZone": "GMT",
      "eventPrevious": "6.776M",
      "eventCurrency": "USD",
      "eventForecast": "3.189M"
    },
    {
      "eventDateTime": "2018-02-07T15:30:00",
      "eventActual": "-0.711M",
      "eventCountry": "United States",
      "eventExpectedVolatility": "Moderate",
      "eventName": "Cushing Crude Oil Inventories",
      "eventTimeZone": "GMT",
      "eventPrevious": "-2.224M",
      "eventCurrency": "USD",
      "eventForecast": ""
    },
    {
      "eventDateTime": "2018-02-07T15:30:00",
      "eventActual": "0.516M",
      "eventCountry": "United States",
      "eventExpectedVolatility": "Low",
      "eventName": "Distillate Fuel Production",
      "eventTimeZone": "GMT",
      "eventPrevious": "-0.214M",
      "eventCurrency": "USD",
      "eventForecast": ""
    },
    {
      "eventDateTime": "2018-02-07T15:30:00",
      "eventActual": "3.926M",
      "eventCountry": "United States",
      "eventExpectedVolatility": "Low",
      "eventName": "EIA Weekly Distillates Stocks",
      "eventTimeZone": "GMT",
      "eventPrevious": "-1.940M",
      "eventCurrency": "USD",
      "eventForecast": "-1.419M"
    },
    {
      "eventDateTime": "2018-02-07T15:30:00",
      "eventActual": "3.414M",
      "eventCountry": "United States",
      "eventExpectedVolatility": "Low",
      "eventName": "Gasoline Inventories",
      "eventTimeZone": "GMT",
      "eventPrevious": "-1.980M",
      "eventCurrency": "USD",
      "eventForecast": "0.459M"
    },
    {
      "eventDateTime": "2018-02-07T15:30:00",
      "eventActual": "0.518M",
      "eventCountry": "United States",
      "eventExpectedVolatility": "Low",
      "eventName": "Gasoline Production",
      "eventTimeZone": "GMT",
      "eventPrevious": "0.209M",
      "eventCurrency": "USD",
      "eventForecast": ""
    },
    {
      "eventDateTime": "2018-02-07T15:30:00",
      "eventActual": "1.274M",
      "eventCountry": "United States",
      "eventExpectedVolatility": "Low",
      "eventName": "Heating Oil Stockpiles",
      "eventTimeZone": "GMT",
      "eventPrevious": "-0.021M",
      "eventCurrency": "USD",
      "eventForecast": ""
    },
    {
      "eventDateTime": "2018-02-07T18:00:00",
      "eventActual": "2.811%",
      "eventCountry": "United States",
      "eventExpectedVolatility": "Moderate",
      "eventName": "10-Year Note Auction",
      "eventTimeZone": "GMT",
      "eventPrevious": "2.579%",
      "eventCurrency": "USD",
      "eventForecast": ""
    },
    {
      "eventDateTime": "2018-02-07T20:00:00",
      "eventActual": "18.45B",
      "eventCountry": "United States",
      "eventExpectedVolatility": "Low",
      "eventName": "Consumer Credit (Dec)",
      "eventTimeZone": "GMT",
      "eventPrevious": "31.02B",
      "eventCurrency": "USD",
      "eventForecast": "19.30B"
    },
    {
      "eventDateTime": "2018-02-07T22:20:00",
      "eventActual": "",
      "eventCountry": "United States",
      "eventExpectedVolatility": "Moderate",
      "eventName": "FOMC Member Williams Speaks",
      "eventTimeZone": "GMT",
      "eventPrevious": "",
      "eventCurrency": "USD",
      "eventForecast": ""
    }
  ]}}
