{"events": {"event": {
    "eventDateTime": "2010-11-28T23:50:00",
    "eventActual": "-0.2%",
    "eventCountry": "Japan",
    "eventExpectedVolatility": "Moderate",
    "eventName": "Retail Sales (YoY)",
    "eventTimeZone": "GMT",
    "eventPrevious": "1.4%",
    "eventCurrency": "JPY",
    "eventForecast": "0.7%"
  }}}
