{"events": {"event": [
    {
      "eventDateTime": "2012-08-01T07:13:00",
      "eventActual": "42.3",
      "eventCountry": "Spain",
      "eventExpectedVolatility": "Moderate",
      "eventName": "Spanish Manufacturing PMI",
      "eventTimeZone": "GMT",
      "eventPrevious": "41.1",
      "eventCurrency": "EUR",
      "eventForecast": "40.5"
    },
    {
      "eventDateTime": "2012-08-01T07:45:00",
      "eventActual": "44.30",
      "eventCountry": "Italy",
      "eventExpectedVolatility": "Moderate",
      "eventName": "Italian Manufacturing PMI",
      "eventTimeZone": "GMT",
      "eventPrevious": "44.60",
      "eventCurrency": "EUR",
      "eventForecast": "44.20"
    },
    {
      "eventDateTime": "2012-08-01T07:50:00",
      "eventActual": "43.4",
      "eventCountry": "France",
      "eventExpectedVolatility": "Moderate",
      "eventName": "French Manufacturing PMI",
      "eventTimeZone": "GMT",
      "eventPrevious": "43.6",
      "eventCurrency": "EUR",
      "eventForecast": "43.6"
    },
    {
      "eventDateTime": "2012-08-01T07:55:00",
      "eventActual": "43.0",
      "eventCountry": "Germany",
      "eventExpectedVolatility": "High",
      "eventName": "German Manufacturing PMI",
      "eventTimeZone": "GMT",
      "eventPrevious": "43.3",
      "eventCurrency": "EUR",
      "eventForecast": "43.3"
    },
    {
      "eventDateTime": "2012-08-01T08:00:00",
      "eventActual": "44.0",
      "eventCountry": "Euro Zone",
      "eventExpectedVolatility": "Moderate",
      "eventName": "Manufacturing PMI",
      "eventTimeZone": "GMT",
      "eventPrevious": "44.1",
      "eventCurrency": "EUR",
      "eventForecast": "44.1"
    },
    {
      "eventDateTime": "2012-08-01T09:00:00",
      "eventActual": "-1.17",
      "eventCountry": "Euro Zone",
      "eventExpectedVolatility": "Low",
      "eventName": "Business Climate (Jul)",
      "eventTimeZone": "GMT",
      "eventPrevious": "-0.83",
      "eventCurrency": "EUR",
      "eventForecast": ""
    },
    {
      "eventDateTime": "2012-08-01T09:00:00",
      "eventActual": "-0.50%",
      "eventCountry": "Euro Zone",
      "eventExpectedVolatility": "Moderate",
      "eventName": "CPI (MoM) (Jul)",
      "eventTimeZone": "GMT",
      "eventPrevious": "-0.10%",
      "eventCurrency": "EUR",
      "eventForecast": ""
    },
    {
      "eventDateTime": "2012-08-01T09:00:00",
      "eventActual": "-0.55%",
      "eventCountry": "Euro Zone",
      "eventExpectedVolatility": "Low",
      "eventName": "CPI ex Tobacco (MoM) (Jul)",
      "eventTimeZone": "GMT",
      "eventPrevious": "-0.08%",
      "eventCurrency": "EUR",
      "eventForecast": ""
    },
    {
      "eventDateTime": "2012-08-01T09:00:00",
      "eventActual": "2.32%",
      "eventCountry": "Euro Zone",
      "eventExpectedVolatility": "Low",
      "eventName": "CPI ex Tobacco (YoY) (Jul)",
      "eventTimeZone": "GMT",
      "eventPrevious": "2.26%",
      "eventCurrency": "EUR",
      "eventForecast": ""
    },
    {
      "eventDateTime": "2012-08-01T09:00:00",
      "eventActual": "21.80",
      "eventCountry": "Euro Zone",
      "eventExpectedVolatility": "Low",
      "eventName": "Consumer Inflation Expectation (Jul)",
      "eventTimeZone": "GMT",
      "eventPrevious": "19.90",
      "eventCurrency": "EUR",
      "eventForecast": ""
    },
    {
      "eventDateTime": "2012-08-01T09:00:00",
      "eventActual": "-0.80%",
      "eventCountry": "Euro Zone",
      "eventExpectedVolatility": "Low",
      "eventName": "Core CPI (MoM) (Jul)",
      "eventTimeZone": "GMT",
      "eventPrevious": "0.10%",
      "eventCurrency": "EUR",
      "eventForecast": ""
    },
    {
      "eventDateTime": "2012-08-01T09:00:00",
      "eventActual": "23.10B",
      "eventCountry": "Euro Zone",
      "eventExpectedVolatility": "Low",
      "eventName": "Current Account n.s.a. (Jul)",
      "eventTimeZone": "GMT",
      "eventPrevious": "22.80B",
      "eventCurrency": "EUR",
      "eventForecast": ""
    },
    {
      "eventDateTime": "2012-08-01T09:00:00",
      "eventActual": "36.61B",
      "eventCountry": "France",
      "eventExpectedVolatility": "Low",
      "eventName": "French Exports (Jul)",
      "eventTimeZone": "GMT",
      "eventPrevious": "36.29B",
      "eventCurrency": "EUR",
      "eventForecast": ""
    },
    {
      "eventDateTime": "2012-08-01T09:00:00",
      "eventActual": "-0.50%",
      "eventCountry": "France",
      "eventExpectedVolatility": "Moderate",
      "eventName": "French HICP (MoM) (Jul)",
      "eventTimeZone": "GMT",
      "eventPrevious": "0.10%",
      "eventCurrency": "EUR",
      "eventForecast": ""
    },
    {
      "eventDateTime": "2012-08-01T09:00:00",
      "eventActual": "2.24%",
      "eventCountry": "France",
      "eventExpectedVolatility": "Low",
      "eventName": "French HICP (YoY) (Jul)",
      "eventTimeZone": "GMT",
      "eventPrevious": "2.26%",
      "eventCurrency": "EUR",
      "eventForecast": ""
    },
    {
      "eventDateTime": "2012-08-01T09:00:00",
      "eventActual": "40.97B",
      "eventCountry": "France",
      "eventExpectedVolatility": "Low",
      "eventName": "French Imports (Jul)",
      "eventTimeZone": "GMT",
      "eventPrevious": "42.56B",
      "eventCurrency": "EUR",
      "eventForecast": ""
    },
    {
      "eventDateTime": "2012-08-01T09:00:00",
      "eventActual": "47.50",
      "eventCountry": "Germany",
      "eventExpectedVolatility": "Low",
      "eventName": "German Composite PMI (Jul)",
      "eventTimeZone": "GMT",
      "eventPrevious": "48.10",
      "eventCurrency": "EUR",
      "eventForecast": ""
    },
    {
      "eventDateTime": "2012-08-01T09:00:00",
      "eventActual": "-0.14%",
      "eventCountry": "Germany",
      "eventExpectedVolatility": "Low",
      "eventName": "German Exports (MoM) (Jul)",
      "eventTimeZone": "GMT",
      "eventPrevious": "-1.46%",
      "eventCurrency": "EUR",
      "eventForecast": ""
    },
    {
      "eventDateTime": "2012-08-01T09:00:00",
      "eventActual": "0.40%",
      "eventCountry": "Germany",
      "eventExpectedVolatility": "Low",
      "eventName": "German HICP (MoM) (Jul)",
      "eventTimeZone": "GMT",
      "eventPrevious": "-0.20%",
      "eventCurrency": "EUR",
      "eventForecast": ""
    },
    {
      "eventDateTime": "2012-08-01T09:00:00",
      "eventActual": "2.00%",
      "eventCountry": "Germany",
      "eventExpectedVolatility": "Low",
      "eventName": "German HICP (YoY) (Jul)",
      "eventTimeZone": "GMT",
      "eventPrevious": "2.00%",
      "eventCurrency": "EUR",
      "eventForecast": ""
    },
    {
      "eventDateTime": "2012-08-01T09:00:00",
      "eventActual": "1.60%",
      "eventCountry": "Germany",
      "eventExpectedVolatility": "Low",
      "eventName": "German Import Price Index (YoY) (Jul)",
      "eventTimeZone": "GMT",
      "eventPrevious": "1.60%",
      "eventCurrency": "EUR",
      "eventForecast": ""
    },
    {
      "eventDateTime": "2012-08-01T09:00:00",
      "eventActual": "0.70%",
      "eventCountry": "Germany",
      "eventExpectedVolatility": "Low",
      "eventName": "German Imports (MoM) (Jul)",
      "eventTimeZone": "GMT",
      "eventPrevious": "-2.80%",
      "eventCurrency": "EUR",
      "eventForecast": ""
    },
    {
      "eventDateTime": "2012-08-01T09:00:00",
      "eventActual": "2.90M",
      "eventCountry": "Germany",
      "eventExpectedVolatility": "Low",
      "eventName": "German Unemployment (Jul)",
      "eventTimeZone": "GMT",
      "eventPrevious": "2.89M",
      "eventCurrency": "EUR",
      "eventForecast": ""
    },
    {
      "eventDateTime": "2012-08-01T09:00:00",
      "eventActual": "2.90M",
      "eventCountry": "Germany",
      "eventExpectedVolatility": "Low",
      "eventName": "German Unemployment n.s.a. (Jul)",
      "eventTimeZone": "GMT",
      "eventPrevious": "2.80M",
      "eventCurrency": "EUR",
      "eventForecast": ""
    },
    {
      "eventDateTime": "2012-08-01T09:00:00",
      "eventActual": "1.30%",
      "eventCountry": "Germany",
      "eventExpectedVolatility": "Low",
      "eventName": "German WPI (YoY) (Jul)",
      "eventTimeZone": "GMT",
      "eventPrevious": "1.00%",
      "eventCurrency": "EUR",
      "eventForecast": ""
    },
    {
      "eventDateTime": "2012-08-01T09:00:00",
      "eventActual": "21.10",
      "eventCountry": "Germany",
      "eventExpectedVolatility": "Moderate",
      "eventName": "German ZEW Current Conditions (Jul)",
      "eventTimeZone": "GMT",
      "eventPrevious": "33.20",
      "eventCurrency": "EUR",
      "eventForecast": ""
    },
    {
      "eventDateTime": "2012-08-01T09:00:00",
      "eventActual": "-2.70%",
      "eventCountry": "Euro Zone",
      "eventExpectedVolatility": "Low",
      "eventName": "Industrial Production (YoY) (Jul)",
      "eventTimeZone": "GMT",
      "eventPrevious": "-2.00%",
      "eventCurrency": "EUR",
      "eventForecast": ""
    },
    {
      "eventDateTime": "2012-08-01T09:00:00",
      "eventActual": "-14.30",
      "eventCountry": "Euro Zone",
      "eventExpectedVolatility": "Low",
      "eventName": "Industrial Sentiment (Jul)",
      "eventTimeZone": "GMT",
      "eventPrevious": "-12.00",
      "eventCurrency": "EUR",
      "eventForecast": ""
    },
    {
      "eventDateTime": "2012-08-01T09:00:00",
      "eventActual": "-1.70%",
      "eventCountry": "Italy",
      "eventExpectedVolatility": "Low",
      "eventName": "Italian HICP (MoM) (Jul)",
      "eventTimeZone": "GMT",
      "eventPrevious": "0.20%",
      "eventCurrency": "EUR",
      "eventForecast": ""
    },
    {
      "eventDateTime": "2012-08-01T09:00:00",
      "eventActual": "3.60%",
      "eventCountry": "Italy",
      "eventExpectedVolatility": "Low",
      "eventName": "Italian HICP (YoY) (Jul)",
      "eventTimeZone": "GMT",
      "eventPrevious": "3.60%",
      "eventCurrency": "EUR",
      "eventForecast": ""
    },
    {
      "eventDateTime": "2012-08-01T09:00:00",
      "eventActual": "-3.16%",
      "eventCountry": "Italy",
      "eventExpectedVolatility": "Low",
      "eventName": "Italian Industrial New Orders (YoY) (Jul)",
      "eventTimeZone": "GMT",
      "eventPrevious": "-10.27%",
      "eventCurrency": "EUR",
      "eventForecast": ""
    },
    {
      "eventDateTime": "2012-08-01T09:00:00",
      "eventActual": "-5.60%",
      "eventCountry": "Italy",
      "eventExpectedVolatility": "Low",
      "eventName": "Italian Industrial Production (YoY) (Jul)",
      "eventTimeZone": "GMT",
      "eventPrevious": "-6.90%",
      "eventCurrency": "EUR",
      "eventForecast": ""
    },
    {
      "eventDateTime": "2012-08-01T09:00:00",
      "eventActual": "-2.58%",
      "eventCountry": "Italy",
      "eventExpectedVolatility": "Low",
      "eventName": "Italian Industrial Sales (YoY) (Jul)",
      "eventTimeZone": "GMT",
      "eventPrevious": "-6.80%",
      "eventCurrency": "EUR",
      "eventForecast": ""
    },
    {
      "eventDateTime": "2012-08-01T09:00:00",
      "eventActual": "-3.05%",
      "eventCountry": "Italy",
      "eventExpectedVolatility": "Low",
      "eventName": "Italian Retail Sales (YoY) (Jul)",
      "eventTimeZone": "GMT",
      "eventPrevious": "0.21%",
      "eventCurrency": "EUR",
      "eventForecast": ""
    },
    {
      "eventDateTime": "2012-08-01T09:00:00",
      "eventActual": "2.78B",
      "eventCountry": "Italy",
      "eventExpectedVolatility": "Low",
      "eventName": "Italian Trade Balance EU (Jul)",
      "eventTimeZone": "GMT",
      "eventPrevious": "1.14B",
      "eventCurrency": "EUR",
      "eventForecast": ""
    },
    {
      "eventDateTime": "2012-08-01T09:00:00",
      "eventActual": "1.89B",
      "eventCountry": "Italy",
      "eventExpectedVolatility": "Low",
      "eventName": "Italian Trade Balance Non-EU (Jul)",
      "eventTimeZone": "GMT",
      "eventPrevious": "1.54B",
      "eventCurrency": "EUR",
      "eventForecast": ""
    },
    {
      "eventDateTime": "2012-08-01T09:00:00",
      "eventActual": "0.10%",
      "eventCountry": "Italy",
      "eventExpectedVolatility": "Low",
      "eventName": "Italian Wage Inflation (MoM) (Jul)",
      "eventTimeZone": "GMT",
      "eventPrevious": "0.10%",
      "eventCurrency": "EUR",
      "eventForecast": ""
    },
    {
      "eventDateTime": "2012-08-01T09:00:00",
      "eventActual": "1.60%",
      "eventCountry": "Italy",
      "eventExpectedVolatility": "Low",
      "eventName": "Italian Wage Inflation (YoY) (Jul)",
      "eventTimeZone": "GMT",
      "eventPrevious": "1.50%",
      "eventCurrency": "EUR",
      "eventForecast": ""
    },
    {
      "eventDateTime": "2012-08-01T09:00:00",
      "eventActual": "46.50",
      "eventCountry": "Euro Zone",
      "eventExpectedVolatility": "Moderate",
      "eventName": "Markit Composite PMI (Jul)",
      "eventTimeZone": "GMT",
      "eventPrevious": "46.40",
      "eventCurrency": "EUR",
      "eventForecast": ""
    },
    {
      "eventDateTime": "2012-08-01T09:00:00",
      "eventActual": "3.10%",
      "eventCountry": "Euro Zone",
      "eventExpectedVolatility": "Low",
      "eventName": "Money-M3 3-Month-Moving Average (Jul)",
      "eventTimeZone": "GMT",
      "eventPrevious": "3.10%",
      "eventCurrency": "EUR",
      "eventForecast": ""
    },
    {
      "eventDateTime": "2012-08-01T09:00:00",
      "eventActual": "-48.50B",
      "eventCountry": "Euro Zone",
      "eventExpectedVolatility": "Low",
      "eventName": "Net Investment Flow (Jul)",
      "eventTimeZone": "GMT",
      "eventPrevious": "-58.30B",
      "eventCurrency": "EUR",
      "eventForecast": ""
    },
    {
      "eventDateTime": "2012-08-01T09:00:00",
      "eventActual": "2.00%",
      "eventCountry": "Euro Zone",
      "eventExpectedVolatility": "Low",
      "eventName": "PPI (YoY) (Jul)",
      "eventTimeZone": "GMT",
      "eventPrevious": "2.10%",
      "eventCurrency": "EUR",
      "eventForecast": ""
    },
    {
      "eventDateTime": "2012-08-01T09:00:00",
      "eventActual": "-1.30%",
      "eventCountry": "Euro Zone",
      "eventExpectedVolatility": "Low",
      "eventName": "Retail Sales (YoY) (Jul)",
      "eventTimeZone": "GMT",
      "eventPrevious": "-0.90%",
      "eventCurrency": "EUR",
      "eventForecast": ""
    },
    {
      "eventDateTime": "2012-08-01T09:00:00",
      "eventActual": "-1.90",
      "eventCountry": "Euro Zone",
      "eventExpectedVolatility": "Low",
      "eventName": "Selling Price Expectations (Jul)",
      "eventTimeZone": "GMT",
      "eventPrevious": "-1.20",
      "eventCurrency": "EUR",
      "eventForecast": ""
    },
    {
      "eventDateTime": "2012-08-01T09:00:00",
      "eventActual": "-8.90",
      "eventCountry": "Euro Zone",
      "eventExpectedVolatility": "Low",
      "eventName": "Services Sentiment (Jul)",
      "eventTimeZone": "GMT",
      "eventPrevious": "-5.90",
      "eventCurrency": "EUR",
      "eventForecast": ""
    },
    {
      "eventDateTime": "2012-08-01T09:00:00",
      "eventActual": "-17",
      "eventCountry": "Spain",
      "eventExpectedVolatility": "Low",
      "eventName": "Spanish Business Confidence",
      "eventTimeZone": "GMT",
      "eventPrevious": "-19",
      "eventCurrency": "EUR",
      "eventForecast": "-19"
    },
    {
      "eventDateTime": "2012-08-01T09:00:00",
      "eventActual": "2.20%",
      "eventCountry": "Spain",
      "eventExpectedVolatility": "Moderate",
      "eventName": "Spanish CPI (YoY) (Jul)",
      "eventTimeZone": "GMT",
      "eventPrevious": "1.90%",
      "eventCurrency": "EUR",
      "eventForecast": ""
    },
    {
      "eventDateTime": "2012-08-01T09:00:00",
      "eventActual": "1.40B",
      "eventCountry": "Spain",
      "eventExpectedVolatility": "Low",
      "eventName": "Spanish Current account (Jul)",
      "eventTimeZone": "GMT",
      "eventPrevious": "-0.47B",
      "eventCurrency": "EUR",
      "eventForecast": ""
    },
    {
      "eventDateTime": "2012-08-01T09:00:00",
      "eventActual": "-0.90%",
      "eventCountry": "Spain",
      "eventExpectedVolatility": "Low",
      "eventName": "Spanish HICP (MoM) (Jul)",
      "eventTimeZone": "GMT",
      "eventPrevious": "-0.20%",
      "eventCurrency": "EUR",
      "eventForecast": ""
    },
    {
      "eventDateTime": "2012-08-01T09:00:00",
      "eventActual": "2.20%",
      "eventCountry": "Spain",
      "eventExpectedVolatility": "Moderate",
      "eventName": "Spanish HICP (YoY) (Jul)",
      "eventTimeZone": "GMT",
      "eventPrevious": "1.80%",
      "eventCurrency": "EUR",
      "eventForecast": ""
    },
    {
      "eventDateTime": "2012-08-01T09:30:00",
      "eventActual": "0.310%",
      "eventCountry": "Germany",
      "eventExpectedVolatility": "Low",
      "eventName": "German 5-Year Bobl Auction",
      "eventTimeZone": "GMT",
      "eventPrevious": "0.520%",
      "eventCurrency": "EUR",
      "eventForecast": ""
    }
  ]}}
