{"events": {"event": [
    {
      "eventDateTime": "2006-05-01T09:00:00",
      "eventActual": "183.30B",
      "eventCountry": "Singapore",
      "eventExpectedVolatility": "Low",
      "eventName": "Bank Lending (Apr)",
      "eventTimeZone": "GMT",
      "eventPrevious": "182.60B",
      "eventCurrency": "SGD",
      "eventForecast": ""
    },
    {
      "eventDateTime": "2006-05-01T09:00:00",
      "eventActual": "1.08%",
      "eventCountry": "Singapore",
      "eventExpectedVolatility": "Moderate",
      "eventName": "CPI (YoY) (Apr)",
      "eventTimeZone": "GMT",
      "eventPrevious": "1.15%",
      "eventCurrency": "SGD",
      "eventForecast": ""
    },
    {
      "eventDateTime": "2006-05-01T09:00:00",
      "eventActual": "127.40B",
      "eventCountry": "Singapore",
      "eventExpectedVolatility": "Low",
      "eventName": "Foreign Reserves USD (MoM) (Apr)",
      "eventTimeZone": "GMT",
      "eventPrevious": "121.80B",
      "eventCurrency": "SGD",
      "eventForecast": ""
    },
    {
      "eventDateTime": "2006-05-01T09:00:00",
      "eventActual": "-14.10%",
      "eventCountry": "Singapore",
      "eventExpectedVolatility": "Low",
      "eventName": "Industrial Production (MoM) (Apr)",
      "eventTimeZone": "GMT",
      "eventPrevious": "5.00%",
      "eventCurrency": "SGD",
      "eventForecast": ""
    },
    {
      "eventDateTime": "2006-05-01T09:00:00",
      "eventActual": "1.90%",
      "eventCountry": "Singapore",
      "eventExpectedVolatility": "Low",
      "eventName": "Industrial Production (YoY) (Apr)",
      "eventTimeZone": "GMT",
      "eventPrevious": "24.10%",
      "eventCurrency": "SGD",
      "eventForecast": ""
    },
    {
      "eventDateTime": "2006-05-01T09:00:00",
      "eventActual": "50.40",
      "eventCountry": "Singapore",
      "eventExpectedVolatility": "Low",
      "eventName": "Manufacturing PMI (Apr)",
      "eventTimeZone": "GMT",
      "eventPrevious": "49.60",
      "eventCurrency": "SGD",
      "eventForecast": ""
    },
    {
      "eventDateTime": "2006-05-01T09:00:00",
      "eventActual": "0.00%",
      "eventCountry": "Singapore",
      "eventExpectedVolatility": "Low",
      "eventName": "Non-Oil Exports (MoM) (Apr)",
      "eventTimeZone": "GMT",
      "eventPrevious": "-2.50%",
      "eventCurrency": "SGD",
      "eventForecast": ""
    },
    {
      "eventDateTime": "2006-05-01T09:00:00",
      "eventActual": "10.00%",
      "eventCountry": "Singapore",
      "eventExpectedVolatility": "Low",
      "eventName": "Non-Oil Exports (YoY) (Apr)",
      "eventTimeZone": "GMT",
      "eventPrevious": "16.50%",
      "eventCurrency": "SGD",
      "eventForecast": ""
    },
    {
      "eventDateTime": "2006-05-01T09:00:00",
      "eventActual": "-4.30%",
      "eventCountry": "Singapore",
      "eventExpectedVolatility": "Low",
      "eventName": "Retail Sales (MoM) (Apr)",
      "eventTimeZone": "GMT",
      "eventPrevious": "8.40%",
      "eventCurrency": "SGD",
      "eventForecast": ""
    },
    {
      "eventDateTime": "2006-05-01T09:00:00",
      "eventActual": "6.90%",
      "eventCountry": "Singapore",
      "eventExpectedVolatility": "Low",
      "eventName": "Retail Sales (YoY) (Apr)",
      "eventTimeZone": "GMT",
      "eventPrevious": "9.90%",
      "eventCurrency": "SGD",
      "eventForecast": ""
    }
  ]}}
