{"events": {"event": {
    "eventDateTime": "2013-11-15T08:30:00",
    "eventActual": "0.5%",
    "eventCountry": "Hong Kong",
    "eventExpectedVolatility": "Low",
    "eventName": "GDP (QoQ)",
    "eventTimeZone": "GMT",
    "eventPrevious": "0.8%",
    "eventCurrency": "HKD",
    "eventForecast": "0.8%"
  }}}
