{"events": {"event": {
    "eventDateTime": "2008-04-02T22:30:00",
    "eventActual": "53.8",
    "eventCountry": "Australia",
    "eventExpectedVolatility": "Low",
    "eventName": "AIG Services Index",
    "eventTimeZone": "GMT",
    "eventPrevious": "53.2",
    "eventCurrency": "AUD",
    "eventForecast": "0.0"
  }}}
