{"events": {"event": {
    "eventDateTime": "2018-09-06T13:00:00",
    "eventActual": "460.6B",
    "eventCountry": "Russia",
    "eventExpectedVolatility": "Moderate",
    "eventName": "Central Bank reserves (USD)",
    "eventTimeZone": "GMT",
    "eventPrevious": "457.1B",
    "eventCurrency": "RUB",
    "eventForecast": ""
  }}}
