{"events": {"event": [
    {
      "eventDateTime": "2010-02-23T07:45:00",
      "eventActual": "-0.2%",
      "eventCountry": "France",
      "eventExpectedVolatility": "Moderate",
      "eventName": "French CPI (MoM)",
      "eventTimeZone": "GMT",
      "eventPrevious": "0.3%",
      "eventCurrency": "EUR",
      "eventForecast": "-0.3%"
    },
    {
      "eventDateTime": "2010-02-23T07:45:00",
      "eventActual": "-2.7%",
      "eventCountry": "France",
      "eventExpectedVolatility": "Moderate",
      "eventName": "French Consumer Spending (MoM)",
      "eventTimeZone": "GMT",
      "eventPrevious": "1.3%",
      "eventCurrency": "EUR",
      "eventForecast": "-0.5%"
    },
    {
      "eventDateTime": "2010-02-23T09:00:00",
      "eventActual": "90.6",
      "eventCountry": "Germany",
      "eventExpectedVolatility": "High",
      "eventName": "German Ifo Business Climate Index",
      "eventTimeZone": "GMT",
      "eventPrevious": "90.7",
      "eventCurrency": "EUR",
      "eventForecast": ""
    }
  ]}}
