{"events": {"event": {
    "eventDateTime": "2016-05-06T07:20:00",
    "eventActual": "360.80B",
    "eventCountry": "Hong Kong",
    "eventExpectedVolatility": "Low",
    "eventName": "Foreign Reserves (USD) (Apr)",
    "eventTimeZone": "GMT",
    "eventPrevious": "361.90B",
    "eventCurrency": "HKD",
    "eventForecast": ""
  }}}
