{"events": {"event": [
    {
      "eventDateTime": "2018-06-18T05:30:00",
      "eventActual": "41.6%",
      "eventCountry": "Canada",
      "eventExpectedVolatility": "Moderate",
      "eventName": "Investing.com USD/CAD Index",
      "eventTimeZone": "GMT",
      "eventPrevious": "46.6%",
      "eventCurrency": "CAD",
      "eventForecast": ""
    },
    {
      "eventDateTime": "2018-06-18T15:45:00",
      "eventActual": "",
      "eventCountry": "Canada",
      "eventExpectedVolatility": "Low",
      "eventName": "BoC Gov Council Member Patterson Speaks",
      "eventTimeZone": "GMT",
      "eventPrevious": "",
      "eventCurrency": "CAD",
      "eventForecast": ""
    }
  ]}}
