{"events": {"event": {
    "eventDateTime": "2009-12-17T02:00:00",
    "eventActual": "38.50",
    "eventCountry": "New Zealand",
    "eventExpectedVolatility": "Moderate",
    "eventName": "ANZ Business Confidence",
    "eventTimeZone": "GMT",
    "eventPrevious": "43.40",
    "eventCurrency": "NZD",
    "eventForecast": ""
  }}}
