"Exports (USD)";"India";"INR";"2014-11-17T09:00:00";"GMT";"28.90B";"";"26.09B";"Low"
"Imports (USD)";"India";"INR";"2014-11-17T09:00:00";"GMT";"43.20B";"";"39.44B";"Low"
"Trade Balance";"India";"INR";"2014-11-17T09:00:00";"GMT";"-14.25B";"-15.60B";"-13.35B";"Low"
