{"events": {"event": [
    {
      "eventDateTime": "2018-06-21T08:30:00",
      "eventActual": "3.36B",
      "eventCountry": "United Kingdom",
      "eventExpectedVolatility": "Low",
      "eventName": "Public Sector Net Borrowing (May)",
      "eventTimeZone": "GMT",
      "eventPrevious": "5.27B",
      "eventCurrency": "GBP",
      "eventForecast": "5.10B"
    },
    {
      "eventDateTime": "2018-06-21T08:30:00",
      "eventActual": "4.507B",
      "eventCountry": "United Kingdom",
      "eventExpectedVolatility": "Low",
      "eventName": "Public Sector Net Cash Requirement (May)",
      "eventTimeZone": "GMT",
      "eventPrevious": "-9.716B",
      "eventCurrency": "GBP",
      "eventForecast": ""
    },
    {
      "eventDateTime": "2018-06-21T11:00:00",
      "eventActual": "0.50%",
      "eventCountry": "United Kingdom",
      "eventExpectedVolatility": "High",
      "eventName": "BoE Interest Rate Decision (Jun)",
      "eventTimeZone": "GMT",
      "eventPrevious": "0.50%",
      "eventCurrency": "GBP",
      "eventForecast": "0.50%"
    },
    {
      "eventDateTime": "2018-06-21T11:00:00",
      "eventActual": "",
      "eventCountry": "United Kingdom",
      "eventExpectedVolatility": "High",
      "eventName": "BoE MPC Meeting Minutes",
      "eventTimeZone": "GMT",
      "eventPrevious": "",
      "eventCurrency": "GBP",
      "eventForecast": ""
    },
    {
      "eventDateTime": "2018-06-21T11:00:00",
      "eventActual": "0",
      "eventCountry": "United Kingdom",
      "eventExpectedVolatility": "Moderate",
      "eventName": "BoE MPC vote cut (Jun)",
      "eventTimeZone": "GMT",
      "eventPrevious": "0",
      "eventCurrency": "GBP",
      "eventForecast": "0"
    },
    {
      "eventDateTime": "2018-06-21T11:00:00",
      "eventActual": "3",
      "eventCountry": "United Kingdom",
      "eventExpectedVolatility": "Moderate",
      "eventName": "BoE MPC vote hike (Jun)",
      "eventTimeZone": "GMT",
      "eventPrevious": "2",
      "eventCurrency": "GBP",
      "eventForecast": "2"
    },
    {
      "eventDateTime": "2018-06-21T11:00:00",
      "eventActual": "6",
      "eventCountry": "United Kingdom",
      "eventExpectedVolatility": "Moderate",
      "eventName": "BoE MPC vote unchanged (Jun)",
      "eventTimeZone": "GMT",
      "eventPrevious": "7",
      "eventCurrency": "GBP",
      "eventForecast": "7"
    },
    {
      "eventDateTime": "2018-06-21T11:00:00",
      "eventActual": "435B",
      "eventCountry": "United Kingdom",
      "eventExpectedVolatility": "Moderate",
      "eventName": "BoE QE Total (Jun)",
      "eventTimeZone": "GMT",
      "eventPrevious": "435B",
      "eventCurrency": "GBP",
      "eventForecast": "435B"
    },
    {
      "eventDateTime": "2018-06-21T20:15:00",
      "eventActual": "",
      "eventCountry": "United Kingdom",
      "eventExpectedVolatility": "High",
      "eventName": "BoE Gov Carney Speaks",
      "eventTimeZone": "GMT",
      "eventPrevious": "",
      "eventCurrency": "GBP",
      "eventForecast": ""
    }
  ]}}
