{"events": {"event": {
    "eventDateTime": "2015-09-02T13:00:00",
    "eventActual": "49.3",
    "eventCountry": "Singapore",
    "eventExpectedVolatility": "Low",
    "eventName": "Manufacturing PMI (Aug)",
    "eventTimeZone": "GMT",
    "eventPrevious": "49.7",
    "eventCurrency": "SGD",
    "eventForecast": "49.9"
  }}}
