"CPI (MoM) (Nov)";"Canada";"CAD";"2014-12-19T13:30:00";"GMT";"0.1%";"-0.1%";"-0.4%";"Moderate"
"CPI (YoY) (Nov)";"Canada";"CAD";"2014-12-19T13:30:00";"GMT";"2.4%";"2.2%";"2.0%";"Low"
"Core CPI (MoM) (Nov)";"Canada";"CAD";"2014-12-19T13:30:00";"GMT";"0.3%";"0.1%";"-0.2%";"High"
"Core CPI (YoY) (Nov)";"Canada";"CAD";"2014-12-19T13:30:00";"GMT";"2.3%";"2.4%";"2.1%";"Moderate"
"Core Retail Sales (MoM) (Oct)";"Canada";"CAD";"2014-12-19T13:30:00";"GMT";"0.0%";"0.1%";"0.2%";"High"
"Retail Sales (MoM) (Oct)";"Canada";"CAD";"2014-12-19T13:30:00";"GMT";"0.8%";"-0.2%";"0.0%";"Moderate"
"CFTC CAD speculative net positions";"Canada";"CAD";"2014-12-19T20:30:00";"GMT";"-14.4K";"";"-15.7K";"Low"
