{"events": {"event": [
    {
      "eventDateTime": "2008-04-08T14:00:00",
      "eventActual": "-1.9%",
      "eventCountry": "United States",
      "eventExpectedVolatility": "High",
      "eventName": "Pending Home Sales (MoM)",
      "eventTimeZone": "GMT",
      "eventPrevious": "0.0%",
      "eventCurrency": "USD",
      "eventForecast": "-0.8%"
    },
    {
      "eventDateTime": "2008-04-08T18:00:00",
      "eventActual": "0.00",
      "eventCountry": "United States",
      "eventExpectedVolatility": "High",
      "eventName": "FOMC Meeting Minutes",
      "eventTimeZone": "GMT",
      "eventPrevious": "0.00",
      "eventCurrency": "USD",
      "eventForecast": "0.00"
    }
  ]}}
