"Auto Production (MoM) (May)";"Brazil";"BRL";"2002-06-01T09:00:00";"GMT";"5.87%";"";"-5.13%";"Low"
"Auto Sales (MoM) (May)";"Brazil";"BRL";"2002-06-01T09:00:00";"GMT";"12.16%";"";"-11.26%";"Low"
"Bank lending (MoM) (May)";"Brazil";"BRL";"2002-06-01T09:00:00";"GMT";"1.00%";"";"1.46%";"Low"
"Budget Balance (May)";"Brazil";"BRL";"2002-06-01T09:00:00";"GMT";"0.09B";"";"-5.24B";"Low"
"Budget Surplus (May)";"Brazil";"BRL";"2002-06-01T09:00:00";"GMT";"7.10B";"";"3.55B";"Low"
"CAGED Net Payroll Jobs (May)";"Brazil";"BRL";"2002-06-01T09:00:00";"GMT";"175.00K";"";"156.00K";"Moderate"
"CPI (MoM) (May)";"Brazil";"BRL";"2002-06-01T09:00:00";"GMT";"0.80%";"";"0.21%";"Moderate"
"CPI (YoY) (May)";"Brazil";"BRL";"2002-06-01T09:00:00";"GMT";"7.98%";"";"7.77%";"Moderate"
"Debt-to-GDP ratio (May)";"Brazil";"BRL";"2002-06-01T09:00:00";"GMT";"50.90%";"";"52.10%";"Low"
"Federal Tax Revenue (May)";"Brazil";"BRL";"2002-06-01T09:00:00";"GMT";"26.00B";"";"24.00B";"Low"
"Foreign direct investment (USD) (May)";"Brazil";"BRL";"2002-06-01T09:00:00";"GMT";"1.96B";"";"1.43B";"Low"
"IGP-DI Inflation Index (MoM) (May)";"Brazil";"BRL";"2002-06-01T09:00:00";"GMT";"0.70%";"";"1.11%";"Low"
"IGP-M Inflation Index (MoM) (May)";"Brazil";"BRL";"2002-06-01T09:00:00";"GMT";"0.56%";"";"0.83%";"Low"
"IPC-Fipe Inflation Index (MoM) (May)";"Brazil";"BRL";"2002-06-01T09:00:00";"GMT";"0.06%";"";"0.06%";"Moderate"
"Industrial Production (MoM) (May)";"Brazil";"BRL";"2002-06-01T09:00:00";"GMT";"-0.38%";"";"-1.01%";"Low"
"Industrial Production (YoY) (May)";"Brazil";"BRL";"2002-06-01T09:00:00";"GMT";"5.66%";"";"-1.62%";"Moderate"
"Mid-Month CPI (MoM) (May)";"Brazil";"BRL";"2002-06-01T09:00:00";"GMT";"0.78%";"";"0.42%";"Low"
"Mid-Month CPI (YoY) (May)";"Brazil";"BRL";"2002-06-01T09:00:00";"GMT";"7.78%";"";"7.70%";"Low"
"Retail Sales (MoM) (May)";"Brazil";"BRL";"2002-06-01T09:00:00";"GMT";"0.35%";"";"0.00%";"Moderate"
"Retail Sales (YoY) (May)";"Brazil";"BRL";"2002-06-01T09:00:00";"GMT";"-2.00%";"";"1.23%";"Moderate"
"Trade Balance (May)";"Brazil";"BRL";"2002-06-01T09:00:00";"GMT";"0.51B";"";"0.38B";"Low"
"Unemployment Rate (May)";"Brazil";"BRL";"2002-06-01T09:00:00";"GMT";"12.50%";"";"11.90%";"Moderate"
