"Employment Benefits (QoQ) (Q4)";"United States";"USD";"2017-01-31T13:30:00";"GMT";"0.70%";"";"0.40%";"Low"
"Employment Cost Index (QoQ) (Q4)";"United States";"USD";"2017-01-31T13:30:00";"GMT";"0.6%";"0.6%";"0.5%";"Moderate"
"Employment Wages (QoQ) (Q4)";"United States";"USD";"2017-01-31T13:30:00";"GMT";"0.50%";"";"0.50%";"Low"
"Redbook (MoM)";"United States";"USD";"2017-01-31T13:55:00";"GMT";"-3.5%";"";"-3.5%";"Low"
"Redbook (YoY)";"United States";"USD";"2017-01-31T13:55:00";"GMT";"0.3%";"";"0.2%";"Low"
"Sandamp:P/CS HPI Composite - 20 n.s.a. (MoM) (Nov)";"United States";"USD";"2017-01-31T14:00:00";"GMT";"0.1%";"0.2%";"0.2%";"Low"
"Sandamp:P/CS HPI Composite - 20 n.s.a. (YoY) (Nov)";"United States";"USD";"2017-01-31T14:00:00";"GMT";"5.1%";"5.1%";"5.3%";"Moderate"
"Sandamp:P/CS HPI Composite - 20 s.a. (MoM) (Nov)";"United States";"USD";"2017-01-31T14:00:00";"GMT";"0.7%";"0.7%";"0.9%";"Low"
"Chicago PMI (Jan)";"United States";"USD";"2017-01-31T14:45:00";"GMT";"54.6";"55.0";"50.3";"Moderate"
"CB Consumer Confidence (Jan)";"United States";"USD";"2017-01-31T15:00:00";"GMT";"113.3";"113.0";"111.8";"High"
"Dallas Fed Services Revenues (Jan)";"United States";"USD";"2017-01-31T15:30:00";"GMT";"21.3";"";"16.2";"Low"
"Texas Services Sector Outlook (Jan)";"United States";"USD";"2017-01-31T15:30:00";"GMT";"19.2";"";"21.2";"Low"
"4-Week Bill Auction";"United States";"USD";"2017-01-31T16:30:00";"GMT";"0.480%";"";"0.490%";"Low"
"52-Week Bill Auction";"United States";"USD";"2017-01-31T16:30:00";"GMT";"0.870%";"";"0.810%";"Low"
"API Weekly Crude Oil Stock";"United States";"USD";"2017-01-31T21:35:00";"GMT";"2.927M";"2.200M";"5.800M";"Moderate"
