{"events": {"event": {
    "eventDateTime": "2008-06-02T02:30:00",
    "eventActual": "0.6%",
    "eventCountry": "Japan",
    "eventExpectedVolatility": "Low",
    "eventName": "Average Cash Earnings (YoY)",
    "eventTimeZone": "GMT",
    "eventPrevious": "1.5%",
    "eventCurrency": "JPY",
    "eventForecast": "1.3%"
  }}}
