{"events": {"event": [
    {
      "eventDateTime": "2003-10-24T17:00:00",
      "eventActual": "158",
      "eventCountry": "United States",
      "eventExpectedVolatility": "Moderate",
      "eventName": "U.S. Baker Hughes Oil Rig Count",
      "eventTimeZone": "GMT",
      "eventPrevious": "160",
      "eventCurrency": "USD",
      "eventForecast": ""
    },
    {
      "eventDateTime": "2003-10-24T20:30:00",
      "eventActual": "21.0k",
      "eventCountry": "United States",
      "eventExpectedVolatility": "Moderate",
      "eventName": "CFTC Crude Oil speculative net positions",
      "eventTimeZone": "GMT",
      "eventPrevious": "19.4k",
      "eventCurrency": "USD",
      "eventForecast": ""
    }
  ]}}
