{"events": {"event": [
    {
      "eventDateTime": "2000-12-01T09:00:00",
      "eventActual": "5.75%",
      "eventCountry": "United States",
      "eventExpectedVolatility": "Moderate",
      "eventName": "10-Year Note Auction (Nov)",
      "eventTimeZone": "GMT",
      "eventPrevious": "5.75%",
      "eventCurrency": "USD",
      "eventForecast": ""
    },
    {
      "eventDateTime": "2000-12-01T09:00:00",
      "eventActual": "5.75%",
      "eventCountry": "United States",
      "eventExpectedVolatility": "Low",
      "eventName": "5-Year Note Auction (Nov)",
      "eventTimeZone": "GMT",
      "eventPrevious": "6.75%",
      "eventCurrency": "USD",
      "eventForecast": ""
    },
    {
      "eventDateTime": "2000-12-01T09:00:00",
      "eventActual": "8.23M",
      "eventCountry": "United States",
      "eventExpectedVolatility": "Low",
      "eventName": "All Car Sales (Nov)",
      "eventTimeZone": "GMT",
      "eventPrevious": "8.60M",
      "eventCurrency": "USD",
      "eventForecast": ""
    },
    {
      "eventDateTime": "2000-12-01T09:00:00",
      "eventActual": "8.02M",
      "eventCountry": "United States",
      "eventExpectedVolatility": "Low",
      "eventName": "All Truck Sales (Nov)",
      "eventTimeZone": "GMT",
      "eventPrevious": "8.52M",
      "eventCurrency": "USD",
      "eventForecast": ""
    },
    {
      "eventDateTime": "2000-12-01T09:00:00",
      "eventActual": "0.60%",
      "eventCountry": "United States",
      "eventExpectedVolatility": "Moderate",
      "eventName": "Business Inventories (MoM) (Nov)",
      "eventTimeZone": "GMT",
      "eventPrevious": "0.60%",
      "eventCurrency": "USD",
      "eventForecast": ""
    },
    {
      "eventDateTime": "2000-12-01T09:00:00",
      "eventActual": "132.60",
      "eventCountry": "United States",
      "eventExpectedVolatility": "High",
      "eventName": "CB Consumer Confidence (Nov)",
      "eventTimeZone": "GMT",
      "eventPrevious": "135.80",
      "eventCurrency": "USD",
      "eventForecast": ""
    },
    {
      "eventDateTime": "2000-12-01T09:00:00",
      "eventActual": "128.60",
      "eventCountry": "United States",
      "eventExpectedVolatility": "Low",
      "eventName": "CB Employment Trends Index (Nov)",
      "eventTimeZone": "GMT",
      "eventPrevious": "129.60",
      "eventCurrency": "USD",
      "eventForecast": ""
    },
    {
      "eventDateTime": "2000-12-01T09:00:00",
      "eventActual": "0.20%",
      "eventCountry": "United States",
      "eventExpectedVolatility": "Moderate",
      "eventName": "CPI (MoM) (Nov)",
      "eventTimeZone": "GMT",
      "eventPrevious": "0.20%",
      "eventCurrency": "USD",
      "eventForecast": ""
    },
    {
      "eventDateTime": "2000-12-01T09:00:00",
      "eventActual": "3.40%",
      "eventCountry": "United States",
      "eventExpectedVolatility": "Low",
      "eventName": "CPI (YoY) (Nov)",
      "eventTimeZone": "GMT",
      "eventPrevious": "3.40%",
      "eventCurrency": "USD",
      "eventForecast": ""
    },
    {
      "eventDateTime": "2000-12-01T09:00:00",
      "eventActual": "174.10",
      "eventCountry": "United States",
      "eventExpectedVolatility": "Low",
      "eventName": "CPI Index, n.s.a. (Nov)",
      "eventTimeZone": "GMT",
      "eventPrevious": "174.00",
      "eventCurrency": "USD",
      "eventForecast": ""
    },
    {
      "eventDateTime": "2000-12-01T09:00:00",
      "eventActual": "80.30%",
      "eventCountry": "United States",
      "eventExpectedVolatility": "Low",
      "eventName": "Capacity Utilization Rate (Nov)",
      "eventTimeZone": "GMT",
      "eventPrevious": "80.60%",
      "eventCurrency": "USD",
      "eventForecast": ""
    },
    {
      "eventDateTime": "2000-12-01T09:00:00",
      "eventActual": "4.00%",
      "eventCountry": "United States",
      "eventExpectedVolatility": "Low",
      "eventName": "Chain Store Sales (MoM) (Nov)",
      "eventTimeZone": "GMT",
      "eventPrevious": "3.80%",
      "eventCurrency": "USD",
      "eventForecast": ""
    },
    {
      "eventDateTime": "2000-12-01T09:00:00",
      "eventActual": "-0.27%",
      "eventCountry": "United States",
      "eventExpectedVolatility": "Low",
      "eventName": "Chain Store Sales (WoW) (Nov)",
      "eventTimeZone": "GMT",
      "eventPrevious": "-0.18%",
      "eventCurrency": "USD",
      "eventForecast": ""
    },
    {
      "eventDateTime": "2000-12-01T09:00:00",
      "eventActual": "4.73%",
      "eventCountry": "United States",
      "eventExpectedVolatility": "Low",
      "eventName": "Chain Store Sales (YoY) (Nov)",
      "eventTimeZone": "GMT",
      "eventPrevious": "4.59%",
      "eventCurrency": "USD",
      "eventForecast": ""
    },
    {
      "eventDateTime": "2000-12-01T09:00:00",
      "eventActual": "44.20K",
      "eventCountry": "United States",
      "eventExpectedVolatility": "Low",
      "eventName": "Challenger Job Cuts (Nov)",
      "eventTimeZone": "GMT",
      "eventPrevious": "43.80K",
      "eventCurrency": "USD",
      "eventForecast": ""
    },
    {
      "eventDateTime": "2000-12-01T09:00:00",
      "eventActual": "-0.48",
      "eventCountry": "United States",
      "eventExpectedVolatility": "Low",
      "eventName": "Chicago Fed National Activity (Nov)",
      "eventTimeZone": "GMT",
      "eventPrevious": "-0.70",
      "eventCurrency": "USD",
      "eventForecast": ""
    },
    {
      "eventDateTime": "2000-12-01T09:00:00",
      "eventActual": "43.70",
      "eventCountry": "United States",
      "eventExpectedVolatility": "Moderate",
      "eventName": "Chicago PMI (Nov)",
      "eventTimeZone": "GMT",
      "eventPrevious": "48.00",
      "eventCurrency": "USD",
      "eventForecast": ""
    },
    {
      "eventDateTime": "2000-12-01T09:00:00",
      "eventActual": "0.20%",
      "eventCountry": "United States",
      "eventExpectedVolatility": "Low",
      "eventName": "Cleveland CPI (MoM) (Nov)",
      "eventTimeZone": "GMT",
      "eventPrevious": "0.20%",
      "eventCurrency": "USD",
      "eventForecast": ""
    },
    {
      "eventDateTime": "2000-12-01T09:00:00",
      "eventActual": "0.50%",
      "eventCountry": "United States",
      "eventExpectedVolatility": "Low",
      "eventName": "Construction Spending (MoM) (Nov)",
      "eventTimeZone": "GMT",
      "eventPrevious": "0.20%",
      "eventCurrency": "USD",
      "eventForecast": ""
    },
    {
      "eventDateTime": "2000-12-01T09:00:00",
      "eventActual": "16.35B",
      "eventCountry": "United States",
      "eventExpectedVolatility": "Low",
      "eventName": "Consumer Credit (Nov)",
      "eventTimeZone": "GMT",
      "eventPrevious": "15.60B",
      "eventCurrency": "USD",
      "eventForecast": ""
    },
    {
      "eventDateTime": "2000-12-01T09:00:00",
      "eventActual": "2,223.68K",
      "eventCountry": "United States",
      "eventExpectedVolatility": "Low",
      "eventName": "Continuing Jobless Claims (Nov)",
      "eventTimeZone": "GMT",
      "eventPrevious": "2,115.68K",
      "eventCurrency": "USD",
      "eventForecast": ""
    },
    {
      "eventDateTime": "2000-12-01T09:00:00",
      "eventActual": "0.30%",
      "eventCountry": "United States",
      "eventExpectedVolatility": "High",
      "eventName": "Core CPI (MoM) (Nov)",
      "eventTimeZone": "GMT",
      "eventPrevious": "0.20%",
      "eventCurrency": "USD",
      "eventForecast": ""
    },
    {
      "eventDateTime": "2000-12-01T09:00:00",
      "eventActual": "2.60%",
      "eventCountry": "United States",
      "eventExpectedVolatility": "Moderate",
      "eventName": "Core CPI (YoY) (Nov)",
      "eventTimeZone": "GMT",
      "eventPrevious": "2.50%",
      "eventCurrency": "USD",
      "eventForecast": ""
    },
    {
      "eventDateTime": "2000-12-01T09:00:00",
      "eventActual": "183.10",
      "eventCountry": "United States",
      "eventExpectedVolatility": "Low",
      "eventName": "Core CPI Index (Nov)",
      "eventTimeZone": "GMT",
      "eventPrevious": "182.60",
      "eventCurrency": "USD",
      "eventForecast": ""
    },
    {
      "eventDateTime": "2000-12-01T09:00:00",
      "eventActual": "0.20%",
      "eventCountry": "United States",
      "eventExpectedVolatility": "Moderate",
      "eventName": "Core PCE Price Index (MoM) (Nov)",
      "eventTimeZone": "GMT",
      "eventPrevious": "0.10%",
      "eventCurrency": "USD",
      "eventForecast": ""
    },
    {
      "eventDateTime": "2000-12-01T09:00:00",
      "eventActual": "1.90%",
      "eventCountry": "United States",
      "eventExpectedVolatility": "Moderate",
      "eventName": "Core PCE Price Index (YoY) (Nov)",
      "eventTimeZone": "GMT",
      "eventPrevious": "1.80%",
      "eventCurrency": "USD",
      "eventForecast": ""
    },
    {
      "eventDateTime": "2000-12-01T09:00:00",
      "eventActual": "0.20%",
      "eventCountry": "United States",
      "eventExpectedVolatility": "High",
      "eventName": "Core Retail Sales (MoM) (Nov)",
      "eventTimeZone": "GMT",
      "eventPrevious": "0.00%",
      "eventCurrency": "USD",
      "eventForecast": ""
    },
    {
      "eventDateTime": "2000-12-01T09:00:00",
      "eventActual": "1.87M",
      "eventCountry": "United States",
      "eventExpectedVolatility": "High",
      "eventName": "Crude Oil Inventories (Nov)",
      "eventTimeZone": "GMT",
      "eventPrevious": "-0.72M",
      "eventCurrency": "USD",
      "eventForecast": ""
    },
    {
      "eventDateTime": "2000-12-01T09:00:00",
      "eventActual": "2.60%",
      "eventCountry": "United States",
      "eventExpectedVolatility": "Low",
      "eventName": "Dallas Fed PCE (Nov)",
      "eventTimeZone": "GMT",
      "eventPrevious": "2.40%",
      "eventCurrency": "USD",
      "eventForecast": ""
    },
    {
      "eventDateTime": "2000-12-01T09:00:00",
      "eventActual": "7.16M",
      "eventCountry": "United States",
      "eventExpectedVolatility": "Low",
      "eventName": "Domestic Truck Sales (Nov)",
      "eventTimeZone": "GMT",
      "eventPrevious": "7.66M",
      "eventCurrency": "USD",
      "eventForecast": ""
    },
    {
      "eventDateTime": "2000-12-01T09:00:00",
      "eventActual": "0.70%",
      "eventCountry": "United States",
      "eventExpectedVolatility": "Low",
      "eventName": "Durables Excluding Defense (MoM) (Nov)",
      "eventTimeZone": "GMT",
      "eventPrevious": "-7.20%",
      "eventCurrency": "USD",
      "eventForecast": ""
    },
    {
      "eventDateTime": "2000-12-01T09:00:00",
      "eventActual": "1.12M",
      "eventCountry": "United States",
      "eventExpectedVolatility": "Low",
      "eventName": "EIA Weekly Distillates Stocks (Nov)",
      "eventTimeZone": "GMT",
      "eventPrevious": "0.05M",
      "eventCurrency": "USD",
      "eventForecast": ""
    },
    {
      "eventDateTime": "2000-12-01T09:00:00",
      "eventActual": "1.90%",
      "eventCountry": "United States",
      "eventExpectedVolatility": "Moderate",
      "eventName": "Existing Home Sales (MoM) (Nov)",
      "eventTimeZone": "GMT",
      "eventPrevious": "-0.80%",
      "eventCurrency": "USD",
      "eventForecast": ""
    },
    {
      "eventDateTime": "2000-12-01T09:00:00",
      "eventActual": "5.35M",
      "eventCountry": "United States",
      "eventExpectedVolatility": "High",
      "eventName": "Existing Home Sales (Nov)",
      "eventTimeZone": "GMT",
      "eventPrevious": "5.25M",
      "eventCurrency": "USD",
      "eventForecast": ""
    },
    {
      "eventDateTime": "2000-12-01T09:00:00",
      "eventActual": "0.00%",
      "eventCountry": "United States",
      "eventExpectedVolatility": "Moderate",
      "eventName": "Export Price Index (MoM) (Nov)",
      "eventTimeZone": "GMT",
      "eventPrevious": "-0.10%",
      "eventCurrency": "USD",
      "eventForecast": ""
    },
    {
      "eventDateTime": "2000-12-01T09:00:00",
      "eventActual": "1.10%",
      "eventCountry": "United States",
      "eventExpectedVolatility": "Moderate",
      "eventName": "Factory Orders (MoM) (Nov)",
      "eventTimeZone": "GMT",
      "eventPrevious": "-4.20%",
      "eventCurrency": "USD",
      "eventForecast": ""
    },
    {
      "eventDateTime": "2000-12-01T09:00:00",
      "eventActual": "-0.20%",
      "eventCountry": "United States",
      "eventExpectedVolatility": "Low",
      "eventName": "Factory orders ex transportation (MoM) (Nov)",
      "eventTimeZone": "GMT",
      "eventPrevious": "-1.80%",
      "eventCurrency": "USD",
      "eventForecast": ""
    },
    {
      "eventDateTime": "2000-12-01T09:00:00",
      "eventActual": "-23.70B",
      "eventCountry": "United States",
      "eventExpectedVolatility": "Moderate",
      "eventName": "Federal Budget Balance (Nov)",
      "eventTimeZone": "GMT",
      "eventPrevious": "-11.30B",
      "eventCurrency": "USD",
      "eventForecast": ""
    },
    {
      "eventDateTime": "2000-12-01T09:00:00",
      "eventActual": "1.62M",
      "eventCountry": "United States",
      "eventExpectedVolatility": "Low",
      "eventName": "Gasoline Inventories (Nov)",
      "eventTimeZone": "GMT",
      "eventPrevious": "-1.89M",
      "eventCurrency": "USD",
      "eventForecast": ""
    },
    {
      "eventDateTime": "2000-12-01T09:00:00",
      "eventActual": "17.00K",
      "eventCountry": "United States",
      "eventExpectedVolatility": "Low",
      "eventName": "Government Payrolls (Nov)",
      "eventTimeZone": "GMT",
      "eventPrevious": "8.00K",
      "eventCurrency": "USD",
      "eventForecast": ""
    },
    {
      "eventDateTime": "2000-12-01T09:00:00",
      "eventActual": "0.60%",
      "eventCountry": "United States",
      "eventExpectedVolatility": "Low",
      "eventName": "House Price Index (MoM) (Nov)",
      "eventTimeZone": "GMT",
      "eventPrevious": "0.60%",
      "eventCurrency": "USD",
      "eventForecast": ""
    },
    {
      "eventDateTime": "2000-12-01T09:00:00",
      "eventActual": "145.00",
      "eventCountry": "United States",
      "eventExpectedVolatility": "Low",
      "eventName": "House Price Index (Nov)",
      "eventTimeZone": "GMT",
      "eventPrevious": "144.00",
      "eventCurrency": "USD",
      "eventForecast": ""
    },
    {
      "eventDateTime": "2000-12-01T09:00:00",
      "eventActual": "7.10%",
      "eventCountry": "United States",
      "eventExpectedVolatility": "Low",
      "eventName": "House Price Index (YoY) (Nov)",
      "eventTimeZone": "GMT",
      "eventPrevious": "6.80%",
      "eventCurrency": "USD",
      "eventForecast": ""
    },
    {
      "eventDateTime": "2000-12-01T09:00:00",
      "eventActual": "0.10%",
      "eventCountry": "United States",
      "eventExpectedVolatility": "Moderate",
      "eventName": "Housing Starts (MoM) (Nov)",
      "eventTimeZone": "GMT",
      "eventPrevious": "2.80%",
      "eventCurrency": "USD",
      "eventForecast": ""
    },
    {
      "eventDateTime": "2000-12-01T09:00:00",
      "eventActual": "1.55M",
      "eventCountry": "United States",
      "eventExpectedVolatility": "Moderate",
      "eventName": "Housing Starts (Nov)",
      "eventTimeZone": "GMT",
      "eventPrevious": "1.55M",
      "eventCurrency": "USD",
      "eventForecast": ""
    },
    {
      "eventDateTime": "2000-12-01T09:00:00",
      "eventActual": "47.10",
      "eventCountry": "United States",
      "eventExpectedVolatility": "Moderate",
      "eventName": "ISM Manufacturing Employment (Nov)",
      "eventTimeZone": "GMT",
      "eventPrevious": "48.20",
      "eventCurrency": "USD",
      "eventForecast": ""
    },
    {
      "eventDateTime": "2000-12-01T09:00:00",
      "eventActual": "49.10",
      "eventCountry": "United States",
      "eventExpectedVolatility": "Low",
      "eventName": "ISM Manufacturing New Orders Index (Nov)",
      "eventTimeZone": "GMT",
      "eventPrevious": "48.40",
      "eventCurrency": "USD",
      "eventForecast": ""
    },
    {
      "eventDateTime": "2000-12-01T09:00:00",
      "eventActual": "48.50",
      "eventCountry": "United States",
      "eventExpectedVolatility": "High",
      "eventName": "ISM Manufacturing PMI (Nov)",
      "eventTimeZone": "GMT",
      "eventPrevious": "48.70",
      "eventCurrency": "USD",
      "eventForecast": ""
    },
    {
      "eventDateTime": "2000-12-01T09:00:00",
      "eventActual": "58.10",
      "eventCountry": "United States",
      "eventExpectedVolatility": "Low",
      "eventName": "ISM Manufacturing Prices (Nov)",
      "eventTimeZone": "GMT",
      "eventPrevious": "57.70",
      "eventCurrency": "USD",
      "eventForecast": ""
    },
    {
      "eventDateTime": "2000-12-01T09:00:00",
      "eventActual": "59.70",
      "eventCountry": "United States",
      "eventExpectedVolatility": "Low",
      "eventName": "ISM Non-Manufacturing Business Activity (Nov)",
      "eventTimeZone": "GMT",
      "eventPrevious": "58.60",
      "eventCurrency": "USD",
      "eventForecast": ""
    },
    {
      "eventDateTime": "2000-12-01T09:00:00",
      "eventActual": "54.60",
      "eventCountry": "United States",
      "eventExpectedVolatility": "Moderate",
      "eventName": "ISM Non-Manufacturing Employment (Nov)",
      "eventTimeZone": "GMT",
      "eventPrevious": "54.50",
      "eventCurrency": "USD",
      "eventForecast": ""
    },
    {
      "eventDateTime": "2000-12-01T09:00:00",
      "eventActual": "56.40",
      "eventCountry": "United States",
      "eventExpectedVolatility": "Low",
      "eventName": "ISM Non-Manufacturing New Orders (Nov)",
      "eventTimeZone": "GMT",
      "eventPrevious": "59.20",
      "eventCurrency": "USD",
      "eventForecast": ""
    },
    {
      "eventDateTime": "2000-12-01T09:00:00",
      "eventActual": "56.20",
      "eventCountry": "United States",
      "eventExpectedVolatility": "High",
      "eventName": "ISM Non-Manufacturing PMI (Nov)",
      "eventTimeZone": "GMT",
      "eventPrevious": "56.70",
      "eventCurrency": "USD",
      "eventForecast": ""
    },
    {
      "eventDateTime": "2000-12-01T09:00:00",
      "eventActual": "60.90",
      "eventCountry": "United States",
      "eventExpectedVolatility": "Low",
      "eventName": "ISM Non-Manufacturing Prices (Nov)",
      "eventTimeZone": "GMT",
      "eventPrevious": "63.70",
      "eventCurrency": "USD",
      "eventForecast": ""
    },
    {
      "eventDateTime": "2000-12-01T09:00:00",
      "eventActual": "279.40",
      "eventCountry": "United States",
      "eventExpectedVolatility": "Low",
      "eventName": "ISM-New York Index (Nov)",
      "eventTimeZone": "GMT",
      "eventPrevious": "276.40",
      "eventCurrency": "USD",
      "eventForecast": ""
    },
    {
      "eventDateTime": "2000-12-01T09:00:00",
      "eventActual": "0.00%",
      "eventCountry": "United States",
      "eventExpectedVolatility": "Moderate",
      "eventName": "Import Price Index (MoM) (Nov)",
      "eventTimeZone": "GMT",
      "eventPrevious": "-0.40%",
      "eventCurrency": "USD",
      "eventForecast": ""
    },
    {
      "eventDateTime": "2000-12-01T09:00:00",
      "eventActual": "0.00%",
      "eventCountry": "United States",
      "eventExpectedVolatility": "Moderate",
      "eventName": "Industrial Production (MoM) (Nov)",
      "eventTimeZone": "GMT",
      "eventPrevious": "-0.30%",
      "eventCurrency": "USD",
      "eventForecast": ""
    },
    {
      "eventDateTime": "2000-12-01T09:00:00",
      "eventActual": "335.23K",
      "eventCountry": "United States",
      "eventExpectedVolatility": "Moderate",
      "eventName": "Initial Jobless Claims (Nov)",
      "eventTimeZone": "GMT",
      "eventPrevious": "303.73K",
      "eventCurrency": "USD",
      "eventForecast": ""
    },
    {
      "eventDateTime": "2000-12-01T09:00:00",
      "eventActual": "322.43K",
      "eventCountry": "United States",
      "eventExpectedVolatility": "Low",
      "eventName": "Jobless Claims 4-Week Avg. (Nov)",
      "eventTimeZone": "GMT",
      "eventPrevious": "299.85K",
      "eventCurrency": "USD",
      "eventForecast": ""
    },
    {
      "eventDateTime": "2000-12-01T09:00:00",
      "eventActual": "7.63%",
      "eventCountry": "United States",
      "eventExpectedVolatility": "Low",
      "eventName": "MBA 30-Year Mortgage Rate (Nov)",
      "eventTimeZone": "GMT",
      "eventPrevious": "7.74%",
      "eventCurrency": "USD",
      "eventForecast": ""
    },
    {
      "eventDateTime": "2000-12-01T09:00:00",
      "eventActual": "316.92",
      "eventCountry": "United States",
      "eventExpectedVolatility": "Low",
      "eventName": "MBA Purchase Index (Nov)",
      "eventTimeZone": "GMT",
      "eventPrevious": "304.86",
      "eventCurrency": "USD",
      "eventForecast": ""
    },
    {
      "eventDateTime": "2000-12-01T09:00:00",
      "eventActual": "-15.00K",
      "eventCountry": "United States",
      "eventExpectedVolatility": "Low",
      "eventName": "Manufacturing Payrolls (Nov)",
      "eventTimeZone": "GMT",
      "eventPrevious": "-13.00K",
      "eventCurrency": "USD",
      "eventForecast": ""
    },
    {
      "eventDateTime": "2000-12-01T09:00:00",
      "eventActual": "-0.30%",
      "eventCountry": "United States",
      "eventExpectedVolatility": "Low",
      "eventName": "Manufacturing Production (MoM) (Nov)",
      "eventTimeZone": "GMT",
      "eventPrevious": "-0.30%",
      "eventCurrency": "USD",
      "eventForecast": ""
    },
    {
      "eventDateTime": "2000-12-01T09:00:00",
      "eventActual": "2.90%",
      "eventCountry": "United States",
      "eventExpectedVolatility": "Low",
      "eventName": "Michigan 5-Year Inflation Expectations (Nov)",
      "eventTimeZone": "GMT",
      "eventPrevious": "3.00%",
      "eventCurrency": "USD",
      "eventForecast": ""
    },
    {
      "eventDateTime": "2000-12-01T09:00:00",
      "eventActual": "102.60",
      "eventCountry": "United States",
      "eventExpectedVolatility": "Moderate",
      "eventName": "Michigan Consumer Expectations (Nov)",
      "eventTimeZone": "GMT",
      "eventPrevious": "100.70",
      "eventCurrency": "USD",
      "eventForecast": ""
    },
    {
      "eventDateTime": "2000-12-01T09:00:00",
      "eventActual": "107.60",
      "eventCountry": "United States",
      "eventExpectedVolatility": "Moderate",
      "eventName": "Michigan Consumer Sentiment (Nov)",
      "eventTimeZone": "GMT",
      "eventPrevious": "106.40",
      "eventCurrency": "USD",
      "eventForecast": ""
    },
    {
      "eventDateTime": "2000-12-01T09:00:00",
      "eventActual": "116.90",
      "eventCountry": "United States",
      "eventExpectedVolatility": "Low",
      "eventName": "Michigan Current Conditions (Nov)",
      "eventTimeZone": "GMT",
      "eventPrevious": "114.90",
      "eventCurrency": "USD",
      "eventForecast": ""
    },
    {
      "eventDateTime": "2000-12-01T09:00:00",
      "eventActual": "2.90%",
      "eventCountry": "United States",
      "eventExpectedVolatility": "Low",
      "eventName": "Michigan Inflation Expectations (Nov)",
      "eventTimeZone": "GMT",
      "eventPrevious": "3.20%",
      "eventCurrency": "USD",
      "eventForecast": ""
    },
    {
      "eventDateTime": "2000-12-01T09:00:00",
      "eventActual": "112.60",
      "eventCountry": "United States",
      "eventExpectedVolatility": "Low",
      "eventName": "Midwest Manufacturing (Nov)",
      "eventTimeZone": "GMT",
      "eventPrevious": "112.40",
      "eventCurrency": "USD",
      "eventForecast": ""
    },
    {
      "eventDateTime": "2000-12-01T09:00:00",
      "eventActual": "363.51",
      "eventCountry": "United States",
      "eventExpectedVolatility": "Low",
      "eventName": "Mortgage Market Index (Nov)",
      "eventTimeZone": "GMT",
      "eventPrevious": "342.70",
      "eventCurrency": "USD",
      "eventForecast": ""
    },
    {
      "eventDateTime": "2000-12-01T09:00:00",
      "eventActual": "634.40",
      "eventCountry": "United States",
      "eventExpectedVolatility": "Low",
      "eventName": "Mortgage Refinance Index (Nov)",
      "eventTimeZone": "GMT",
      "eventPrevious": "562.70",
      "eventCurrency": "USD",
      "eventForecast": ""
    },
    {
      "eventDateTime": "2000-12-01T09:00:00",
      "eventActual": "63.00",
      "eventCountry": "United States",
      "eventExpectedVolatility": "Low",
      "eventName": "NAHB Housing Market Index (Nov)",
      "eventTimeZone": "GMT",
      "eventPrevious": "62.00",
      "eventCurrency": "USD",
      "eventForecast": ""
    },
    {
      "eventDateTime": "2000-12-01T09:00:00",
      "eventActual": "99.60",
      "eventCountry": "United States",
      "eventExpectedVolatility": "Low",
      "eventName": "NFIB Small Business Optimism (Nov)",
      "eventTimeZone": "GMT",
      "eventPrevious": "99.40",
      "eventCurrency": "USD",
      "eventForecast": ""
    },
    {
      "eventDateTime": "2000-12-01T09:00:00",
      "eventActual": "-63.32B",
      "eventCountry": "United States",
      "eventExpectedVolatility": "Low",
      "eventName": "Natural Gas Storage (Nov)",
      "eventTimeZone": "GMT",
      "eventPrevious": "54.77B",
      "eventCurrency": "USD",
      "eventForecast": ""
    },
    {
      "eventDateTime": "2000-12-01T09:00:00",
      "eventActual": "-5.70%",
      "eventCountry": "United States",
      "eventExpectedVolatility": "Moderate",
      "eventName": "New Home Sales (MoM) (Nov)",
      "eventTimeZone": "GMT",
      "eventPrevious": "2.30%",
      "eventCurrency": "USD",
      "eventForecast": ""
    },
    {
      "eventDateTime": "2000-12-01T09:00:00",
      "eventActual": "880.00K",
      "eventCountry": "United States",
      "eventExpectedVolatility": "High",
      "eventName": "New Home Sales (Nov)",
      "eventTimeZone": "GMT",
      "eventPrevious": "933.00K",
      "eventCurrency": "USD",
      "eventForecast": ""
    },
    {
      "eventDateTime": "2000-12-01T09:00:00",
      "eventActual": "54.10B",
      "eventCountry": "United States",
      "eventExpectedVolatility": "Low",
      "eventName": "Overall Net Capital Flow (Nov)",
      "eventTimeZone": "GMT",
      "eventPrevious": "59.10B",
      "eventCurrency": "USD",
      "eventForecast": ""
    },
    {
      "eventDateTime": "2000-12-01T09:00:00",
      "eventActual": "0.10%",
      "eventCountry": "United States",
      "eventExpectedVolatility": "Low",
      "eventName": "Personal Income (MoM) (Nov)",
      "eventTimeZone": "GMT",
      "eventPrevious": "0.30%",
      "eventCurrency": "USD",
      "eventForecast": ""
    },
    {
      "eventDateTime": "2000-12-01T09:00:00",
      "eventActual": "0.20%",
      "eventCountry": "United States",
      "eventExpectedVolatility": "Moderate",
      "eventName": "Personal Spending (MoM) (Nov)",
      "eventTimeZone": "GMT",
      "eventPrevious": "0.10%",
      "eventCurrency": "USD",
      "eventForecast": ""
    },
    {
      "eventDateTime": "2000-12-01T09:00:00",
      "eventActual": "6.90",
      "eventCountry": "United States",
      "eventExpectedVolatility": "High",
      "eventName": "Philadelphia Fed Manufacturing Index (Nov)",
      "eventTimeZone": "GMT",
      "eventPrevious": "1.90",
      "eventCurrency": "USD",
      "eventForecast": ""
    },
    {
      "eventDateTime": "2000-12-01T09:00:00",
      "eventActual": "5.70",
      "eventCountry": "United States",
      "eventExpectedVolatility": "Low",
      "eventName": "Philly Fed Business Conditions (Nov)",
      "eventTimeZone": "GMT",
      "eventPrevious": "11.30",
      "eventCurrency": "USD",
      "eventForecast": ""
    },
    {
      "eventDateTime": "2000-12-01T09:00:00",
      "eventActual": "16.50",
      "eventCountry": "United States",
      "eventExpectedVolatility": "Low",
      "eventName": "Philly Fed CAPEX Index (Nov)",
      "eventTimeZone": "GMT",
      "eventPrevious": "23.20",
      "eventCurrency": "USD",
      "eventForecast": ""
    },
    {
      "eventDateTime": "2000-12-01T09:00:00",
      "eventActual": "-4.30",
      "eventCountry": "United States",
      "eventExpectedVolatility": "Moderate",
      "eventName": "Philly Fed Employment (Nov)",
      "eventTimeZone": "GMT",
      "eventPrevious": "2.00",
      "eventCurrency": "USD",
      "eventForecast": ""
    },
    {
      "eventDateTime": "2000-12-01T09:00:00",
      "eventActual": "2.60",
      "eventCountry": "United States",
      "eventExpectedVolatility": "Low",
      "eventName": "Philly Fed New Orders (Nov)",
      "eventTimeZone": "GMT",
      "eventPrevious": "3.80",
      "eventCurrency": "USD",
      "eventForecast": ""
    },
    {
      "eventDateTime": "2000-12-01T09:00:00",
      "eventActual": "23.10",
      "eventCountry": "United States",
      "eventExpectedVolatility": "Low",
      "eventName": "Philly Fed Prices Paid (Nov)",
      "eventTimeZone": "GMT",
      "eventPrevious": "26.30",
      "eventCurrency": "USD",
      "eventForecast": ""
    },
    {
      "eventDateTime": "2000-12-01T09:00:00",
      "eventActual": "208.00K",
      "eventCountry": "United States",
      "eventExpectedVolatility": "Moderate",
      "eventName": "Private Nonfarm Payrolls (Nov)",
      "eventTimeZone": "GMT",
      "eventPrevious": "-23.00K",
      "eventCurrency": "USD",
      "eventForecast": ""
    },
    {
      "eventDateTime": "2000-12-01T09:00:00",
      "eventActual": "0.10%",
      "eventCountry": "United States",
      "eventExpectedVolatility": "Low",
      "eventName": "Real Personal Consumption (MoM) (Nov)",
      "eventTimeZone": "GMT",
      "eventPrevious": "0.00%",
      "eventCurrency": "USD",
      "eventForecast": ""
    },
    {
      "eventDateTime": "2000-12-01T09:00:00",
      "eventActual": "0.20%",
      "eventCountry": "United States",
      "eventExpectedVolatility": "Low",
      "eventName": "Retail Control (MoM) (Nov)",
      "eventTimeZone": "GMT",
      "eventPrevious": "-0.20%",
      "eventCurrency": "USD",
      "eventForecast": ""
    },
    {
      "eventDateTime": "2000-12-01T09:00:00",
      "eventActual": "-0.40%",
      "eventCountry": "United States",
      "eventExpectedVolatility": "High",
      "eventName": "Retail Sales (MoM) (Nov)",
      "eventTimeZone": "GMT",
      "eventPrevious": "-0.20%",
      "eventCurrency": "USD",
      "eventForecast": ""
    },
    {
      "eventDateTime": "2000-12-01T09:00:00",
      "eventActual": "0.00%",
      "eventCountry": "United States",
      "eventExpectedVolatility": "Low",
      "eventName": "Retail Sales Ex Gas/Autos (MoM) (Nov)",
      "eventTimeZone": "GMT",
      "eventPrevious": "0.00%",
      "eventCurrency": "USD",
      "eventForecast": ""
    },
    {
      "eventDateTime": "2000-12-01T09:00:00",
      "eventActual": "-1.00",
      "eventCountry": "United States",
      "eventExpectedVolatility": "Low",
      "eventName": "Richmond Manufacturing Index (Nov)",
      "eventTimeZone": "GMT",
      "eventPrevious": "-1.00",
      "eventCurrency": "USD",
      "eventForecast": ""
    },
    {
      "eventDateTime": "2000-12-01T09:00:00",
      "eventActual": "0.00",
      "eventCountry": "United States",
      "eventExpectedVolatility": "Low",
      "eventName": "Richmond Manufacturing Shipments (Nov)",
      "eventTimeZone": "GMT",
      "eventPrevious": "-3.00",
      "eventCurrency": "USD",
      "eventForecast": ""
    },
    {
      "eventDateTime": "2000-12-01T09:00:00",
      "eventActual": "-7.00",
      "eventCountry": "United States",
      "eventExpectedVolatility": "Low",
      "eventName": "Richmond Services Index (Nov)",
      "eventTimeZone": "GMT",
      "eventPrevious": "-6.00",
      "eventCurrency": "USD",
      "eventForecast": ""
    },
    {
      "eventDateTime": "2000-12-01T09:00:00",
      "eventActual": "0.70%",
      "eventCountry": "United States",
      "eventExpectedVolatility": "Low",
      "eventName": "Sandamp;P/CS HPI Composite - 20 n.s.a. (MoM) (Nov)",
      "eventTimeZone": "GMT",
      "eventPrevious": "0.60%",
      "eventCurrency": "USD",
      "eventForecast": ""
    },
    {
      "eventDateTime": "2000-12-01T09:00:00",
      "eventActual": "1.00%",
      "eventCountry": "United States",
      "eventExpectedVolatility": "Low",
      "eventName": "Sandamp;P/CS HPI Composite - 20 s.a. (MoM) (Nov)",
      "eventTimeZone": "GMT",
      "eventPrevious": "0.80%",
      "eventCurrency": "USD",
      "eventForecast": ""
    },
    {
      "eventDateTime": "2000-12-01T09:00:00",
      "eventActual": "45.50B",
      "eventCountry": "United States",
      "eventExpectedVolatility": "Moderate",
      "eventName": "TIC Net Long-Term Transactions (Nov)",
      "eventTimeZone": "GMT",
      "eventPrevious": "43.90B",
      "eventCurrency": "USD",
      "eventForecast": ""
    },
    {
      "eventDateTime": "2000-12-01T09:00:00",
      "eventActual": "41.90B",
      "eventCountry": "United States",
      "eventExpectedVolatility": "Low",
      "eventName": "TIC Net Long-Term Transactions including Swaps (Nov)",
      "eventTimeZone": "GMT",
      "eventPrevious": "25.30B",
      "eventCurrency": "USD",
      "eventForecast": ""
    },
    {
      "eventDateTime": "2000-12-01T09:00:00",
      "eventActual": "-32.60B",
      "eventCountry": "United States",
      "eventExpectedVolatility": "Moderate",
      "eventName": "Trade Balance (Nov)",
      "eventTimeZone": "GMT",
      "eventPrevious": "-33.20B",
      "eventCurrency": "USD",
      "eventForecast": ""
    },
    {
      "eventDateTime": "2000-12-01T09:00:00",
      "eventActual": "-14.10B",
      "eventCountry": "United States",
      "eventExpectedVolatility": "Low",
      "eventName": "US Foreign Buying, T-bonds (Nov)",
      "eventTimeZone": "GMT",
      "eventPrevious": "-3.00B",
      "eventCurrency": "USD",
      "eventForecast": ""
    },
    {
      "eventDateTime": "2000-12-01T09:00:00",
      "eventActual": "0.70%",
      "eventCountry": "United States",
      "eventExpectedVolatility": "Low",
      "eventName": "Wholesale Inventories (MoM) (Nov)",
      "eventTimeZone": "GMT",
      "eventPrevious": "0.70%",
      "eventCurrency": "USD",
      "eventForecast": ""
    },
    {
      "eventDateTime": "2000-12-01T12:30:00",
      "eventActual": "7.10%",
      "eventCountry": "United States",
      "eventExpectedVolatility": "Low",
      "eventName": "U6 Unemployment Rate (Nov)",
      "eventTimeZone": "GMT",
      "eventPrevious": "6.80%",
      "eventCurrency": "USD",
      "eventForecast": ""
    },
    {
      "eventDateTime": "2000-12-01T12:30:00",
      "eventActual": "3.9%",
      "eventCountry": "United States",
      "eventExpectedVolatility": "High",
      "eventName": "Unemployment Rate (Nov)",
      "eventTimeZone": "GMT",
      "eventPrevious": "3.9%",
      "eventCurrency": "USD",
      "eventForecast": ""
    },
    {
      "eventDateTime": "2000-12-01T17:00:00",
      "eventActual": "255",
      "eventCountry": "United States",
      "eventExpectedVolatility": "Moderate",
      "eventName": "U.S. Baker Hughes Oil Rig Count",
      "eventTimeZone": "GMT",
      "eventPrevious": "244",
      "eventCurrency": "USD",
      "eventForecast": ""
    },
    {
      "eventDateTime": "2000-12-01T20:30:00",
      "eventActual": "11.9k",
      "eventCountry": "United States",
      "eventExpectedVolatility": "Moderate",
      "eventName": "CFTC Crude Oil speculative net positions",
      "eventTimeZone": "GMT",
      "eventPrevious": "13.8k",
      "eventCurrency": "USD",
      "eventForecast": ""
    }
  ]}}
