{"events": {"event": [
    {
      "eventDateTime": "2018-01-09T06:45:00",
      "eventActual": "3.3%",
      "eventCountry": "Switzerland",
      "eventExpectedVolatility": "Moderate",
      "eventName": "Unemployment Rate n.s.a. (Dec)",
      "eventTimeZone": "GMT",
      "eventPrevious": "3.1%",
      "eventCurrency": "CHF",
      "eventForecast": "3.1%"
    },
    {
      "eventDateTime": "2018-01-09T06:45:00",
      "eventActual": "3.0%",
      "eventCountry": "Switzerland",
      "eventExpectedVolatility": "Moderate",
      "eventName": "Unemployment Rate s.a. (Dec)",
      "eventTimeZone": "GMT",
      "eventPrevious": "3.1%",
      "eventCurrency": "CHF",
      "eventForecast": "3.0%"
    },
    {
      "eventDateTime": "2018-01-09T08:15:00",
      "eventActual": "-0.2%",
      "eventCountry": "Switzerland",
      "eventExpectedVolatility": "Moderate",
      "eventName": "Retail Sales (YoY) (Nov)",
      "eventTimeZone": "GMT",
      "eventPrevious": "-2.6%",
      "eventCurrency": "CHF",
      "eventForecast": "-2.5%"
    }
  ]}}
