{"events": {"event": [
    {
      "eventDateTime": "2014-12-01T14:45:00",
      "eventActual": "54.8",
      "eventCountry": "United States",
      "eventExpectedVolatility": "Moderate",
      "eventName": "Manufacturing PMI (Nov)",
      "eventTimeZone": "GMT",
      "eventPrevious": "54.7",
      "eventCurrency": "USD",
      "eventForecast": "55.0"
    },
    {
      "eventDateTime": "2014-12-01T15:00:00",
      "eventActual": "54.9",
      "eventCountry": "United States",
      "eventExpectedVolatility": "Moderate",
      "eventName": "ISM Manufacturing Employment (Nov)",
      "eventTimeZone": "GMT",
      "eventPrevious": "55.5",
      "eventCurrency": "USD",
      "eventForecast": ""
    },
    {
      "eventDateTime": "2014-12-01T15:00:00",
      "eventActual": "66.0",
      "eventCountry": "United States",
      "eventExpectedVolatility": "Low",
      "eventName": "ISM Manufacturing New Orders Index (Nov)",
      "eventTimeZone": "GMT",
      "eventPrevious": "65.8",
      "eventCurrency": "USD",
      "eventForecast": ""
    },
    {
      "eventDateTime": "2014-12-01T15:00:00",
      "eventActual": "58.7",
      "eventCountry": "United States",
      "eventExpectedVolatility": "High",
      "eventName": "ISM Manufacturing PMI (Nov)",
      "eventTimeZone": "GMT",
      "eventPrevious": "59.0",
      "eventCurrency": "USD",
      "eventForecast": "57.9"
    },
    {
      "eventDateTime": "2014-12-01T15:00:00",
      "eventActual": "44.5",
      "eventCountry": "United States",
      "eventExpectedVolatility": "Low",
      "eventName": "ISM Manufacturing Prices (Nov)",
      "eventTimeZone": "GMT",
      "eventPrevious": "53.5",
      "eventCurrency": "USD",
      "eventForecast": "52.6"
    },
    {
      "eventDateTime": "2014-12-01T16:30:00",
      "eventActual": "0.025%",
      "eventCountry": "United States",
      "eventExpectedVolatility": "Low",
      "eventName": "3-Month Bill Auction",
      "eventTimeZone": "GMT",
      "eventPrevious": "0.020%",
      "eventCurrency": "USD",
      "eventForecast": ""
    },
    {
      "eventDateTime": "2014-12-01T16:30:00",
      "eventActual": "0.075%",
      "eventCountry": "United States",
      "eventExpectedVolatility": "Low",
      "eventName": "6-Month Bill Auction",
      "eventTimeZone": "GMT",
      "eventPrevious": "0.070%",
      "eventCurrency": "USD",
      "eventForecast": ""
    },
    {
      "eventDateTime": "2014-12-01T17:15:00",
      "eventActual": "",
      "eventCountry": "United States",
      "eventExpectedVolatility": "Moderate",
      "eventName": "FOMC Member Dudley Speaks",
      "eventTimeZone": "GMT",
      "eventPrevious": "",
      "eventCurrency": "USD",
      "eventForecast": ""
    }
  ]}}
