{"events": {"event": [
    {
      "eventDateTime": "2004-05-28T17:00:00",
      "eventActual": "156",
      "eventCountry": "United States",
      "eventExpectedVolatility": "Moderate",
      "eventName": "U.S. Baker Hughes Oil Rig Count",
      "eventTimeZone": "GMT",
      "eventPrevious": "153",
      "eventCurrency": "USD",
      "eventForecast": ""
    },
    {
      "eventDateTime": "2004-05-28T20:30:00",
      "eventActual": "77.4k",
      "eventCountry": "United States",
      "eventExpectedVolatility": "Moderate",
      "eventName": "CFTC Crude Oil speculative net positions",
      "eventTimeZone": "GMT",
      "eventPrevious": "65.8k",
      "eventCurrency": "USD",
      "eventForecast": ""
    }
  ]}}
