{"events": {"event": {
    "eventDateTime": "2008-05-30T19:30:00",
    "eventActual": "57.3K",
    "eventCountry": "Australia",
    "eventExpectedVolatility": "Moderate",
    "eventName": "CFTC AUD speculative net positions",
    "eventTimeZone": "GMT",
    "eventPrevious": "61.3K",
    "eventCurrency": "AUD",
    "eventForecast": ""
  }}}
