{"events": {"event": [
    {
      "eventDateTime": "2016-01-18T21:00:00",
      "eventActual": "-0.2%",
      "eventCountry": "South Korea",
      "eventExpectedVolatility": "Low",
      "eventName": "PPI (MoM) (Dec)",
      "eventTimeZone": "GMT",
      "eventPrevious": "-0.4%",
      "eventCurrency": "KRW",
      "eventForecast": ""
    },
    {
      "eventDateTime": "2016-01-18T21:00:00",
      "eventActual": "-3.9%",
      "eventCountry": "South Korea",
      "eventExpectedVolatility": "Low",
      "eventName": "PPI (YoY) (Dec)",
      "eventTimeZone": "GMT",
      "eventPrevious": "-4.7%",
      "eventCurrency": "KRW",
      "eventForecast": ""
    }
  ]}}
