{"events": {"event": {
    "eventDateTime": "2006-06-29T18:00:00",
    "eventActual": "5.25%",
    "eventCountry": "United States",
    "eventExpectedVolatility": "High",
    "eventName": "Fed Interest Rate Decision",
    "eventTimeZone": "GMT",
    "eventPrevious": "5.00%",
    "eventCurrency": "USD",
    "eventForecast": ""
  }}}
