"Rightmove House Price Index (MoM)";"United Kingdom";"GBP";"2017-02-20T00:01:00";"GMT";"0.4%";"";"2.0%";"Low"
"Investing.com GBP/USD Index";"United Kingdom";"GBP";"2017-02-20T06:30:00";"GMT";"41.0%";"";"43.1%";"Moderate"
"CBI Industrial Trends Orders (Feb)";"United Kingdom";"GBP";"2017-02-20T11:00:00";"GMT";"5";"3";"8";"Moderate"
