"BRC Shop Price Index (YoY)";"United Kingdom";"GBP";"2016-12-07T00:01:00";"GMT";"-1.7%";"";"-1.7%";"Low"
"Halifax House Price Index (MoM) (Nov)";"United Kingdom";"GBP";"2016-12-07T08:30:00";"GMT";"1.5%";"0.2%";"0.2%";"Moderate"
"Halifax House Price Index (YoY) (Nov)";"United Kingdom";"GBP";"2016-12-07T08:30:00";"GMT";"5.2%";"6.0%";"6.0%";"Moderate"
"Industrial Production (MoM) (Oct)";"United Kingdom";"GBP";"2016-12-07T09:30:00";"GMT";"-0.4%";"0.2%";"-1.3%";"Moderate"
"Industrial Production (YoY) (Oct)";"United Kingdom";"GBP";"2016-12-07T09:30:00";"GMT";"0.4%";"0.5%";"-1.1%";"Low"
"Manufacturing Production (MoM) (Oct)";"United Kingdom";"GBP";"2016-12-07T09:30:00";"GMT";"0.6%";"0.2%";"-0.9%";"High"
"Manufacturing Production (YoY) (Oct)";"United Kingdom";"GBP";"2016-12-07T09:30:00";"GMT";"0.1%";"0.8%";"-0.4%";"Low"
"30-Year Treasury Gilt Auction";"United Kingdom";"GBP";"2016-12-07T09:35:00";"GMT";"1.488%";"";"1.956%";"Low"
"NIESR GDP Estimate";"United Kingdom";"GBP";"2016-12-07T15:00:00";"GMT";"0.4%";"";"0.4%";"Moderate"
