{"events": {"event": [
    {
      "eventDateTime": "2016-12-07T00:01:00",
      "eventActual": "-1.7%",
      "eventCountry": "United Kingdom",
      "eventExpectedVolatility": "Low",
      "eventName": "BRC Shop Price Index (YoY)",
      "eventTimeZone": "GMT",
      "eventPrevious": "-1.7%",
      "eventCurrency": "GBP",
      "eventForecast": ""
    },
    {
      "eventDateTime": "2016-12-07T08:30:00",
      "eventActual": "0.2%",
      "eventCountry": "United Kingdom",
      "eventExpectedVolatility": "Moderate",
      "eventName": "Halifax House Price Index (MoM) (Nov)",
      "eventTimeZone": "GMT",
      "eventPrevious": "1.5%",
      "eventCurrency": "GBP",
      "eventForecast": "0.2%"
    },
    {
      "eventDateTime": "2016-12-07T08:30:00",
      "eventActual": "6.0%",
      "eventCountry": "United Kingdom",
      "eventExpectedVolatility": "Moderate",
      "eventName": "Halifax House Price Index (YoY) (Nov)",
      "eventTimeZone": "GMT",
      "eventPrevious": "5.2%",
      "eventCurrency": "GBP",
      "eventForecast": "6.0%"
    },
    {
      "eventDateTime": "2016-12-07T09:30:00",
      "eventActual": "-1.3%",
      "eventCountry": "United Kingdom",
      "eventExpectedVolatility": "Moderate",
      "eventName": "Industrial Production (MoM) (Oct)",
      "eventTimeZone": "GMT",
      "eventPrevious": "-0.4%",
      "eventCurrency": "GBP",
      "eventForecast": "0.2%"
    },
    {
      "eventDateTime": "2016-12-07T09:30:00",
      "eventActual": "-1.1%",
      "eventCountry": "United Kingdom",
      "eventExpectedVolatility": "Low",
      "eventName": "Industrial Production (YoY) (Oct)",
      "eventTimeZone": "GMT",
      "eventPrevious": "0.4%",
      "eventCurrency": "GBP",
      "eventForecast": "0.5%"
    },
    {
      "eventDateTime": "2016-12-07T09:30:00",
      "eventActual": "-0.9%",
      "eventCountry": "United Kingdom",
      "eventExpectedVolatility": "High",
      "eventName": "Manufacturing Production (MoM) (Oct)",
      "eventTimeZone": "GMT",
      "eventPrevious": "0.6%",
      "eventCurrency": "GBP",
      "eventForecast": "0.2%"
    },
    {
      "eventDateTime": "2016-12-07T09:30:00",
      "eventActual": "-0.4%",
      "eventCountry": "United Kingdom",
      "eventExpectedVolatility": "Low",
      "eventName": "Manufacturing Production (YoY) (Oct)",
      "eventTimeZone": "GMT",
      "eventPrevious": "0.1%",
      "eventCurrency": "GBP",
      "eventForecast": "0.8%"
    },
    {
      "eventDateTime": "2016-12-07T09:35:00",
      "eventActual": "1.956%",
      "eventCountry": "United Kingdom",
      "eventExpectedVolatility": "Low",
      "eventName": "30-Year Treasury Gilt Auction",
      "eventTimeZone": "GMT",
      "eventPrevious": "1.488%",
      "eventCurrency": "GBP",
      "eventForecast": ""
    },
    {
      "eventDateTime": "2016-12-07T15:00:00",
      "eventActual": "0.4%",
      "eventCountry": "United Kingdom",
      "eventExpectedVolatility": "Moderate",
      "eventName": "NIESR GDP Estimate",
      "eventTimeZone": "GMT",
      "eventPrevious": "0.4%",
      "eventCurrency": "GBP",
      "eventForecast": ""
    }
  ]}}
