"MBA Mortgage Applications (WoW)";"United States";"USD";"2010-07-21T11:00:00";"GMT";"-2.9%";"";"7.6%";"Low"
"Crude Oil Inventories";"United States";"USD";"2010-07-21T14:30:00";"GMT";"-5.100M";"";"0.400M";"High"
"Fed Chairman Bernanke Testifies";"United States";"USD";"2010-07-21T18:00:00";"GMT";" ";"";"";"High"
