"Nikkei Markit Manufacturing PMI";"India";"INR";"2013-08-01T05:00:00";"GMT";"50.30";"";"50.10";"Low"
"Cash Reserve Ratio (Jul)";"India";"INR";"2013-08-01T09:00:00";"GMT";"4.00%";"";"4.00%";"Low"
"Cumulative Industrial Production (Jul)";"India";"INR";"2013-08-01T09:00:00";"GMT";"-1.10%";"";"-0.20%";"Low"
"Deposit Growth (Jul)";"India";"INR";"2013-08-01T09:00:00";"GMT";"13.42%";"";"13.28%";"Low"
"Federal Fiscal Deficit (Jul)";"India";"INR";"2013-08-01T09:00:00";"GMT";"2,628.23B";"";"3,406.09B";"Low"
"Reverse REPO Rate (Jul)";"India";"INR";"2013-08-01T09:00:00";"GMT";"6.25%";"";"6.25%";"Low"
"WPI Food (YoY) (Jul)";"India";"INR";"2013-08-01T09:00:00";"GMT";"10.30%";"";"12.30%";"Low"
"WPI Fuel (YoY) (Jul)";"India";"INR";"2013-08-01T09:00:00";"GMT";"7.50%";"";"11.40%";"Low"
"WPI Manufacturing Inflation (YoY) (Jul)";"India";"INR";"2013-08-01T09:00:00";"GMT";"2.89%";"";"2.60%";"Low"
