{"events": {"event": [
    {
      "eventDateTime": "2013-08-01T05:00:00",
      "eventActual": "50.10",
      "eventCountry": "India",
      "eventExpectedVolatility": "Low",
      "eventName": "Nikkei Markit Manufacturing PMI",
      "eventTimeZone": "GMT",
      "eventPrevious": "50.30",
      "eventCurrency": "INR",
      "eventForecast": ""
    },
    {
      "eventDateTime": "2013-08-01T09:00:00",
      "eventActual": "4.00%",
      "eventCountry": "India",
      "eventExpectedVolatility": "Low",
      "eventName": "Cash Reserve Ratio (Jul)",
      "eventTimeZone": "GMT",
      "eventPrevious": "4.00%",
      "eventCurrency": "INR",
      "eventForecast": ""
    },
    {
      "eventDateTime": "2013-08-01T09:00:00",
      "eventActual": "-0.20%",
      "eventCountry": "India",
      "eventExpectedVolatility": "Low",
      "eventName": "Cumulative Industrial Production (Jul)",
      "eventTimeZone": "GMT",
      "eventPrevious": "-1.10%",
      "eventCurrency": "INR",
      "eventForecast": ""
    },
    {
      "eventDateTime": "2013-08-01T09:00:00",
      "eventActual": "13.28%",
      "eventCountry": "India",
      "eventExpectedVolatility": "Low",
      "eventName": "Deposit Growth (Jul)",
      "eventTimeZone": "GMT",
      "eventPrevious": "13.42%",
      "eventCurrency": "INR",
      "eventForecast": ""
    },
    {
      "eventDateTime": "2013-08-01T09:00:00",
      "eventActual": "3,406.09B",
      "eventCountry": "India",
      "eventExpectedVolatility": "Low",
      "eventName": "Federal Fiscal Deficit (Jul)",
      "eventTimeZone": "GMT",
      "eventPrevious": "2,628.23B",
      "eventCurrency": "INR",
      "eventForecast": ""
    },
    {
      "eventDateTime": "2013-08-01T09:00:00",
      "eventActual": "6.25%",
      "eventCountry": "India",
      "eventExpectedVolatility": "Low",
      "eventName": "Reverse REPO Rate (Jul)",
      "eventTimeZone": "GMT",
      "eventPrevious": "6.25%",
      "eventCurrency": "INR",
      "eventForecast": ""
    },
    {
      "eventDateTime": "2013-08-01T09:00:00",
      "eventActual": "12.30%",
      "eventCountry": "India",
      "eventExpectedVolatility": "Low",
      "eventName": "WPI Food (YoY) (Jul)",
      "eventTimeZone": "GMT",
      "eventPrevious": "10.30%",
      "eventCurrency": "INR",
      "eventForecast": ""
    },
    {
      "eventDateTime": "2013-08-01T09:00:00",
      "eventActual": "11.40%",
      "eventCountry": "India",
      "eventExpectedVolatility": "Low",
      "eventName": "WPI Fuel (YoY) (Jul)",
      "eventTimeZone": "GMT",
      "eventPrevious": "7.50%",
      "eventCurrency": "INR",
      "eventForecast": ""
    },
    {
      "eventDateTime": "2013-08-01T09:00:00",
      "eventActual": "2.60%",
      "eventCountry": "India",
      "eventExpectedVolatility": "Low",
      "eventName": "WPI Manufacturing Inflation (YoY) (Jul)",
      "eventTimeZone": "GMT",
      "eventPrevious": "2.89%",
      "eventCurrency": "INR",
      "eventForecast": ""
    }
  ]}}
