{"events": {"event": [
    {
      "eventDateTime": "2015-12-14T00:01:00",
      "eventActual": "-1.1%",
      "eventCountry": "United Kingdom",
      "eventExpectedVolatility": "Low",
      "eventName": "Rightmove House Price Index (MoM)",
      "eventTimeZone": "GMT",
      "eventPrevious": "-1.3%",
      "eventCurrency": "GBP",
      "eventForecast": ""
    },
    {
      "eventDateTime": "2015-12-14T08:30:00",
      "eventActual": "40.5%",
      "eventCountry": "United Kingdom",
      "eventExpectedVolatility": "Moderate",
      "eventName": "Investing.com GBP/USD Index",
      "eventTimeZone": "GMT",
      "eventPrevious": "38.4%",
      "eventCurrency": "GBP",
      "eventForecast": ""
    }
  ]}}
