{"events": {"event": {
    "eventDateTime": "2018-06-18T05:30:00",
    "eventActual": "56.9%",
    "eventCountry": "New Zealand",
    "eventExpectedVolatility": "Moderate",
    "eventName": "Investing.com NZD/USD Index",
    "eventTimeZone": "GMT",
    "eventPrevious": "56.4%",
    "eventCurrency": "NZD",
    "eventForecast": ""
  }}}
