{"events": {"event": {
    "eventDateTime": "2018-12-03T06:00:00",
    "eventActual": "52.6",
    "eventCountry": "Russia",
    "eventExpectedVolatility": "Moderate",
    "eventName": "Markit Manufacturing PMI (Nov)",
    "eventTimeZone": "GMT",
    "eventPrevious": "51.3",
    "eventCurrency": "RUB",
    "eventForecast": ""
  }}}
