"Core PCE Price Index (MoM) (Feb)";"United States";"USD";"2017-03-31T12:30:00";"GMT";"0.3%";"0.2%";"0.2%";"Moderate"
"Core PCE Price Index (YoY) (Feb)";"United States";"USD";"2017-03-31T12:30:00";"GMT";"1.8%";"1.7%";"1.8%";"Moderate"
"Personal Income (MoM) (Feb)";"United States";"USD";"2017-03-31T12:30:00";"GMT";"0.5%";"0.4%";"0.4%";"Low"
"Personal Spending (MoM) (Feb)";"United States";"USD";"2017-03-31T12:30:00";"GMT";"0.2%";"0.2%";"0.1%";"Moderate"
"Real Personal Consumption (MoM) (Feb)";"United States";"USD";"2017-03-31T12:30:00";"GMT";"-0.2%";"0.2%";"-0.1%";"Low"
"Dallas Fed PCE (Feb)";"United States";"USD";"2017-03-31T13:00:00";"GMT";"2.20%";"";"2.00%";"Low"
"FOMC Member Bullard Speaks";"United States";"USD";"2017-03-31T13:30:00";"GMT";" ";"";"";"Moderate"
"Chicago PMI (Mar)";"United States";"USD";"2017-03-31T13:45:00";"GMT";"57.4";"56.9";"57.7";"Moderate"
"FOMC Member Kashkari Speaks";"United States";"USD";"2017-03-31T14:00:00";"GMT";" ";"";"";"Moderate"
"Michigan 5-Year Inflation Expectations (Mar)";"United States";"USD";"2017-03-31T14:00:00";"GMT";"2.20%";"";"2.40%";"Low"
"Michigan Consumer Expectations (Mar)";"United States";"USD";"2017-03-31T14:00:00";"GMT";"86.7";"87.0";"86.5";"Moderate"
"Michigan Consumer Sentiment (Mar)";"United States";"USD";"2017-03-31T14:00:00";"GMT";"97.6";"97.6";"96.9";"Moderate"
"Michigan Current Conditions (Mar)";"United States";"USD";"2017-03-31T14:00:00";"GMT";"114.5";"114.0";"113.2";"Low"
"Michigan Inflation Expectations (Mar)";"United States";"USD";"2017-03-31T14:00:00";"GMT";"2.4%";"";"2.5%";"Low"
"U.S. Baker Hughes Oil Rig Count";"United States";"USD";"2017-03-31T17:00:00";"GMT";"652";"";"662";"Moderate"
"CFTC Copper speculative net positions";"United States";"USD";"2017-03-31T19:30:00";"GMT";"21.7K";"";"29.9K";"Low"
"CFTC Crude Oil speculative net positions";"United States";"USD";"2017-03-31T19:30:00";"GMT";"418.5K";"";"398.1K";"Moderate"
"CFTC Gold speculative net positions";"United States";"USD";"2017-03-31T19:30:00";"GMT";"116.3K";"";"137.8K";"Moderate"
"CFTC Sandamp:P 500 speculative net positions";"United States";"USD";"2017-03-31T19:30:00";"GMT";"89.1K";"";"160.8K";"Moderate"
"CFTC Silver speculative net positions";"United States";"USD";"2017-03-31T19:30:00";"GMT";"79.1K";"";"90.7K";"Low"
