{"events": {"event": {
    "eventDateTime": "2013-11-18T12:00:00",
    "eventActual": "-0.10%",
    "eventCountry": "Russia",
    "eventExpectedVolatility": "Low",
    "eventName": "Industrial Production (YoY)",
    "eventTimeZone": "GMT",
    "eventPrevious": "0.30%",
    "eventCurrency": "RUB",
    "eventForecast": "0.50%"
  }}}
