"Household Spending (YoY)";"Japan";"JPY";"2008-07-28T23:30:00";"GMT";"-3.2%";"-2.8%";"-1.8%";"Moderate"
"Unemployment Rate";"Japan";"JPY";"2008-07-28T23:30:00";"GMT";"4.0%";"4.0%";"4.1%";"Low"
"Retail Sales (YoY)";"Japan";"JPY";"2008-07-28T23:50:00";"GMT";"0.3%";"-0.2%";"0.3%";"Moderate"
