{"events": {"event": {
    "eventDateTime": "2010-08-24T12:30:00",
    "eventActual": "110",
    "eventCountry": "South Korea",
    "eventExpectedVolatility": "Low",
    "eventName": "Consumer Confidence",
    "eventTimeZone": "GMT",
    "eventPrevious": "112",
    "eventCurrency": "KRW",
    "eventForecast": "109"
  }}}
