"Core Retail Sales (MoM)";"United Kingdom";"GBP";"2013-08-15T08:30:00";"GMT";"0.3%";"0.6%";"1.1%";"Moderate"
"Core Retail Sales (YoY)";"United Kingdom";"GBP";"2013-08-15T08:30:00";"GMT";"1.8%";"2.7%";"3.1%";"Moderate"
"Retail Sales (MoM)";"United Kingdom";"GBP";"2013-08-15T08:30:00";"GMT";"0.2%";"0.6%";"1.1%";"High"
"Retail Sales (YoY)";"United Kingdom";"GBP";"2013-08-15T08:30:00";"GMT";"1.9%";"2.5%";"3.0%";"Moderate"
