{"events": {"event": [
    {
      "eventDateTime": "2018-11-07T00:00:00",
      "eventActual": "1.1%",
      "eventCountry": "Japan",
      "eventExpectedVolatility": "Low",
      "eventName": "Average Cash Earnings (YoY)",
      "eventTimeZone": "GMT",
      "eventPrevious": "0.8%",
      "eventCurrency": "JPY",
      "eventForecast": "1.2%"
    },
    {
      "eventDateTime": "2018-11-07T00:00:00",
      "eventActual": "0.40%",
      "eventCountry": "Japan",
      "eventExpectedVolatility": "Low",
      "eventName": "Overtime Pay (YoY) (Sep)",
      "eventTimeZone": "GMT",
      "eventPrevious": "1.00%",
      "eventCurrency": "JPY",
      "eventForecast": ""
    },
    {
      "eventDateTime": "2018-11-07T01:30:00",
      "eventActual": "",
      "eventCountry": "Japan",
      "eventExpectedVolatility": "Moderate",
      "eventName": "BOJ Board Member Funo Speaks",
      "eventTimeZone": "GMT",
      "eventPrevious": "",
      "eventCurrency": "JPY",
      "eventForecast": ""
    },
    {
      "eventDateTime": "2018-11-07T05:00:00",
      "eventActual": "-2.1%",
      "eventCountry": "Japan",
      "eventExpectedVolatility": "Low",
      "eventName": "Coincident Indicator (MoM) (Sep)",
      "eventTimeZone": "GMT",
      "eventPrevious": "0.6%",
      "eventCurrency": "JPY",
      "eventForecast": ""
    },
    {
      "eventDateTime": "2018-11-07T05:00:00",
      "eventActual": "103.9",
      "eventCountry": "Japan",
      "eventExpectedVolatility": "Low",
      "eventName": "Leading Index",
      "eventTimeZone": "GMT",
      "eventPrevious": "104.5",
      "eventCurrency": "JPY",
      "eventForecast": "103.9"
    },
    {
      "eventDateTime": "2018-11-07T05:00:00",
      "eventActual": "-0.6%",
      "eventCountry": "Japan",
      "eventExpectedVolatility": "Low",
      "eventName": "Leading Index (MoM) (Sep)",
      "eventTimeZone": "GMT",
      "eventPrevious": "0.6%",
      "eventCurrency": "JPY",
      "eventForecast": ""
    },
    {
      "eventDateTime": "2018-11-07T23:00:00",
      "eventActual": "26",
      "eventCountry": "Japan",
      "eventExpectedVolatility": "Low",
      "eventName": "Reuters Tankan Index (Nov)",
      "eventTimeZone": "GMT",
      "eventPrevious": "28",
      "eventCurrency": "JPY",
      "eventForecast": ""
    },
    {
      "eventDateTime": "2018-11-07T23:50:00",
      "eventActual": "1.33T",
      "eventCountry": "Japan",
      "eventExpectedVolatility": "Moderate",
      "eventName": "Adjusted Current Account",
      "eventTimeZone": "GMT",
      "eventPrevious": "1.43T",
      "eventCurrency": "JPY",
      "eventForecast": "1.36T"
    },
    {
      "eventDateTime": "2018-11-07T23:50:00",
      "eventActual": "2.2%",
      "eventCountry": "Japan",
      "eventExpectedVolatility": "Low",
      "eventName": "Bank Lending (YoY) (Oct)",
      "eventTimeZone": "GMT",
      "eventPrevious": "2.3%",
      "eventCurrency": "JPY",
      "eventForecast": "2.4%"
    },
    {
      "eventDateTime": "2018-11-07T23:50:00",
      "eventActual": "",
      "eventCountry": "Japan",
      "eventExpectedVolatility": "Low",
      "eventName": "BoJ Summary of Opinions",
      "eventTimeZone": "GMT",
      "eventPrevious": "",
      "eventCurrency": "JPY",
      "eventForecast": ""
    },
    {
      "eventDateTime": "2018-11-07T23:50:00",
      "eventActual": "-18.3%",
      "eventCountry": "Japan",
      "eventExpectedVolatility": "Low",
      "eventName": "Core Machinery Orders (MoM) (Sep)",
      "eventTimeZone": "GMT",
      "eventPrevious": "6.8%",
      "eventCurrency": "JPY",
      "eventForecast": "-10.0%"
    },
    {
      "eventDateTime": "2018-11-07T23:50:00",
      "eventActual": "-7.0%",
      "eventCountry": "Japan",
      "eventExpectedVolatility": "Low",
      "eventName": "Core Machinery Orders (YoY) (Sep)",
      "eventTimeZone": "GMT",
      "eventPrevious": "12.6%",
      "eventCurrency": "JPY",
      "eventForecast": "7.7%"
    },
    {
      "eventDateTime": "2018-11-07T23:50:00",
      "eventActual": "1.822T",
      "eventCountry": "Japan",
      "eventExpectedVolatility": "Moderate",
      "eventName": "Current Account n.s.a. (Sep)",
      "eventTimeZone": "GMT",
      "eventPrevious": "1.838T",
      "eventCurrency": "JPY",
      "eventForecast": "1.773T"
    },
    {
      "eventDateTime": "2018-11-07T23:50:00",
      "eventActual": "-167.3B",
      "eventCountry": "Japan",
      "eventExpectedVolatility": "Low",
      "eventName": "Foreign Bonds Buying",
      "eventTimeZone": "GMT",
      "eventPrevious": "-1,074.9B",
      "eventCurrency": "JPY",
      "eventForecast": ""
    },
    {
      "eventDateTime": "2018-11-07T23:50:00",
      "eventActual": "107.6B",
      "eventCountry": "Japan",
      "eventExpectedVolatility": "Low",
      "eventName": "Foreign Investments in Japanese Stocks",
      "eventTimeZone": "GMT",
      "eventPrevious": "-356.9B",
      "eventCurrency": "JPY",
      "eventForecast": ""
    }
  ]}}
