{"events": {"event": [
    {
      "eventDateTime": "2014-09-02T05:45:00",
      "eventActual": "0.0%",
      "eventCountry": "Switzerland",
      "eventExpectedVolatility": "Moderate",
      "eventName": "GDP (QoQ) (Q2)",
      "eventTimeZone": "GMT",
      "eventPrevious": "0.5%",
      "eventCurrency": "CHF",
      "eventForecast": "0.5%"
    },
    {
      "eventDateTime": "2014-09-02T05:45:00",
      "eventActual": "0.6%",
      "eventCountry": "Switzerland",
      "eventExpectedVolatility": "Moderate",
      "eventName": "GDP (YoY) (Q2)",
      "eventTimeZone": "GMT",
      "eventPrevious": "2.1%",
      "eventCurrency": "CHF",
      "eventForecast": "1.7%"
    }
  ]}}
