{"events": {"event": {
    "eventDateTime": "2013-02-18T00:01:00",
    "eventActual": "2.8%",
    "eventCountry": "United Kingdom",
    "eventExpectedVolatility": "Low",
    "eventName": "Rightmove House Price Index (MoM)",
    "eventTimeZone": "GMT",
    "eventPrevious": "0.2%",
    "eventCurrency": "GBP",
    "eventForecast": ""
  }}}
