"CPI (MoM) (May)";"China";"CNY";"2002-06-01T09:00:00";"GMT";"-0.30%";"";"-0.30%";"Moderate"
"CPI (YoY) (May)";"China";"CNY";"2002-06-01T09:00:00";"GMT";"-1.30%";"";"-1.10%";"Moderate"
"Exports (YoY) (May)";"China";"CNY";"2002-06-01T09:00:00";"GMT";"17.20%";"";"18.30%";"Moderate"
"FDI (May)";"China";"CNY";"2002-06-01T09:00:00";"GMT";"29.06%";"";"12.38%";"Low"
"Fixed Asset Investment (YoY) (May)";"China";"CNY";"2002-06-01T09:00:00";"GMT";"27.10%";"";"25.80%";"Moderate"
"Imports (YoY) (May)";"China";"CNY";"2002-06-01T09:00:00";"GMT";"17.80%";"";"19.30%";"Moderate"
"Industrial Production (YoY) (May)";"China";"CNY";"2002-06-01T09:00:00";"GMT";"12.10%";"";"12.90%";"High"
"M2 Money Stock (YoY) (May)";"China";"CNY";"2002-06-01T09:00:00";"GMT";"14.10%";"";"14.00%";"Low"
"Outstanding Loan Growth (YoY) (May)";"China";"CNY";"2002-06-01T09:00:00";"GMT";"11.60%";"";"11.40%";"Low"
"PBoC Deposit Rate (May)";"China";"CNY";"2002-06-01T09:00:00";"GMT";"1.98%";"";"1.98%";"Moderate"
"PBoC Interest Rate (May)";"China";"CNY";"2002-06-01T09:00:00";"GMT";"5.31%";"";"5.31%";"High"
"PBoC Reserve Requirement Ratio (May)";"China";"CNY";"2002-06-01T09:00:00";"GMT";"6.00%";"";"6.00%";"Moderate"
"PPI (YoY) (May)";"China";"CNY";"2002-06-01T09:00:00";"GMT";"-3.10%";"";"-2.60%";"Moderate"
"Retail Sales (YoY) (May)";"China";"CNY";"2002-06-01T09:00:00";"GMT";"8.20%";"";"9.30%";"Low"
"Trade Balance (USD) (May)";"China";"CNY";"2002-06-01T09:00:00";"GMT";"0.98B";"";"2.20B";"Moderate"
