{"events": {"event": {
    "eventDateTime": "2015-05-15T19:30:00",
    "eventActual": "4.5K",
    "eventCountry": "Australia",
    "eventExpectedVolatility": "Moderate",
    "eventName": "CFTC AUD speculative net positions",
    "eventTimeZone": "GMT",
    "eventPrevious": "0.6K",
    "eventCurrency": "AUD",
    "eventForecast": ""
  }}}
