{"events": {"event": {
    "eventDateTime": "2012-02-13T16:30:00",
    "eventActual": "0.095%",
    "eventCountry": "United States",
    "eventExpectedVolatility": "Low",
    "eventName": "3-Month Bill Auction",
    "eventTimeZone": "GMT",
    "eventPrevious": "0.080%",
    "eventCurrency": "USD",
    "eventForecast": ""
  }}}
