"Wholesale Sales (MoM) (Nov)";"Canada";"CAD";"2015-01-21T13:30:00";"GMT";"0.1%";"0.2%";"-0.3%";"Moderate"
"BoC Interest Rate Decision";"Canada";"CAD";"2015-01-21T15:00:00";"GMT";"1.00%";"1.00%";"0.75%";"High"
"BoC Monetary Policy Report";"Canada";"CAD";"2015-01-21T15:00:00";"GMT";" ";"";"";"High"
"BoC Gov Poloz Speaks";"Canada";"CAD";"2015-01-21T16:15:00";"GMT";" ";"";"";"High"
