"BoE MPC Member Sentance Speaks";"United Kingdom";"GBP";"2008-07-15T08:30:00";"GMT";" ";"";"";"Moderate"
"CPI (YoY)";"United Kingdom";"GBP";"2008-07-15T08:30:00";"GMT";"3.3%";"3.6%";"3.8%";"High"
"Core CPI (YoY)";"United Kingdom";"GBP";"2008-07-15T08:30:00";"GMT";"1.5%";"1.5%";"1.6%";"Low"
"RPI (YoY)";"United Kingdom";"GBP";"2008-07-15T08:30:00";"GMT";"4.3%";"4.3%";"4.6%";"Low"
