{"events": {"event": [
    {
      "eventDateTime": "2014-05-01T09:00:00",
      "eventActual": "92.60",
      "eventCountry": "South Africa",
      "eventExpectedVolatility": "Low",
      "eventName": "Business Confidence (Apr)",
      "eventTimeZone": "GMT",
      "eventPrevious": "92.70",
      "eventCurrency": "ZAR",
      "eventForecast": ""
    },
    {
      "eventDateTime": "2014-05-01T09:00:00",
      "eventActual": "6.12%",
      "eventCountry": "South Africa",
      "eventExpectedVolatility": "Low",
      "eventName": "CPI (YoY) (Apr)",
      "eventTimeZone": "GMT",
      "eventPrevious": "6.05%",
      "eventCurrency": "ZAR",
      "eventForecast": ""
    },
    {
      "eventDateTime": "2014-05-01T09:00:00",
      "eventActual": "0.40%",
      "eventCountry": "South Africa",
      "eventExpectedVolatility": "Moderate",
      "eventName": "Core CPI (MoM) (Apr)",
      "eventTimeZone": "GMT",
      "eventPrevious": "1.20%",
      "eventCurrency": "ZAR",
      "eventForecast": ""
    },
    {
      "eventDateTime": "2014-05-01T09:00:00",
      "eventActual": "5.50%",
      "eventCountry": "South Africa",
      "eventExpectedVolatility": "Low",
      "eventName": "Core CPI (YoY) (Apr)",
      "eventTimeZone": "GMT",
      "eventPrevious": "5.50%",
      "eventCurrency": "ZAR",
      "eventForecast": ""
    },
    {
      "eventDateTime": "2014-05-01T09:00:00",
      "eventActual": "49.56B",
      "eventCountry": "South Africa",
      "eventExpectedVolatility": "Low",
      "eventName": "Foreign Reserves (USD) (Apr)",
      "eventTimeZone": "GMT",
      "eventPrevious": "49.45B",
      "eventCurrency": "ZAR",
      "eventForecast": ""
    },
    {
      "eventDateTime": "2014-05-01T09:00:00",
      "eventActual": "-4.23%",
      "eventCountry": "South Africa",
      "eventExpectedVolatility": "Low",
      "eventName": "Gold Production (YoY) (Apr)",
      "eventTimeZone": "GMT",
      "eventPrevious": "-2.62%",
      "eventCurrency": "ZAR",
      "eventForecast": ""
    },
    {
      "eventDateTime": "2014-05-01T09:00:00",
      "eventActual": "6.89%",
      "eventCountry": "South Africa",
      "eventExpectedVolatility": "Low",
      "eventName": "M3 Money Supply (YoY) (Apr)",
      "eventTimeZone": "GMT",
      "eventPrevious": "7.78%",
      "eventCurrency": "ZAR",
      "eventForecast": ""
    },
    {
      "eventDateTime": "2014-05-01T09:00:00",
      "eventActual": "3.70%",
      "eventCountry": "South Africa",
      "eventExpectedVolatility": "Low",
      "eventName": "Mining Production (Apr)",
      "eventTimeZone": "GMT",
      "eventPrevious": "-3.87%",
      "eventCurrency": "ZAR",
      "eventForecast": ""
    },
    {
      "eventDateTime": "2014-05-01T09:00:00",
      "eventActual": "44.86B",
      "eventCountry": "South Africa",
      "eventExpectedVolatility": "Low",
      "eventName": "Net FX Reserves (USD) (Apr)",
      "eventTimeZone": "GMT",
      "eventPrevious": "45.04B",
      "eventCurrency": "ZAR",
      "eventForecast": ""
    },
    {
      "eventDateTime": "2014-05-01T09:00:00",
      "eventActual": "8.80%",
      "eventCountry": "South Africa",
      "eventExpectedVolatility": "Low",
      "eventName": "PPI (YoY) (Apr)",
      "eventTimeZone": "GMT",
      "eventPrevious": "8.16%",
      "eventCurrency": "ZAR",
      "eventForecast": ""
    },
    {
      "eventDateTime": "2014-05-01T09:00:00",
      "eventActual": "9.00%",
      "eventCountry": "South Africa",
      "eventExpectedVolatility": "Low",
      "eventName": "Prime Rate (Apr)",
      "eventTimeZone": "GMT",
      "eventPrevious": "9.00%",
      "eventCurrency": "ZAR",
      "eventForecast": ""
    },
    {
      "eventDateTime": "2014-05-01T09:00:00",
      "eventActual": "8.27%",
      "eventCountry": "South Africa",
      "eventExpectedVolatility": "Low",
      "eventName": "Private Sector Credit (Apr)",
      "eventTimeZone": "GMT",
      "eventPrevious": "8.73%",
      "eventCurrency": "ZAR",
      "eventForecast": ""
    },
    {
      "eventDateTime": "2014-05-01T09:00:00",
      "eventActual": "49.40",
      "eventCountry": "South Africa",
      "eventExpectedVolatility": "Low",
      "eventName": "South Africa Standard Bank PMI (Apr)",
      "eventTimeZone": "GMT",
      "eventPrevious": "50.20",
      "eventCurrency": "ZAR",
      "eventForecast": ""
    },
    {
      "eventDateTime": "2014-05-01T09:00:00",
      "eventActual": "45.71K",
      "eventCountry": "South Africa",
      "eventExpectedVolatility": "Low",
      "eventName": "Total Vehicle Sales (Apr)",
      "eventTimeZone": "GMT",
      "eventPrevious": "55.13K",
      "eventCurrency": "ZAR",
      "eventForecast": ""
    },
    {
      "eventDateTime": "2014-05-01T09:00:00",
      "eventActual": "-10.30%",
      "eventCountry": "South Africa",
      "eventExpectedVolatility": "Low",
      "eventName": "Total Vehicle Sales (YoY) (Apr)",
      "eventTimeZone": "GMT",
      "eventPrevious": "0.30%",
      "eventCurrency": "ZAR",
      "eventForecast": ""
    }
  ]}}
