"Retail Sales (YoY)";"Switzerland";"CHF";"2011-04-01T07:15:00";"GMT";"-2.6%";"-1.3%";"1.5%";"Moderate"
"procure.ch PMI";"Switzerland";"CHF";"2011-04-01T07:30:00";"GMT";"61.9";"62.3";"59.3";"Moderate"
"CPI (YoY) (Mar)";"Switzerland";"CHF";"2011-04-01T09:00:00";"GMT";"0.50%";"";"1.00%";"Low"
"KOF Leading Indicators (Mar)";"Switzerland";"CHF";"2011-04-01T09:00:00";"GMT";"99.40";"";"99.30";"Moderate"
"PPI (YoY) (Mar)";"Switzerland";"CHF";"2011-04-01T09:00:00";"GMT";"0.50%";"";"0.40%";"Low"
"Unemployment Rate n.s.a. (Mar)";"Switzerland";"CHF";"2011-04-01T09:00:00";"GMT";"3.30%";"";"3.10%";"Moderate"
"CFTC CHF speculative net positions";"Switzerland";"CHF";"2011-04-01T19:30:00";"GMT";"21.3K";"";"19.0K";"Low"
