{"events": {"event": {
    "eventDateTime": "2013-03-12T21:45:00",
    "eventActual": "-0.3%",
    "eventCountry": "New Zealand",
    "eventExpectedVolatility": "Low",
    "eventName": "FPI (MoM)",
    "eventTimeZone": "GMT",
    "eventPrevious": "1.9%",
    "eventCurrency": "NZD",
    "eventForecast": ""
  }}}
