{"events": {"event": {
    "eventDateTime": "2012-02-17T11:00:00",
    "eventActual": "5.5%",
    "eventCountry": "Brazil",
    "eventExpectedVolatility": "Moderate",
    "eventName": "Unemployment Rate",
    "eventTimeZone": "GMT",
    "eventPrevious": "4.7%",
    "eventCurrency": "BRL",
    "eventForecast": "5.4%"
  }}}
