{"events": {"event": [
    {
      "eventDateTime": "2013-07-03T12:30:00",
      "eventActual": "39.34B",
      "eventCountry": "Canada",
      "eventExpectedVolatility": "Low",
      "eventName": "Exports",
      "eventTimeZone": "GMT",
      "eventPrevious": "39.99B",
      "eventCurrency": "CAD",
      "eventForecast": "40.00B"
    },
    {
      "eventDateTime": "2013-07-03T12:30:00",
      "eventActual": "39.64B",
      "eventCountry": "Canada",
      "eventExpectedVolatility": "Low",
      "eventName": "Imports",
      "eventTimeZone": "GMT",
      "eventPrevious": "40.94B",
      "eventCurrency": "CAD",
      "eventForecast": "41.00B"
    },
    {
      "eventDateTime": "2013-07-03T12:30:00",
      "eventActual": "-0.3B",
      "eventCountry": "Canada",
      "eventExpectedVolatility": "Moderate",
      "eventName": "Trade Balance",
      "eventTimeZone": "GMT",
      "eventPrevious": "-1.0B",
      "eventCurrency": "CAD",
      "eventForecast": "-1.0B"
    }
  ]}}
