{"events": {"event": [
    {
      "eventDateTime": "2015-02-09T00:15:00",
      "eventActual": "",
      "eventCountry": "Australia",
      "eventExpectedVolatility": "Moderate",
      "eventName": "RBA Governor Stevens Speaks",
      "eventTimeZone": "GMT",
      "eventPrevious": "",
      "eventCurrency": "AUD",
      "eventForecast": ""
    },
    {
      "eventDateTime": "2015-02-09T00:30:00",
      "eventActual": "1.5%",
      "eventCountry": "Australia",
      "eventExpectedVolatility": "Low",
      "eventName": "ANZ Internet Job Ads (MoM) (Jan)",
      "eventTimeZone": "GMT",
      "eventPrevious": "1.8%",
      "eventCurrency": "AUD",
      "eventForecast": ""
    },
    {
      "eventDateTime": "2015-02-09T00:30:00",
      "eventActual": "1.3%",
      "eventCountry": "Australia",
      "eventExpectedVolatility": "Low",
      "eventName": "ANZ Job Advertisements (MoM)",
      "eventTimeZone": "GMT",
      "eventPrevious": "1.8%",
      "eventCurrency": "AUD",
      "eventForecast": ""
    },
    {
      "eventDateTime": "2015-02-09T00:30:00",
      "eventActual": "-6.7%",
      "eventCountry": "Australia",
      "eventExpectedVolatility": "Low",
      "eventName": "ANZ Newspaper Job Ads (MoM) (Jan)",
      "eventTimeZone": "GMT",
      "eventPrevious": "3.0%",
      "eventCurrency": "AUD",
      "eventForecast": ""
    },
    {
      "eventDateTime": "2015-02-09T06:30:00",
      "eventActual": "31.4%",
      "eventCountry": "Australia",
      "eventExpectedVolatility": "Moderate",
      "eventName": "Investing.com AUD/USD Index",
      "eventTimeZone": "GMT",
      "eventPrevious": "36.0%",
      "eventCurrency": "AUD",
      "eventForecast": ""
    }
  ]}}
