{"events": {"event": {
    "eventDateTime": "2018-05-07T08:10:00",
    "eventActual": "3.125T",
    "eventCountry": "China",
    "eventExpectedVolatility": "Low",
    "eventName": "FX Reserves (USD)",
    "eventTimeZone": "GMT",
    "eventPrevious": "3.143T",
    "eventCurrency": "CNY",
    "eventForecast": "3.133T"
  }}}
