{"events": {"event": [
    {
      "eventDateTime": "2016-04-20T06:00:00",
      "eventActual": "0.0%",
      "eventCountry": "Germany",
      "eventExpectedVolatility": "Moderate",
      "eventName": "German PPI (MoM) (Mar)",
      "eventTimeZone": "GMT",
      "eventPrevious": "-0.5%",
      "eventCurrency": "EUR",
      "eventForecast": "0.2%"
    },
    {
      "eventDateTime": "2016-04-20T06:00:00",
      "eventActual": "-3.1%",
      "eventCountry": "Germany",
      "eventExpectedVolatility": "Low",
      "eventName": "German PPI (YoY) (Mar)",
      "eventTimeZone": "GMT",
      "eventPrevious": "-3.0%",
      "eventCurrency": "EUR",
      "eventForecast": "-2.9%"
    },
    {
      "eventDateTime": "2016-04-20T09:55:00",
      "eventActual": "0.150%",
      "eventCountry": "Germany",
      "eventExpectedVolatility": "Moderate",
      "eventName": "German 10-Year Bund Auction",
      "eventTimeZone": "GMT",
      "eventPrevious": "0.300%",
      "eventCurrency": "EUR",
      "eventForecast": ""
    },
    {
      "eventDateTime": "2016-04-20T10:00:00",
      "eventActual": "",
      "eventCountry": "Euro Zone",
      "eventExpectedVolatility": "High",
      "eventName": "ECB President Draghi Speaks",
      "eventTimeZone": "GMT",
      "eventPrevious": "",
      "eventCurrency": "EUR",
      "eventForecast": ""
    }
  ]}}
