{"events": {"event": [
    {
      "eventDateTime": "2013-08-19T12:00:00",
      "eventActual": "4.3%",
      "eventCountry": "Russia",
      "eventExpectedVolatility": "Moderate",
      "eventName": "Retail Sales (YoY)",
      "eventTimeZone": "GMT",
      "eventPrevious": "3.5%",
      "eventCurrency": "RUB",
      "eventForecast": "3.8%"
    },
    {
      "eventDateTime": "2013-08-19T12:00:00",
      "eventActual": "5.3%",
      "eventCountry": "Russia",
      "eventExpectedVolatility": "Moderate",
      "eventName": "Unemployment Rate",
      "eventTimeZone": "GMT",
      "eventPrevious": "5.4%",
      "eventCurrency": "RUB",
      "eventForecast": "5.5%"
    }
  ]}}
