{"events": {"event": [
    {
      "eventDateTime": "2019-08-06T12:55:00",
      "eventActual": "1.1%",
      "eventCountry": "United States",
      "eventExpectedVolatility": "Low",
      "eventName": "Redbook (MoM)",
      "eventTimeZone": "GMT",
      "eventPrevious": "1.0%",
      "eventCurrency": "USD",
      "eventForecast": ""
    },
    {
      "eventDateTime": "2019-08-06T12:55:00",
      "eventActual": "5.1%",
      "eventCountry": "United States",
      "eventExpectedVolatility": "Low",
      "eventName": "Redbook (YoY)",
      "eventTimeZone": "GMT",
      "eventPrevious": "4.5%",
      "eventCurrency": "USD",
      "eventForecast": ""
    },
    {
      "eventDateTime": "2019-08-06T14:00:00",
      "eventActual": "55.1",
      "eventCountry": "United States",
      "eventExpectedVolatility": "Low",
      "eventName": "IBD/TIPP Economic Optimism",
      "eventTimeZone": "GMT",
      "eventPrevious": "56.6",
      "eventCurrency": "USD",
      "eventForecast": "54.6"
    },
    {
      "eventDateTime": "2019-08-06T14:00:00",
      "eventActual": "7.348M",
      "eventCountry": "United States",
      "eventExpectedVolatility": "High",
      "eventName": "JOLTs Job Openings (Jun)",
      "eventTimeZone": "GMT",
      "eventPrevious": "7.384M",
      "eventCurrency": "USD",
      "eventForecast": "7.450M"
    },
    {
      "eventDateTime": "2019-08-06T16:00:00",
      "eventActual": "",
      "eventCountry": "United States",
      "eventExpectedVolatility": "Moderate",
      "eventName": "FOMC Member Bullard Speaks",
      "eventTimeZone": "GMT",
      "eventPrevious": "",
      "eventCurrency": "USD",
      "eventForecast": ""
    },
    {
      "eventDateTime": "2019-08-06T17:00:00",
      "eventActual": "1.562%",
      "eventCountry": "United States",
      "eventExpectedVolatility": "Low",
      "eventName": "3-Year Note Auction",
      "eventTimeZone": "GMT",
      "eventPrevious": "1.857%",
      "eventCurrency": "USD",
      "eventForecast": ""
    },
    {
      "eventDateTime": "2019-08-06T20:30:00",
      "eventActual": "-3.400M",
      "eventCountry": "United States",
      "eventExpectedVolatility": "Moderate",
      "eventName": "API Weekly Crude Oil Stock",
      "eventTimeZone": "GMT",
      "eventPrevious": "-6.024M",
      "eventCurrency": "USD",
      "eventForecast": ""
    }
  ]}}
