{"events": {"event": [
    {
      "eventDateTime": "2012-05-18T17:00:00",
      "eventActual": "1382",
      "eventCountry": "United States",
      "eventExpectedVolatility": "Moderate",
      "eventName": "U.S. Baker Hughes Oil Rig Count",
      "eventTimeZone": "GMT",
      "eventPrevious": "1372",
      "eventCurrency": "USD",
      "eventForecast": ""
    },
    {
      "eventDateTime": "2012-05-18T19:30:00",
      "eventActual": "114.1K",
      "eventCountry": "United States",
      "eventExpectedVolatility": "Moderate",
      "eventName": "CFTC Gold speculative net positions",
      "eventTimeZone": "GMT",
      "eventPrevious": "123.3K",
      "eventCurrency": "USD",
      "eventForecast": ""
    },
    {
      "eventDateTime": "2012-05-18T19:30:00",
      "eventActual": "11.5K",
      "eventCountry": "United States",
      "eventExpectedVolatility": "Low",
      "eventName": "CFTC Silver speculative net positions",
      "eventTimeZone": "GMT",
      "eventPrevious": "12.6K",
      "eventCurrency": "USD",
      "eventForecast": ""
    },
    {
      "eventDateTime": "2012-05-18T20:30:00",
      "eventActual": "184.5k",
      "eventCountry": "United States",
      "eventExpectedVolatility": "Moderate",
      "eventName": "CFTC Crude Oil speculative net positions",
      "eventTimeZone": "GMT",
      "eventPrevious": "184.0k",
      "eventCurrency": "USD",
      "eventForecast": ""
    }
  ]}}
