{"events": {"event": [
    {
      "eventDateTime": "2013-10-14T00:00:00",
      "eventActual": "5.1%",
      "eventCountry": "Singapore",
      "eventExpectedVolatility": "Low",
      "eventName": "GDP (YoY)",
      "eventTimeZone": "GMT",
      "eventPrevious": "4.2%",
      "eventCurrency": "SGD",
      "eventForecast": "3.8%"
    },
    {
      "eventDateTime": "2013-10-14T05:00:00",
      "eventActual": "-7.8%",
      "eventCountry": "Singapore",
      "eventExpectedVolatility": "Low",
      "eventName": "Retail Sales (YoY)",
      "eventTimeZone": "GMT",
      "eventPrevious": "-8.2%",
      "eventCurrency": "SGD",
      "eventForecast": "-5.2%"
    }
  ]}}
