"CPI (MoM) (Jan)";"China";"CNY";"2000-02-01T09:00:00";"GMT";"0.00%";"";"0.90%";"Moderate"
"CPI (YoY) (Jan)";"China";"CNY";"2000-02-01T09:00:00";"GMT";"-1.00%";"";"-0.20%";"Moderate"
"Exports (YoY) (Jan)";"China";"CNY";"2000-02-01T09:00:00";"GMT";"2.20%";"";"47.60%";"Moderate"
"FDI (Jan)";"China";"CNY";"2000-02-01T09:00:00";"GMT";"-11.37%";"";"-10.46%";"Low"
"Imports (YoY) (Jan)";"China";"CNY";"2000-02-01T09:00:00";"GMT";"-1.10%";"";"54.20%";"Moderate"
"Industrial Production (YoY) (Jan)";"China";"CNY";"2000-02-01T09:00:00";"GMT";"7.40%";"";"8.90%";"High"
"M2 Money Stock (YoY) (Jan)";"China";"CNY";"2000-02-01T09:00:00";"GMT";"14.70%";"";"14.30%";"Low"
"Outstanding Loan Growth (YoY) (Jan)";"China";"CNY";"2000-02-01T09:00:00";"GMT";"12.50%";"";"12.80%";"Low"
"PBoC Deposit Rate (Jan)";"China";"CNY";"2000-02-01T09:00:00";"GMT";"2.25%";"";"2.25%";"Moderate"
"PBoC Interest Rate (Jan)";"China";"CNY";"2000-02-01T09:00:00";"GMT";"5.85%";"";"5.85%";"High"
"PBoC Reserve Requirement Ratio (Jan)";"China";"CNY";"2000-02-01T09:00:00";"GMT";"6.00%";"";"6.00%";"Moderate"
"PPI (YoY) (Jan)";"China";"CNY";"2000-02-01T09:00:00";"GMT";"-0.80%";"";"0.00%";"Moderate"
"Retail Sales (YoY) (Jan)";"China";"CNY";"2000-02-01T09:00:00";"GMT";"8.00%";"";"11.30%";"Low"
"Trade Balance (USD) (Jan)";"China";"CNY";"2000-02-01T09:00:00";"GMT";"2.83B";"";"1.52B";"Moderate"
