{"events": {"event": [
    {
      "eventDateTime": "2014-02-26T12:00:00",
      "eventActual": "4.53%",
      "eventCountry": "United States",
      "eventExpectedVolatility": "Low",
      "eventName": "MBA 30-Year Mortgage Rate",
      "eventTimeZone": "GMT",
      "eventPrevious": "4.50%",
      "eventCurrency": "USD",
      "eventForecast": ""
    },
    {
      "eventDateTime": "2014-02-26T12:00:00",
      "eventActual": "-8.5%",
      "eventCountry": "United States",
      "eventExpectedVolatility": "Low",
      "eventName": "MBA Mortgage Applications (WoW)",
      "eventTimeZone": "GMT",
      "eventPrevious": "-4.1%",
      "eventCurrency": "USD",
      "eventForecast": ""
    },
    {
      "eventDateTime": "2014-02-26T15:00:00",
      "eventActual": "468K",
      "eventCountry": "United States",
      "eventExpectedVolatility": "High",
      "eventName": "New Home Sales",
      "eventTimeZone": "GMT",
      "eventPrevious": "427K",
      "eventCurrency": "USD",
      "eventForecast": "400K"
    },
    {
      "eventDateTime": "2014-02-26T15:00:00",
      "eventActual": "9.6%",
      "eventCountry": "United States",
      "eventExpectedVolatility": "Moderate",
      "eventName": "New Home Sales (MoM)",
      "eventTimeZone": "GMT",
      "eventPrevious": "-3.8%",
      "eventCurrency": "USD",
      "eventForecast": "-1.0%"
    },
    {
      "eventDateTime": "2014-02-26T15:30:00",
      "eventActual": "0.068M",
      "eventCountry": "United States",
      "eventExpectedVolatility": "High",
      "eventName": "Crude Oil Inventories",
      "eventTimeZone": "GMT",
      "eventPrevious": "0.973M",
      "eventCurrency": "USD",
      "eventForecast": "1.236M"
    },
    {
      "eventDateTime": "2014-02-26T15:30:00",
      "eventActual": "0.338M",
      "eventCountry": "United States",
      "eventExpectedVolatility": "Low",
      "eventName": "EIA Weekly Distillates Stocks",
      "eventTimeZone": "GMT",
      "eventPrevious": "-0.339M",
      "eventCurrency": "USD",
      "eventForecast": "-1.229M"
    },
    {
      "eventDateTime": "2014-02-26T15:30:00",
      "eventActual": "-2.807M",
      "eventCountry": "United States",
      "eventExpectedVolatility": "Low",
      "eventName": "Gasoline Inventories",
      "eventTimeZone": "GMT",
      "eventPrevious": "0.309M",
      "eventCurrency": "USD",
      "eventForecast": "-0.986M"
    },
    {
      "eventDateTime": "2014-02-26T17:00:00",
      "eventActual": "",
      "eventCountry": "United States",
      "eventExpectedVolatility": "Moderate",
      "eventName": "FOMC Member Rosengren Speaks",
      "eventTimeZone": "GMT",
      "eventPrevious": "",
      "eventCurrency": "USD",
      "eventForecast": ""
    },
    {
      "eventDateTime": "2014-02-26T18:00:00",
      "eventActual": "1.530%",
      "eventCountry": "United States",
      "eventExpectedVolatility": "Low",
      "eventName": "5-Year Note Auction",
      "eventTimeZone": "GMT",
      "eventPrevious": "1.572%",
      "eventCurrency": "USD",
      "eventForecast": ""
    }
  ]}}
