"MBA 30-Year Mortgage Rate";"United States";"USD";"2014-02-26T12:00:00";"GMT";"4.50%";"";"4.53%";"Low"
"MBA Mortgage Applications (WoW)";"United States";"USD";"2014-02-26T12:00:00";"GMT";"-4.1%";"";"-8.5%";"Low"
"New Home Sales";"United States";"USD";"2014-02-26T15:00:00";"GMT";"427K";"400K";"468K";"High"
"New Home Sales (MoM)";"United States";"USD";"2014-02-26T15:00:00";"GMT";"-3.8%";"-1.0%";"9.6%";"Moderate"
"Crude Oil Inventories";"United States";"USD";"2014-02-26T15:30:00";"GMT";"0.973M";"1.236M";"0.068M";"High"
"EIA Weekly Distillates Stocks";"United States";"USD";"2014-02-26T15:30:00";"GMT";"-0.339M";"-1.229M";"0.338M";"Low"
"Gasoline Inventories";"United States";"USD";"2014-02-26T15:30:00";"GMT";"0.309M";"-0.986M";"-2.807M";"Low"
"FOMC Member Rosengren Speaks";"United States";"USD";"2014-02-26T17:00:00";"GMT";" ";"";"";"Moderate"
"5-Year Note Auction";"United States";"USD";"2014-02-26T18:00:00";"GMT";"1.572%";"";"1.530%";"Low"
