{"events": {"event": [
    {
      "eventDateTime": "2003-04-01T09:00:00",
      "eventActual": "-32.50%",
      "eventCountry": "New Zealand",
      "eventExpectedVolatility": "Moderate",
      "eventName": "ANZ Business Confidence (Mar)",
      "eventTimeZone": "GMT",
      "eventPrevious": "-16.20%",
      "eventCurrency": "NZD",
      "eventForecast": ""
    },
    {
      "eventDateTime": "2003-04-01T09:00:00",
      "eventActual": "23.10%",
      "eventCountry": "New Zealand",
      "eventExpectedVolatility": "Moderate",
      "eventName": "Building Consents (MoM) (Mar)",
      "eventTimeZone": "GMT",
      "eventPrevious": "-11.40%",
      "eventCurrency": "NZD",
      "eventForecast": ""
    },
    {
      "eventDateTime": "2003-04-01T09:00:00",
      "eventActual": "-0.20%",
      "eventCountry": "New Zealand",
      "eventExpectedVolatility": "Moderate",
      "eventName": "Electronic Card Retail Sales (MoM) (Mar)",
      "eventTimeZone": "GMT",
      "eventPrevious": "0.50%",
      "eventCurrency": "NZD",
      "eventForecast": ""
    },
    {
      "eventDateTime": "2003-04-01T09:00:00",
      "eventActual": "2.77B",
      "eventCountry": "New Zealand",
      "eventExpectedVolatility": "Low",
      "eventName": "Exports (Mar)",
      "eventTimeZone": "GMT",
      "eventPrevious": "2.31B",
      "eventCurrency": "NZD",
      "eventForecast": ""
    },
    {
      "eventDateTime": "2003-04-01T09:00:00",
      "eventActual": "-4.27%",
      "eventCountry": "New Zealand",
      "eventExpectedVolatility": "Low",
      "eventName": "External Migration andamp; Visitors (Mar)",
      "eventTimeZone": "GMT",
      "eventPrevious": "4.70%",
      "eventCurrency": "NZD",
      "eventForecast": ""
    },
    {
      "eventDateTime": "2003-04-01T09:00:00",
      "eventActual": "-0.40%",
      "eventCountry": "New Zealand",
      "eventExpectedVolatility": "Low",
      "eventName": "FPI (MoM) (Mar)",
      "eventTimeZone": "GMT",
      "eventPrevious": "0.10%",
      "eventCurrency": "NZD",
      "eventForecast": ""
    },
    {
      "eventDateTime": "2003-04-01T09:00:00",
      "eventActual": "13.60%",
      "eventCountry": "New Zealand",
      "eventExpectedVolatility": "Low",
      "eventName": "Government Monthly Debt (Mar)",
      "eventTimeZone": "GMT",
      "eventPrevious": "14.40%",
      "eventCurrency": "NZD",
      "eventForecast": ""
    },
    {
      "eventDateTime": "2003-04-01T09:00:00",
      "eventActual": "2.48B",
      "eventCountry": "New Zealand",
      "eventExpectedVolatility": "Low",
      "eventName": "Imports (Mar)",
      "eventTimeZone": "GMT",
      "eventPrevious": "2.32B",
      "eventCurrency": "NZD",
      "eventForecast": ""
    },
    {
      "eventDateTime": "2003-04-01T09:00:00",
      "eventActual": "20.10%",
      "eventCountry": "New Zealand",
      "eventExpectedVolatility": "Low",
      "eventName": "NBNZ Own Activity (Mar)",
      "eventTimeZone": "GMT",
      "eventPrevious": "27.30%",
      "eventCurrency": "NZD",
      "eventForecast": ""
    },
    {
      "eventDateTime": "2003-04-01T09:00:00",
      "eventActual": "3,540.00",
      "eventCountry": "New Zealand",
      "eventExpectedVolatility": "Low",
      "eventName": "Permanent/Long-Term Migration (Mar)",
      "eventTimeZone": "GMT",
      "eventPrevious": "4,730.00",
      "eventCurrency": "NZD",
      "eventForecast": ""
    },
    {
      "eventDateTime": "2003-04-01T09:00:00",
      "eventActual": "5.75%",
      "eventCountry": "New Zealand",
      "eventExpectedVolatility": "High",
      "eventName": "RBNZ Interest Rate Decision (Mar)",
      "eventTimeZone": "GMT",
      "eventPrevious": "5.75%",
      "eventCurrency": "NZD",
      "eventForecast": ""
    },
    {
      "eventDateTime": "2003-04-01T09:00:00",
      "eventActual": "42.10%",
      "eventCountry": "New Zealand",
      "eventExpectedVolatility": "Low",
      "eventName": "RBNZ Offshore Holdings (Mar)",
      "eventTimeZone": "GMT",
      "eventPrevious": "42.00%",
      "eventCurrency": "NZD",
      "eventForecast": ""
    },
    {
      "eventDateTime": "2003-04-01T09:00:00",
      "eventActual": "1.90%",
      "eventCountry": "New Zealand",
      "eventExpectedVolatility": "Low",
      "eventName": "REINZ House Price Index (MoM) (Mar)",
      "eventTimeZone": "GMT",
      "eventPrevious": "1.60%",
      "eventCurrency": "NZD",
      "eventForecast": ""
    },
    {
      "eventDateTime": "2003-04-01T09:00:00",
      "eventActual": "12.70%",
      "eventCountry": "New Zealand",
      "eventExpectedVolatility": "Low",
      "eventName": "REINZ House Price Index (YoY) (Mar)",
      "eventTimeZone": "GMT",
      "eventPrevious": "12.00%",
      "eventCurrency": "NZD",
      "eventForecast": ""
    },
    {
      "eventDateTime": "2003-04-01T09:00:00",
      "eventActual": "289.20M",
      "eventCountry": "New Zealand",
      "eventExpectedVolatility": "Moderate",
      "eventName": "Trade Balance (MoM) (Mar)",
      "eventTimeZone": "GMT",
      "eventPrevious": "-9.00M",
      "eventCurrency": "NZD",
      "eventForecast": ""
    },
    {
      "eventDateTime": "2003-04-01T09:00:00",
      "eventActual": "-1,900.00M",
      "eventCountry": "New Zealand",
      "eventExpectedVolatility": "Moderate",
      "eventName": "Trade Balance (YoY) (Mar)",
      "eventTimeZone": "GMT",
      "eventPrevious": "-1,680.00M",
      "eventCurrency": "NZD",
      "eventForecast": ""
    }
  ]}}
