"Budget Balance (May)";"Canada";"CAD";"2009-06-01T09:00:00";"GMT";"-3.99B";"";"-3.54B";"Low"
"Budget Balance (YoY) (May)";"Canada";"CAD";"2009-06-01T09:00:00";"GMT";"-3.99B";"";"-7.53B";"Low"
"CPI (YoY) (May)";"Canada";"CAD";"2009-06-01T09:00:00";"GMT";"0.40%";"";"0.10%";"Low"
"Core CPI (YoY) (May)";"Canada";"CAD";"2009-06-01T09:00:00";"GMT";"1.80%";"";"2.00%";"Moderate"
"Exports (May)";"Canada";"CAD";"2009-06-01T09:00:00";"GMT";"30.34B";"";"27.82B";"Low"
"Foreign Securities Purchases by Canadians (May)";"Canada";"CAD";"2009-06-01T09:00:00";"GMT";"1.48B";"";"-0.77B";"Low"
"Full Employment Change (May)";"Canada";"CAD";"2009-06-01T09:00:00";"GMT";"-4.60K";"";"-48.40K";"Low"
"IPPI (YoY) (May)";"Canada";"CAD";"2009-06-01T09:00:00";"GMT";"-2.50%";"";"-4.50%";"Low"
"Imports (May)";"Canada";"CAD";"2009-06-01T09:00:00";"GMT";"31.01B";"";"29.36B";"Low"
"Ivey PMI n.s.a (May)";"Canada";"CAD";"2009-06-01T09:00:00";"GMT";"53.70";"";"48.40";"Low"
"Part Time Employment Change (May)";"Canada";"CAD";"2009-06-01T09:00:00";"GMT";"-38.30K";"";"22.30K";"Low"
"Participation Rate (May)";"Canada";"CAD";"2009-06-01T09:00:00";"GMT";"67.20%";"";"67.20%";"Low"
"RMPI (YoY) (May)";"Canada";"CAD";"2009-06-01T09:00:00";"GMT";"-31.60%";"";"-32.60%";"Low"
"GDP (MoM)";"Canada";"CAD";"2009-06-01T12:30:00";"GMT";"-0.1%";"-0.3%";"-0.3%";"High"
"IPPI (MoM)";"Canada";"CAD";"2009-06-01T12:30:00";"GMT";"0.3%";"0.1%";"-0.5%";"Low"
"RMPI (MoM)";"Canada";"CAD";"2009-06-01T12:30:00";"GMT";"12.1%";"6.5%";"-0.5%";"Moderate"
