{"events": {"event": {
    "eventDateTime": "2018-12-21T20:30:00",
    "eventActual": "19.7K",
    "eventCountry": "Russia",
    "eventExpectedVolatility": "Moderate",
    "eventName": "CFTC RUB speculative positions",
    "eventTimeZone": "GMT",
    "eventPrevious": "10.8K",
    "eventCurrency": "RUB",
    "eventForecast": ""
  }}}
