{"events": {"event": {
    "eventDateTime": "2017-01-09T09:00:00",
    "eventActual": "246.6B",
    "eventCountry": "Singapore",
    "eventExpectedVolatility": "Low",
    "eventName": "Foreign Reserves USD (MoM) (Dec)",
    "eventTimeZone": "GMT",
    "eventPrevious": "247.8B",
    "eventCurrency": "SGD",
    "eventForecast": ""
  }}}
