{"events": {"event": [
    {
      "eventDateTime": "2019-08-08T05:00:00",
      "eventActual": "41.2",
      "eventCountry": "Japan",
      "eventExpectedVolatility": "Low",
      "eventName": "Economy Watchers Current Index (Jul)",
      "eventTimeZone": "GMT",
      "eventPrevious": "44.0",
      "eventCurrency": "JPY",
      "eventForecast": ""
    },
    {
      "eventDateTime": "2019-08-08T23:50:00",
      "eventActual": "0.4%",
      "eventCountry": "Japan",
      "eventExpectedVolatility": "High",
      "eventName": "GDP (QoQ) (Q2)",
      "eventTimeZone": "GMT",
      "eventPrevious": "0.6%",
      "eventCurrency": "JPY",
      "eventForecast": "0.1%"
    },
    {
      "eventDateTime": "2019-08-08T23:50:00",
      "eventActual": "1.8%",
      "eventCountry": "Japan",
      "eventExpectedVolatility": "Moderate",
      "eventName": "GDP (YoY) (Q2)",
      "eventTimeZone": "GMT",
      "eventPrevious": "2.2%",
      "eventCurrency": "JPY",
      "eventForecast": "0.4%"
    },
    {
      "eventDateTime": "2019-08-08T23:50:00",
      "eventActual": "1.5%",
      "eventCountry": "Japan",
      "eventExpectedVolatility": "Low",
      "eventName": "GDP Capital Expenditure (QoQ) (Q2)",
      "eventTimeZone": "GMT",
      "eventPrevious": "0.3%",
      "eventCurrency": "JPY",
      "eventForecast": "0.7%"
    },
    {
      "eventDateTime": "2019-08-08T23:50:00",
      "eventActual": "-0.3%",
      "eventCountry": "Japan",
      "eventExpectedVolatility": "Low",
      "eventName": "GDP External Demand (QoQ) (Q2)",
      "eventTimeZone": "GMT",
      "eventPrevious": "0.4%",
      "eventCurrency": "JPY",
      "eventForecast": "-0.5%"
    },
    {
      "eventDateTime": "2019-08-08T23:50:00",
      "eventActual": "0.1%",
      "eventCountry": "Japan",
      "eventExpectedVolatility": "Low",
      "eventName": "GDP Price Index (YoY)",
      "eventTimeZone": "GMT",
      "eventPrevious": "0.1%",
      "eventCurrency": "JPY",
      "eventForecast": "0.3%"
    },
    {
      "eventDateTime": "2019-08-08T23:50:00",
      "eventActual": "0.6%",
      "eventCountry": "Japan",
      "eventExpectedVolatility": "Low",
      "eventName": "GDP Private Consumption (QoQ) (Q2)",
      "eventTimeZone": "GMT",
      "eventPrevious": "-0.1%",
      "eventCurrency": "JPY",
      "eventForecast": "0.6%"
    },
    {
      "eventDateTime": "2019-08-08T23:50:00",
      "eventActual": "2.4%",
      "eventCountry": "Japan",
      "eventExpectedVolatility": "Low",
      "eventName": "M2 Money Stock (YoY)",
      "eventTimeZone": "GMT",
      "eventPrevious": "2.3%",
      "eventCurrency": "JPY",
      "eventForecast": "2.3%"
    },
    {
      "eventDateTime": "2019-08-08T23:50:00",
      "eventActual": "1,807.7T",
      "eventCountry": "Japan",
      "eventExpectedVolatility": "Low",
      "eventName": "M3 Money Supply (Jul)",
      "eventTimeZone": "GMT",
      "eventPrevious": "1,802.9T",
      "eventCurrency": "JPY",
      "eventForecast": ""
    }
  ]}}
