{"events": {"event": [
    {
      "eventDateTime": "2019-08-02T08:00:00",
      "eventActual": "0.14%",
      "eventCountry": "Brazil",
      "eventExpectedVolatility": "Moderate",
      "eventName": "IPC-Fipe Inflation Index (MoM) (Jul)",
      "eventTimeZone": "GMT",
      "eventPrevious": "0.15%",
      "eventCurrency": "BRL",
      "eventForecast": ""
    },
    {
      "eventDateTime": "2019-08-02T19:30:00",
      "eventActual": "2.2K",
      "eventCountry": "Brazil",
      "eventExpectedVolatility": "Moderate",
      "eventName": "CFTC BRL speculative net positions",
      "eventTimeZone": "GMT",
      "eventPrevious": "3.0K",
      "eventCurrency": "BRL",
      "eventForecast": ""
    }
  ]}}
