{"events": {"event": [
    {
      "eventDateTime": "2008-06-30T00:30:00",
      "eventActual": "0.5%",
      "eventCountry": "Australia",
      "eventExpectedVolatility": "Low",
      "eventName": "MI Inflation Gauge (MoM)",
      "eventTimeZone": "GMT",
      "eventPrevious": "0.3%",
      "eventCurrency": "AUD",
      "eventForecast": ""
    },
    {
      "eventDateTime": "2008-06-30T23:30:00",
      "eventActual": "47.0",
      "eventCountry": "Australia",
      "eventExpectedVolatility": "Moderate",
      "eventName": "AIG Manufacturing Index",
      "eventTimeZone": "GMT",
      "eventPrevious": "51.2",
      "eventCurrency": "AUD",
      "eventForecast": ""
    }
  ]}}
