"Exports (YoY) (Jan)";"South Korea";"KRW";"2019-02-15T02:00:00";"GMT";"-5.8%";"";"-5.9%";"Low"
"Imports (YoY) (Jan)";"South Korea";"KRW";"2019-02-15T02:00:00";"GMT";"-1.7%";"";"-1.7%";"Low"
"Trade Balance (Jan)";"South Korea";"KRW";"2019-02-15T02:00:00";"GMT";"1.34B";"";"1.29B";"Low"
