"CPI (YoY) (Jun)";"Hong Kong";"HKD";"2007-07-01T09:00:00";"GMT";"1.30%";"";"1.40%";"Low"
"Exports (MoM) (Jun)";"Hong Kong";"HKD";"2007-07-01T09:00:00";"GMT";"12.10%";"";"11.00%";"Low"
"Foreign Reserves (USD) (Jun)";"Hong Kong";"HKD";"2007-07-01T09:00:00";"GMT";"136.22B";"";"136.31B";"Low"
"Imports (MoM) (Jun)";"Hong Kong";"HKD";"2007-07-01T09:00:00";"GMT";"11.10%";"";"13.00%";"Low"
"M3 Money Supply (Jun)";"Hong Kong";"HKD";"2007-07-01T09:00:00";"GMT";"6.96%";"";"27.28%";"Low"
"Retail Sales (YoY) (Jun)";"Hong Kong";"HKD";"2007-07-01T09:00:00";"GMT";"10.00%";"";"14.10%";"Low"
"Unemployment Rate (Jun)";"Hong Kong";"HKD";"2007-07-01T09:00:00";"GMT";"4.30%";"";"4.20%";"Low"
