"Budget Balance (Feb)";"Brazil";"BRL";"2015-03-31T13:30:00";"GMT";"3.041B";"";"-58.640B";"Low"
"Budget Surplus (Feb)";"Brazil";"BRL";"2015-03-31T13:30:00";"GMT";"21.063B";"1.500B";"-2.300B";"Low"
"Debt-to-GDP ratio (Feb)";"Brazil";"BRL";"2015-03-31T13:30:00";"GMT";"33.8%";"36.1%";"36.3%";"Low"
"CNI Factory Utilization (Feb)";"Brazil";"BRL";"2015-03-31T17:00:00";"GMT";"81.5%";"80.5%";"79.7%";"Low"
