"Bank Loan Growth (2wk)";"India";"INR";"2015-11-13T11:30:00";"GMT";"9.5%";"";"9.0%";"Low"
"Deposit Growth (2wk)";"India";"INR";"2015-11-13T11:30:00";"GMT";"11.2%";"";"11.1%";"Low"
"FX Reserves, USD";"India";"INR";"2015-11-13T11:30:00";"GMT";"353.64B";"";"351.73B";"Low"
