{"events": {"event": {
    "eventDateTime": "2019-08-21T11:30:00",
    "eventActual": "",
    "eventCountry": "India",
    "eventExpectedVolatility": "Moderate",
    "eventName": "RBI MPC Meeting Minutes",
    "eventTimeZone": "GMT",
    "eventPrevious": "",
    "eventCurrency": "INR",
    "eventForecast": ""
  }}}
