"Building Permits";"United States";"USD";"2008-03-18T12:30:00";"GMT";"1.060M";"1.050M";"0.980M";"High"
"Core PPI (MoM)";"United States";"USD";"2008-03-18T12:30:00";"GMT";"0.4%";"0.2%";"0.5%";"Moderate"
"Housing Starts";"United States";"USD";"2008-03-18T12:30:00";"GMT";"1.010M";"1.000M";"1.070M";"Moderate"
"PPI (MoM)";"United States";"USD";"2008-03-18T12:30:00";"GMT";"1.0%";"0.3%";"0.3%";"High"
"Discount Rate";"United States";"USD";"2008-03-18T18:15:00";"GMT";"3.50%";"3.00%";"2.50%";"Moderate"
"Fed Interest Rate Decision";"United States";"USD";"2008-03-18T18:15:00";"GMT";"3.00%";"2.50%";"2.25%";"High"
