{"events": {"event": [
    {
      "eventDateTime": "2018-01-24T13:00:00",
      "eventActual": "1.2%",
      "eventCountry": "Russia",
      "eventExpectedVolatility": "Low",
      "eventName": "PPI (MoM) (Dec)",
      "eventTimeZone": "GMT",
      "eventPrevious": "0.9%",
      "eventCurrency": "RUB",
      "eventForecast": ""
    },
    {
      "eventDateTime": "2018-01-24T13:00:00",
      "eventActual": "8.4%",
      "eventCountry": "Russia",
      "eventExpectedVolatility": "Low",
      "eventName": "PPI (YoY) (Dec)",
      "eventTimeZone": "GMT",
      "eventPrevious": "8.0%",
      "eventCurrency": "RUB",
      "eventForecast": ""
    }
  ]}}
