"MBA 30-Year Mortgage Rate";"United States";"USD";"2015-07-29T11:00:00";"GMT";"4.23%";"";"4.17%";"Low"
"MBA Mortgage Applications (WoW)";"United States";"USD";"2015-07-29T11:00:00";"GMT";"0.1%";"";"0.8%";"Low"
"MBA Purchase Index";"United States";"USD";"2015-07-29T11:00:00";"GMT";"198.3";"";"198.1";"Low"
"Mortgage Market Index";"United States";"USD";"2015-07-29T11:00:00";"GMT";"376.6";"";"379.5";"Low"
"Mortgage Refinance Index";"United States";"USD";"2015-07-29T11:00:00";"GMT";"1,384.8";"";"1,406.3";"Low"
"Pending Home Sales (MoM) (Jun)";"United States";"USD";"2015-07-29T14:00:00";"GMT";"0.6%";"1.0%";"-1.8%";"High"
"Pending Home Sales Index (Jun)";"United States";"USD";"2015-07-29T14:00:00";"GMT";"112.3";"";"110.3";"Low"
"Crude Oil Inventories";"United States";"USD";"2015-07-29T14:30:00";"GMT";"2.468M";"-0.184M";"-4.203M";"High"
"EIA Weekly Distillates Stocks";"United States";"USD";"2015-07-29T14:30:00";"GMT";"0.235M";"1.502M";"2.588M";"Low"
"Gasoline Inventories";"United States";"USD";"2015-07-29T14:30:00";"GMT";"-1.725M";"0.512M";"-0.363M";"Low"
"5-Year Note Auction";"United States";"USD";"2015-07-29T17:00:00";"GMT";"1.710%";"";"1.625%";"Low"
"FOMC Statement";"United States";"USD";"2015-07-29T18:00:00";"GMT";" ";"";"";"High"
"Fed Interest Rate Decision";"United States";"USD";"2015-07-29T18:00:00";"GMT";"0.25%";"0.25%";"0.25%";"High"
