{"events": {"event": [
    {
      "eventDateTime": "2014-07-01T04:30:00",
      "eventActual": "2.50%",
      "eventCountry": "Australia",
      "eventExpectedVolatility": "High",
      "eventName": "RBA Interest Rate Decision",
      "eventTimeZone": "GMT",
      "eventPrevious": "2.50%",
      "eventCurrency": "AUD",
      "eventForecast": "2.50%"
    },
    {
      "eventDateTime": "2014-07-01T04:30:00",
      "eventActual": "",
      "eventCountry": "Australia",
      "eventExpectedVolatility": "High",
      "eventName": "RBA Rate Statement",
      "eventTimeZone": "GMT",
      "eventPrevious": "",
      "eventCurrency": "AUD",
      "eventForecast": ""
    },
    {
      "eventDateTime": "2014-07-01T06:30:00",
      "eventActual": "-9.6%",
      "eventCountry": "Australia",
      "eventExpectedVolatility": "Low",
      "eventName": "Commodity Prices (YoY)",
      "eventTimeZone": "GMT",
      "eventPrevious": "-12.8%",
      "eventCurrency": "AUD",
      "eventForecast": ""
    },
    {
      "eventDateTime": "2014-07-01T09:00:00",
      "eventActual": "4.90%",
      "eventCountry": "Australia",
      "eventExpectedVolatility": "Low",
      "eventName": "ANZ Internet Job Ads (MoM) (Jun)",
      "eventTimeZone": "GMT",
      "eventPrevious": "-6.20%",
      "eventCurrency": "AUD",
      "eventForecast": ""
    },
    {
      "eventDateTime": "2014-07-01T09:00:00",
      "eventActual": "-1.20%",
      "eventCountry": "Australia",
      "eventExpectedVolatility": "Low",
      "eventName": "ANZ Newspaper Job Ads (MoM) (Jun)",
      "eventTimeZone": "GMT",
      "eventPrevious": "4.40%",
      "eventCurrency": "AUD",
      "eventForecast": ""
    },
    {
      "eventDateTime": "2014-07-01T09:00:00",
      "eventActual": "0.60%",
      "eventCountry": "Australia",
      "eventExpectedVolatility": "Low",
      "eventName": "Housing Credit (Jun)",
      "eventTimeZone": "GMT",
      "eventPrevious": "0.60%",
      "eventCurrency": "AUD",
      "eventForecast": ""
    },
    {
      "eventDateTime": "2014-07-01T09:00:00",
      "eventActual": "0.60%",
      "eventCountry": "Australia",
      "eventExpectedVolatility": "Low",
      "eventName": "Invest Housing Finance (MoM) (Jun)",
      "eventTimeZone": "GMT",
      "eventPrevious": "-0.60%",
      "eventCurrency": "AUD",
      "eventForecast": ""
    },
    {
      "eventDateTime": "2014-07-01T09:00:00",
      "eventActual": "-1.10%",
      "eventCountry": "Australia",
      "eventExpectedVolatility": "Low",
      "eventName": "Private House Approvals (Jun)",
      "eventTimeZone": "GMT",
      "eventPrevious": "1.40%",
      "eventCurrency": "AUD",
      "eventForecast": ""
    }
  ]}}
