{"events": {"event": [
    {
      "eventDateTime": "2000-01-01T09:00:00",
      "eventActual": "147.20B",
      "eventCountry": "Singapore",
      "eventExpectedVolatility": "Low",
      "eventName": "Bank Lending (Dec)",
      "eventTimeZone": "GMT",
      "eventPrevious": "147.20B",
      "eventCurrency": "SGD",
      "eventForecast": ""
    },
    {
      "eventDateTime": "2000-01-01T09:00:00",
      "eventActual": "0.68%",
      "eventCountry": "Singapore",
      "eventExpectedVolatility": "Moderate",
      "eventName": "CPI (YoY) (Dec)",
      "eventTimeZone": "GMT",
      "eventPrevious": "0.36%",
      "eventCurrency": "SGD",
      "eventForecast": ""
    },
    {
      "eventDateTime": "2000-01-01T09:00:00",
      "eventActual": "77.00B",
      "eventCountry": "Singapore",
      "eventExpectedVolatility": "Low",
      "eventName": "Foreign Reserves USD (MoM) (Dec)",
      "eventTimeZone": "GMT",
      "eventPrevious": "74.40B",
      "eventCurrency": "SGD",
      "eventForecast": ""
    },
    {
      "eventDateTime": "2000-01-01T09:00:00",
      "eventActual": "-5.20%",
      "eventCountry": "Singapore",
      "eventExpectedVolatility": "Low",
      "eventName": "Industrial Production (MoM) (Dec)",
      "eventTimeZone": "GMT",
      "eventPrevious": "1.20%",
      "eventCurrency": "SGD",
      "eventForecast": ""
    },
    {
      "eventDateTime": "2000-01-01T09:00:00",
      "eventActual": "7.30%",
      "eventCountry": "Singapore",
      "eventExpectedVolatility": "Low",
      "eventName": "Industrial Production (YoY) (Dec)",
      "eventTimeZone": "GMT",
      "eventPrevious": "19.70%",
      "eventCurrency": "SGD",
      "eventForecast": ""
    },
    {
      "eventDateTime": "2000-01-01T09:00:00",
      "eventActual": "59.80",
      "eventCountry": "Singapore",
      "eventExpectedVolatility": "Low",
      "eventName": "Manufacturing PMI (Dec)",
      "eventTimeZone": "GMT",
      "eventPrevious": "60.60",
      "eventCurrency": "SGD",
      "eventForecast": ""
    },
    {
      "eventDateTime": "2000-01-01T09:00:00",
      "eventActual": "25.00%",
      "eventCountry": "Singapore",
      "eventExpectedVolatility": "Low",
      "eventName": "Non-Oil Exports (YoY) (Dec)",
      "eventTimeZone": "GMT",
      "eventPrevious": "24.60%",
      "eventCurrency": "SGD",
      "eventForecast": ""
    },
    {
      "eventDateTime": "2000-01-01T09:00:00",
      "eventActual": "-0.40%",
      "eventCountry": "Singapore",
      "eventExpectedVolatility": "Low",
      "eventName": "Retail Sales (MoM) (Dec)",
      "eventTimeZone": "GMT",
      "eventPrevious": "-2.00%",
      "eventCurrency": "SGD",
      "eventForecast": ""
    },
    {
      "eventDateTime": "2000-01-01T09:00:00",
      "eventActual": "15.80%",
      "eventCountry": "Singapore",
      "eventExpectedVolatility": "Low",
      "eventName": "Retail Sales (YoY) (Dec)",
      "eventTimeZone": "GMT",
      "eventPrevious": "22.50%",
      "eventCurrency": "SGD",
      "eventForecast": ""
    }
  ]}}
