{"events": {"event": {
    "eventDateTime": "2011-03-09T08:15:00",
    "eventActual": "0.4%",
    "eventCountry": "Switzerland",
    "eventExpectedVolatility": "Moderate",
    "eventName": "CPI (MoM)",
    "eventTimeZone": "GMT",
    "eventPrevious": "-0.4%",
    "eventCurrency": "CHF",
    "eventForecast": "0.3%"
  }}}
