"BoC Interest Rate Decision (Nov)";"Canada";"CAD";"2006-12-01T09:00:00";"GMT";"4.25%";"";"4.25%";"High"
"Budget Balance (Nov)";"Canada";"CAD";"2006-12-01T09:00:00";"GMT";"0.54B";"";"0.46B";"Low"
"Budget Balance (YoY) (Nov)";"Canada";"CAD";"2006-12-01T09:00:00";"GMT";"6.45B";"";"6.91B";"Low"
"Building Permits (MoM) (Nov)";"Canada";"CAD";"2006-12-01T09:00:00";"GMT";"10.60%";"";"2.40%";"Moderate"
"CPI (MoM) (Nov)";"Canada";"CAD";"2006-12-01T09:00:00";"GMT";"-0.20%";"";"0.20%";"Moderate"
"CPI (YoY) (Nov)";"Canada";"CAD";"2006-12-01T09:00:00";"GMT";"1.00%";"";"1.40%";"Low"
"Core CPI (MoM) (Nov)";"Canada";"CAD";"2006-12-01T09:00:00";"GMT";"0.10%";"";"0.20%";"High"
"Core CPI (YoY) (Nov)";"Canada";"CAD";"2006-12-01T09:00:00";"GMT";"2.40%";"";"2.20%";"Moderate"
"Core Retail Sales (MoM) (Nov)";"Canada";"CAD";"2006-12-01T09:00:00";"GMT";"0.50%";"";"-0.10%";"High"
"Employment Change (Nov)";"Canada";"CAD";"2006-12-01T09:00:00";"GMT";"22.50K";"";"27.60K";"High"
"Exports (Nov)";"Canada";"CAD";"2006-12-01T09:00:00";"GMT";"36.45B";"";"37.72B";"Low"
"Foreign Securities Purchases (Nov)";"Canada";"CAD";"2006-12-01T09:00:00";"GMT";"-3.04B";"";"11.80B";"Moderate"
"Foreign Securities Purchases by Canadians (Nov)";"Canada";"CAD";"2006-12-01T09:00:00";"GMT";"6.18B";"";"5.28B";"Low"
"Full Employment Change (Nov)";"Canada";"CAD";"2006-12-01T09:00:00";"GMT";"33.80K";"";"-11.20K";"Low"
"GDP (MoM) (Nov)";"Canada";"CAD";"2006-12-01T09:00:00";"GMT";"0.20%";"";"0.30%";"High"
"Housing Starts (Nov)";"Canada";"CAD";"2006-12-01T09:00:00";"GMT";"231.50K";"";"235.70K";"Moderate"
"IPPI (MoM) (Nov)";"Canada";"CAD";"2006-12-01T09:00:00";"GMT";"-0.10%";"";"0.10%";"Low"
"IPPI (YoY) (Nov)";"Canada";"CAD";"2006-12-01T09:00:00";"GMT";"0.90%";"";"1.70%";"Low"
"Imports (Nov)";"Canada";"CAD";"2006-12-01T09:00:00";"GMT";"33.67B";"";"34.16B";"Low"
"Ivey PMI n.s.a (Nov)";"Canada";"CAD";"2006-12-01T09:00:00";"GMT";"59.50";"";"52.80";"Low"
"Manufacturing Sales (MoM) (Nov)";"Canada";"CAD";"2006-12-01T09:00:00";"GMT";"-1.50%";"";"1.90%";"Moderate"
"New Housing Price Index (MoM) (Nov)";"Canada";"CAD";"2006-12-01T09:00:00";"GMT";"0.20%";"";"0.50%";"Moderate"
"Part Time Employment Change (Nov)";"Canada";"CAD";"2006-12-01T09:00:00";"GMT";"-11.20K";"";"38.70K";"Low"
"Participation Rate (Nov)";"Canada";"CAD";"2006-12-01T09:00:00";"GMT";"66.90%";"";"67.10%";"Low"
"RMPI (MoM) (Nov)";"Canada";"CAD";"2006-12-01T09:00:00";"GMT";"-2.70%";"";"0.20%";"Moderate"
"RMPI (YoY) (Nov)";"Canada";"CAD";"2006-12-01T09:00:00";"GMT";"3.10%";"";"4.70%";"Low"
"Retail Sales (MoM) (Nov)";"Canada";"CAD";"2006-12-01T09:00:00";"GMT";"0.30%";"";"0.70%";"Moderate"
"Trade Balance (Nov)";"Canada";"CAD";"2006-12-01T09:00:00";"GMT";"2.77B";"";"3.56B";"Moderate"
"Unemployment Rate (Nov)";"Canada";"CAD";"2006-12-01T09:00:00";"GMT";"6.10%";"";"6.20%";"Moderate"
"Wholesale Sales (MoM) (Nov)";"Canada";"CAD";"2006-12-01T09:00:00";"GMT";"-0.50%";"";"1.00%";"Moderate"
