"Non-Oil Exports (MoM) (Mar)";"Singapore";"SGD";"2016-04-18T00:30:00";"GMT";"-4.20%";"2.30%";"0.20%";"Low"
"Non-Oil Exports (YoY) (Mar)";"Singapore";"SGD";"2016-04-18T00:30:00";"GMT";"2.00%";"-13.20%";"-15.60%";"Low"
"Trade Balance";"Singapore";"SGD";"2016-04-18T03:30:00";"GMT";"4.060B";"";"3.660B";"Low"
