{"events": {"event": {
    "eventDateTime": "2011-09-02T12:00:00",
    "eventActual": "3.1%",
    "eventCountry": "Brazil",
    "eventExpectedVolatility": "Moderate",
    "eventName": "GDP (YoY)",
    "eventTimeZone": "GMT",
    "eventPrevious": "4.2%",
    "eventCurrency": "BRL",
    "eventForecast": "3.3%"
  }}}
