{"events": {"event": {
    "eventDateTime": "2019-01-02T09:30:00",
    "eventActual": "54.2",
    "eventCountry": "United Kingdom",
    "eventExpectedVolatility": "High",
    "eventName": "Manufacturing PMI (Dec)",
    "eventTimeZone": "GMT",
    "eventPrevious": "53.6",
    "eventCurrency": "GBP",
    "eventForecast": "52.6"
  }}}
