"German Trade Balance";"Germany";"EUR";"2010-07-08T06:00:00";"GMT";"12.8B";"13.4B";"10.6B";"Moderate"
"French Government Budget Balance";"France";"EUR";"2010-07-08T06:45:00";"GMT";"-56.2B";"";"-67.9B";"Low"
"German Industrial Production (MoM)";"Germany";"EUR";"2010-07-08T10:00:00";"GMT";"1.2%";"0.8%";"2.6%";"Moderate"
"ECB Interest Rate Decision";"Euro Zone";"EUR";"2010-07-08T11:45:00";"GMT";"1.00%";"1.00%";"1.00%";"High"
"ECB Press Conference";"Euro Zone";"EUR";"2010-07-08T12:30:00";"GMT";" ";"";"";"High"
