"Average Earnings Index +Bonus (Feb)";"United Kingdom";"GBP";"2002-03-01T09:00:00";"GMT";"3.80%";"";"3.30%";"High"
"Average Earnings ex Bonus (Feb)";"United Kingdom";"GBP";"2002-03-01T09:00:00";"GMT";"4.60%";"";"4.70%";"Low"
"BRC Retail Sales Monitor (YoY) (Feb)";"United Kingdom";"GBP";"2002-03-01T09:00:00";"GMT";"6.00%";"";"6.10%";"Moderate"
"BoE Consumer Credit (Feb)";"United Kingdom";"GBP";"2002-03-01T09:00:00";"GMT";"1.87B";"";"1.95B";"Low"
"BoE Interest Rate Decision (Feb)";"United Kingdom";"GBP";"2002-03-01T09:00:00";"GMT";"4.00%";"";"4.00%";"High"
"CBI Distributive Trades Survey (Feb)";"United Kingdom";"GBP";"2002-03-01T09:00:00";"GMT";"39.00";"";"33.00";"Low"
"CBI Industrial Trends Orders (Feb)";"United Kingdom";"GBP";"2002-03-01T09:00:00";"GMT";"-31.00";"";"-29.00";"Moderate"
"CPI (MoM) (Feb)";"United Kingdom";"GBP";"2002-03-01T09:00:00";"GMT";"-0.30%";"";"0.10%";"Moderate"
"CPI (YoY) (Feb)";"United Kingdom";"GBP";"2002-03-01T09:00:00";"GMT";"1.60%";"";"1.50%";"High"
"Claimant Count Change (Feb)";"United Kingdom";"GBP";"2002-03-01T09:00:00";"GMT";"-8.30K";"";"-6.30K";"High"
"Core PPI Output (MoM) (Feb)";"United Kingdom";"GBP";"2002-03-01T09:00:00";"GMT";"0.00%";"";"-0.20%";"Low"
"Core PPI Output (YoY) (Feb)";"United Kingdom";"GBP";"2002-03-01T09:00:00";"GMT";"-0.70%";"";"-0.70%";"Low"
"Core RPI (MoM) (Feb)";"United Kingdom";"GBP";"2002-03-01T09:00:00";"GMT";"-0.10%";"";"0.20%";"Low"
"Core RPI (YoY) (Feb)";"United Kingdom";"GBP";"2002-03-01T09:00:00";"GMT";"2.60%";"";"2.20%";"Low"
"Core Retail Sales (MoM) (Feb)";"United Kingdom";"GBP";"2002-03-01T09:00:00";"GMT";"-0.30%";"";"1.80%";"Moderate"
"Core Retail Sales (YoY) (Feb)";"United Kingdom";"GBP";"2002-03-01T09:00:00";"GMT";"6.80%";"";"7.50%";"Moderate"
"GfK Consumer Confidence (Feb)";"United Kingdom";"GBP";"2002-03-01T09:00:00";"GMT";"6.00";"";"5.00";"Low"
"Halifax House Price Index (MoM) (Feb)";"United Kingdom";"GBP";"2002-03-01T09:00:00";"GMT";"1.90%";"";"1.00%";"Moderate"
"Halifax House Price Index (YoY) (Feb)";"United Kingdom";"GBP";"2002-03-01T09:00:00";"GMT";"14.60%";"";"16.40%";"Moderate"
"Industrial Production (MoM) (Feb)";"United Kingdom";"GBP";"2002-03-01T09:00:00";"GMT";"-0.50%";"";"0.30%";"Moderate"
"Industrial Production (YoY) (Feb)";"United Kingdom";"GBP";"2002-03-01T09:00:00";"GMT";"-3.40%";"";"-2.70%";"Low"
"M4 Money Supply (MoM) (Feb)";"United Kingdom";"GBP";"2002-03-01T09:00:00";"GMT";"0.20%";"";"0.70%";"Low"
"Manufacturing Production (MoM) (Feb)";"United Kingdom";"GBP";"2002-03-01T09:00:00";"GMT";"-0.70%";"";"1.20%";"High"
"Manufacturing Production (YoY) (Feb)";"United Kingdom";"GBP";"2002-03-01T09:00:00";"GMT";"-4.70%";"";"-3.30%";"Low"
"Mortgage Approvals (Feb)";"United Kingdom";"GBP";"2002-03-01T09:00:00";"GMT";"120.93K";"";"124.54K";"Low"
"Mortgage Lending (Feb)";"United Kingdom";"GBP";"2002-03-01T09:00:00";"GMT";"4.98B";"";"5.32B";"Low"
"Nationwide HPI (MoM) (Feb)";"United Kingdom";"GBP";"2002-03-01T09:00:00";"GMT";"0.70%";"";"1.60%";"Moderate"
"Nationwide HPI (YoY) (Feb)";"United Kingdom";"GBP";"2002-03-01T09:00:00";"GMT";"11.70%";"";"14.00%";"Moderate"
"PPI Input (MoM) (Feb)";"United Kingdom";"GBP";"2002-03-01T09:00:00";"GMT";"0.50%";"";"0.00%";"Moderate"
"PPI Input (YoY) (Feb)";"United Kingdom";"GBP";"2002-03-01T09:00:00";"GMT";"-6.80%";"";"-8.00%";"Low"
"PPI Output (MoM) (Feb)";"United Kingdom";"GBP";"2002-03-01T09:00:00";"GMT";"0.10%";"";"-0.10%";"Low"
"PPI Output (YoY) (Feb)";"United Kingdom";"GBP";"2002-03-01T09:00:00";"GMT";"-0.70%";"";"-0.60%";"Low"
"Public Sector Net Borrowing (Feb)";"United Kingdom";"GBP";"2002-03-01T09:00:00";"GMT";"-6.50B";"";"-1.48B";"Low"
"Public Sector Net Cash Requirement (Feb)";"United Kingdom";"GBP";"2002-03-01T09:00:00";"GMT";"-12.01B";"";"-1.89B";"Low"
"RICS House Price Balance (Feb)";"United Kingdom";"GBP";"2002-03-01T09:00:00";"GMT";"41.00%";"";"50.00%";"Moderate"
"RPI (MoM) (Feb)";"United Kingdom";"GBP";"2002-03-01T09:00:00";"GMT";"-0.10%";"";"0.30%";"Low"
"RPI (YoY) (Feb)";"United Kingdom";"GBP";"2002-03-01T09:00:00";"GMT";"1.30%";"";"1.00%";"Low"
"Retail Sales (MoM) (Feb)";"United Kingdom";"GBP";"2002-03-01T09:00:00";"GMT";"-0.60%";"";"1.80%";"High"
"Retail Sales (YoY) (Feb)";"United Kingdom";"GBP";"2002-03-01T09:00:00";"GMT";"5.80%";"";"7.50%";"Moderate"
"Trade Balance (Feb)";"United Kingdom";"GBP";"2002-03-01T09:00:00";"GMT";"-3.80B";"";"-3.92B";"Moderate"
"Trade Balance Non-EU (Feb)";"United Kingdom";"GBP";"2002-03-01T09:00:00";"GMT";"-1.94B";"";"-2.12B";"Moderate"
"Unemployment Rate (Feb)";"United Kingdom";"GBP";"2002-03-01T09:00:00";"GMT";"5.20%";"";"5.10%";"Moderate"
