{"events": {"event": [
    {
      "eventDateTime": "2018-06-29T12:30:00",
      "eventActual": "0.1%",
      "eventCountry": "Canada",
      "eventExpectedVolatility": "High",
      "eventName": "GDP (MoM) (Apr)",
      "eventTimeZone": "GMT",
      "eventPrevious": "0.3%",
      "eventCurrency": "CAD",
      "eventForecast": "0.0%"
    },
    {
      "eventDateTime": "2018-06-29T12:30:00",
      "eventActual": "2.5%",
      "eventCountry": "Canada",
      "eventExpectedVolatility": "Moderate",
      "eventName": "GDP (YoY)",
      "eventTimeZone": "GMT",
      "eventPrevious": "2.9%",
      "eventCurrency": "CAD",
      "eventForecast": "2.5%"
    },
    {
      "eventDateTime": "2018-06-29T12:30:00",
      "eventActual": "1.0%",
      "eventCountry": "Canada",
      "eventExpectedVolatility": "Low",
      "eventName": "IPPI (MoM) (May)",
      "eventTimeZone": "GMT",
      "eventPrevious": "0.4%",
      "eventCurrency": "CAD",
      "eventForecast": "0.9%"
    },
    {
      "eventDateTime": "2018-06-29T12:30:00",
      "eventActual": "3.1%",
      "eventCountry": "Canada",
      "eventExpectedVolatility": "Low",
      "eventName": "IPPI (YoY) (May)",
      "eventTimeZone": "GMT",
      "eventPrevious": "2.3%",
      "eventCurrency": "CAD",
      "eventForecast": ""
    },
    {
      "eventDateTime": "2018-06-29T12:30:00",
      "eventActual": "3.8%",
      "eventCountry": "Canada",
      "eventExpectedVolatility": "Moderate",
      "eventName": "RMPI (MoM) (May)",
      "eventTimeZone": "GMT",
      "eventPrevious": "0.8%",
      "eventCurrency": "CAD",
      "eventForecast": "1.2%"
    },
    {
      "eventDateTime": "2018-06-29T12:30:00",
      "eventActual": "15.1%",
      "eventCountry": "Canada",
      "eventExpectedVolatility": "Low",
      "eventName": "RMPI (YoY) (May)",
      "eventTimeZone": "GMT",
      "eventPrevious": "9.0%",
      "eventCurrency": "CAD",
      "eventForecast": ""
    },
    {
      "eventDateTime": "2018-06-29T14:30:00",
      "eventActual": "",
      "eventCountry": "Canada",
      "eventExpectedVolatility": "Moderate",
      "eventName": "BoC Business Outlook Survey",
      "eventTimeZone": "GMT",
      "eventPrevious": "",
      "eventCurrency": "CAD",
      "eventForecast": ""
    },
    {
      "eventDateTime": "2018-06-29T19:30:00",
      "eventActual": "-32.8K",
      "eventCountry": "Canada",
      "eventExpectedVolatility": "Low",
      "eventName": "CFTC CAD speculative net positions",
      "eventTimeZone": "GMT",
      "eventPrevious": "-14.0K",
      "eventCurrency": "CAD",
      "eventForecast": ""
    }
  ]}}
