"GDP (MoM) (Apr)";"Canada";"CAD";"2018-06-29T12:30:00";"GMT";"0.3%";"0.0%";"0.1%";"High"
"GDP (YoY)";"Canada";"CAD";"2018-06-29T12:30:00";"GMT";"2.9%";"2.5%";"2.5%";"Moderate"
"IPPI (MoM) (May)";"Canada";"CAD";"2018-06-29T12:30:00";"GMT";"0.4%";"0.9%";"1.0%";"Low"
"IPPI (YoY) (May)";"Canada";"CAD";"2018-06-29T12:30:00";"GMT";"2.3%";"";"3.1%";"Low"
"RMPI (MoM) (May)";"Canada";"CAD";"2018-06-29T12:30:00";"GMT";"0.8%";"1.2%";"3.8%";"Moderate"
"RMPI (YoY) (May)";"Canada";"CAD";"2018-06-29T12:30:00";"GMT";"9.0%";"";"15.1%";"Low"
"BoC Business Outlook Survey";"Canada";"CAD";"2018-06-29T14:30:00";"GMT";" ";"";"";"Moderate"
"CFTC CAD speculative net positions";"Canada";"CAD";"2018-06-29T19:30:00";"GMT";"-14.0K";"";"-32.8K";"Low"
