"Current Account (Q4)";"Canada";"CAD";"2019-02-28T13:30:00";"GMT";"-10.1B";"-13.5B";"-15.5B";"Moderate"
"IPPI (MoM) (Jan)";"Canada";"CAD";"2019-02-28T13:30:00";"GMT";"-0.8%";"0.3%";"-0.3%";"Low"
"IPPI (YoY) (Jan)";"Canada";"CAD";"2019-02-28T13:30:00";"GMT";"-2.0%";"";"1.0%";"Low"
"RMPI (MoM) (Jan)";"Canada";"CAD";"2019-02-28T13:30:00";"GMT";"3.8%";"4.1%";"3.8%";"Moderate"
"RMPI (YoY) (Jan)";"Canada";"CAD";"2019-02-28T13:30:00";"GMT";"-5.8%";"";"-5.5%";"Low"
