"Bank Loan Growth";"India";"INR";"2018-05-11T11:30:00";"GMT";"11.5%";"";"12.6%";"Low"
"Cumulative Industrial Production (Mar)";"India";"INR";"2018-05-11T11:30:00";"GMT";"4.30%";"";"4.30%";"Low"
"Deposit Growth";"India";"INR";"2018-05-11T11:30:00";"GMT";"8.0%";"";"8.2%";"Low"
"FX Reserves, USD";"India";"INR";"2018-05-11T11:30:00";"GMT";"420.37B";"";"418.94B";"Low"
"Industrial Production (YoY) (Mar)";"India";"INR";"2018-05-11T11:30:00";"GMT";"7.0%";"5.9%";"4.4%";"Low"
"Manufacturing Output (MoM) (Mar)";"India";"INR";"2018-05-11T11:30:00";"GMT";"8.5%";"";"4.4%";"Low"
