{"events": {"event": [
    {
      "eventDateTime": "2018-04-27T05:30:00",
      "eventActual": "0.3%",
      "eventCountry": "France",
      "eventExpectedVolatility": "Moderate",
      "eventName": "French GDP (QoQ) (Q1)",
      "eventTimeZone": "GMT",
      "eventPrevious": "0.7%",
      "eventCurrency": "EUR",
      "eventForecast": "0.4%"
    },
    {
      "eventDateTime": "2018-04-27T05:30:00",
      "eventActual": "2.1%",
      "eventCountry": "France",
      "eventExpectedVolatility": "Moderate",
      "eventName": "French GDP (YoY)",
      "eventTimeZone": "GMT",
      "eventPrevious": "2.5%",
      "eventCurrency": "EUR",
      "eventForecast": "2.3%"
    },
    {
      "eventDateTime": "2018-04-27T05:45:00",
      "eventActual": "",
      "eventCountry": "Euro Zone",
      "eventExpectedVolatility": "Moderate",
      "eventName": "ECB's Mersch Speaks",
      "eventTimeZone": "GMT",
      "eventPrevious": "",
      "eventCurrency": "EUR",
      "eventForecast": ""
    },
    {
      "eventDateTime": "2018-04-27T06:00:00",
      "eventActual": "0.0%",
      "eventCountry": "Germany",
      "eventExpectedVolatility": "Low",
      "eventName": "German Import Price Index (MoM) (Mar)",
      "eventTimeZone": "GMT",
      "eventPrevious": "-0.6%",
      "eventCurrency": "EUR",
      "eventForecast": "0.1%"
    },
    {
      "eventDateTime": "2018-04-27T06:00:00",
      "eventActual": "-0.1%",
      "eventCountry": "Germany",
      "eventExpectedVolatility": "Low",
      "eventName": "German Import Price Index (YoY) (Mar)",
      "eventTimeZone": "GMT",
      "eventPrevious": "-0.6%",
      "eventCurrency": "EUR",
      "eventForecast": "0.1%"
    },
    {
      "eventDateTime": "2018-04-27T06:45:00",
      "eventActual": "",
      "eventCountry": "Euro Zone",
      "eventExpectedVolatility": "Moderate",
      "eventName": "ECB's Lautenschlaeger Speaks",
      "eventTimeZone": "GMT",
      "eventPrevious": "",
      "eventCurrency": "EUR",
      "eventForecast": ""
    },
    {
      "eventDateTime": "2018-04-27T06:45:00",
      "eventActual": "0.1%",
      "eventCountry": "France",
      "eventExpectedVolatility": "Moderate",
      "eventName": "French CPI (MoM)",
      "eventTimeZone": "GMT",
      "eventPrevious": "1.0%",
      "eventCurrency": "EUR",
      "eventForecast": "0.1%"
    },
    {
      "eventDateTime": "2018-04-27T06:45:00",
      "eventActual": "1.6%",
      "eventCountry": "France",
      "eventExpectedVolatility": "Low",
      "eventName": "French CPI (YoY)",
      "eventTimeZone": "GMT",
      "eventPrevious": "1.6%",
      "eventCurrency": "EUR",
      "eventForecast": ""
    },
    {
      "eventDateTime": "2018-04-27T06:45:00",
      "eventActual": "0.1%",
      "eventCountry": "France",
      "eventExpectedVolatility": "Moderate",
      "eventName": "French Consumer Spending (MoM) (Mar)",
      "eventTimeZone": "GMT",
      "eventPrevious": "2.5%",
      "eventCurrency": "EUR",
      "eventForecast": "0.4%"
    },
    {
      "eventDateTime": "2018-04-27T06:45:00",
      "eventActual": "0.1%",
      "eventCountry": "France",
      "eventExpectedVolatility": "Moderate",
      "eventName": "French HICP (MoM)",
      "eventTimeZone": "GMT",
      "eventPrevious": "1.1%",
      "eventCurrency": "EUR",
      "eventForecast": ""
    },
    {
      "eventDateTime": "2018-04-27T06:45:00",
      "eventActual": "1.8%",
      "eventCountry": "France",
      "eventExpectedVolatility": "Low",
      "eventName": "French HICP (YoY)",
      "eventTimeZone": "GMT",
      "eventPrevious": "1.7%",
      "eventCurrency": "EUR",
      "eventForecast": ""
    },
    {
      "eventDateTime": "2018-04-27T06:45:00",
      "eventActual": "0.4%",
      "eventCountry": "France",
      "eventExpectedVolatility": "Low",
      "eventName": "French PPI (MoM) (Mar)",
      "eventTimeZone": "GMT",
      "eventPrevious": "0.1%",
      "eventCurrency": "EUR",
      "eventForecast": ""
    },
    {
      "eventDateTime": "2018-04-27T07:00:00",
      "eventActual": "0.8%",
      "eventCountry": "Spain",
      "eventExpectedVolatility": "Low",
      "eventName": "Spanish CPI (MoM)",
      "eventTimeZone": "GMT",
      "eventPrevious": "0.1%",
      "eventCurrency": "EUR",
      "eventForecast": ""
    },
    {
      "eventDateTime": "2018-04-27T07:00:00",
      "eventActual": "1.1%",
      "eventCountry": "Spain",
      "eventExpectedVolatility": "Moderate",
      "eventName": "Spanish CPI (YoY)",
      "eventTimeZone": "GMT",
      "eventPrevious": "1.2%",
      "eventCurrency": "EUR",
      "eventForecast": "1.2%"
    },
    {
      "eventDateTime": "2018-04-27T07:00:00",
      "eventActual": "0.7%",
      "eventCountry": "Spain",
      "eventExpectedVolatility": "Moderate",
      "eventName": "Spanish GDP (QoQ) (Q1)",
      "eventTimeZone": "GMT",
      "eventPrevious": "0.7%",
      "eventCurrency": "EUR",
      "eventForecast": "0.7%"
    },
    {
      "eventDateTime": "2018-04-27T07:00:00",
      "eventActual": "2.9%",
      "eventCountry": "Spain",
      "eventExpectedVolatility": "Low",
      "eventName": "Spanish GDP (YoY) (Q1)",
      "eventTimeZone": "GMT",
      "eventPrevious": "3.1%",
      "eventCurrency": "EUR",
      "eventForecast": "3.0%"
    },
    {
      "eventDateTime": "2018-04-27T07:00:00",
      "eventActual": "0.8%",
      "eventCountry": "Spain",
      "eventExpectedVolatility": "Low",
      "eventName": "Spanish HICP (MoM)",
      "eventTimeZone": "GMT",
      "eventPrevious": "1.2%",
      "eventCurrency": "EUR",
      "eventForecast": "0.7%"
    },
    {
      "eventDateTime": "2018-04-27T07:00:00",
      "eventActual": "1.1%",
      "eventCountry": "Spain",
      "eventExpectedVolatility": "Moderate",
      "eventName": "Spanish HICP (YoY) (Apr)",
      "eventTimeZone": "GMT",
      "eventPrevious": "1.3%",
      "eventCurrency": "EUR",
      "eventForecast": "1.2%"
    },
    {
      "eventDateTime": "2018-04-27T07:00:00",
      "eventActual": "1.9%",
      "eventCountry": "Spain",
      "eventExpectedVolatility": "Low",
      "eventName": "Spanish Retail Sales (YoY) (Mar)",
      "eventTimeZone": "GMT",
      "eventPrevious": "2.0%",
      "eventCurrency": "EUR",
      "eventForecast": "1.5%"
    },
    {
      "eventDateTime": "2018-04-27T07:55:00",
      "eventActual": "2.370M",
      "eventCountry": "Germany",
      "eventExpectedVolatility": "Low",
      "eventName": "German Unemployment (Apr)",
      "eventTimeZone": "GMT",
      "eventPrevious": "2.377M",
      "eventCurrency": "EUR",
      "eventForecast": ""
    },
    {
      "eventDateTime": "2018-04-27T07:55:00",
      "eventActual": "-7K",
      "eventCountry": "Germany",
      "eventExpectedVolatility": "High",
      "eventName": "German Unemployment Change (Apr)",
      "eventTimeZone": "GMT",
      "eventPrevious": "-18K",
      "eventCurrency": "EUR",
      "eventForecast": "-15K"
    },
    {
      "eventDateTime": "2018-04-27T07:55:00",
      "eventActual": "5.3%",
      "eventCountry": "Germany",
      "eventExpectedVolatility": "Moderate",
      "eventName": "German Unemployment Rate (Apr)",
      "eventTimeZone": "GMT",
      "eventPrevious": "5.3%",
      "eventCurrency": "EUR",
      "eventForecast": "5.3%"
    },
    {
      "eventDateTime": "2018-04-27T07:55:00",
      "eventActual": "2.384M",
      "eventCountry": "Germany",
      "eventExpectedVolatility": "Low",
      "eventName": "German Unemployment n.s.a. (Apr)",
      "eventTimeZone": "GMT",
      "eventPrevious": "2.458M",
      "eventCurrency": "EUR",
      "eventForecast": "2.365M"
    },
    {
      "eventDateTime": "2018-04-27T08:00:00",
      "eventActual": "",
      "eventCountry": "Euro Zone",
      "eventExpectedVolatility": "Moderate",
      "eventName": "ECB's Mersch Speaks",
      "eventTimeZone": "GMT",
      "eventPrevious": "",
      "eventCurrency": "EUR",
      "eventForecast": ""
    },
    {
      "eventDateTime": "2018-04-27T08:00:00",
      "eventActual": "0.4%",
      "eventCountry": "Italy",
      "eventExpectedVolatility": "Low",
      "eventName": "Italian PPI (MoM) (Mar)",
      "eventTimeZone": "GMT",
      "eventPrevious": "0.2%",
      "eventCurrency": "EUR",
      "eventForecast": ""
    },
    {
      "eventDateTime": "2018-04-27T08:00:00",
      "eventActual": "2.0%",
      "eventCountry": "Italy",
      "eventExpectedVolatility": "Low",
      "eventName": "Italian PPI (YoY) (Mar)",
      "eventTimeZone": "GMT",
      "eventPrevious": "1.6%",
      "eventCurrency": "EUR",
      "eventForecast": ""
    },
    {
      "eventDateTime": "2018-04-27T09:00:00",
      "eventActual": "1.35",
      "eventCountry": "Euro Zone",
      "eventExpectedVolatility": "Low",
      "eventName": "Business Climate (Apr)",
      "eventTimeZone": "GMT",
      "eventPrevious": "1.44",
      "eventCurrency": "EUR",
      "eventForecast": "1.27"
    },
    {
      "eventDateTime": "2018-04-27T09:00:00",
      "eventActual": "112.7",
      "eventCountry": "Euro Zone",
      "eventExpectedVolatility": "Low",
      "eventName": "Business and Consumer Survey (Apr)",
      "eventTimeZone": "GMT",
      "eventPrevious": "112.7",
      "eventCurrency": "EUR",
      "eventForecast": "112.0"
    },
    {
      "eventDateTime": "2018-04-27T09:00:00",
      "eventActual": "0.4",
      "eventCountry": "Euro Zone",
      "eventExpectedVolatility": "Low",
      "eventName": "Consumer Confidence (Apr)",
      "eventTimeZone": "GMT",
      "eventPrevious": "0.4",
      "eventCurrency": "EUR",
      "eventForecast": "-0.1"
    },
    {
      "eventDateTime": "2018-04-27T09:00:00",
      "eventActual": "16.1",
      "eventCountry": "Euro Zone",
      "eventExpectedVolatility": "Low",
      "eventName": "Consumer Inflation Expectation (Apr)",
      "eventTimeZone": "GMT",
      "eventPrevious": "16.1",
      "eventCurrency": "EUR",
      "eventForecast": ""
    },
    {
      "eventDateTime": "2018-04-27T09:00:00",
      "eventActual": "7.1",
      "eventCountry": "Euro Zone",
      "eventExpectedVolatility": "Low",
      "eventName": "Industrial Sentiment (Apr)",
      "eventTimeZone": "GMT",
      "eventPrevious": "7.0",
      "eventCurrency": "EUR",
      "eventForecast": "5.8"
    },
    {
      "eventDateTime": "2018-04-27T09:00:00",
      "eventActual": "10.4",
      "eventCountry": "Euro Zone",
      "eventExpectedVolatility": "Low",
      "eventName": "Selling Price Expectations (Apr)",
      "eventTimeZone": "GMT",
      "eventPrevious": "11.6",
      "eventCurrency": "EUR",
      "eventForecast": ""
    },
    {
      "eventDateTime": "2018-04-27T09:00:00",
      "eventActual": "14.9",
      "eventCountry": "Euro Zone",
      "eventExpectedVolatility": "Low",
      "eventName": "Services Sentiment (Apr)",
      "eventTimeZone": "GMT",
      "eventPrevious": "15.9",
      "eventCurrency": "EUR",
      "eventForecast": "15.8"
    },
    {
      "eventDateTime": "2018-04-27T09:45:00",
      "eventActual": "1.70%",
      "eventCountry": "Italy",
      "eventExpectedVolatility": "Moderate",
      "eventName": "Italian 10-Year BTP Auction",
      "eventTimeZone": "GMT",
      "eventPrevious": "1.83%",
      "eventCurrency": "EUR",
      "eventForecast": ""
    },
    {
      "eventDateTime": "2018-04-27T09:45:00",
      "eventActual": "0.56%",
      "eventCountry": "Italy",
      "eventExpectedVolatility": "Low",
      "eventName": "Italian 5-Year BTP Auction",
      "eventTimeZone": "GMT",
      "eventPrevious": "0.68%",
      "eventCurrency": "EUR",
      "eventForecast": ""
    },
    {
      "eventDateTime": "2018-04-27T10:00:00",
      "eventActual": "",
      "eventCountry": "Euro Zone",
      "eventExpectedVolatility": "Moderate",
      "eventName": "EU Finance Ministers Meeting",
      "eventTimeZone": "GMT",
      "eventPrevious": "",
      "eventCurrency": "EUR",
      "eventForecast": ""
    },
    {
      "eventDateTime": "2018-04-27T10:00:00",
      "eventActual": "",
      "eventCountry": "Euro Zone",
      "eventExpectedVolatility": "Moderate",
      "eventName": "Eurogroup Meetings",
      "eventTimeZone": "GMT",
      "eventPrevious": "",
      "eventCurrency": "EUR",
      "eventForecast": ""
    },
    {
      "eventDateTime": "2018-04-27T10:15:00",
      "eventActual": "5.5",
      "eventCountry": "Spain",
      "eventExpectedVolatility": "Low",
      "eventName": "Spanish Business Confidence",
      "eventTimeZone": "GMT",
      "eventPrevious": "2.9",
      "eventCurrency": "EUR",
      "eventForecast": ""
    },
    {
      "eventDateTime": "2018-04-27T19:30:00",
      "eventActual": "130.6K",
      "eventCountry": "Euro Zone",
      "eventExpectedVolatility": "Moderate",
      "eventName": "CFTC EUR speculative net positions",
      "eventTimeZone": "GMT",
      "eventPrevious": "151.5K",
      "eventCurrency": "EUR",
      "eventForecast": ""
    }
  ]}}
