{"events": {"event": [
    {
      "eventDateTime": "2019-11-28T07:00:00",
      "eventActual": "0.5%",
      "eventCountry": "United Kingdom",
      "eventExpectedVolatility": "Moderate",
      "eventName": "Nationwide HPI (MoM) (Nov)",
      "eventTimeZone": "GMT",
      "eventPrevious": "0.2%",
      "eventCurrency": "GBP",
      "eventForecast": "0.1%"
    },
    {
      "eventDateTime": "2019-11-28T07:00:00",
      "eventActual": "0.8%",
      "eventCountry": "United Kingdom",
      "eventExpectedVolatility": "Moderate",
      "eventName": "Nationwide HPI (YoY) (Nov)",
      "eventTimeZone": "GMT",
      "eventPrevious": "0.4%",
      "eventCurrency": "GBP",
      "eventForecast": "0.2%"
    }
  ]}}
