{"events": {"event": [
    {
      "eventDateTime": "2013-05-29T11:00:00",
      "eventActual": "-8.8%",
      "eventCountry": "United States",
      "eventExpectedVolatility": "Low",
      "eventName": "MBA Mortgage Applications (WoW)",
      "eventTimeZone": "GMT",
      "eventPrevious": "-9.8%",
      "eventCurrency": "USD",
      "eventForecast": ""
    },
    {
      "eventDateTime": "2013-05-29T12:55:00",
      "eventActual": "0.60%",
      "eventCountry": "United States",
      "eventExpectedVolatility": "Low",
      "eventName": "Redbook (MoM)",
      "eventTimeZone": "GMT",
      "eventPrevious": "0.50%",
      "eventCurrency": "USD",
      "eventForecast": ""
    },
    {
      "eventDateTime": "2013-05-29T12:55:00",
      "eventActual": "2.7%",
      "eventCountry": "United States",
      "eventExpectedVolatility": "Low",
      "eventName": "Redbook (YoY)",
      "eventTimeZone": "GMT",
      "eventPrevious": "2.4%",
      "eventCurrency": "USD",
      "eventForecast": ""
    },
    {
      "eventDateTime": "2013-05-29T15:30:00",
      "eventActual": "0.030%",
      "eventCountry": "United States",
      "eventExpectedVolatility": "Low",
      "eventName": "4-Week Bill Auction",
      "eventTimeZone": "GMT",
      "eventPrevious": "0.035%",
      "eventCurrency": "USD",
      "eventForecast": ""
    },
    {
      "eventDateTime": "2013-05-29T15:30:00",
      "eventActual": "0.135%",
      "eventCountry": "United States",
      "eventExpectedVolatility": "Low",
      "eventName": "52-Week Bill Auction",
      "eventTimeZone": "GMT",
      "eventPrevious": "0.105%",
      "eventCurrency": "USD",
      "eventForecast": ""
    },
    {
      "eventDateTime": "2013-05-29T17:00:00",
      "eventActual": "1.045%",
      "eventCountry": "United States",
      "eventExpectedVolatility": "Low",
      "eventName": "5-Year Note Auction",
      "eventTimeZone": "GMT",
      "eventPrevious": "0.710%",
      "eventCurrency": "USD",
      "eventForecast": ""
    },
    {
      "eventDateTime": "2013-05-29T17:00:00",
      "eventActual": "",
      "eventCountry": "United States",
      "eventExpectedVolatility": "Moderate",
      "eventName": "FOMC Member Rosengren Speaks",
      "eventTimeZone": "GMT",
      "eventPrevious": "",
      "eventCurrency": "USD",
      "eventForecast": ""
    },
    {
      "eventDateTime": "2013-05-29T20:30:00",
      "eventActual": "4.40M",
      "eventCountry": "United States",
      "eventExpectedVolatility": "Moderate",
      "eventName": "API Weekly Crude Oil Stock",
      "eventTimeZone": "GMT",
      "eventPrevious": "0.53M",
      "eventCurrency": "USD",
      "eventForecast": "-1.13M"
    },
    {
      "eventDateTime": "2013-05-29T20:30:00",
      "eventActual": "1.94M",
      "eventCountry": "United States",
      "eventExpectedVolatility": "Low",
      "eventName": "API Weekly Gasoline Stock",
      "eventTimeZone": "GMT",
      "eventPrevious": "3.03M",
      "eventCurrency": "USD",
      "eventForecast": "0.20M"
    }
  ]}}
