"Household Confidence";"Japan";"JPY";"2012-02-09T05:00:00";"GMT";"38.9";"38.5";"40.0";"Low"
"Machine Tool Orders (YoY)";"Japan";"JPY";"2012-02-09T06:00:00";"GMT";"17.4%";"";"-6.6%";"Low"
"PPI (YoY)";"Japan";"JPY";"2012-02-09T23:50:00";"GMT";"1.2%";"0.9%";"0.5%";"Low"
