"Core Durable Goods Orders (MoM)";"United States";"USD";"2009-05-28T12:30:00";"GMT";"-2.7%";"-0.3%";"0.8%";"High"
"Durable Goods Orders (MoM)";"United States";"USD";"2009-05-28T12:30:00";"GMT";"-2.1%";"0.3%";"1.9%";"Moderate"
"Initial Jobless Claims";"United States";"USD";"2009-05-28T12:30:00";"GMT";"636K";"635K";"623K";"Moderate"
"New Home Sales";"United States";"USD";"2009-05-28T14:00:00";"GMT";"351K";"363K";"352K";"High"
"Natural Gas Storage";"United States";"USD";"2009-05-28T14:30:00";"GMT";"103B";"";"106B";"Low"
"Crude Oil Inventories";"United States";"USD";"2009-05-28T15:30:00";"GMT";"-2.100M";"";"-5.400M";"High"
