{"events": {"event": [
    {
      "eventDateTime": "2015-01-29T07:00:00",
      "eventActual": "0.3%",
      "eventCountry": "United Kingdom",
      "eventExpectedVolatility": "Moderate",
      "eventName": "Nationwide HPI (MoM) (Jan)",
      "eventTimeZone": "GMT",
      "eventPrevious": "0.2%",
      "eventCurrency": "GBP",
      "eventForecast": "0.3%"
    },
    {
      "eventDateTime": "2015-01-29T07:00:00",
      "eventActual": "6.8%",
      "eventCountry": "United Kingdom",
      "eventExpectedVolatility": "Moderate",
      "eventName": "Nationwide HPI (YoY) (Jan)",
      "eventTimeZone": "GMT",
      "eventPrevious": "7.2%",
      "eventCurrency": "GBP",
      "eventForecast": "6.6%"
    },
    {
      "eventDateTime": "2015-01-29T11:00:00",
      "eventActual": "39",
      "eventCountry": "United Kingdom",
      "eventExpectedVolatility": "Low",
      "eventName": "CBI Distributive Trades Survey (Jan)",
      "eventTimeZone": "GMT",
      "eventPrevious": "61",
      "eventCurrency": "GBP",
      "eventForecast": "30"
    }
  ]}}
