{"events": {"event": {
    "eventDateTime": "2010-10-22T20:30:00",
    "eventActual": "9.7K",
    "eventCountry": "Russia",
    "eventExpectedVolatility": "Moderate",
    "eventName": "CFTC RUB speculative positions",
    "eventTimeZone": "GMT",
    "eventPrevious": "8.2K",
    "eventCurrency": "RUB",
    "eventForecast": ""
  }}}
