{"events": {"event": [
    {
      "eventDateTime": "2014-07-29T06:00:00",
      "eventActual": "0.2%",
      "eventCountry": "Germany",
      "eventExpectedVolatility": "Low",
      "eventName": "German Import Price Index (MoM)",
      "eventTimeZone": "GMT",
      "eventPrevious": "0.0%",
      "eventCurrency": "EUR",
      "eventForecast": "0.2%"
    },
    {
      "eventDateTime": "2014-07-29T07:00:00",
      "eventActual": "0.2%",
      "eventCountry": "Spain",
      "eventExpectedVolatility": "Low",
      "eventName": "Spanish Retail Sales (YoY)",
      "eventTimeZone": "GMT",
      "eventPrevious": "0.5%",
      "eventCurrency": "EUR",
      "eventForecast": "1.1%"
    },
    {
      "eventDateTime": "2014-07-29T09:10:00",
      "eventActual": "0.236%",
      "eventCountry": "Italy",
      "eventExpectedVolatility": "Low",
      "eventName": "Italian 6-Month BOT Auction",
      "eventTimeZone": "GMT",
      "eventPrevious": "0.309%",
      "eventCurrency": "EUR",
      "eventForecast": ""
    }
  ]}}
