{"events": {"event": [
    {
      "eventDateTime": "2004-12-17T17:00:00",
      "eventActual": "182",
      "eventCountry": "United States",
      "eventExpectedVolatility": "Moderate",
      "eventName": "U.S. Baker Hughes Oil Rig Count",
      "eventTimeZone": "GMT",
      "eventPrevious": "178",
      "eventCurrency": "USD",
      "eventForecast": ""
    },
    {
      "eventDateTime": "2004-12-17T20:30:00",
      "eventActual": "-9.1k",
      "eventCountry": "United States",
      "eventExpectedVolatility": "Moderate",
      "eventName": "CFTC Crude Oil speculative net positions",
      "eventTimeZone": "GMT",
      "eventPrevious": "-17.4k",
      "eventCurrency": "USD",
      "eventForecast": ""
    }
  ]}}
