"Average Earnings Index +Bonus (Jul)";"United Kingdom";"GBP";"2018-09-11T08:30:00";"GMT";"2.4%";"2.4%";"2.6%";"High"
"Average Earnings ex Bonus (Jul)";"United Kingdom";"GBP";"2018-09-11T08:30:00";"GMT";"2.7%";"2.8%";"2.9%";"Low"
"Claimant Count Change (Aug)";"United Kingdom";"GBP";"2018-09-11T08:30:00";"GMT";"10.2K";"10.0K";"8.7K";"High"
"Employment Change 3M/3M (MoM)";"United Kingdom";"GBP";"2018-09-11T08:30:00";"GMT";"42.0K";"27.0K";"3.0K";"Moderate"
"Unemployment Rate (Jul)";"United Kingdom";"GBP";"2018-09-11T08:30:00";"GMT";"4.0%";"4.0%";"4.0%";"Moderate"
"30-Year Treasury Gilt Auction";"United Kingdom";"GBP";"2018-09-11T10:35:00";"GMT";"1.937%";"";"1.830%";"Low"
