{"events": {"event": [
    {
      "eventDateTime": "2013-03-10T23:50:00",
      "eventActual": "-13.1%",
      "eventCountry": "Japan",
      "eventExpectedVolatility": "Low",
      "eventName": "Core Machinery Orders (MoM)",
      "eventTimeZone": "GMT",
      "eventPrevious": "2.8%",
      "eventCurrency": "JPY",
      "eventForecast": "-2.0%"
    },
    {
      "eventDateTime": "2013-03-10T23:50:00",
      "eventActual": "2.9%",
      "eventCountry": "Japan",
      "eventExpectedVolatility": "Low",
      "eventName": "M2 Money Stock (YoY)",
      "eventTimeZone": "GMT",
      "eventPrevious": "2.7%",
      "eventCurrency": "JPY",
      "eventForecast": "2.7%"
    }
  ]}}
