"Investing.com EUR/USD Index";"Euro Zone";"EUR";"2015-08-03T05:30:00";"GMT";"24.8%";"";"29.7%";"Moderate"
"Spanish Manufacturing PMI (Jul)";"Spain";"EUR";"2015-08-03T07:15:00";"GMT";"54.5";"54.3";"53.6";"Moderate"
"Italian Manufacturing PMI (Jul)";"Italy";"EUR";"2015-08-03T07:45:00";"GMT";"54.1";"53.9";"55.3";"Moderate"
"French Manufacturing PMI (Jul)";"France";"EUR";"2015-08-03T07:50:00";"GMT";"49.6";"49.6";"49.6";"Moderate"
"German Manufacturing PMI (Jul)";"Germany";"EUR";"2015-08-03T07:55:00";"GMT";"51.5";"51.5";"51.8";"High"
"Manufacturing PMI (Jul)";"Euro Zone";"EUR";"2015-08-03T08:00:00";"GMT";"52.2";"52.2";"52.4";"Moderate"
"French 12-Month BTF Auction";"France";"EUR";"2015-08-03T13:00:00";"GMT";"-0.190%";"";"-0.202%";"Low"
"French 3-Month BTF Auction";"France";"EUR";"2015-08-03T13:00:00";"GMT";"-0.198%";"";"-0.203%";"Low"
"French 6-Month BTF Auction";"France";"EUR";"2015-08-03T13:00:00";"GMT";"-0.196%";"";"-0.201%";"Low"
