{"events": {"event": {
    "eventDateTime": "2019-11-22T19:30:00",
    "eventActual": "-47.2K",
    "eventCountry": "Australia",
    "eventExpectedVolatility": "Moderate",
    "eventName": "CFTC AUD speculative net positions",
    "eventTimeZone": "GMT",
    "eventPrevious": "-40.8K",
    "eventCurrency": "AUD",
    "eventForecast": ""
  }}}
