"Leading Index";"Japan";"JPY";"2016-01-25T05:00:00";"GMT";"103.9";"103.9";"103.5";"Low"
"Investing.com USD/JPY Index";"Japan";"JPY";"2016-01-25T07:30:00";"GMT";"38.7%";"";"37.3%";"Moderate"
"Corporate Services Price Index (CSPI) (YoY)";"Japan";"JPY";"2016-01-25T23:50:00";"GMT";"0.2%";"0.2%";"0.4%";"Low"
