{"events": {"event": [
    {
      "eventDateTime": "2010-01-12T00:01:00",
      "eventActual": "4.2%",
      "eventCountry": "United Kingdom",
      "eventExpectedVolatility": "Moderate",
      "eventName": "BRC Retail Sales Monitor (YoY)",
      "eventTimeZone": "GMT",
      "eventPrevious": "1.8%",
      "eventCurrency": "GBP",
      "eventForecast": ""
    },
    {
      "eventDateTime": "2010-01-12T00:01:00",
      "eventActual": "30%",
      "eventCountry": "United Kingdom",
      "eventExpectedVolatility": "Moderate",
      "eventName": "RICS House Price Balance",
      "eventTimeZone": "GMT",
      "eventPrevious": "35%",
      "eventCurrency": "GBP",
      "eventForecast": "38%"
    },
    {
      "eventDateTime": "2010-01-12T09:30:00",
      "eventActual": "0.6%",
      "eventCountry": "United Kingdom",
      "eventExpectedVolatility": "Low",
      "eventName": "House Price Index (YoY)",
      "eventTimeZone": "GMT",
      "eventPrevious": "-2.2%",
      "eventCurrency": "GBP",
      "eventForecast": "0.5%"
    },
    {
      "eventDateTime": "2010-01-12T09:30:00",
      "eventActual": "-6.8B",
      "eventCountry": "United Kingdom",
      "eventExpectedVolatility": "Moderate",
      "eventName": "Trade Balance",
      "eventTimeZone": "GMT",
      "eventPrevious": "-7.0B",
      "eventCurrency": "GBP",
      "eventForecast": "-7.0B"
    }
  ]}}
