"Spanish 3-Month Letras Auction";"Spain";"EUR";"2012-05-22T08:30:00";"GMT";"0.634%";"";"0.846%";"Low"
"Spanish 6-Month Letras Auction";"Spain";"EUR";"2012-05-22T08:30:00";"GMT";"1.580%";"";"1.737%";"Low"
"Consumer Confidence";"Euro Zone";"EUR";"2012-05-22T14:00:00";"GMT";"-19.9";"-20.5";"-19.3";"Low"
