{"events": {"event": [
    {
      "eventDateTime": "2000-11-01T09:00:00",
      "eventActual": "-30.90%",
      "eventCountry": "New Zealand",
      "eventExpectedVolatility": "Moderate",
      "eventName": "ANZ Business Confidence (Oct)",
      "eventTimeZone": "GMT",
      "eventPrevious": "-20.10%",
      "eventCurrency": "NZD",
      "eventForecast": ""
    },
    {
      "eventDateTime": "2000-11-01T09:00:00",
      "eventActual": "-0.80%",
      "eventCountry": "New Zealand",
      "eventExpectedVolatility": "Moderate",
      "eventName": "Building Consents (MoM) (Oct)",
      "eventTimeZone": "GMT",
      "eventPrevious": "-0.50%",
      "eventCurrency": "NZD",
      "eventForecast": ""
    },
    {
      "eventDateTime": "2000-11-01T09:00:00",
      "eventActual": "2.72B",
      "eventCountry": "New Zealand",
      "eventExpectedVolatility": "Low",
      "eventName": "Exports (Oct)",
      "eventTimeZone": "GMT",
      "eventPrevious": "2.44B",
      "eventCurrency": "NZD",
      "eventForecast": ""
    },
    {
      "eventDateTime": "2000-11-01T09:00:00",
      "eventActual": "10.30%",
      "eventCountry": "New Zealand",
      "eventExpectedVolatility": "Low",
      "eventName": "External Migration andamp; Visitors (Oct)",
      "eventTimeZone": "GMT",
      "eventPrevious": "-0.49%",
      "eventCurrency": "NZD",
      "eventForecast": ""
    },
    {
      "eventDateTime": "2000-11-01T09:00:00",
      "eventActual": "0.30%",
      "eventCountry": "New Zealand",
      "eventExpectedVolatility": "Low",
      "eventName": "FPI (MoM) (Oct)",
      "eventTimeZone": "GMT",
      "eventPrevious": "0.30%",
      "eventCurrency": "NZD",
      "eventForecast": ""
    },
    {
      "eventDateTime": "2000-11-01T09:00:00",
      "eventActual": "20.70%",
      "eventCountry": "New Zealand",
      "eventExpectedVolatility": "Low",
      "eventName": "Government Monthly Debt (Oct)",
      "eventTimeZone": "GMT",
      "eventPrevious": "21.00%",
      "eventCurrency": "NZD",
      "eventForecast": ""
    },
    {
      "eventDateTime": "2000-11-01T09:00:00",
      "eventActual": "2.93B",
      "eventCountry": "New Zealand",
      "eventExpectedVolatility": "Low",
      "eventName": "Imports (Oct)",
      "eventTimeZone": "GMT",
      "eventPrevious": "3.04B",
      "eventCurrency": "NZD",
      "eventForecast": ""
    },
    {
      "eventDateTime": "2000-11-01T09:00:00",
      "eventActual": "9.00%",
      "eventCountry": "New Zealand",
      "eventExpectedVolatility": "Low",
      "eventName": "NBNZ Own Activity (Oct)",
      "eventTimeZone": "GMT",
      "eventPrevious": "15.90%",
      "eventCurrency": "NZD",
      "eventForecast": ""
    },
    {
      "eventDateTime": "2000-11-01T09:00:00",
      "eventActual": "-1,150.00",
      "eventCountry": "New Zealand",
      "eventExpectedVolatility": "Low",
      "eventName": "Permanent/Long-Term Migration (Oct)",
      "eventTimeZone": "GMT",
      "eventPrevious": "-520.00",
      "eventCurrency": "NZD",
      "eventForecast": ""
    },
    {
      "eventDateTime": "2000-11-01T09:00:00",
      "eventActual": "6.50%",
      "eventCountry": "New Zealand",
      "eventExpectedVolatility": "High",
      "eventName": "RBNZ Interest Rate Decision (Oct)",
      "eventTimeZone": "GMT",
      "eventPrevious": "6.50%",
      "eventCurrency": "NZD",
      "eventForecast": ""
    },
    {
      "eventDateTime": "2000-11-01T09:00:00",
      "eventActual": "35.50%",
      "eventCountry": "New Zealand",
      "eventExpectedVolatility": "Low",
      "eventName": "RBNZ Offshore Holdings (Oct)",
      "eventTimeZone": "GMT",
      "eventPrevious": "33.10%",
      "eventCurrency": "NZD",
      "eventForecast": ""
    },
    {
      "eventDateTime": "2000-11-01T09:00:00",
      "eventActual": "-0.60%",
      "eventCountry": "New Zealand",
      "eventExpectedVolatility": "Low",
      "eventName": "REINZ House Price Index (MoM) (Oct)",
      "eventTimeZone": "GMT",
      "eventPrevious": "1.20%",
      "eventCurrency": "NZD",
      "eventForecast": ""
    },
    {
      "eventDateTime": "2000-11-01T09:00:00",
      "eventActual": "0.10%",
      "eventCountry": "New Zealand",
      "eventExpectedVolatility": "Low",
      "eventName": "REINZ House Price Index (YoY) (Oct)",
      "eventTimeZone": "GMT",
      "eventPrevious": "0.30%",
      "eventCurrency": "NZD",
      "eventForecast": ""
    },
    {
      "eventDateTime": "2000-11-01T09:00:00",
      "eventActual": "-212.90M",
      "eventCountry": "New Zealand",
      "eventExpectedVolatility": "Moderate",
      "eventName": "Trade Balance (MoM) (Oct)",
      "eventTimeZone": "GMT",
      "eventPrevious": "-603.60M",
      "eventCurrency": "NZD",
      "eventForecast": ""
    },
    {
      "eventDateTime": "2000-11-01T09:00:00",
      "eventActual": "-2,840.00M",
      "eventCountry": "New Zealand",
      "eventExpectedVolatility": "Moderate",
      "eventName": "Trade Balance (YoY) (Oct)",
      "eventTimeZone": "GMT",
      "eventPrevious": "-3,060.00M",
      "eventCurrency": "NZD",
      "eventForecast": ""
    }
  ]}}
