"New Motor Vehicle Sales (MoM) (Oct)";"Australia";"AUD";"2015-11-16T00:30:00";"GMT";"5.9%";"";"-3.6%";"Low"
"CFTC AUD speculative net positions";"Australia";"AUD";"2015-11-16T20:30:00";"GMT";"-38.6K";"";"-52.8K";"Moderate"
"RBA Assist Gov Kent Speaks";"Australia";"AUD";"2015-11-16T21:30:00";"GMT";" ";"";"";"Moderate"
