{"events": {"event": [
    {
      "eventDateTime": "2009-09-07T08:30:00",
      "eventActual": "-14.6",
      "eventCountry": "Euro Zone",
      "eventExpectedVolatility": "Low",
      "eventName": "Sentix Investor Confidence",
      "eventTimeZone": "GMT",
      "eventPrevious": "-17.0",
      "eventCurrency": "EUR",
      "eventForecast": "-13.5"
    },
    {
      "eventDateTime": "2009-09-07T10:00:00",
      "eventActual": "3.5%",
      "eventCountry": "Germany",
      "eventExpectedVolatility": "Moderate",
      "eventName": "German Factory Orders (MoM)",
      "eventTimeZone": "GMT",
      "eventPrevious": "3.8%",
      "eventCurrency": "EUR",
      "eventForecast": "2.0%"
    }
  ]}}
