{"events": {"event": [
    {
      "eventDateTime": "2019-03-21T23:30:00",
      "eventActual": "0.0%",
      "eventCountry": "Japan",
      "eventExpectedVolatility": "Moderate",
      "eventName": "National CPI (MoM)",
      "eventTimeZone": "GMT",
      "eventPrevious": "0.3%",
      "eventCurrency": "JPY",
      "eventForecast": ""
    },
    {
      "eventDateTime": "2019-03-21T23:30:00",
      "eventActual": "0.2%",
      "eventCountry": "Japan",
      "eventExpectedVolatility": "Low",
      "eventName": "National CPI (YoY) (Feb)",
      "eventTimeZone": "GMT",
      "eventPrevious": "0.2%",
      "eventCurrency": "JPY",
      "eventForecast": "0.3%"
    },
    {
      "eventDateTime": "2019-03-21T23:30:00",
      "eventActual": "0.7%",
      "eventCountry": "Japan",
      "eventExpectedVolatility": "Moderate",
      "eventName": "National Core CPI (YoY) (Feb)",
      "eventTimeZone": "GMT",
      "eventPrevious": "0.8%",
      "eventCurrency": "JPY",
      "eventForecast": "0.8%"
    },
    {
      "eventDateTime": "2019-03-21T23:50:00",
      "eventActual": "-571.6B",
      "eventCountry": "Japan",
      "eventExpectedVolatility": "Low",
      "eventName": "Foreign Bonds Buying",
      "eventTimeZone": "GMT",
      "eventPrevious": "254.2B",
      "eventCurrency": "JPY",
      "eventForecast": ""
    },
    {
      "eventDateTime": "2019-03-21T23:50:00",
      "eventActual": "-1,588.9B",
      "eventCountry": "Japan",
      "eventExpectedVolatility": "Low",
      "eventName": "Foreign Investments in Japanese Stocks",
      "eventTimeZone": "GMT",
      "eventPrevious": "-1,157.5B",
      "eventCurrency": "JPY",
      "eventForecast": ""
    }
  ]}}
