{"events": {"event": [
    {
      "eventDateTime": "2014-07-22T11:45:00",
      "eventActual": "-0.4%",
      "eventCountry": "United States",
      "eventExpectedVolatility": "Low",
      "eventName": "Chain Store Sales (WoW)",
      "eventTimeZone": "GMT",
      "eventPrevious": "0.1%",
      "eventCurrency": "USD",
      "eventForecast": ""
    },
    {
      "eventDateTime": "2014-07-22T11:45:00",
      "eventActual": "2.8%",
      "eventCountry": "United States",
      "eventExpectedVolatility": "Low",
      "eventName": "Chain Store Sales (YoY)",
      "eventTimeZone": "GMT",
      "eventPrevious": "4.5%",
      "eventCurrency": "USD",
      "eventForecast": ""
    },
    {
      "eventDateTime": "2014-07-22T12:30:00",
      "eventActual": "0.3%",
      "eventCountry": "United States",
      "eventExpectedVolatility": "Moderate",
      "eventName": "CPI (MoM)",
      "eventTimeZone": "GMT",
      "eventPrevious": "0.4%",
      "eventCurrency": "USD",
      "eventForecast": "0.3%"
    },
    {
      "eventDateTime": "2014-07-22T12:30:00",
      "eventActual": "2.1%",
      "eventCountry": "United States",
      "eventExpectedVolatility": "Low",
      "eventName": "CPI (YoY)",
      "eventTimeZone": "GMT",
      "eventPrevious": "2.1%",
      "eventCurrency": "USD",
      "eventForecast": "2.1%"
    },
    {
      "eventDateTime": "2014-07-22T12:30:00",
      "eventActual": "0.1%",
      "eventCountry": "United States",
      "eventExpectedVolatility": "High",
      "eventName": "Core CPI (MoM)",
      "eventTimeZone": "GMT",
      "eventPrevious": "0.3%",
      "eventCurrency": "USD",
      "eventForecast": "0.2%"
    },
    {
      "eventDateTime": "2014-07-22T12:30:00",
      "eventActual": "1.9%",
      "eventCountry": "United States",
      "eventExpectedVolatility": "Moderate",
      "eventName": "Core CPI (YoY)",
      "eventTimeZone": "GMT",
      "eventPrevious": "2.0%",
      "eventCurrency": "USD",
      "eventForecast": "2.0%"
    },
    {
      "eventDateTime": "2014-07-22T12:30:00",
      "eventActual": "0.0%",
      "eventCountry": "United States",
      "eventExpectedVolatility": "Low",
      "eventName": "Real Earnings (MoM)",
      "eventTimeZone": "GMT",
      "eventPrevious": "-0.1%",
      "eventCurrency": "USD",
      "eventForecast": "-0.2%"
    },
    {
      "eventDateTime": "2014-07-22T12:55:00",
      "eventActual": "-0.3%",
      "eventCountry": "United States",
      "eventExpectedVolatility": "Low",
      "eventName": "Redbook (MoM)",
      "eventTimeZone": "GMT",
      "eventPrevious": "-0.1%",
      "eventCurrency": "USD",
      "eventForecast": ""
    },
    {
      "eventDateTime": "2014-07-22T12:55:00",
      "eventActual": "3.7%",
      "eventCountry": "United States",
      "eventExpectedVolatility": "Low",
      "eventName": "Redbook (YoY)",
      "eventTimeZone": "GMT",
      "eventPrevious": "4.1%",
      "eventCurrency": "USD",
      "eventForecast": ""
    },
    {
      "eventDateTime": "2014-07-22T13:00:00",
      "eventActual": "0.4%",
      "eventCountry": "United States",
      "eventExpectedVolatility": "Low",
      "eventName": "House Price Index (MoM)",
      "eventTimeZone": "GMT",
      "eventPrevious": "0.0%",
      "eventCurrency": "USD",
      "eventForecast": "0.4%"
    },
    {
      "eventDateTime": "2014-07-22T13:00:00",
      "eventActual": "5.5%",
      "eventCountry": "United States",
      "eventExpectedVolatility": "Low",
      "eventName": "House Price Index (YoY)",
      "eventTimeZone": "GMT",
      "eventPrevious": "5.9%",
      "eventCurrency": "USD",
      "eventForecast": ""
    },
    {
      "eventDateTime": "2014-07-22T14:00:00",
      "eventActual": "5.04M",
      "eventCountry": "United States",
      "eventExpectedVolatility": "High",
      "eventName": "Existing Home Sales",
      "eventTimeZone": "GMT",
      "eventPrevious": "4.91M",
      "eventCurrency": "USD",
      "eventForecast": "4.97M"
    },
    {
      "eventDateTime": "2014-07-22T14:00:00",
      "eventActual": "2.6%",
      "eventCountry": "United States",
      "eventExpectedVolatility": "Moderate",
      "eventName": "Existing Home Sales (MoM)",
      "eventTimeZone": "GMT",
      "eventPrevious": "5.4%",
      "eventCurrency": "USD",
      "eventForecast": "2.0%"
    },
    {
      "eventDateTime": "2014-07-22T14:00:00",
      "eventActual": "7",
      "eventCountry": "United States",
      "eventExpectedVolatility": "Low",
      "eventName": "Richmond Manufacturing Index",
      "eventTimeZone": "GMT",
      "eventPrevious": "3",
      "eventCurrency": "USD",
      "eventForecast": "5"
    },
    {
      "eventDateTime": "2014-07-22T15:30:00",
      "eventActual": "0.025%",
      "eventCountry": "United States",
      "eventExpectedVolatility": "Low",
      "eventName": "4-Week Bill Auction",
      "eventTimeZone": "GMT",
      "eventPrevious": "0.020%",
      "eventCurrency": "USD",
      "eventForecast": ""
    },
    {
      "eventDateTime": "2014-07-22T15:30:00",
      "eventActual": "0.110%",
      "eventCountry": "United States",
      "eventExpectedVolatility": "Low",
      "eventName": "52-Week Bill Auction",
      "eventTimeZone": "GMT",
      "eventPrevious": "0.110%",
      "eventCurrency": "USD",
      "eventForecast": ""
    },
    {
      "eventDateTime": "2014-07-22T15:30:00",
      "eventActual": "0.2%",
      "eventCountry": "United States",
      "eventExpectedVolatility": "Low",
      "eventName": "Cleveland CPI (MoM)",
      "eventTimeZone": "GMT",
      "eventPrevious": "0.3%",
      "eventCurrency": "USD",
      "eventForecast": ""
    },
    {
      "eventDateTime": "2014-07-22T20:00:00",
      "eventActual": "53.8",
      "eventCountry": "United States",
      "eventExpectedVolatility": "Low",
      "eventName": "U.S. Small Business Health Index (Apr)",
      "eventTimeZone": "GMT",
      "eventPrevious": "55.3",
      "eventCurrency": "USD",
      "eventForecast": ""
    },
    {
      "eventDateTime": "2014-07-22T20:30:00",
      "eventActual": "-0.555M",
      "eventCountry": "United States",
      "eventExpectedVolatility": "Moderate",
      "eventName": "API Weekly Crude Oil Stock",
      "eventTimeZone": "GMT",
      "eventPrevious": "-4.800M",
      "eventCurrency": "USD",
      "eventForecast": "-2.600M"
    },
    {
      "eventDateTime": "2014-07-22T20:30:00",
      "eventActual": "2.500M",
      "eventCountry": "United States",
      "eventExpectedVolatility": "Low",
      "eventName": "API Weekly Distillates Stocks",
      "eventTimeZone": "GMT",
      "eventPrevious": "1.300M",
      "eventCurrency": "USD",
      "eventForecast": "1.800M"
    },
    {
      "eventDateTime": "2014-07-22T20:30:00",
      "eventActual": "3.600M",
      "eventCountry": "United States",
      "eventExpectedVolatility": "Low",
      "eventName": "API Weekly Gasoline Stock",
      "eventTimeZone": "GMT",
      "eventPrevious": "-1.600M",
      "eventCurrency": "USD",
      "eventForecast": "1.200M"
    }
  ]}}
