{"events": {"event": [
    {
      "eventDateTime": "2012-12-06T06:30:00",
      "eventActual": "10.3%",
      "eventCountry": "France",
      "eventExpectedVolatility": "Low",
      "eventName": "French Unemployment Rate",
      "eventTimeZone": "GMT",
      "eventPrevious": "10.2%",
      "eventCurrency": "EUR",
      "eventForecast": "10.5%"
    },
    {
      "eventDateTime": "2012-12-06T10:00:00",
      "eventActual": "-0.1%",
      "eventCountry": "Euro Zone",
      "eventExpectedVolatility": "Moderate",
      "eventName": "GDP (QoQ)",
      "eventTimeZone": "GMT",
      "eventPrevious": "-0.1%",
      "eventCurrency": "EUR",
      "eventForecast": "-0.1%"
    },
    {
      "eventDateTime": "2012-12-06T10:05:00",
      "eventActual": "2.56%",
      "eventCountry": "France",
      "eventExpectedVolatility": "Low",
      "eventName": "French 15-Year OAT Auction",
      "eventTimeZone": "GMT",
      "eventPrevious": "2.85%",
      "eventCurrency": "EUR",
      "eventForecast": ""
    },
    {
      "eventDateTime": "2012-12-06T10:05:00",
      "eventActual": "1.83%",
      "eventCountry": "France",
      "eventExpectedVolatility": "Low",
      "eventName": "French 6-Year OAT Auction",
      "eventTimeZone": "GMT",
      "eventPrevious": "1.39%",
      "eventCurrency": "EUR",
      "eventForecast": ""
    },
    {
      "eventDateTime": "2012-12-06T10:05:00",
      "eventActual": "1.27%",
      "eventCountry": "France",
      "eventExpectedVolatility": "Low",
      "eventName": "French 7-Year OAT Auction",
      "eventTimeZone": "GMT",
      "eventPrevious": "2.02%",
      "eventCurrency": "EUR",
      "eventForecast": ""
    },
    {
      "eventDateTime": "2012-12-06T11:00:00",
      "eventActual": "3.9%",
      "eventCountry": "Germany",
      "eventExpectedVolatility": "Moderate",
      "eventName": "German Factory Orders (MoM)",
      "eventTimeZone": "GMT",
      "eventPrevious": "-2.4%",
      "eventCurrency": "EUR",
      "eventForecast": "0.9%"
    },
    {
      "eventDateTime": "2012-12-06T12:45:00",
      "eventActual": "0.75%",
      "eventCountry": "Euro Zone",
      "eventExpectedVolatility": "High",
      "eventName": "ECB Interest Rate Decision",
      "eventTimeZone": "GMT",
      "eventPrevious": "0.75%",
      "eventCurrency": "EUR",
      "eventForecast": "0.75%"
    },
    {
      "eventDateTime": "2012-12-06T13:30:00",
      "eventActual": "",
      "eventCountry": "Euro Zone",
      "eventExpectedVolatility": "High",
      "eventName": "ECB Press Conference",
      "eventTimeZone": "GMT",
      "eventPrevious": "",
      "eventCurrency": "EUR",
      "eventForecast": ""
    }
  ]}}
