{"events": {"event": {
    "eventDateTime": "2015-03-23T06:30:00",
    "eventActual": "51.6%",
    "eventCountry": "Canada",
    "eventExpectedVolatility": "Moderate",
    "eventName": "Investing.com USD/CAD Index",
    "eventTimeZone": "GMT",
    "eventPrevious": "49.1%",
    "eventCurrency": "CAD",
    "eventForecast": ""
  }}}
