{"events": {"event": [
    {
      "eventDateTime": "2008-03-06T13:30:00",
      "eventActual": "351K",
      "eventCountry": "United States",
      "eventExpectedVolatility": "Moderate",
      "eventName": "Initial Jobless Claims",
      "eventTimeZone": "GMT",
      "eventPrevious": "373K",
      "eventCurrency": "USD",
      "eventForecast": "363K"
    },
    {
      "eventDateTime": "2008-03-06T15:00:00",
      "eventActual": "0.0%",
      "eventCountry": "United States",
      "eventExpectedVolatility": "High",
      "eventName": "Pending Home Sales (MoM)",
      "eventTimeZone": "GMT",
      "eventPrevious": "-1.5%",
      "eventCurrency": "USD",
      "eventForecast": "-1.0%"
    }
  ]}}
