{"events": {"event": [
    {
      "eventDateTime": "2010-02-16T13:30:00",
      "eventActual": "24.9",
      "eventCountry": "United States",
      "eventExpectedVolatility": "Moderate",
      "eventName": "NY Empire State Manufacturing Index",
      "eventTimeZone": "GMT",
      "eventPrevious": "15.9",
      "eventCurrency": "USD",
      "eventForecast": "17.0"
    },
    {
      "eventDateTime": "2010-02-16T14:00:00",
      "eventActual": "63.3B",
      "eventCountry": "United States",
      "eventExpectedVolatility": "Moderate",
      "eventName": "TIC Net Long-Term Transactions",
      "eventTimeZone": "GMT",
      "eventPrevious": "126.4B",
      "eventCurrency": "USD",
      "eventForecast": "50.0B"
    },
    {
      "eventDateTime": "2010-02-16T18:00:00",
      "eventActual": "17",
      "eventCountry": "United States",
      "eventExpectedVolatility": "Low",
      "eventName": "NAHB Housing Market Index",
      "eventTimeZone": "GMT",
      "eventPrevious": "15",
      "eventCurrency": "USD",
      "eventForecast": "16"
    },
    {
      "eventDateTime": "2010-02-16T22:00:00",
      "eventActual": "25.5",
      "eventCountry": "United States",
      "eventExpectedVolatility": "Low",
      "eventName": "Bloomberg Consumer Confidence",
      "eventTimeZone": "GMT",
      "eventPrevious": "26",
      "eventCurrency": "USD",
      "eventForecast": ""
    }
  ]}}
