{"events": {"event": {
    "eventDateTime": "2012-06-03T21:00:00",
    "eventActual": "310.87B",
    "eventCountry": "South Korea",
    "eventExpectedVolatility": "Low",
    "eventName": "FX Reserves - USD",
    "eventTimeZone": "GMT",
    "eventPrevious": "316.84B",
    "eventCurrency": "KRW",
    "eventForecast": ""
  }}}
