{"events": {"event": {
    "eventDateTime": "2015-06-16T13:00:00",
    "eventActual": "-5.5%",
    "eventCountry": "Russia",
    "eventExpectedVolatility": "Low",
    "eventName": "Industrial Production (YoY) (May)",
    "eventTimeZone": "GMT",
    "eventPrevious": "-4.5%",
    "eventCurrency": "RUB",
    "eventForecast": "-3.7%"
  }}}
