{"events": {"event": [
    {
      "eventDateTime": "2013-05-30T12:30:00",
      "eventActual": "2,986K",
      "eventCountry": "United States",
      "eventExpectedVolatility": "Low",
      "eventName": "Continuing Jobless Claims",
      "eventTimeZone": "GMT",
      "eventPrevious": "2,923K",
      "eventCurrency": "USD",
      "eventForecast": "2,950K"
    },
    {
      "eventDateTime": "2013-05-30T12:30:00",
      "eventActual": "2.4%",
      "eventCountry": "United States",
      "eventExpectedVolatility": "High",
      "eventName": "GDP (QoQ)",
      "eventTimeZone": "GMT",
      "eventPrevious": "2.5%",
      "eventCurrency": "USD",
      "eventForecast": "2.5%"
    },
    {
      "eventDateTime": "2013-05-30T12:30:00",
      "eventActual": "1.2%",
      "eventCountry": "United States",
      "eventExpectedVolatility": "Moderate",
      "eventName": "GDP Price Index (QoQ)",
      "eventTimeZone": "GMT",
      "eventPrevious": "1.2%",
      "eventCurrency": "USD",
      "eventForecast": "1.2%"
    },
    {
      "eventDateTime": "2013-05-30T12:30:00",
      "eventActual": "354K",
      "eventCountry": "United States",
      "eventExpectedVolatility": "Moderate",
      "eventName": "Initial Jobless Claims",
      "eventTimeZone": "GMT",
      "eventPrevious": "344K",
      "eventCurrency": "USD",
      "eventForecast": "340K"
    },
    {
      "eventDateTime": "2013-05-30T13:45:00",
      "eventActual": "35.15",
      "eventCountry": "United States",
      "eventExpectedVolatility": "Low",
      "eventName": "Bloomberg Consumer Confidence",
      "eventTimeZone": "GMT",
      "eventPrevious": "35.3",
      "eventCurrency": "USD",
      "eventForecast": ""
    },
    {
      "eventDateTime": "2013-05-30T14:00:00",
      "eventActual": "0.3%",
      "eventCountry": "United States",
      "eventExpectedVolatility": "High",
      "eventName": "Pending Home Sales (MoM)",
      "eventTimeZone": "GMT",
      "eventPrevious": "1.5%",
      "eventCurrency": "USD",
      "eventForecast": "1.1%"
    },
    {
      "eventDateTime": "2013-05-30T14:30:00",
      "eventActual": "88B",
      "eventCountry": "United States",
      "eventExpectedVolatility": "Low",
      "eventName": "Natural Gas Storage",
      "eventTimeZone": "GMT",
      "eventPrevious": "89B",
      "eventCurrency": "USD",
      "eventForecast": "88B"
    },
    {
      "eventDateTime": "2013-05-30T15:00:00",
      "eventActual": "3.000M",
      "eventCountry": "United States",
      "eventExpectedVolatility": "High",
      "eventName": "Crude Oil Inventories",
      "eventTimeZone": "GMT",
      "eventPrevious": "-0.338M",
      "eventCurrency": "USD",
      "eventForecast": "-0.350M"
    },
    {
      "eventDateTime": "2013-05-30T15:00:00",
      "eventActual": "1.851M",
      "eventCountry": "United States",
      "eventExpectedVolatility": "Low",
      "eventName": "EIA Weekly Distillates Stocks",
      "eventTimeZone": "GMT",
      "eventPrevious": "-1.052M",
      "eventCurrency": "USD",
      "eventForecast": "0.017M"
    },
    {
      "eventDateTime": "2013-05-30T15:00:00",
      "eventActual": "-1.514M",
      "eventCountry": "United States",
      "eventExpectedVolatility": "Low",
      "eventName": "Gasoline Inventories",
      "eventTimeZone": "GMT",
      "eventPrevious": "3.015M",
      "eventCurrency": "USD",
      "eventForecast": "0.061M"
    },
    {
      "eventDateTime": "2013-05-30T17:00:00",
      "eventActual": "1.496%",
      "eventCountry": "United States",
      "eventExpectedVolatility": "Low",
      "eventName": "7-Year Note Auction",
      "eventTimeZone": "GMT",
      "eventPrevious": "1.155%",
      "eventCurrency": "USD",
      "eventForecast": ""
    }
  ]}}
