"FX Reserves, USD";"India";"INR";"2013-10-11T11:30:00";"GMT";"276.26B";"";"277.73B";"Low"
"Industrial Production (YoY)";"India";"INR";"2013-10-11T12:00:00";"GMT";"2.6%";"2.0%";"0.6%";"Low"
"Manufacturing Output (MoM)";"India";"INR";"2013-10-11T12:00:00";"GMT";"3.00%";"";"-0.10%";"Low"
