{"events": {"event": {
    "eventDateTime": "2011-07-11T12:15:00",
    "eventActual": "197.00K",
    "eventCountry": "Canada",
    "eventExpectedVolatility": "Moderate",
    "eventName": "Housing Starts",
    "eventTimeZone": "GMT",
    "eventPrevious": "194.00K",
    "eventCurrency": "CAD",
    "eventForecast": "182.00K"
  }}}
