{"events": {"event": [
    {
      "eventDateTime": "2012-12-21T07:00:00",
      "eventActual": "5.6",
      "eventCountry": "Germany",
      "eventExpectedVolatility": "Moderate",
      "eventName": "GfK German Consumer Climate",
      "eventTimeZone": "GMT",
      "eventPrevious": "5.8",
      "eventCurrency": "EUR",
      "eventForecast": "5.9"
    },
    {
      "eventDateTime": "2012-12-21T07:45:00",
      "eventActual": "89",
      "eventCountry": "France",
      "eventExpectedVolatility": "Low",
      "eventName": "French Business Survey",
      "eventTimeZone": "GMT",
      "eventPrevious": "88",
      "eventCurrency": "EUR",
      "eventForecast": "89"
    },
    {
      "eventDateTime": "2012-12-21T08:00:00",
      "eventActual": "2.8%",
      "eventCountry": "Spain",
      "eventExpectedVolatility": "Low",
      "eventName": "Spanish PPI (YoY)",
      "eventTimeZone": "GMT",
      "eventPrevious": "3.4%",
      "eventCurrency": "EUR",
      "eventForecast": "3.3%"
    },
    {
      "eventDateTime": "2012-12-21T10:00:00",
      "eventActual": "85.7",
      "eventCountry": "Italy",
      "eventExpectedVolatility": "Low",
      "eventName": "Italian Consumer Confidence",
      "eventTimeZone": "GMT",
      "eventPrevious": "84.9",
      "eventCurrency": "EUR",
      "eventForecast": "85.1"
    },
    {
      "eventDateTime": "2012-12-21T13:30:00",
      "eventActual": "-1.50B",
      "eventCountry": "Spain",
      "eventExpectedVolatility": "Low",
      "eventName": "Spanish Trade Balance",
      "eventTimeZone": "GMT",
      "eventPrevious": "-3.09B",
      "eventCurrency": "EUR",
      "eventForecast": "-2.60B"
    },
    {
      "eventDateTime": "2012-12-21T20:30:00",
      "eventActual": "-9.7K",
      "eventCountry": "Euro Zone",
      "eventExpectedVolatility": "Moderate",
      "eventName": "CFTC EUR speculative net positions",
      "eventTimeZone": "GMT",
      "eventPrevious": "-31.6K",
      "eventCurrency": "EUR",
      "eventForecast": ""
    }
  ]}}
