{"events": {"event": {
    "eventDateTime": "2013-03-15T19:30:00",
    "eventActual": "-93.8K",
    "eventCountry": "Japan",
    "eventExpectedVolatility": "Moderate",
    "eventName": "CFTC JPY speculative net positions",
    "eventTimeZone": "GMT",
    "eventPrevious": "-73.4K",
    "eventCurrency": "JPY",
    "eventForecast": ""
  }}}
