{"events": {"event": [
    {
      "eventDateTime": "2016-05-24T22:45:00",
      "eventActual": "4.30B",
      "eventCountry": "New Zealand",
      "eventExpectedVolatility": "Low",
      "eventName": "Exports (Apr)",
      "eventTimeZone": "GMT",
      "eventPrevious": "4.20B",
      "eventCurrency": "NZD",
      "eventForecast": "4.13B"
    },
    {
      "eventDateTime": "2016-05-24T22:45:00",
      "eventActual": "4.01B",
      "eventCountry": "New Zealand",
      "eventExpectedVolatility": "Low",
      "eventName": "Imports (Apr)",
      "eventTimeZone": "GMT",
      "eventPrevious": "4.09B",
      "eventCurrency": "NZD",
      "eventForecast": "4.06B"
    },
    {
      "eventDateTime": "2016-05-24T22:45:00",
      "eventActual": "292M",
      "eventCountry": "New Zealand",
      "eventExpectedVolatility": "Moderate",
      "eventName": "Trade Balance (MoM) (Apr)",
      "eventTimeZone": "GMT",
      "eventPrevious": "117M",
      "eventCurrency": "NZD",
      "eventForecast": "60M"
    },
    {
      "eventDateTime": "2016-05-24T22:45:00",
      "eventActual": "-3,660M",
      "eventCountry": "New Zealand",
      "eventExpectedVolatility": "Moderate",
      "eventName": "Trade Balance (YoY) (Apr)",
      "eventTimeZone": "GMT",
      "eventPrevious": "-3,380M",
      "eventCurrency": "NZD",
      "eventForecast": "-3,940M"
    }
  ]}}
