{"events": {"event": [
    {
      "eventDateTime": "2019-09-18T08:00:00",
      "eventActual": "0.3%",
      "eventCountry": "South Africa",
      "eventExpectedVolatility": "Moderate",
      "eventName": "CPI (MoM) (Aug)",
      "eventTimeZone": "GMT",
      "eventPrevious": "0.4%",
      "eventCurrency": "ZAR",
      "eventForecast": "0.2%"
    },
    {
      "eventDateTime": "2019-09-18T08:00:00",
      "eventActual": "4.3%",
      "eventCountry": "South Africa",
      "eventExpectedVolatility": "Low",
      "eventName": "CPI (YoY) (Aug)",
      "eventTimeZone": "GMT",
      "eventPrevious": "4.0%",
      "eventCurrency": "ZAR",
      "eventForecast": "4.2%"
    },
    {
      "eventDateTime": "2019-09-18T08:00:00",
      "eventActual": "0.1%",
      "eventCountry": "South Africa",
      "eventExpectedVolatility": "Moderate",
      "eventName": "Core CPI (MoM) (Aug)",
      "eventTimeZone": "GMT",
      "eventPrevious": "0.4%",
      "eventCurrency": "ZAR",
      "eventForecast": "0.1%"
    },
    {
      "eventDateTime": "2019-09-18T08:00:00",
      "eventActual": "4.3%",
      "eventCountry": "South Africa",
      "eventExpectedVolatility": "Low",
      "eventName": "Core CPI (YoY) (Aug)",
      "eventTimeZone": "GMT",
      "eventPrevious": "4.2%",
      "eventCurrency": "ZAR",
      "eventForecast": "4.2%"
    },
    {
      "eventDateTime": "2019-09-18T11:00:00",
      "eventActual": "2.0%",
      "eventCountry": "South Africa",
      "eventExpectedVolatility": "Low",
      "eventName": "Retail Sales (YoY) (Jul)",
      "eventTimeZone": "GMT",
      "eventPrevious": "2.4%",
      "eventCurrency": "ZAR",
      "eventForecast": "2.6%"
    }
  ]}}
