{"events": {"event": [
    {
      "eventDateTime": "2016-02-26T05:00:00",
      "eventActual": "9.3%",
      "eventCountry": "Singapore",
      "eventExpectedVolatility": "Low",
      "eventName": "Industrial Production (MoM) (Jan)",
      "eventTimeZone": "GMT",
      "eventPrevious": "-5.4%",
      "eventCurrency": "SGD",
      "eventForecast": "-1.8%"
    },
    {
      "eventDateTime": "2016-02-26T05:00:00",
      "eventActual": "-0.5%",
      "eventCountry": "Singapore",
      "eventExpectedVolatility": "Low",
      "eventName": "Industrial Production (YoY) (Jan)",
      "eventTimeZone": "GMT",
      "eventPrevious": "-11.9%",
      "eventCurrency": "SGD",
      "eventForecast": "-4.8%"
    }
  ]}}
