{"events": {"event": {
    "eventDateTime": "2011-08-25T09:00:00",
    "eventActual": "-71.4",
    "eventCountry": "Switzerland",
    "eventExpectedVolatility": "Low",
    "eventName": "ZEW Expectations",
    "eventTimeZone": "GMT",
    "eventPrevious": "-58.9",
    "eventCurrency": "CHF",
    "eventForecast": ""
  }}}
