{"events": {"event": [
    {
      "eventDateTime": "2014-06-04T07:15:00",
      "eventActual": "55.7",
      "eventCountry": "Spain",
      "eventExpectedVolatility": "Moderate",
      "eventName": "Spanish Services PMI",
      "eventTimeZone": "GMT",
      "eventPrevious": "56.5",
      "eventCurrency": "EUR",
      "eventForecast": "56.1"
    },
    {
      "eventDateTime": "2014-06-04T07:45:00",
      "eventActual": "51.6",
      "eventCountry": "Italy",
      "eventExpectedVolatility": "Moderate",
      "eventName": "Italian Services PMI",
      "eventTimeZone": "GMT",
      "eventPrevious": "51.1",
      "eventCurrency": "EUR",
      "eventForecast": "51.5"
    },
    {
      "eventDateTime": "2014-06-04T07:50:00",
      "eventActual": "49.1",
      "eventCountry": "France",
      "eventExpectedVolatility": "Moderate",
      "eventName": "French Services PMI",
      "eventTimeZone": "GMT",
      "eventPrevious": "49.2",
      "eventCurrency": "EUR",
      "eventForecast": "49.2"
    },
    {
      "eventDateTime": "2014-06-04T07:55:00",
      "eventActual": "56.0",
      "eventCountry": "Germany",
      "eventExpectedVolatility": "Moderate",
      "eventName": "German Services PMI",
      "eventTimeZone": "GMT",
      "eventPrevious": "56.4",
      "eventCurrency": "EUR",
      "eventForecast": "56.4"
    },
    {
      "eventDateTime": "2014-06-04T08:00:00",
      "eventActual": "53.2",
      "eventCountry": "Euro Zone",
      "eventExpectedVolatility": "Moderate",
      "eventName": "Services PMI",
      "eventTimeZone": "GMT",
      "eventPrevious": "53.5",
      "eventCurrency": "EUR",
      "eventForecast": "53.5"
    },
    {
      "eventDateTime": "2014-06-04T09:00:00",
      "eventActual": "0.2%",
      "eventCountry": "Euro Zone",
      "eventExpectedVolatility": "Moderate",
      "eventName": "GDP (QoQ)",
      "eventTimeZone": "GMT",
      "eventPrevious": "0.2%",
      "eventCurrency": "EUR",
      "eventForecast": "0.2%"
    },
    {
      "eventDateTime": "2014-06-04T09:00:00",
      "eventActual": "0.9%",
      "eventCountry": "Euro Zone",
      "eventExpectedVolatility": "Moderate",
      "eventName": "GDP (YoY)",
      "eventTimeZone": "GMT",
      "eventPrevious": "0.9%",
      "eventCurrency": "EUR",
      "eventForecast": "0.9%"
    },
    {
      "eventDateTime": "2014-06-04T09:00:00",
      "eventActual": "-0.1%",
      "eventCountry": "Euro Zone",
      "eventExpectedVolatility": "Low",
      "eventName": "PPI (MoM)",
      "eventTimeZone": "GMT",
      "eventPrevious": "-0.2%",
      "eventCurrency": "EUR",
      "eventForecast": "-0.1%"
    },
    {
      "eventDateTime": "2014-06-04T09:00:00",
      "eventActual": "-1.2%",
      "eventCountry": "Euro Zone",
      "eventExpectedVolatility": "Low",
      "eventName": "PPI (YoY)",
      "eventTimeZone": "GMT",
      "eventPrevious": "-1.6%",
      "eventCurrency": "EUR",
      "eventForecast": "-1.2%"
    },
    {
      "eventDateTime": "2014-06-04T09:35:00",
      "eventActual": "0.450%",
      "eventCountry": "Germany",
      "eventExpectedVolatility": "Low",
      "eventName": "German 5-Year Bobl Auction",
      "eventTimeZone": "GMT",
      "eventPrevious": "0.570%",
      "eventCurrency": "EUR",
      "eventForecast": ""
    }
  ]}}
