{"events": {"event": [
    {
      "eventDateTime": "2019-06-24T05:30:00",
      "eventActual": "66.6%",
      "eventCountry": "United States",
      "eventExpectedVolatility": "Moderate",
      "eventName": "Investing.com Gold Index",
      "eventTimeZone": "GMT",
      "eventPrevious": "65.6%",
      "eventCurrency": "USD",
      "eventForecast": ""
    },
    {
      "eventDateTime": "2019-06-24T05:30:00",
      "eventActual": "45.9%",
      "eventCountry": "United States",
      "eventExpectedVolatility": "Moderate",
      "eventName": "Investing.com Sandamp:P 500 Index",
      "eventTimeZone": "GMT",
      "eventPrevious": "40.6%",
      "eventCurrency": "USD",
      "eventForecast": ""
    },
    {
      "eventDateTime": "2019-06-24T12:30:00",
      "eventActual": "-0.05",
      "eventCountry": "United States",
      "eventExpectedVolatility": "Low",
      "eventName": "Chicago Fed National Activity (May)",
      "eventTimeZone": "GMT",
      "eventPrevious": "-0.48",
      "eventCurrency": "USD",
      "eventForecast": "0.10"
    },
    {
      "eventDateTime": "2019-06-24T14:30:00",
      "eventActual": "-12.1",
      "eventCountry": "United States",
      "eventExpectedVolatility": "Low",
      "eventName": "Dallas Fed Mfg Business Index (Jun)",
      "eventTimeZone": "GMT",
      "eventPrevious": "-5.3",
      "eventCurrency": "USD",
      "eventForecast": "-1.0"
    },
    {
      "eventDateTime": "2019-06-24T15:30:00",
      "eventActual": "2.085%",
      "eventCountry": "United States",
      "eventExpectedVolatility": "Low",
      "eventName": "3-Month Bill Auction",
      "eventTimeZone": "GMT",
      "eventPrevious": "2.170%",
      "eventCurrency": "USD",
      "eventForecast": ""
    },
    {
      "eventDateTime": "2019-06-24T15:30:00",
      "eventActual": "2.690%",
      "eventCountry": "United States",
      "eventExpectedVolatility": "Low",
      "eventName": "6-Month Bill Auction",
      "eventTimeZone": "GMT",
      "eventPrevious": "2.130%",
      "eventCurrency": "USD",
      "eventForecast": ""
    }
  ]}}
