"CPI (MoM) (Feb)";"Switzerland";"CHF";"2006-03-01T09:00:00";"GMT";"-0.20%";"";"0.30%";"Moderate"
"CPI (YoY) (Feb)";"Switzerland";"CHF";"2006-03-01T09:00:00";"GMT";"1.30%";"";"1.40%";"Low"
"Consumption Indicator (Feb)";"Switzerland";"CHF";"2006-03-01T09:00:00";"GMT";"1.76";"";"1.51";"Low"
"KOF Leading Indicators (Feb)";"Switzerland";"CHF";"2006-03-01T09:00:00";"GMT";"107.40";"";"108.90";"Moderate"
"PPI (MoM) (Feb)";"Switzerland";"CHF";"2006-03-01T09:00:00";"GMT";"0.20%";"";"0.30%";"Moderate"
"PPI (YoY) (Feb)";"Switzerland";"CHF";"2006-03-01T09:00:00";"GMT";"1.70%";"";"1.60%";"Low"
"Retail Sales (YoY) (Feb)";"Switzerland";"CHF";"2006-03-01T09:00:00";"GMT";"2.40%";"";"0.80%";"Moderate"
"Trade Balance (Feb)";"Switzerland";"CHF";"2006-03-01T09:00:00";"GMT";"0.87B";"";"0.75B";"Low"
"Unemployment Rate n.s.a. (Feb)";"Switzerland";"CHF";"2006-03-01T09:00:00";"GMT";"3.90%";"";"3.80%";"Moderate"
"Unemployment Rate s.a. (Feb)";"Switzerland";"CHF";"2006-03-01T09:00:00";"GMT";"3.60%";"";"3.50%";"Moderate"
"procure.ch PMI (Feb)";"Switzerland";"CHF";"2006-03-01T09:00:00";"GMT";"58.80";"";"61.30";"Moderate"
