{"events": {"event": [
    {
      "eventDateTime": "2014-05-09T07:00:00",
      "eventActual": "25.63B",
      "eventCountry": "India",
      "eventExpectedVolatility": "Low",
      "eventName": "Exports (USD)",
      "eventTimeZone": "GMT",
      "eventPrevious": "29.58B",
      "eventCurrency": "INR",
      "eventForecast": ""
    },
    {
      "eventDateTime": "2014-05-09T07:00:00",
      "eventActual": "35.72B",
      "eventCountry": "India",
      "eventExpectedVolatility": "Low",
      "eventName": "Imports (USD)",
      "eventTimeZone": "GMT",
      "eventPrevious": "40.09B",
      "eventCurrency": "INR",
      "eventForecast": ""
    },
    {
      "eventDateTime": "2014-05-09T07:00:00",
      "eventActual": "-10.01B",
      "eventCountry": "India",
      "eventExpectedVolatility": "Low",
      "eventName": "Trade Balance",
      "eventTimeZone": "GMT",
      "eventPrevious": "-10.51B",
      "eventCurrency": "INR",
      "eventForecast": "-16.20B"
    },
    {
      "eventDateTime": "2014-05-09T11:00:00",
      "eventActual": "311.86B",
      "eventCountry": "India",
      "eventExpectedVolatility": "Low",
      "eventName": "FX Reserves, USD",
      "eventTimeZone": "GMT",
      "eventPrevious": "309.91B",
      "eventCurrency": "INR",
      "eventForecast": ""
    }
  ]}}
