"Manufacturing PMI";"South Africa";"ZAR";"2019-11-01T09:00:00";"GMT";"41.6";"";"48.1";"Low"
"Total Vehicle Sales (Oct)";"South Africa";"ZAR";"2019-11-01T12:00:00";"GMT";"49.14K";"";"51.98K";"Low"
"Total Vehicle Sales (YoY) (Oct)";"South Africa";"ZAR";"2019-11-01T12:00:00";"GMT";"-0.90%";"-3.50%";"0.20%";"Low"
