{"events": {"event": [
    {
      "eventDateTime": "2018-07-24T11:00:00",
      "eventActual": "84.2",
      "eventCountry": "Brazil",
      "eventExpectedVolatility": "Low",
      "eventName": "FGV Consumer confidence (Jul)",
      "eventTimeZone": "GMT",
      "eventPrevious": "82.1",
      "eventCurrency": "BRL",
      "eventForecast": ""
    },
    {
      "eventDateTime": "2018-07-24T16:00:00",
      "eventActual": "110.86B",
      "eventCountry": "Brazil",
      "eventExpectedVolatility": "Low",
      "eventName": "Federal Tax Revenue (Jun)",
      "eventTimeZone": "GMT",
      "eventPrevious": "106.00B",
      "eventCurrency": "BRL",
      "eventForecast": "112.00B"
    }
  ]}}
