{"events": {"event": {
    "eventDateTime": "2012-02-24T05:00:00",
    "eventActual": "-8.7%",
    "eventCountry": "Singapore",
    "eventExpectedVolatility": "Low",
    "eventName": "Industrial Production (YoY)",
    "eventTimeZone": "GMT",
    "eventPrevious": "12.6%",
    "eventCurrency": "SGD",
    "eventForecast": "-1.6%"
  }}}
