{"events": {"event": [
    {
      "eventDateTime": "2009-08-25T13:00:00",
      "eventActual": "-15.4%",
      "eventCountry": "United States",
      "eventExpectedVolatility": "Moderate",
      "eventName": "Sandamp;P/CS HPI Composite - 20 n.s.a. (YoY)",
      "eventTimeZone": "GMT",
      "eventPrevious": "-17.0%",
      "eventCurrency": "USD",
      "eventForecast": "-16.3%"
    },
    {
      "eventDateTime": "2009-08-25T14:00:00",
      "eventActual": "54.1",
      "eventCountry": "United States",
      "eventExpectedVolatility": "High",
      "eventName": "CB Consumer Confidence",
      "eventTimeZone": "GMT",
      "eventPrevious": "47.4",
      "eventCurrency": "USD",
      "eventForecast": "48.1"
    },
    {
      "eventDateTime": "2009-08-25T14:00:00",
      "eventActual": "14",
      "eventCountry": "United States",
      "eventExpectedVolatility": "Low",
      "eventName": "Richmond Manufacturing Index",
      "eventTimeZone": "GMT",
      "eventPrevious": "14",
      "eventCurrency": "USD",
      "eventForecast": "14"
    },
    {
      "eventDateTime": "2009-08-25T14:10:00",
      "eventActual": "0.5%",
      "eventCountry": "United States",
      "eventExpectedVolatility": "Low",
      "eventName": "House Price Index (MoM)",
      "eventTimeZone": "GMT",
      "eventPrevious": "0.6%",
      "eventCurrency": "USD",
      "eventForecast": "0.4%"
    },
    {
      "eventDateTime": "2009-08-25T21:00:00",
      "eventActual": "27.5",
      "eventCountry": "United States",
      "eventExpectedVolatility": "Low",
      "eventName": "Bloomberg Consumer Confidence",
      "eventTimeZone": "GMT",
      "eventPrevious": "27",
      "eventCurrency": "USD",
      "eventForecast": ""
    }
  ]}}
