{"events": {"event": [
    {
      "eventDateTime": "2014-08-28T09:30:00",
      "eventActual": "0.5%",
      "eventCountry": "South Africa",
      "eventExpectedVolatility": "Low",
      "eventName": "PPI (MoM)",
      "eventTimeZone": "GMT",
      "eventPrevious": "0.3%",
      "eventCurrency": "ZAR",
      "eventForecast": "0.3%"
    },
    {
      "eventDateTime": "2014-08-28T09:30:00",
      "eventActual": "8.0%",
      "eventCountry": "South Africa",
      "eventExpectedVolatility": "Low",
      "eventName": "PPI (YoY)",
      "eventTimeZone": "GMT",
      "eventPrevious": "8.1%",
      "eventCurrency": "ZAR",
      "eventForecast": "7.9%"
    }
  ]}}
