{"events": {"event": {
    "eventDateTime": "2012-06-21T01:30:00",
    "eventActual": "",
    "eventCountry": "Australia",
    "eventExpectedVolatility": "Low",
    "eventName": "RBA Bulletin",
    "eventTimeZone": "GMT",
    "eventPrevious": "",
    "eventCurrency": "AUD",
    "eventForecast": ""
  }}}
