{"events": {"event": [
    {
      "eventDateTime": "2008-02-12T10:00:00",
      "eventActual": "-39.5",
      "eventCountry": "Germany",
      "eventExpectedVolatility": "High",
      "eventName": "German ZEW Economic Sentiment",
      "eventTimeZone": "GMT",
      "eventPrevious": "-41.6",
      "eventCurrency": "EUR",
      "eventForecast": "-45.0"
    },
    {
      "eventDateTime": "2008-02-12T10:00:00",
      "eventActual": "-41.4",
      "eventCountry": "Euro Zone",
      "eventExpectedVolatility": "Moderate",
      "eventName": "ZEW Economic Sentiment",
      "eventTimeZone": "GMT",
      "eventPrevious": "-41.7",
      "eventCurrency": "EUR",
      "eventForecast": "-43.0"
    }
  ]}}
