{"events": {"event": {
    "eventDateTime": "2012-04-16T12:30:00",
    "eventActual": "12.50B",
    "eventCountry": "Canada",
    "eventExpectedVolatility": "Moderate",
    "eventName": "Foreign Securities Purchases",
    "eventTimeZone": "GMT",
    "eventPrevious": "-4.28B",
    "eventCurrency": "CAD",
    "eventForecast": "7.23B"
  }}}
