{"events": {"event": [
    {
      "eventDateTime": "2018-04-24T11:00:00",
      "eventActual": "89.4",
      "eventCountry": "Brazil",
      "eventExpectedVolatility": "Low",
      "eventName": "FGV Consumer confidence (Apr)",
      "eventTimeZone": "GMT",
      "eventPrevious": "92.0",
      "eventCurrency": "BRL",
      "eventForecast": ""
    },
    {
      "eventDateTime": "2018-04-24T16:00:00",
      "eventActual": "105.66B",
      "eventCountry": "Brazil",
      "eventExpectedVolatility": "Low",
      "eventName": "Federal Tax Revenue (Mar)",
      "eventTimeZone": "GMT",
      "eventPrevious": "105.00B",
      "eventCurrency": "BRL",
      "eventForecast": "110.00B"
    }
  ]}}
