"Investing.com USD/CAD Index";"Canada";"CAD";"2019-09-16T05:30:00";"GMT";"52.9%";"";"38.7%";"Moderate"
"Foreign Securities Purchases (Jul)";"Canada";"CAD";"2019-09-16T12:30:00";"GMT";"-4.06B";"";"-1.17B";"Moderate"
"Foreign Securities Purchases by Canadians (Jul)";"Canada";"CAD";"2019-09-16T12:30:00";"GMT";"6.61B";"";"12.45B";"Low"
