{"events": {"event": [
    {
      "eventDateTime": "2016-04-04T07:30:00",
      "eventActual": "47.8%",
      "eventCountry": "Canada",
      "eventExpectedVolatility": "Moderate",
      "eventName": "Investing.com USD/CAD Index",
      "eventTimeZone": "GMT",
      "eventPrevious": "48.8%",
      "eventCurrency": "CAD",
      "eventForecast": ""
    },
    {
      "eventDateTime": "2016-04-04T14:00:00",
      "eventActual": "",
      "eventCountry": "Canada",
      "eventExpectedVolatility": "High",
      "eventName": "BoC Gov Poloz Speaks",
      "eventTimeZone": "GMT",
      "eventPrevious": "",
      "eventCurrency": "CAD",
      "eventForecast": ""
    }
  ]}}
