"Redbook (MoM)";"United States";"USD";"2018-10-02T12:55:00";"GMT";"0.3%";"";"0.3%";"Low"
"Redbook (YoY)";"United States";"USD";"2018-10-02T12:55:00";"GMT";"5.8%";"";"5.7%";"Low"
"ISM-New York Index (Sep)";"United States";"USD";"2018-10-02T13:45:00";"GMT";"810.7";"";"822.0";"Low"
"FOMC Member Quarles Speaks";"United States";"USD";"2018-10-02T14:00:00";"GMT";" ";"";"";"Moderate"
"4-Week Bill Auction";"United States";"USD";"2018-10-02T15:30:00";"GMT";"2.080%";"";"2.105%";"Low"
"Fed Chair Powell Speaks";"United States";"USD";"2018-10-02T16:00:00";"GMT";" ";"";"";"High"
"All Car Sales";"United States";"USD";"2018-10-02T19:30:00";"GMT";"5.14M";"";"5.14M";"Low"
"All Truck Sales (Sep)";"United States";"USD";"2018-10-02T19:30:00";"GMT";"11.58M";"";"11.58M";"Low"
"Domestic Car Sales";"United States";"USD";"2018-10-02T19:30:00";"GMT";"3.77M";"3.77M";"3.77M";"Low"
"Domestic Truck Sales (Sep)";"United States";"USD";"2018-10-02T19:30:00";"GMT";"9.37M";"9.40M";"9.37M";"Low"
"Total Vehicle Sales";"United States";"USD";"2018-10-02T19:30:00";"GMT";"16.72M";"16.78M";"17.44M";"Low"
"API Weekly Crude Oil Stock";"United States";"USD";"2018-10-02T20:30:00";"GMT";"2.903M";"";"0.907M";"Moderate"
