{"events": {"event": [
    {
      "eventDateTime": "2006-03-01T09:00:00",
      "eventActual": "118.10",
      "eventCountry": "South Africa",
      "eventExpectedVolatility": "Low",
      "eventName": "Business Confidence (Feb)",
      "eventTimeZone": "GMT",
      "eventPrevious": "121.60",
      "eventCurrency": "ZAR",
      "eventForecast": ""
    },
    {
      "eventDateTime": "2006-03-01T09:00:00",
      "eventActual": "0.15%",
      "eventCountry": "South Africa",
      "eventExpectedVolatility": "Moderate",
      "eventName": "CPI (MoM) (Feb)",
      "eventTimeZone": "GMT",
      "eventPrevious": "0.62%",
      "eventCurrency": "ZAR",
      "eventForecast": ""
    },
    {
      "eventDateTime": "2006-03-01T09:00:00",
      "eventActual": "3.85%",
      "eventCountry": "South Africa",
      "eventExpectedVolatility": "Low",
      "eventName": "CPI (YoY) (Feb)",
      "eventTimeZone": "GMT",
      "eventPrevious": "3.86%",
      "eventCurrency": "ZAR",
      "eventForecast": ""
    },
    {
      "eventDateTime": "2006-03-01T09:00:00",
      "eventActual": "22.45B",
      "eventCountry": "South Africa",
      "eventExpectedVolatility": "Low",
      "eventName": "Foreign Reserves (USD) (Feb)",
      "eventTimeZone": "GMT",
      "eventPrevious": "22.17B",
      "eventCurrency": "ZAR",
      "eventForecast": ""
    },
    {
      "eventDateTime": "2006-03-01T09:00:00",
      "eventActual": "-8.39%",
      "eventCountry": "South Africa",
      "eventExpectedVolatility": "Low",
      "eventName": "Gold Production (YoY) (Feb)",
      "eventTimeZone": "GMT",
      "eventPrevious": "-14.24%",
      "eventCurrency": "ZAR",
      "eventForecast": ""
    },
    {
      "eventDateTime": "2006-03-01T09:00:00",
      "eventActual": "7.00%",
      "eventCountry": "South Africa",
      "eventExpectedVolatility": "Moderate",
      "eventName": "Interest Rate Decision (Feb)",
      "eventTimeZone": "GMT",
      "eventPrevious": "7.00%",
      "eventCurrency": "ZAR",
      "eventForecast": ""
    },
    {
      "eventDateTime": "2006-03-01T09:00:00",
      "eventActual": "21.57%",
      "eventCountry": "South Africa",
      "eventExpectedVolatility": "Low",
      "eventName": "M3 Money Supply (YoY) (Feb)",
      "eventTimeZone": "GMT",
      "eventPrevious": "20.23%",
      "eventCurrency": "ZAR",
      "eventForecast": ""
    },
    {
      "eventDateTime": "2006-03-01T09:00:00",
      "eventActual": "-5.35%",
      "eventCountry": "South Africa",
      "eventExpectedVolatility": "Low",
      "eventName": "Mining Production (Feb)",
      "eventTimeZone": "GMT",
      "eventPrevious": "-8.03%",
      "eventCurrency": "ZAR",
      "eventForecast": ""
    },
    {
      "eventDateTime": "2006-03-01T09:00:00",
      "eventActual": "18.98B",
      "eventCountry": "South Africa",
      "eventExpectedVolatility": "Low",
      "eventName": "Net FX Reserves (USD) (Feb)",
      "eventTimeZone": "GMT",
      "eventPrevious": "18.70B",
      "eventCurrency": "ZAR",
      "eventForecast": ""
    },
    {
      "eventDateTime": "2006-03-01T09:00:00",
      "eventActual": "10.50%",
      "eventCountry": "South Africa",
      "eventExpectedVolatility": "Low",
      "eventName": "Prime Rate (Feb)",
      "eventTimeZone": "GMT",
      "eventPrevious": "10.50%",
      "eventCurrency": "ZAR",
      "eventForecast": ""
    },
    {
      "eventDateTime": "2006-03-01T09:00:00",
      "eventActual": "21.54%",
      "eventCountry": "South Africa",
      "eventExpectedVolatility": "Low",
      "eventName": "Private Sector Credit (Feb)",
      "eventTimeZone": "GMT",
      "eventPrevious": "20.46%",
      "eventCurrency": "ZAR",
      "eventForecast": ""
    },
    {
      "eventDateTime": "2006-03-01T09:00:00",
      "eventActual": "13.70%",
      "eventCountry": "South Africa",
      "eventExpectedVolatility": "Low",
      "eventName": "Retail Sales (YoY) (Feb)",
      "eventTimeZone": "GMT",
      "eventPrevious": "9.80%",
      "eventCurrency": "ZAR",
      "eventForecast": ""
    },
    {
      "eventDateTime": "2006-03-01T09:00:00",
      "eventActual": "54.73K",
      "eventCountry": "South Africa",
      "eventExpectedVolatility": "Low",
      "eventName": "Total Vehicle Sales (Feb)",
      "eventTimeZone": "GMT",
      "eventPrevious": "53.51K",
      "eventCurrency": "ZAR",
      "eventForecast": ""
    },
    {
      "eventDateTime": "2006-03-01T09:00:00",
      "eventActual": "27.80%",
      "eventCountry": "South Africa",
      "eventExpectedVolatility": "Low",
      "eventName": "Total Vehicle Sales (YoY) (Feb)",
      "eventTimeZone": "GMT",
      "eventPrevious": "31.70%",
      "eventCurrency": "ZAR",
      "eventForecast": ""
    }
  ]}}
