"PPI Input (MoM)";"United Kingdom";"GBP";"2009-05-08T08:30:00";"GMT";"1.3%";"0.7%";"-1.0%";"Moderate"
"PPI Output (MoM)";"United Kingdom";"GBP";"2009-05-08T08:30:00";"GMT";"0.1%";"0.2%";"0.6%";"Low"
"CFTC GBP speculative net positions";"United Kingdom";"GBP";"2009-05-08T19:30:00";"GMT";"-22.9K";"";"-22.4K";"Moderate"
