"German Ifo Business Climate Index";"Germany";"EUR";"2010-11-24T09:00:00";"GMT";"102.1";"";"103.7";"High"
"Italian Retail Sales (MoM)";"Italy";"EUR";"2010-11-24T09:00:00";"GMT";"0.1%";"0.3%";"-0.2%";"Low"
"Industrial New Orders (MoM)";"Euro Zone";"EUR";"2010-11-24T10:00:00";"GMT";"5.1%";"-2.7%";"-3.8%";"Moderate"
