{"events": {"event": [
    {
      "eventDateTime": "2010-11-24T09:00:00",
      "eventActual": "103.7",
      "eventCountry": "Germany",
      "eventExpectedVolatility": "High",
      "eventName": "German Ifo Business Climate Index",
      "eventTimeZone": "GMT",
      "eventPrevious": "102.1",
      "eventCurrency": "EUR",
      "eventForecast": ""
    },
    {
      "eventDateTime": "2010-11-24T09:00:00",
      "eventActual": "-0.2%",
      "eventCountry": "Italy",
      "eventExpectedVolatility": "Low",
      "eventName": "Italian Retail Sales (MoM)",
      "eventTimeZone": "GMT",
      "eventPrevious": "0.1%",
      "eventCurrency": "EUR",
      "eventForecast": "0.3%"
    },
    {
      "eventDateTime": "2010-11-24T10:00:00",
      "eventActual": "-3.8%",
      "eventCountry": "Euro Zone",
      "eventExpectedVolatility": "Moderate",
      "eventName": "Industrial New Orders (MoM)",
      "eventTimeZone": "GMT",
      "eventPrevious": "5.1%",
      "eventCurrency": "EUR",
      "eventForecast": "-2.7%"
    }
  ]}}
