{"events": {"event": [
    {
      "eventDateTime": "2017-02-07T05:00:00",
      "eventActual": "0.1%",
      "eventCountry": "Japan",
      "eventExpectedVolatility": "Low",
      "eventName": "Coincident Indicator (MoM) (Dec)",
      "eventTimeZone": "GMT",
      "eventPrevious": "1.6%",
      "eventCurrency": "JPY",
      "eventForecast": ""
    },
    {
      "eventDateTime": "2017-02-07T05:00:00",
      "eventActual": "105.2",
      "eventCountry": "Japan",
      "eventExpectedVolatility": "Low",
      "eventName": "Leading Index",
      "eventTimeZone": "GMT",
      "eventPrevious": "102.8",
      "eventCurrency": "JPY",
      "eventForecast": "105.6"
    },
    {
      "eventDateTime": "2017-02-07T05:00:00",
      "eventActual": "2.6%",
      "eventCountry": "Japan",
      "eventExpectedVolatility": "Low",
      "eventName": "Leading Index (MoM) (Dec)",
      "eventTimeZone": "GMT",
      "eventPrevious": "1.9%",
      "eventCurrency": "JPY",
      "eventForecast": ""
    },
    {
      "eventDateTime": "2017-02-07T23:50:00",
      "eventActual": "1.67T",
      "eventCountry": "Japan",
      "eventExpectedVolatility": "Moderate",
      "eventName": "Adjusted Current Account",
      "eventTimeZone": "GMT",
      "eventPrevious": "1.80T",
      "eventCurrency": "JPY",
      "eventForecast": "1.71T"
    },
    {
      "eventDateTime": "2017-02-07T23:50:00",
      "eventActual": "2.5%",
      "eventCountry": "Japan",
      "eventExpectedVolatility": "Low",
      "eventName": "Bank Lending (YoY) (Jan)",
      "eventTimeZone": "GMT",
      "eventPrevious": "2.6%",
      "eventCurrency": "JPY",
      "eventForecast": "2.7%"
    },
    {
      "eventDateTime": "2017-02-07T23:50:00",
      "eventActual": "1.112T",
      "eventCountry": "Japan",
      "eventExpectedVolatility": "Moderate",
      "eventName": "Current Account n.s.a. (Dec)",
      "eventTimeZone": "GMT",
      "eventPrevious": "1.416T",
      "eventCurrency": "JPY",
      "eventForecast": "1.295T"
    },
    {
      "eventDateTime": "2017-02-07T23:50:00",
      "eventActual": "1,231.6B",
      "eventCountry": "Japan",
      "eventExpectedVolatility": "Low",
      "eventName": "Foreign Reserves (USD) (Jan)",
      "eventTimeZone": "GMT",
      "eventPrevious": "1,216.9B",
      "eventCurrency": "JPY",
      "eventForecast": ""
    }
  ]}}
