"10-Year JGB Auction";"Japan";"JPY";"2017-01-05T03:45:00";"GMT";"0.032%";"";"0.056%";"Moderate"
"Foreign Bonds Buying";"Japan";"JPY";"2017-01-05T23:50:00";"GMT";"-216.7B";"";"-501.4B";"Low"
"Foreign Investments in Japanese Stocks";"Japan";"JPY";"2017-01-05T23:50:00";"GMT";"114.1B";"";"58.5B";"Low"
