{"events": {"event": [
    {
      "eventDateTime": "2013-08-14T11:00:00",
      "eventActual": "-4.7%",
      "eventCountry": "United States",
      "eventExpectedVolatility": "Low",
      "eventName": "MBA Mortgage Applications (WoW)",
      "eventTimeZone": "GMT",
      "eventPrevious": "0.2%",
      "eventCurrency": "USD",
      "eventForecast": ""
    },
    {
      "eventDateTime": "2013-08-14T12:30:00",
      "eventActual": "0.1%",
      "eventCountry": "United States",
      "eventExpectedVolatility": "Moderate",
      "eventName": "Core PPI (MoM)",
      "eventTimeZone": "GMT",
      "eventPrevious": "0.2%",
      "eventCurrency": "USD",
      "eventForecast": "0.2%"
    },
    {
      "eventDateTime": "2013-08-14T12:30:00",
      "eventActual": "1.2%",
      "eventCountry": "United States",
      "eventExpectedVolatility": "Low",
      "eventName": "Core PPI (YoY)",
      "eventTimeZone": "GMT",
      "eventPrevious": "1.7%",
      "eventCurrency": "USD",
      "eventForecast": "1.4%"
    },
    {
      "eventDateTime": "2013-08-14T12:30:00",
      "eventActual": "0.0%",
      "eventCountry": "United States",
      "eventExpectedVolatility": "High",
      "eventName": "PPI (MoM)",
      "eventTimeZone": "GMT",
      "eventPrevious": "0.8%",
      "eventCurrency": "USD",
      "eventForecast": "0.3%"
    },
    {
      "eventDateTime": "2013-08-14T12:30:00",
      "eventActual": "2.1%",
      "eventCountry": "United States",
      "eventExpectedVolatility": "Low",
      "eventName": "PPI (YoY)",
      "eventTimeZone": "GMT",
      "eventPrevious": "2.5%",
      "eventCurrency": "USD",
      "eventForecast": "2.4%"
    },
    {
      "eventDateTime": "2013-08-14T14:30:00",
      "eventActual": "-2.812M",
      "eventCountry": "United States",
      "eventExpectedVolatility": "High",
      "eventName": "Crude Oil Inventories",
      "eventTimeZone": "GMT",
      "eventPrevious": "-1.320M",
      "eventCurrency": "USD",
      "eventForecast": "-1.511M"
    },
    {
      "eventDateTime": "2013-08-14T14:30:00",
      "eventActual": "2.027M",
      "eventCountry": "United States",
      "eventExpectedVolatility": "Low",
      "eventName": "EIA Weekly Distillates Stocks",
      "eventTimeZone": "GMT",
      "eventPrevious": "0.469M",
      "eventCurrency": "USD",
      "eventForecast": "0.794M"
    },
    {
      "eventDateTime": "2013-08-14T14:30:00",
      "eventActual": "-1.169M",
      "eventCountry": "United States",
      "eventExpectedVolatility": "Low",
      "eventName": "Gasoline Inventories",
      "eventTimeZone": "GMT",
      "eventPrevious": "0.135M",
      "eventCurrency": "USD",
      "eventForecast": "-0.822M"
    },
    {
      "eventDateTime": "2013-08-14T17:20:00",
      "eventActual": "",
      "eventCountry": "United States",
      "eventExpectedVolatility": "Moderate",
      "eventName": "FOMC Member Bullard Speaks",
      "eventTimeZone": "GMT",
      "eventPrevious": "",
      "eventCurrency": "USD",
      "eventForecast": ""
    },
    {
      "eventDateTime": "2013-08-14T19:15:00",
      "eventActual": "",
      "eventCountry": "United States",
      "eventExpectedVolatility": "Moderate",
      "eventName": "FOMC Member Bullard Speaks",
      "eventTimeZone": "GMT",
      "eventPrevious": "",
      "eventCurrency": "USD",
      "eventForecast": ""
    }
  ]}}
