"Continuing Jobless Claims";"United States";"USD";"2015-03-19T12:30:00";"GMT";"2,428K";"2,410K";"2,417K";"Low"
"Current Account (Q4)";"United States";"USD";"2015-03-19T12:30:00";"GMT";"-98.9B";"-103.2B";"-113.5B";"Moderate"
"Initial Jobless Claims";"United States";"USD";"2015-03-19T12:30:00";"GMT";"290K";"292K";"291K";"Moderate"
"Jobless Claims 4-Week Avg.";"United States";"USD";"2015-03-19T12:30:00";"GMT";"302.50K";"";"304.75K";"Low"
"Bloomberg Consumer Confidence";"United States";"USD";"2015-03-19T13:45:00";"GMT";"43.3";"";"44.2";"Low"
"FOMC Member Tarullo Speaks";"United States";"USD";"2015-03-19T14:00:00";"GMT";" ";"";"";"Moderate"
"Philadelphia Fed Manufacturing Index (Mar)";"United States";"USD";"2015-03-19T14:00:00";"GMT";"5.2";"7.1";"5.0";"High"
"Philly Fed Business Conditions (Mar)";"United States";"USD";"2015-03-19T14:00:00";"GMT";"29.7";"";"32.0";"Low"
"Philly Fed CAPEX Index (Mar)";"United States";"USD";"2015-03-19T14:00:00";"GMT";"20.90";"";"16.40";"Low"
"Philly Fed Employment (Mar)";"United States";"USD";"2015-03-19T14:00:00";"GMT";"3.9";"";"3.5";"Moderate"
"Philly Fed New Orders (Mar)";"United States";"USD";"2015-03-19T14:00:00";"GMT";"5.4";"";"3.9";"Low"
"Philly Fed Prices Paid (Mar)";"United States";"USD";"2015-03-19T14:00:00";"GMT";"4.70";"";"-3.00";"Low"
"Natural Gas Storage";"United States";"USD";"2015-03-19T14:30:00";"GMT";"-198B";"-48B";"-45B";"Low"
"10-Year TIPS Auction";"United States";"USD";"2015-03-19T17:00:00";"GMT";"0.315%";"";"0.200%";"Low"
"SEMI Book/Bill Ratio (Feb)";"United States";"USD";"2015-03-19T22:00:00";"GMT";" ";"";"";"Low"
