"Manufacturing PMI";"Euro Zone";"EUR";"2010-01-04T09:00:00";"GMT";"51.6";"51.6";"51.6";"Moderate"
"Sentix Investor Confidence";"Euro Zone";"EUR";"2010-01-04T09:30:00";"GMT";"-5.5";"-3.5";"-3.7";"Low"
"Italian CPI (MoM)";"Italy";"EUR";"2010-01-04T10:00:00";"GMT";"0.1%";"0.1%";"0.2%";"Moderate"
