{"events": {"event": {
    "eventDateTime": "2018-05-04T19:30:00",
    "eventActual": "-1.4K",
    "eventCountry": "Japan",
    "eventExpectedVolatility": "Moderate",
    "eventName": "CFTC JPY speculative net positions",
    "eventTimeZone": "GMT",
    "eventPrevious": "0.6K",
    "eventCurrency": "JPY",
    "eventForecast": ""
  }}}
