{"events": {"event": {
    "eventDateTime": "2015-09-21T08:30:00",
    "eventActual": "2.40%",
    "eventCountry": "Hong Kong",
    "eventExpectedVolatility": "Low",
    "eventName": "CPI (YoY) (Aug)",
    "eventTimeZone": "GMT",
    "eventPrevious": "2.50%",
    "eventCurrency": "HKD",
    "eventForecast": "2.50%"
  }}}
