{"events": {"event": {
    "eventDateTime": "2013-10-16T03:45:00",
    "eventActual": "0.230%",
    "eventCountry": "Japan",
    "eventExpectedVolatility": "Low",
    "eventName": "5-Year JGB Auction",
    "eventTimeZone": "GMT",
    "eventPrevious": "0.285%",
    "eventCurrency": "JPY",
    "eventForecast": ""
  }}}
