{"events": {"event": [
    {
      "eventDateTime": "2014-10-01T00:00:00",
      "eventActual": "6.80%",
      "eventCountry": "South Korea",
      "eventExpectedVolatility": "Low",
      "eventName": "Exports (YoY) (Sep)",
      "eventTimeZone": "GMT",
      "eventPrevious": "-0.20%",
      "eventCurrency": "KRW",
      "eventForecast": "8.20%"
    },
    {
      "eventDateTime": "2014-10-01T00:00:00",
      "eventActual": "8.0%",
      "eventCountry": "South Korea",
      "eventExpectedVolatility": "Low",
      "eventName": "Imports (YoY) (Sep)",
      "eventTimeZone": "GMT",
      "eventPrevious": "3.1%",
      "eventCurrency": "KRW",
      "eventForecast": "6.0%"
    },
    {
      "eventDateTime": "2014-10-01T00:00:00",
      "eventActual": "48.80",
      "eventCountry": "South Korea",
      "eventExpectedVolatility": "Low",
      "eventName": "Nikkei Manufacturing PMI (Sep)",
      "eventTimeZone": "GMT",
      "eventPrevious": "50.30",
      "eventCurrency": "KRW",
      "eventForecast": "50.00"
    },
    {
      "eventDateTime": "2014-10-01T00:00:00",
      "eventActual": "3.36B",
      "eventCountry": "South Korea",
      "eventExpectedVolatility": "Low",
      "eventName": "Trade Balance (Sep)",
      "eventTimeZone": "GMT",
      "eventPrevious": "3.37B",
      "eventCurrency": "KRW",
      "eventForecast": "3.78B"
    }
  ]}}
