{"events": {"event": {
    "eventDateTime": "2008-12-05T20:30:00",
    "eventActual": "-9.9K",
    "eventCountry": "Australia",
    "eventExpectedVolatility": "Moderate",
    "eventName": "CFTC AUD speculative net positions",
    "eventTimeZone": "GMT",
    "eventPrevious": "-8.6K",
    "eventCurrency": "AUD",
    "eventForecast": ""
  }}}
