{"events": {"event": {
    "eventDateTime": "2014-12-25T12:01:00",
    "eventActual": "398.9B",
    "eventCountry": "Russia",
    "eventExpectedVolatility": "Moderate",
    "eventName": "Central Bank reserves (USD)",
    "eventTimeZone": "GMT",
    "eventPrevious": "414.6B",
    "eventCurrency": "RUB",
    "eventForecast": ""
  }}}
