{"events": {"event": [
    {
      "eventDateTime": "2011-04-08T06:00:00",
      "eventActual": "11.4B",
      "eventCountry": "Germany",
      "eventExpectedVolatility": "Moderate",
      "eventName": "German Trade Balance",
      "eventTimeZone": "GMT",
      "eventPrevious": "11.8B",
      "eventCurrency": "EUR",
      "eventForecast": "13.3B"
    },
    {
      "eventDateTime": "2011-04-08T06:45:00",
      "eventActual": "-28.0B",
      "eventCountry": "France",
      "eventExpectedVolatility": "Low",
      "eventName": "French Government Budget Balance",
      "eventTimeZone": "GMT",
      "eventPrevious": "-13.4B",
      "eventCurrency": "EUR",
      "eventForecast": ""
    },
    {
      "eventDateTime": "2011-04-08T19:30:00",
      "eventActual": "59.9K",
      "eventCountry": "Euro Zone",
      "eventExpectedVolatility": "Moderate",
      "eventName": "CFTC EUR speculative net positions",
      "eventTimeZone": "GMT",
      "eventPrevious": "56.6K",
      "eventCurrency": "EUR",
      "eventForecast": ""
    }
  ]}}
