"Fed Chairman Bernanke Speaks";"United States";"USD";"2013-10-15T01:00:00";"GMT";" ";"";"";"High"
"NY Empire State Manufacturing Index";"United States";"USD";"2013-10-15T12:30:00";"GMT";"6.29";"7.00";"1.52";"Moderate"
"Redbook (MoM)";"United States";"USD";"2013-10-15T12:55:00";"GMT";"-0.50%";"";"-1.40%";"Low"
"Redbook (YoY)";"United States";"USD";"2013-10-15T12:55:00";"GMT";"3.3%";"";"3.2%";"Low"
"FOMC Member Dudley Speaks";"United States";"USD";"2013-10-15T14:00:00";"GMT";" ";"";"";"Moderate"
"3-Month Bill Auction";"United States";"USD";"2013-10-15T15:30:00";"GMT";"0.035%";"";"0.130%";"Low"
"6-Month Bill Auction";"United States";"USD";"2013-10-15T15:30:00";"GMT";"0.060%";"";"0.150%";"Low"
"FOMC Member Fisher Speaks";"United States";"USD";"2013-10-15T23:15:00";"GMT";" ";"";"";"Moderate"
