"Manufacturing PMI (Jun)";"United States";"USD";"2019-06-21T13:45:00";"GMT";"50.5";"50.5";"50.1";"Moderate"
"Markit Composite PMI";"United States";"USD";"2019-06-21T13:45:00";"GMT";"50.9";"";"50.6";"Moderate"
"Services PMI (Jun)";"United States";"USD";"2019-06-21T13:45:00";"GMT";"50.9";"51.0";"50.7";"Moderate"
"Existing Home Sales (May)";"United States";"USD";"2019-06-21T14:00:00";"GMT";"5.21M";"5.29M";"5.34M";"High"
"Existing Home Sales (MoM) (May)";"United States";"USD";"2019-06-21T14:00:00";"GMT";"-0.4%";"1.2%";"2.5%";"Moderate"
"FOMC Member Brainard Speaks";"United States";"USD";"2019-06-21T16:00:00";"GMT";" ";"";"";"Moderate"
"FOMC Member Mester Speaks";"United States";"USD";"2019-06-21T16:00:00";"GMT";" ";"";"";"Moderate"
"U.S. Baker Hughes Oil Rig Count";"United States";"USD";"2019-06-21T17:00:00";"GMT";"788";"";"789";"Moderate"
"U.S. Baker Hughes Total Rig Count";"United States";"USD";"2019-06-21T17:00:00";"GMT";"969";"";"967";"Moderate"
"FOMC Member Daly Speaks";"United States";"USD";"2019-06-21T19:00:00";"GMT";" ";"";"";"Moderate"
"CFTC Aluminium speculative net positions";"United States";"USD";"2019-06-21T19:30:00";"GMT";"-86.8K";"";"-52.3K";"Low"
"CFTC Copper speculative net positions";"United States";"USD";"2019-06-21T19:30:00";"GMT";"-30.5K";"";"-24.0K";"Low"
"CFTC Corn speculative net positions";"United States";"USD";"2019-06-21T19:30:00";"GMT";"239.4K";"";"270.3K";"Low"
"CFTC Crude Oil speculative net positions";"United States";"USD";"2019-06-21T19:30:00";"GMT";"351.7K";"";"363.1K";"Moderate"
"CFTC Gold speculative net positions";"United States";"USD";"2019-06-21T19:30:00";"GMT";"184.2K";"";"204.3K";"Moderate"
"CFTC Natural Gas speculative net positions";"United States";"USD";"2019-06-21T19:30:00";"GMT";"-126.9K";"";"-137.3K";"Low"
"CFTC Sandamp:P 500 speculative net positions";"United States";"USD";"2019-06-21T19:30:00";"GMT";"54.9K";"";"51.9K";"Moderate"
"CFTC Silver speculative net positions";"United States";"USD";"2019-06-21T19:30:00";"GMT";"2.7K";"";"14.5K";"Low"
"CFTC Soybeans speculative net positions";"United States";"USD";"2019-06-21T19:30:00";"GMT";"-47.7K";"";"-2.7K";"Low"
"CFTC Wheat speculative net positions";"United States";"USD";"2019-06-21T19:30:00";"GMT";"9.7K";"";"29.3K";"Low"
