{"events": {"event": [
    {
      "eventDateTime": "2017-05-31T06:00:00",
      "eventActual": "-0.2%",
      "eventCountry": "Germany",
      "eventExpectedVolatility": "Moderate",
      "eventName": "German Retail Sales (MoM) (Apr)",
      "eventTimeZone": "GMT",
      "eventPrevious": "0.2%",
      "eventCurrency": "EUR",
      "eventForecast": "0.2%"
    },
    {
      "eventDateTime": "2017-05-31T06:00:00",
      "eventActual": "-0.9%",
      "eventCountry": "Germany",
      "eventExpectedVolatility": "Low",
      "eventName": "German Retail Sales (YoY) (Apr)",
      "eventTimeZone": "GMT",
      "eventPrevious": "2.9%",
      "eventCurrency": "EUR",
      "eventForecast": "2.3%"
    },
    {
      "eventDateTime": "2017-05-31T06:45:00",
      "eventActual": "0.1%",
      "eventCountry": "France",
      "eventExpectedVolatility": "Moderate",
      "eventName": "French CPI (MoM) (May)",
      "eventTimeZone": "GMT",
      "eventPrevious": "0.1%",
      "eventCurrency": "EUR",
      "eventForecast": "0.2%"
    },
    {
      "eventDateTime": "2017-05-31T06:45:00",
      "eventActual": "0.1%",
      "eventCountry": "France",
      "eventExpectedVolatility": "Moderate",
      "eventName": "French HICP (MoM) (May)",
      "eventTimeZone": "GMT",
      "eventPrevious": "0.1%",
      "eventCurrency": "EUR",
      "eventForecast": ""
    },
    {
      "eventDateTime": "2017-05-31T06:45:00",
      "eventActual": "0.9%",
      "eventCountry": "France",
      "eventExpectedVolatility": "Low",
      "eventName": "French HICP (YoY) (May)",
      "eventTimeZone": "GMT",
      "eventPrevious": "1.4%",
      "eventCurrency": "EUR",
      "eventForecast": ""
    },
    {
      "eventDateTime": "2017-05-31T06:45:00",
      "eventActual": "-0.4%",
      "eventCountry": "France",
      "eventExpectedVolatility": "Low",
      "eventName": "French PPI (MoM) (Apr)",
      "eventTimeZone": "GMT",
      "eventPrevious": "-0.5%",
      "eventCurrency": "EUR",
      "eventForecast": ""
    },
    {
      "eventDateTime": "2017-05-31T07:20:00",
      "eventActual": "",
      "eventCountry": "Euro Zone",
      "eventExpectedVolatility": "Moderate",
      "eventName": "ECB's Coeure Speaks",
      "eventTimeZone": "GMT",
      "eventPrevious": "",
      "eventCurrency": "EUR",
      "eventForecast": ""
    },
    {
      "eventDateTime": "2017-05-31T08:00:00",
      "eventActual": "2.500M",
      "eventCountry": "Germany",
      "eventExpectedVolatility": "Low",
      "eventName": "German Unemployment (May)",
      "eventTimeZone": "GMT",
      "eventPrevious": "2.500M",
      "eventCurrency": "EUR",
      "eventForecast": ""
    },
    {
      "eventDateTime": "2017-05-31T08:00:00",
      "eventActual": "-9K",
      "eventCountry": "Germany",
      "eventExpectedVolatility": "High",
      "eventName": "German Unemployment Change (May)",
      "eventTimeZone": "GMT",
      "eventPrevious": "-15K",
      "eventCurrency": "EUR",
      "eventForecast": "-15K"
    },
    {
      "eventDateTime": "2017-05-31T08:00:00",
      "eventActual": "5.7%",
      "eventCountry": "Germany",
      "eventExpectedVolatility": "Moderate",
      "eventName": "German Unemployment Rate (May)",
      "eventTimeZone": "GMT",
      "eventPrevious": "5.8%",
      "eventCurrency": "EUR",
      "eventForecast": "5.8%"
    },
    {
      "eventDateTime": "2017-05-31T08:00:00",
      "eventActual": "2.500M",
      "eventCountry": "Germany",
      "eventExpectedVolatility": "Low",
      "eventName": "German Unemployment n.s.a. (May)",
      "eventTimeZone": "GMT",
      "eventPrevious": "2.569M",
      "eventCurrency": "EUR",
      "eventForecast": ""
    },
    {
      "eventDateTime": "2017-05-31T08:00:00",
      "eventActual": "11.1%",
      "eventCountry": "Italy",
      "eventExpectedVolatility": "Low",
      "eventName": "Italian Monthly Unemployment Rate (Apr)",
      "eventTimeZone": "GMT",
      "eventPrevious": "11.5%",
      "eventCurrency": "EUR",
      "eventForecast": "11.6%"
    },
    {
      "eventDateTime": "2017-05-31T08:00:00",
      "eventActual": "1.32B",
      "eventCountry": "Spain",
      "eventExpectedVolatility": "Low",
      "eventName": "Spanish Current account (Mar)",
      "eventTimeZone": "GMT",
      "eventPrevious": "-0.22B",
      "eventCurrency": "EUR",
      "eventForecast": ""
    },
    {
      "eventDateTime": "2017-05-31T09:00:00",
      "eventActual": "1.4%",
      "eventCountry": "Euro Zone",
      "eventExpectedVolatility": "High",
      "eventName": "CPI (YoY) (May)",
      "eventTimeZone": "GMT",
      "eventPrevious": "1.9%",
      "eventCurrency": "EUR",
      "eventForecast": "1.5%"
    },
    {
      "eventDateTime": "2017-05-31T09:00:00",
      "eventActual": "0.9%",
      "eventCountry": "Euro Zone",
      "eventExpectedVolatility": "Moderate",
      "eventName": "Core CPI (YoY) (May)",
      "eventTimeZone": "GMT",
      "eventPrevious": "1.2%",
      "eventCurrency": "EUR",
      "eventForecast": "1.0%"
    },
    {
      "eventDateTime": "2017-05-31T09:00:00",
      "eventActual": "-0.2%",
      "eventCountry": "Italy",
      "eventExpectedVolatility": "Moderate",
      "eventName": "Italian CPI (MoM) (May)",
      "eventTimeZone": "GMT",
      "eventPrevious": "0.4%",
      "eventCurrency": "EUR",
      "eventForecast": "-0.2%"
    },
    {
      "eventDateTime": "2017-05-31T09:00:00",
      "eventActual": "1.4%",
      "eventCountry": "Italy",
      "eventExpectedVolatility": "Low",
      "eventName": "Italian CPI (YoY) (May)",
      "eventTimeZone": "GMT",
      "eventPrevious": "1.9%",
      "eventCurrency": "EUR",
      "eventForecast": "1.4%"
    },
    {
      "eventDateTime": "2017-05-31T09:00:00",
      "eventActual": "-0.2%",
      "eventCountry": "Italy",
      "eventExpectedVolatility": "Low",
      "eventName": "Italian HICP (MoM) (May)",
      "eventTimeZone": "GMT",
      "eventPrevious": "0.8%",
      "eventCurrency": "EUR",
      "eventForecast": "-0.2%"
    },
    {
      "eventDateTime": "2017-05-31T09:00:00",
      "eventActual": "1.5%",
      "eventCountry": "Italy",
      "eventExpectedVolatility": "Low",
      "eventName": "Italian HICP (YoY) (May)",
      "eventTimeZone": "GMT",
      "eventPrevious": "2.0%",
      "eventCurrency": "EUR",
      "eventForecast": "1.5%"
    },
    {
      "eventDateTime": "2017-05-31T09:00:00",
      "eventActual": "9.3%",
      "eventCountry": "Euro Zone",
      "eventExpectedVolatility": "Moderate",
      "eventName": "Unemployment Rate (Apr)",
      "eventTimeZone": "GMT",
      "eventPrevious": "9.4%",
      "eventCurrency": "EUR",
      "eventForecast": "9.4%"
    },
    {
      "eventDateTime": "2017-05-31T12:30:00",
      "eventActual": "",
      "eventCountry": "Euro Zone",
      "eventExpectedVolatility": "Moderate",
      "eventName": "ECB's Lautenschlaeger Speaks",
      "eventTimeZone": "GMT",
      "eventPrevious": "",
      "eventCurrency": "EUR",
      "eventForecast": ""
    }
  ]}}
