"Continuing Jobless Claims";"United States";"USD";"2019-04-18T12:30:00";"GMT";"1,716K";"1,720K";"1,653K";"Low"
"Core Retail Sales (MoM) (Mar)";"United States";"USD";"2019-04-18T12:30:00";"GMT";"-0.2%";"0.7%";"1.2%";"High"
"Initial Jobless Claims";"United States";"USD";"2019-04-18T12:30:00";"GMT";"197K";"205K";"192K";"Moderate"
"Jobless Claims 4-Week Avg.";"United States";"USD";"2019-04-18T12:30:00";"GMT";"207.25K";"";"201.25K";"Low"
"Philadelphia Fed Manufacturing Index (Apr)";"United States";"USD";"2019-04-18T12:30:00";"GMT";"13.7";"10.4";"8.5";"High"
"Philly Fed Business Conditions (Apr)";"United States";"USD";"2019-04-18T12:30:00";"GMT";"21.8";"";"19.1";"Low"
"Philly Fed CAPEX Index (Apr)";"United States";"USD";"2019-04-18T12:30:00";"GMT";"19.50";"";"30.90";"Low"
"Philly Fed Employment (Apr)";"United States";"USD";"2019-04-18T12:30:00";"GMT";"9.6";"";"14.7";"Moderate"
"Philly Fed New Orders (Apr)";"United States";"USD";"2019-04-18T12:30:00";"GMT";"1.9";"";"15.7";"Low"
"Philly Fed Prices Paid (Apr)";"United States";"USD";"2019-04-18T12:30:00";"GMT";"19.70";"";"21.60";"Low"
"Retail Control (MoM) (Mar)";"United States";"USD";"2019-04-18T12:30:00";"GMT";"-0.3%";"0.4%";"1.0%";"Low"
"Retail Sales (MoM) (Mar)";"United States";"USD";"2019-04-18T12:30:00";"GMT";"-0.2%";"0.9%";"1.6%";"High"
"Retail Sales (YoY)";"United States";"USD";"2019-04-18T12:30:00";"GMT";"2.20%";"";"3.60%";"Low"
"Retail Sales Ex Gas/Autos (MoM) (Mar)";"United States";"USD";"2019-04-18T12:30:00";"GMT";"-0.7%";"0.5%";"0.9%";"Low"
"Manufacturing PMI (Apr)";"United States";"USD";"2019-04-18T13:45:00";"GMT";"52.4";"52.8";"52.4";"Moderate"
"Markit Composite PMI";"United States";"USD";"2019-04-18T13:45:00";"GMT";"54.6";"";"52.8";"Moderate"
"Services PMI (Apr)";"United States";"USD";"2019-04-18T13:45:00";"GMT";"55.3";"55.0";"52.9";"Moderate"
"Business Inventories (MoM) (Feb)";"United States";"USD";"2019-04-18T14:00:00";"GMT";"0.9%";"0.4%";"0.3%";"Moderate"
"Natural Gas Storage";"United States";"USD";"2019-04-18T14:30:00";"GMT";"25B";"87B";"92B";"Low"
"4-Week Bill Auction";"United States";"USD";"2019-04-18T15:30:00";"GMT";"2.375%";"";"2.400%";"Low"
"8-Week Bill Auction";"United States";"USD";"2019-04-18T15:30:00";"GMT";"2.375%";"";"2.390%";"Low"
"FOMC Member Bostic Speaks";"United States";"USD";"2019-04-18T16:10:00";"GMT";" ";"";"";"Moderate"
"5-Year TIPS Auction";"United States";"USD";"2019-04-18T17:00:00";"GMT";"1.129%";"";"0.515%";"Low"
"U.S. Baker Hughes Oil Rig Count";"United States";"USD";"2019-04-18T17:00:00";"GMT";"833";"";"825";"Moderate"
"U.S. Baker Hughes Total Rig Count";"United States";"USD";"2019-04-18T17:00:00";"GMT";"1,022";"";"1,012";"Moderate"
