"Current Account";"Euro Zone";"EUR";"2008-06-27T08:00:00";"GMT";"-15.3B";"";"-0.3B";"Low"
"Consumer Confidence";"Euro Zone";"EUR";"2008-06-27T09:00:00";"GMT";"-15.0";"-16.0";"-17.0";"Low"
"CFTC EUR speculative net positions";"Euro Zone";"EUR";"2008-06-27T19:30:00";"GMT";"-9.3K";"";"1.4K";"Moderate"
