"Investing.com USD/CAD Index";"Canada";"CAD";"2016-01-05T07:30:00";"GMT";"48.0%";"";"51.8%";"Moderate"
"IPPI (MoM) (Nov)";"Canada";"CAD";"2016-01-05T13:30:00";"GMT";"-0.5%";"0.1%";"-0.2%";"Low"
"IPPI (YoY) (Nov)";"Canada";"CAD";"2016-01-05T13:30:00";"GMT";"-0.4%";"";"-0.2%";"Low"
"RMPI (MoM) (Nov)";"Canada";"CAD";"2016-01-05T13:30:00";"GMT";"0.0%";"-3.0%";"-4.0%";"Moderate"
"RMPI (YoY) (Nov)";"Canada";"CAD";"2016-01-05T13:30:00";"GMT";"-17.9%";"";"-16.3%";"Low"
