{"events": {"event": [
    {
      "eventDateTime": "2015-06-24T05:30:00",
      "eventActual": "0.6%",
      "eventCountry": "France",
      "eventExpectedVolatility": "Moderate",
      "eventName": "French GDP (QoQ) (Q1)",
      "eventTimeZone": "GMT",
      "eventPrevious": "0.6%",
      "eventCurrency": "EUR",
      "eventForecast": "0.6%"
    },
    {
      "eventDateTime": "2015-06-24T08:00:00",
      "eventActual": "102.0",
      "eventCountry": "Germany",
      "eventExpectedVolatility": "Moderate",
      "eventName": "German Business Expectations (Jun)",
      "eventTimeZone": "GMT",
      "eventPrevious": "103.0",
      "eventCurrency": "EUR",
      "eventForecast": "102.5"
    },
    {
      "eventDateTime": "2015-06-24T08:00:00",
      "eventActual": "113.1",
      "eventCountry": "Germany",
      "eventExpectedVolatility": "Moderate",
      "eventName": "German Current Assessment (Jun)",
      "eventTimeZone": "GMT",
      "eventPrevious": "114.3",
      "eventCurrency": "EUR",
      "eventForecast": "114.1"
    },
    {
      "eventDateTime": "2015-06-24T08:00:00",
      "eventActual": "100.1",
      "eventCountry": "Germany",
      "eventExpectedVolatility": "High",
      "eventName": "German Ifo Business Climate Index (Jun)",
      "eventTimeZone": "GMT",
      "eventPrevious": "99.8",
      "eventCurrency": "EUR",
      "eventForecast": ""
    },
    {
      "eventDateTime": "2015-06-24T08:00:00",
      "eventActual": "0.0%",
      "eventCountry": "Italy",
      "eventExpectedVolatility": "Low",
      "eventName": "Italian Wage Inflation (MoM) (May)",
      "eventTimeZone": "GMT",
      "eventPrevious": "0.2%",
      "eventCurrency": "EUR",
      "eventForecast": ""
    },
    {
      "eventDateTime": "2015-06-24T08:00:00",
      "eventActual": "1.1%",
      "eventCountry": "Italy",
      "eventExpectedVolatility": "Low",
      "eventName": "Italian Wage Inflation (YoY) (May)",
      "eventTimeZone": "GMT",
      "eventPrevious": "1.2%",
      "eventCurrency": "EUR",
      "eventForecast": ""
    },
    {
      "eventDateTime": "2015-06-24T09:00:00",
      "eventActual": "2.86B",
      "eventCountry": "Italy",
      "eventExpectedVolatility": "Low",
      "eventName": "Italian Trade Balance Non-EU (May)",
      "eventTimeZone": "GMT",
      "eventPrevious": "2.60B",
      "eventCurrency": "EUR",
      "eventForecast": ""
    },
    {
      "eventDateTime": "2015-06-24T16:00:00",
      "eventActual": "3,552.2K",
      "eventCountry": "France",
      "eventExpectedVolatility": "Moderate",
      "eventName": "France Jobseekers Total (May)",
      "eventTimeZone": "GMT",
      "eventPrevious": "3,536.0K",
      "eventCurrency": "EUR",
      "eventForecast": ""
    },
    {
      "eventDateTime": "2015-06-24T17:00:00",
      "eventActual": "",
      "eventCountry": "Euro Zone",
      "eventExpectedVolatility": "Moderate",
      "eventName": "Eurogroup Meetings",
      "eventTimeZone": "GMT",
      "eventPrevious": "",
      "eventCurrency": "EUR",
      "eventForecast": ""
    }
  ]}}
