{"events": {"event": [
    {
      "eventDateTime": "2018-04-30T13:30:00",
      "eventActual": "-57.631B",
      "eventCountry": "Brazil",
      "eventExpectedVolatility": "Low",
      "eventName": "Budget Balance (Mar)",
      "eventTimeZone": "GMT",
      "eventPrevious": "-45.806B",
      "eventCurrency": "BRL",
      "eventForecast": "-44.150B"
    },
    {
      "eventDateTime": "2018-04-30T13:30:00",
      "eventActual": "-25.135B",
      "eventCountry": "Brazil",
      "eventExpectedVolatility": "Low",
      "eventName": "Budget Surplus (Mar)",
      "eventTimeZone": "GMT",
      "eventPrevious": "-17.400B",
      "eventCurrency": "BRL",
      "eventForecast": "-25.500B"
    },
    {
      "eventDateTime": "2018-04-30T13:30:00",
      "eventActual": "52.3%",
      "eventCountry": "Brazil",
      "eventExpectedVolatility": "Low",
      "eventName": "Debt-to-GDP ratio (Mar)",
      "eventTimeZone": "GMT",
      "eventPrevious": "52.0%",
      "eventCurrency": "BRL",
      "eventForecast": "52.0%"
    }
  ]}}
