{"events": {"event": {
    "eventDateTime": "2017-11-01T08:30:00",
    "eventActual": "62.0",
    "eventCountry": "Switzerland",
    "eventExpectedVolatility": "Moderate",
    "eventName": "procure.ch PMI (Oct)",
    "eventTimeZone": "GMT",
    "eventPrevious": "62.1",
    "eventCurrency": "CHF",
    "eventForecast": "61.5"
  }}}
