{"events": {"event": {
    "eventDateTime": "2015-09-23T01:45:00",
    "eventActual": "47.0",
    "eventCountry": "China",
    "eventExpectedVolatility": "High",
    "eventName": "Caixin Manufacturing PMI (Sep)",
    "eventTimeZone": "GMT",
    "eventPrevious": "47.3",
    "eventCurrency": "CNY",
    "eventForecast": "47.5"
  }}}
