{"events": {"event": [
    {
      "eventDateTime": "2019-02-28T00:00:00",
      "eventActual": "-30.9",
      "eventCountry": "New Zealand",
      "eventExpectedVolatility": "Moderate",
      "eventName": "ANZ Business Confidence (Feb)",
      "eventTimeZone": "GMT",
      "eventPrevious": "-24.1",
      "eventCurrency": "NZD",
      "eventForecast": ""
    },
    {
      "eventDateTime": "2019-02-28T00:00:00",
      "eventActual": "10.5%",
      "eventCountry": "New Zealand",
      "eventExpectedVolatility": "Low",
      "eventName": "NBNZ Own Activity (Feb)",
      "eventTimeZone": "GMT",
      "eventPrevious": "13.6%",
      "eventCurrency": "NZD",
      "eventForecast": ""
    },
    {
      "eventDateTime": "2019-02-28T21:45:00",
      "eventActual": "16.5%",
      "eventCountry": "New Zealand",
      "eventExpectedVolatility": "Moderate",
      "eventName": "Building Consents (MoM) (Jan)",
      "eventTimeZone": "GMT",
      "eventPrevious": "5.4%",
      "eventCurrency": "NZD",
      "eventForecast": ""
    },
    {
      "eventDateTime": "2019-02-28T21:45:00",
      "eventActual": "-1.7%",
      "eventCountry": "New Zealand",
      "eventExpectedVolatility": "Low",
      "eventName": "Terms of Trade - Exports Prices (Q4)",
      "eventTimeZone": "GMT",
      "eventPrevious": "3.5%",
      "eventCurrency": "NZD",
      "eventForecast": "-2.0%"
    },
    {
      "eventDateTime": "2019-02-28T21:45:00",
      "eventActual": "0.8%",
      "eventCountry": "New Zealand",
      "eventExpectedVolatility": "Low",
      "eventName": "Terms of Trade - Exports Volume (QoQ) (Q4)",
      "eventTimeZone": "GMT",
      "eventPrevious": "1.8%",
      "eventCurrency": "NZD",
      "eventForecast": "1.0%"
    },
    {
      "eventDateTime": "2019-02-28T21:45:00",
      "eventActual": "1.4%",
      "eventCountry": "New Zealand",
      "eventExpectedVolatility": "Low",
      "eventName": "Terms of Trade - Imports Prices (Q4)",
      "eventTimeZone": "GMT",
      "eventPrevious": "3.7%",
      "eventCurrency": "NZD",
      "eventForecast": "-1.0%"
    },
    {
      "eventDateTime": "2019-02-28T21:45:00",
      "eventActual": "-3.0%",
      "eventCountry": "New Zealand",
      "eventExpectedVolatility": "Low",
      "eventName": "Terms of Trade Index (QoQ) (Q4)",
      "eventTimeZone": "GMT",
      "eventPrevious": "-0.1%",
      "eventCurrency": "NZD",
      "eventForecast": "-1.0%"
    }
  ]}}
