{"events": {"event": [
    {
      "eventDateTime": "2013-11-27T07:45:00",
      "eventActual": "84",
      "eventCountry": "France",
      "eventExpectedVolatility": "Low",
      "eventName": "French Consumer Confidence",
      "eventTimeZone": "GMT",
      "eventPrevious": "85",
      "eventCurrency": "EUR",
      "eventForecast": "85"
    },
    {
      "eventDateTime": "2013-11-27T08:00:00",
      "eventActual": "-0.5%",
      "eventCountry": "Spain",
      "eventExpectedVolatility": "Low",
      "eventName": "Spanish Retail Sales (YoY)",
      "eventTimeZone": "GMT",
      "eventPrevious": "2.2%",
      "eventCurrency": "EUR",
      "eventForecast": "1.6%"
    },
    {
      "eventDateTime": "2013-11-27T09:00:00",
      "eventActual": "7.4",
      "eventCountry": "Germany",
      "eventExpectedVolatility": "Moderate",
      "eventName": "GfK German Consumer Climate",
      "eventTimeZone": "GMT",
      "eventPrevious": "7.1",
      "eventCurrency": "EUR",
      "eventForecast": "7.1"
    },
    {
      "eventDateTime": "2013-11-27T10:10:00",
      "eventActual": "0.539%",
      "eventCountry": "Italy",
      "eventExpectedVolatility": "Low",
      "eventName": "Italian 6-Month BOT Auction",
      "eventTimeZone": "GMT",
      "eventPrevious": "0.629%",
      "eventCurrency": "EUR",
      "eventForecast": ""
    },
    {
      "eventDateTime": "2013-11-27T10:35:00",
      "eventActual": "1.690%",
      "eventCountry": "Germany",
      "eventExpectedVolatility": "Moderate",
      "eventName": "German 10-Year Bund Auction",
      "eventTimeZone": "GMT",
      "eventPrevious": "1.710%",
      "eventCurrency": "EUR",
      "eventForecast": ""
    },
    {
      "eventDateTime": "2013-11-27T17:00:00",
      "eventActual": "3,281.0K",
      "eventCountry": "France",
      "eventExpectedVolatility": "Moderate",
      "eventName": "France Jobseekers Total (Oct)",
      "eventTimeZone": "GMT",
      "eventPrevious": "3,292.2K",
      "eventCurrency": "EUR",
      "eventForecast": ""
    }
  ]}}
