{"events": {"event": [
    {
      "eventDateTime": "2016-02-14T23:50:00",
      "eventActual": "-0.4%",
      "eventCountry": "Japan",
      "eventExpectedVolatility": "High",
      "eventName": "GDP (QoQ) (Q4)",
      "eventTimeZone": "GMT",
      "eventPrevious": "0.3%",
      "eventCurrency": "JPY",
      "eventForecast": "-0.3%"
    },
    {
      "eventDateTime": "2016-02-14T23:50:00",
      "eventActual": "-1.4%",
      "eventCountry": "Japan",
      "eventExpectedVolatility": "Moderate",
      "eventName": "GDP (YoY) (Q4)",
      "eventTimeZone": "GMT",
      "eventPrevious": "1.3%",
      "eventCurrency": "JPY",
      "eventForecast": "-1.2%"
    },
    {
      "eventDateTime": "2016-02-14T23:50:00",
      "eventActual": "1.4%",
      "eventCountry": "Japan",
      "eventExpectedVolatility": "Low",
      "eventName": "GDP Capital Expenditure (QoQ) (Q4)",
      "eventTimeZone": "GMT",
      "eventPrevious": "0.7%",
      "eventCurrency": "JPY",
      "eventForecast": "-0.2%"
    },
    {
      "eventDateTime": "2016-02-14T23:50:00",
      "eventActual": "0.1%",
      "eventCountry": "Japan",
      "eventExpectedVolatility": "Low",
      "eventName": "GDP External Demand (QoQ) (Q4)",
      "eventTimeZone": "GMT",
      "eventPrevious": "0.2%",
      "eventCurrency": "JPY",
      "eventForecast": "0.2%"
    },
    {
      "eventDateTime": "2016-02-14T23:50:00",
      "eventActual": "1.5%",
      "eventCountry": "Japan",
      "eventExpectedVolatility": "Low",
      "eventName": "GDP Price Index (YoY)",
      "eventTimeZone": "GMT",
      "eventPrevious": "1.8%",
      "eventCurrency": "JPY",
      "eventForecast": "1.6%"
    },
    {
      "eventDateTime": "2016-02-14T23:50:00",
      "eventActual": "-0.8%",
      "eventCountry": "Japan",
      "eventExpectedVolatility": "Low",
      "eventName": "GDP Private Consumption (QoQ) (Q4)",
      "eventTimeZone": "GMT",
      "eventPrevious": "0.4%",
      "eventCurrency": "JPY",
      "eventForecast": "-0.6%"
    }
  ]}}
