{"events": {"event": [
    {
      "eventDateTime": "2009-07-27T06:00:00",
      "eventActual": "0.4%",
      "eventCountry": "Germany",
      "eventExpectedVolatility": "Low",
      "eventName": "German Import Price Index (MoM)",
      "eventTimeZone": "GMT",
      "eventPrevious": "0.0%",
      "eventCurrency": "EUR",
      "eventForecast": "0.6%"
    },
    {
      "eventDateTime": "2009-07-27T06:00:00",
      "eventActual": "3.5",
      "eventCountry": "Germany",
      "eventExpectedVolatility": "Moderate",
      "eventName": "GfK German Consumer Climate",
      "eventTimeZone": "GMT",
      "eventPrevious": "3.0",
      "eventCurrency": "EUR",
      "eventForecast": "2.9"
    },
    {
      "eventDateTime": "2009-07-27T08:00:00",
      "eventActual": "3.5%",
      "eventCountry": "Euro Zone",
      "eventExpectedVolatility": "Low",
      "eventName": "M3 Money Supply (YoY)",
      "eventTimeZone": "GMT",
      "eventPrevious": "3.7%",
      "eventCurrency": "EUR",
      "eventForecast": "3.7%"
    },
    {
      "eventDateTime": "2009-07-27T08:00:00",
      "eventActual": "1.5%",
      "eventCountry": "Euro Zone",
      "eventExpectedVolatility": "Low",
      "eventName": "Private Sector Loans (YoY)",
      "eventTimeZone": "GMT",
      "eventPrevious": "1.8%",
      "eventCurrency": "EUR",
      "eventForecast": "1.6%"
    }
  ]}}
