{"events": {"event": {
    "eventDateTime": "2016-05-06T19:30:00",
    "eventActual": "6.8K",
    "eventCountry": "Switzerland",
    "eventExpectedVolatility": "Low",
    "eventName": "CFTC CHF speculative net positions",
    "eventTimeZone": "GMT",
    "eventPrevious": "9.3K",
    "eventCurrency": "CHF",
    "eventForecast": ""
  }}}
