{"events": {"event": [
    {
      "eventDateTime": "2014-12-24T12:00:00",
      "eventActual": "4.02%",
      "eventCountry": "United States",
      "eventExpectedVolatility": "Low",
      "eventName": "MBA 30-Year Mortgage Rate",
      "eventTimeZone": "GMT",
      "eventPrevious": "4.06%",
      "eventCurrency": "USD",
      "eventForecast": ""
    },
    {
      "eventDateTime": "2014-12-24T12:00:00",
      "eventActual": "0.9%",
      "eventCountry": "United States",
      "eventExpectedVolatility": "Low",
      "eventName": "MBA Mortgage Applications (WoW)",
      "eventTimeZone": "GMT",
      "eventPrevious": "-3.3%",
      "eventCurrency": "USD",
      "eventForecast": ""
    },
    {
      "eventDateTime": "2014-12-24T12:00:00",
      "eventActual": "167.7",
      "eventCountry": "United States",
      "eventExpectedVolatility": "Low",
      "eventName": "MBA Purchase Index",
      "eventTimeZone": "GMT",
      "eventPrevious": "165.5",
      "eventCurrency": "USD",
      "eventForecast": ""
    },
    {
      "eventDateTime": "2014-12-24T12:00:00",
      "eventActual": "363.1",
      "eventCountry": "United States",
      "eventExpectedVolatility": "Low",
      "eventName": "Mortgage Market Index",
      "eventTimeZone": "GMT",
      "eventPrevious": "360.0",
      "eventCurrency": "USD",
      "eventForecast": ""
    },
    {
      "eventDateTime": "2014-12-24T12:00:00",
      "eventActual": "1,535.2",
      "eventCountry": "United States",
      "eventExpectedVolatility": "Low",
      "eventName": "Mortgage Refinance Index",
      "eventTimeZone": "GMT",
      "eventPrevious": "1,518.9",
      "eventCurrency": "USD",
      "eventForecast": ""
    },
    {
      "eventDateTime": "2014-12-24T13:30:00",
      "eventActual": "2,403K",
      "eventCountry": "United States",
      "eventExpectedVolatility": "Low",
      "eventName": "Continuing Jobless Claims",
      "eventTimeZone": "GMT",
      "eventPrevious": "2,378K",
      "eventCurrency": "USD",
      "eventForecast": "2,340K"
    },
    {
      "eventDateTime": "2014-12-24T13:30:00",
      "eventActual": "280K",
      "eventCountry": "United States",
      "eventExpectedVolatility": "Moderate",
      "eventName": "Initial Jobless Claims",
      "eventTimeZone": "GMT",
      "eventPrevious": "289K",
      "eventCurrency": "USD",
      "eventForecast": "287K"
    },
    {
      "eventDateTime": "2014-12-24T13:30:00",
      "eventActual": "290.25K",
      "eventCountry": "United States",
      "eventExpectedVolatility": "Low",
      "eventName": "Jobless Claims 4-Week Avg.",
      "eventTimeZone": "GMT",
      "eventPrevious": "298.75K",
      "eventCurrency": "USD",
      "eventForecast": ""
    },
    {
      "eventDateTime": "2014-12-24T14:45:00",
      "eventActual": "42.7",
      "eventCountry": "United States",
      "eventExpectedVolatility": "Low",
      "eventName": "Bloomberg Consumer Confidence",
      "eventTimeZone": "GMT",
      "eventPrevious": "41.7",
      "eventCurrency": "USD",
      "eventForecast": ""
    },
    {
      "eventDateTime": "2014-12-24T15:30:00",
      "eventActual": "7.267M",
      "eventCountry": "United States",
      "eventExpectedVolatility": "High",
      "eventName": "Crude Oil Inventories",
      "eventTimeZone": "GMT",
      "eventPrevious": "-0.847M",
      "eventCurrency": "USD",
      "eventForecast": "-2.280M"
    },
    {
      "eventDateTime": "2014-12-24T15:30:00",
      "eventActual": "2.303M",
      "eventCountry": "United States",
      "eventExpectedVolatility": "Low",
      "eventName": "EIA Weekly Distillates Stocks",
      "eventTimeZone": "GMT",
      "eventPrevious": "-0.207M",
      "eventCurrency": "USD",
      "eventForecast": "-0.900M"
    },
    {
      "eventDateTime": "2014-12-24T15:30:00",
      "eventActual": "4.083M",
      "eventCountry": "United States",
      "eventExpectedVolatility": "Low",
      "eventName": "Gasoline Inventories",
      "eventTimeZone": "GMT",
      "eventPrevious": "5.250M",
      "eventCurrency": "USD",
      "eventForecast": "0.600M"
    },
    {
      "eventDateTime": "2014-12-24T16:35:00",
      "eventActual": "2.125%",
      "eventCountry": "United States",
      "eventExpectedVolatility": "Low",
      "eventName": "7-Year Note Auction",
      "eventTimeZone": "GMT",
      "eventPrevious": "1.960%",
      "eventCurrency": "USD",
      "eventForecast": ""
    },
    {
      "eventDateTime": "2014-12-24T17:00:00",
      "eventActual": "-49B",
      "eventCountry": "United States",
      "eventExpectedVolatility": "Low",
      "eventName": "Natural Gas Storage",
      "eventTimeZone": "GMT",
      "eventPrevious": "-64B",
      "eventCurrency": "USD",
      "eventForecast": ""
    }
  ]}}
