"BOK Financial Stability Board Meeting";"South Korea";"KRW";"2019-03-28T01:00:00";"GMT";" ";"";"";"Moderate"
"Industrial Production (MoM) (Feb)";"South Korea";"KRW";"2019-03-28T23:00:00";"GMT";"0.2%";"-0.9%";"-2.6%";"Low"
"Industrial Production (YoY) (Feb)";"South Korea";"KRW";"2019-03-28T23:00:00";"GMT";"-0.2%";"-0.5%";"-2.7%";"Low"
"Retail Sales (MoM)";"South Korea";"KRW";"2019-03-28T23:00:00";"GMT";"0.1%";"";"-0.5%";"Low"
"Service Sector Output (MoM) (Feb)";"South Korea";"KRW";"2019-03-28T23:00:00";"GMT";"0.9%";"";"-1.1%";"Low"
