"Industrial Production (MoM) (Sep)";"South Korea";"KRW";"2018-10-30T23:00:00";"GMT";"1.3%";"-0.5%";"-2.5%";"Low"
"Industrial Production (YoY) (Sep)";"South Korea";"KRW";"2018-10-30T23:00:00";"GMT";"2.5%";"-3.6%";"-8.4%";"Low"
"Retail Sales (MoM)";"South Korea";"KRW";"2018-10-30T23:00:00";"GMT";"1.3%";"";"-2.5%";"Low"
