{"events": {"event": [
    {
      "eventDateTime": "2016-08-25T08:30:00",
      "eventActual": "-5.1%",
      "eventCountry": "Hong Kong",
      "eventExpectedVolatility": "Low",
      "eventName": "Exports (MoM) (Jul)",
      "eventTimeZone": "GMT",
      "eventPrevious": "-1.0%",
      "eventCurrency": "HKD",
      "eventForecast": ""
    },
    {
      "eventDateTime": "2016-08-25T08:30:00",
      "eventActual": "-3.3%",
      "eventCountry": "Hong Kong",
      "eventExpectedVolatility": "Low",
      "eventName": "Imports (MoM) (Jul)",
      "eventTimeZone": "GMT",
      "eventPrevious": "-0.9%",
      "eventCurrency": "HKD",
      "eventForecast": ""
    },
    {
      "eventDateTime": "2016-08-25T08:30:00",
      "eventActual": "-33.3B",
      "eventCountry": "Hong Kong",
      "eventExpectedVolatility": "Low",
      "eventName": "Trade Balance",
      "eventTimeZone": "GMT",
      "eventPrevious": "-45.6B",
      "eventCurrency": "HKD",
      "eventForecast": ""
    }
  ]}}
