"GDP (MoM) (Oct)";"Canada";"CAD";"2017-12-22T13:30:00";"GMT";"0.2%";"0.2%";"0.0%";"High"
"GDP (YoY)";"Canada";"CAD";"2017-12-22T13:30:00";"GMT";"3.3%";"3.5%";"3.4%";"Moderate"
"Budget Balance (Oct)";"Canada";"CAD";"2017-12-22T16:00:00";"GMT";"-3.23B";"";"-0.35B";"Low"
"Budget Balance (YoY) (Oct)";"Canada";"CAD";"2017-12-22T16:00:00";"GMT";"-5.93B";"";"-6.28B";"Low"
"CFTC CAD speculative net positions";"Canada";"CAD";"2017-12-22T20:30:00";"GMT";"42.0K";"";"45.9K";"Low"
