"CPI (MoM) (Feb)";"Switzerland";"CHF";"2015-03-06T08:15:00";"GMT";"-0.4%";"-0.1%";"-0.3%";"Moderate"
"CPI (YoY) (Feb)";"Switzerland";"CHF";"2015-03-06T08:15:00";"GMT";"-0.5%";"-0.6%";"-0.8%";"Low"
"CFTC CHF speculative net positions";"Switzerland";"CHF";"2015-03-06T20:30:00";"GMT";"-5.1K";"";"-6.1K";"Low"
