{"events": {"event": [
    {
      "eventDateTime": "2015-08-13T00:00:00",
      "eventActual": "-3.4%",
      "eventCountry": "South Korea",
      "eventExpectedVolatility": "Low",
      "eventName": "Exports (YoY) (Jul)",
      "eventTimeZone": "GMT",
      "eventPrevious": "-3.3%",
      "eventCurrency": "KRW",
      "eventForecast": ""
    },
    {
      "eventDateTime": "2015-08-13T00:00:00",
      "eventActual": "-15.3%",
      "eventCountry": "South Korea",
      "eventExpectedVolatility": "Low",
      "eventName": "Imports (YoY) (Jul)",
      "eventTimeZone": "GMT",
      "eventPrevious": "-15.3%",
      "eventCurrency": "KRW",
      "eventForecast": ""
    },
    {
      "eventDateTime": "2015-08-13T00:00:00",
      "eventActual": "7.70B",
      "eventCountry": "South Korea",
      "eventExpectedVolatility": "Low",
      "eventName": "Trade Balance (Jul)",
      "eventTimeZone": "GMT",
      "eventPrevious": "7.80B",
      "eventCurrency": "KRW",
      "eventForecast": ""
    },
    {
      "eventDateTime": "2015-08-13T01:00:00",
      "eventActual": "1.50%",
      "eventCountry": "South Korea",
      "eventExpectedVolatility": "Low",
      "eventName": "Interest Rate Decision (Aug)",
      "eventTimeZone": "GMT",
      "eventPrevious": "1.50%",
      "eventCurrency": "KRW",
      "eventForecast": "1.50%"
    }
  ]}}
