{"events": {"event": {
    "eventDateTime": "2019-12-13T19:30:00",
    "eventActual": "20.7K",
    "eventCountry": "Canada",
    "eventExpectedVolatility": "Low",
    "eventName": "CFTC CAD speculative net positions",
    "eventTimeZone": "GMT",
    "eventPrevious": "21.5K",
    "eventCurrency": "CAD",
    "eventForecast": ""
  }}}
