"CPI (MoM) (Feb)";"China";"CNY";"2004-03-01T09:00:00";"GMT";"1.10%";"";"-0.20%";"Moderate"
"CPI (YoY) (Feb)";"China";"CNY";"2004-03-01T09:00:00";"GMT";"3.20%";"";"2.10%";"Moderate"
"Exports (YoY) (Feb)";"China";"CNY";"2004-03-01T09:00:00";"GMT";"20.00%";"";"39.30%";"Moderate"
"FDI (Feb)";"China";"CNY";"2004-03-01T09:00:00";"GMT";"13.62%";"";"10.28%";"Low"
"Fixed Asset Investment (YoY) (Feb)";"China";"CNY";"2004-03-01T09:00:00";"GMT";"28.40%";"";"53.00%";"Moderate"
"Imports (YoY) (Feb)";"China";"CNY";"2004-03-01T09:00:00";"GMT";"15.20%";"";"77.00%";"Moderate"
"Industrial Production (YoY) (Feb)";"China";"CNY";"2004-03-01T09:00:00";"GMT";"7.20%";"";"23.20%";"High"
"M2 Money Stock (YoY) (Feb)";"China";"CNY";"2004-03-01T09:00:00";"GMT";"18.10%";"";"19.40%";"Low"
"New Loans (Feb)";"China";"CNY";"2004-03-01T09:00:00";"GMT";"262.90B";"";"199.60B";"Moderate"
"Outstanding Loan Growth (YoY) (Feb)";"China";"CNY";"2004-03-01T09:00:00";"GMT";"20.10%";"";"20.70%";"Low"
"PBoC Deposit Rate (Feb)";"China";"CNY";"2004-03-01T09:00:00";"GMT";"1.98%";"";"1.98%";"Moderate"
"PBoC Interest Rate (Feb)";"China";"CNY";"2004-03-01T09:00:00";"GMT";"5.31%";"";"5.31%";"High"
"PBoC Reserve Requirement Ratio (Feb)";"China";"CNY";"2004-03-01T09:00:00";"GMT";"7.00%";"";"7.00%";"Moderate"
"PPI (YoY) (Feb)";"China";"CNY";"2004-03-01T09:00:00";"GMT";"3.50%";"";"3.50%";"Moderate"
"Retail Sales (YoY) (Feb)";"China";"CNY";"2004-03-01T09:00:00";"GMT";"11.80%";"";"9.20%";"Low"
"Trade Balance (USD) (Feb)";"China";"CNY";"2004-03-01T09:00:00";"GMT";"0.00B";"";"-7.97B";"Moderate"
