{"events": {"event": {
    "eventDateTime": "2014-06-30T12:30:00",
    "eventActual": "34.6%",
    "eventCountry": "Brazil",
    "eventExpectedVolatility": "Low",
    "eventName": "Debt-to-GDP ratio",
    "eventTimeZone": "GMT",
    "eventPrevious": "34.2%",
    "eventCurrency": "BRL",
    "eventForecast": "34.9%"
  }}}
