{"events": {"event": [
    {
      "eventDateTime": "2012-01-13T13:30:00",
      "eventActual": "1.1B",
      "eventCountry": "Canada",
      "eventExpectedVolatility": "Moderate",
      "eventName": "Trade Balance",
      "eventTimeZone": "GMT",
      "eventPrevious": "-0.5B",
      "eventCurrency": "CAD",
      "eventForecast": "-0.4B"
    },
    {
      "eventDateTime": "2012-01-13T20:30:00",
      "eventActual": "-28.6K",
      "eventCountry": "Canada",
      "eventExpectedVolatility": "Low",
      "eventName": "CFTC CAD speculative net positions",
      "eventTimeZone": "GMT",
      "eventPrevious": "-23.4K",
      "eventCurrency": "CAD",
      "eventForecast": ""
    }
  ]}}
