{"events": {"event": {
    "eventDateTime": "2012-07-13T19:30:00",
    "eventActual": "5.6K",
    "eventCountry": "New Zealand",
    "eventExpectedVolatility": "Low",
    "eventName": "CFTC NZD speculative net positions",
    "eventTimeZone": "GMT",
    "eventPrevious": "4.3K",
    "eventCurrency": "NZD",
    "eventForecast": ""
  }}}
