{"events": {"event": {
    "eventDateTime": "2015-07-28T07:00:00",
    "eventActual": "-4.2%",
    "eventCountry": "Russia",
    "eventExpectedVolatility": "Moderate",
    "eventName": "GDP Monthly (YoY) (Jun)",
    "eventTimeZone": "GMT",
    "eventPrevious": "-4.8%",
    "eventCurrency": "RUB",
    "eventForecast": "-4.2%"
  }}}
