{"events": {"event": [
    {
      "eventDateTime": "2018-08-23T12:30:00",
      "eventActual": "1,727K",
      "eventCountry": "United States",
      "eventExpectedVolatility": "Low",
      "eventName": "Continuing Jobless Claims",
      "eventTimeZone": "GMT",
      "eventPrevious": "1,729K",
      "eventCurrency": "USD",
      "eventForecast": "1,731K"
    },
    {
      "eventDateTime": "2018-08-23T12:30:00",
      "eventActual": "210K",
      "eventCountry": "United States",
      "eventExpectedVolatility": "Moderate",
      "eventName": "Initial Jobless Claims",
      "eventTimeZone": "GMT",
      "eventPrevious": "212K",
      "eventCurrency": "USD",
      "eventForecast": "215K"
    },
    {
      "eventDateTime": "2018-08-23T12:30:00",
      "eventActual": "213.75K",
      "eventCountry": "United States",
      "eventExpectedVolatility": "Low",
      "eventName": "Jobless Claims 4-Week Avg.",
      "eventTimeZone": "GMT",
      "eventPrevious": "215.50K",
      "eventCurrency": "USD",
      "eventForecast": ""
    },
    {
      "eventDateTime": "2018-08-23T13:00:00",
      "eventActual": "264.0",
      "eventCountry": "United States",
      "eventExpectedVolatility": "Low",
      "eventName": "House Price Index (Jun)",
      "eventTimeZone": "GMT",
      "eventPrevious": "263.6",
      "eventCurrency": "USD",
      "eventForecast": ""
    },
    {
      "eventDateTime": "2018-08-23T13:00:00",
      "eventActual": "0.2%",
      "eventCountry": "United States",
      "eventExpectedVolatility": "Low",
      "eventName": "House Price Index (MoM) (Jun)",
      "eventTimeZone": "GMT",
      "eventPrevious": "0.4%",
      "eventCurrency": "USD",
      "eventForecast": "0.3%"
    },
    {
      "eventDateTime": "2018-08-23T13:00:00",
      "eventActual": "6.5%",
      "eventCountry": "United States",
      "eventExpectedVolatility": "Low",
      "eventName": "House Price Index (YoY) (Jun)",
      "eventTimeZone": "GMT",
      "eventPrevious": "6.4%",
      "eventCurrency": "USD",
      "eventForecast": ""
    },
    {
      "eventDateTime": "2018-08-23T13:00:00",
      "eventActual": "",
      "eventCountry": "United States",
      "eventExpectedVolatility": "Moderate",
      "eventName": "Jackson Hole Symposium",
      "eventTimeZone": "GMT",
      "eventPrevious": "",
      "eventCurrency": "USD",
      "eventForecast": ""
    },
    {
      "eventDateTime": "2018-08-23T13:45:00",
      "eventActual": "54.5",
      "eventCountry": "United States",
      "eventExpectedVolatility": "Moderate",
      "eventName": "Manufacturing PMI (Aug)",
      "eventTimeZone": "GMT",
      "eventPrevious": "55.3",
      "eventCurrency": "USD",
      "eventForecast": "55.1"
    },
    {
      "eventDateTime": "2018-08-23T13:45:00",
      "eventActual": "55.0",
      "eventCountry": "United States",
      "eventExpectedVolatility": "Moderate",
      "eventName": "Markit Composite PMI",
      "eventTimeZone": "GMT",
      "eventPrevious": "55.7",
      "eventCurrency": "USD",
      "eventForecast": "56.3"
    },
    {
      "eventDateTime": "2018-08-23T13:45:00",
      "eventActual": "55.2",
      "eventCountry": "United States",
      "eventExpectedVolatility": "Moderate",
      "eventName": "Services PMI (Aug)",
      "eventTimeZone": "GMT",
      "eventPrevious": "56.0",
      "eventCurrency": "USD",
      "eventForecast": "55.9"
    },
    {
      "eventDateTime": "2018-08-23T14:00:00",
      "eventActual": "627K",
      "eventCountry": "United States",
      "eventExpectedVolatility": "High",
      "eventName": "New Home Sales (Jul)",
      "eventTimeZone": "GMT",
      "eventPrevious": "638K",
      "eventCurrency": "USD",
      "eventForecast": "643K"
    },
    {
      "eventDateTime": "2018-08-23T14:00:00",
      "eventActual": "-1.7%",
      "eventCountry": "United States",
      "eventExpectedVolatility": "Moderate",
      "eventName": "New Home Sales (MoM) (Jul)",
      "eventTimeZone": "GMT",
      "eventPrevious": "-2.4%",
      "eventCurrency": "USD",
      "eventForecast": "2.2%"
    },
    {
      "eventDateTime": "2018-08-23T14:30:00",
      "eventActual": "48B",
      "eventCountry": "United States",
      "eventExpectedVolatility": "Low",
      "eventName": "Natural Gas Storage",
      "eventTimeZone": "GMT",
      "eventPrevious": "33B",
      "eventCurrency": "USD",
      "eventForecast": "48B"
    },
    {
      "eventDateTime": "2018-08-23T15:00:00",
      "eventActual": "14",
      "eventCountry": "United States",
      "eventExpectedVolatility": "Low",
      "eventName": "KC Fed Composite Index (Aug)",
      "eventTimeZone": "GMT",
      "eventPrevious": "23",
      "eventCurrency": "USD",
      "eventForecast": ""
    },
    {
      "eventDateTime": "2018-08-23T15:00:00",
      "eventActual": "10",
      "eventCountry": "United States",
      "eventExpectedVolatility": "Low",
      "eventName": "KC Fed Manufacturing Index (Aug)",
      "eventTimeZone": "GMT",
      "eventPrevious": "22",
      "eventCurrency": "USD",
      "eventForecast": ""
    },
    {
      "eventDateTime": "2018-08-23T17:00:00",
      "eventActual": "0.724%",
      "eventCountry": "United States",
      "eventExpectedVolatility": "Low",
      "eventName": "5-Year TIPS Auction",
      "eventTimeZone": "GMT",
      "eventPrevious": "0.631%",
      "eventCurrency": "USD",
      "eventForecast": ""
    }
  ]}}
