"RBNZ Offshore Holdings (Dec)";"New Zealand";"NZD";"2016-01-18T02:00:00";"GMT";"64.10%";"";"63.80%";"Low"
"Investing.com NZD/USD Index";"New Zealand";"NZD";"2016-01-18T07:30:00";"GMT";"41.6%";"";"41.2%";"Moderate"
"NZIER Business Confidence (Q4)";"New Zealand";"NZD";"2016-01-18T21:00:00";"GMT";"-14%";"";"15%";"Moderate"
"NZIER QSBO Capacity Utilization (Q4)";"New Zealand";"NZD";"2016-01-18T21:00:00";"GMT";"91.4%";"";"93.2%";"Low"
