"Mid-Month CPI (MoM) (Mar)";"Brazil";"BRL";"2016-03-23T12:00:00";"GMT";"1.42%";"0.55%";"0.43%";"Low"
"Mid-Month CPI (YoY) (Mar)";"Brazil";"BRL";"2016-03-23T12:00:00";"GMT";"10.84%";"10.08%";"9.95%";"Low"
"Unemployment Rate (Feb)";"Brazil";"BRL";"2016-03-23T12:00:00";"GMT";"7.6%";"8.1%";"8.2%";"Moderate"
"Current Account (USD) (Feb)";"Brazil";"BRL";"2016-03-23T13:30:00";"GMT";"-4.82B";"-0.20B";"-1.92B";"Low"
"Foreign direct investment (USD) (Feb)";"Brazil";"BRL";"2016-03-23T13:30:00";"GMT";"5.46B";"5.00B";"5.92B";"Low"
"Foreign Exchange Flows";"Brazil";"BRL";"2016-03-23T15:30:00";"GMT";"0.19B";"";"-1.04B";"Low"
