{"events": {"event": [
    {
      "eventDateTime": "2016-03-23T12:00:00",
      "eventActual": "0.43%",
      "eventCountry": "Brazil",
      "eventExpectedVolatility": "Low",
      "eventName": "Mid-Month CPI (MoM) (Mar)",
      "eventTimeZone": "GMT",
      "eventPrevious": "1.42%",
      "eventCurrency": "BRL",
      "eventForecast": "0.55%"
    },
    {
      "eventDateTime": "2016-03-23T12:00:00",
      "eventActual": "9.95%",
      "eventCountry": "Brazil",
      "eventExpectedVolatility": "Low",
      "eventName": "Mid-Month CPI (YoY) (Mar)",
      "eventTimeZone": "GMT",
      "eventPrevious": "10.84%",
      "eventCurrency": "BRL",
      "eventForecast": "10.08%"
    },
    {
      "eventDateTime": "2016-03-23T12:00:00",
      "eventActual": "8.2%",
      "eventCountry": "Brazil",
      "eventExpectedVolatility": "Moderate",
      "eventName": "Unemployment Rate (Feb)",
      "eventTimeZone": "GMT",
      "eventPrevious": "7.6%",
      "eventCurrency": "BRL",
      "eventForecast": "8.1%"
    },
    {
      "eventDateTime": "2016-03-23T13:30:00",
      "eventActual": "-1.92B",
      "eventCountry": "Brazil",
      "eventExpectedVolatility": "Low",
      "eventName": "Current Account (USD) (Feb)",
      "eventTimeZone": "GMT",
      "eventPrevious": "-4.82B",
      "eventCurrency": "BRL",
      "eventForecast": "-0.20B"
    },
    {
      "eventDateTime": "2016-03-23T13:30:00",
      "eventActual": "5.92B",
      "eventCountry": "Brazil",
      "eventExpectedVolatility": "Low",
      "eventName": "Foreign direct investment (USD) (Feb)",
      "eventTimeZone": "GMT",
      "eventPrevious": "5.46B",
      "eventCurrency": "BRL",
      "eventForecast": "5.00B"
    },
    {
      "eventDateTime": "2016-03-23T15:30:00",
      "eventActual": "-1.04B",
      "eventCountry": "Brazil",
      "eventExpectedVolatility": "Low",
      "eventName": "Foreign Exchange Flows",
      "eventTimeZone": "GMT",
      "eventPrevious": "0.19B",
      "eventCurrency": "BRL",
      "eventForecast": ""
    }
  ]}}
