{"events": {"event": {
    "eventDateTime": "2013-11-04T23:50:00",
    "eventActual": "45.8%",
    "eventCountry": "Japan",
    "eventExpectedVolatility": "Low",
    "eventName": "Monetary Base (YoY)",
    "eventTimeZone": "GMT",
    "eventPrevious": "46.1%",
    "eventCurrency": "JPY",
    "eventForecast": "48.3%"
  }}}
