"Average Earnings ex Bonus (Jan)";"United Kingdom";"GBP";"2013-02-01T09:00:00";"GMT";"1.30%";"";"1.20%";"Low"
"Core PPI Output (MoM) (Jan)";"United Kingdom";"GBP";"2013-02-01T09:00:00";"GMT";"-0.20%";"";"0.30%";"Low"
"Core PPI Output (YoY) (Jan)";"United Kingdom";"GBP";"2013-02-01T09:00:00";"GMT";"0.40%";"";"0.80%";"Low"
"Core RPI (MoM) (Jan)";"United Kingdom";"GBP";"2013-02-01T09:00:00";"GMT";"0.40%";"";"-0.40%";"Low"
"Core RPI (YoY) (Jan)";"United Kingdom";"GBP";"2013-02-01T09:00:00";"GMT";"3.00%";"";"3.30%";"Low"
"Core Retail Sales (MoM) (Jan)";"United Kingdom";"GBP";"2013-02-01T09:00:00";"GMT";"-0.80%";"";"0.00%";"Moderate"
"Core Retail Sales (YoY) (Jan)";"United Kingdom";"GBP";"2013-02-01T09:00:00";"GMT";"0.60%";"";"-0.20%";"Moderate"
"Halifax House Price Index (YoY) (Jan)";"United Kingdom";"GBP";"2013-02-01T09:00:00";"GMT";"-0.30%";"";"1.30%";"Moderate"
"Manufacturing Production (YoY) (Jan)";"United Kingdom";"GBP";"2013-02-01T09:00:00";"GMT";"-1.70%";"";"-3.60%";"Low"
"Nationwide HPI (YoY) (Jan)";"United Kingdom";"GBP";"2013-02-01T09:00:00";"GMT";"-1.00%";"";"0.00%";"Moderate"
"Public Sector Net Cash Requirement (Jan)";"United Kingdom";"GBP";"2013-02-01T09:00:00";"GMT";"17.68B";"";"-29.22B";"Low"
"RPI (MoM) (Jan)";"United Kingdom";"GBP";"2013-02-01T09:00:00";"GMT";"0.50%";"";"-0.40%";"Low"
"Trade Balance Non-EU (Jan)";"United Kingdom";"GBP";"2013-02-01T09:00:00";"GMT";"-3.78B";"";"-3.12B";"Moderate"
"Manufacturing PMI";"United Kingdom";"GBP";"2013-02-01T09:30:00";"GMT";"51.2";"51.0";"50.8";"High"
"CFTC GBP speculative net positions";"United Kingdom";"GBP";"2013-02-01T20:30:00";"GMT";"17.9K";"";"10.6K";"Moderate"
