{"events": {"event": [
    {
      "eventDateTime": "2007-07-01T09:00:00",
      "eventActual": "0.40%",
      "eventCountry": "China",
      "eventExpectedVolatility": "Moderate",
      "eventName": "CPI (MoM) (Jun)",
      "eventTimeZone": "GMT",
      "eventPrevious": "0.30%",
      "eventCurrency": "CNY",
      "eventForecast": ""
    },
    {
      "eventDateTime": "2007-07-01T09:00:00",
      "eventActual": "4.40%",
      "eventCountry": "China",
      "eventExpectedVolatility": "Moderate",
      "eventName": "CPI (YoY) (Jun)",
      "eventTimeZone": "GMT",
      "eventPrevious": "3.40%",
      "eventCurrency": "CNY",
      "eventForecast": ""
    },
    {
      "eventDateTime": "2007-07-01T09:00:00",
      "eventActual": "27.20%",
      "eventCountry": "China",
      "eventExpectedVolatility": "Moderate",
      "eventName": "Exports (YoY) (Jun)",
      "eventTimeZone": "GMT",
      "eventPrevious": "28.70%",
      "eventCurrency": "CNY",
      "eventForecast": ""
    },
    {
      "eventDateTime": "2007-07-01T09:00:00",
      "eventActual": "12.17%",
      "eventCountry": "China",
      "eventExpectedVolatility": "Low",
      "eventName": "FDI (Jun)",
      "eventTimeZone": "GMT",
      "eventPrevious": "9.87%",
      "eventCurrency": "CNY",
      "eventForecast": ""
    },
    {
      "eventDateTime": "2007-07-01T09:00:00",
      "eventActual": "26.70%",
      "eventCountry": "China",
      "eventExpectedVolatility": "Moderate",
      "eventName": "Fixed Asset Investment (YoY) (Jun)",
      "eventTimeZone": "GMT",
      "eventPrevious": "25.90%",
      "eventCurrency": "CNY",
      "eventForecast": ""
    },
    {
      "eventDateTime": "2007-07-01T09:00:00",
      "eventActual": "14.20%",
      "eventCountry": "China",
      "eventExpectedVolatility": "Moderate",
      "eventName": "Imports (YoY) (Jun)",
      "eventTimeZone": "GMT",
      "eventPrevious": "19.10%",
      "eventCurrency": "CNY",
      "eventForecast": ""
    },
    {
      "eventDateTime": "2007-07-01T09:00:00",
      "eventActual": "19.40%",
      "eventCountry": "China",
      "eventExpectedVolatility": "High",
      "eventName": "Industrial Production (YoY) (Jun)",
      "eventTimeZone": "GMT",
      "eventPrevious": "18.10%",
      "eventCurrency": "CNY",
      "eventForecast": ""
    },
    {
      "eventDateTime": "2007-07-01T09:00:00",
      "eventActual": "17.10%",
      "eventCountry": "China",
      "eventExpectedVolatility": "Low",
      "eventName": "M2 Money Stock (YoY) (Jun)",
      "eventTimeZone": "GMT",
      "eventPrevious": "16.70%",
      "eventCurrency": "CNY",
      "eventForecast": ""
    },
    {
      "eventDateTime": "2007-07-01T09:00:00",
      "eventActual": "54.50",
      "eventCountry": "China",
      "eventExpectedVolatility": "High",
      "eventName": "Manufacturing PMI (Jun)",
      "eventTimeZone": "GMT",
      "eventPrevious": "55.70",
      "eventCurrency": "CNY",
      "eventForecast": ""
    },
    {
      "eventDateTime": "2007-07-01T09:00:00",
      "eventActual": "451.50B",
      "eventCountry": "China",
      "eventExpectedVolatility": "Moderate",
      "eventName": "New Loans (Jun)",
      "eventTimeZone": "GMT",
      "eventPrevious": "247.30B",
      "eventCurrency": "CNY",
      "eventForecast": ""
    },
    {
      "eventDateTime": "2007-07-01T09:00:00",
      "eventActual": "60.00",
      "eventCountry": "China",
      "eventExpectedVolatility": "Moderate",
      "eventName": "Non-Manufacturing PMI (Jun)",
      "eventTimeZone": "GMT",
      "eventPrevious": "62.20",
      "eventCurrency": "CNY",
      "eventForecast": ""
    },
    {
      "eventDateTime": "2007-07-01T09:00:00",
      "eventActual": "16.50%",
      "eventCountry": "China",
      "eventExpectedVolatility": "Low",
      "eventName": "Outstanding Loan Growth (YoY) (Jun)",
      "eventTimeZone": "GMT",
      "eventPrevious": "16.50%",
      "eventCurrency": "CNY",
      "eventForecast": ""
    },
    {
      "eventDateTime": "2007-07-01T09:00:00",
      "eventActual": "3.06%",
      "eventCountry": "China",
      "eventExpectedVolatility": "Moderate",
      "eventName": "PBoC Deposit Rate (Jun)",
      "eventTimeZone": "GMT",
      "eventPrevious": "2.90%",
      "eventCurrency": "CNY",
      "eventForecast": ""
    },
    {
      "eventDateTime": "2007-07-01T09:00:00",
      "eventActual": "11.45%",
      "eventCountry": "China",
      "eventExpectedVolatility": "Moderate",
      "eventName": "PBoC Reserve Requirement Ratio (Jun)",
      "eventTimeZone": "GMT",
      "eventPrevious": "10.78%",
      "eventCurrency": "CNY",
      "eventForecast": ""
    },
    {
      "eventDateTime": "2007-07-01T09:00:00",
      "eventActual": "2.50%",
      "eventCountry": "China",
      "eventExpectedVolatility": "Moderate",
      "eventName": "PPI (YoY) (Jun)",
      "eventTimeZone": "GMT",
      "eventPrevious": "2.80%",
      "eventCurrency": "CNY",
      "eventForecast": ""
    },
    {
      "eventDateTime": "2007-07-01T09:00:00",
      "eventActual": "16.00%",
      "eventCountry": "China",
      "eventExpectedVolatility": "Low",
      "eventName": "Retail Sales (YoY) (Jun)",
      "eventTimeZone": "GMT",
      "eventPrevious": "15.90%",
      "eventCurrency": "CNY",
      "eventForecast": ""
    },
    {
      "eventDateTime": "2007-07-01T09:00:00",
      "eventActual": "26.92B",
      "eventCountry": "China",
      "eventExpectedVolatility": "Moderate",
      "eventName": "Trade Balance (USD) (Jun)",
      "eventTimeZone": "GMT",
      "eventPrevious": "22.43B",
      "eventCurrency": "CNY",
      "eventForecast": ""
    }
  ]}}
