"Household Spending (MoM) (Feb)";"Japan";"JPY";"2015-03-26T23:30:00";"GMT";"-0.3%";"0.5%";"0.8%";"Moderate"
"Household Spending (YoY) (Feb)";"Japan";"JPY";"2015-03-26T23:30:00";"GMT";"-5.1%";"-3.2%";"-2.9%";"Moderate"
"Jobs/applications ratio (Feb)";"Japan";"JPY";"2015-03-26T23:30:00";"GMT";"1.14";"1.15";"1.15";"Moderate"
"National CPI (YoY) (Feb)";"Japan";"JPY";"2015-03-26T23:30:00";"GMT";"2.4%";"";"2.2%";"Low"
"National Core CPI (YoY) (Feb)";"Japan";"JPY";"2015-03-26T23:30:00";"GMT";"2.2%";"2.1%";"2.0%";"Moderate"
"Tokyo CPI (YoY) (Mar)";"Japan";"JPY";"2015-03-26T23:30:00";"GMT";"2.3%";"";"2.3%";"Low"
"Tokyo Core CPI (YoY) (Mar)";"Japan";"JPY";"2015-03-26T23:30:00";"GMT";"2.2%";"2.2%";"2.2%";"Moderate"
"Unemployment Rate (Feb)";"Japan";"JPY";"2015-03-26T23:30:00";"GMT";"3.6%";"3.5%";"3.5%";"Low"
"Retail Sales (YoY) (Feb)";"Japan";"JPY";"2015-03-26T23:50:00";"GMT";"-2.0%";"-1.5%";"-1.8%";"Moderate"
