{"events": {"event": {
    "eventDateTime": "2016-05-30T11:00:00",
    "eventActual": "0.82%",
    "eventCountry": "Brazil",
    "eventExpectedVolatility": "Low",
    "eventName": "IGP-M Inflation Index (MoM) (May)",
    "eventTimeZone": "GMT",
    "eventPrevious": "0.33%",
    "eventCurrency": "BRL",
    "eventForecast": "0.75%"
  }}}
