"Fixed Asset Investment (YoY) (Jan)";"China";"CNY";"2017-03-14T02:00:00";"GMT";"8.1%";"8.2%";"8.9%";"Moderate"
"Industrial Production (YoY) (Jan)";"China";"CNY";"2017-03-14T02:00:00";"GMT";"6.0%";"6.2%";"6.3%";"High"
"Retail Sales (YoY) (Jan)";"China";"CNY";"2017-03-14T02:00:00";"GMT";"10.9%";"10.5%";"9.5%";"Low"
