"Average Hourly Earnings (MoM) (Jul)";"United States";"USD";"2016-08-05T12:30:00";"GMT";"0.1%";"0.2%";"0.3%";"Moderate"
"Average Weekly Hours (Jul)";"United States";"USD";"2016-08-05T12:30:00";"GMT";"34.4";"34.4";"34.5";"Low"
"Government Payrolls (Jul)";"United States";"USD";"2016-08-05T12:30:00";"GMT";"33.0K";"";"38.0K";"Low"
"Manufacturing Payrolls (Jul)";"United States";"USD";"2016-08-05T12:30:00";"GMT";"15.0K";"4.0K";"9.0K";"Low"
"Nonfarm Payrolls (Jul)";"United States";"USD";"2016-08-05T12:30:00";"GMT";"292K";"180K";"255K";"High"
"Participation Rate (Jul)";"United States";"USD";"2016-08-05T12:30:00";"GMT";"62.7%";"";"62.8%";"Moderate"
"Private Nonfarm Payrolls (Jul)";"United States";"USD";"2016-08-05T12:30:00";"GMT";"259K";"170K";"217K";"Moderate"
"Trade Balance (Jun)";"United States";"USD";"2016-08-05T12:30:00";"GMT";"-40.96B";"-43.10B";"-44.51B";"Moderate"
"U6 Unemployment Rate (Jul)";"United States";"USD";"2016-08-05T12:30:00";"GMT";"9.6%";"";"9.7%";"Low"
"Unemployment Rate (Jul)";"United States";"USD";"2016-08-05T12:30:00";"GMT";"4.9%";"4.8%";"4.9%";"High"
"Dallas Fed PCE (Jun)";"United States";"USD";"2016-08-05T15:00:00";"GMT";"1.90%";"";"1.00%";"Low"
"U.S. Baker Hughes Oil Rig Count";"United States";"USD";"2016-08-05T17:00:00";"GMT";"374";"";"381";"Moderate"
"Consumer Credit (Jun)";"United States";"USD";"2016-08-05T19:00:00";"GMT";"17.91B";"17.00B";"12.32B";"Low"
"CFTC Copper speculative net positions";"United States";"USD";"2016-08-05T19:30:00";"GMT";"4.8K";"";"2.7K";"Low"
"CFTC Crude Oil speculative net positions";"United States";"USD";"2016-08-05T19:30:00";"GMT";"273.3K";"";"267.2K";"Moderate"
"CFTC Gold speculative net positions";"United States";"USD";"2016-08-05T19:30:00";"GMT";"279.0K";"";"294.2K";"Moderate"
"CFTC Sandamp:P 500 speculative net positions";"United States";"USD";"2016-08-05T19:30:00";"GMT";"162.1K";"";"111.3K";"Moderate"
"CFTC Silver speculative net positions";"United States";"USD";"2016-08-05T19:30:00";"GMT";"96.1K";"";"93.4K";"Low"
