{"events": {"event": [
    {
      "eventDateTime": "2018-05-07T05:30:00",
      "eventActual": "61.3%",
      "eventCountry": "Euro Zone",
      "eventExpectedVolatility": "Moderate",
      "eventName": "Investing.com EUR/USD Index",
      "eventTimeZone": "GMT",
      "eventPrevious": "57.6%",
      "eventCurrency": "EUR",
      "eventForecast": ""
    },
    {
      "eventDateTime": "2018-05-07T06:00:00",
      "eventActual": "-0.9%",
      "eventCountry": "Germany",
      "eventExpectedVolatility": "Moderate",
      "eventName": "German Factory Orders (MoM) (Mar)",
      "eventTimeZone": "GMT",
      "eventPrevious": "-0.2%",
      "eventCurrency": "EUR",
      "eventForecast": "0.5%"
    },
    {
      "eventDateTime": "2018-05-07T08:10:00",
      "eventActual": "48.6",
      "eventCountry": "Euro Zone",
      "eventExpectedVolatility": "Low",
      "eventName": "Retail PMI",
      "eventTimeZone": "GMT",
      "eventPrevious": "50.1",
      "eventCurrency": "EUR",
      "eventForecast": ""
    },
    {
      "eventDateTime": "2018-05-07T08:30:00",
      "eventActual": "19.2",
      "eventCountry": "Euro Zone",
      "eventExpectedVolatility": "Low",
      "eventName": "Sentix Investor Confidence (May)",
      "eventTimeZone": "GMT",
      "eventPrevious": "19.6",
      "eventCurrency": "EUR",
      "eventForecast": "21.2"
    },
    {
      "eventDateTime": "2018-05-07T13:00:00",
      "eventActual": "-0.560%",
      "eventCountry": "France",
      "eventExpectedVolatility": "Low",
      "eventName": "French 12-Month BTF Auction",
      "eventTimeZone": "GMT",
      "eventPrevious": "-0.550%",
      "eventCurrency": "EUR",
      "eventForecast": ""
    },
    {
      "eventDateTime": "2018-05-07T13:00:00",
      "eventActual": "-0.563%",
      "eventCountry": "France",
      "eventExpectedVolatility": "Low",
      "eventName": "French 3-Month BTF Auction",
      "eventTimeZone": "GMT",
      "eventPrevious": "-0.579%",
      "eventCurrency": "EUR",
      "eventForecast": ""
    },
    {
      "eventDateTime": "2018-05-07T13:00:00",
      "eventActual": "-0.563%",
      "eventCountry": "France",
      "eventExpectedVolatility": "Low",
      "eventName": "French 6-Month BTF Auction",
      "eventTimeZone": "GMT",
      "eventPrevious": "-0.567%",
      "eventCurrency": "EUR",
      "eventForecast": ""
    },
    {
      "eventDateTime": "2018-05-07T16:30:00",
      "eventActual": "",
      "eventCountry": "Euro Zone",
      "eventExpectedVolatility": "Moderate",
      "eventName": "ECB's Praet Speaks",
      "eventTimeZone": "GMT",
      "eventPrevious": "",
      "eventCurrency": "EUR",
      "eventForecast": ""
    }
  ]}}
