"Continuing Jobless Claims";"United States";"USD";"2016-01-28T13:30:00";"GMT";"2,219K";"2,217K";"2,268K";"Low"
"Core Durable Goods Orders (MoM) (Dec)";"United States";"USD";"2016-01-28T13:30:00";"GMT";"-0.5%";"-0.1%";"-1.2%";"High"
"Durable Goods Orders (MoM) (Dec)";"United States";"USD";"2016-01-28T13:30:00";"GMT";"-0.5%";"-0.6%";"-5.1%";"Moderate"
"Durables Excluding Defense (MoM) (Dec)";"United States";"USD";"2016-01-28T13:30:00";"GMT";"-2.0%";"";"-2.9%";"Low"
"Goods Orders Non Defense Ex Air (MoM) (Dec)";"United States";"USD";"2016-01-28T13:30:00";"GMT";"-1.1%";"-0.2%";"-4.3%";"Low"
"Initial Jobless Claims";"United States";"USD";"2016-01-28T13:30:00";"GMT";"294K";"282K";"278K";"Moderate"
"Jobless Claims 4-Week Avg.";"United States";"USD";"2016-01-28T13:30:00";"GMT";"285.25K";"";"283.00K";"Low"
"Bloomberg Consumer Confidence";"United States";"USD";"2016-01-28T14:50:00";"GMT";"44.0";"";"44.6";"Low"
"Pending Home Sales (MoM) (Dec)";"United States";"USD";"2016-01-28T15:00:00";"GMT";"-1.1%";"0.8%";"0.1%";"High"
"Pending Home Sales Index (Dec)";"United States";"USD";"2016-01-28T15:00:00";"GMT";"106.7";"";"106.8";"Low"
"Natural Gas Storage";"United States";"USD";"2016-01-28T15:30:00";"GMT";"-178B";"-207B";"-211B";"Low"
"KC Fed Composite Index (Jan)";"United States";"USD";"2016-01-28T16:00:00";"GMT";"-9";"-10";"-9";"Low"
"KC Fed Manufacturing Index (Jan)";"United States";"USD";"2016-01-28T16:00:00";"GMT";"-8";"";"-8";"Low"
"7-Year Note Auction";"United States";"USD";"2016-01-28T18:00:00";"GMT";"2.161%";"";"1.759%";"Low"
