"Business Confidence (Feb)";"South Africa";"ZAR";"2007-03-01T09:00:00";"GMT";"119.70";"";"118.60";"Low"
"CPI (MoM) (Feb)";"South Africa";"ZAR";"2007-03-01T09:00:00";"GMT";"0.74%";"";"-0.15%";"Moderate"
"CPI (YoY) (Feb)";"South Africa";"ZAR";"2007-03-01T09:00:00";"GMT";"6.04%";"";"5.72%";"Low"
"Foreign Reserves (USD) (Feb)";"South Africa";"ZAR";"2007-03-01T09:00:00";"GMT";"25.88B";"";"26.34B";"Low"
"Gold Production (YoY) (Feb)";"South Africa";"ZAR";"2007-03-01T09:00:00";"GMT";"-4.91%";"";"-1.51%";"Low"
"Interest Rate Decision (Feb)";"South Africa";"ZAR";"2007-03-01T09:00:00";"GMT";"9.00%";"";"9.00%";"Moderate"
"M3 Money Supply (YoY) (Feb)";"South Africa";"ZAR";"2007-03-01T09:00:00";"GMT";"22.05%";"";"23.01%";"Low"
"Mining Production (Feb)";"South Africa";"ZAR";"2007-03-01T09:00:00";"GMT";"3.31%";"";"5.65%";"Low"
"Net FX Reserves (USD) (Feb)";"South Africa";"ZAR";"2007-03-01T09:00:00";"GMT";"23.28B";"";"23.74B";"Low"
"Prime Rate (Feb)";"South Africa";"ZAR";"2007-03-01T09:00:00";"GMT";"12.50%";"";"12.50%";"Low"
"Private Sector Credit (Feb)";"South Africa";"ZAR";"2007-03-01T09:00:00";"GMT";"24.81%";"";"26.10%";"Low"
"Retail Sales (YoY) (Feb)";"South Africa";"ZAR";"2007-03-01T09:00:00";"GMT";"11.40%";"";"8.60%";"Low"
"Total Vehicle Sales (Feb)";"South Africa";"ZAR";"2007-03-01T09:00:00";"GMT";"58.07K";"";"59.91K";"Low"
"Total Vehicle Sales (YoY) (Feb)";"South Africa";"ZAR";"2007-03-01T09:00:00";"GMT";"8.50%";"";"9.50%";"Low"
