{"events": {"event": [
    {
      "eventDateTime": "2012-05-11T12:30:00",
      "eventActual": "58.2K",
      "eventCountry": "Canada",
      "eventExpectedVolatility": "High",
      "eventName": "Employment Change",
      "eventTimeZone": "GMT",
      "eventPrevious": "82.3K",
      "eventCurrency": "CAD",
      "eventForecast": "7.0K"
    },
    {
      "eventDateTime": "2012-05-11T12:30:00",
      "eventActual": "66.80%",
      "eventCountry": "Canada",
      "eventExpectedVolatility": "Low",
      "eventName": "Participation Rate",
      "eventTimeZone": "GMT",
      "eventPrevious": "66.60%",
      "eventCurrency": "CAD",
      "eventForecast": ""
    },
    {
      "eventDateTime": "2012-05-11T12:30:00",
      "eventActual": "7.3%",
      "eventCountry": "Canada",
      "eventExpectedVolatility": "Moderate",
      "eventName": "Unemployment Rate",
      "eventTimeZone": "GMT",
      "eventPrevious": "7.2%",
      "eventCurrency": "CAD",
      "eventForecast": "7.0%"
    },
    {
      "eventDateTime": "2012-05-11T19:30:00",
      "eventActual": "60.1K",
      "eventCountry": "Canada",
      "eventExpectedVolatility": "Low",
      "eventName": "CFTC CAD speculative net positions",
      "eventTimeZone": "GMT",
      "eventPrevious": "70.2K",
      "eventCurrency": "CAD",
      "eventForecast": ""
    }
  ]}}
