{"events": {"event": {
    "eventDateTime": "2017-12-18T06:30:00",
    "eventActual": "63.4%",
    "eventCountry": "Japan",
    "eventExpectedVolatility": "Moderate",
    "eventName": "Investing.com USD/JPY Index",
    "eventTimeZone": "GMT",
    "eventPrevious": "60.1%",
    "eventCurrency": "JPY",
    "eventForecast": ""
  }}}
