"MBA 30-Year Mortgage Rate";"United States";"USD";"2019-05-01T11:00:00";"GMT";"4.46%";"";"4.42%";"Low"
"MBA Mortgage Applications (WoW)";"United States";"USD";"2019-05-01T11:00:00";"GMT";"-7.3%";"";"-4.3%";"Low"
"MBA Purchase Index";"United States";"USD";"2019-05-01T11:00:00";"GMT";"269.3";"";"259.4";"Low"
"Mortgage Market Index";"United States";"USD";"2019-05-01T11:00:00";"GMT";"425.6";"";"407.2";"Low"
"Mortgage Refinance Index";"United States";"USD";"2019-05-01T11:00:00";"GMT";"1,293.0";"";"1,228.3";"Low"
"ADP Nonfarm Employment Change (Apr)";"United States";"USD";"2019-05-01T12:15:00";"GMT";"151K";"181K";"275K";"High"
"Manufacturing PMI (Apr)";"United States";"USD";"2019-05-01T13:45:00";"GMT";"52.4";"52.4";"52.6";"Moderate"
"Construction Spending (MoM) (Mar)";"United States";"USD";"2019-05-01T14:00:00";"GMT";"1.0%";"0.3%";"-0.9%";"Low"
"ISM Manufacturing Employment (Apr)";"United States";"USD";"2019-05-01T14:00:00";"GMT";"57.5";"55.8";"52.4";"Moderate"
"ISM Manufacturing New Orders Index (Apr)";"United States";"USD";"2019-05-01T14:00:00";"GMT";"57.4";"";"51.7";"Low"
"ISM Manufacturing PMI (Apr)";"United States";"USD";"2019-05-01T14:00:00";"GMT";"55.3";"55.0";"52.8";"High"
"ISM Manufacturing Prices (Apr)";"United States";"USD";"2019-05-01T14:00:00";"GMT";"54.3";"54.5";"50.0";"Low"
"Crude Oil Imports";"United States";"USD";"2019-05-01T14:30:00";"GMT";"0.877M";"";"0.335M";"Low"
"Crude Oil Inventories";"United States";"USD";"2019-05-01T14:30:00";"GMT";"5.479M";"1.485M";"9.900M";"High"
"Cushing Crude Oil Inventories";"United States";"USD";"2019-05-01T14:30:00";"GMT";"0.463M";"";"0.265M";"Moderate"
"Distillate Fuel Production";"United States";"USD";"2019-05-01T14:30:00";"GMT";"0.241M";"";"0.064M";"Low"
"EIA Weekly Distillates Stocks";"United States";"USD";"2019-05-01T14:30:00";"GMT";"-0.662M";"-0.193M";"-1.307M";"Low"
"Gasoline Inventories";"United States";"USD";"2019-05-01T14:30:00";"GMT";"-2.129M";"-1.005M";"0.917M";"Low"
"Gasoline Production";"United States";"USD";"2019-05-01T14:30:00";"GMT";"-0.136M";"";"0.146M";"Low"
"Heating Oil Stockpiles";"United States";"USD";"2019-05-01T14:30:00";"GMT";"-0.288M";"";"-0.691M";"Low"
"FOMC Statement";"United States";"USD";"2019-05-01T18:00:00";"GMT";" ";"";"";"High"
"Fed Interest Rate Decision";"United States";"USD";"2019-05-01T18:00:00";"GMT";"2.50%";"2.50%";"2.50%";"High"
"FOMC Press Conference";"United States";"USD";"2019-05-01T18:30:00";"GMT";" ";"";"";"High"
