{"events": {"event": {
    "eventDateTime": "2009-03-06T20:30:00",
    "eventActual": "-6.8K",
    "eventCountry": "New Zealand",
    "eventExpectedVolatility": "Low",
    "eventName": "CFTC NZD speculative net positions",
    "eventTimeZone": "GMT",
    "eventPrevious": "-5.9K",
    "eventCurrency": "NZD",
    "eventForecast": ""
  }}}
