{"events": {"event": {
    "eventDateTime": "2014-09-05T19:30:00",
    "eventActual": "10.2K",
    "eventCountry": "New Zealand",
    "eventExpectedVolatility": "Low",
    "eventName": "CFTC NZD speculative net positions",
    "eventTimeZone": "GMT",
    "eventPrevious": "11.8K",
    "eventCurrency": "NZD",
    "eventForecast": ""
  }}}
