"30-Year JGB Auction";"Japan";"JPY";"2016-12-08T03:45:00";"GMT";"0.511%";"";"0.617%";"Low"
"Economy Watchers Current Index (Nov)";"Japan";"JPY";"2016-12-08T05:00:00";"GMT";"49.3";"45.6";"52.5";"Low"
"BSI Large Manufacturing Conditions (Q4)";"Japan";"JPY";"2016-12-08T23:50:00";"GMT";"2.9";"3.4";"7.5";"Moderate"
"M2 Money Stock (YoY)";"Japan";"JPY";"2016-12-08T23:50:00";"GMT";"3.7%";"3.7%";"4.0%";"Low"
