"IPPI (MoM)";"Canada";"CAD";"2011-05-31T12:30:00";"GMT";"1.0%";"0.7%";"0.5%";"Low"
"RMPI (MoM)";"Canada";"CAD";"2011-05-31T12:30:00";"GMT";"5.8%";"4.3%";"6.8%";"Moderate"
"BoC Interest Rate Decision";"Canada";"CAD";"2011-05-31T13:00:00";"GMT";"1.00%";"1.00%";"1.00%";"High"
