{"events": {"event": [
    {
      "eventDateTime": "2015-04-20T05:30:00",
      "eventActual": "51.6%",
      "eventCountry": "Canada",
      "eventExpectedVolatility": "Moderate",
      "eventName": "Investing.com USD/CAD Index",
      "eventTimeZone": "GMT",
      "eventPrevious": "48.5%",
      "eventCurrency": "CAD",
      "eventForecast": ""
    },
    {
      "eventDateTime": "2015-04-20T14:05:00",
      "eventActual": "",
      "eventCountry": "Canada",
      "eventExpectedVolatility": "High",
      "eventName": "BoC Gov Poloz Speaks",
      "eventTimeZone": "GMT",
      "eventPrevious": "",
      "eventCurrency": "CAD",
      "eventForecast": ""
    }
  ]}}
