{"events": {"event": [
    {
      "eventDateTime": "2004-12-01T09:00:00",
      "eventActual": "-16.80%",
      "eventCountry": "New Zealand",
      "eventExpectedVolatility": "Moderate",
      "eventName": "ANZ Business Confidence (Nov)",
      "eventTimeZone": "GMT",
      "eventPrevious": "-21.10%",
      "eventCurrency": "NZD",
      "eventForecast": ""
    },
    {
      "eventDateTime": "2004-12-01T09:00:00",
      "eventActual": "-14.20%",
      "eventCountry": "New Zealand",
      "eventExpectedVolatility": "Moderate",
      "eventName": "Building Consents (MoM) (Nov)",
      "eventTimeZone": "GMT",
      "eventPrevious": "24.50%",
      "eventCurrency": "NZD",
      "eventForecast": ""
    },
    {
      "eventDateTime": "2004-12-01T09:00:00",
      "eventActual": "2.20%",
      "eventCountry": "New Zealand",
      "eventExpectedVolatility": "Moderate",
      "eventName": "Electronic Card Retail Sales (MoM) (Nov)",
      "eventTimeZone": "GMT",
      "eventPrevious": "0.00%",
      "eventCurrency": "NZD",
      "eventForecast": ""
    },
    {
      "eventDateTime": "2004-12-01T09:00:00",
      "eventActual": "9.10%",
      "eventCountry": "New Zealand",
      "eventExpectedVolatility": "Low",
      "eventName": "Electronic Card Retail Sales (YoY) (Nov)",
      "eventTimeZone": "GMT",
      "eventPrevious": "9.00%",
      "eventCurrency": "NZD",
      "eventForecast": ""
    },
    {
      "eventDateTime": "2004-12-01T09:00:00",
      "eventActual": "2.61B",
      "eventCountry": "New Zealand",
      "eventExpectedVolatility": "Low",
      "eventName": "Exports (Nov)",
      "eventTimeZone": "GMT",
      "eventPrevious": "2.49B",
      "eventCurrency": "NZD",
      "eventForecast": ""
    },
    {
      "eventDateTime": "2004-12-01T09:00:00",
      "eventActual": "4.19%",
      "eventCountry": "New Zealand",
      "eventExpectedVolatility": "Low",
      "eventName": "External Migration andamp; Visitors (Nov)",
      "eventTimeZone": "GMT",
      "eventPrevious": "9.38%",
      "eventCurrency": "NZD",
      "eventForecast": ""
    },
    {
      "eventDateTime": "2004-12-01T09:00:00",
      "eventActual": "-0.10%",
      "eventCountry": "New Zealand",
      "eventExpectedVolatility": "Low",
      "eventName": "FPI (MoM) (Nov)",
      "eventTimeZone": "GMT",
      "eventPrevious": "0.00%",
      "eventCurrency": "NZD",
      "eventForecast": ""
    },
    {
      "eventDateTime": "2004-12-01T09:00:00",
      "eventActual": "9.80%",
      "eventCountry": "New Zealand",
      "eventExpectedVolatility": "Low",
      "eventName": "Government Monthly Debt (Nov)",
      "eventTimeZone": "GMT",
      "eventPrevious": "10.10%",
      "eventCurrency": "NZD",
      "eventForecast": ""
    },
    {
      "eventDateTime": "2004-12-01T09:00:00",
      "eventActual": "3.30B",
      "eventCountry": "New Zealand",
      "eventExpectedVolatility": "Low",
      "eventName": "Imports (Nov)",
      "eventTimeZone": "GMT",
      "eventPrevious": "3.03B",
      "eventCurrency": "NZD",
      "eventForecast": ""
    },
    {
      "eventDateTime": "2004-12-01T09:00:00",
      "eventActual": "25.40%",
      "eventCountry": "New Zealand",
      "eventExpectedVolatility": "Low",
      "eventName": "NBNZ Own Activity (Nov)",
      "eventTimeZone": "GMT",
      "eventPrevious": "25.10%",
      "eventCurrency": "NZD",
      "eventForecast": ""
    },
    {
      "eventDateTime": "2004-12-01T09:00:00",
      "eventActual": "520.00",
      "eventCountry": "New Zealand",
      "eventExpectedVolatility": "Low",
      "eventName": "Permanent/Long-Term Migration (Nov)",
      "eventTimeZone": "GMT",
      "eventPrevious": "1,090.00",
      "eventCurrency": "NZD",
      "eventForecast": ""
    },
    {
      "eventDateTime": "2004-12-01T09:00:00",
      "eventActual": "6.50%",
      "eventCountry": "New Zealand",
      "eventExpectedVolatility": "High",
      "eventName": "RBNZ Interest Rate Decision (Nov)",
      "eventTimeZone": "GMT",
      "eventPrevious": "6.27%",
      "eventCurrency": "NZD",
      "eventForecast": ""
    },
    {
      "eventDateTime": "2004-12-01T09:00:00",
      "eventActual": "50.90%",
      "eventCountry": "New Zealand",
      "eventExpectedVolatility": "Low",
      "eventName": "RBNZ Offshore Holdings (Nov)",
      "eventTimeZone": "GMT",
      "eventPrevious": "50.30%",
      "eventCurrency": "NZD",
      "eventForecast": ""
    },
    {
      "eventDateTime": "2004-12-01T09:00:00",
      "eventActual": "1.50%",
      "eventCountry": "New Zealand",
      "eventExpectedVolatility": "Low",
      "eventName": "REINZ House Price Index (MoM) (Nov)",
      "eventTimeZone": "GMT",
      "eventPrevious": "2.30%",
      "eventCurrency": "NZD",
      "eventForecast": ""
    },
    {
      "eventDateTime": "2004-12-01T09:00:00",
      "eventActual": "13.00%",
      "eventCountry": "New Zealand",
      "eventExpectedVolatility": "Low",
      "eventName": "REINZ House Price Index (YoY) (Nov)",
      "eventTimeZone": "GMT",
      "eventPrevious": "13.00%",
      "eventCurrency": "NZD",
      "eventForecast": ""
    },
    {
      "eventDateTime": "2004-12-01T09:00:00",
      "eventActual": "-685.40M",
      "eventCountry": "New Zealand",
      "eventExpectedVolatility": "Moderate",
      "eventName": "Trade Balance (MoM) (Nov)",
      "eventTimeZone": "GMT",
      "eventPrevious": "-536.00M",
      "eventCurrency": "NZD",
      "eventForecast": ""
    },
    {
      "eventDateTime": "2004-12-01T09:00:00",
      "eventActual": "-4,190.00M",
      "eventCountry": "New Zealand",
      "eventExpectedVolatility": "Moderate",
      "eventName": "Trade Balance (YoY) (Nov)",
      "eventTimeZone": "GMT",
      "eventPrevious": "-3,890.00M",
      "eventCurrency": "NZD",
      "eventForecast": ""
    }
  ]}}
