{"events": {"event": [
    {
      "eventDateTime": "2013-11-01T09:00:00",
      "eventActual": "-12.83B",
      "eventCountry": "Canada",
      "eventExpectedVolatility": "Low",
      "eventName": "Budget Balance (YoY) (Oct)",
      "eventTimeZone": "GMT",
      "eventPrevious": "-10.35B",
      "eventCurrency": "CAD",
      "eventForecast": ""
    },
    {
      "eventDateTime": "2013-11-01T09:00:00",
      "eventActual": "64.20",
      "eventCountry": "Canada",
      "eventExpectedVolatility": "Low",
      "eventName": "Ivey PMI n.s.a (Oct)",
      "eventTimeZone": "GMT",
      "eventPrevious": "59.40",
      "eventCurrency": "CAD",
      "eventForecast": ""
    },
    {
      "eventDateTime": "2013-11-01T13:30:00",
      "eventActual": "55.6",
      "eventCountry": "Canada",
      "eventExpectedVolatility": "Low",
      "eventName": "RBC Manufacturing PMI",
      "eventTimeZone": "GMT",
      "eventPrevious": "54.2",
      "eventCurrency": "CAD",
      "eventForecast": ""
    },
    {
      "eventDateTime": "2013-11-01T19:30:00",
      "eventActual": "-15.2K",
      "eventCountry": "Canada",
      "eventExpectedVolatility": "Low",
      "eventName": "CFTC CAD speculative net positions",
      "eventTimeZone": "GMT",
      "eventPrevious": "-5.4K",
      "eventCurrency": "CAD",
      "eventForecast": ""
    }
  ]}}
