{"events": {"event": [
    {
      "eventDateTime": "2018-10-03T10:30:00",
      "eventActual": "",
      "eventCountry": "United States",
      "eventExpectedVolatility": "Low",
      "eventName": "Chicago Fed President Evans Speaks",
      "eventTimeZone": "GMT",
      "eventPrevious": "",
      "eventCurrency": "USD",
      "eventForecast": ""
    },
    {
      "eventDateTime": "2018-10-03T11:00:00",
      "eventActual": "4.96%",
      "eventCountry": "United States",
      "eventExpectedVolatility": "Low",
      "eventName": "MBA 30-Year Mortgage Rate",
      "eventTimeZone": "GMT",
      "eventPrevious": "4.97%",
      "eventCurrency": "USD",
      "eventForecast": ""
    },
    {
      "eventDateTime": "2018-10-03T11:00:00",
      "eventActual": "0.0%",
      "eventCountry": "United States",
      "eventExpectedVolatility": "Low",
      "eventName": "MBA Mortgage Applications (WoW)",
      "eventTimeZone": "GMT",
      "eventPrevious": "2.9%",
      "eventCurrency": "USD",
      "eventForecast": ""
    },
    {
      "eventDateTime": "2018-10-03T11:00:00",
      "eventActual": "240.7",
      "eventCountry": "United States",
      "eventExpectedVolatility": "Low",
      "eventName": "MBA Purchase Index",
      "eventTimeZone": "GMT",
      "eventPrevious": "240.4",
      "eventCurrency": "USD",
      "eventForecast": ""
    },
    {
      "eventDateTime": "2018-10-03T11:00:00",
      "eventActual": "352.6",
      "eventCountry": "United States",
      "eventExpectedVolatility": "Low",
      "eventName": "Mortgage Market Index",
      "eventTimeZone": "GMT",
      "eventPrevious": "352.5",
      "eventCurrency": "USD",
      "eventForecast": ""
    },
    {
      "eventDateTime": "2018-10-03T11:00:00",
      "eventActual": "945.9",
      "eventCountry": "United States",
      "eventExpectedVolatility": "Low",
      "eventName": "Mortgage Refinance Index",
      "eventTimeZone": "GMT",
      "eventPrevious": "946.8",
      "eventCurrency": "USD",
      "eventForecast": ""
    },
    {
      "eventDateTime": "2018-10-03T12:05:00",
      "eventActual": "",
      "eventCountry": "United States",
      "eventExpectedVolatility": "Low",
      "eventName": "FOMC Member Barkin Speaks",
      "eventTimeZone": "GMT",
      "eventPrevious": "",
      "eventCurrency": "USD",
      "eventForecast": ""
    },
    {
      "eventDateTime": "2018-10-03T12:15:00",
      "eventActual": "230K",
      "eventCountry": "United States",
      "eventExpectedVolatility": "High",
      "eventName": "ADP Nonfarm Employment Change (Sep)",
      "eventTimeZone": "GMT",
      "eventPrevious": "168K",
      "eventCurrency": "USD",
      "eventForecast": "187K"
    },
    {
      "eventDateTime": "2018-10-03T13:45:00",
      "eventActual": "53.9",
      "eventCountry": "United States",
      "eventExpectedVolatility": "Moderate",
      "eventName": "Markit Composite PMI (Sep)",
      "eventTimeZone": "GMT",
      "eventPrevious": "53.4",
      "eventCurrency": "USD",
      "eventForecast": "53.4"
    },
    {
      "eventDateTime": "2018-10-03T13:45:00",
      "eventActual": "53.5",
      "eventCountry": "United States",
      "eventExpectedVolatility": "Moderate",
      "eventName": "Services PMI (Sep)",
      "eventTimeZone": "GMT",
      "eventPrevious": "52.9",
      "eventCurrency": "USD",
      "eventForecast": "52.9"
    },
    {
      "eventDateTime": "2018-10-03T14:00:00",
      "eventActual": "65.2",
      "eventCountry": "United States",
      "eventExpectedVolatility": "Low",
      "eventName": "ISM Non-Manufacturing Business Activity (Sep)",
      "eventTimeZone": "GMT",
      "eventPrevious": "60.7",
      "eventCurrency": "USD",
      "eventForecast": "60.3"
    },
    {
      "eventDateTime": "2018-10-03T14:00:00",
      "eventActual": "62.4",
      "eventCountry": "United States",
      "eventExpectedVolatility": "Moderate",
      "eventName": "ISM Non-Manufacturing Employment (Sep)",
      "eventTimeZone": "GMT",
      "eventPrevious": "56.7",
      "eventCurrency": "USD",
      "eventForecast": ""
    },
    {
      "eventDateTime": "2018-10-03T14:00:00",
      "eventActual": "61.6",
      "eventCountry": "United States",
      "eventExpectedVolatility": "Low",
      "eventName": "ISM Non-Manufacturing New Orders (Sep)",
      "eventTimeZone": "GMT",
      "eventPrevious": "60.4",
      "eventCurrency": "USD",
      "eventForecast": ""
    },
    {
      "eventDateTime": "2018-10-03T14:00:00",
      "eventActual": "61.6",
      "eventCountry": "United States",
      "eventExpectedVolatility": "High",
      "eventName": "ISM Non-Manufacturing PMI (Sep)",
      "eventTimeZone": "GMT",
      "eventPrevious": "58.5",
      "eventCurrency": "USD",
      "eventForecast": "58.1"
    },
    {
      "eventDateTime": "2018-10-03T14:00:00",
      "eventActual": "64.2",
      "eventCountry": "United States",
      "eventExpectedVolatility": "Low",
      "eventName": "ISM Non-Manufacturing Prices (Sep)",
      "eventTimeZone": "GMT",
      "eventPrevious": "62.8",
      "eventCurrency": "USD",
      "eventForecast": ""
    },
    {
      "eventDateTime": "2018-10-03T14:30:00",
      "eventActual": "1.080M",
      "eventCountry": "United States",
      "eventExpectedVolatility": "Low",
      "eventName": "Crude Oil Imports",
      "eventTimeZone": "GMT",
      "eventPrevious": "-0.495M",
      "eventCurrency": "USD",
      "eventForecast": ""
    },
    {
      "eventDateTime": "2018-10-03T14:30:00",
      "eventActual": "7.975M",
      "eventCountry": "United States",
      "eventExpectedVolatility": "High",
      "eventName": "Crude Oil Inventories",
      "eventTimeZone": "GMT",
      "eventPrevious": "1.852M",
      "eventCurrency": "USD",
      "eventForecast": "1.985M"
    },
    {
      "eventDateTime": "2018-10-03T14:30:00",
      "eventActual": "1.699M",
      "eventCountry": "United States",
      "eventExpectedVolatility": "Moderate",
      "eventName": "Cushing Crude Oil Inventories",
      "eventTimeZone": "GMT",
      "eventPrevious": "0.461M",
      "eventCurrency": "USD",
      "eventForecast": ""
    },
    {
      "eventDateTime": "2018-10-03T14:30:00",
      "eventActual": "0.034M",
      "eventCountry": "United States",
      "eventExpectedVolatility": "Low",
      "eventName": "Distillate Fuel Production",
      "eventTimeZone": "GMT",
      "eventPrevious": "-0.462M",
      "eventCurrency": "USD",
      "eventForecast": ""
    },
    {
      "eventDateTime": "2018-10-03T14:30:00",
      "eventActual": "-1.750M",
      "eventCountry": "United States",
      "eventExpectedVolatility": "Low",
      "eventName": "EIA Weekly Distillates Stocks",
      "eventTimeZone": "GMT",
      "eventPrevious": "-2.241M",
      "eventCurrency": "USD",
      "eventForecast": "-1.303M"
    },
    {
      "eventDateTime": "2018-10-03T14:30:00",
      "eventActual": "-0.459M",
      "eventCountry": "United States",
      "eventExpectedVolatility": "Low",
      "eventName": "Gasoline Inventories",
      "eventTimeZone": "GMT",
      "eventPrevious": "1.530M",
      "eventCurrency": "USD",
      "eventForecast": "1.316M"
    },
    {
      "eventDateTime": "2018-10-03T14:30:00",
      "eventActual": "0.118M",
      "eventCountry": "United States",
      "eventExpectedVolatility": "Low",
      "eventName": "Gasoline Production",
      "eventTimeZone": "GMT",
      "eventPrevious": "-0.438M",
      "eventCurrency": "USD",
      "eventForecast": ""
    },
    {
      "eventDateTime": "2018-10-03T14:30:00",
      "eventActual": "-0.052M",
      "eventCountry": "United States",
      "eventExpectedVolatility": "Low",
      "eventName": "Heating Oil Stockpiles",
      "eventTimeZone": "GMT",
      "eventPrevious": "0.130M",
      "eventCurrency": "USD",
      "eventForecast": ""
    },
    {
      "eventDateTime": "2018-10-03T18:00:00",
      "eventActual": "",
      "eventCountry": "United States",
      "eventExpectedVolatility": "Moderate",
      "eventName": "FOMC Member Brainard Speaks",
      "eventTimeZone": "GMT",
      "eventPrevious": "",
      "eventCurrency": "USD",
      "eventForecast": ""
    },
    {
      "eventDateTime": "2018-10-03T18:15:00",
      "eventActual": "",
      "eventCountry": "United States",
      "eventExpectedVolatility": "Moderate",
      "eventName": "FOMC Member Mester Speaks",
      "eventTimeZone": "GMT",
      "eventPrevious": "",
      "eventCurrency": "USD",
      "eventForecast": ""
    },
    {
      "eventDateTime": "2018-10-03T20:00:00",
      "eventActual": "",
      "eventCountry": "United States",
      "eventExpectedVolatility": "High",
      "eventName": "Fed Chair Powell Speaks",
      "eventTimeZone": "GMT",
      "eventPrevious": "",
      "eventCurrency": "USD",
      "eventForecast": ""
    }
  ]}}
