"German Retail Sales (MoM)";"Germany";"EUR";"2008-12-01T07:00:00";"GMT";"-1.0%";"0.5%";"-1.6%";"Moderate"
"Business Climate (Nov)";"Euro Zone";"EUR";"2008-12-01T09:00:00";"GMT";"-1.27";"";"-2.21";"Low"
"Business and Consumer Survey (Nov)";"Euro Zone";"EUR";"2008-12-01T09:00:00";"GMT";"85.30";"";"80.30";"Low"
"CPI (MoM) (Nov)";"Euro Zone";"EUR";"2008-12-01T09:00:00";"GMT";"0.00%";"";"-0.50%";"Moderate"
"CPI ex Tobacco (MoM) (Nov)";"Euro Zone";"EUR";"2008-12-01T09:00:00";"GMT";"0.03%";"";"-0.51%";"Low"
"CPI ex Tobacco (YoY) (Nov)";"Euro Zone";"EUR";"2008-12-01T09:00:00";"GMT";"3.17%";"";"2.09%";"Low"
"Consumer Inflation Expectation (Nov)";"Euro Zone";"EUR";"2008-12-01T09:00:00";"GMT";"19.20";"";"11.00";"Low"
"Core CPI (MoM) (Nov)";"Euro Zone";"EUR";"2008-12-01T09:00:00";"GMT";"0.40%";"";"0.00%";"Low"
"Current Account n.s.a. (Nov)";"Euro Zone";"EUR";"2008-12-01T09:00:00";"GMT";"-8.30B";"";"-17.50B";"Low"
"French Business Survey (Nov)";"France";"EUR";"2008-12-01T09:00:00";"GMT";"87.00";"";"80.00";"Low"
"French Consumer Confidence (Nov)";"France";"EUR";"2008-12-01T09:00:00";"GMT";"82.00";"";"84.00";"Low"
"French Current Account (Nov)";"France";"EUR";"2008-12-01T09:00:00";"GMT";"-2.20B";"";"-1.40B";"Low"
"French Exports (Nov)";"France";"EUR";"2008-12-01T09:00:00";"GMT";"33.37B";"";"32.32B";"Low"
"French HICP (MoM) (Nov)";"France";"EUR";"2008-12-01T09:00:00";"GMT";"-0.10%";"";"-0.50%";"Moderate"
"French HICP (YoY) (Nov)";"France";"EUR";"2008-12-01T09:00:00";"GMT";"3.01%";"";"1.87%";"Low"
"French Imports (Nov)";"France";"EUR";"2008-12-01T09:00:00";"GMT";"39.43B";"";"36.83B";"Low"
"French PPI (MoM) (Nov)";"France";"EUR";"2008-12-01T09:00:00";"GMT";"-0.60%";"";"-1.50%";"Low"
"German Business Expectations (Nov)";"Germany";"EUR";"2008-12-01T09:00:00";"GMT";"85.00";"";"80.70";"Moderate"
"German CPI (YoY) (Nov)";"Germany";"EUR";"2008-12-01T09:00:00";"GMT";"2.40%";"";"1.30%";"Low"
"German Current Assessment (Nov)";"Germany";"EUR";"2008-12-01T09:00:00";"GMT";"103.40";"";"96.70";"Moderate"
"German Exports (MoM) (Nov)";"Germany";"EUR";"2008-12-01T09:00:00";"GMT";"-0.33%";"";"-9.40%";"Low"
"German HICP (MoM) (Nov)";"Germany";"EUR";"2008-12-01T09:00:00";"GMT";"-0.30%";"";"-0.50%";"Low"
"German HICP (YoY) (Nov)";"Germany";"EUR";"2008-12-01T09:00:00";"GMT";"2.50%";"";"1.50%";"Low"
"German Import Price Index (YoY) (Nov)";"Germany";"EUR";"2008-12-01T09:00:00";"GMT";"2.80%";"";"-0.60%";"Low"
"German Imports (MoM) (Nov)";"Germany";"EUR";"2008-12-01T09:00:00";"GMT";"-3.20%";"";"-4.00%";"Low"
"German PPI (YoY) (Nov)";"Germany";"EUR";"2008-12-01T09:00:00";"GMT";"7.20%";"";"4.80%";"Low"
"German Retail Sales (YoY) (Nov)";"Germany";"EUR";"2008-12-01T09:00:00";"GMT";"0.10%";"";"-2.20%";"Low"
"German Unemployment (Nov)";"Germany";"EUR";"2008-12-01T09:00:00";"GMT";"3.18M";"";"3.18M";"Low"
"German Unemployment n.s.a. (Nov)";"Germany";"EUR";"2008-12-01T09:00:00";"GMT";"3.00M";"";"3.00M";"Low"
"German WPI (YoY) (Nov)";"Germany";"EUR";"2008-12-01T09:00:00";"GMT";"2.90%";"";"-1.60%";"Low"
"German ZEW Current Conditions (Nov)";"Germany";"EUR";"2008-12-01T09:00:00";"GMT";"-35.90";"";"-50.40";"Moderate"
"Industrial Production (YoY) (Nov)";"Euro Zone";"EUR";"2008-12-01T09:00:00";"GMT";"-5.80%";"";"-8.80%";"Low"
"Industrial Sentiment (Nov)";"Euro Zone";"EUR";"2008-12-01T09:00:00";"GMT";"-17.60";"";"-25.70";"Low"
"Italian Business Confidence (Nov)";"Italy";"EUR";"2008-12-01T09:00:00";"GMT";"92.10";"";"83.40";"Low"
"Italian CPI (YoY) (Nov)";"Italy";"EUR";"2008-12-01T09:00:00";"GMT";"3.50%";"";"2.70%";"Low"
"Italian Consumer Confidence (Nov)";"Italy";"EUR";"2008-12-01T09:00:00";"GMT";"94.60";"";"92.90";"Low"
"Italian HICP (MoM) (Nov)";"Italy";"EUR";"2008-12-01T09:00:00";"GMT";"0.50%";"";"-0.50%";"Low"
"Italian HICP (YoY) (Nov)";"Italy";"EUR";"2008-12-01T09:00:00";"GMT";"3.60%";"";"2.70%";"Low"
"Italian Industrial New Orders (MoM) (Nov)";"Italy";"EUR";"2008-12-01T09:00:00";"GMT";"-5.05%";"";"-12.55%";"Low"
"Italian Industrial New Orders (YoY) (Nov)";"Italy";"EUR";"2008-12-01T09:00:00";"GMT";"-13.98%";"";"-28.15%";"Low"
"Italian Industrial Production (YoY) (Nov)";"Italy";"EUR";"2008-12-01T09:00:00";"GMT";"-7.50%";"";"-9.60%";"Low"
"Italian Industrial Sales (MoM) (Nov)";"Italy";"EUR";"2008-12-01T09:00:00";"GMT";"-3.77%";"";"-6.16%";"Low"
"Italian Industrial Sales (YoY) (Nov)";"Italy";"EUR";"2008-12-01T09:00:00";"GMT";"-4.77%";"";"-13.21%";"Low"
"Italian Monthly Unemployment Rate (Nov)";"Italy";"EUR";"2008-12-01T09:00:00";"GMT";"6.80%";"";"6.90%";"Low"
"Italian PPI (MoM) (Nov)";"Italy";"EUR";"2008-12-01T09:00:00";"GMT";"-1.70%";"";"-1.90%";"Low"
"Italian PPI (YoY) (Nov)";"Italy";"EUR";"2008-12-01T09:00:00";"GMT";"4.10%";"";"1.20%";"Low"
"Italian Retail Sales (YoY) (Nov)";"Italy";"EUR";"2008-12-01T09:00:00";"GMT";"-1.60%";"";"-2.27%";"Low"
"Italian Trade Balance EU (Nov)";"Italy";"EUR";"2008-12-01T09:00:00";"GMT";"0.07B";"";"-1.31B";"Low"
"Italian Trade Balance Non-EU (Nov)";"Italy";"EUR";"2008-12-01T09:00:00";"GMT";"-0.60B";"";"-1.26B";"Low"
"Italian Wage Inflation (MoM) (Nov)";"Italy";"EUR";"2008-12-01T09:00:00";"GMT";"0.11%";"";"0.11%";"Low"
"Italian Wage Inflation (YoY) (Nov)";"Italy";"EUR";"2008-12-01T09:00:00";"GMT";"3.70%";"";"3.70%";"Low"
"Manufacturing PMI";"Euro Zone";"EUR";"2008-12-01T09:00:00";"GMT";"36.2";"36.0";"35.6";"Moderate"
"Money-M3 3-Month-Moving Average (Nov)";"Euro Zone";"EUR";"2008-12-01T09:00:00";"GMT";"8.30%";"";"8.00%";"Low"
"PPI (YoY) (Nov)";"Euro Zone";"EUR";"2008-12-01T09:00:00";"GMT";"6.20%";"";"3.10%";"Low"
"Private Sector Loans (YoY) (Nov)";"Euro Zone";"EUR";"2008-12-01T09:00:00";"GMT";"7.70%";"";"7.00%";"Low"
"Retail Sales (YoY) (Nov)";"Euro Zone";"EUR";"2008-12-01T09:00:00";"GMT";"-2.10%";"";"-2.10%";"Low"
"Selling Price Expectations (Nov)";"Euro Zone";"EUR";"2008-12-01T09:00:00";"GMT";"5.70";"";"-1.30";"Low"
"Services Sentiment (Nov)";"Euro Zone";"EUR";"2008-12-01T09:00:00";"GMT";"-7.20";"";"-11.10";"Low"
"Spanish CPI (MoM) (Nov)";"Spain";"EUR";"2008-12-01T09:00:00";"GMT";"0.30%";"";"-0.40%";"Low"
"Spanish CPI (YoY) (Nov)";"Spain";"EUR";"2008-12-01T09:00:00";"GMT";"3.60%";"";"2.40%";"Moderate"
"Spanish Current account (Nov)";"Spain";"EUR";"2008-12-01T09:00:00";"GMT";"-9.85B";"";"-7.74B";"Low"
"Spanish HICP (MoM) (Nov)";"Spain";"EUR";"2008-12-01T09:00:00";"GMT";"0.30%";"";"-0.40%";"Low"
"Spanish HICP (YoY) (Nov)";"Spain";"EUR";"2008-12-01T09:00:00";"GMT";"3.60%";"";"2.40%";"Moderate"
"Spanish Industrial Production (YoY) (Nov)";"Spain";"EUR";"2008-12-01T09:00:00";"GMT";"-13.70%";"";"-16.30%";"Low"
"Spanish Retail Sales (YoY) (Nov)";"Spain";"EUR";"2008-12-01T09:00:00";"GMT";"-8.20%";"";"-8.70%";"Low"
