"M2 Money Stock (YoY) (Oct)";"China";"CNY";"2017-11-13T08:05:00";"GMT";"9.2%";"9.2%";"8.8%";"Low"
"New Loans (Oct)";"China";"CNY";"2017-11-13T08:05:00";"GMT";"1,270.0B";"780.0B";"663.2B";"Moderate"
"Outstanding Loan Growth (YoY) (Oct)";"China";"CNY";"2017-11-13T08:05:00";"GMT";"13.1%";"13.1%";"13.0%";"Low"
