{"events": {"event": [
    {
      "eventDateTime": "2016-06-15T12:30:00",
      "eventActual": "1.0%",
      "eventCountry": "Canada",
      "eventExpectedVolatility": "Moderate",
      "eventName": "Manufacturing Sales (MoM) (Apr)",
      "eventTimeZone": "GMT",
      "eventPrevious": "-0.9%",
      "eventCurrency": "CAD",
      "eventForecast": "0.6%"
    },
    {
      "eventDateTime": "2016-06-15T23:55:00",
      "eventActual": "",
      "eventCountry": "Canada",
      "eventExpectedVolatility": "High",
      "eventName": "BoC Gov Poloz Speaks",
      "eventTimeZone": "GMT",
      "eventPrevious": "",
      "eventCurrency": "CAD",
      "eventForecast": ""
    }
  ]}}
