{"events": {"event": {
    "eventDateTime": "2011-08-10T10:00:00",
    "eventActual": "17.40B",
    "eventCountry": "Russia",
    "eventExpectedVolatility": "Low",
    "eventName": "Trade Balance",
    "eventTimeZone": "GMT",
    "eventPrevious": "16.60B",
    "eventCurrency": "RUB",
    "eventForecast": "16.60B"
  }}}
