"MBA 30-Year Mortgage Rate";"United States";"USD";"2015-07-22T11:00:00";"GMT";"4.23%";"";"4.23%";"Low"
"MBA Mortgage Applications (WoW)";"United States";"USD";"2015-07-22T11:00:00";"GMT";"-1.9%";"";"0.1%";"Low"
"MBA Purchase Index";"United States";"USD";"2015-07-22T11:00:00";"GMT";"196.4";"";"198.3";"Low"
"Mortgage Market Index";"United States";"USD";"2015-07-22T11:00:00";"GMT";"376.1";"";"376.6";"Low"
"Mortgage Refinance Index";"United States";"USD";"2015-07-22T11:00:00";"GMT";"1,392.4";"";"1,384.8";"Low"
"House Price Index (May)";"United States";"USD";"2015-07-22T13:00:00";"GMT";"221.8";"";"222.8";"Low"
"House Price Index (MoM) (May)";"United States";"USD";"2015-07-22T13:00:00";"GMT";"0.4%";"0.5%";"0.4%";"Low"
"House Price Index (YoY) (May)";"United States";"USD";"2015-07-22T13:00:00";"GMT";"5.3%";"";"5.7%";"Low"
"Existing Home Sales (Jun)";"United States";"USD";"2015-07-22T14:00:00";"GMT";"5.32M";"5.40M";"5.49M";"High"
"Existing Home Sales (MoM) (Jun)";"United States";"USD";"2015-07-22T14:00:00";"GMT";"4.5%";"1.2%";"3.2%";"Moderate"
"Crude Oil Inventories";"United States";"USD";"2015-07-22T14:30:00";"GMT";"-4.346M";"-2.258M";"2.468M";"High"
"EIA Weekly Distillates Stocks";"United States";"USD";"2015-07-22T14:30:00";"GMT";"3.819M";"1.772M";"0.235M";"Low"
"Gasoline Inventories";"United States";"USD";"2015-07-22T14:30:00";"GMT";"0.058M";"0.925M";"-1.725M";"Low"
