"IGP-DI Inflation Index (MoM) (Jun)";"Brazil";"BRL";"2017-07-07T11:00:00";"GMT";"-0.51%";"-0.70%";"-0.96%";"Low"
"CPI (MoM) (Jun)";"Brazil";"BRL";"2017-07-07T12:00:00";"GMT";"0.31%";"-0.17%";"-0.23%";"Moderate"
"CPI (YoY) (Jun)";"Brazil";"BRL";"2017-07-07T12:00:00";"GMT";"3.60%";"3.06%";"3.00%";"Moderate"
