{"events": {"event": [
    {
      "eventDateTime": "2012-02-20T07:45:00",
      "eventActual": "92",
      "eventCountry": "France",
      "eventExpectedVolatility": "Low",
      "eventName": "French Business Survey",
      "eventTimeZone": "GMT",
      "eventPrevious": "92",
      "eventCurrency": "EUR",
      "eventForecast": "92"
    },
    {
      "eventDateTime": "2012-02-20T09:00:00",
      "eventActual": "-0.5%",
      "eventCountry": "Germany",
      "eventExpectedVolatility": "Low",
      "eventName": "German House Price Index (MoM)",
      "eventTimeZone": "GMT",
      "eventPrevious": "0.3%",
      "eventCurrency": "EUR",
      "eventForecast": "0.1%"
    },
    {
      "eventDateTime": "2012-02-20T09:00:00",
      "eventActual": "5.5%",
      "eventCountry": "Italy",
      "eventExpectedVolatility": "Low",
      "eventName": "Italian Industrial New Orders (MoM)",
      "eventTimeZone": "GMT",
      "eventPrevious": "0.2%",
      "eventCurrency": "EUR",
      "eventForecast": "-0.5%"
    }
  ]}}
