{"events": {"event": [
    {
      "eventDateTime": "2018-01-31T00:30:00",
      "eventActual": "0.6%",
      "eventCountry": "Australia",
      "eventExpectedVolatility": "High",
      "eventName": "CPI (QoQ) (Q4)",
      "eventTimeZone": "GMT",
      "eventPrevious": "0.6%",
      "eventCurrency": "AUD",
      "eventForecast": "0.7%"
    },
    {
      "eventDateTime": "2018-01-31T00:30:00",
      "eventActual": "1.9%",
      "eventCountry": "Australia",
      "eventExpectedVolatility": "Moderate",
      "eventName": "CPI (YoY) (Q4)",
      "eventTimeZone": "GMT",
      "eventPrevious": "1.8%",
      "eventCurrency": "AUD",
      "eventForecast": "2.0%"
    },
    {
      "eventDateTime": "2018-01-31T00:30:00",
      "eventActual": "112.10",
      "eventCountry": "Australia",
      "eventExpectedVolatility": "Low",
      "eventName": "CPI Index Number (Q4)",
      "eventTimeZone": "GMT",
      "eventPrevious": "111.40",
      "eventCurrency": "AUD",
      "eventForecast": ""
    },
    {
      "eventDateTime": "2018-01-31T00:30:00",
      "eventActual": "0.4%",
      "eventCountry": "Australia",
      "eventExpectedVolatility": "Low",
      "eventName": "Housing Credit (Dec)",
      "eventTimeZone": "GMT",
      "eventPrevious": "0.4%",
      "eventCurrency": "AUD",
      "eventForecast": ""
    },
    {
      "eventDateTime": "2018-01-31T00:30:00",
      "eventActual": "0.3%",
      "eventCountry": "Australia",
      "eventExpectedVolatility": "Moderate",
      "eventName": "Private Sector Credit (MoM) (Dec)",
      "eventTimeZone": "GMT",
      "eventPrevious": "0.5%",
      "eventCurrency": "AUD",
      "eventForecast": "0.5%"
    },
    {
      "eventDateTime": "2018-01-31T00:30:00",
      "eventActual": "0.4%",
      "eventCountry": "Australia",
      "eventExpectedVolatility": "Moderate",
      "eventName": "Trimmed Mean CPI (QoQ) (Q4)",
      "eventTimeZone": "GMT",
      "eventPrevious": "0.4%",
      "eventCurrency": "AUD",
      "eventForecast": "0.5%"
    },
    {
      "eventDateTime": "2018-01-31T00:30:00",
      "eventActual": "1.8%",
      "eventCountry": "Australia",
      "eventExpectedVolatility": "Low",
      "eventName": "Trimmed Mean CPI (YoY) (Q4)",
      "eventTimeZone": "GMT",
      "eventPrevious": "1.8%",
      "eventCurrency": "AUD",
      "eventForecast": "1.9%"
    },
    {
      "eventDateTime": "2018-01-31T00:30:00",
      "eventActual": "0.4%",
      "eventCountry": "Australia",
      "eventExpectedVolatility": "Low",
      "eventName": "Weighted mean CPI (QoQ) (Q4)",
      "eventTimeZone": "GMT",
      "eventPrevious": "0.3%",
      "eventCurrency": "AUD",
      "eventForecast": "0.4%"
    },
    {
      "eventDateTime": "2018-01-31T00:30:00",
      "eventActual": "2.0%",
      "eventCountry": "Australia",
      "eventExpectedVolatility": "Low",
      "eventName": "Weighted mean CPI (YoY) (Q4)",
      "eventTimeZone": "GMT",
      "eventPrevious": "1.9%",
      "eventCurrency": "AUD",
      "eventForecast": "1.9%"
    },
    {
      "eventDateTime": "2018-01-31T22:30:00",
      "eventActual": "58.7",
      "eventCountry": "Australia",
      "eventExpectedVolatility": "Moderate",
      "eventName": "AIG Manufacturing Index (Jan)",
      "eventTimeZone": "GMT",
      "eventPrevious": "56.2",
      "eventCurrency": "AUD",
      "eventForecast": ""
    }
  ]}}
