{"events": {"event": {
    "eventDateTime": "2010-08-13T19:30:00",
    "eventActual": "5.0K",
    "eventCountry": "United Kingdom",
    "eventExpectedVolatility": "Moderate",
    "eventName": "CFTC GBP speculative net positions",
    "eventTimeZone": "GMT",
    "eventPrevious": "-0.3K",
    "eventCurrency": "GBP",
    "eventForecast": ""
  }}}
