"BoE MPC Member Cunliffe Speaks";"United Kingdom";"GBP";"2019-05-07T08:00:00";"GMT";" ";"";"";"Moderate"
"BoE MPC Member Haldane Speaks";"United Kingdom";"GBP";"2019-05-07T16:30:00";"GMT";" ";"";"";"Moderate"
"BRC Retail Sales Monitor (YoY) (Apr)";"United Kingdom";"GBP";"2019-05-07T23:01:00";"GMT";"-1.1%";"2.4%";"3.7%";"Moderate"
