"Mid-Month CPI (MoM) (Jul)";"Brazil";"BRL";"2019-07-23T12:00:00";"GMT";"0.06%";"0.14%";"0.09%";"Low"
"Mid-Month CPI (YoY) (Jul)";"Brazil";"BRL";"2019-07-23T12:00:00";"GMT";"3.84%";"3.32%";"3.27%";"Low"
"Federal Tax Revenue (Jun)";"Brazil";"BRL";"2019-07-23T17:00:00";"GMT";"113.28B";"";"119.95B";"Low"
