"3-Month Bill Auction";"United States";"USD";"2013-10-07T15:30:00";"GMT";"0.010%";"";"0.035%";"Low"
"6-Month Bill Auction";"United States";"USD";"2013-10-07T15:30:00";"GMT";"0.040%";"";"0.060%";"Low"
"Consumer Credit";"United States";"USD";"2013-10-07T19:00:00";"GMT";"10.40B";"12.00B";"13.63B";"Low"
