{"events": {"event": [
    {
      "eventDateTime": "2013-04-01T09:00:00",
      "eventActual": "11.10%",
      "eventCountry": "Hong Kong",
      "eventExpectedVolatility": "Low",
      "eventName": "Exports (MoM) (Mar)",
      "eventTimeZone": "GMT",
      "eventPrevious": "-17.00%",
      "eventCurrency": "HKD",
      "eventForecast": ""
    },
    {
      "eventDateTime": "2013-04-01T09:00:00",
      "eventActual": "303.80B",
      "eventCountry": "Hong Kong",
      "eventExpectedVolatility": "Low",
      "eventName": "Foreign Reserves (USD) (Mar)",
      "eventTimeZone": "GMT",
      "eventPrevious": "304.77B",
      "eventCurrency": "HKD",
      "eventForecast": ""
    },
    {
      "eventDateTime": "2013-04-01T09:00:00",
      "eventActual": "11.30%",
      "eventCountry": "Hong Kong",
      "eventExpectedVolatility": "Low",
      "eventName": "Imports (MoM) (Mar)",
      "eventTimeZone": "GMT",
      "eventPrevious": "-18.30%",
      "eventCurrency": "HKD",
      "eventForecast": ""
    },
    {
      "eventDateTime": "2013-04-01T09:00:00",
      "eventActual": "9.25%",
      "eventCountry": "Hong Kong",
      "eventExpectedVolatility": "Low",
      "eventName": "M3 Money Supply (Mar)",
      "eventTimeZone": "GMT",
      "eventPrevious": "8.52%",
      "eventCurrency": "HKD",
      "eventForecast": ""
    },
    {
      "eventDateTime": "2013-04-01T09:00:00",
      "eventActual": "50.50",
      "eventCountry": "Hong Kong",
      "eventExpectedVolatility": "Low",
      "eventName": "Manufacturing PMI (Mar)",
      "eventTimeZone": "GMT",
      "eventPrevious": "51.20",
      "eventCurrency": "HKD",
      "eventForecast": ""
    }
  ]}}
