{"events": {"event": [
    {
      "eventDateTime": "2013-06-07T12:30:00",
      "eventActual": "95.0K",
      "eventCountry": "Canada",
      "eventExpectedVolatility": "High",
      "eventName": "Employment Change",
      "eventTimeZone": "GMT",
      "eventPrevious": "12.5K",
      "eventCurrency": "CAD",
      "eventForecast": "15.0K"
    },
    {
      "eventDateTime": "2013-06-07T12:30:00",
      "eventActual": "76.7K",
      "eventCountry": "Canada",
      "eventExpectedVolatility": "Low",
      "eventName": "Full Employment Change",
      "eventTimeZone": "GMT",
      "eventPrevious": "36.0K",
      "eventCurrency": "CAD",
      "eventForecast": ""
    },
    {
      "eventDateTime": "2013-06-07T12:30:00",
      "eventActual": "0.2%",
      "eventCountry": "Canada",
      "eventExpectedVolatility": "Moderate",
      "eventName": "Labor Productivity (QoQ)",
      "eventTimeZone": "GMT",
      "eventPrevious": "0.1%",
      "eventCurrency": "CAD",
      "eventForecast": "0.3%"
    },
    {
      "eventDateTime": "2013-06-07T12:30:00",
      "eventActual": "18.2K",
      "eventCountry": "Canada",
      "eventExpectedVolatility": "Low",
      "eventName": "Part Time Employment Change",
      "eventTimeZone": "GMT",
      "eventPrevious": "-23.6K",
      "eventCurrency": "CAD",
      "eventForecast": ""
    },
    {
      "eventDateTime": "2013-06-07T12:30:00",
      "eventActual": "66.70%",
      "eventCountry": "Canada",
      "eventExpectedVolatility": "Low",
      "eventName": "Participation Rate",
      "eventTimeZone": "GMT",
      "eventPrevious": "66.50%",
      "eventCurrency": "CAD",
      "eventForecast": "67.00%"
    },
    {
      "eventDateTime": "2013-06-07T12:30:00",
      "eventActual": "7.1%",
      "eventCountry": "Canada",
      "eventExpectedVolatility": "Moderate",
      "eventName": "Unemployment Rate",
      "eventTimeZone": "GMT",
      "eventPrevious": "7.2%",
      "eventCurrency": "CAD",
      "eventForecast": "7.0%"
    },
    {
      "eventDateTime": "2013-06-07T19:30:00",
      "eventActual": "-39.8K",
      "eventCountry": "Canada",
      "eventExpectedVolatility": "Low",
      "eventName": "CFTC CAD speculative net positions",
      "eventTimeZone": "GMT",
      "eventPrevious": "-33.4K",
      "eventCurrency": "CAD",
      "eventForecast": ""
    }
  ]}}
