{"events": {"event": {
    "eventDateTime": "2019-06-24T12:00:00",
    "eventActual": "",
    "eventCountry": "Russia",
    "eventExpectedVolatility": "Moderate",
    "eventName": "CBR Monetary Policy Meeting Minutes",
    "eventTimeZone": "GMT",
    "eventPrevious": "",
    "eventCurrency": "RUB",
    "eventForecast": ""
  }}}
