{"events": {"event": [
    {
      "eventDateTime": "2018-08-07T14:00:00",
      "eventActual": "61.8",
      "eventCountry": "Canada",
      "eventExpectedVolatility": "High",
      "eventName": "Ivey PMI (Jul)",
      "eventTimeZone": "GMT",
      "eventPrevious": "63.1",
      "eventCurrency": "CAD",
      "eventForecast": "64.2"
    },
    {
      "eventDateTime": "2018-08-07T14:00:00",
      "eventActual": "56.7",
      "eventCountry": "Canada",
      "eventExpectedVolatility": "Low",
      "eventName": "Ivey PMI n.s.a (Jul)",
      "eventTimeZone": "GMT",
      "eventPrevious": "65.1",
      "eventCurrency": "CAD",
      "eventForecast": ""
    }
  ]}}
