{"events": {"event": {
    "eventDateTime": "2015-07-24T19:30:00",
    "eventActual": "3.4K",
    "eventCountry": "Switzerland",
    "eventExpectedVolatility": "Low",
    "eventName": "CFTC CHF speculative net positions",
    "eventTimeZone": "GMT",
    "eventPrevious": "3.1K",
    "eventCurrency": "CHF",
    "eventForecast": ""
  }}}
