"CB Employment Trends Index";"United States";"USD";"2012-05-07T14:00:00";"GMT";"107.20";"";"108.00";"Low"
"3-Month Bill Auction";"United States";"USD";"2012-05-07T15:30:00";"GMT";"0.095%";"";"0.090%";"Low"
"6-Month Bill Auction";"United States";"USD";"2012-05-07T15:30:00";"GMT";"0.145%";"";"0.145%";"Low"
"Consumer Credit";"United States";"USD";"2012-05-07T19:00:00";"GMT";"9.27B";"9.80B";"21.36B";"Low"
