"Non-Oil Exports (MoM) (Aug)";"Singapore";"SGD";"2016-09-16T00:30:00";"GMT";"-1.90%";"-2.90%";"-1.90%";"Low"
"Non-Oil Exports (YoY) (Aug)";"Singapore";"SGD";"2016-09-16T00:30:00";"GMT";"-10.60%";"-4.10%";"0.00%";"Low"
"Trade Balance";"Singapore";"SGD";"2016-09-16T00:30:00";"GMT";"6.500B";"";"5.600B";"Low"
