{"events": {"event": [
    {
      "eventDateTime": "2017-05-31T05:00:00",
      "eventActual": "-0.2%",
      "eventCountry": "Japan",
      "eventExpectedVolatility": "Low",
      "eventName": "Construction Orders (YoY) (Apr)",
      "eventTimeZone": "GMT",
      "eventPrevious": "1.1%",
      "eventCurrency": "JPY",
      "eventForecast": ""
    },
    {
      "eventDateTime": "2017-05-31T05:00:00",
      "eventActual": "1.9%",
      "eventCountry": "Japan",
      "eventExpectedVolatility": "Low",
      "eventName": "Housing Starts (YoY) (Apr)",
      "eventTimeZone": "GMT",
      "eventPrevious": "0.2%",
      "eventCurrency": "JPY",
      "eventForecast": "-1.5%"
    },
    {
      "eventDateTime": "2017-05-31T23:50:00",
      "eventActual": "4.5%",
      "eventCountry": "Japan",
      "eventExpectedVolatility": "Moderate",
      "eventName": "Capital Spending (YoY) (Q1)",
      "eventTimeZone": "GMT",
      "eventPrevious": "3.8%",
      "eventCurrency": "JPY",
      "eventForecast": "3.9%"
    },
    {
      "eventDateTime": "2017-05-31T23:50:00",
      "eventActual": "732.1B",
      "eventCountry": "Japan",
      "eventExpectedVolatility": "Low",
      "eventName": "Foreign Bonds Buying",
      "eventTimeZone": "GMT",
      "eventPrevious": "779.9B",
      "eventCurrency": "JPY",
      "eventForecast": ""
    },
    {
      "eventDateTime": "2017-05-31T23:50:00",
      "eventActual": "129.6B",
      "eventCountry": "Japan",
      "eventExpectedVolatility": "Low",
      "eventName": "Foreign Investments in Japanese Stocks",
      "eventTimeZone": "GMT",
      "eventPrevious": "-25.9B",
      "eventCurrency": "JPY",
      "eventForecast": ""
    }
  ]}}
