{"events": {"event": [
    {
      "eventDateTime": "2018-09-19T11:00:00",
      "eventActual": "4.88%",
      "eventCountry": "United States",
      "eventExpectedVolatility": "Low",
      "eventName": "MBA 30-Year Mortgage Rate",
      "eventTimeZone": "GMT",
      "eventPrevious": "4.84%",
      "eventCurrency": "USD",
      "eventForecast": ""
    },
    {
      "eventDateTime": "2018-09-19T11:00:00",
      "eventActual": "1.6%",
      "eventCountry": "United States",
      "eventExpectedVolatility": "Low",
      "eventName": "MBA Mortgage Applications (WoW)",
      "eventTimeZone": "GMT",
      "eventPrevious": "-1.8%",
      "eventCurrency": "USD",
      "eventForecast": ""
    },
    {
      "eventDateTime": "2018-09-19T11:00:00",
      "eventActual": "234.2",
      "eventCountry": "United States",
      "eventExpectedVolatility": "Low",
      "eventName": "MBA Purchase Index",
      "eventTimeZone": "GMT",
      "eventPrevious": "233.5",
      "eventCurrency": "USD",
      "eventForecast": ""
    },
    {
      "eventDateTime": "2018-09-19T11:00:00",
      "eventActual": "342.7",
      "eventCountry": "United States",
      "eventExpectedVolatility": "Low",
      "eventName": "Mortgage Market Index",
      "eventTimeZone": "GMT",
      "eventPrevious": "337.4",
      "eventCurrency": "USD",
      "eventForecast": ""
    },
    {
      "eventDateTime": "2018-09-19T11:00:00",
      "eventActual": "917.1",
      "eventCountry": "United States",
      "eventExpectedVolatility": "Low",
      "eventName": "Mortgage Refinance Index",
      "eventTimeZone": "GMT",
      "eventPrevious": "884.3",
      "eventCurrency": "USD",
      "eventForecast": ""
    },
    {
      "eventDateTime": "2018-09-19T12:30:00",
      "eventActual": "1.229M",
      "eventCountry": "United States",
      "eventExpectedVolatility": "High",
      "eventName": "Building Permits (Aug)",
      "eventTimeZone": "GMT",
      "eventPrevious": "1.311M",
      "eventCurrency": "USD",
      "eventForecast": "1.310M"
    },
    {
      "eventDateTime": "2018-09-19T12:30:00",
      "eventActual": "-5.7%",
      "eventCountry": "United States",
      "eventExpectedVolatility": "Moderate",
      "eventName": "Building Permits (MoM) (Aug)",
      "eventTimeZone": "GMT",
      "eventPrevious": "1.5%",
      "eventCurrency": "USD",
      "eventForecast": "-0.1%"
    },
    {
      "eventDateTime": "2018-09-19T12:30:00",
      "eventActual": "-101.5B",
      "eventCountry": "United States",
      "eventExpectedVolatility": "Moderate",
      "eventName": "Current Account (Q2)",
      "eventTimeZone": "GMT",
      "eventPrevious": "-121.7B",
      "eventCurrency": "USD",
      "eventForecast": "-103.5B"
    },
    {
      "eventDateTime": "2018-09-19T12:30:00",
      "eventActual": "1.282M",
      "eventCountry": "United States",
      "eventExpectedVolatility": "Moderate",
      "eventName": "Housing Starts (Aug)",
      "eventTimeZone": "GMT",
      "eventPrevious": "1.174M",
      "eventCurrency": "USD",
      "eventForecast": "1.235M"
    },
    {
      "eventDateTime": "2018-09-19T12:30:00",
      "eventActual": "9.2%",
      "eventCountry": "United States",
      "eventExpectedVolatility": "Moderate",
      "eventName": "Housing Starts (MoM) (Aug)",
      "eventTimeZone": "GMT",
      "eventPrevious": "-0.3%",
      "eventCurrency": "USD",
      "eventForecast": "5.8%"
    },
    {
      "eventDateTime": "2018-09-19T14:30:00",
      "eventActual": "-0.106M",
      "eventCountry": "United States",
      "eventExpectedVolatility": "Low",
      "eventName": "Crude Oil Imports",
      "eventTimeZone": "GMT",
      "eventPrevious": "-0.443M",
      "eventCurrency": "USD",
      "eventForecast": ""
    },
    {
      "eventDateTime": "2018-09-19T14:30:00",
      "eventActual": "-2.057M",
      "eventCountry": "United States",
      "eventExpectedVolatility": "High",
      "eventName": "Crude Oil Inventories",
      "eventTimeZone": "GMT",
      "eventPrevious": "-5.296M",
      "eventCurrency": "USD",
      "eventForecast": "-2.741M"
    },
    {
      "eventDateTime": "2018-09-19T14:30:00",
      "eventActual": "-1.250M",
      "eventCountry": "United States",
      "eventExpectedVolatility": "Moderate",
      "eventName": "Cushing Crude Oil Inventories",
      "eventTimeZone": "GMT",
      "eventPrevious": "-1.242M",
      "eventCurrency": "USD",
      "eventForecast": ""
    },
    {
      "eventDateTime": "2018-09-19T14:30:00",
      "eventActual": "-0.079M",
      "eventCountry": "United States",
      "eventExpectedVolatility": "Low",
      "eventName": "Distillate Fuel Production",
      "eventTimeZone": "GMT",
      "eventPrevious": "0.097M",
      "eventCurrency": "USD",
      "eventForecast": ""
    },
    {
      "eventDateTime": "2018-09-19T14:30:00",
      "eventActual": "0.839M",
      "eventCountry": "United States",
      "eventExpectedVolatility": "Low",
      "eventName": "EIA Weekly Distillates Stocks",
      "eventTimeZone": "GMT",
      "eventPrevious": "6.163M",
      "eventCurrency": "USD",
      "eventForecast": "0.651M"
    },
    {
      "eventDateTime": "2018-09-19T14:30:00",
      "eventActual": "-1.719M",
      "eventCountry": "United States",
      "eventExpectedVolatility": "Low",
      "eventName": "Gasoline Inventories",
      "eventTimeZone": "GMT",
      "eventPrevious": "1.250M",
      "eventCurrency": "USD",
      "eventForecast": "-0.104M"
    },
    {
      "eventDateTime": "2018-09-19T14:30:00",
      "eventActual": "-0.114M",
      "eventCountry": "United States",
      "eventExpectedVolatility": "Low",
      "eventName": "Gasoline Production",
      "eventTimeZone": "GMT",
      "eventPrevious": "0.169M",
      "eventCurrency": "USD",
      "eventForecast": ""
    },
    {
      "eventDateTime": "2018-09-19T14:30:00",
      "eventActual": "0.495M",
      "eventCountry": "United States",
      "eventExpectedVolatility": "Low",
      "eventName": "Heating Oil Stockpiles",
      "eventTimeZone": "GMT",
      "eventPrevious": "0.206M",
      "eventCurrency": "USD",
      "eventForecast": ""
    }
  ]}}
