"Bank Loan Growth (Jul)";"India";"INR";"2006-08-01T09:00:00";"GMT";"30.98%";"";"31.26%";"Low"
"Cash Reserve Ratio (Jul)";"India";"INR";"2006-08-01T09:00:00";"GMT";"5.00%";"";"5.00%";"Low"
"Cumulative Industrial Production (Jul)";"India";"INR";"2006-08-01T09:00:00";"GMT";"10.50%";"";"11.10%";"Low"
"Deposit Growth (Jul)";"India";"INR";"2006-08-01T09:00:00";"GMT";"19.91%";"";"20.80%";"Low"
"Exports (USD) (Jul)";"India";"INR";"2006-08-01T09:00:00";"GMT";"10.42B";"";"10.60B";"Low"
"FX Reserves, USD (Jul)";"India";"INR";"2006-08-01T09:00:00";"GMT";"162.91B";"";"165.80B";"Low"
"Federal Fiscal Deficit (Jul)";"India";"INR";"2006-08-01T09:00:00";"GMT";"777.40B";"";"864.04B";"Low"
"Imports (USD) (Jul)";"India";"INR";"2006-08-01T09:00:00";"GMT";"14.40B";"";"14.99B";"Low"
"Industrial Production (YoY) (Jul)";"India";"INR";"2006-08-01T09:00:00";"GMT";"9.80%";"";"14.80%";"Low"
"Infrastructure Output (YoY) (Jul)";"India";"INR";"2006-08-01T09:00:00";"GMT";"7.68%";"";"10.00%";"Low"
"Interest Rate Decision (Jul)";"India";"INR";"2006-08-01T09:00:00";"GMT";"6.69%";"";"6.81%";"High"
"M3 Money Supply (Jul)";"India";"INR";"2006-08-01T09:00:00";"GMT";"18.64%";"";"19.66%";"Low"
"Manufacturing Output (MoM) (Jul)";"India";"INR";"2006-08-01T09:00:00";"GMT";"11.50%";"";"17.30%";"Low"
"Reverse REPO Rate (Jul)";"India";"INR";"2006-08-01T09:00:00";"GMT";"5.69%";"";"5.81%";"Low"
"Trade Balance (Jul)";"India";"INR";"2006-08-01T09:00:00";"GMT";"-3.98B";"";"-4.39B";"Low"
"WPI Food (YoY) (Jul)";"India";"INR";"2006-08-01T09:00:00";"GMT";"9.30%";"";"5.40%";"Low"
"WPI Fuel (YoY) (Jul)";"India";"INR";"2006-08-01T09:00:00";"GMT";"11.60%";"";"9.20%";"Low"
"WPI Inflation (YoY) (Jul)";"India";"INR";"2006-08-01T09:00:00";"GMT";"6.80%";"";"6.54%";"Moderate"
"WPI Manufacturing Inflation (YoY) (Jul)";"India";"INR";"2006-08-01T09:00:00";"GMT";"4.60%";"";"5.39%";"Low"
