"MBA Mortgage Applications (WoW)";"United States";"USD";"2010-03-31T11:00:00";"GMT";"-4.2%";"";"1.3%";"Low"
"ADP Nonfarm Employment Change";"United States";"USD";"2010-03-31T12:15:00";"GMT";"-24K";"40K";"-23K";"High"
"Chicago PMI";"United States";"USD";"2010-03-31T13:45:00";"GMT";"62.6";"61.0";"58.8";"Moderate"
"Factory Orders (MoM)";"United States";"USD";"2010-03-31T14:00:00";"GMT";"2.5%";"0.5%";"0.6%";"Moderate"
"Crude Oil Inventories";"United States";"USD";"2010-03-31T14:30:00";"GMT";"7.300M";"";"2.900M";"High"
