"Budget Balance % of GDP (Oct)";"Russia";"RUB";"2010-11-01T09:00:00";"GMT";"-2.20%";"";"-2.10%";"Low"
"CPI (MoM) (Oct)";"Russia";"RUB";"2010-11-01T09:00:00";"GMT";"0.80%";"";"0.50%";"Moderate"
"CPI (YoY) (Oct)";"Russia";"RUB";"2010-11-01T09:00:00";"GMT";"7.00%";"";"7.50%";"Moderate"
"Central Bank reserves (USD) (Oct)";"Russia";"RUB";"2010-11-01T09:00:00";"GMT";"494.40B";"";"495.60B";"Moderate"
"GDP Monthly (YoY) (Oct)";"Russia";"RUB";"2010-11-01T09:00:00";"GMT";"3.50%";"";"4.30%";"Moderate"
"Industrial Production (YoY) (Oct)";"Russia";"RUB";"2010-11-01T09:00:00";"GMT";"6.20%";"";"7.20%";"Low"
"Interest Rate Decision (Oct)";"Russia";"RUB";"2010-11-01T09:00:00";"GMT";"5.00%";"";"5.00%";"High"
"PPI (MoM) (Oct)";"Russia";"RUB";"2010-11-01T09:00:00";"GMT";"-1.30%";"";"2.20%";"Low"
"PPI (YoY) (Oct)";"Russia";"RUB";"2010-11-01T09:00:00";"GMT";"5.90%";"";"10.40%";"Low"
"Trade Balance (Oct)";"Russia";"RUB";"2010-11-01T09:00:00";"GMT";"10.46B";"";"10.14B";"Low"
"Unemployment Rate (Oct)";"Russia";"RUB";"2010-11-01T09:00:00";"GMT";"6.50%";"";"6.70%";"Moderate"
