{"events": {"event": [
    {
      "eventDateTime": "2015-03-10T00:30:00",
      "eventActual": "0",
      "eventCountry": "Australia",
      "eventExpectedVolatility": "Moderate",
      "eventName": "NAB Business Confidence (Feb)",
      "eventTimeZone": "GMT",
      "eventPrevious": "3",
      "eventCurrency": "AUD",
      "eventForecast": ""
    },
    {
      "eventDateTime": "2015-03-10T00:30:00",
      "eventActual": "2",
      "eventCountry": "Australia",
      "eventExpectedVolatility": "Low",
      "eventName": "NAB Business Survey (Feb)",
      "eventTimeZone": "GMT",
      "eventPrevious": "2",
      "eventCurrency": "AUD",
      "eventForecast": ""
    },
    {
      "eventDateTime": "2015-03-10T22:05:00",
      "eventActual": "",
      "eventCountry": "Australia",
      "eventExpectedVolatility": "Moderate",
      "eventName": "RBA Assist Gov Kent Speaks",
      "eventTimeZone": "GMT",
      "eventPrevious": "",
      "eventCurrency": "AUD",
      "eventForecast": ""
    },
    {
      "eventDateTime": "2015-03-10T23:30:00",
      "eventActual": "-1.2%",
      "eventCountry": "Australia",
      "eventExpectedVolatility": "Moderate",
      "eventName": "Westpac Consumer Sentiment (Mar)",
      "eventTimeZone": "GMT",
      "eventPrevious": "8.0%",
      "eventCurrency": "AUD",
      "eventForecast": ""
    }
  ]}}
