{"events": {"event": [
    {
      "eventDateTime": "2018-07-16T05:30:00",
      "eventActual": "58.5%",
      "eventCountry": "New Zealand",
      "eventExpectedVolatility": "Moderate",
      "eventName": "Investing.com NZD/USD Index",
      "eventTimeZone": "GMT",
      "eventPrevious": "64.9%",
      "eventCurrency": "NZD",
      "eventForecast": ""
    },
    {
      "eventDateTime": "2018-07-16T22:45:00",
      "eventActual": "0.4%",
      "eventCountry": "New Zealand",
      "eventExpectedVolatility": "High",
      "eventName": "CPI (QoQ) (Q2)",
      "eventTimeZone": "GMT",
      "eventPrevious": "0.5%",
      "eventCurrency": "NZD",
      "eventForecast": "0.5%"
    },
    {
      "eventDateTime": "2018-07-16T22:45:00",
      "eventActual": "1.5%",
      "eventCountry": "New Zealand",
      "eventExpectedVolatility": "Moderate",
      "eventName": "CPI (YoY) (Q2)",
      "eventTimeZone": "GMT",
      "eventPrevious": "1.1%",
      "eventCurrency": "NZD",
      "eventForecast": "1.6%"
    }
  ]}}
