"M3 Money Supply (YoY) (May)";"South Africa";"ZAR";"2018-06-29T06:00:00";"GMT";"6.39%";"6.10%";"5.73%";"Low"
"Private Sector Credit (May)";"South Africa";"ZAR";"2018-06-29T06:00:00";"GMT";"5.07%";"4.92%";"4.56%";"Low"
"Trade Balance (May)";"South Africa";"ZAR";"2018-06-29T12:00:00";"GMT";"1.17B";"5.90B";"3.52B";"Low"
