{"events": {"event": {
    "eventDateTime": "2016-04-01T19:30:00",
    "eventActual": "1.9K",
    "eventCountry": "New Zealand",
    "eventExpectedVolatility": "Low",
    "eventName": "CFTC NZD speculative net positions",
    "eventTimeZone": "GMT",
    "eventPrevious": "1.0K",
    "eventCurrency": "NZD",
    "eventForecast": ""
  }}}
