{"events": {"event": [
    {
      "eventDateTime": "2018-05-30T01:30:00",
      "eventActual": "-5.0%",
      "eventCountry": "Australia",
      "eventExpectedVolatility": "Moderate",
      "eventName": "Building Approvals (MoM) (Apr)",
      "eventTimeZone": "GMT",
      "eventPrevious": "3.5%",
      "eventCurrency": "AUD",
      "eventForecast": "-2.9%"
    },
    {
      "eventDateTime": "2018-05-30T01:30:00",
      "eventActual": "0.1%",
      "eventCountry": "Australia",
      "eventExpectedVolatility": "Low",
      "eventName": "Private House Approvals (Apr)",
      "eventTimeZone": "GMT",
      "eventPrevious": "1.6%",
      "eventCurrency": "AUD",
      "eventForecast": ""
    }
  ]}}
