"Exports (YoY) (Dec)";"China";"CNY";"2015-01-13T02:00:00";"GMT";"4.7%";"6.8%";"9.7%";"Moderate"
"Imports (YoY) (Dec)";"China";"CNY";"2015-01-13T02:00:00";"GMT";"-6.7%";"-7.4%";"-2.4%";"Moderate"
"Trade Balance (USD) (Dec)";"China";"CNY";"2015-01-13T02:00:00";"GMT";"54.47B";"49.85B";"49.60B";"Moderate"
