"German Ifo Business Climate Index";"Germany";"EUR";"2008-12-18T09:00:00";"GMT";"84.6";"";"81.1";"High"
"Italian Quarterly Unemployment Rate";"Italy";"EUR";"2008-12-18T09:00:00";"GMT";"6.8%";"7.0%";"6.7%";"Low"
"Trade Balance";"Euro Zone";"EUR";"2008-12-18T10:00:00";"GMT";"-5.7B";"-5.2B";"-1.3B";"Moderate"
