{"events": {"event": [
    {
      "eventDateTime": "2018-04-09T06:00:00",
      "eventActual": "49.98B",
      "eventCountry": "South Africa",
      "eventExpectedVolatility": "Low",
      "eventName": "Foreign Reserves (USD) (Mar)",
      "eventTimeZone": "GMT",
      "eventPrevious": "50.05B",
      "eventCurrency": "ZAR",
      "eventForecast": ""
    },
    {
      "eventDateTime": "2018-04-09T06:00:00",
      "eventActual": "43.384B",
      "eventCountry": "South Africa",
      "eventExpectedVolatility": "Low",
      "eventName": "Net FX Reserves (USD) (Mar)",
      "eventTimeZone": "GMT",
      "eventPrevious": "43.272B",
      "eventCurrency": "ZAR",
      "eventForecast": ""
    }
  ]}}
