"Spanish 3-Month Letras Auction";"Spain";"EUR";"2013-01-22T09:40:00";"GMT";"1.195%";"";"0.441%";"Low"
"Spanish 6-Month Letras Auction";"Spain";"EUR";"2013-01-22T09:40:00";"GMT";"1.609%";"";"0.888%";"Low"
"German ZEW Economic Sentiment";"Germany";"EUR";"2013-01-22T10:00:00";"GMT";"6.9";"12.0";"31.5";"High"
"Spanish House Price Index (YoY)";"Spain";"EUR";"2013-01-22T10:00:00";"GMT";"-9.30%";"-10.00%";"-9.80%";"Low"
"ZEW Economic Sentiment";"Euro Zone";"EUR";"2013-01-22T10:00:00";"GMT";"7.6";"14.0";"31.2";"Moderate"
"Spanish Trade Balance";"Spain";"EUR";"2013-01-22T12:00:00";"GMT";"-1.50B";"-1.20B";"-1.40B";"Low"
"ECB President Draghi Speaks";"Euro Zone";"EUR";"2013-01-22T18:00:00";"GMT";" ";"";"";"High"
