{"events": {"event": {
    "eventDateTime": "2018-03-26T05:30:00",
    "eventActual": "55.5%",
    "eventCountry": "Australia",
    "eventExpectedVolatility": "Moderate",
    "eventName": "Investing.com AUD/USD Index",
    "eventTimeZone": "GMT",
    "eventPrevious": "57.6%",
    "eventCurrency": "AUD",
    "eventForecast": ""
  }}}
