{"events": {"event": {
    "eventDateTime": "2008-05-05T03:00:00",
    "eventActual": "-0.3%",
    "eventCountry": "New Zealand",
    "eventExpectedVolatility": "Low",
    "eventName": "ANZ Commodity Price Index (MoM)",
    "eventTimeZone": "GMT",
    "eventPrevious": "2.0%",
    "eventCurrency": "NZD",
    "eventForecast": "0.0%"
  }}}
