{"events": {"event": [
    {
      "eventDateTime": "2013-07-01T05:00:00",
      "eventActual": "50.30",
      "eventCountry": "India",
      "eventExpectedVolatility": "Low",
      "eventName": "Nikkei Markit Manufacturing PMI",
      "eventTimeZone": "GMT",
      "eventPrevious": "50.10",
      "eventCurrency": "INR",
      "eventForecast": "49.80"
    },
    {
      "eventDateTime": "2013-07-01T09:00:00",
      "eventActual": "4.00%",
      "eventCountry": "India",
      "eventExpectedVolatility": "Low",
      "eventName": "Cash Reserve Ratio (Jun)",
      "eventTimeZone": "GMT",
      "eventPrevious": "4.00%",
      "eventCurrency": "INR",
      "eventForecast": ""
    },
    {
      "eventDateTime": "2013-07-01T09:00:00",
      "eventActual": "-1.10%",
      "eventCountry": "India",
      "eventExpectedVolatility": "Low",
      "eventName": "Cumulative Industrial Production (Jun)",
      "eventTimeZone": "GMT",
      "eventPrevious": "0.10%",
      "eventCurrency": "INR",
      "eventForecast": ""
    },
    {
      "eventDateTime": "2013-07-01T09:00:00",
      "eventActual": "13.42%",
      "eventCountry": "India",
      "eventExpectedVolatility": "Low",
      "eventName": "Deposit Growth (Jun)",
      "eventTimeZone": "GMT",
      "eventPrevious": "13.14%",
      "eventCurrency": "INR",
      "eventForecast": ""
    },
    {
      "eventDateTime": "2013-07-01T09:00:00",
      "eventActual": "2,628.23B",
      "eventCountry": "India",
      "eventExpectedVolatility": "Low",
      "eventName": "Federal Fiscal Deficit (Jun)",
      "eventTimeZone": "GMT",
      "eventPrevious": "1,806.91B",
      "eventCurrency": "INR",
      "eventForecast": ""
    },
    {
      "eventDateTime": "2013-07-01T09:00:00",
      "eventActual": "6.25%",
      "eventCountry": "India",
      "eventExpectedVolatility": "Low",
      "eventName": "Reverse REPO Rate (Jun)",
      "eventTimeZone": "GMT",
      "eventPrevious": "6.27%",
      "eventCurrency": "INR",
      "eventForecast": ""
    },
    {
      "eventDateTime": "2013-07-01T09:00:00",
      "eventActual": "10.30%",
      "eventCountry": "India",
      "eventExpectedVolatility": "Low",
      "eventName": "WPI Food (YoY) (Jun)",
      "eventTimeZone": "GMT",
      "eventPrevious": "8.20%",
      "eventCurrency": "INR",
      "eventForecast": ""
    },
    {
      "eventDateTime": "2013-07-01T09:00:00",
      "eventActual": "7.50%",
      "eventCountry": "India",
      "eventExpectedVolatility": "Low",
      "eventName": "WPI Fuel (YoY) (Jun)",
      "eventTimeZone": "GMT",
      "eventPrevious": "7.30%",
      "eventCurrency": "INR",
      "eventForecast": ""
    },
    {
      "eventDateTime": "2013-07-01T09:00:00",
      "eventActual": "2.89%",
      "eventCountry": "India",
      "eventExpectedVolatility": "Low",
      "eventName": "WPI Manufacturing Inflation (YoY) (Jun)",
      "eventTimeZone": "GMT",
      "eventPrevious": "3.25%",
      "eventCurrency": "INR",
      "eventForecast": ""
    }
  ]}}
