{"events": {"event": {
    "eventDateTime": "2010-05-28T19:30:00",
    "eventActual": "-75.1K",
    "eventCountry": "United Kingdom",
    "eventExpectedVolatility": "Moderate",
    "eventName": "CFTC GBP speculative net positions",
    "eventTimeZone": "GMT",
    "eventPrevious": "-76.7K",
    "eventCurrency": "GBP",
    "eventForecast": ""
  }}}
