{"events": {"event": {
    "eventDateTime": "2019-01-09T14:30:00",
    "eventActual": "-1.312B",
    "eventCountry": "Brazil",
    "eventExpectedVolatility": "Low",
    "eventName": "Foreign Exchange Flows",
    "eventTimeZone": "GMT",
    "eventPrevious": "-12.756B",
    "eventCurrency": "BRL",
    "eventForecast": ""
  }}}
