{"events": {"event": [
    {
      "eventDateTime": "2013-12-13T08:15:00",
      "eventActual": "-0.1%",
      "eventCountry": "Switzerland",
      "eventExpectedVolatility": "Moderate",
      "eventName": "PPI (MoM)",
      "eventTimeZone": "GMT",
      "eventPrevious": "-0.4%",
      "eventCurrency": "CHF",
      "eventForecast": "-0.2%"
    },
    {
      "eventDateTime": "2013-12-13T08:15:00",
      "eventActual": "-0.4%",
      "eventCountry": "Switzerland",
      "eventExpectedVolatility": "Low",
      "eventName": "PPI (YoY)",
      "eventTimeZone": "GMT",
      "eventPrevious": "-0.3%",
      "eventCurrency": "CHF",
      "eventForecast": "-0.5%"
    },
    {
      "eventDateTime": "2013-12-13T20:30:00",
      "eventActual": "12.0K",
      "eventCountry": "Switzerland",
      "eventExpectedVolatility": "Low",
      "eventName": "CFTC CHF speculative net positions",
      "eventTimeZone": "GMT",
      "eventPrevious": "6.5K",
      "eventCurrency": "CHF",
      "eventForecast": ""
    }
  ]}}
