"FOMC Member Clarida Speaks";"United States";"USD";"2019-01-11T00:00:00";"GMT";" ";"";"";"Moderate"
"CPI (MoM) (Dec)";"United States";"USD";"2019-01-11T13:30:00";"GMT";"0.0%";"-0.1%";"-0.1%";"Moderate"
"CPI (YoY) (Dec)";"United States";"USD";"2019-01-11T13:30:00";"GMT";"2.2%";"1.9%";"1.9%";"Low"
"CPI Index, n.s.a. (Dec)";"United States";"USD";"2019-01-11T13:30:00";"GMT";"252.04";"251.10";"251.23";"Low"
"Core CPI (MoM) (Dec)";"United States";"USD";"2019-01-11T13:30:00";"GMT";"0.2%";"0.2%";"0.2%";"High"
"Core CPI (YoY) (Dec)";"United States";"USD";"2019-01-11T13:30:00";"GMT";"2.2%";"2.2%";"2.2%";"Moderate"
"Core CPI Index (Dec)";"United States";"USD";"2019-01-11T13:30:00";"GMT";"259.48";"";"260.03";"Low"
"Real Earnings (MoM) (Dec)";"United States";"USD";"2019-01-11T13:30:00";"GMT";"-0.1%";"0.3%";"0.7%";"Low"
"Cleveland CPI (MoM) (Dec)";"United States";"USD";"2019-01-11T16:00:00";"GMT";"0.3%";"";"0.2%";"Low"
"U.S. Baker Hughes Oil Rig Count";"United States";"USD";"2019-01-11T18:00:00";"GMT";"877";"";"873";"Moderate"
"U.S. Baker Hughes Total Rig Count";"United States";"USD";"2019-01-11T18:00:00";"GMT";"1,075";"";"1,075";"Moderate"
