{"events": {"event": [
    {
      "eventDateTime": "2003-03-28T17:00:00",
      "eventActual": "178",
      "eventCountry": "United States",
      "eventExpectedVolatility": "Moderate",
      "eventName": "U.S. Baker Hughes Oil Rig Count",
      "eventTimeZone": "GMT",
      "eventPrevious": "167",
      "eventCurrency": "USD",
      "eventForecast": ""
    },
    {
      "eventDateTime": "2003-03-28T20:30:00",
      "eventActual": "-45.5k",
      "eventCountry": "United States",
      "eventExpectedVolatility": "Moderate",
      "eventName": "CFTC Crude Oil speculative net positions",
      "eventTimeZone": "GMT",
      "eventPrevious": "-32.7k",
      "eventCurrency": "USD",
      "eventForecast": ""
    }
  ]}}
