{"events": {"event": [
    {
      "eventDateTime": "2012-08-29T15:30:00",
      "eventActual": "-2.21B",
      "eventCountry": "Brazil",
      "eventExpectedVolatility": "Low",
      "eventName": "Foreign Exchange Flows",
      "eventTimeZone": "GMT",
      "eventPrevious": "-1.01B",
      "eventCurrency": "BRL",
      "eventForecast": ""
    },
    {
      "eventDateTime": "2012-08-29T22:00:00",
      "eventActual": "7.50%",
      "eventCountry": "Brazil",
      "eventExpectedVolatility": "Moderate",
      "eventName": "Interest Rate Decision",
      "eventTimeZone": "GMT",
      "eventPrevious": "8.00%",
      "eventCurrency": "BRL",
      "eventForecast": "7.50%"
    }
  ]}}
