"German Trade Balance";"Germany";"EUR";"2012-02-08T07:00:00";"GMT";"14.9B";"14.1B";"13.9B";"Moderate"
"French Government Budget Balance";"France";"EUR";"2012-02-08T07:45:00";"GMT";"-97.2B";"-90.8B";"-90.8B";"Low"
"Spanish Industrial Production (YoY)";"Spain";"EUR";"2012-02-08T08:00:00";"GMT";"-7.0%";"-6.7%";"-3.7%";"Low"
"German 5-Year Bobl Auction";"Germany";"EUR";"2012-02-08T10:30:00";"GMT";"0.900%";"";"0.910%";"Low"
