{"events": {"event": {
    "eventDateTime": "2018-02-07T10:00:00",
    "eventActual": "3.162T",
    "eventCountry": "China",
    "eventExpectedVolatility": "Low",
    "eventName": "FX Reserves (USD)",
    "eventTimeZone": "GMT",
    "eventPrevious": "3.139T",
    "eventCurrency": "CNY",
    "eventForecast": "3.170T"
  }}}
