"FOMC Member Dudley Speaks";"United States";"USD";"2017-11-28T00:00:00";"GMT";" ";"";"";"Moderate"
"Investing.com Gold Index";"United States";"USD";"2017-11-28T06:30:00";"GMT";"65.0%";"";"66.4%";"Moderate"
"Investing.com Sandamp:P 500 Index";"United States";"USD";"2017-11-28T06:30:00";"GMT";"57.2%";"";"55.2%";"Moderate"
"Goods Trade Balance (Oct)";"United States";"USD";"2017-11-28T13:30:00";"GMT";"-64.10B";"-65.00B";"-68.30B";"Moderate"
"Wholesale Inventories (MoM) (Oct)";"United States";"USD";"2017-11-28T13:30:00";"GMT";"0.3%";"0.3%";"-0.4%";"Low"
"Redbook (MoM)";"United States";"USD";"2017-11-28T13:55:00";"GMT";"-0.7%";"";"-0.2%";"Low"
"Redbook (YoY)";"United States";"USD";"2017-11-28T13:55:00";"GMT";"4.1%";"";"4.8%";"Low"
"House Price Index (MoM) (Sep)";"United States";"USD";"2017-11-28T14:00:00";"GMT";"0.8%";"0.6%";"0.3%";"Low"
"House Price Index (Sep)";"United States";"USD";"2017-11-28T14:00:00";"GMT";"252.2";"";"253.0";"Low"
"House Price Index (YoY) (Sep)";"United States";"USD";"2017-11-28T14:00:00";"GMT";"6.6%";"";"6.3%";"Low"
"Sandamp:P/CS HPI Composite - 20 n.s.a. (MoM) (Sep)";"United States";"USD";"2017-11-28T14:00:00";"GMT";"0.4%";"";"0.4%";"Low"
"Sandamp:P/CS HPI Composite - 20 n.s.a. (YoY) (Sep)";"United States";"USD";"2017-11-28T14:00:00";"GMT";"5.8%";"6.1%";"6.2%";"Moderate"
"Sandamp:P/CS HPI Composite - 20 s.a. (MoM) (Sep)";"United States";"USD";"2017-11-28T14:00:00";"GMT";"0.4%";"0.4%";"0.5%";"Low"
"FOMC Member Dudley Speaks";"United States";"USD";"2017-11-28T14:15:00";"GMT";" ";"";"";"Moderate"
"FOMC Member Powell Speaks";"United States";"USD";"2017-11-28T14:45:00";"GMT";" ";"";"";"High"
"CB Consumer Confidence (Nov)";"United States";"USD";"2017-11-28T15:00:00";"GMT";"126.2";"124.0";"129.5";"High"
"Richmond Manufacturing Index (Nov)";"United States";"USD";"2017-11-28T15:00:00";"GMT";"12";"14";"30";"Low"
"Richmond Manufacturing Shipments (Nov)";"United States";"USD";"2017-11-28T15:00:00";"GMT";"9";"";"33";"Low"
"Richmond Services Index (Nov)";"United States";"USD";"2017-11-28T15:00:00";"GMT";"24";"";"30";"Low"
"FOMC Member Harker Speaks";"United States";"USD";"2017-11-28T15:15:00";"GMT";" ";"";"";"Moderate"
"Dallas Fed Services Revenues (Nov)";"United States";"USD";"2017-11-28T15:30:00";"GMT";"19.2";"";"24.4";"Low"
"Texas Services Sector Outlook (Nov)";"United States";"USD";"2017-11-28T15:30:00";"GMT";"18.6";"";"20.4";"Low"
"4-Week Bill Auction";"United States";"USD";"2017-11-28T16:30:00";"GMT";"1.130%";"";"1.170%";"Low"
"7-Year Note Auction";"United States";"USD";"2017-11-28T18:00:00";"GMT";"2.280%";"";"2.230%";"Low"
"Treasury Secretary Mnuchin Speaks";"United States";"USD";"2017-11-28T20:45:00";"GMT";" ";"";"";"Moderate"
"API Weekly Crude Oil Stock";"United States";"USD";"2017-11-28T21:35:00";"GMT";"-6.356M";"-2.500M";"1.821M";"Moderate"
