{"events": {"event": {
    "eventDateTime": "2011-07-19T01:30:00",
    "eventActual": "",
    "eventCountry": "Australia",
    "eventExpectedVolatility": "High",
    "eventName": "RBA Meeting Minutes",
    "eventTimeZone": "GMT",
    "eventPrevious": "",
    "eventCurrency": "AUD",
    "eventForecast": ""
  }}}
