{"events": {"event": {
    "eventDateTime": "2019-12-07T08:00:00",
    "eventActual": "3.096T",
    "eventCountry": "China",
    "eventExpectedVolatility": "Low",
    "eventName": "FX Reserves (USD)",
    "eventTimeZone": "GMT",
    "eventPrevious": "3.105T",
    "eventCurrency": "CNY",
    "eventForecast": ""
  }}}
