"Investing.com EUR/USD Index";"Euro Zone";"EUR";"2019-05-13T05:30:00";"GMT";"43.8%";"";"40.2%";"Moderate"
"French 12-Month BTF Auction";"France";"EUR";"2019-05-13T13:00:00";"GMT";"-0.552%";"";"-0.567%";"Low"
"French 3-Month BTF Auction";"France";"EUR";"2019-05-13T13:00:00";"GMT";"-0.567%";"";"-0.562%";"Low"
"French 6-Month BTF Auction";"France";"EUR";"2019-05-13T13:00:00";"GMT";"-0.573%";"";"-0.562%";"Low"
