{"events": {"event": {
    "eventDateTime": "2002-06-25T09:00:00",
    "eventActual": "91.3",
    "eventCountry": "Germany",
    "eventExpectedVolatility": "High",
    "eventName": "German Ifo Business Climate Index",
    "eventTimeZone": "GMT",
    "eventPrevious": "91.5",
    "eventCurrency": "EUR",
    "eventForecast": "92"
  }}}
