"Budget Balance % of GDP (Aug)";"Russia";"RUB";"2014-09-01T09:00:00";"GMT";"1.70%";"";"2.00%";"Low"
"Markit Manufacturing PMI (Aug)";"Russia";"RUB";"2014-09-01T09:00:00";"GMT";"51.00";"";"51.00";"Moderate"
"Markit Services PMI (Aug)";"Russia";"RUB";"2014-09-01T09:00:00";"GMT";"49.70";"";"50.30";"Moderate"
