"Bank Loan Growth (2wk)";"India";"INR";"2015-09-18T11:30:00";"GMT";"9.5%";"";"9.6%";"Low"
"Deposit Growth (2wk)";"India";"INR";"2015-09-18T11:30:00";"GMT";"11.9%";"";"11.6%";"Low"
"FX Reserves, USD";"India";"INR";"2015-09-18T11:30:00";"GMT";"349.03B";"";"351.39B";"Low"
