"Bank Lending (Apr)";"Singapore";"SGD";"2008-05-01T09:00:00";"GMT";"249.30B";"";"250.90B";"Low"
"CPI (YoY) (Apr)";"Singapore";"SGD";"2008-05-01T09:00:00";"GMT";"6.72%";"";"7.57%";"Moderate"
"Foreign Reserves USD (MoM) (Apr)";"Singapore";"SGD";"2008-05-01T09:00:00";"GMT";"177.50B";"";"175.80B";"Low"
"Industrial Production (MoM) (Apr)";"Singapore";"SGD";"2008-05-01T09:00:00";"GMT";"5.10%";"";"-18.80%";"Low"
"Industrial Production (YoY) (Apr)";"Singapore";"SGD";"2008-05-01T09:00:00";"GMT";"17.80%";"";"-5.30%";"Low"
"Manufacturing PMI (Apr)";"Singapore";"SGD";"2008-05-01T09:00:00";"GMT";"49.40";"";"49.30";"Low"
"Non-Oil Exports (MoM) (Apr)";"Singapore";"SGD";"2008-05-01T09:00:00";"GMT";"-2.20%";"";"0.40%";"Low"
"Non-Oil Exports (YoY) (Apr)";"Singapore";"SGD";"2008-05-01T09:00:00";"GMT";"-5.90%";"";"5.30%";"Low"
"Retail Sales (MoM) (Apr)";"Singapore";"SGD";"2008-05-01T09:00:00";"GMT";"-2.10%";"";"2.00%";"Low"
"Retail Sales (YoY) (Apr)";"Singapore";"SGD";"2008-05-01T09:00:00";"GMT";"5.60%";"";"7.60%";"Low"
