{"events": {"event": [
    {
      "eventDateTime": "2013-03-28T21:00:00",
      "eventActual": "77.00",
      "eventCountry": "South Korea",
      "eventExpectedVolatility": "Low",
      "eventName": "Manufacturing BSI Index",
      "eventTimeZone": "GMT",
      "eventPrevious": "75.00",
      "eventCurrency": "KRW",
      "eventForecast": ""
    },
    {
      "eventDateTime": "2013-03-28T23:00:00",
      "eventActual": "-0.8%",
      "eventCountry": "South Korea",
      "eventExpectedVolatility": "Low",
      "eventName": "Industrial Production (MoM)",
      "eventTimeZone": "GMT",
      "eventPrevious": "-1.2%",
      "eventCurrency": "KRW",
      "eventForecast": "0.2%"
    },
    {
      "eventDateTime": "2013-03-28T23:00:00",
      "eventActual": "-9.3%",
      "eventCountry": "South Korea",
      "eventExpectedVolatility": "Low",
      "eventName": "Industrial Production (YoY)",
      "eventTimeZone": "GMT",
      "eventPrevious": "7.6%",
      "eventCurrency": "KRW",
      "eventForecast": "-5.0%"
    },
    {
      "eventDateTime": "2013-03-28T23:00:00",
      "eventActual": "1.70%",
      "eventCountry": "South Korea",
      "eventExpectedVolatility": "Low",
      "eventName": "Service Sector Output (MoM)",
      "eventTimeZone": "GMT",
      "eventPrevious": "-1.20%",
      "eventCurrency": "KRW",
      "eventForecast": ""
    }
  ]}}
