{"events": {"event": [
    {
      "eventDateTime": "2012-03-29T12:30:00",
      "eventActual": "0.2%",
      "eventCountry": "Canada",
      "eventExpectedVolatility": "Low",
      "eventName": "IPPI (MoM)",
      "eventTimeZone": "GMT",
      "eventPrevious": "0.4%",
      "eventCurrency": "CAD",
      "eventForecast": "0.5%"
    },
    {
      "eventDateTime": "2012-03-29T12:30:00",
      "eventActual": "-0.5%",
      "eventCountry": "Canada",
      "eventExpectedVolatility": "Moderate",
      "eventName": "RMPI (MoM)",
      "eventTimeZone": "GMT",
      "eventPrevious": "0.2%",
      "eventCurrency": "CAD",
      "eventForecast": "0.5%"
    },
    {
      "eventDateTime": "2012-03-29T20:00:00",
      "eventActual": "1.72B",
      "eventCountry": "Canada",
      "eventExpectedVolatility": "Low",
      "eventName": "Budget Balance",
      "eventTimeZone": "GMT",
      "eventPrevious": "-0.35B",
      "eventCurrency": "CAD",
      "eventForecast": ""
    }
  ]}}
