{"events": {"event": [
    {
      "eventDateTime": "2010-11-30T00:30:00",
      "eventActual": "9.3%",
      "eventCountry": "Australia",
      "eventExpectedVolatility": "Moderate",
      "eventName": "Building Approvals (MoM)",
      "eventTimeZone": "GMT",
      "eventPrevious": "-5.3%",
      "eventCurrency": "AUD",
      "eventForecast": "1.4%"
    },
    {
      "eventDateTime": "2010-11-30T00:30:00",
      "eventActual": "-7.8B",
      "eventCountry": "Australia",
      "eventExpectedVolatility": "Moderate",
      "eventName": "Current Account",
      "eventTimeZone": "GMT",
      "eventPrevious": "-5.4B",
      "eventCurrency": "AUD",
      "eventForecast": "-6.4B"
    },
    {
      "eventDateTime": "2010-11-30T00:30:00",
      "eventActual": "0.1%",
      "eventCountry": "Australia",
      "eventExpectedVolatility": "Moderate",
      "eventName": "Private Sector Credit (MoM)",
      "eventTimeZone": "GMT",
      "eventPrevious": "0.0%",
      "eventCurrency": "AUD",
      "eventForecast": "0.2%"
    },
    {
      "eventDateTime": "2010-11-30T22:30:00",
      "eventActual": "47.6",
      "eventCountry": "Australia",
      "eventExpectedVolatility": "Moderate",
      "eventName": "AIG Manufacturing Index",
      "eventTimeZone": "GMT",
      "eventPrevious": "49.4",
      "eventCurrency": "AUD",
      "eventForecast": ""
    }
  ]}}
