"Spanish Unemployment Change";"Spain";"EUR";"2014-05-06T07:00:00";"GMT";"-16.6K";"-49.1K";"-111.6K";"Moderate"
"Spanish Services PMI";"Spain";"EUR";"2014-05-06T07:15:00";"GMT";"54.0";"54.4";"56.5";"Moderate"
"Italian Services PMI";"Italy";"EUR";"2014-05-06T07:45:00";"GMT";"49.5";"50.4";"51.1";"Moderate"
"French Services PMI";"France";"EUR";"2014-05-06T07:50:00";"GMT";"50.3";"50.3";"50.4";"Moderate"
"German Services PMI";"Germany";"EUR";"2014-05-06T07:55:00";"GMT";"55.0";"55.0";"54.7";"Moderate"
"Services PMI";"Euro Zone";"EUR";"2014-05-06T08:00:00";"GMT";"53.1";"53.1";"53.1";"Moderate"
"Spanish Government Budget Balance";"Spain";"EUR";"2014-05-06T08:30:00";"GMT";"-6.30B";"4.00B";"2.40B";"Low"
"Retail Sales (MoM)";"Euro Zone";"EUR";"2014-05-06T09:00:00";"GMT";"0.1%";"-0.2%";"0.3%";"Moderate"
"Retail Sales (YoY)";"Euro Zone";"EUR";"2014-05-06T09:00:00";"GMT";"1.0%";"1.0%";"0.9%";"Low"
