"Investing.com USD/CHF Index";"Switzerland";"CHF";"2019-02-11T06:30:00";"GMT";"42.8%";"";"41.3%";"Moderate"
"CPI (MoM) (Jan)";"Switzerland";"CHF";"2019-02-11T07:30:00";"GMT";"-0.3%";"-0.2%";"-0.3%";"Moderate"
"CPI (YoY) (Jan)";"Switzerland";"CHF";"2019-02-11T07:30:00";"GMT";"0.7%";"0.6%";"0.6%";"Low"
