"Bank Loan Growth (Feb)";"India";"INR";"2006-03-01T09:00:00";"GMT";"30.34%";"";"32.01%";"Low"
"Cash Reserve Ratio (Feb)";"India";"INR";"2006-03-01T09:00:00";"GMT";"5.00%";"";"5.00%";"Low"
"Cumulative Industrial Production (Feb)";"India";"INR";"2006-03-01T09:00:00";"GMT";"8.00%";"";"8.10%";"Low"
"Deposit Growth (Feb)";"India";"INR";"2006-03-01T09:00:00";"GMT";"17.03%";"";"17.08%";"Low"
"Exports (USD) (Feb)";"India";"INR";"2006-03-01T09:00:00";"GMT";"9.17B";"";"9.06B";"Low"
"FX Reserves, USD (Feb)";"India";"INR";"2006-03-01T09:00:00";"GMT";"139.98B";"";"143.15B";"Low"
"Federal Fiscal Deficit (Feb)";"India";"INR";"2006-03-01T09:00:00";"GMT";"1,217.27B";"";"1,322.20B";"Low"
"Imports (USD) (Feb)";"India";"INR";"2006-03-01T09:00:00";"GMT";"12.89B";"";"11.54B";"Low"
"Infrastructure Output (YoY) (Feb)";"India";"INR";"2006-03-01T09:00:00";"GMT";"5.69%";"";"7.23%";"Low"
"Interest Rate Decision (Feb)";"India";"INR";"2006-03-01T09:00:00";"GMT";"6.32%";"";"6.50%";"High"
"M3 Money Supply (Feb)";"India";"INR";"2006-03-01T09:00:00";"GMT";"14.93%";"";"15.62%";"Low"
"Reverse REPO Rate (Feb)";"India";"INR";"2006-03-01T09:00:00";"GMT";"5.32%";"";"5.50%";"Low"
"Trade Balance (Feb)";"India";"INR";"2006-03-01T09:00:00";"GMT";"-3.73B";"";"-2.48B";"Low"
"WPI Food (YoY) (Feb)";"India";"INR";"2006-03-01T09:00:00";"GMT";"9.20%";"";"8.70%";"Low"
"WPI Fuel (YoY) (Feb)";"India";"INR";"2006-03-01T09:00:00";"GMT";"9.60%";"";"9.90%";"Low"
"WPI Inflation (YoY) (Feb)";"India";"INR";"2006-03-01T09:00:00";"GMT";"4.36%";"";"4.45%";"Moderate"
"WPI Manufacturing Inflation (YoY) (Feb)";"India";"INR";"2006-03-01T09:00:00";"GMT";"1.79%";"";"2.18%";"Low"
