{"events": {"event": [
    {
      "eventDateTime": "2005-01-28T17:00:00",
      "eventActual": "185",
      "eventCountry": "United States",
      "eventExpectedVolatility": "Moderate",
      "eventName": "U.S. Baker Hughes Oil Rig Count",
      "eventTimeZone": "GMT",
      "eventPrevious": "177",
      "eventCurrency": "USD",
      "eventForecast": ""
    },
    {
      "eventDateTime": "2005-01-28T20:30:00",
      "eventActual": "33.9k",
      "eventCountry": "United States",
      "eventExpectedVolatility": "Moderate",
      "eventName": "CFTC Crude Oil speculative net positions",
      "eventTimeZone": "GMT",
      "eventPrevious": "15.9k",
      "eventCurrency": "USD",
      "eventForecast": ""
    }
  ]}}
