{"events": {"event": {
    "eventDateTime": "2015-06-30T02:00:00",
    "eventActual": "597.0B",
    "eventCountry": "Singapore",
    "eventExpectedVolatility": "Low",
    "eventName": "Bank Lending (May)",
    "eventTimeZone": "GMT",
    "eventPrevious": "594.3B",
    "eventCurrency": "SGD",
    "eventForecast": ""
  }}}
