"CPI (MoM) (Jun)";"China";"CNY";"2001-07-01T09:00:00";"GMT";"-0.50%";"";"-1.20%";"Moderate"
"CPI (YoY) (Jun)";"China";"CNY";"2001-07-01T09:00:00";"GMT";"1.70%";"";"1.40%";"Moderate"
"Exports (YoY) (Jun)";"China";"CNY";"2001-07-01T09:00:00";"GMT";"3.50%";"";"-0.60%";"Moderate"
"FDI (Jun)";"China";"CNY";"2001-07-01T09:00:00";"GMT";"17.98%";"";"20.63%";"Low"
"Fixed Asset Investment (YoY) (Jun)";"China";"CNY";"2001-07-01T09:00:00";"GMT";"17.60%";"";"17.90%";"Moderate"
"Imports (YoY) (Jun)";"China";"CNY";"2001-07-01T09:00:00";"GMT";"10.90%";"";"4.80%";"Moderate"
"Industrial Production (YoY) (Jun)";"China";"CNY";"2001-07-01T09:00:00";"GMT";"10.20%";"";"10.10%";"High"
"M2 Money Stock (YoY) (Jun)";"China";"CNY";"2001-07-01T09:00:00";"GMT";"14.50%";"";"14.30%";"Low"
"Outstanding Loan Growth (YoY) (Jun)";"China";"CNY";"2001-07-01T09:00:00";"GMT";"14.10%";"";"13.70%";"Low"
"PBoC Deposit Rate (Jun)";"China";"CNY";"2001-07-01T09:00:00";"GMT";"2.25%";"";"2.25%";"Moderate"
"PBoC Interest Rate (Jun)";"China";"CNY";"2001-07-01T09:00:00";"GMT";"5.85%";"";"5.85%";"High"
"PBoC Reserve Requirement Ratio (Jun)";"China";"CNY";"2001-07-01T09:00:00";"GMT";"6.00%";"";"6.00%";"Moderate"
"PPI (YoY) (Jun)";"China";"CNY";"2001-07-01T09:00:00";"GMT";"-0.20%";"";"-0.60%";"Moderate"
"Retail Sales (YoY) (Jun)";"China";"CNY";"2001-07-01T09:00:00";"GMT";"11.10%";"";"10.00%";"Low"
"Trade Balance (USD) (Jun)";"China";"CNY";"2001-07-01T09:00:00";"GMT";"2.01B";"";"0.80B";"Moderate"
