{"events": {"event": {
    "eventDateTime": "2001-06-27T18:00:00",
    "eventActual": "3.75%",
    "eventCountry": "United States",
    "eventExpectedVolatility": "High",
    "eventName": "Fed Interest Rate Decision",
    "eventTimeZone": "GMT",
    "eventPrevious": "4.00%",
    "eventCurrency": "USD",
    "eventForecast": ""
  }}}
