"CPI (MoM)";"China";"CNY";"2013-10-14T01:30:00";"GMT";"0.5%";"0.5%";"0.8%";"Moderate"
"CPI (YoY)";"China";"CNY";"2013-10-14T01:30:00";"GMT";"2.6%";"2.9%";"3.1%";"Moderate"
"PPI (YoY)";"China";"CNY";"2013-10-14T01:30:00";"GMT";"-1.6%";"-1.4%";"-1.3%";"Moderate"
"M2 Money Stock (YoY)";"China";"CNY";"2013-10-14T08:00:00";"GMT";"14.7%";"14.1%";"14.2%";"Low"
