{"events": {"event": [
    {
      "eventDateTime": "2006-08-01T09:00:00",
      "eventActual": "-0.70%",
      "eventCountry": "Switzerland",
      "eventExpectedVolatility": "Moderate",
      "eventName": "CPI (MoM) (Jul)",
      "eventTimeZone": "GMT",
      "eventPrevious": "0.00%",
      "eventCurrency": "CHF",
      "eventForecast": ""
    },
    {
      "eventDateTime": "2006-08-01T09:00:00",
      "eventActual": "1.40%",
      "eventCountry": "Switzerland",
      "eventExpectedVolatility": "Low",
      "eventName": "CPI (YoY) (Jul)",
      "eventTimeZone": "GMT",
      "eventPrevious": "1.60%",
      "eventCurrency": "CHF",
      "eventForecast": ""
    },
    {
      "eventDateTime": "2006-08-01T09:00:00",
      "eventActual": "1.97",
      "eventCountry": "Switzerland",
      "eventExpectedVolatility": "Low",
      "eventName": "Consumption Indicator (Jul)",
      "eventTimeZone": "GMT",
      "eventPrevious": "2.09",
      "eventCurrency": "CHF",
      "eventForecast": ""
    },
    {
      "eventDateTime": "2006-08-01T09:00:00",
      "eventActual": "104.40",
      "eventCountry": "Switzerland",
      "eventExpectedVolatility": "Moderate",
      "eventName": "KOF Leading Indicators (Jul)",
      "eventTimeZone": "GMT",
      "eventPrevious": "107.90",
      "eventCurrency": "CHF",
      "eventForecast": ""
    },
    {
      "eventDateTime": "2006-08-01T09:00:00",
      "eventActual": "0.20%",
      "eventCountry": "Switzerland",
      "eventExpectedVolatility": "Moderate",
      "eventName": "PPI (MoM) (Jul)",
      "eventTimeZone": "GMT",
      "eventPrevious": "0.00%",
      "eventCurrency": "CHF",
      "eventForecast": ""
    },
    {
      "eventDateTime": "2006-08-01T09:00:00",
      "eventActual": "2.90%",
      "eventCountry": "Switzerland",
      "eventExpectedVolatility": "Low",
      "eventName": "PPI (YoY) (Jul)",
      "eventTimeZone": "GMT",
      "eventPrevious": "3.10%",
      "eventCurrency": "CHF",
      "eventForecast": ""
    },
    {
      "eventDateTime": "2006-08-01T09:00:00",
      "eventActual": "3.60%",
      "eventCountry": "Switzerland",
      "eventExpectedVolatility": "Moderate",
      "eventName": "Retail Sales (YoY) (Jul)",
      "eventTimeZone": "GMT",
      "eventPrevious": "2.60%",
      "eventCurrency": "CHF",
      "eventForecast": ""
    },
    {
      "eventDateTime": "2006-08-01T09:00:00",
      "eventActual": "1.48B",
      "eventCountry": "Switzerland",
      "eventExpectedVolatility": "Low",
      "eventName": "Trade Balance (Jul)",
      "eventTimeZone": "GMT",
      "eventPrevious": "0.97B",
      "eventCurrency": "CHF",
      "eventForecast": ""
    },
    {
      "eventDateTime": "2006-08-01T09:00:00",
      "eventActual": "3.10%",
      "eventCountry": "Switzerland",
      "eventExpectedVolatility": "Moderate",
      "eventName": "Unemployment Rate n.s.a. (Jul)",
      "eventTimeZone": "GMT",
      "eventPrevious": "3.10%",
      "eventCurrency": "CHF",
      "eventForecast": ""
    },
    {
      "eventDateTime": "2006-08-01T09:00:00",
      "eventActual": "3.30%",
      "eventCountry": "Switzerland",
      "eventExpectedVolatility": "Moderate",
      "eventName": "Unemployment Rate s.a. (Jul)",
      "eventTimeZone": "GMT",
      "eventPrevious": "3.30%",
      "eventCurrency": "CHF",
      "eventForecast": ""
    },
    {
      "eventDateTime": "2006-08-01T09:00:00",
      "eventActual": "64.30",
      "eventCountry": "Switzerland",
      "eventExpectedVolatility": "Moderate",
      "eventName": "procure.ch PMI (Jul)",
      "eventTimeZone": "GMT",
      "eventPrevious": "63.90",
      "eventCurrency": "CHF",
      "eventForecast": ""
    }
  ]}}
