"Investing.com USD/CHF Index";"Switzerland";"CHF";"2016-05-02T06:30:00";"GMT";"49.8%";"";"51.9%";"Moderate"
"Retail Sales (YoY) (Mar)";"Switzerland";"CHF";"2016-05-02T07:15:00";"GMT";"-0.4%";"0.3%";"-1.3%";"Moderate"
"procure.ch PMI (Apr)";"Switzerland";"CHF";"2016-05-02T07:30:00";"GMT";"53.1";"52.8";"54.7";"Moderate"
"SNB Chairman Thomas Jordan speaks";"Switzerland";"CHF";"2016-05-02T16:30:00";"GMT";" ";"";"";"Moderate"
