{"events": {"event": {
    "eventDateTime": "2017-03-23T21:00:00",
    "eventActual": "97",
    "eventCountry": "South Korea",
    "eventExpectedVolatility": "Low",
    "eventName": "Consumer Confidence (Mar)",
    "eventTimeZone": "GMT",
    "eventPrevious": "94",
    "eventCurrency": "KRW",
    "eventForecast": ""
  }}}
