"BoC Interest Rate Decision (Jan)";"Canada";"CAD";"2001-02-01T09:00:00";"GMT";"5.75%";"";"5.50%";"High"
"Budget Balance (Jan)";"Canada";"CAD";"2001-02-01T09:00:00";"GMT";"3.31B";"";"-0.70B";"Low"
"Building Permits (MoM) (Jan)";"Canada";"CAD";"2001-02-01T09:00:00";"GMT";"1.30%";"";"14.00%";"Moderate"
"CPI (MoM) (Jan)";"Canada";"CAD";"2001-02-01T09:00:00";"GMT";"0.10%";"";"-0.40%";"Moderate"
"CPI (YoY) (Jan)";"Canada";"CAD";"2001-02-01T09:00:00";"GMT";"3.20%";"";"3.00%";"Low"
"Core CPI (MoM) (Jan)";"Canada";"CAD";"2001-02-01T09:00:00";"GMT";"0.00%";"";"-0.10%";"High"
"Core CPI (YoY) (Jan)";"Canada";"CAD";"2001-02-01T09:00:00";"GMT";"1.70%";"";"1.80%";"Moderate"
"Core Retail Sales (MoM) (Jan)";"Canada";"CAD";"2001-02-01T09:00:00";"GMT";"0.70%";"";"-1.20%";"High"
"Employment Change (Jan)";"Canada";"CAD";"2001-02-01T09:00:00";"GMT";"48.60K";"";"-25.60K";"High"
"Exports (Jan)";"Canada";"CAD";"2001-02-01T09:00:00";"GMT";"38.12B";"";"38.97B";"Low"
"Foreign Securities Purchases (Jan)";"Canada";"CAD";"2001-02-01T09:00:00";"GMT";"-20.75B";"";"3.32B";"Moderate"
"Foreign Securities Purchases by Canadians (Jan)";"Canada";"CAD";"2001-02-01T09:00:00";"GMT";"15.90B";"";"8.91B";"Low"
"Full Employment Change (Jan)";"Canada";"CAD";"2001-02-01T09:00:00";"GMT";"16.30K";"";"-23.60K";"Low"
"GDP (MoM) (Jan)";"Canada";"CAD";"2001-02-01T09:00:00";"GMT";"0.20%";"";"0.00%";"High"
"Housing Starts (Jan)";"Canada";"CAD";"2001-02-01T09:00:00";"GMT";"144.50K";"";"160.90K";"Moderate"
"IPPI (MoM) (Jan)";"Canada";"CAD";"2001-02-01T09:00:00";"GMT";"-0.70%";"";"-0.40%";"Low"
"IPPI (YoY) (Jan)";"Canada";"CAD";"2001-02-01T09:00:00";"GMT";"3.50%";"";"3.20%";"Low"
"Imports (Jan)";"Canada";"CAD";"2001-02-01T09:00:00";"GMT";"31.08B";"";"30.44B";"Low"
"Ivey PMI n.s.a (Jan)";"Canada";"CAD";"2001-02-01T09:00:00";"GMT";"56.10";"";"47.50";"Low"
"Manufacturing Sales (MoM) (Jan)";"Canada";"CAD";"2001-02-01T09:00:00";"GMT";"-0.80%";"";"-2.10%";"Moderate"
"New Housing Price Index (MoM) (Jan)";"Canada";"CAD";"2001-02-01T09:00:00";"GMT";"0.00%";"";"0.30%";"Moderate"
"Part Time Employment Change (Jan)";"Canada";"CAD";"2001-02-01T09:00:00";"GMT";"32.30K";"";"-2.10K";"Low"
"Participation Rate (Jan)";"Canada";"CAD";"2001-02-01T09:00:00";"GMT";"66.00%";"";"65.90%";"Low"
"RMPI (MoM) (Jan)";"Canada";"CAD";"2001-02-01T09:00:00";"GMT";"-5.50%";"";"1.60%";"Moderate"
"RMPI (YoY) (Jan)";"Canada";"CAD";"2001-02-01T09:00:00";"GMT";"9.40%";"";"10.30%";"Low"
"Retail Sales (MoM) (Jan)";"Canada";"CAD";"2001-02-01T09:00:00";"GMT";"0.60%";"";"0.50%";"Moderate"
"Trade Balance (Jan)";"Canada";"CAD";"2001-02-01T09:00:00";"GMT";"7.04B";"";"8.52B";"Moderate"
"Unemployment Rate (Jan)";"Canada";"CAD";"2001-02-01T09:00:00";"GMT";"6.80%";"";"6.90%";"Moderate"
"Wholesale Sales (MoM) (Jan)";"Canada";"CAD";"2001-02-01T09:00:00";"GMT";"1.10%";"";"0.10%";"Moderate"
