{"events": {"event": {
    "eventDateTime": "2018-11-28T00:00:00",
    "eventActual": "",
    "eventCountry": "New Zealand",
    "eventExpectedVolatility": "High",
    "eventName": "RBNZ Gov Orr Speaks",
    "eventTimeZone": "GMT",
    "eventPrevious": "",
    "eventCurrency": "NZD",
    "eventForecast": ""
  }}}
