{"events": {"event": [
    {
      "eventDateTime": "2017-09-21T13:00:00",
      "eventActual": "6.75%",
      "eventCountry": "South Africa",
      "eventExpectedVolatility": "Moderate",
      "eventName": "Interest Rate Decision (Sep)",
      "eventTimeZone": "GMT",
      "eventPrevious": "6.75%",
      "eventCurrency": "ZAR",
      "eventForecast": "6.50%"
    },
    {
      "eventDateTime": "2017-09-21T13:00:00",
      "eventActual": "10.25%",
      "eventCountry": "South Africa",
      "eventExpectedVolatility": "Low",
      "eventName": "Prime Rate (Sep)",
      "eventTimeZone": "GMT",
      "eventPrevious": "10.25%",
      "eventCurrency": "ZAR",
      "eventForecast": ""
    }
  ]}}
