"Auto Production (MoM) (May)";"Brazil";"BRL";"2013-06-01T09:00:00";"GMT";"7.17%";"";"-2.26%";"Low"
"Budget Balance (May)";"Brazil";"BRL";"2013-06-01T09:00:00";"GMT";"-7.68B";"";"-14.52B";"Low"
"Budget Surplus (May)";"Brazil";"BRL";"2013-06-01T09:00:00";"GMT";"10.33B";"";"5.68B";"Low"
"CAGED Net Payroll Jobs (May)";"Brazil";"BRL";"2013-06-01T09:00:00";"GMT";"197.00K";"";"72.00K";"Moderate"
"CPI (MoM) (May)";"Brazil";"BRL";"2013-06-01T09:00:00";"GMT";"0.55%";"";"0.37%";"Moderate"
"Federal Tax Revenue (May)";"Brazil";"BRL";"2013-06-01T09:00:00";"GMT";"99.00B";"";"88.00B";"Low"
"IGP-DI Inflation Index (MoM) (May)";"Brazil";"BRL";"2013-06-01T09:00:00";"GMT";"-0.06%";"";"0.32%";"Low"
"IGP-M Inflation Index (MoM) (May)";"Brazil";"BRL";"2013-06-01T09:00:00";"GMT";"0.15%";"";"0.00%";"Low"
"IPC-Fipe Inflation Index (MoM) (May)";"Brazil";"BRL";"2013-06-01T09:00:00";"GMT";"0.28%";"";"0.10%";"Moderate"
"Industrial Production (MoM) (May)";"Brazil";"BRL";"2013-06-01T09:00:00";"GMT";"0.89%";"";"-0.29%";"Low"
"Markit Composite PMI (May)";"Brazil";"BRL";"2013-06-01T09:00:00";"GMT";"51.50";"";"51.20";"Low"
"Markit Manufacturing PMI (May)";"Brazil";"BRL";"2013-06-01T09:00:00";"GMT";"50.80";"";"50.40";"Low"
"Markit Services PMI (May)";"Brazil";"BRL";"2013-06-01T09:00:00";"GMT";"51.30";"";"51.00";"Low"
"Mid-Month CPI (MoM) (May)";"Brazil";"BRL";"2013-06-01T09:00:00";"GMT";"0.51%";"";"0.46%";"Low"
"Mid-Month CPI (YoY) (May)";"Brazil";"BRL";"2013-06-01T09:00:00";"GMT";"6.51%";"";"6.46%";"Low"
