{"events": {"event": {
    "eventDateTime": "2014-08-20T15:30:00",
    "eventActual": "0.50B",
    "eventCountry": "Brazil",
    "eventExpectedVolatility": "Low",
    "eventName": "Foreign Exchange Flows",
    "eventTimeZone": "GMT",
    "eventPrevious": "1.24B",
    "eventCurrency": "BRL",
    "eventForecast": ""
  }}}
