{"events": {"event": [
    {
      "eventDateTime": "2019-04-12T06:30:00",
      "eventActual": "14.2%",
      "eventCountry": "China",
      "eventExpectedVolatility": "Moderate",
      "eventName": "Exports (YoY) (Mar)",
      "eventTimeZone": "GMT",
      "eventPrevious": "-20.8%",
      "eventCurrency": "CNY",
      "eventForecast": "7.3%"
    },
    {
      "eventDateTime": "2019-04-12T06:30:00",
      "eventActual": "-7.6%",
      "eventCountry": "China",
      "eventExpectedVolatility": "Moderate",
      "eventName": "Imports (YoY) (Mar)",
      "eventTimeZone": "GMT",
      "eventPrevious": "-5.2%",
      "eventCurrency": "CNY",
      "eventForecast": "-1.3%"
    },
    {
      "eventDateTime": "2019-04-12T06:30:00",
      "eventActual": "32.65B",
      "eventCountry": "China",
      "eventExpectedVolatility": "Moderate",
      "eventName": "Trade Balance (USD) (Mar)",
      "eventTimeZone": "GMT",
      "eventPrevious": "4.08B",
      "eventCurrency": "CNY",
      "eventForecast": "7.05B"
    },
    {
      "eventDateTime": "2019-04-12T08:00:00",
      "eventActual": "8.6%",
      "eventCountry": "China",
      "eventExpectedVolatility": "Low",
      "eventName": "M2 Money Stock (YoY) (Mar)",
      "eventTimeZone": "GMT",
      "eventPrevious": "8.0%",
      "eventCurrency": "CNY",
      "eventForecast": "8.2%"
    },
    {
      "eventDateTime": "2019-04-12T08:00:00",
      "eventActual": "1,690.0B",
      "eventCountry": "China",
      "eventExpectedVolatility": "Moderate",
      "eventName": "New Loans (Mar)",
      "eventTimeZone": "GMT",
      "eventPrevious": "885.8B",
      "eventCurrency": "CNY",
      "eventForecast": "1,200.0B"
    },
    {
      "eventDateTime": "2019-04-12T08:01:00",
      "eventActual": "13.7%",
      "eventCountry": "China",
      "eventExpectedVolatility": "Low",
      "eventName": "Outstanding Loan Growth (YoY) (Mar)",
      "eventTimeZone": "GMT",
      "eventPrevious": "13.4%",
      "eventCurrency": "CNY",
      "eventForecast": "13.4%"
    }
  ]}}
