"CPI (MoM) (Nov)";"South Korea";"KRW";"2004-12-01T09:00:00";"GMT";"0.00%";"";"-0.60%";"Low"
"CPI (YoY) (Nov)";"South Korea";"KRW";"2004-12-01T09:00:00";"GMT";"3.80%";"";"3.30%";"Moderate"
"Current Account (Nov)";"South Korea";"KRW";"2004-12-01T09:00:00";"GMT";"0.29B";"";"2.81B";"Low"
"Export Price Index (YoY) (Nov)";"South Korea";"KRW";"2004-12-01T09:00:00";"GMT";"13.00%";"";"5.10%";"Low"
"Exports (YoY) (Nov)";"South Korea";"KRW";"2004-12-01T09:00:00";"GMT";"19.70%";"";"26.50%";"Low"
"FX Reserves - USD (Nov)";"South Korea";"KRW";"2004-12-01T09:00:00";"GMT";"178.39B";"";"192.60B";"Low"
"Import Price Index (YoY) (Nov)";"South Korea";"KRW";"2004-12-01T09:00:00";"GMT";"16.80%";"";"8.20%";"Low"
"Imports (YoY) (Nov)";"South Korea";"KRW";"2004-12-01T09:00:00";"GMT";"23.40%";"";"28.90%";"Low"
"Industrial Production (MoM) (Nov)";"South Korea";"KRW";"2004-12-01T09:00:00";"GMT";"-0.10%";"";"1.50%";"Low"
"Industrial Production (YoY) (Nov)";"South Korea";"KRW";"2004-12-01T09:00:00";"GMT";"5.50%";"";"9.70%";"Low"
"Interest Rate Decision (Nov)";"South Korea";"KRW";"2004-12-01T09:00:00";"GMT";"3.50%";"";"3.25%";"Low"
"M2 Money supply (Nov)";"South Korea";"KRW";"2004-12-01T09:00:00";"GMT";"7.10%";"";"6.20%";"Low"
"Manufacturing BSI Index (Nov)";"South Korea";"KRW";"2004-12-01T09:00:00";"GMT";"83.00";"";"80.00";"Low"
"PPI (MoM) (Nov)";"South Korea";"KRW";"2004-12-01T09:00:00";"GMT";"0.00%";"";"0.10%";"Low"
"PPI (YoY) (Nov)";"South Korea";"KRW";"2004-12-01T09:00:00";"GMT";"7.30%";"";"6.90%";"Low"
"Service Sector Output (MoM) (Nov)";"South Korea";"KRW";"2004-12-01T09:00:00";"GMT";"-0.60%";"";"0.30%";"Low"
"Trade Balance (Nov)";"South Korea";"KRW";"2004-12-01T09:00:00";"GMT";"2.26B";"";"0.00B";"Low"
"Unemployment Rate (Nov)";"South Korea";"KRW";"2004-12-01T09:00:00";"GMT";"3.70%";"";"3.80%";"Low"
