{"events": {"event": [
    {
      "eventDateTime": "2019-10-18T11:30:00",
      "eventActual": "439.71B",
      "eventCountry": "India",
      "eventExpectedVolatility": "Low",
      "eventName": "FX Reserves, USD",
      "eventTimeZone": "GMT",
      "eventPrevious": "437.83B",
      "eventCurrency": "INR",
      "eventForecast": ""
    },
    {
      "eventDateTime": "2019-10-18T11:30:00",
      "eventActual": "",
      "eventCountry": "India",
      "eventExpectedVolatility": "Moderate",
      "eventName": "RBI MPC Meeting Minutes",
      "eventTimeZone": "GMT",
      "eventPrevious": "",
      "eventCurrency": "INR",
      "eventForecast": ""
    }
  ]}}
