{"events": {"event": [
    {
      "eventDateTime": "2013-11-13T23:50:00",
      "eventActual": "357.1B",
      "eventCountry": "Japan",
      "eventExpectedVolatility": "Low",
      "eventName": "Foreign Bonds Buying",
      "eventTimeZone": "GMT",
      "eventPrevious": "276.8B",
      "eventCurrency": "JPY",
      "eventForecast": ""
    },
    {
      "eventDateTime": "2013-11-13T23:50:00",
      "eventActual": "0.5%",
      "eventCountry": "Japan",
      "eventExpectedVolatility": "High",
      "eventName": "GDP (QoQ)",
      "eventTimeZone": "GMT",
      "eventPrevious": "0.9%",
      "eventCurrency": "JPY",
      "eventForecast": "0.4%"
    },
    {
      "eventDateTime": "2013-11-13T23:50:00",
      "eventActual": "1.9%",
      "eventCountry": "Japan",
      "eventExpectedVolatility": "Moderate",
      "eventName": "GDP (YoY)",
      "eventTimeZone": "GMT",
      "eventPrevious": "3.8%",
      "eventCurrency": "JPY",
      "eventForecast": "2.8%"
    },
    {
      "eventDateTime": "2013-11-13T23:50:00",
      "eventActual": "-0.3%",
      "eventCountry": "Japan",
      "eventExpectedVolatility": "Low",
      "eventName": "GDP Price Index (YoY)",
      "eventTimeZone": "GMT",
      "eventPrevious": "-0.5%",
      "eventCurrency": "JPY",
      "eventForecast": "-0.5%"
    }
  ]}}
