{"events": {"event": [
    {
      "eventDateTime": "2016-08-08T06:00:00",
      "eventActual": "0.8%",
      "eventCountry": "Germany",
      "eventExpectedVolatility": "Moderate",
      "eventName": "German Industrial Production (MoM) (Jun)",
      "eventTimeZone": "GMT",
      "eventPrevious": "-0.9%",
      "eventCurrency": "EUR",
      "eventForecast": "0.7%"
    },
    {
      "eventDateTime": "2016-08-08T06:30:00",
      "eventActual": "30.8%",
      "eventCountry": "Euro Zone",
      "eventExpectedVolatility": "Moderate",
      "eventName": "Investing.com EUR/USD Index",
      "eventTimeZone": "GMT",
      "eventPrevious": "20.3%",
      "eventCurrency": "EUR",
      "eventForecast": ""
    },
    {
      "eventDateTime": "2016-08-08T08:30:00",
      "eventActual": "4.2",
      "eventCountry": "Euro Zone",
      "eventExpectedVolatility": "Low",
      "eventName": "Sentix Investor Confidence (Aug)",
      "eventTimeZone": "GMT",
      "eventPrevious": "1.7",
      "eventCurrency": "EUR",
      "eventForecast": "3.0"
    },
    {
      "eventDateTime": "2016-08-08T09:35:00",
      "eventActual": "-0.619%",
      "eventCountry": "Germany",
      "eventExpectedVolatility": "Low",
      "eventName": "German 6-Month Bubill Auction",
      "eventTimeZone": "GMT",
      "eventPrevious": "-0.668%",
      "eventCurrency": "EUR",
      "eventForecast": ""
    },
    {
      "eventDateTime": "2016-08-08T13:00:00",
      "eventActual": "-0.574%",
      "eventCountry": "France",
      "eventExpectedVolatility": "Low",
      "eventName": "French 12-Month BTF Auction",
      "eventTimeZone": "GMT",
      "eventPrevious": "-0.560%",
      "eventCurrency": "EUR",
      "eventForecast": ""
    },
    {
      "eventDateTime": "2016-08-08T13:00:00",
      "eventActual": "-0.583%",
      "eventCountry": "France",
      "eventExpectedVolatility": "Low",
      "eventName": "French 3-Month BTF Auction",
      "eventTimeZone": "GMT",
      "eventPrevious": "-0.570%",
      "eventCurrency": "EUR",
      "eventForecast": ""
    },
    {
      "eventDateTime": "2016-08-08T13:00:00",
      "eventActual": "-0.587%",
      "eventCountry": "France",
      "eventExpectedVolatility": "Low",
      "eventName": "French 6-Month BTF Auction",
      "eventTimeZone": "GMT",
      "eventPrevious": "-0.556%",
      "eventCurrency": "EUR",
      "eventForecast": ""
    }
  ]}}
