{"events": {"event": {
    "eventDateTime": "2018-03-13T11:30:00",
    "eventActual": "",
    "eventCountry": "United Kingdom",
    "eventExpectedVolatility": "High",
    "eventName": "Spring Forecast Statement",
    "eventTimeZone": "GMT",
    "eventPrevious": "",
    "eventCurrency": "GBP",
    "eventForecast": ""
  }}}
