"Italian Consumer Confidence";"Italy";"EUR";"2012-11-26T09:00:00";"GMT";"86.2";"86.5";"84.8";"Low"
"German 12-Month Bubill Auction";"Germany";"EUR";"2012-11-26T10:30:00";"GMT";"-0.010%";"";"-0.009%";"Low"
"GfK German Consumer Climate";"Germany";"EUR";"2012-11-26T12:00:00";"GMT";"6.1";"6.2";"5.9";"Moderate"
"French 12-Month BTF Auction";"France";"EUR";"2012-11-26T14:00:00";"GMT";"0.026%";"";"0.019%";"Low"
"French 3-Month BTF Auction";"France";"EUR";"2012-11-26T14:00:00";"GMT";"-0.016%";"";"-0.020%";"Low"
"French 6-Month BTF Auction";"France";"EUR";"2012-11-26T14:00:00";"GMT";"-0.009%";"";"-0.010%";"Low"
