{"events": {"event": [
    {
      "eventDateTime": "2008-03-20T07:15:00",
      "eventActual": "1.550B",
      "eventCountry": "Switzerland",
      "eventExpectedVolatility": "Low",
      "eventName": "Trade Balance",
      "eventTimeZone": "GMT",
      "eventPrevious": "1.060B",
      "eventCurrency": "CHF",
      "eventForecast": "0.000B"
    },
    {
      "eventDateTime": "2008-03-20T08:15:00",
      "eventActual": "0.2%",
      "eventCountry": "Switzerland",
      "eventExpectedVolatility": "Moderate",
      "eventName": "PPI (MoM)",
      "eventTimeZone": "GMT",
      "eventPrevious": "0.5%",
      "eventCurrency": "CHF",
      "eventForecast": "0.3%"
    }
  ]}}
