"Building Capital Expenditure (MoM)";"Australia";"AUD";"2014-02-27T00:30:00";"GMT";"5.4%";"0.6%";"-3.5%";"Low"
"Plant/Machinery Capital Expenditure (QoQ)";"Australia";"AUD";"2014-02-27T00:30:00";"GMT";"-2.8%";"0.5%";"-8.6%";"Low"
"Private New Capital Expenditure (QoQ)";"Australia";"AUD";"2014-02-27T00:30:00";"GMT";"2.6%";"-1.0%";"-5.2%";"Moderate"
