{"events": {"event": {
    "eventDateTime": "2013-03-14T04:30:00",
    "eventActual": "0.3%",
    "eventCountry": "Japan",
    "eventExpectedVolatility": "Moderate",
    "eventName": "Industrial Production (MoM)",
    "eventTimeZone": "GMT",
    "eventPrevious": "0.3%",
    "eventCurrency": "JPY",
    "eventForecast": "0.0%"
  }}}
