{"events": {"event": [
    {
      "eventDateTime": "2001-03-09T12:30:00",
      "eventActual": "71K",
      "eventCountry": "United States",
      "eventExpectedVolatility": "High",
      "eventName": "Nonfarm Payrolls (Feb)",
      "eventTimeZone": "GMT",
      "eventPrevious": "-27K",
      "eventCurrency": "USD",
      "eventForecast": ""
    },
    {
      "eventDateTime": "2001-03-09T17:00:00",
      "eventActual": "252",
      "eventCountry": "United States",
      "eventExpectedVolatility": "Moderate",
      "eventName": "U.S. Baker Hughes Oil Rig Count",
      "eventTimeZone": "GMT",
      "eventPrevious": "240",
      "eventCurrency": "USD",
      "eventForecast": ""
    },
    {
      "eventDateTime": "2001-03-09T20:30:00",
      "eventActual": "-23.7k",
      "eventCountry": "United States",
      "eventExpectedVolatility": "Moderate",
      "eventName": "CFTC Crude Oil speculative net positions",
      "eventTimeZone": "GMT",
      "eventPrevious": "-24.4k",
      "eventCurrency": "USD",
      "eventForecast": ""
    }
  ]}}
