{"events": {"event": {
    "eventDateTime": "2013-01-29T21:45:00",
    "eventActual": "9.4%",
    "eventCountry": "New Zealand",
    "eventExpectedVolatility": "Moderate",
    "eventName": "Building Consents (MoM)",
    "eventTimeZone": "GMT",
    "eventPrevious": "-5.4%",
    "eventCurrency": "NZD",
    "eventForecast": "6.0%"
  }}}
