"Monster Employment Index";"United States";"USD";"2012-10-05T05:05:00";"GMT";"156";"";"153";"Low"
"Average Hourly Earnings (MoM)";"United States";"USD";"2012-10-05T12:30:00";"GMT";"0.0%";"0.2%";"0.3%";"Moderate"
"Average Weekly Hours";"United States";"USD";"2012-10-05T12:30:00";"GMT";"34.4";"34.4";"34.5";"Low"
"Nonfarm Payrolls";"United States";"USD";"2012-10-05T12:30:00";"GMT";"142K";"113K";"114K";"High"
"Private Nonfarm Payrolls";"United States";"USD";"2012-10-05T12:30:00";"GMT";"97K";"130K";"104K";"Moderate"
"U6 Unemployment Rate (Sep)";"United States";"USD";"2012-10-05T12:30:00";"GMT";"14.60%";"";"14.80%";"Low"
"Unemployment Rate";"United States";"USD";"2012-10-05T12:30:00";"GMT";"8.1%";"8.2%";"7.8%";"High"
"U.S. Baker Hughes Oil Rig Count";"United States";"USD";"2012-10-05T17:00:00";"GMT";"1410";"";"1398";"Moderate"
"Consumer Credit";"United States";"USD";"2012-10-05T19:00:00";"GMT";"-2.45B";"6.50B";"18.12B";"Low"
"CFTC Gold speculative net positions";"United States";"USD";"2012-10-05T19:30:00";"GMT";"203.9K";"";"208.3K";"Moderate"
"CFTC Silver speculative net positions";"United States";"USD";"2012-10-05T19:30:00";"GMT";"34.0K";"";"38.1K";"Low"
"CFTC Crude Oil speculative net positions";"United States";"USD";"2012-10-05T20:30:00";"GMT";"231.3k";"";"215.9k";"Moderate"
