{"events": {"event": {
    "eventDateTime": "2012-12-10T17:15:00",
    "eventActual": "",
    "eventCountry": "United Kingdom",
    "eventExpectedVolatility": "High",
    "eventName": "BoE Gov King Speaks",
    "eventTimeZone": "GMT",
    "eventPrevious": "",
    "eventCurrency": "GBP",
    "eventForecast": ""
  }}}
