{"events": {"event": {
    "eventDateTime": "2015-04-13T06:00:00",
    "eventActual": "27.4%",
    "eventCountry": "Australia",
    "eventExpectedVolatility": "Moderate",
    "eventName": "Investing.com AUD/USD Index",
    "eventTimeZone": "GMT",
    "eventPrevious": "41.7%",
    "eventCurrency": "AUD",
    "eventForecast": ""
  }}}
