"Annual Budget Release";"New Zealand";"NZD";"2016-05-26T02:00:00";"GMT";" ";"";"";"High"
"Budget Balance";"New Zealand";"NZD";"2016-05-26T02:00:00";"GMT";"-5.400B";"";"-2.120B";"Low"
"Economic Forecast";"New Zealand";"NZD";"2016-05-26T02:00:00";"GMT";"0.400B";"";"0.670B";"Low"
"Net Debt Forecast";"New Zealand";"NZD";"2016-05-26T02:00:00";"GMT";"26.90%";"";"24.90%";"Low"
