{"events": {"event": [
    {
      "eventDateTime": "2014-12-26T01:30:00",
      "eventActual": "-1.5%",
      "eventCountry": "Japan",
      "eventExpectedVolatility": "Low",
      "eventName": "Average Cash Earnings (YoY)",
      "eventTimeZone": "GMT",
      "eventPrevious": "0.2%",
      "eventCurrency": "JPY",
      "eventForecast": "0.5%"
    },
    {
      "eventDateTime": "2014-12-26T01:30:00",
      "eventActual": "-0.90%",
      "eventCountry": "Japan",
      "eventExpectedVolatility": "Low",
      "eventName": "Overtime Pay (YoY) (Nov)",
      "eventTimeZone": "GMT",
      "eventPrevious": "0.40%",
      "eventCurrency": "JPY",
      "eventForecast": ""
    },
    {
      "eventDateTime": "2014-12-26T20:30:00",
      "eventActual": "-93.7K",
      "eventCountry": "Japan",
      "eventExpectedVolatility": "Moderate",
      "eventName": "CFTC JPY speculative net positions",
      "eventTimeZone": "GMT",
      "eventPrevious": "-86.9K",
      "eventCurrency": "JPY",
      "eventForecast": ""
    }
  ]}}
