{"events": {"event": [
    {
      "eventDateTime": "2015-02-13T06:30:00",
      "eventActual": "0.1%",
      "eventCountry": "France",
      "eventExpectedVolatility": "Moderate",
      "eventName": "French GDP (QoQ) (Q4)",
      "eventTimeZone": "GMT",
      "eventPrevious": "0.3%",
      "eventCurrency": "EUR",
      "eventForecast": "0.1%"
    },
    {
      "eventDateTime": "2015-02-13T07:00:00",
      "eventActual": "0.7%",
      "eventCountry": "Germany",
      "eventExpectedVolatility": "High",
      "eventName": "German GDP (QoQ) (Q4)",
      "eventTimeZone": "GMT",
      "eventPrevious": "0.1%",
      "eventCurrency": "EUR",
      "eventForecast": "0.3%"
    },
    {
      "eventDateTime": "2015-02-13T07:00:00",
      "eventActual": "1.6%",
      "eventCountry": "Germany",
      "eventExpectedVolatility": "Moderate",
      "eventName": "German GDP (YoY) (Q4)",
      "eventTimeZone": "GMT",
      "eventPrevious": "1.2%",
      "eventCurrency": "EUR",
      "eventForecast": "1.0%"
    },
    {
      "eventDateTime": "2015-02-13T07:00:00",
      "eventActual": "-0.4%",
      "eventCountry": "Germany",
      "eventExpectedVolatility": "Low",
      "eventName": "German WPI (MoM) (Jan)",
      "eventTimeZone": "GMT",
      "eventPrevious": "-1.0%",
      "eventCurrency": "EUR",
      "eventForecast": "0.4%"
    },
    {
      "eventDateTime": "2015-02-13T07:00:00",
      "eventActual": "-2.6%",
      "eventCountry": "Germany",
      "eventExpectedVolatility": "Low",
      "eventName": "German WPI (YoY) (Jan)",
      "eventTimeZone": "GMT",
      "eventPrevious": "-2.3%",
      "eventCurrency": "EUR",
      "eventForecast": ""
    },
    {
      "eventDateTime": "2015-02-13T07:45:00",
      "eventActual": "0.0%",
      "eventCountry": "France",
      "eventExpectedVolatility": "Moderate",
      "eventName": "French Non-Farm Payrolls (QoQ) (Q4)",
      "eventTimeZone": "GMT",
      "eventPrevious": "-0.2%",
      "eventCurrency": "EUR",
      "eventForecast": "-0.1%"
    },
    {
      "eventDateTime": "2015-02-13T08:00:00",
      "eventActual": "-1.6%",
      "eventCountry": "Spain",
      "eventExpectedVolatility": "Low",
      "eventName": "Spanish CPI (MoM) (Jan)",
      "eventTimeZone": "GMT",
      "eventPrevious": "-0.6%",
      "eventCurrency": "EUR",
      "eventForecast": "-1.7%"
    },
    {
      "eventDateTime": "2015-02-13T08:00:00",
      "eventActual": "-1.3%",
      "eventCountry": "Spain",
      "eventExpectedVolatility": "Moderate",
      "eventName": "Spanish CPI (YoY) (Jan)",
      "eventTimeZone": "GMT",
      "eventPrevious": "-1.4%",
      "eventCurrency": "EUR",
      "eventForecast": "-1.4%"
    },
    {
      "eventDateTime": "2015-02-13T08:00:00",
      "eventActual": "-2.2%",
      "eventCountry": "Spain",
      "eventExpectedVolatility": "Low",
      "eventName": "Spanish HICP (MoM) (Jan)",
      "eventTimeZone": "GMT",
      "eventPrevious": "-0.7%",
      "eventCurrency": "EUR",
      "eventForecast": "-0.7%"
    },
    {
      "eventDateTime": "2015-02-13T08:00:00",
      "eventActual": "-1.5%",
      "eventCountry": "Spain",
      "eventExpectedVolatility": "Moderate",
      "eventName": "Spanish HICP (YoY) (Jan)",
      "eventTimeZone": "GMT",
      "eventPrevious": "-1.1%",
      "eventCurrency": "EUR",
      "eventForecast": "-1.5%"
    },
    {
      "eventDateTime": "2015-02-13T09:00:00",
      "eventActual": "0.0%",
      "eventCountry": "Italy",
      "eventExpectedVolatility": "Low",
      "eventName": "Italian GDP (QoQ) (Q4)",
      "eventTimeZone": "GMT",
      "eventPrevious": "-0.1%",
      "eventCurrency": "EUR",
      "eventForecast": "-0.1%"
    },
    {
      "eventDateTime": "2015-02-13T09:00:00",
      "eventActual": "-0.3%",
      "eventCountry": "Italy",
      "eventExpectedVolatility": "Low",
      "eventName": "Italian GDP (YoY) (Q4)",
      "eventTimeZone": "GMT",
      "eventPrevious": "-0.4%",
      "eventCurrency": "EUR",
      "eventForecast": "-0.4%"
    },
    {
      "eventDateTime": "2015-02-13T10:00:00",
      "eventActual": "0.3%",
      "eventCountry": "Euro Zone",
      "eventExpectedVolatility": "Moderate",
      "eventName": "GDP (QoQ) (Q4)",
      "eventTimeZone": "GMT",
      "eventPrevious": "0.2%",
      "eventCurrency": "EUR",
      "eventForecast": "0.2%"
    },
    {
      "eventDateTime": "2015-02-13T10:00:00",
      "eventActual": "0.9%",
      "eventCountry": "Euro Zone",
      "eventExpectedVolatility": "Moderate",
      "eventName": "GDP (YoY) (Q4)",
      "eventTimeZone": "GMT",
      "eventPrevious": "0.8%",
      "eventCurrency": "EUR",
      "eventForecast": "0.8%"
    },
    {
      "eventDateTime": "2015-02-13T20:30:00",
      "eventActual": "-194.6K",
      "eventCountry": "Euro Zone",
      "eventExpectedVolatility": "Moderate",
      "eventName": "CFTC EUR speculative net positions",
      "eventTimeZone": "GMT",
      "eventPrevious": "-196.3K",
      "eventCurrency": "EUR",
      "eventForecast": ""
    }
  ]}}
