"Brazilian Service Sector Growth (MoM) (Aug)";"Brazil";"BRL";"2019-10-11T12:00:00";"GMT";"0.8%";"-0.1%";"-0.2%";"Low"
"Brazilian Service Sector Growth (YoY) (Aug)";"Brazil";"BRL";"2019-10-11T12:00:00";"GMT";"1.8%";"-1.0%";"-1.4%";"Low"
"CFTC BRL speculative net positions";"Brazil";"BRL";"2019-10-11T19:30:00";"GMT";"-39.9K";"";"-45.8K";"Moderate"
