{"events": {"event": [
    {
      "eventDateTime": "2016-12-09T15:00:00",
      "eventActual": "2.50%",
      "eventCountry": "United States",
      "eventExpectedVolatility": "Low",
      "eventName": "Michigan 5-Year Inflation Expectations (Dec)",
      "eventTimeZone": "GMT",
      "eventPrevious": "2.60%",
      "eventCurrency": "USD",
      "eventForecast": ""
    },
    {
      "eventDateTime": "2016-12-09T15:00:00",
      "eventActual": "88.9",
      "eventCountry": "United States",
      "eventExpectedVolatility": "Moderate",
      "eventName": "Michigan Consumer Expectations (Dec)",
      "eventTimeZone": "GMT",
      "eventPrevious": "85.2",
      "eventCurrency": "USD",
      "eventForecast": "87.0"
    },
    {
      "eventDateTime": "2016-12-09T15:00:00",
      "eventActual": "98.0",
      "eventCountry": "United States",
      "eventExpectedVolatility": "Moderate",
      "eventName": "Michigan Consumer Sentiment (Dec)",
      "eventTimeZone": "GMT",
      "eventPrevious": "93.8",
      "eventCurrency": "USD",
      "eventForecast": "94.5"
    },
    {
      "eventDateTime": "2016-12-09T15:00:00",
      "eventActual": "112.1",
      "eventCountry": "United States",
      "eventExpectedVolatility": "Low",
      "eventName": "Michigan Current Conditions (Dec)",
      "eventTimeZone": "GMT",
      "eventPrevious": "107.3",
      "eventCurrency": "USD",
      "eventForecast": "108.5"
    },
    {
      "eventDateTime": "2016-12-09T15:00:00",
      "eventActual": "2.3%",
      "eventCountry": "United States",
      "eventExpectedVolatility": "Low",
      "eventName": "Michigan Inflation Expectations (Dec)",
      "eventTimeZone": "GMT",
      "eventPrevious": "2.4%",
      "eventCurrency": "USD",
      "eventForecast": ""
    },
    {
      "eventDateTime": "2016-12-09T15:00:00",
      "eventActual": "-0.4%",
      "eventCountry": "United States",
      "eventExpectedVolatility": "Low",
      "eventName": "Wholesale Inventories (MoM) (Oct)",
      "eventTimeZone": "GMT",
      "eventPrevious": "-0.4%",
      "eventCurrency": "USD",
      "eventForecast": "-0.4%"
    },
    {
      "eventDateTime": "2016-12-09T18:00:00",
      "eventActual": "498",
      "eventCountry": "United States",
      "eventExpectedVolatility": "Moderate",
      "eventName": "U.S. Baker Hughes Oil Rig Count",
      "eventTimeZone": "GMT",
      "eventPrevious": "477",
      "eventCurrency": "USD",
      "eventForecast": ""
    },
    {
      "eventDateTime": "2016-12-09T20:30:00",
      "eventActual": "56.4K",
      "eventCountry": "United States",
      "eventExpectedVolatility": "Low",
      "eventName": "CFTC Copper speculative net positions",
      "eventTimeZone": "GMT",
      "eventPrevious": "53.4K",
      "eventCurrency": "USD",
      "eventForecast": ""
    },
    {
      "eventDateTime": "2016-12-09T20:30:00",
      "eventActual": "377.6K",
      "eventCountry": "United States",
      "eventExpectedVolatility": "Moderate",
      "eventName": "CFTC Crude Oil speculative net positions",
      "eventTimeZone": "GMT",
      "eventPrevious": "287.9K",
      "eventCurrency": "USD",
      "eventForecast": ""
    },
    {
      "eventDateTime": "2016-12-09T20:30:00",
      "eventActual": "136.4K",
      "eventCountry": "United States",
      "eventExpectedVolatility": "Moderate",
      "eventName": "CFTC Gold speculative net positions",
      "eventTimeZone": "GMT",
      "eventPrevious": "151.6K",
      "eventCurrency": "USD",
      "eventForecast": ""
    },
    {
      "eventDateTime": "2016-12-09T20:30:00",
      "eventActual": "-133.3K",
      "eventCountry": "United States",
      "eventExpectedVolatility": "Moderate",
      "eventName": "CFTC Sandamp:P 500 speculative net positions",
      "eventTimeZone": "GMT",
      "eventPrevious": "-139.3K",
      "eventCurrency": "USD",
      "eventForecast": ""
    },
    {
      "eventDateTime": "2016-12-09T20:30:00",
      "eventActual": "59.4K",
      "eventCountry": "United States",
      "eventExpectedVolatility": "Low",
      "eventName": "CFTC Silver speculative net positions",
      "eventTimeZone": "GMT",
      "eventPrevious": "59.0K",
      "eventCurrency": "USD",
      "eventForecast": ""
    }
  ]}}
