"M2 Money Stock (YoY) (Sep)";"China";"CNY";"2016-10-18T07:03:00";"GMT";"11.4%";"11.6%";"11.5%";"Low"
"New Loans (Sep)";"China";"CNY";"2016-10-18T07:03:00";"GMT";"948.7B";"1,000.0B";"1,220.0B";"Moderate"
"Outstanding Loan Growth (YoY) (Sep)";"China";"CNY";"2016-10-18T07:03:00";"GMT";"13.0%";"12.9%";"13.0%";"Low"
