{"events": {"event": [
    {
      "eventDateTime": "2011-02-16T00:30:00",
      "eventActual": "-1.9%",
      "eventCountry": "Australia",
      "eventExpectedVolatility": "Low",
      "eventName": "New Motor Vehicle Sales (MoM)",
      "eventTimeZone": "GMT",
      "eventPrevious": "1.0%",
      "eventCurrency": "AUD",
      "eventForecast": ""
    },
    {
      "eventDateTime": "2011-02-16T22:10:00",
      "eventActual": "",
      "eventCountry": "Australia",
      "eventExpectedVolatility": "Moderate",
      "eventName": "RBA Governor Lowe Speaks",
      "eventTimeZone": "GMT",
      "eventPrevious": "",
      "eventCurrency": "AUD",
      "eventForecast": ""
    }
  ]}}
