"Exports (YoY) (Sep)";"South Korea";"KRW";"2018-10-15T02:00:00";"GMT";"-8.2%";"";"-8.2%";"Low"
"Imports (YoY) (Sep)";"South Korea";"KRW";"2018-10-15T02:00:00";"GMT";"-2.1%";"";"-1.6%";"Low"
"Trade Balance (Sep)";"South Korea";"KRW";"2018-10-15T02:00:00";"GMT";"9.70B";"";"9.57B";"Low"
"Export Price Index (YoY) (Sep)";"South Korea";"KRW";"2018-10-15T21:00:00";"GMT";"2.2%";"";"1.4%";"Low"
"Import Price Index (YoY) (Sep)";"South Korea";"KRW";"2018-10-15T21:00:00";"GMT";"10.0%";"";"9.7%";"Low"
