{"events": {"event": {
    "eventDateTime": "2010-09-03T11:00:00",
    "eventActual": "8.8%",
    "eventCountry": "Brazil",
    "eventExpectedVolatility": "Moderate",
    "eventName": "GDP (YoY)",
    "eventTimeZone": "GMT",
    "eventPrevious": "9.3%",
    "eventCurrency": "BRL",
    "eventForecast": "7.5%"
  }}}
