"Construction Orders (YoY) (Jun)";"Japan";"JPY";"2015-07-31T05:00:00";"GMT";"-7.4%";"";"15.4%";"Low"
"Housing Starts (YoY) (Jun)";"Japan";"JPY";"2015-07-31T05:00:00";"GMT";"5.8%";"2.9%";"16.3%";"Low"
"CFTC JPY speculative net positions";"Japan";"JPY";"2015-07-31T19:30:00";"GMT";"-62.3K";"";"-63.5K";"Moderate"
