{"events": {"event": {
    "eventDateTime": "2010-03-26T19:30:00",
    "eventActual": "5.5K",
    "eventCountry": "New Zealand",
    "eventExpectedVolatility": "Low",
    "eventName": "CFTC NZD speculative net positions",
    "eventTimeZone": "GMT",
    "eventPrevious": "2.8K",
    "eventCurrency": "NZD",
    "eventForecast": ""
  }}}
