"Budget Balance % of GDP (Jan)";"Russia";"RUB";"2011-02-01T09:00:00";"GMT";"-4.10%";"";"4.20%";"Low"
"CPI (YoY) (Jan)";"Russia";"RUB";"2011-02-01T09:00:00";"GMT";"8.80%";"";"9.60%";"Moderate"
"Central Bank reserves (USD) (Jan)";"Russia";"RUB";"2011-02-01T09:00:00";"GMT";"479.40B";"";"487.00B";"Moderate"
"Industrial Production (YoY) (Jan)";"Russia";"RUB";"2011-02-01T09:00:00";"GMT";"7.20%";"";"6.20%";"Low"
"Interest Rate Decision (Jan)";"Russia";"RUB";"2011-02-01T09:00:00";"GMT";"5.00%";"";"5.00%";"High"
"PPI (MoM) (Jan)";"Russia";"RUB";"2011-02-01T09:00:00";"GMT";"1.00%";"";"2.20%";"Low"
"PPI (YoY) (Jan)";"Russia";"RUB";"2011-02-01T09:00:00";"GMT";"16.70%";"";"19.70%";"Low"
"Trade Balance (Jan)";"Russia";"RUB";"2011-02-01T09:00:00";"GMT";"15.55B";"";"13.36B";"Low"
"Unemployment Rate (Jan)";"Russia";"RUB";"2011-02-01T09:00:00";"GMT";"7.00%";"";"7.60%";"Moderate"
