"IPC-Fipe Inflation Index (MoM) (Sep)";"Brazil";"BRL";"2017-10-04T08:00:00";"GMT";"0.10%";"-0.05%";"0.02%";"Moderate"
"Markit Composite PMI (Sep)";"Brazil";"BRL";"2017-10-04T13:00:00";"GMT";"49.6";"50.2";"51.1";"Low"
"Markit Services PMI (Sep)";"Brazil";"BRL";"2017-10-04T13:00:00";"GMT";"49.0";"49.5";"50.7";"Low"
"Foreign Exchange Flows";"Brazil";"BRL";"2017-10-04T15:30:00";"GMT";"2.95B";"";"2.55B";"Low"
