"Business Confidence (Dec)";"South Africa";"ZAR";"2011-01-01T09:00:00";"GMT";"102.60";"";"103.30";"Low"
"CPI (MoM) (Dec)";"South Africa";"ZAR";"2011-01-01T09:00:00";"GMT";"0.11%";"";"0.22%";"Moderate"
"CPI (YoY) (Dec)";"South Africa";"ZAR";"2011-01-01T09:00:00";"GMT";"3.49%";"";"3.48%";"Low"
"Core CPI (MoM) (Dec)";"South Africa";"ZAR";"2011-01-01T09:00:00";"GMT";"0.00%";"";"0.20%";"Moderate"
"Core CPI (YoY) (Dec)";"South Africa";"ZAR";"2011-01-01T09:00:00";"GMT";"3.40%";"";"3.30%";"Low"
"Foreign Reserves (USD) (Dec)";"South Africa";"ZAR";"2011-01-01T09:00:00";"GMT";"43.35B";"";"43.83B";"Low"
"Gold Production (YoY) (Dec)";"South Africa";"ZAR";"2011-01-01T09:00:00";"GMT";"2.10%";"";"1.74%";"Low"
"Interest Rate Decision (Dec)";"South Africa";"ZAR";"2011-01-01T09:00:00";"GMT";"5.50%";"";"5.50%";"Moderate"
"M3 Money Supply (YoY) (Dec)";"South Africa";"ZAR";"2011-01-01T09:00:00";"GMT";"7.23%";"";"6.92%";"Low"
"Mining Production (Dec)";"South Africa";"ZAR";"2011-01-01T09:00:00";"GMT";"8.76%";"";"7.92%";"Low"
"Net FX Reserves (USD) (Dec)";"South Africa";"ZAR";"2011-01-01T09:00:00";"GMT";"43.08B";"";"43.35B";"Low"
"Prime Rate (Dec)";"South Africa";"ZAR";"2011-01-01T09:00:00";"GMT";"9.00%";"";"9.00%";"Low"
"Private Sector Credit (Dec)";"South Africa";"ZAR";"2011-01-01T09:00:00";"GMT";"4.60%";"";"5.47%";"Low"
"Retail Sales (YoY) (Dec)";"South Africa";"ZAR";"2011-01-01T09:00:00";"GMT";"8.50%";"";"8.50%";"Low"
"Total Vehicle Sales (Dec)";"South Africa";"ZAR";"2011-01-01T09:00:00";"GMT";"43.34K";"";"37.72K";"Low"
"Total Vehicle Sales (YoY) (Dec)";"South Africa";"ZAR";"2011-01-01T09:00:00";"GMT";"28.90%";"";"27.10%";"Low"
"Trade Balance (Dec)";"South Africa";"ZAR";"2011-01-01T09:00:00";"GMT";"8.49B";"";"14.96B";"Low"
