"Core PCE Price Index (MoM) (Sep)";"United States";"USD";"2015-10-30T12:30:00";"GMT";"0.1%";"0.2%";"0.1%";"Moderate"
"Core PCE Price Index (YoY) (Sep)";"United States";"USD";"2015-10-30T12:30:00";"GMT";"1.3%";"";"1.3%";"Moderate"
"Employment Benefits (QoQ) (Q3)";"United States";"USD";"2015-10-30T12:30:00";"GMT";"0.10%";"";"0.50%";"Low"
"Employment Cost Index (QoQ) (Q3)";"United States";"USD";"2015-10-30T12:30:00";"GMT";"0.2%";"0.6%";"0.6%";"Moderate"
"Employment Wages (QoQ) (Q3)";"United States";"USD";"2015-10-30T12:30:00";"GMT";"0.20%";"";"0.60%";"Low"
"Personal Income (MoM) (Sep)";"United States";"USD";"2015-10-30T12:30:00";"GMT";"0.4%";"0.2%";"0.1%";"Low"
"Personal Spending (MoM) (Sep)";"United States";"USD";"2015-10-30T12:30:00";"GMT";"0.4%";"0.2%";"0.1%";"Moderate"
"Real Personal Consumption (MoM) (Sep)";"United States";"USD";"2015-10-30T12:30:00";"GMT";"0.4%";"";"0.2%";"Low"
"Chicago PMI (Oct)";"United States";"USD";"2015-10-30T13:45:00";"GMT";"48.7";"49.0";"56.2";"Moderate"
"FOMC Member Williams Speaks";"United States";"USD";"2015-10-30T14:00:00";"GMT";" ";"";"";"Moderate"
"Michigan 5-Year Inflation Expectations (Oct)";"United States";"USD";"2015-10-30T14:00:00";"GMT";"2.60%";"";"2.50%";"Low"
"Michigan Consumer Expectations (Oct)";"United States";"USD";"2015-10-30T14:00:00";"GMT";"82.7";"83.1";"82.1";"Moderate"
"Michigan Consumer Sentiment (Oct)";"United States";"USD";"2015-10-30T14:00:00";"GMT";"92.1";"92.5";"90.0";"Moderate"
"Michigan Current Conditions (Oct)";"United States";"USD";"2015-10-30T14:00:00";"GMT";"106.7";"107.0";"102.3";"Low"
"Michigan Inflation Expectations (Oct)";"United States";"USD";"2015-10-30T14:00:00";"GMT";"2.7%";"";"2.7%";"Low"
"Dallas Fed PCE (Sep)";"United States";"USD";"2015-10-30T17:00:00";"GMT";"1.50%";"";"1.70%";"Low"
"U.S. Baker Hughes Oil Rig Count";"United States";"USD";"2015-10-30T17:30:00";"GMT";"594";"";"578";"Moderate"
"CFTC Copper speculative net positions";"United States";"USD";"2015-10-30T19:30:00";"GMT";"-4.6K";"";"-0.8K";"Low"
"CFTC Crude Oil speculative net positions";"United States";"USD";"2015-10-30T19:30:00";"GMT";"251.2K";"";"236.6K";"Moderate"
"CFTC Gold speculative net positions";"United States";"USD";"2015-10-30T19:30:00";"GMT";"151.3K";"";"157.4K";"Moderate"
"CFTC Sandamp:P 500 speculative net positions";"United States";"USD";"2015-10-30T19:30:00";"GMT";"-259.5K";"";"-166.0K";"Moderate"
"CFTC Silver speculative net positions";"United States";"USD";"2015-10-30T19:30:00";"GMT";"57.3K";"";"62.4K";"Low"
