{"events": {"event": [
    {
      "eventDateTime": "2009-11-02T15:00:00",
      "eventActual": "0.8%",
      "eventCountry": "United States",
      "eventExpectedVolatility": "Low",
      "eventName": "Construction Spending (MoM)",
      "eventTimeZone": "GMT",
      "eventPrevious": "-0.1%",
      "eventCurrency": "USD",
      "eventForecast": "-0.4%"
    },
    {
      "eventDateTime": "2009-11-02T15:00:00",
      "eventActual": "55.7",
      "eventCountry": "United States",
      "eventExpectedVolatility": "High",
      "eventName": "ISM Manufacturing PMI",
      "eventTimeZone": "GMT",
      "eventPrevious": "52.6",
      "eventCurrency": "USD",
      "eventForecast": "53.0"
    },
    {
      "eventDateTime": "2009-11-02T15:00:00",
      "eventActual": "65.0",
      "eventCountry": "United States",
      "eventExpectedVolatility": "Low",
      "eventName": "ISM Manufacturing Prices",
      "eventTimeZone": "GMT",
      "eventPrevious": "63.5",
      "eventCurrency": "USD",
      "eventForecast": "64.0"
    },
    {
      "eventDateTime": "2009-11-02T15:00:00",
      "eventActual": "6.1%",
      "eventCountry": "United States",
      "eventExpectedVolatility": "High",
      "eventName": "Pending Home Sales (MoM)",
      "eventTimeZone": "GMT",
      "eventPrevious": "6.4%",
      "eventCurrency": "USD",
      "eventForecast": "0.4%"
    }
  ]}}
