"CPI (MoM) (Dec)";"Canada";"CAD";"2015-01-23T13:30:00";"GMT";"-0.4%";"-1.0%";"-0.7%";"Moderate"
"CPI (YoY) (Dec)";"Canada";"CAD";"2015-01-23T13:30:00";"GMT";"2.0%";"1.5%";"1.5%";"Low"
"Core CPI (MoM) (Dec)";"Canada";"CAD";"2015-01-23T13:30:00";"GMT";"-0.2%";"-0.3%";"-0.3%";"High"
"Core CPI (YoY) (Dec)";"Canada";"CAD";"2015-01-23T13:30:00";"GMT";"2.1%";"2.2%";"2.2%";"Moderate"
"Core Retail Sales (MoM) (Nov)";"Canada";"CAD";"2015-01-23T13:30:00";"GMT";"0.1%";"0.5%";"0.7%";"High"
"Retail Sales (MoM) (Nov)";"Canada";"CAD";"2015-01-23T13:30:00";"GMT";"0.0%";"0.1%";"0.4%";"Moderate"
"CFTC CAD speculative net positions";"Canada";"CAD";"2015-01-23T20:30:00";"GMT";"-21.2K";"";"-29.1K";"Low"
