"BoJ Monthly Report";"Japan";"JPY";"2014-08-11T05:00:00";"GMT";" ";"";"";"Moderate"
"Household Confidence";"Japan";"JPY";"2014-08-11T05:00:00";"GMT";"41.1";"42.3";"41.5";"Low"
"Investing.com USD/JPY Index";"Japan";"JPY";"2014-08-11T05:00:00";"GMT";"67.8%";"";"76.9%";"Moderate"
"Machine Tool Orders (YoY)";"Japan";"JPY";"2014-08-11T06:00:00";"GMT";"34.1%";"";"37.7%";"Low"
"PPI (MoM)";"Japan";"JPY";"2014-08-11T23:50:00";"GMT";"0.2%";"0.4%";"0.3%";"Low"
"PPI (YoY)";"Japan";"JPY";"2014-08-11T23:50:00";"GMT";"4.6%";"4.4%";"4.3%";"Low"
