{"events": {"event": [
    {
      "eventDateTime": "2010-02-08T06:45:00",
      "eventActual": "4.1%",
      "eventCountry": "Switzerland",
      "eventExpectedVolatility": "Moderate",
      "eventName": "Unemployment Rate s.a.",
      "eventTimeZone": "GMT",
      "eventPrevious": "4.2%",
      "eventCurrency": "CHF",
      "eventForecast": "4.3%"
    },
    {
      "eventDateTime": "2010-02-08T08:15:00",
      "eventActual": "4.7%",
      "eventCountry": "Switzerland",
      "eventExpectedVolatility": "Moderate",
      "eventName": "Retail Sales (YoY)",
      "eventTimeZone": "GMT",
      "eventPrevious": "-0.1%",
      "eventCurrency": "CHF",
      "eventForecast": "1.3%"
    }
  ]}}
