{"events": {"event": [
    {
      "eventDateTime": "2016-05-11T01:10:00",
      "eventActual": "",
      "eventCountry": "New Zealand",
      "eventExpectedVolatility": "High",
      "eventName": "RBNZ Gov Wheeler Speaks",
      "eventTimeZone": "GMT",
      "eventPrevious": "",
      "eventCurrency": "NZD",
      "eventForecast": ""
    },
    {
      "eventDateTime": "2016-05-11T22:30:00",
      "eventActual": "56.5",
      "eventCountry": "New Zealand",
      "eventExpectedVolatility": "Moderate",
      "eventName": "Business NZ PMI (Apr)",
      "eventTimeZone": "GMT",
      "eventPrevious": "54.7",
      "eventCurrency": "NZD",
      "eventForecast": ""
    },
    {
      "eventDateTime": "2016-05-11T22:45:00",
      "eventActual": "0.3%",
      "eventCountry": "New Zealand",
      "eventExpectedVolatility": "Low",
      "eventName": "FPI (MoM) (Apr)",
      "eventTimeZone": "GMT",
      "eventPrevious": "0.5%",
      "eventCurrency": "NZD",
      "eventForecast": ""
    }
  ]}}
