{"events": {"event": [
    {
      "eventDateTime": "2012-07-02T00:00:00",
      "eventActual": "49.38",
      "eventCountry": "South Korea",
      "eventExpectedVolatility": "Low",
      "eventName": "Nikkei Manufacturing PMI",
      "eventTimeZone": "GMT",
      "eventPrevious": "51.03",
      "eventCurrency": "KRW",
      "eventForecast": ""
    },
    {
      "eventDateTime": "2012-07-02T21:00:00",
      "eventActual": "312.38B",
      "eventCountry": "South Korea",
      "eventExpectedVolatility": "Low",
      "eventName": "FX Reserves - USD",
      "eventTimeZone": "GMT",
      "eventPrevious": "310.87B",
      "eventCurrency": "KRW",
      "eventForecast": ""
    }
  ]}}
