{"events": {"event": [
    {
      "eventDateTime": "2016-05-09T06:30:00",
      "eventActual": "46.0%",
      "eventCountry": "New Zealand",
      "eventExpectedVolatility": "Moderate",
      "eventName": "Investing.com NZD/USD Index",
      "eventTimeZone": "GMT",
      "eventPrevious": "42.0%",
      "eventCurrency": "NZD",
      "eventForecast": ""
    },
    {
      "eventDateTime": "2016-05-09T22:45:00",
      "eventActual": "0.9%",
      "eventCountry": "New Zealand",
      "eventExpectedVolatility": "Moderate",
      "eventName": "Electronic Card Retail Sales (MoM) (Apr)",
      "eventTimeZone": "GMT",
      "eventPrevious": "0.1%",
      "eventCurrency": "NZD",
      "eventForecast": "0.5%"
    },
    {
      "eventDateTime": "2016-05-09T22:45:00",
      "eventActual": "7.8%",
      "eventCountry": "New Zealand",
      "eventExpectedVolatility": "Low",
      "eventName": "Electronic Card Retail Sales (YoY) (Apr)",
      "eventTimeZone": "GMT",
      "eventPrevious": "6.2%",
      "eventCurrency": "NZD",
      "eventForecast": ""
    }
  ]}}
