{"events": {"event": [
    {
      "eventDateTime": "2001-06-01T09:00:00",
      "eventActual": "47.39",
      "eventCountry": "Australia",
      "eventExpectedVolatility": "Moderate",
      "eventName": "AIG Manufacturing Index (May)",
      "eventTimeZone": "GMT",
      "eventPrevious": "",
      "eventCurrency": "AUD",
      "eventForecast": ""
    },
    {
      "eventDateTime": "2001-06-01T09:00:00",
      "eventActual": "-3.80%",
      "eventCountry": "Australia",
      "eventExpectedVolatility": "Low",
      "eventName": "ANZ Internet Job Ads (MoM) (May)",
      "eventTimeZone": "GMT",
      "eventPrevious": "-2.90%",
      "eventCurrency": "AUD",
      "eventForecast": ""
    },
    {
      "eventDateTime": "2001-06-01T09:00:00",
      "eventActual": "0.10%",
      "eventCountry": "Australia",
      "eventExpectedVolatility": "Low",
      "eventName": "ANZ Newspaper Job Ads (MoM) (May)",
      "eventTimeZone": "GMT",
      "eventPrevious": "-3.00%",
      "eventCurrency": "AUD",
      "eventForecast": ""
    },
    {
      "eventDateTime": "2001-06-01T09:00:00",
      "eventActual": "16.30%",
      "eventCountry": "Australia",
      "eventExpectedVolatility": "Moderate",
      "eventName": "Building Approvals (MoM) (May)",
      "eventTimeZone": "GMT",
      "eventPrevious": "6.80%",
      "eventCurrency": "AUD",
      "eventForecast": ""
    },
    {
      "eventDateTime": "2001-06-01T09:00:00",
      "eventActual": "-4.10K",
      "eventCountry": "Australia",
      "eventExpectedVolatility": "High",
      "eventName": "Employment Change (May)",
      "eventTimeZone": "GMT",
      "eventPrevious": "58.00K",
      "eventCurrency": "AUD",
      "eventForecast": ""
    },
    {
      "eventDateTime": "2001-06-01T09:00:00",
      "eventActual": "-0.20%",
      "eventCountry": "Australia",
      "eventExpectedVolatility": "Low",
      "eventName": "Exports (MoM) (May)",
      "eventTimeZone": "GMT",
      "eventPrevious": "2.00%",
      "eventCurrency": "AUD",
      "eventForecast": ""
    },
    {
      "eventDateTime": "2001-06-01T09:00:00",
      "eventActual": "-2.20K",
      "eventCountry": "Australia",
      "eventExpectedVolatility": "Moderate",
      "eventName": "Full Employment Change (May)",
      "eventTimeZone": "GMT",
      "eventPrevious": "-11.10K",
      "eventCurrency": "AUD",
      "eventForecast": ""
    },
    {
      "eventDateTime": "2001-06-01T09:00:00",
      "eventActual": "72.80%",
      "eventCountry": "Australia",
      "eventExpectedVolatility": "Moderate",
      "eventName": "HIA New Home Sales (MoM) (May)",
      "eventTimeZone": "GMT",
      "eventPrevious": "-55.00%",
      "eventCurrency": "AUD",
      "eventForecast": ""
    },
    {
      "eventDateTime": "2001-06-01T09:00:00",
      "eventActual": "3.90%",
      "eventCountry": "Australia",
      "eventExpectedVolatility": "Moderate",
      "eventName": "Home Loans (MoM) (May)",
      "eventTimeZone": "GMT",
      "eventPrevious": "4.00%",
      "eventCurrency": "AUD",
      "eventForecast": ""
    },
    {
      "eventDateTime": "2001-06-01T09:00:00",
      "eventActual": "1.40%",
      "eventCountry": "Australia",
      "eventExpectedVolatility": "Low",
      "eventName": "Housing Credit (May)",
      "eventTimeZone": "GMT",
      "eventPrevious": "1.00%",
      "eventCurrency": "AUD",
      "eventForecast": ""
    },
    {
      "eventDateTime": "2001-06-01T09:00:00",
      "eventActual": "-2.20%",
      "eventCountry": "Australia",
      "eventExpectedVolatility": "Low",
      "eventName": "Imports (MoM) (May)",
      "eventTimeZone": "GMT",
      "eventPrevious": "1.80%",
      "eventCurrency": "AUD",
      "eventForecast": ""
    },
    {
      "eventDateTime": "2001-06-01T09:00:00",
      "eventActual": "2.60%",
      "eventCountry": "Australia",
      "eventExpectedVolatility": "Low",
      "eventName": "Invest Housing Finance (MoM) (May)",
      "eventTimeZone": "GMT",
      "eventPrevious": "9.60%",
      "eventCurrency": "AUD",
      "eventForecast": ""
    },
    {
      "eventDateTime": "2001-06-01T09:00:00",
      "eventActual": "12.00",
      "eventCountry": "Australia",
      "eventExpectedVolatility": "Moderate",
      "eventName": "NAB Business Confidence (May)",
      "eventTimeZone": "GMT",
      "eventPrevious": "4.00",
      "eventCurrency": "AUD",
      "eventForecast": ""
    },
    {
      "eventDateTime": "2001-06-01T09:00:00",
      "eventActual": "-10.20",
      "eventCountry": "Australia",
      "eventExpectedVolatility": "Low",
      "eventName": "NAB Business Survey (May)",
      "eventTimeZone": "GMT",
      "eventPrevious": "-13.70",
      "eventCurrency": "AUD",
      "eventForecast": ""
    },
    {
      "eventDateTime": "2001-06-01T09:00:00",
      "eventActual": "63.40%",
      "eventCountry": "Australia",
      "eventExpectedVolatility": "Low",
      "eventName": "Participation Rate (May)",
      "eventTimeZone": "GMT",
      "eventPrevious": "63.50%",
      "eventCurrency": "AUD",
      "eventForecast": ""
    },
    {
      "eventDateTime": "2001-06-01T09:00:00",
      "eventActual": "17.30%",
      "eventCountry": "Australia",
      "eventExpectedVolatility": "Low",
      "eventName": "Private House Approvals (May)",
      "eventTimeZone": "GMT",
      "eventPrevious": "9.70%",
      "eventCurrency": "AUD",
      "eventForecast": ""
    },
    {
      "eventDateTime": "2001-06-01T09:00:00",
      "eventActual": "0.90%",
      "eventCountry": "Australia",
      "eventExpectedVolatility": "Moderate",
      "eventName": "Private Sector Credit (MoM) (May)",
      "eventTimeZone": "GMT",
      "eventPrevious": "0.00%",
      "eventCurrency": "AUD",
      "eventForecast": ""
    },
    {
      "eventDateTime": "2001-06-01T09:00:00",
      "eventActual": "5.00%",
      "eventCountry": "Australia",
      "eventExpectedVolatility": "High",
      "eventName": "RBA Interest Rate Decision (May)",
      "eventTimeZone": "GMT",
      "eventPrevious": "5.00%",
      "eventCurrency": "AUD",
      "eventForecast": ""
    },
    {
      "eventDateTime": "2001-06-01T09:00:00",
      "eventActual": "0.30%",
      "eventCountry": "Australia",
      "eventExpectedVolatility": "High",
      "eventName": "Retail Sales (MoM) (May)",
      "eventTimeZone": "GMT",
      "eventPrevious": "0.60%",
      "eventCurrency": "AUD",
      "eventForecast": ""
    },
    {
      "eventDateTime": "2001-06-01T09:00:00",
      "eventActual": "0.59B",
      "eventCountry": "Australia",
      "eventExpectedVolatility": "Moderate",
      "eventName": "Trade Balance (May)",
      "eventTimeZone": "GMT",
      "eventPrevious": "0.33B",
      "eventCurrency": "AUD",
      "eventForecast": ""
    },
    {
      "eventDateTime": "2001-06-01T09:00:00",
      "eventActual": "6.80%",
      "eventCountry": "Australia",
      "eventExpectedVolatility": "Moderate",
      "eventName": "Unemployment Rate (May)",
      "eventTimeZone": "GMT",
      "eventPrevious": "6.80%",
      "eventCurrency": "AUD",
      "eventForecast": ""
    },
    {
      "eventDateTime": "2001-06-01T09:00:00",
      "eventActual": "5.30%",
      "eventCountry": "Australia",
      "eventExpectedVolatility": "Moderate",
      "eventName": "Westpac Consumer Sentiment (May)",
      "eventTimeZone": "GMT",
      "eventPrevious": "1.30%",
      "eventCurrency": "AUD",
      "eventForecast": ""
    }
  ]}}
