{"events": {"event": [
    {
      "eventDateTime": "2018-06-11T05:30:00",
      "eventActual": "57.3%",
      "eventCountry": "United Kingdom",
      "eventExpectedVolatility": "Moderate",
      "eventName": "Investing.com GBP/USD Index",
      "eventTimeZone": "GMT",
      "eventPrevious": "57.1%",
      "eventCurrency": "GBP",
      "eventForecast": ""
    },
    {
      "eventDateTime": "2018-06-11T08:30:00",
      "eventActual": "0.5%",
      "eventCountry": "United Kingdom",
      "eventExpectedVolatility": "Low",
      "eventName": "Construction Output (MoM) (Apr)",
      "eventTimeZone": "GMT",
      "eventPrevious": "-2.3%",
      "eventCurrency": "GBP",
      "eventForecast": "2.0%"
    },
    {
      "eventDateTime": "2018-06-11T08:30:00",
      "eventActual": "-0.8%",
      "eventCountry": "United Kingdom",
      "eventExpectedVolatility": "Moderate",
      "eventName": "Industrial Production (MoM) (Apr)",
      "eventTimeZone": "GMT",
      "eventPrevious": "0.1%",
      "eventCurrency": "GBP",
      "eventForecast": "0.2%"
    },
    {
      "eventDateTime": "2018-06-11T08:30:00",
      "eventActual": "1.8%",
      "eventCountry": "United Kingdom",
      "eventExpectedVolatility": "Low",
      "eventName": "Industrial Production (YoY) (Apr)",
      "eventTimeZone": "GMT",
      "eventPrevious": "2.9%",
      "eventCurrency": "GBP",
      "eventForecast": "2.7%"
    },
    {
      "eventDateTime": "2018-06-11T08:30:00",
      "eventActual": "-1.4%",
      "eventCountry": "United Kingdom",
      "eventExpectedVolatility": "High",
      "eventName": "Manufacturing Production (MoM) (Apr)",
      "eventTimeZone": "GMT",
      "eventPrevious": "-0.1%",
      "eventCurrency": "GBP",
      "eventForecast": "0.3%"
    },
    {
      "eventDateTime": "2018-06-11T08:30:00",
      "eventActual": "1.4%",
      "eventCountry": "United Kingdom",
      "eventExpectedVolatility": "Low",
      "eventName": "Manufacturing Production (YoY) (Apr)",
      "eventTimeZone": "GMT",
      "eventPrevious": "2.9%",
      "eventCurrency": "GBP",
      "eventForecast": "3.1%"
    },
    {
      "eventDateTime": "2018-06-11T08:30:00",
      "eventActual": "-14.04B",
      "eventCountry": "United Kingdom",
      "eventExpectedVolatility": "Moderate",
      "eventName": "Trade Balance (Apr)",
      "eventTimeZone": "GMT",
      "eventPrevious": "-12.00B",
      "eventCurrency": "GBP",
      "eventForecast": "-11.35B"
    },
    {
      "eventDateTime": "2018-06-11T08:30:00",
      "eventActual": "-5.37B",
      "eventCountry": "United Kingdom",
      "eventExpectedVolatility": "Moderate",
      "eventName": "Trade Balance Non-EU (Apr)",
      "eventTimeZone": "GMT",
      "eventPrevious": "-3.79B",
      "eventCurrency": "GBP",
      "eventForecast": "-3.20B"
    },
    {
      "eventDateTime": "2018-06-11T08:30:00",
      "eventActual": "-3.3%",
      "eventCountry": "United Kingdom",
      "eventExpectedVolatility": "Low",
      "eventName": "U.K. Construction Output (YoY) (Apr)",
      "eventTimeZone": "GMT",
      "eventPrevious": "-4.9%",
      "eventCurrency": "GBP",
      "eventForecast": "-1.8%"
    },
    {
      "eventDateTime": "2018-06-11T11:10:00",
      "eventActual": "0.2%",
      "eventCountry": "United Kingdom",
      "eventExpectedVolatility": "Moderate",
      "eventName": "NIESR GDP Estimate",
      "eventTimeZone": "GMT",
      "eventPrevious": "0.1%",
      "eventCurrency": "GBP",
      "eventForecast": "0.3%"
    }
  ]}}
