{"events": {"event": [
    {
      "eventDateTime": "2016-06-01T00:00:00",
      "eventActual": "-6.0%",
      "eventCountry": "South Korea",
      "eventExpectedVolatility": "Low",
      "eventName": "Exports (YoY) (May)",
      "eventTimeZone": "GMT",
      "eventPrevious": "-11.2%",
      "eventCurrency": "KRW",
      "eventForecast": "1.6%"
    },
    {
      "eventDateTime": "2016-06-01T00:00:00",
      "eventActual": "-9.3%",
      "eventCountry": "South Korea",
      "eventExpectedVolatility": "Low",
      "eventName": "Imports (YoY) (May)",
      "eventTimeZone": "GMT",
      "eventPrevious": "-14.9%",
      "eventCurrency": "KRW",
      "eventForecast": "-7.7%"
    },
    {
      "eventDateTime": "2016-06-01T00:00:00",
      "eventActual": "7.10B",
      "eventCountry": "South Korea",
      "eventExpectedVolatility": "Low",
      "eventName": "Trade Balance (May)",
      "eventTimeZone": "GMT",
      "eventPrevious": "8.80B",
      "eventCurrency": "KRW",
      "eventForecast": "9.45B"
    },
    {
      "eventDateTime": "2016-06-01T01:30:00",
      "eventActual": "50.1",
      "eventCountry": "South Korea",
      "eventExpectedVolatility": "Low",
      "eventName": "Nikkei Manufacturing PMI (May)",
      "eventTimeZone": "GMT",
      "eventPrevious": "50.0",
      "eventCurrency": "KRW",
      "eventForecast": ""
    },
    {
      "eventDateTime": "2016-06-01T23:00:00",
      "eventActual": "0.5%",
      "eventCountry": "South Korea",
      "eventExpectedVolatility": "Low",
      "eventName": "GDP (QoQ) (Q1)",
      "eventTimeZone": "GMT",
      "eventPrevious": "0.4%",
      "eventCurrency": "KRW",
      "eventForecast": "0.4%"
    },
    {
      "eventDateTime": "2016-06-01T23:00:00",
      "eventActual": "2.8%",
      "eventCountry": "South Korea",
      "eventExpectedVolatility": "Low",
      "eventName": "GDP (YoY) (Q1)",
      "eventTimeZone": "GMT",
      "eventPrevious": "2.7%",
      "eventCurrency": "KRW",
      "eventForecast": "2.7%"
    }
  ]}}
