"Business Confidence (Feb)";"South Africa";"ZAR";"2013-03-01T09:00:00";"GMT";"94.00";"";"93.00";"Low"
"CPI (YoY) (Feb)";"South Africa";"ZAR";"2013-03-01T09:00:00";"GMT";"5.36%";"";"5.85%";"Low"
"Core CPI (MoM) (Feb)";"South Africa";"ZAR";"2013-03-01T09:00:00";"GMT";"0.30%";"";"1.20%";"Moderate"
"Core CPI (YoY) (Feb)";"South Africa";"ZAR";"2013-03-01T09:00:00";"GMT";"4.70%";"";"5.30%";"Low"
"Foreign Reserves (USD) (Feb)";"South Africa";"ZAR";"2013-03-01T09:00:00";"GMT";"51.23B";"";"50.37B";"Low"
"Gold Production (YoY) (Feb)";"South Africa";"ZAR";"2013-03-01T09:00:00";"GMT";"-6.79%";"";"-3.82%";"Low"
"M3 Money Supply (YoY) (Feb)";"South Africa";"ZAR";"2013-03-01T09:00:00";"GMT";"6.75%";"";"7.51%";"Low"
"Manufacturing PMI";"South Africa";"ZAR";"2013-03-01T09:00:00";"GMT";"49.1";"";"53.6";"Low"
"Mining Production (Feb)";"South Africa";"ZAR";"2013-03-01T09:00:00";"GMT";"6.02%";"";"4.90%";"Low"
"Net FX Reserves (USD) (Feb)";"South Africa";"ZAR";"2013-03-01T09:00:00";"GMT";"48.13B";"";"47.21B";"Low"
"PPI (YoY) (Feb)";"South Africa";"ZAR";"2013-03-01T09:00:00";"GMT";"5.77%";"";"5.41%";"Low"
"Prime Rate (Feb)";"South Africa";"ZAR";"2013-03-01T09:00:00";"GMT";"8.50%";"";"8.50%";"Low"
"Private Sector Credit (Feb)";"South Africa";"ZAR";"2013-03-01T09:00:00";"GMT";"8.64%";"";"7.88%";"Low"
"South Africa Standard Bank PMI (Feb)";"South Africa";"ZAR";"2013-03-01T09:00:00";"GMT";"50.30";"";"51.30";"Low"
"Total Vehicle Sales (Feb)";"South Africa";"ZAR";"2013-03-01T09:00:00";"GMT";"56.05K";"";"52.76K";"Low"
"Total Vehicle Sales (YoY) (Feb)";"South Africa";"ZAR";"2013-03-01T09:00:00";"GMT";"13.60%";"";"-1.50%";"Low"
