{"events": {"event": [
    {
      "eventDateTime": "2014-03-21T12:30:00",
      "eventActual": "0.8%",
      "eventCountry": "Canada",
      "eventExpectedVolatility": "Moderate",
      "eventName": "CPI (MoM)",
      "eventTimeZone": "GMT",
      "eventPrevious": "0.3%",
      "eventCurrency": "CAD",
      "eventForecast": "0.6%"
    },
    {
      "eventDateTime": "2014-03-21T12:30:00",
      "eventActual": "1.1%",
      "eventCountry": "Canada",
      "eventExpectedVolatility": "Low",
      "eventName": "CPI (YoY)",
      "eventTimeZone": "GMT",
      "eventPrevious": "1.5%",
      "eventCurrency": "CAD",
      "eventForecast": "0.9%"
    },
    {
      "eventDateTime": "2014-03-21T12:30:00",
      "eventActual": "0.7%",
      "eventCountry": "Canada",
      "eventExpectedVolatility": "High",
      "eventName": "Core CPI (MoM)",
      "eventTimeZone": "GMT",
      "eventPrevious": "0.2%",
      "eventCurrency": "CAD",
      "eventForecast": "0.5%"
    },
    {
      "eventDateTime": "2014-03-21T12:30:00",
      "eventActual": "1.2%",
      "eventCountry": "Canada",
      "eventExpectedVolatility": "Moderate",
      "eventName": "Core CPI (YoY)",
      "eventTimeZone": "GMT",
      "eventPrevious": "1.4%",
      "eventCurrency": "CAD",
      "eventForecast": "1.1%"
    },
    {
      "eventDateTime": "2014-03-21T12:30:00",
      "eventActual": "1.0%",
      "eventCountry": "Canada",
      "eventExpectedVolatility": "High",
      "eventName": "Core Retail Sales (MoM)",
      "eventTimeZone": "GMT",
      "eventPrevious": "-1.5%",
      "eventCurrency": "CAD",
      "eventForecast": "0.9%"
    },
    {
      "eventDateTime": "2014-03-21T12:30:00",
      "eventActual": "1.3%",
      "eventCountry": "Canada",
      "eventExpectedVolatility": "Moderate",
      "eventName": "Retail Sales (MoM)",
      "eventTimeZone": "GMT",
      "eventPrevious": "-1.9%",
      "eventCurrency": "CAD",
      "eventForecast": "0.8%"
    },
    {
      "eventDateTime": "2014-03-21T19:30:00",
      "eventActual": "-69.8K",
      "eventCountry": "Canada",
      "eventExpectedVolatility": "Low",
      "eventName": "CFTC CAD speculative net positions",
      "eventTimeZone": "GMT",
      "eventPrevious": "-52.2K",
      "eventCurrency": "CAD",
      "eventForecast": ""
    }
  ]}}
