{"events": {"event": [
    {
      "eventDateTime": "2018-03-29T06:00:00",
      "eventActual": "-0.2%",
      "eventCountry": "United Kingdom",
      "eventExpectedVolatility": "Moderate",
      "eventName": "Nationwide HPI (MoM) (Mar)",
      "eventTimeZone": "GMT",
      "eventPrevious": "-0.4%",
      "eventCurrency": "GBP",
      "eventForecast": "0.2%"
    },
    {
      "eventDateTime": "2018-03-29T06:00:00",
      "eventActual": "2.1%",
      "eventCountry": "United Kingdom",
      "eventExpectedVolatility": "Moderate",
      "eventName": "Nationwide HPI (YoY) (Mar)",
      "eventTimeZone": "GMT",
      "eventPrevious": "2.2%",
      "eventCurrency": "GBP",
      "eventForecast": "2.6%"
    },
    {
      "eventDateTime": "2018-03-29T08:30:00",
      "eventActual": "1.647B",
      "eventCountry": "United Kingdom",
      "eventExpectedVolatility": "Low",
      "eventName": "BoE Consumer Credit (Feb)",
      "eventTimeZone": "GMT",
      "eventPrevious": "1.328B",
      "eventCurrency": "GBP",
      "eventForecast": "1.400B"
    },
    {
      "eventDateTime": "2018-03-29T08:30:00",
      "eventActual": "0.3%",
      "eventCountry": "United Kingdom",
      "eventExpectedVolatility": "Moderate",
      "eventName": "Business Investment (QoQ) (Q4)",
      "eventTimeZone": "GMT",
      "eventPrevious": "0.0%",
      "eventCurrency": "GBP",
      "eventForecast": "0.0%"
    },
    {
      "eventDateTime": "2018-03-29T08:30:00",
      "eventActual": "2.6%",
      "eventCountry": "United Kingdom",
      "eventExpectedVolatility": "Low",
      "eventName": "Business Investment (YoY) (Q4)",
      "eventTimeZone": "GMT",
      "eventPrevious": "2.1%",
      "eventCurrency": "GBP",
      "eventForecast": "2.1%"
    },
    {
      "eventDateTime": "2018-03-29T08:30:00",
      "eventActual": "-18.4B",
      "eventCountry": "United Kingdom",
      "eventExpectedVolatility": "Moderate",
      "eventName": "Current Account (Q4)",
      "eventTimeZone": "GMT",
      "eventPrevious": "-19.2B",
      "eventCurrency": "GBP",
      "eventForecast": "-24.0B"
    },
    {
      "eventDateTime": "2018-03-29T08:30:00",
      "eventActual": "0.4%",
      "eventCountry": "United Kingdom",
      "eventExpectedVolatility": "High",
      "eventName": "GDP (QoQ) (Q4)",
      "eventTimeZone": "GMT",
      "eventPrevious": "0.4%",
      "eventCurrency": "GBP",
      "eventForecast": "0.4%"
    },
    {
      "eventDateTime": "2018-03-29T08:30:00",
      "eventActual": "1.4%",
      "eventCountry": "United Kingdom",
      "eventExpectedVolatility": "High",
      "eventName": "GDP (YoY) (Q4)",
      "eventTimeZone": "GMT",
      "eventPrevious": "1.4%",
      "eventCurrency": "GBP",
      "eventForecast": "1.4%"
    },
    {
      "eventDateTime": "2018-03-29T08:30:00",
      "eventActual": "0.6%",
      "eventCountry": "United Kingdom",
      "eventExpectedVolatility": "Low",
      "eventName": "Index of Services",
      "eventTimeZone": "GMT",
      "eventPrevious": "0.4%",
      "eventCurrency": "GBP",
      "eventForecast": "0.6%"
    },
    {
      "eventDateTime": "2018-03-29T08:30:00",
      "eventActual": "-0.3%",
      "eventCountry": "United Kingdom",
      "eventExpectedVolatility": "Low",
      "eventName": "M4 Money Supply (MoM) (Feb)",
      "eventTimeZone": "GMT",
      "eventPrevious": "1.5%",
      "eventCurrency": "GBP",
      "eventForecast": "1.3%"
    },
    {
      "eventDateTime": "2018-03-29T08:30:00",
      "eventActual": "63.91K",
      "eventCountry": "United Kingdom",
      "eventExpectedVolatility": "Low",
      "eventName": "Mortgage Approvals (Feb)",
      "eventTimeZone": "GMT",
      "eventPrevious": "67.11K",
      "eventCurrency": "GBP",
      "eventForecast": "66.00K"
    },
    {
      "eventDateTime": "2018-03-29T08:30:00",
      "eventActual": "3.72B",
      "eventCountry": "United Kingdom",
      "eventExpectedVolatility": "Low",
      "eventName": "Mortgage Lending (Feb)",
      "eventTimeZone": "GMT",
      "eventPrevious": "3.43B",
      "eventCurrency": "GBP",
      "eventForecast": "3.50B"
    },
    {
      "eventDateTime": "2018-03-29T08:30:00",
      "eventActual": "5.4B",
      "eventCountry": "United Kingdom",
      "eventExpectedVolatility": "Low",
      "eventName": "Net Lending to Individuals",
      "eventTimeZone": "GMT",
      "eventPrevious": "4.8B",
      "eventCurrency": "GBP",
      "eventForecast": "4.8B"
    }
  ]}}
