"CBI Industrial Trends Orders (Oct)";"United Kingdom";"GBP";"2018-10-23T10:00:00";"GMT";"-1";"-1";"-6";"Moderate"
"BoE MPC Member Haldane Speaks";"United Kingdom";"GBP";"2018-10-23T10:30:00";"GMT";" ";"";"";"Moderate"
"BoE Gov Carney Speaks";"United Kingdom";"GBP";"2018-10-23T15:20:00";"GMT";" ";"";"";"High"
