{"events": {"event": {
    "eventDateTime": "2011-10-11T12:15:00",
    "eventActual": "206.00K",
    "eventCountry": "Canada",
    "eventExpectedVolatility": "Moderate",
    "eventName": "Housing Starts",
    "eventTimeZone": "GMT",
    "eventPrevious": "192.00K",
    "eventCurrency": "CAD",
    "eventForecast": "187.00K"
  }}}
