"CPI (YoY) (Nov)";"South Africa";"ZAR";"2001-12-01T09:00:00";"GMT";"3.95%";"";"4.34%";"Low"
"Foreign Reserves (USD) (Nov)";"South Africa";"ZAR";"2001-12-01T09:00:00";"GMT";"7.67B";"";"7.64B";"Low"
"Gold Production (YoY) (Nov)";"South Africa";"ZAR";"2001-12-01T09:00:00";"GMT";"-8.13%";"";"-9.20%";"Low"
"Interest Rate Decision (Nov)";"South Africa";"ZAR";"2001-12-01T09:00:00";"GMT";"9.50%";"";"9.50%";"Moderate"
"M3 Money Supply (YoY) (Nov)";"South Africa";"ZAR";"2001-12-01T09:00:00";"GMT";"15.61%";"";"17.00%";"Low"
"Mining Production (Nov)";"South Africa";"ZAR";"2001-12-01T09:00:00";"GMT";"5.10%";"";"-2.59%";"Low"
"Net FX Reserves (USD) (Nov)";"South Africa";"ZAR";"2001-12-01T09:00:00";"GMT";"-4.83B";"";"-4.84B";"Low"
"Prime Rate (Nov)";"South Africa";"ZAR";"2001-12-01T09:00:00";"GMT";"13.00%";"";"13.00%";"Low"
"Private Sector Credit (Nov)";"South Africa";"ZAR";"2001-12-01T09:00:00";"GMT";"10.37%";"";"9.21%";"Low"
"Total Vehicle Sales (Nov)";"South Africa";"ZAR";"2001-12-01T09:00:00";"GMT";"33.87K";"";"32.01K";"Low"
"Total Vehicle Sales (YoY) (Nov)";"South Africa";"ZAR";"2001-12-01T09:00:00";"GMT";"4.50%";"";"11.10%";"Low"
