"Electronic Card Retail Sales (MoM) (Aug)";"New Zealand";"NZD";"2013-09-01T09:00:00";"GMT";"0.70%";"";"0.20%";"Moderate"
"Electronic Card Retail Sales (YoY) (Aug)";"New Zealand";"NZD";"2013-09-01T09:00:00";"GMT";"7.60%";"";"6.60%";"Low"
"Exports (Aug)";"New Zealand";"NZD";"2013-09-01T09:00:00";"GMT";"3.83B";"";"3.30B";"Low"
"External Migration andamp; Visitors (Aug)";"New Zealand";"NZD";"2013-09-01T09:00:00";"GMT";"5.87%";"";"6.16%";"Low"
"Imports (Aug)";"New Zealand";"NZD";"2013-09-01T09:00:00";"GMT";"4.62B";"";"4.53B";"Low"
"NBNZ Own Activity (Aug)";"New Zealand";"NZD";"2013-09-01T09:00:00";"GMT";"43.70%";"";"43.30%";"Low"
"Permanent/Long-Term Migration (Aug)";"New Zealand";"NZD";"2013-09-01T09:00:00";"GMT";"2,020.00";"";"2,150.00";"Low"
"RBNZ Offshore Holdings (Aug)";"New Zealand";"NZD";"2013-09-01T09:00:00";"GMT";"65.50%";"";"65.80%";"Low"
"REINZ House Price Index (MoM) (Aug)";"New Zealand";"NZD";"2013-09-01T09:00:00";"GMT";"-0.50%";"";"2.10%";"Low"
"REINZ House Price Index (YoY) (Aug)";"New Zealand";"NZD";"2013-09-01T09:00:00";"GMT";"8.60%";"";"9.50%";"Low"
"Trade Balance (YoY) (Aug)";"New Zealand";"NZD";"2013-09-01T09:00:00";"GMT";"-1,700.00M";"";"-2,130.00M";"Moderate"
"Terms of Trade Index (QoQ)";"New Zealand";"NZD";"2013-09-01T22:45:00";"GMT";"4.2%";"3.9%";"4.9%";"Low"
