{"events": {"event": [
    {
      "eventDateTime": "2015-03-13T04:30:00",
      "eventActual": "3.6%",
      "eventCountry": "Japan",
      "eventExpectedVolatility": "Low",
      "eventName": "Capacity Utilization (MoM) (Jan)",
      "eventTimeZone": "GMT",
      "eventPrevious": "2.0%",
      "eventCurrency": "JPY",
      "eventForecast": ""
    },
    {
      "eventDateTime": "2015-03-13T04:30:00",
      "eventActual": "3.7%",
      "eventCountry": "Japan",
      "eventExpectedVolatility": "Moderate",
      "eventName": "Industrial Production (MoM) (Jan)",
      "eventTimeZone": "GMT",
      "eventPrevious": "4.0%",
      "eventCurrency": "JPY",
      "eventForecast": "4.0%"
    },
    {
      "eventDateTime": "2015-03-13T19:30:00",
      "eventActual": "-59.4K",
      "eventCountry": "Japan",
      "eventExpectedVolatility": "Moderate",
      "eventName": "CFTC JPY speculative net positions",
      "eventTimeZone": "GMT",
      "eventPrevious": "-52.5K",
      "eventCurrency": "JPY",
      "eventForecast": ""
    }
  ]}}
