"German CPI (MoM)";"Germany";"EUR";"2014-08-13T06:00:00";"GMT";"0.3%";"0.3%";"0.3%";"Moderate"
"German CPI (YoY)";"Germany";"EUR";"2014-08-13T06:00:00";"GMT";"0.8%";"0.8%";"0.8%";"Low"
"German WPI (MoM)";"Germany";"EUR";"2014-08-13T06:00:00";"GMT";"-0.1%";"-0.2%";"0.1%";"Low"
"German WPI (YoY)";"Germany";"EUR";"2014-08-13T06:00:00";"GMT";"-0.8%";"-0.9%";"-0.7%";"Low"
"French CPI (MoM)";"France";"EUR";"2014-08-13T06:45:00";"GMT";"0.0%";"-0.2%";"-0.3%";"Moderate"
"French HICP (MoM)";"France";"EUR";"2014-08-13T06:45:00";"GMT";"0.0%";"-0.4%";"-0.4%";"Moderate"
"French HICP (YoY)";"France";"EUR";"2014-08-13T06:45:00";"GMT";"0.6%";"0.6%";"0.6%";"Low"
"Spanish CPI (MoM)";"Spain";"EUR";"2014-08-13T07:00:00";"GMT";"0.0%";"-0.9%";"-0.9%";"Low"
"Spanish CPI (YoY)";"Spain";"EUR";"2014-08-13T07:00:00";"GMT";"0.1%";"-0.3%";"-0.3%";"Moderate"
"Spanish HICP (MoM)";"Spain";"EUR";"2014-08-13T07:00:00";"GMT";"-0.1%";"-1.5%";"-1.5%";"Low"
"Spanish HICP (YoY)";"Spain";"EUR";"2014-08-13T07:00:00";"GMT";"-0.3%";"-0.3%";"-0.4%";"Moderate"
"Industrial Production (MoM)";"Euro Zone";"EUR";"2014-08-13T09:00:00";"GMT";"-1.1%";"0.3%";"-0.3%";"Moderate"
"Industrial Production (YoY)";"Euro Zone";"EUR";"2014-08-13T09:00:00";"GMT";"0.6%";"0.1%";"0.0%";"Low"
"German 10-Year Bund Auction";"Germany";"EUR";"2014-08-13T09:35:00";"GMT";"1.200%";"";"1.080%";"Moderate"
