"German Unemployment Change";"Germany";"EUR";"2010-02-25T08:55:00";"GMT";"5K";"18K";"7K";"High"
"German Unemployment Rate";"Germany";"EUR";"2010-02-25T08:55:00";"GMT";"8.2%";"8.2%";"8.2%";"Moderate"
"M3 Money Supply (YoY)";"Euro Zone";"EUR";"2010-02-25T09:00:00";"GMT";"-0.3%";"0.2%";"0.1%";"Low"
"Private Sector Loans (YoY)";"Euro Zone";"EUR";"2010-02-25T09:00:00";"GMT";"-0.1%";"0.3%";"-0.6%";"Low"
"Consumer Confidence";"Euro Zone";"EUR";"2010-02-25T10:00:00";"GMT";"-16.0";"-17.0";"-17.0";"Low"
