{"events": {"event": [
    {
      "eventDateTime": "2010-03-09T00:01:00",
      "eventActual": "2.2%",
      "eventCountry": "United Kingdom",
      "eventExpectedVolatility": "Moderate",
      "eventName": "BRC Retail Sales Monitor (YoY)",
      "eventTimeZone": "GMT",
      "eventPrevious": "-0.7%",
      "eventCurrency": "GBP",
      "eventForecast": ""
    },
    {
      "eventDateTime": "2010-03-09T00:01:00",
      "eventActual": "17%",
      "eventCountry": "United Kingdom",
      "eventExpectedVolatility": "Moderate",
      "eventName": "RICS House Price Balance",
      "eventTimeZone": "GMT",
      "eventPrevious": "31%",
      "eventCurrency": "GBP",
      "eventForecast": "36%"
    },
    {
      "eventDateTime": "2010-03-09T09:30:00",
      "eventActual": "-8.0B",
      "eventCountry": "United Kingdom",
      "eventExpectedVolatility": "Moderate",
      "eventName": "Trade Balance",
      "eventTimeZone": "GMT",
      "eventPrevious": "-7.0B",
      "eventCurrency": "GBP",
      "eventForecast": "-7.0B"
    }
  ]}}
