{"events": {"event": [
    {
      "eventDateTime": "2019-10-22T12:00:00",
      "eventActual": "0.09%",
      "eventCountry": "Brazil",
      "eventExpectedVolatility": "Low",
      "eventName": "Mid-Month CPI (MoM) (Oct)",
      "eventTimeZone": "GMT",
      "eventPrevious": "0.09%",
      "eventCurrency": "BRL",
      "eventForecast": "0.04%"
    },
    {
      "eventDateTime": "2019-10-22T12:00:00",
      "eventActual": "2.72%",
      "eventCountry": "Brazil",
      "eventExpectedVolatility": "Low",
      "eventName": "Mid-Month CPI (YoY) (Oct)",
      "eventTimeZone": "GMT",
      "eventPrevious": "3.22%",
      "eventCurrency": "BRL",
      "eventForecast": "2.67%"
    },
    {
      "eventDateTime": "2019-10-22T16:00:00",
      "eventActual": "113.93B",
      "eventCountry": "Brazil",
      "eventExpectedVolatility": "Low",
      "eventName": "Federal Tax Revenue (Sep)",
      "eventTimeZone": "GMT",
      "eventPrevious": "119.95B",
      "eventCurrency": "BRL",
      "eventForecast": ""
    }
  ]}}
