{"events": {"event": {
    "eventDateTime": "2013-11-05T01:45:00",
    "eventActual": "52.6",
    "eventCountry": "China",
    "eventExpectedVolatility": "Moderate",
    "eventName": "Caixin Services PMI",
    "eventTimeZone": "GMT",
    "eventPrevious": "52.4",
    "eventCurrency": "CNY",
    "eventForecast": ""
  }}}
