"German Trade Balance";"Germany";"EUR";"2012-06-08T06:00:00";"GMT";"14.0B";"13.5B";"16.1B";"Moderate"
"French Government Budget Balance";"France";"EUR";"2012-06-08T06:45:00";"GMT";"-29.4B";"";"-59.9B";"Low"
"French Trade Balance";"France";"EUR";"2012-06-08T06:45:00";"GMT";"-5.6B";"-5.8B";"-5.8B";"Low"
"Italian Industrial Production (MoM)";"Italy";"EUR";"2012-06-08T08:00:00";"GMT";"0.6%";"-0.5%";"-1.9%";"Low"
"CFTC EUR speculative net positions";"Euro Zone";"EUR";"2012-06-08T19:30:00";"GMT";"-203.4K";"";"-214.4K";"Moderate"
