{"events": {"event": [
    {
      "eventDateTime": "2016-09-14T22:30:00",
      "eventActual": "55.1",
      "eventCountry": "New Zealand",
      "eventExpectedVolatility": "Moderate",
      "eventName": "Business NZ PMI (Aug)",
      "eventTimeZone": "GMT",
      "eventPrevious": "55.8",
      "eventCurrency": "NZD",
      "eventForecast": ""
    },
    {
      "eventDateTime": "2016-09-14T22:45:00",
      "eventActual": "0.9%",
      "eventCountry": "New Zealand",
      "eventExpectedVolatility": "High",
      "eventName": "GDP (QoQ) (Q2)",
      "eventTimeZone": "GMT",
      "eventPrevious": "0.9%",
      "eventCurrency": "NZD",
      "eventForecast": "1.1%"
    },
    {
      "eventDateTime": "2016-09-14T22:45:00",
      "eventActual": "3.6%",
      "eventCountry": "New Zealand",
      "eventExpectedVolatility": "Low",
      "eventName": "GDP (YoY) (Q2)",
      "eventTimeZone": "GMT",
      "eventPrevious": "3.0%",
      "eventCurrency": "NZD",
      "eventForecast": "3.7%"
    },
    {
      "eventDateTime": "2016-09-14T22:45:00",
      "eventActual": "2.8%",
      "eventCountry": "New Zealand",
      "eventExpectedVolatility": "Low",
      "eventName": "GDP Annual Average (Q2)",
      "eventTimeZone": "GMT",
      "eventPrevious": "2.5%",
      "eventCurrency": "NZD",
      "eventForecast": "2.8%"
    },
    {
      "eventDateTime": "2016-09-14T22:45:00",
      "eventActual": "1.2%",
      "eventCountry": "New Zealand",
      "eventExpectedVolatility": "Low",
      "eventName": "GDP Expenditure (QoQ) (Q2)",
      "eventTimeZone": "GMT",
      "eventPrevious": "0.7%",
      "eventCurrency": "NZD",
      "eventForecast": ""
    }
  ]}}
