{"events": {"event": {
    "eventDateTime": "2018-02-28T02:00:00",
    "eventActual": "650.6B",
    "eventCountry": "Singapore",
    "eventExpectedVolatility": "Low",
    "eventName": "Bank Lending (Jan)",
    "eventTimeZone": "GMT",
    "eventPrevious": "651.9B",
    "eventCurrency": "SGD",
    "eventForecast": ""
  }}}
