"Budget Balance (Jul)";"Canada";"CAD";"2019-09-27T15:00:00";"GMT";"0.96B";"";"-1.47B";"Low"
"Budget Balance (YoY) (Jul)";"Canada";"CAD";"2019-09-27T15:00:00";"GMT";"-0.46B";"";"-1.56B";"Low"
"CFTC CAD speculative net positions";"Canada";"CAD";"2019-09-27T19:30:00";"GMT";"19.8K";"";"4.6K";"Low"
