{"events": {"event": [
    {
      "eventDateTime": "2008-03-11T00:30:00",
      "eventActual": "2.3%",
      "eventCountry": "Australia",
      "eventExpectedVolatility": "Moderate",
      "eventName": "Home Loans (MoM)",
      "eventTimeZone": "GMT",
      "eventPrevious": "0.1%",
      "eventCurrency": "AUD",
      "eventForecast": "0.9%"
    },
    {
      "eventDateTime": "2008-03-11T23:30:00",
      "eventActual": "-9.10%",
      "eventCountry": "Australia",
      "eventExpectedVolatility": "Moderate",
      "eventName": "Westpac Consumer Sentiment",
      "eventTimeZone": "GMT",
      "eventPrevious": "-5.50%",
      "eventCurrency": "AUD",
      "eventForecast": "0.00%"
    }
  ]}}
