{"events": {"event": [
    {
      "eventDateTime": "2017-09-05T06:00:00",
      "eventActual": "54.2",
      "eventCountry": "Russia",
      "eventExpectedVolatility": "Moderate",
      "eventName": "Markit Services PMI (Aug)",
      "eventTimeZone": "GMT",
      "eventPrevious": "52.6",
      "eventCurrency": "RUB",
      "eventForecast": ""
    },
    {
      "eventDateTime": "2017-09-05T13:00:00",
      "eventActual": "-0.5%",
      "eventCountry": "Russia",
      "eventExpectedVolatility": "Moderate",
      "eventName": "CPI (MoM)",
      "eventTimeZone": "GMT",
      "eventPrevious": "0.1%",
      "eventCurrency": "RUB",
      "eventForecast": "-0.4%"
    },
    {
      "eventDateTime": "2017-09-05T13:00:00",
      "eventActual": "3.3%",
      "eventCountry": "Russia",
      "eventExpectedVolatility": "Moderate",
      "eventName": "CPI (YoY)",
      "eventTimeZone": "GMT",
      "eventPrevious": "3.9%",
      "eventCurrency": "RUB",
      "eventForecast": "3.5%"
    }
  ]}}
