{"events": {"event": {
    "eventDateTime": "2020-01-06T00:30:00",
    "eventActual": "42.1",
    "eventCountry": "Hong Kong",
    "eventExpectedVolatility": "Low",
    "eventName": "Manufacturing PMI (Dec)",
    "eventTimeZone": "GMT",
    "eventPrevious": "38.5",
    "eventCurrency": "HKD",
    "eventForecast": "36.5"
  }}}
