{"events": {"event": {
    "eventDateTime": "2011-10-31T03:00:00",
    "eventActual": "2.0%",
    "eventCountry": "Singapore",
    "eventExpectedVolatility": "Low",
    "eventName": "Unemployment Rate",
    "eventTimeZone": "GMT",
    "eventPrevious": "2.1%",
    "eventCurrency": "SGD",
    "eventForecast": "2.3%"
  }}}
