"BoJ Interest Rate Decision";"Japan";"JPY";"2018-01-23T03:15:00";"GMT";"-0.10%";"-0.10%";"-0.10%";"Moderate"
"BoJ Monetary Policy Statement";"Japan";"JPY";"2018-01-23T03:15:00";"GMT";" ";"";"";"High"
"BoJ Outlook Report (YoY)";"Japan";"JPY";"2018-01-23T03:15:00";"GMT";" ";"";"";"High"
"All Industries Activity Index (MoM)";"Japan";"JPY";"2018-01-23T04:30:00";"GMT";"0.3%";"0.9%";"1.0%";"Low"
"BoJ Press Conference";"Japan";"JPY";"2018-01-23T06:30:00";"GMT";" ";"";"";"High"
"Adjusted Trade Balance";"Japan";"JPY";"2018-01-23T23:50:00";"GMT";"0.36T";"0.27T";"0.09T";"Moderate"
"Exports (YoY) (Dec)";"Japan";"JPY";"2018-01-23T23:50:00";"GMT";"16.2%";"10.1%";"9.3%";"Moderate"
"Imports (YoY) (Dec)";"Japan";"JPY";"2018-01-23T23:50:00";"GMT";"17.2%";"12.3%";"14.9%";"Low"
"Trade Balance (Dec)";"Japan";"JPY";"2018-01-23T23:50:00";"GMT";"112B";"530B";"359B";"Moderate"
