{"events": {"event": [
    {
      "eventDateTime": "2010-12-01T09:00:00",
      "eventActual": "318.50B",
      "eventCountry": "Singapore",
      "eventExpectedVolatility": "Low",
      "eventName": "Bank Lending (Nov)",
      "eventTimeZone": "GMT",
      "eventPrevious": "313.30B",
      "eventCurrency": "SGD",
      "eventForecast": ""
    },
    {
      "eventDateTime": "2010-12-01T09:00:00",
      "eventActual": "3.80%",
      "eventCountry": "Singapore",
      "eventExpectedVolatility": "Moderate",
      "eventName": "CPI (YoY) (Nov)",
      "eventTimeZone": "GMT",
      "eventPrevious": "3.51%",
      "eventCurrency": "SGD",
      "eventForecast": ""
    },
    {
      "eventDateTime": "2010-12-01T09:00:00",
      "eventActual": "217.60B",
      "eventCountry": "Singapore",
      "eventExpectedVolatility": "Low",
      "eventName": "Foreign Reserves USD (MoM) (Nov)",
      "eventTimeZone": "GMT",
      "eventPrevious": "221.40B",
      "eventCurrency": "SGD",
      "eventForecast": ""
    },
    {
      "eventDateTime": "2010-12-01T09:00:00",
      "eventActual": "1.90%",
      "eventCountry": "Singapore",
      "eventExpectedVolatility": "Low",
      "eventName": "Industrial Production (MoM) (Nov)",
      "eventTimeZone": "GMT",
      "eventPrevious": "2.70%",
      "eventCurrency": "SGD",
      "eventForecast": ""
    },
    {
      "eventDateTime": "2010-12-01T09:00:00",
      "eventActual": "51.40",
      "eventCountry": "Singapore",
      "eventExpectedVolatility": "Low",
      "eventName": "Manufacturing PMI (Nov)",
      "eventTimeZone": "GMT",
      "eventPrevious": "50.70",
      "eventCurrency": "SGD",
      "eventForecast": ""
    },
    {
      "eventDateTime": "2010-12-01T09:00:00",
      "eventActual": "-12.20%",
      "eventCountry": "Singapore",
      "eventExpectedVolatility": "Low",
      "eventName": "Non-Oil Exports (MoM) (Nov)",
      "eventTimeZone": "GMT",
      "eventPrevious": "5.60%",
      "eventCurrency": "SGD",
      "eventForecast": ""
    },
    {
      "eventDateTime": "2010-12-01T09:00:00",
      "eventActual": "9.90%",
      "eventCountry": "Singapore",
      "eventExpectedVolatility": "Low",
      "eventName": "Non-Oil Exports (YoY) (Nov)",
      "eventTimeZone": "GMT",
      "eventPrevious": "34.30%",
      "eventCurrency": "SGD",
      "eventForecast": ""
    },
    {
      "eventDateTime": "2010-12-01T09:00:00",
      "eventActual": "2.60%",
      "eventCountry": "Singapore",
      "eventExpectedVolatility": "Low",
      "eventName": "Retail Sales (MoM) (Nov)",
      "eventTimeZone": "GMT",
      "eventPrevious": "-2.80%",
      "eventCurrency": "SGD",
      "eventForecast": ""
    }
  ]}}
