{"events": {"event": {
    "eventDateTime": "2017-05-10T23:01:00",
    "eventActual": "22%",
    "eventCountry": "United Kingdom",
    "eventExpectedVolatility": "Moderate",
    "eventName": "RICS House Price Balance (Apr)",
    "eventTimeZone": "GMT",
    "eventPrevious": "22%",
    "eventCurrency": "GBP",
    "eventForecast": "20%"
  }}}
