{"events": {"event": {
    "eventDateTime": "2009-06-26T19:30:00",
    "eventActual": "17.0K",
    "eventCountry": "New Zealand",
    "eventExpectedVolatility": "Low",
    "eventName": "CFTC NZD speculative net positions",
    "eventTimeZone": "GMT",
    "eventPrevious": "15.5K",
    "eventCurrency": "NZD",
    "eventForecast": ""
  }}}
