{"events": {"event": {
    "eventDateTime": "2018-03-26T21:00:00",
    "eventActual": "108",
    "eventCountry": "South Korea",
    "eventExpectedVolatility": "Low",
    "eventName": "Consumer Confidence (Mar)",
    "eventTimeZone": "GMT",
    "eventPrevious": "108",
    "eventCurrency": "KRW",
    "eventForecast": ""
  }}}
