"Capacity Utilization (MoM) (Apr)";"Japan";"JPY";"2012-05-01T09:00:00";"GMT";"0.00%";"";"-1.20%";"Low"
"Coincident Indicator (MoM) (Apr)";"Japan";"JPY";"2012-05-01T09:00:00";"GMT";"1.30%";"";"-0.70%";"Low"
"Construction Orders (YoY) (Apr)";"Japan";"JPY";"2012-05-01T09:00:00";"GMT";"-0.30%";"";"16.20%";"Low"
"Core Machinery Orders (YoY) (Apr)";"Japan";"JPY";"2012-05-01T09:00:00";"GMT";"-1.10%";"";"6.60%";"Low"
"Current Account n.s.a. (Apr)";"Japan";"JPY";"2012-05-01T09:00:00";"GMT";"1.33T";"";"0.38T";"Moderate"
"Exports (YoY) (Apr)";"Japan";"JPY";"2012-05-01T09:00:00";"GMT";"5.90%";"";"7.90%";"Moderate"
"Foreign Bonds Buying (Apr)";"Japan";"JPY";"2012-05-01T09:00:00";"GMT";"4,332.30B";"";"-13,047.40B";"Low"
"Foreign Investments in Japanese Stocks (Apr)";"Japan";"JPY";"2012-05-01T09:00:00";"GMT";"1,644.70B";"";"39.30B";"Low"
"Foreign Reserves (USD) (Apr)";"Japan";"JPY";"2012-05-01T09:00:00";"GMT";"1,288.70B";"";"1,289.54B";"Low"
"Household Spending (MoM) (Apr)";"Japan";"JPY";"2012-05-01T09:00:00";"GMT";"0.70%";"";"-0.50%";"Moderate"
"Imports (YoY) (Apr)";"Japan";"JPY";"2012-05-01T09:00:00";"GMT";"10.50%";"";"8.00%";"Low"
"Industrial Production forecast 1m ahead (MoM) (Apr)";"Japan";"JPY";"2012-05-01T09:00:00";"GMT";"-0.30%";"";"1.20%";"Low"
"Industrial Production forecast 2m ahead (MoM) (Apr)";"Japan";"JPY";"2012-05-01T09:00:00";"GMT";"-1.00%";"";"3.50%";"Low"
"Jobs/applications ratio (Apr)";"Japan";"JPY";"2012-05-01T09:00:00";"GMT";"0.77";"";"0.79";"Moderate"
"Leading Index (MoM) (Apr)";"Japan";"JPY";"2012-05-01T09:00:00";"GMT";"0.40%";"";"-0.20%";"Low"
"National CPI (YoY) (Apr)";"Japan";"JPY";"2012-05-01T09:00:00";"GMT";"0.50%";"";"0.40%";"Low"
"Overtime Pay (YoY) (Apr)";"Japan";"JPY";"2012-05-01T09:00:00";"GMT";"4.30%";"";"5.50%";"Low"
"PPI (MoM) (Apr)";"Japan";"JPY";"2012-05-01T09:00:00";"GMT";"0.50%";"";"-0.20%";"Low"
"Reuters Tankan Index (Apr)";"Japan";"JPY";"2012-05-01T09:00:00";"GMT";"2.00";"";"1.00";"Low"
"Tokyo CPI (YoY) (Apr)";"Japan";"JPY";"2012-05-01T09:00:00";"GMT";"-0.10%";"";"-0.30%";"Low"
"Trade Balance (Apr)";"Japan";"JPY";"2012-05-01T09:00:00";"GMT";"-81.80B";"";"-518.40B";"Moderate"
"Monetary Base (YoY)";"Japan";"JPY";"2012-05-01T23:50:00";"GMT";"-0.2%";"4.1%";"-0.3%";"Low"
