{"events": {"event": [
    {
      "eventDateTime": "2017-03-12T23:50:00",
      "eventActual": "-3.2%",
      "eventCountry": "Japan",
      "eventExpectedVolatility": "Low",
      "eventName": "Core Machinery Orders (MoM) (Jan)",
      "eventTimeZone": "GMT",
      "eventPrevious": "2.1%",
      "eventCurrency": "JPY",
      "eventForecast": "0.5%"
    },
    {
      "eventDateTime": "2017-03-12T23:50:00",
      "eventActual": "-8.2%",
      "eventCountry": "Japan",
      "eventExpectedVolatility": "Low",
      "eventName": "Core Machinery Orders (YoY) (Jan)",
      "eventTimeZone": "GMT",
      "eventPrevious": "6.7%",
      "eventCurrency": "JPY",
      "eventForecast": "-3.3%"
    },
    {
      "eventDateTime": "2017-03-12T23:50:00",
      "eventActual": "0.2%",
      "eventCountry": "Japan",
      "eventExpectedVolatility": "Low",
      "eventName": "PPI (MoM) (Mar)",
      "eventTimeZone": "GMT",
      "eventPrevious": "0.6%",
      "eventCurrency": "JPY",
      "eventForecast": "-0.1%"
    },
    {
      "eventDateTime": "2017-03-12T23:50:00",
      "eventActual": "1.0%",
      "eventCountry": "Japan",
      "eventExpectedVolatility": "Low",
      "eventName": "PPI (YoY) (Mar)",
      "eventTimeZone": "GMT",
      "eventPrevious": "0.5%",
      "eventCurrency": "JPY",
      "eventForecast": "1.0%"
    }
  ]}}
