{"events": {"event": [
    {
      "eventDateTime": "2019-03-22T00:30:00",
      "eventActual": "48.9",
      "eventCountry": "Japan",
      "eventExpectedVolatility": "Low",
      "eventName": "Manufacturing PMI (Mar)",
      "eventTimeZone": "GMT",
      "eventPrevious": "48.9",
      "eventCurrency": "JPY",
      "eventForecast": "49.2"
    },
    {
      "eventDateTime": "2019-03-22T19:30:00",
      "eventActual": "-59.2K",
      "eventCountry": "Japan",
      "eventExpectedVolatility": "Moderate",
      "eventName": "CFTC JPY speculative net positions",
      "eventTimeZone": "GMT",
      "eventPrevious": "-58.8K",
      "eventCurrency": "JPY",
      "eventForecast": ""
    }
  ]}}
