{"events": {"event": [
    {
      "eventDateTime": "2013-02-01T08:30:00",
      "eventActual": "52.5",
      "eventCountry": "Switzerland",
      "eventExpectedVolatility": "Moderate",
      "eventName": "procure.ch PMI",
      "eventTimeZone": "GMT",
      "eventPrevious": "49.9",
      "eventCurrency": "CHF",
      "eventForecast": "50.5"
    },
    {
      "eventDateTime": "2013-02-01T09:00:00",
      "eventActual": "-0.30%",
      "eventCountry": "Switzerland",
      "eventExpectedVolatility": "Low",
      "eventName": "CPI (YoY) (Jan)",
      "eventTimeZone": "GMT",
      "eventPrevious": "-0.40%",
      "eventCurrency": "CHF",
      "eventForecast": ""
    },
    {
      "eventDateTime": "2013-02-01T09:00:00",
      "eventActual": "101.60",
      "eventCountry": "Switzerland",
      "eventExpectedVolatility": "Moderate",
      "eventName": "KOF Leading Indicators (Jan)",
      "eventTimeZone": "GMT",
      "eventPrevious": "103.50",
      "eventCurrency": "CHF",
      "eventForecast": ""
    },
    {
      "eventDateTime": "2013-02-01T09:00:00",
      "eventActual": "0.80%",
      "eventCountry": "Switzerland",
      "eventExpectedVolatility": "Low",
      "eventName": "PPI (YoY) (Jan)",
      "eventTimeZone": "GMT",
      "eventPrevious": "1.00%",
      "eventCurrency": "CHF",
      "eventForecast": ""
    },
    {
      "eventDateTime": "2013-02-01T09:00:00",
      "eventActual": "3.40%",
      "eventCountry": "Switzerland",
      "eventExpectedVolatility": "Moderate",
      "eventName": "Unemployment Rate n.s.a. (Jan)",
      "eventTimeZone": "GMT",
      "eventPrevious": "3.30%",
      "eventCurrency": "CHF",
      "eventForecast": ""
    },
    {
      "eventDateTime": "2013-02-01T20:30:00",
      "eventActual": "4.1K",
      "eventCountry": "Switzerland",
      "eventExpectedVolatility": "Low",
      "eventName": "CFTC CHF speculative net positions",
      "eventTimeZone": "GMT",
      "eventPrevious": "6.4K",
      "eventCurrency": "CHF",
      "eventForecast": ""
    }
  ]}}
