"Fed Chairman Bernanke Speaks";"United States";"USD";"2010-10-15T12:15:00";"GMT";" ";"";"";"High"
"CPI (MoM)";"United States";"USD";"2010-10-15T12:30:00";"GMT";"0.3%";"0.2%";"0.1%";"Moderate"
"Core CPI (MoM)";"United States";"USD";"2010-10-15T12:30:00";"GMT";"0.0%";"0.1%";"0.0%";"High"
"Core Retail Sales (MoM)";"United States";"USD";"2010-10-15T12:30:00";"GMT";"1.0%";"0.4%";"0.4%";"High"
"NY Empire State Manufacturing Index";"United States";"USD";"2010-10-15T12:30:00";"GMT";"4.1";"6.0";"15.7";"Moderate"
"Retail Sales (MoM)";"United States";"USD";"2010-10-15T12:30:00";"GMT";"0.7%";"0.4%";"0.6%";"High"
"Michigan Consumer Sentiment";"United States";"USD";"2010-10-15T13:55:00";"GMT";"68.2";"68.6";"67.9";"Moderate"
"Michigan Inflation Expectations";"United States";"USD";"2010-10-15T13:55:00";"GMT";"2.2%";"";"2.6%";"Low"
"Business Inventories (MoM)";"United States";"USD";"2010-10-15T14:00:00";"GMT";"1.1%";"0.5%";"0.6%";"Moderate"
"U.S. Baker Hughes Oil Rig Count";"United States";"USD";"2010-10-15T17:00:00";"GMT";"690";"";"695";"Moderate"
"Federal Budget Balance";"United States";"USD";"2010-10-15T18:00:00";"GMT";"-90.5B";"-32.0B";"-34.5B";"Moderate"
"CFTC Gold speculative net positions";"United States";"USD";"2010-10-15T19:30:00";"GMT";"259.6K";"";"255.9K";"Moderate"
"CFTC Silver speculative net positions";"United States";"USD";"2010-10-15T19:30:00";"GMT";"48.5K";"";"45.4K";"Low"
"CFTC Crude Oil speculative net positions";"United States";"USD";"2010-10-15T20:30:00";"GMT";"116.0k";"";"129.3k";"Moderate"
