{"events": {"event": [
    {
      "eventDateTime": "2011-08-04T09:05:00",
      "eventActual": "-10.40B",
      "eventCountry": "Spain",
      "eventExpectedVolatility": "Low",
      "eventName": "Spanish Government Budget Balance",
      "eventTimeZone": "GMT",
      "eventPrevious": "-11.30B",
      "eventCurrency": "EUR",
      "eventForecast": "-10.70B"
    },
    {
      "eventDateTime": "2011-08-04T10:00:00",
      "eventActual": "1.8%",
      "eventCountry": "Germany",
      "eventExpectedVolatility": "Moderate",
      "eventName": "German Factory Orders (MoM)",
      "eventTimeZone": "GMT",
      "eventPrevious": "1.5%",
      "eventCurrency": "EUR",
      "eventForecast": "-0.2%"
    },
    {
      "eventDateTime": "2011-08-04T11:45:00",
      "eventActual": "1.50%",
      "eventCountry": "Euro Zone",
      "eventExpectedVolatility": "High",
      "eventName": "ECB Interest Rate Decision",
      "eventTimeZone": "GMT",
      "eventPrevious": "1.50%",
      "eventCurrency": "EUR",
      "eventForecast": "1.50%"
    },
    {
      "eventDateTime": "2011-08-04T12:30:00",
      "eventActual": "",
      "eventCountry": "Euro Zone",
      "eventExpectedVolatility": "High",
      "eventName": "ECB Press Conference",
      "eventTimeZone": "GMT",
      "eventPrevious": "",
      "eventCurrency": "EUR",
      "eventForecast": ""
    }
  ]}}
