"ANZ Business Confidence (May)";"New Zealand";"NZD";"2004-06-01T09:00:00";"GMT";"-35.70%";"";"-22.00%";"Moderate"
"Building Consents (MoM) (May)";"New Zealand";"NZD";"2004-06-01T09:00:00";"GMT";"3.70%";"";"-5.80%";"Moderate"
"Electronic Card Retail Sales (MoM) (May)";"New Zealand";"NZD";"2004-06-01T09:00:00";"GMT";"1.20%";"";"0.70%";"Moderate"
"Electronic Card Retail Sales (YoY) (May)";"New Zealand";"NZD";"2004-06-01T09:00:00";"GMT";"11.20%";"";"8.70%";"Low"
"Exports (May)";"New Zealand";"NZD";"2004-06-01T09:00:00";"GMT";"2.69B";"";"3.38B";"Low"
"External Migration andamp; Visitors (May)";"New Zealand";"NZD";"2004-06-01T09:00:00";"GMT";"22.58%";"";"29.17%";"Low"
"FPI (MoM) (May)";"New Zealand";"NZD";"2004-06-01T09:00:00";"GMT";"-0.20%";"";"-0.40%";"Low"
"Government Monthly Debt (May)";"New Zealand";"NZD";"2004-06-01T09:00:00";"GMT";"11.00%";"";"11.30%";"Low"
"Imports (May)";"New Zealand";"NZD";"2004-06-01T09:00:00";"GMT";"2.89B";"";"2.70B";"Low"
"NBNZ Own Activity (May)";"New Zealand";"NZD";"2004-06-01T09:00:00";"GMT";"19.90%";"";"24.80%";"Low"
"Permanent/Long-Term Migration (May)";"New Zealand";"NZD";"2004-06-01T09:00:00";"GMT";"1,120.00";"";"1,280.00";"Low"
"RBNZ Interest Rate Decision (May)";"New Zealand";"NZD";"2004-06-01T09:00:00";"GMT";"5.27%";"";"5.50%";"High"
"RBNZ Offshore Holdings (May)";"New Zealand";"NZD";"2004-06-01T09:00:00";"GMT";"47.00%";"";"45.80%";"Low"
"REINZ House Price Index (MoM) (May)";"New Zealand";"NZD";"2004-06-01T09:00:00";"GMT";"2.00%";"";"1.80%";"Low"
"REINZ House Price Index (YoY) (May)";"New Zealand";"NZD";"2004-06-01T09:00:00";"GMT";"22.10%";"";"21.90%";"Low"
"Trade Balance (MoM) (May)";"New Zealand";"NZD";"2004-06-01T09:00:00";"GMT";"-194.70M";"";"677.10M";"Moderate"
"Trade Balance (YoY) (May)";"New Zealand";"NZD";"2004-06-01T09:00:00";"GMT";"-3,930.00M";"";"-3,350.00M";"Moderate"
