{"events": {"event": {
    "eventDateTime": "2013-10-23T23:50:00",
    "eventActual": "1,412.7B",
    "eventCountry": "Japan",
    "eventExpectedVolatility": "Low",
    "eventName": "Foreign Bonds Buying",
    "eventTimeZone": "GMT",
    "eventPrevious": "386.9B",
    "eventCurrency": "JPY",
    "eventForecast": ""
  }}}
