"Investing.com Gold Index";"United States";"USD";"2018-07-30T05:30:00";"GMT";"64.7%";"";"64.9%";"Moderate"
"Investing.com Sandamp:P 500 Index";"United States";"USD";"2018-07-30T05:30:00";"GMT";"62.7%";"";"62.1%";"Moderate"
"Pending Home Sales (MoM) (Jun)";"United States";"USD";"2018-07-30T14:00:00";"GMT";"-0.5%";"0.4%";"0.9%";"High"
"Pending Home Sales Index (Jun)";"United States";"USD";"2018-07-30T14:00:00";"GMT";"105.9";"";"106.9";"Low"
"Dallas Fed Mfg Business Index (Jul)";"United States";"USD";"2018-07-30T14:30:00";"GMT";"36.5";"31.0";"32.3";"Low"
"3-Month Bill Auction";"United States";"USD";"2018-07-30T15:30:00";"GMT";"1.970%";"";"2.000%";"Low"
"6-Month Bill Auction";"United States";"USD";"2018-07-30T15:30:00";"GMT";"2.140%";"";"2.160%";"Low"
