{"events": {"event": [
    {
      "eventDateTime": "2019-04-26T08:00:00",
      "eventActual": "",
      "eventCountry": "Switzerland",
      "eventExpectedVolatility": "Moderate",
      "eventName": "SNB Chairman Thomas Jordan speaks",
      "eventTimeZone": "GMT",
      "eventPrevious": "",
      "eventCurrency": "CHF",
      "eventForecast": ""
    },
    {
      "eventDateTime": "2019-04-26T19:30:00",
      "eventActual": "-37.5K",
      "eventCountry": "Switzerland",
      "eventExpectedVolatility": "Low",
      "eventName": "CFTC CHF speculative net positions",
      "eventTimeZone": "GMT",
      "eventPrevious": "-32.6K",
      "eventCurrency": "CHF",
      "eventForecast": ""
    }
  ]}}
