{"events": {"event": [
    {
      "eventDateTime": "2016-12-15T00:00:00",
      "eventActual": "3.4%",
      "eventCountry": "Australia",
      "eventExpectedVolatility": "Low",
      "eventName": "MI Inflation Expectations",
      "eventTimeZone": "GMT",
      "eventPrevious": "3.2%",
      "eventCurrency": "AUD",
      "eventForecast": ""
    },
    {
      "eventDateTime": "2016-12-15T00:30:00",
      "eventActual": "39.1K",
      "eventCountry": "Australia",
      "eventExpectedVolatility": "High",
      "eventName": "Employment Change (Nov)",
      "eventTimeZone": "GMT",
      "eventPrevious": "15.2K",
      "eventCurrency": "AUD",
      "eventForecast": "20.0K"
    },
    {
      "eventDateTime": "2016-12-15T00:30:00",
      "eventActual": "39.3K",
      "eventCountry": "Australia",
      "eventExpectedVolatility": "Moderate",
      "eventName": "Full Employment Change (Nov)",
      "eventTimeZone": "GMT",
      "eventPrevious": "45.7K",
      "eventCurrency": "AUD",
      "eventForecast": ""
    },
    {
      "eventDateTime": "2016-12-15T00:30:00",
      "eventActual": "64.6%",
      "eventCountry": "Australia",
      "eventExpectedVolatility": "Low",
      "eventName": "Participation Rate (Nov)",
      "eventTimeZone": "GMT",
      "eventPrevious": "64.4%",
      "eventCurrency": "AUD",
      "eventForecast": "64.5%"
    },
    {
      "eventDateTime": "2016-12-15T00:30:00",
      "eventActual": "",
      "eventCountry": "Australia",
      "eventExpectedVolatility": "Low",
      "eventName": "RBA Bulletin",
      "eventTimeZone": "GMT",
      "eventPrevious": "",
      "eventCurrency": "AUD",
      "eventForecast": ""
    },
    {
      "eventDateTime": "2016-12-15T00:30:00",
      "eventActual": "5.7%",
      "eventCountry": "Australia",
      "eventExpectedVolatility": "Moderate",
      "eventName": "Unemployment Rate (Nov)",
      "eventTimeZone": "GMT",
      "eventPrevious": "5.6%",
      "eventCurrency": "AUD",
      "eventForecast": "5.6%"
    }
  ]}}
