{"events": {"event": {
    "eventDateTime": "2015-07-17T19:30:00",
    "eventActual": "-33.5K",
    "eventCountry": "Australia",
    "eventExpectedVolatility": "Moderate",
    "eventName": "CFTC AUD speculative net positions",
    "eventTimeZone": "GMT",
    "eventPrevious": "-22.0K",
    "eventCurrency": "AUD",
    "eventForecast": ""
  }}}
