{"events": {"event": {
    "eventDateTime": "2018-07-03T14:15:00",
    "eventActual": "-5.0%",
    "eventCountry": "New Zealand",
    "eventExpectedVolatility": "Moderate",
    "eventName": "GlobalDairyTrade Price Index",
    "eventTimeZone": "GMT",
    "eventPrevious": "-1.2%",
    "eventCurrency": "NZD",
    "eventForecast": ""
  }}}
