{"events": {"event": [
    {
      "eventDateTime": "2009-08-12T22:30:00",
      "eventActual": "49.7",
      "eventCountry": "New Zealand",
      "eventExpectedVolatility": "Moderate",
      "eventName": "Business NZ PMI",
      "eventTimeZone": "GMT",
      "eventPrevious": "46.5",
      "eventCurrency": "NZD",
      "eventForecast": ""
    },
    {
      "eventDateTime": "2009-08-12T22:45:00",
      "eventActual": "0.6%",
      "eventCountry": "New Zealand",
      "eventExpectedVolatility": "Low",
      "eventName": "FPI (MoM)",
      "eventTimeZone": "GMT",
      "eventPrevious": "2.8%",
      "eventCurrency": "NZD",
      "eventForecast": ""
    }
  ]}}
