{"events": {"event": [
    {
      "eventDateTime": "2012-09-17T12:30:00",
      "eventActual": "-10.4",
      "eventCountry": "United States",
      "eventExpectedVolatility": "Moderate",
      "eventName": "NY Empire State Manufacturing Index",
      "eventTimeZone": "GMT",
      "eventPrevious": "-5.9",
      "eventCurrency": "USD",
      "eventForecast": "-2.0"
    },
    {
      "eventDateTime": "2012-09-17T15:30:00",
      "eventActual": "0.105%",
      "eventCountry": "United States",
      "eventExpectedVolatility": "Low",
      "eventName": "3-Month Bill Auction",
      "eventTimeZone": "GMT",
      "eventPrevious": "0.100%",
      "eventCurrency": "USD",
      "eventForecast": ""
    },
    {
      "eventDateTime": "2012-09-17T15:30:00",
      "eventActual": "0.130%",
      "eventCountry": "United States",
      "eventExpectedVolatility": "Low",
      "eventName": "6-Month Bill Auction",
      "eventTimeZone": "GMT",
      "eventPrevious": "0.130%",
      "eventCurrency": "USD",
      "eventForecast": ""
    }
  ]}}
