{"events": {"event": {
    "eventDateTime": "2014-09-18T08:30:00",
    "eventActual": "3.3%",
    "eventCountry": "Hong Kong",
    "eventExpectedVolatility": "Low",
    "eventName": "Unemployment Rate",
    "eventTimeZone": "GMT",
    "eventPrevious": "3.3%",
    "eventCurrency": "HKD",
    "eventForecast": "3.4%"
  }}}
