{"events": {"event": [
    {
      "eventDateTime": "2008-02-12T00:01:00",
      "eventActual": "2.6%",
      "eventCountry": "United Kingdom",
      "eventExpectedVolatility": "Moderate",
      "eventName": "BRC Retail Sales Monitor (YoY)",
      "eventTimeZone": "GMT",
      "eventPrevious": "0.3%",
      "eventCurrency": "GBP",
      "eventForecast": "0.0%"
    },
    {
      "eventDateTime": "2008-02-12T09:30:00",
      "eventActual": "2.2%",
      "eventCountry": "United Kingdom",
      "eventExpectedVolatility": "High",
      "eventName": "CPI (YoY)",
      "eventTimeZone": "GMT",
      "eventPrevious": "2.1%",
      "eventCurrency": "GBP",
      "eventForecast": "2.3%"
    },
    {
      "eventDateTime": "2008-02-12T09:30:00",
      "eventActual": "1.3%",
      "eventCountry": "United Kingdom",
      "eventExpectedVolatility": "Low",
      "eventName": "Core CPI (YoY)",
      "eventTimeZone": "GMT",
      "eventPrevious": "1.4%",
      "eventCurrency": "GBP",
      "eventForecast": "1.5%"
    },
    {
      "eventDateTime": "2008-02-12T09:30:00",
      "eventActual": "4.1%",
      "eventCountry": "United Kingdom",
      "eventExpectedVolatility": "Low",
      "eventName": "RPI (YoY)",
      "eventTimeZone": "GMT",
      "eventPrevious": "4.0%",
      "eventCurrency": "GBP",
      "eventForecast": "4.1%"
    }
  ]}}
