"BoJ Interest Rate Decision";"Japan";"JPY";"2017-09-21T03:00:00";"GMT";"-0.10%";"-0.10%";"-0.10%";"Moderate"
"BoJ Monetary Policy Statement";"Japan";"JPY";"2017-09-21T03:00:00";"GMT";" ";"";"";"High"
"All Industries Activity Index (MoM)";"Japan";"JPY";"2017-09-21T04:30:00";"GMT";"0.2%";"0.0%";"-0.1%";"Low"
"BoJ Press Conference";"Japan";"JPY";"2017-09-21T06:30:00";"GMT";" ";"";"";"High"
"Foreign Bonds Buying";"Japan";"JPY";"2017-09-21T23:50:00";"GMT";"198.7B";"";"381.8B";"Low"
"Foreign Investments in Japanese Stocks";"Japan";"JPY";"2017-09-21T23:50:00";"GMT";"-644.6B";"";"-918.6B";"Low"
