{"events": {"event": {
    "eventDateTime": "2014-03-20T11:00:00",
    "eventActual": "6",
    "eventCountry": "United Kingdom",
    "eventExpectedVolatility": "Moderate",
    "eventName": "CBI Industrial Trends Orders",
    "eventTimeZone": "GMT",
    "eventPrevious": "3",
    "eventCurrency": "GBP",
    "eventForecast": "5"
  }}}
