{"events": {"event": {
    "eventDateTime": "2014-07-28T23:00:00",
    "eventActual": "6.32B",
    "eventCountry": "South Korea",
    "eventExpectedVolatility": "Low",
    "eventName": "Current Account",
    "eventTimeZone": "GMT",
    "eventPrevious": "7.47B",
    "eventCurrency": "KRW",
    "eventForecast": ""
  }}}
