{"events": {"event": {
    "eventDateTime": "2018-04-16T13:00:00",
    "eventActual": "1.0%",
    "eventCountry": "Russia",
    "eventExpectedVolatility": "Low",
    "eventName": "Industrial Production (YoY)",
    "eventTimeZone": "GMT",
    "eventPrevious": "1.5%",
    "eventCurrency": "RUB",
    "eventForecast": "1.3%"
  }}}
