{"events": {"event": [
    {
      "eventDateTime": "2014-04-01T09:00:00",
      "eventActual": "92.70",
      "eventCountry": "South Africa",
      "eventExpectedVolatility": "Low",
      "eventName": "Business Confidence (Mar)",
      "eventTimeZone": "GMT",
      "eventPrevious": "91.90",
      "eventCurrency": "ZAR",
      "eventForecast": ""
    },
    {
      "eventDateTime": "2014-04-01T09:00:00",
      "eventActual": "6.05%",
      "eventCountry": "South Africa",
      "eventExpectedVolatility": "Low",
      "eventName": "CPI (YoY) (Mar)",
      "eventTimeZone": "GMT",
      "eventPrevious": "5.92%",
      "eventCurrency": "ZAR",
      "eventForecast": ""
    },
    {
      "eventDateTime": "2014-04-01T09:00:00",
      "eventActual": "1.20%",
      "eventCountry": "South Africa",
      "eventExpectedVolatility": "Moderate",
      "eventName": "Core CPI (MoM) (Mar)",
      "eventTimeZone": "GMT",
      "eventPrevious": "1.20%",
      "eventCurrency": "ZAR",
      "eventForecast": ""
    },
    {
      "eventDateTime": "2014-04-01T09:00:00",
      "eventActual": "5.50%",
      "eventCountry": "South Africa",
      "eventExpectedVolatility": "Low",
      "eventName": "Core CPI (YoY) (Mar)",
      "eventTimeZone": "GMT",
      "eventPrevious": "5.30%",
      "eventCurrency": "ZAR",
      "eventForecast": ""
    },
    {
      "eventDateTime": "2014-04-01T09:00:00",
      "eventActual": "49.45B",
      "eventCountry": "South Africa",
      "eventExpectedVolatility": "Low",
      "eventName": "Foreign Reserves (USD) (Mar)",
      "eventTimeZone": "GMT",
      "eventPrevious": "50.14B",
      "eventCurrency": "ZAR",
      "eventForecast": ""
    },
    {
      "eventDateTime": "2014-04-01T09:00:00",
      "eventActual": "-2.62%",
      "eventCountry": "South Africa",
      "eventExpectedVolatility": "Low",
      "eventName": "Gold Production (YoY) (Mar)",
      "eventTimeZone": "GMT",
      "eventPrevious": "-3.59%",
      "eventCurrency": "ZAR",
      "eventForecast": ""
    },
    {
      "eventDateTime": "2014-04-01T09:00:00",
      "eventActual": "7.78%",
      "eventCountry": "South Africa",
      "eventExpectedVolatility": "Low",
      "eventName": "M3 Money Supply (YoY) (Mar)",
      "eventTimeZone": "GMT",
      "eventPrevious": "5.85%",
      "eventCurrency": "ZAR",
      "eventForecast": ""
    },
    {
      "eventDateTime": "2014-04-01T09:00:00",
      "eventActual": "50.3",
      "eventCountry": "South Africa",
      "eventExpectedVolatility": "Low",
      "eventName": "Manufacturing PMI",
      "eventTimeZone": "GMT",
      "eventPrevious": "51.7",
      "eventCurrency": "ZAR",
      "eventForecast": "51.2"
    },
    {
      "eventDateTime": "2014-04-01T09:00:00",
      "eventActual": "-3.87%",
      "eventCountry": "South Africa",
      "eventExpectedVolatility": "Low",
      "eventName": "Mining Production (Mar)",
      "eventTimeZone": "GMT",
      "eventPrevious": "-2.74%",
      "eventCurrency": "ZAR",
      "eventForecast": ""
    },
    {
      "eventDateTime": "2014-04-01T09:00:00",
      "eventActual": "45.04B",
      "eventCountry": "South Africa",
      "eventExpectedVolatility": "Low",
      "eventName": "Net FX Reserves (USD) (Mar)",
      "eventTimeZone": "GMT",
      "eventPrevious": "45.34B",
      "eventCurrency": "ZAR",
      "eventForecast": ""
    },
    {
      "eventDateTime": "2014-04-01T09:00:00",
      "eventActual": "8.16%",
      "eventCountry": "South Africa",
      "eventExpectedVolatility": "Low",
      "eventName": "PPI (YoY) (Mar)",
      "eventTimeZone": "GMT",
      "eventPrevious": "7.74%",
      "eventCurrency": "ZAR",
      "eventForecast": ""
    },
    {
      "eventDateTime": "2014-04-01T09:00:00",
      "eventActual": "9.00%",
      "eventCountry": "South Africa",
      "eventExpectedVolatility": "Low",
      "eventName": "Prime Rate (Mar)",
      "eventTimeZone": "GMT",
      "eventPrevious": "9.00%",
      "eventCurrency": "ZAR",
      "eventForecast": ""
    },
    {
      "eventDateTime": "2014-04-01T09:00:00",
      "eventActual": "8.73%",
      "eventCountry": "South Africa",
      "eventExpectedVolatility": "Low",
      "eventName": "Private Sector Credit (Mar)",
      "eventTimeZone": "GMT",
      "eventPrevious": "8.67%",
      "eventCurrency": "ZAR",
      "eventForecast": ""
    },
    {
      "eventDateTime": "2014-04-01T09:00:00",
      "eventActual": "50.20",
      "eventCountry": "South Africa",
      "eventExpectedVolatility": "Low",
      "eventName": "South Africa Standard Bank PMI (Mar)",
      "eventTimeZone": "GMT",
      "eventPrevious": "51.50",
      "eventCurrency": "ZAR",
      "eventForecast": ""
    },
    {
      "eventDateTime": "2014-04-01T09:00:00",
      "eventActual": "55.13K",
      "eventCountry": "South Africa",
      "eventExpectedVolatility": "Low",
      "eventName": "Total Vehicle Sales (Mar)",
      "eventTimeZone": "GMT",
      "eventPrevious": "51.49K",
      "eventCurrency": "ZAR",
      "eventForecast": ""
    },
    {
      "eventDateTime": "2014-04-01T09:00:00",
      "eventActual": "0.30%",
      "eventCountry": "South Africa",
      "eventExpectedVolatility": "Low",
      "eventName": "Total Vehicle Sales (YoY) (Mar)",
      "eventTimeZone": "GMT",
      "eventPrevious": "-2.40%",
      "eventCurrency": "ZAR",
      "eventForecast": ""
    }
  ]}}
