"CPI (MoM) (Dec)";"Canada";"CAD";"2017-01-20T13:30:00";"GMT";"-0.4%";"-0.1%";"-0.2%";"Moderate"
"CPI (YoY) (Dec)";"Canada";"CAD";"2017-01-20T13:30:00";"GMT";"1.2%";"1.7%";"1.5%";"Low"
"Core CPI (MoM) (Dec)";"Canada";"CAD";"2017-01-20T13:30:00";"GMT";"-0.5%";"-0.2%";"-0.3%";"High"
"Core CPI (YoY) (Dec)";"Canada";"CAD";"2017-01-20T13:30:00";"GMT";"1.5%";"1.7%";"1.6%";"Moderate"
"Core Retail Sales (MoM) (Nov)";"Canada";"CAD";"2017-01-20T13:30:00";"GMT";"1.4%";"0.2%";"0.1%";"High"
"Retail Sales (MoM) (Nov)";"Canada";"CAD";"2017-01-20T13:30:00";"GMT";"1.2%";"0.5%";"0.2%";"Moderate"
"CFTC CAD speculative net positions";"Canada";"CAD";"2017-01-20T20:30:00";"GMT";"-7.9K";"";"-5.5K";"Low"
