{"events": {"event": [
    {
      "eventDateTime": "2014-01-06T08:13:00",
      "eventActual": "54.2",
      "eventCountry": "Spain",
      "eventExpectedVolatility": "Moderate",
      "eventName": "Spanish Services PMI",
      "eventTimeZone": "GMT",
      "eventPrevious": "51.5",
      "eventCurrency": "EUR",
      "eventForecast": "51.5"
    },
    {
      "eventDateTime": "2014-01-06T08:30:00",
      "eventActual": "-3.60B",
      "eventCountry": "Spain",
      "eventExpectedVolatility": "Low",
      "eventName": "Spanish Government Budget Balance",
      "eventTimeZone": "GMT",
      "eventPrevious": "-0.30B",
      "eventCurrency": "EUR",
      "eventForecast": "5.00B"
    },
    {
      "eventDateTime": "2014-01-06T08:43:00",
      "eventActual": "47.9",
      "eventCountry": "Italy",
      "eventExpectedVolatility": "Moderate",
      "eventName": "Italian Services PMI",
      "eventTimeZone": "GMT",
      "eventPrevious": "47.2",
      "eventCurrency": "EUR",
      "eventForecast": "48.7"
    },
    {
      "eventDateTime": "2014-01-06T08:48:00",
      "eventActual": "47.8",
      "eventCountry": "France",
      "eventExpectedVolatility": "Moderate",
      "eventName": "French Services PMI",
      "eventTimeZone": "GMT",
      "eventPrevious": "47.4",
      "eventCurrency": "EUR",
      "eventForecast": "47.4"
    },
    {
      "eventDateTime": "2014-01-06T08:53:00",
      "eventActual": "53.5",
      "eventCountry": "Germany",
      "eventExpectedVolatility": "Moderate",
      "eventName": "German Services PMI",
      "eventTimeZone": "GMT",
      "eventPrevious": "54.0",
      "eventCurrency": "EUR",
      "eventForecast": "54.0"
    },
    {
      "eventDateTime": "2014-01-06T08:58:00",
      "eventActual": "51.0",
      "eventCountry": "Euro Zone",
      "eventExpectedVolatility": "Moderate",
      "eventName": "Services PMI",
      "eventTimeZone": "GMT",
      "eventPrevious": "51.0",
      "eventCurrency": "EUR",
      "eventForecast": "51.0"
    },
    {
      "eventDateTime": "2014-01-06T09:30:00",
      "eventActual": "11.9",
      "eventCountry": "Euro Zone",
      "eventExpectedVolatility": "Low",
      "eventName": "Sentix Investor Confidence",
      "eventTimeZone": "GMT",
      "eventPrevious": "8.0",
      "eventCurrency": "EUR",
      "eventForecast": "9.5"
    },
    {
      "eventDateTime": "2014-01-06T13:00:00",
      "eventActual": "0.4%",
      "eventCountry": "Germany",
      "eventExpectedVolatility": "Moderate",
      "eventName": "German CPI (MoM)",
      "eventTimeZone": "GMT",
      "eventPrevious": "0.2%",
      "eventCurrency": "EUR",
      "eventForecast": "0.4%"
    },
    {
      "eventDateTime": "2014-01-06T13:00:00",
      "eventActual": "1.4%",
      "eventCountry": "Germany",
      "eventExpectedVolatility": "Low",
      "eventName": "German CPI (YoY)",
      "eventTimeZone": "GMT",
      "eventPrevious": "1.3%",
      "eventCurrency": "EUR",
      "eventForecast": "1.4%"
    },
    {
      "eventDateTime": "2014-01-06T14:00:00",
      "eventActual": "0.162%",
      "eventCountry": "France",
      "eventExpectedVolatility": "Low",
      "eventName": "French 12-Month BTF Auction",
      "eventTimeZone": "GMT",
      "eventPrevious": "0.214%",
      "eventCurrency": "EUR",
      "eventForecast": ""
    },
    {
      "eventDateTime": "2014-01-06T14:00:00",
      "eventActual": "0.081%",
      "eventCountry": "France",
      "eventExpectedVolatility": "Low",
      "eventName": "French 3-Month BTF Auction",
      "eventTimeZone": "GMT",
      "eventPrevious": "0.162%",
      "eventCurrency": "EUR",
      "eventForecast": ""
    },
    {
      "eventDateTime": "2014-01-06T14:00:00",
      "eventActual": "0.122%",
      "eventCountry": "France",
      "eventExpectedVolatility": "Low",
      "eventName": "French 6-Month BTF Auction",
      "eventTimeZone": "GMT",
      "eventPrevious": "0.171%",
      "eventCurrency": "EUR",
      "eventForecast": ""
    }
  ]}}
