{"events": {"event": [
    {
      "eventDateTime": "2016-05-31T01:30:00",
      "eventActual": "3.0%",
      "eventCountry": "Australia",
      "eventExpectedVolatility": "Moderate",
      "eventName": "Building Approvals (MoM) (Apr)",
      "eventTimeZone": "GMT",
      "eventPrevious": "2.9%",
      "eventCurrency": "AUD",
      "eventForecast": "-3.0%"
    },
    {
      "eventDateTime": "2016-05-31T01:30:00",
      "eventActual": "-20.8B",
      "eventCountry": "Australia",
      "eventExpectedVolatility": "Moderate",
      "eventName": "Current Account (Q1)",
      "eventTimeZone": "GMT",
      "eventPrevious": "-22.6B",
      "eventCurrency": "AUD",
      "eventForecast": "-19.5B"
    },
    {
      "eventDateTime": "2016-05-31T01:30:00",
      "eventActual": "0.4%",
      "eventCountry": "Australia",
      "eventExpectedVolatility": "Low",
      "eventName": "Housing Credit (Apr)",
      "eventTimeZone": "GMT",
      "eventPrevious": "0.5%",
      "eventCurrency": "AUD",
      "eventForecast": ""
    },
    {
      "eventDateTime": "2016-05-31T01:30:00",
      "eventActual": "1.1%",
      "eventCountry": "Australia",
      "eventExpectedVolatility": "Low",
      "eventName": "Net Exports Contribution (Q1)",
      "eventTimeZone": "GMT",
      "eventPrevious": "0.0%",
      "eventCurrency": "AUD",
      "eventForecast": "0.7%"
    },
    {
      "eventDateTime": "2016-05-31T01:30:00",
      "eventActual": "-2.3%",
      "eventCountry": "Australia",
      "eventExpectedVolatility": "Low",
      "eventName": "Private House Approvals (Apr)",
      "eventTimeZone": "GMT",
      "eventPrevious": "3.6%",
      "eventCurrency": "AUD",
      "eventForecast": ""
    },
    {
      "eventDateTime": "2016-05-31T01:30:00",
      "eventActual": "0.5%",
      "eventCountry": "Australia",
      "eventExpectedVolatility": "Moderate",
      "eventName": "Private Sector Credit (MoM) (Apr)",
      "eventTimeZone": "GMT",
      "eventPrevious": "0.4%",
      "eventCurrency": "AUD",
      "eventForecast": "0.4%"
    },
    {
      "eventDateTime": "2016-05-31T23:30:00",
      "eventActual": "51.0",
      "eventCountry": "Australia",
      "eventExpectedVolatility": "Moderate",
      "eventName": "AIG Manufacturing Index (May)",
      "eventTimeZone": "GMT",
      "eventPrevious": "53.4",
      "eventCurrency": "AUD",
      "eventForecast": ""
    }
  ]}}
