"CPI (YoY) (Sep)";"Singapore";"SGD";"2013-10-01T09:00:00";"GMT";"2.04%";"";"1.61%";"Moderate"
"Foreign Reserves USD (MoM) (Sep)";"Singapore";"SGD";"2013-10-01T09:00:00";"GMT";"261.90B";"";"268.10B";"Low"
"Industrial Production (MoM) (Sep)";"Singapore";"SGD";"2013-10-01T09:00:00";"GMT";"-1.20%";"";"1.90%";"Low"
"Non-Oil Exports (MoM) (Sep)";"Singapore";"SGD";"2013-10-01T09:00:00";"GMT";"-6.60%";"";"5.60%";"Low"
"Non-Oil Exports (YoY) (Sep)";"Singapore";"SGD";"2013-10-01T09:00:00";"GMT";"-6.80%";"";"-2.00%";"Low"
"Retail Sales (MoM) (Sep)";"Singapore";"SGD";"2013-10-01T09:00:00";"GMT";"1.90%";"";"0.90%";"Low"
