{"events": {"event": [
    {
      "eventDateTime": "2016-04-28T21:00:00",
      "eventActual": "69",
      "eventCountry": "South Korea",
      "eventExpectedVolatility": "Low",
      "eventName": "Manufacturing BSI Index (May)",
      "eventTimeZone": "GMT",
      "eventPrevious": "66",
      "eventCurrency": "KRW",
      "eventForecast": ""
    },
    {
      "eventDateTime": "2016-04-28T23:00:00",
      "eventActual": "-2.2%",
      "eventCountry": "South Korea",
      "eventExpectedVolatility": "Low",
      "eventName": "Industrial Production (MoM) (Mar)",
      "eventTimeZone": "GMT",
      "eventPrevious": "3.2%",
      "eventCurrency": "KRW",
      "eventForecast": "0.1%"
    },
    {
      "eventDateTime": "2016-04-28T23:00:00",
      "eventActual": "-1.5%",
      "eventCountry": "South Korea",
      "eventExpectedVolatility": "Low",
      "eventName": "Industrial Production (YoY) (Mar)",
      "eventTimeZone": "GMT",
      "eventPrevious": "2.2%",
      "eventCurrency": "KRW",
      "eventForecast": "0.8%"
    },
    {
      "eventDateTime": "2016-04-28T23:00:00",
      "eventActual": "4.2%",
      "eventCountry": "South Korea",
      "eventExpectedVolatility": "Low",
      "eventName": "Retail Sales (MoM)",
      "eventTimeZone": "GMT",
      "eventPrevious": "-1.5%",
      "eventCurrency": "KRW",
      "eventForecast": ""
    },
    {
      "eventDateTime": "2016-04-28T23:00:00",
      "eventActual": "0.8%",
      "eventCountry": "South Korea",
      "eventExpectedVolatility": "Low",
      "eventName": "Service Sector Output (MoM) (Mar)",
      "eventTimeZone": "GMT",
      "eventPrevious": "0.3%",
      "eventCurrency": "KRW",
      "eventForecast": ""
    }
  ]}}
