"CPI (MoM) (May)";"China";"CNY";"2004-06-01T09:00:00";"GMT";"0.50%";"";"-0.10%";"Moderate"
"CPI (YoY) (May)";"China";"CNY";"2004-06-01T09:00:00";"GMT";"3.80%";"";"4.40%";"Moderate"
"Exports (YoY) (May)";"China";"CNY";"2004-06-01T09:00:00";"GMT";"32.40%";"";"32.70%";"Moderate"
"FDI (May)";"China";"CNY";"2004-06-01T09:00:00";"GMT";"10.07%";"";"11.34%";"Low"
"Fixed Asset Investment (YoY) (May)";"China";"CNY";"2004-06-01T09:00:00";"GMT";"42.80%";"";"34.80%";"Moderate"
"Imports (YoY) (May)";"China";"CNY";"2004-06-01T09:00:00";"GMT";"42.80%";"";"35.40%";"Moderate"
"Industrial Production (YoY) (May)";"China";"CNY";"2004-06-01T09:00:00";"GMT";"19.10%";"";"17.50%";"High"
"M2 Money Stock (YoY) (May)";"China";"CNY";"2004-06-01T09:00:00";"GMT";"19.10%";"";"17.50%";"Low"
"New Loans (May)";"China";"CNY";"2004-06-01T09:00:00";"GMT";"199.50B";"";"113.20B";"Moderate"
"Outstanding Loan Growth (YoY) (May)";"China";"CNY";"2004-06-01T09:00:00";"GMT";"19.90%";"";"18.60%";"Low"
"PBoC Deposit Rate (May)";"China";"CNY";"2004-06-01T09:00:00";"GMT";"1.98%";"";"1.98%";"Moderate"
"PBoC Interest Rate (May)";"China";"CNY";"2004-06-01T09:00:00";"GMT";"5.31%";"";"5.31%";"High"
"PBoC Reserve Requirement Ratio (May)";"China";"CNY";"2004-06-01T09:00:00";"GMT";"7.11%";"";"7.50%";"Moderate"
"PPI (YoY) (May)";"China";"CNY";"2004-06-01T09:00:00";"GMT";"5.00%";"";"5.70%";"Moderate"
"Retail Sales (YoY) (May)";"China";"CNY";"2004-06-01T09:00:00";"GMT";"13.20%";"";"17.80%";"Low"
"Trade Balance (USD) (May)";"China";"CNY";"2004-06-01T09:00:00";"GMT";"-2.42B";"";"1.86B";"Moderate"
