{"events": {"event": [
    {
      "eventDateTime": "2018-01-25T10:00:00",
      "eventActual": "88.8",
      "eventCountry": "Brazil",
      "eventExpectedVolatility": "Low",
      "eventName": "FGV Consumer confidence (Jan)",
      "eventTimeZone": "GMT",
      "eventPrevious": "88.4",
      "eventCurrency": "BRL",
      "eventForecast": ""
    },
    {
      "eventDateTime": "2018-01-25T11:00:00",
      "eventActual": "",
      "eventCountry": "Brazil",
      "eventExpectedVolatility": "Moderate",
      "eventName": "BCB National Monetary Council Meeting",
      "eventTimeZone": "GMT",
      "eventPrevious": "",
      "eventCurrency": "BRL",
      "eventForecast": ""
    }
  ]}}
