"FOMC Member Mester Speaks";"United States";"USD";"2016-07-12T01:30:00";"GMT";" ";"";"";"Moderate"
"NFIB Small Business Optimism (Jun)";"United States";"USD";"2016-07-12T10:00:00";"GMT";"93.8";"94.1";"94.5";"Low"
"OPEC Monthly Report";"United States";"USD";"2016-07-12T11:10:00";"GMT";" ";"";"";"Moderate"
"Redbook (MoM)";"United States";"USD";"2016-07-12T12:55:00";"GMT";"-0.9%";"";"-0.3%";"Low"
"Redbook (YoY)";"United States";"USD";"2016-07-12T12:55:00";"GMT";"0.6%";"";"0.8%";"Low"
"FOMC Member Tarullo Speaks";"United States";"USD";"2016-07-12T13:15:00";"GMT";" ";"";"";"Moderate"
"FOMC Member Bullard Speaks";"United States";"USD";"2016-07-12T13:35:00";"GMT";" ";"";"";"Moderate"
"JOLTs Job Openings (May)";"United States";"USD";"2016-07-12T14:00:00";"GMT";"5.845M";"5.700M";"5.500M";"High"
"Wholesale Inventories (MoM) (May)";"United States";"USD";"2016-07-12T14:00:00";"GMT";"0.7%";"0.2%";"0.1%";"Low"
"4-Week Bill Auction";"United States";"USD";"2016-07-12T15:30:00";"GMT";"0.275%";"";"0.290%";"Low"
"10-Year Note Auction";"United States";"USD";"2016-07-12T17:00:00";"GMT";"1.702%";"";"1.516%";"Moderate"
"API Weekly Crude Oil Stock";"United States";"USD";"2016-07-12T20:35:00";"GMT";"-6.730M";"";"2.200M";"Moderate"
"FOMC Member Kashkari Speaks";"United States";"USD";"2016-07-12T21:30:00";"GMT";" ";"";"";"Moderate"
