{"events": {"event": [
    {
      "eventDateTime": "2013-05-30T06:00:00",
      "eventActual": "0.4%",
      "eventCountry": "United Kingdom",
      "eventExpectedVolatility": "Moderate",
      "eventName": "Nationwide HPI (MoM)",
      "eventTimeZone": "GMT",
      "eventPrevious": "-0.1%",
      "eventCurrency": "GBP",
      "eventForecast": "0.4%"
    },
    {
      "eventDateTime": "2013-05-30T06:00:00",
      "eventActual": "1.1%",
      "eventCountry": "United Kingdom",
      "eventExpectedVolatility": "Moderate",
      "eventName": "Nationwide HPI (YoY)",
      "eventTimeZone": "GMT",
      "eventPrevious": "0.9%",
      "eventCurrency": "GBP",
      "eventForecast": "0.9%"
    },
    {
      "eventDateTime": "2013-05-30T23:05:00",
      "eventActual": "-22",
      "eventCountry": "United Kingdom",
      "eventExpectedVolatility": "Low",
      "eventName": "GfK Consumer Confidence",
      "eventTimeZone": "GMT",
      "eventPrevious": "-27",
      "eventCurrency": "GBP",
      "eventForecast": "-26"
    }
  ]}}
