{"events": {"event": [
    {
      "eventDateTime": "2002-02-01T09:00:00",
      "eventActual": "-3.40%",
      "eventCountry": "Hong Kong",
      "eventExpectedVolatility": "Low",
      "eventName": "CPI (YoY) (Jan)",
      "eventTimeZone": "GMT",
      "eventPrevious": "-3.50%",
      "eventCurrency": "HKD",
      "eventForecast": ""
    },
    {
      "eventDateTime": "2002-02-01T09:00:00",
      "eventActual": "-12.20%",
      "eventCountry": "Hong Kong",
      "eventExpectedVolatility": "Low",
      "eventName": "Exports (MoM) (Jan)",
      "eventTimeZone": "GMT",
      "eventPrevious": "-10.30%",
      "eventCurrency": "HKD",
      "eventForecast": ""
    },
    {
      "eventDateTime": "2002-02-01T09:00:00",
      "eventActual": "111.28B",
      "eventCountry": "Hong Kong",
      "eventExpectedVolatility": "Low",
      "eventName": "Foreign Reserves (USD) (Jan)",
      "eventTimeZone": "GMT",
      "eventPrevious": "111.17B",
      "eventCurrency": "HKD",
      "eventForecast": ""
    },
    {
      "eventDateTime": "2002-02-01T09:00:00",
      "eventActual": "-8.60%",
      "eventCountry": "Hong Kong",
      "eventExpectedVolatility": "Low",
      "eventName": "Imports (MoM) (Jan)",
      "eventTimeZone": "GMT",
      "eventPrevious": "-13.50%",
      "eventCurrency": "HKD",
      "eventForecast": ""
    },
    {
      "eventDateTime": "2002-02-01T09:00:00",
      "eventActual": "-1.49%",
      "eventCountry": "Hong Kong",
      "eventExpectedVolatility": "Low",
      "eventName": "M3 Money Supply (Jan)",
      "eventTimeZone": "GMT",
      "eventPrevious": "0.80%",
      "eventCurrency": "HKD",
      "eventForecast": ""
    },
    {
      "eventDateTime": "2002-02-01T09:00:00",
      "eventActual": "-11.80%",
      "eventCountry": "Hong Kong",
      "eventExpectedVolatility": "Low",
      "eventName": "Retail Sales (YoY) (Jan)",
      "eventTimeZone": "GMT",
      "eventPrevious": "-5.40%",
      "eventCurrency": "HKD",
      "eventForecast": ""
    },
    {
      "eventDateTime": "2002-02-01T09:00:00",
      "eventActual": "6.70%",
      "eventCountry": "Hong Kong",
      "eventExpectedVolatility": "Low",
      "eventName": "Unemployment Rate (Jan)",
      "eventTimeZone": "GMT",
      "eventPrevious": "6.30%",
      "eventCurrency": "HKD",
      "eventForecast": ""
    }
  ]}}
