{"events": {"event": [
    {
      "eventDateTime": "2014-03-14T07:00:00",
      "eventActual": "0.5%",
      "eventCountry": "Germany",
      "eventExpectedVolatility": "Moderate",
      "eventName": "German CPI (MoM)",
      "eventTimeZone": "GMT",
      "eventPrevious": "0.5%",
      "eventCurrency": "EUR",
      "eventForecast": "0.5%"
    },
    {
      "eventDateTime": "2014-03-14T07:00:00",
      "eventActual": "1.2%",
      "eventCountry": "Germany",
      "eventExpectedVolatility": "Low",
      "eventName": "German CPI (YoY)",
      "eventTimeZone": "GMT",
      "eventPrevious": "1.2%",
      "eventCurrency": "EUR",
      "eventForecast": "1.2%"
    },
    {
      "eventDateTime": "2014-03-14T08:00:00",
      "eventActual": "-2.80B",
      "eventCountry": "Spain",
      "eventExpectedVolatility": "Low",
      "eventName": "Spanish Trade Balance",
      "eventTimeZone": "GMT",
      "eventPrevious": "-1.83B",
      "eventCurrency": "EUR",
      "eventForecast": "-2.00B"
    },
    {
      "eventDateTime": "2014-03-14T10:00:00",
      "eventActual": "0.1%",
      "eventCountry": "Euro Zone",
      "eventExpectedVolatility": "Low",
      "eventName": "Employment Change (QoQ)",
      "eventTimeZone": "GMT",
      "eventPrevious": "0.0%",
      "eventCurrency": "EUR",
      "eventForecast": "0.0%"
    },
    {
      "eventDateTime": "2014-03-14T10:00:00",
      "eventActual": "-0.5%",
      "eventCountry": "Euro Zone",
      "eventExpectedVolatility": "Low",
      "eventName": "Employment Change (YoY)",
      "eventTimeZone": "GMT",
      "eventPrevious": "-0.8%",
      "eventCurrency": "EUR",
      "eventForecast": ""
    },
    {
      "eventDateTime": "2014-03-14T19:30:00",
      "eventActual": "36.4K",
      "eventCountry": "Euro Zone",
      "eventExpectedVolatility": "Moderate",
      "eventName": "CFTC EUR speculative net positions",
      "eventTimeZone": "GMT",
      "eventPrevious": "23.5K",
      "eventCurrency": "EUR",
      "eventForecast": ""
    }
  ]}}
