{"events": {"event": [
    {
      "eventDateTime": "2009-04-20T13:00:00",
      "eventActual": "",
      "eventCountry": "United States",
      "eventExpectedVolatility": "Low",
      "eventName": "Chicago Fed President Evans Speaks",
      "eventTimeZone": "GMT",
      "eventPrevious": "",
      "eventCurrency": "USD",
      "eventForecast": ""
    },
    {
      "eventDateTime": "2009-04-20T23:30:00",
      "eventActual": "",
      "eventCountry": "United States",
      "eventExpectedVolatility": "Moderate",
      "eventName": "Fed Governor Kohn Speaks",
      "eventTimeZone": "GMT",
      "eventPrevious": "",
      "eventCurrency": "USD",
      "eventForecast": ""
    }
  ]}}
