"Credit Card Spending (YoY)";"New Zealand";"NZD";"2014-04-23T03:00:00";"GMT";"6.0%";"";"8.1%";"Low"
"RBNZ Interest Rate Decision";"New Zealand";"NZD";"2014-04-23T21:00:00";"GMT";"2.75%";"3.00%";"3.00%";"High"
"RBNZ Rate Statement";"New Zealand";"NZD";"2014-04-23T21:00:00";"GMT";" ";"";"";"High"
