{"events": {"event": [
    {
      "eventDateTime": "2012-07-27T06:45:00",
      "eventActual": "87",
      "eventCountry": "France",
      "eventExpectedVolatility": "Low",
      "eventName": "French Consumer Confidence",
      "eventTimeZone": "GMT",
      "eventPrevious": "89",
      "eventCurrency": "EUR",
      "eventForecast": "90"
    },
    {
      "eventDateTime": "2012-07-27T07:00:00",
      "eventActual": "24.63%",
      "eventCountry": "Spain",
      "eventExpectedVolatility": "Low",
      "eventName": "Spanish Unemployment Rate",
      "eventTimeZone": "GMT",
      "eventPrevious": "24.40%",
      "eventCurrency": "EUR",
      "eventForecast": "24.85%"
    },
    {
      "eventDateTime": "2012-07-27T08:00:00",
      "eventActual": "87.1",
      "eventCountry": "Italy",
      "eventExpectedVolatility": "Low",
      "eventName": "Italian Business Confidence",
      "eventTimeZone": "GMT",
      "eventPrevious": "88.7",
      "eventCurrency": "EUR",
      "eventForecast": "88.4"
    },
    {
      "eventDateTime": "2012-07-27T12:00:00",
      "eventActual": "0.4%",
      "eventCountry": "Germany",
      "eventExpectedVolatility": "Moderate",
      "eventName": "German CPI (MoM)",
      "eventTimeZone": "GMT",
      "eventPrevious": "-0.1%",
      "eventCurrency": "EUR",
      "eventForecast": "0.4%"
    },
    {
      "eventDateTime": "2012-07-27T12:00:00",
      "eventActual": "1.7%",
      "eventCountry": "Germany",
      "eventExpectedVolatility": "Low",
      "eventName": "German CPI (YoY)",
      "eventTimeZone": "GMT",
      "eventPrevious": "1.7%",
      "eventCurrency": "EUR",
      "eventForecast": "1.7%"
    },
    {
      "eventDateTime": "2012-07-27T19:30:00",
      "eventActual": "-155.1K",
      "eventCountry": "Euro Zone",
      "eventExpectedVolatility": "Moderate",
      "eventName": "CFTC EUR speculative net positions",
      "eventTimeZone": "GMT",
      "eventPrevious": "-167.2K",
      "eventCurrency": "EUR",
      "eventForecast": ""
    }
  ]}}
