"French Unemployment Rate (Q1)";"France";"EUR";"2019-05-16T06:45:00";"GMT";"8.8%";"";"8.7%";"Low"
"ECB's Praet Speaks";"Euro Zone";"EUR";"2019-05-16T07:30:00";"GMT";" ";"";"";"Moderate"
"Italian CPI (MoM) (Apr)";"Italy";"EUR";"2019-05-16T08:00:00";"GMT";"0.2%";"0.2%";"0.2%";"Moderate"
"Italian CPI (YoY) (Apr)";"Italy";"EUR";"2019-05-16T08:00:00";"GMT";"1.1%";"1.1%";"1.1%";"Low"
"Italian HICP (MoM) (Apr)";"Italy";"EUR";"2019-05-16T08:00:00";"GMT";"0.6%";"0.6%";"0.5%";"Low"
"Italian HICP (YoY) (Apr)";"Italy";"EUR";"2019-05-16T08:00:00";"GMT";"1.2%";"1.2%";"1.1%";"Low"
"German Buba President Weidmann Speaks";"Germany";"EUR";"2019-05-16T08:15:00";"GMT";" ";"";"";"Moderate"
"Sentix Investor Confidence (May)";"Euro Zone";"EUR";"2019-05-16T08:30:00";"GMT";"-0.3";"1.4";"22.5";"Low"
"French 3-Year BTAN Auction";"France";"EUR";"2019-05-16T09:00:00";"GMT";"-0.43%";"";"-0.52%";"Low"
"French 5-Year BTAN Auction";"France";"EUR";"2019-05-16T09:00:00";"GMT";"-0.17%";"";"-0.19%";"Low"
"Italian Trade Balance (Mar)";"Italy";"EUR";"2019-05-16T09:00:00";"GMT";"3.238B";"4.240B";"4.625B";"Low"
"Italian Trade Balance EU (Mar)";"Italy";"EUR";"2019-05-16T09:00:00";"GMT";"1.08B";"";"1.22B";"Low"
"Trade Balance (Mar)";"Euro Zone";"EUR";"2019-05-16T09:00:00";"GMT";"17.9B";"19.9B";"22.5B";"Moderate"
"Eurogroup Meetings";"Euro Zone";"EUR";"2019-05-16T10:00:00";"GMT";" ";"";"";"Moderate"
"ECB's De Guindos Speaks";"Euro Zone";"EUR";"2019-05-16T12:30:00";"GMT";" ";"";"";"Moderate"
"ECB's Coeure Speaks";"Euro Zone";"EUR";"2019-05-16T18:00:00";"GMT";" ";"";"";"Moderate"
