{"events": {"event": [
    {
      "eventDateTime": "2017-08-24T05:00:00",
      "eventActual": "105.9",
      "eventCountry": "Japan",
      "eventExpectedVolatility": "Low",
      "eventName": "Leading Index",
      "eventTimeZone": "GMT",
      "eventPrevious": "106.3",
      "eventCurrency": "JPY",
      "eventForecast": "106.3"
    },
    {
      "eventDateTime": "2017-08-24T23:30:00",
      "eventActual": "0.4%",
      "eventCountry": "Japan",
      "eventExpectedVolatility": "Low",
      "eventName": "National CPI (YoY) (Jul)",
      "eventTimeZone": "GMT",
      "eventPrevious": "0.4%",
      "eventCurrency": "JPY",
      "eventForecast": "0.4%"
    },
    {
      "eventDateTime": "2017-08-24T23:30:00",
      "eventActual": "0.5%",
      "eventCountry": "Japan",
      "eventExpectedVolatility": "Moderate",
      "eventName": "National Core CPI (YoY) (Jul)",
      "eventTimeZone": "GMT",
      "eventPrevious": "0.4%",
      "eventCurrency": "JPY",
      "eventForecast": "0.5%"
    },
    {
      "eventDateTime": "2017-08-24T23:30:00",
      "eventActual": "0.5%",
      "eventCountry": "Japan",
      "eventExpectedVolatility": "Low",
      "eventName": "Tokyo CPI (YoY) (Aug)",
      "eventTimeZone": "GMT",
      "eventPrevious": "0.1%",
      "eventCurrency": "JPY",
      "eventForecast": "0.3%"
    },
    {
      "eventDateTime": "2017-08-24T23:30:00",
      "eventActual": "0.4%",
      "eventCountry": "Japan",
      "eventExpectedVolatility": "Moderate",
      "eventName": "Tokyo Core CPI (YoY) (Aug)",
      "eventTimeZone": "GMT",
      "eventPrevious": "0.2%",
      "eventCurrency": "JPY",
      "eventForecast": "0.3%"
    },
    {
      "eventDateTime": "2017-08-24T23:50:00",
      "eventActual": "0.6%",
      "eventCountry": "Japan",
      "eventExpectedVolatility": "Low",
      "eventName": "Corporate Services Price Index (CSPI) (YoY)",
      "eventTimeZone": "GMT",
      "eventPrevious": "0.7%",
      "eventCurrency": "JPY",
      "eventForecast": "0.8%"
    }
  ]}}
