"Construction Orders (YoY) (May)";"Japan";"JPY";"2019-06-28T05:00:00";"GMT";"-19.9%";"";"-16.9%";"Low"
"Housing Starts (YoY) (May)";"Japan";"JPY";"2019-06-28T05:00:00";"GMT";"-5.7%";"-4.3%";"-8.7%";"Low"
"CFTC JPY speculative net positions";"Japan";"JPY";"2019-06-28T19:30:00";"GMT";"-16.6K";"";"-10.1K";"Moderate"
