{"events": {"event": {
    "eventDateTime": "2013-06-13T09:35:00",
    "eventActual": "3.004%",
    "eventCountry": "United Kingdom",
    "eventExpectedVolatility": "Low",
    "eventName": "20-Year Treasury Gilt Auction",
    "eventTimeZone": "GMT",
    "eventPrevious": "2.661%",
    "eventCurrency": "GBP",
    "eventForecast": ""
  }}}
