{"events": {"event": [
    {
      "eventDateTime": "2001-05-01T09:00:00",
      "eventActual": "158.00B",
      "eventCountry": "Singapore",
      "eventExpectedVolatility": "Low",
      "eventName": "Bank Lending (Apr)",
      "eventTimeZone": "GMT",
      "eventPrevious": "157.00B",
      "eventCurrency": "SGD",
      "eventForecast": ""
    },
    {
      "eventDateTime": "2001-05-01T09:00:00",
      "eventActual": "1.98%",
      "eventCountry": "Singapore",
      "eventExpectedVolatility": "Moderate",
      "eventName": "CPI (YoY) (Apr)",
      "eventTimeZone": "GMT",
      "eventPrevious": "1.85%",
      "eventCurrency": "SGD",
      "eventForecast": ""
    },
    {
      "eventDateTime": "2001-05-01T09:00:00",
      "eventActual": "76.80B",
      "eventCountry": "Singapore",
      "eventExpectedVolatility": "Low",
      "eventName": "Foreign Reserves USD (MoM) (Apr)",
      "eventTimeZone": "GMT",
      "eventPrevious": "77.50B",
      "eventCurrency": "SGD",
      "eventForecast": ""
    },
    {
      "eventDateTime": "2001-05-01T09:00:00",
      "eventActual": "-5.50%",
      "eventCountry": "Singapore",
      "eventExpectedVolatility": "Low",
      "eventName": "Industrial Production (MoM) (Apr)",
      "eventTimeZone": "GMT",
      "eventPrevious": "1.20%",
      "eventCurrency": "SGD",
      "eventForecast": ""
    },
    {
      "eventDateTime": "2001-05-01T09:00:00",
      "eventActual": "1.00%",
      "eventCountry": "Singapore",
      "eventExpectedVolatility": "Low",
      "eventName": "Industrial Production (YoY) (Apr)",
      "eventTimeZone": "GMT",
      "eventPrevious": "6.90%",
      "eventCurrency": "SGD",
      "eventForecast": ""
    },
    {
      "eventDateTime": "2001-05-01T09:00:00",
      "eventActual": "46.20",
      "eventCountry": "Singapore",
      "eventExpectedVolatility": "Low",
      "eventName": "Manufacturing PMI (Apr)",
      "eventTimeZone": "GMT",
      "eventPrevious": "47.40",
      "eventCurrency": "SGD",
      "eventForecast": ""
    },
    {
      "eventDateTime": "2001-05-01T09:00:00",
      "eventActual": "-1.40%",
      "eventCountry": "Singapore",
      "eventExpectedVolatility": "Low",
      "eventName": "Non-Oil Exports (YoY) (Apr)",
      "eventTimeZone": "GMT",
      "eventPrevious": "-2.20%",
      "eventCurrency": "SGD",
      "eventForecast": ""
    },
    {
      "eventDateTime": "2001-05-01T09:00:00",
      "eventActual": "-5.40%",
      "eventCountry": "Singapore",
      "eventExpectedVolatility": "Low",
      "eventName": "Retail Sales (MoM) (Apr)",
      "eventTimeZone": "GMT",
      "eventPrevious": "2.20%",
      "eventCurrency": "SGD",
      "eventForecast": ""
    },
    {
      "eventDateTime": "2001-05-01T09:00:00",
      "eventActual": "6.30%",
      "eventCountry": "Singapore",
      "eventExpectedVolatility": "Low",
      "eventName": "Retail Sales (YoY) (Apr)",
      "eventTimeZone": "GMT",
      "eventPrevious": "21.40%",
      "eventCurrency": "SGD",
      "eventForecast": ""
    }
  ]}}
