"NY Empire State Manufacturing Index";"United States";"USD";"2009-06-15T12:30:00";"GMT";"-4.6";"-4.9";"-9.4";"Moderate"
"TIC Net Long-Term Transactions";"United States";"USD";"2009-06-15T13:00:00";"GMT";"55.4B";"53.1B";"11.2B";"Moderate"
"NAHB Housing Market Index";"United States";"USD";"2009-06-15T17:00:00";"GMT";"16";"17";"15";"Low"
