{"events": {"event": [
    {
      "eventDateTime": "2010-08-10T08:30:00",
      "eventActual": "9.9%",
      "eventCountry": "United Kingdom",
      "eventExpectedVolatility": "Low",
      "eventName": "House Price Index (YoY)",
      "eventTimeZone": "GMT",
      "eventPrevious": "10.6%",
      "eventCurrency": "GBP",
      "eventForecast": "11.9%"
    },
    {
      "eventDateTime": "2010-08-10T08:30:00",
      "eventActual": "-7.4B",
      "eventCountry": "United Kingdom",
      "eventExpectedVolatility": "Moderate",
      "eventName": "Trade Balance",
      "eventTimeZone": "GMT",
      "eventPrevious": "-8.0B",
      "eventCurrency": "GBP",
      "eventForecast": "-7.7B"
    },
    {
      "eventDateTime": "2010-08-10T09:30:00",
      "eventActual": "0.90%",
      "eventCountry": "United Kingdom",
      "eventExpectedVolatility": "Low",
      "eventName": "Construction Output (MoM) (Jun)",
      "eventTimeZone": "GMT",
      "eventPrevious": "2.30%",
      "eventCurrency": "GBP",
      "eventForecast": ""
    },
    {
      "eventDateTime": "2010-08-10T23:01:00",
      "eventActual": "56",
      "eventCountry": "United Kingdom",
      "eventExpectedVolatility": "Moderate",
      "eventName": "Nationwide Consumer Confidence",
      "eventTimeZone": "GMT",
      "eventPrevious": "63",
      "eventCurrency": "GBP",
      "eventForecast": "60"
    }
  ]}}
