{"events": {"event": {
    "eventDateTime": "2018-05-04T01:45:00",
    "eventActual": "52.9",
    "eventCountry": "China",
    "eventExpectedVolatility": "Moderate",
    "eventName": "Caixin Services PMI (Apr)",
    "eventTimeZone": "GMT",
    "eventPrevious": "52.3",
    "eventCurrency": "CNY",
    "eventForecast": "52.2"
  }}}
