"Home Loans (MoM)";"Australia";"AUD";"2014-08-08T01:30:00";"GMT";"0.0%";"0.5%";"0.2%";"Moderate"
"RBA Monetary Policy Statement";"Australia";"AUD";"2014-08-08T01:30:00";"GMT";" ";"";"";"Moderate"
"CFTC AUD speculative net positions";"Australia";"AUD";"2014-08-08T19:30:00";"GMT";"39.6K";"";"33.3K";"Moderate"
