"CPI (MoM)";"Canada";"CAD";"2008-11-21T12:00:00";"GMT";"0.1%";"-0.6%";"-1.0%";"Moderate"
"Core CPI (MoM)";"Canada";"CAD";"2008-11-21T12:00:00";"GMT";"0.4%";"0.0%";"-0.2%";"High"
"CFTC CAD speculative net positions";"Canada";"CAD";"2008-11-21T20:30:00";"GMT";"-3.2K";"";"-7.2K";"Low"
