"CPI (MoM)";"United Kingdom";"GBP";"2014-04-15T08:30:00";"GMT";"0.5%";"0.2%";"0.2%";"Moderate"
"CPI (YoY)";"United Kingdom";"GBP";"2014-04-15T08:30:00";"GMT";"1.7%";"1.6%";"1.6%";"High"
"Core PPI Output (MoM)";"United Kingdom";"GBP";"2014-04-15T08:30:00";"GMT";"0.2%";"0.1%";"0.1%";"Low"
"Core PPI Output (YoY)";"United Kingdom";"GBP";"2014-04-15T08:30:00";"GMT";"1.1%";"0.9%";"1.0%";"Low"
"Core RPI (MoM)";"United Kingdom";"GBP";"2014-04-15T08:30:00";"GMT";"0.7%";"0.3%";"0.3%";"Low"
"Core RPI (YoY)";"United Kingdom";"GBP";"2014-04-15T08:30:00";"GMT";"2.7%";"2.5%";"2.5%";"Low"
"House Price Index (YoY)";"United Kingdom";"GBP";"2014-04-15T08:30:00";"GMT";"6.8%";"7.2%";"9.1%";"Low"
"PPI Input (MoM)";"United Kingdom";"GBP";"2014-04-15T08:30:00";"GMT";"-0.5%";"-0.2%";"-0.6%";"Moderate"
"PPI Input (YoY)";"United Kingdom";"GBP";"2014-04-15T08:30:00";"GMT";"-5.8%";"-6.1%";"-6.5%";"Low"
"PPI Output (MoM)";"United Kingdom";"GBP";"2014-04-15T08:30:00";"GMT";"0.1%";"0.1%";"0.2%";"Low"
"PPI Output (YoY)";"United Kingdom";"GBP";"2014-04-15T08:30:00";"GMT";"0.6%";"0.3%";"0.5%";"Low"
"RPI (MoM)";"United Kingdom";"GBP";"2014-04-15T08:30:00";"GMT";"0.6%";"0.3%";"0.2%";"Low"
"RPI (YoY)";"United Kingdom";"GBP";"2014-04-15T08:30:00";"GMT";"2.7%";"2.5%";"2.5%";"Low"
"Core CPI (YoY)";"United Kingdom";"GBP";"2014-04-15T09:30:00";"GMT";"1.7%";"1.6%";"1.6%";"Low"
