"Redbook (MoM)";"United States";"USD";"2015-09-01T12:55:00";"GMT";"0.3%";"";"0.2%";"Low"
"Redbook (YoY)";"United States";"USD";"2015-09-01T12:55:00";"GMT";"1.7%";"";"1.3%";"Low"
"Manufacturing PMI (Aug)";"United States";"USD";"2015-09-01T13:45:00";"GMT";"52.9";"52.9";"53.0";"Moderate"
"Construction Spending (MoM) (Jul)";"United States";"USD";"2015-09-01T14:00:00";"GMT";"0.7%";"0.6%";"0.7%";"Low"
"IBD/TIPP Economic Optimism";"United States";"USD";"2015-09-01T14:00:00";"GMT";"46.9";"47.3";"42.0";"Low"
"ISM Manufacturing Employment (Aug)";"United States";"USD";"2015-09-01T14:00:00";"GMT";"52.7";"55.0";"51.2";"Moderate"
"ISM Manufacturing New Orders Index (Aug)";"United States";"USD";"2015-09-01T14:00:00";"GMT";"56.5";"";"51.7";"Low"
"ISM Manufacturing PMI (Aug)";"United States";"USD";"2015-09-01T14:00:00";"GMT";"52.7";"52.6";"51.1";"High"
"ISM Manufacturing Prices (Aug)";"United States";"USD";"2015-09-01T14:00:00";"GMT";"44.0";"42.5";"39.0";"Low"
"Dallas Fed Services Revenues (Aug)";"United States";"USD";"2015-09-01T14:30:00";"GMT";"19.1";"";"9.3";"Low"
"Texas Services Sector Outlook (Aug)";"United States";"USD";"2015-09-01T14:30:00";"GMT";"7.9";"";"2.1";"Low"
"4-Week Bill Auction";"United States";"USD";"2015-09-01T15:30:00";"GMT";"0.045%";"";"0.000%";"Low"
"FOMC Member Rosengren Speaks";"United States";"USD";"2015-09-01T17:10:00";"GMT";" ";"";"";"Moderate"
"All Truck Sales (Aug)";"United States";"USD";"2015-09-01T17:30:00";"GMT";"9.85M";"";"10.08M";"Low"
"Domestic Truck Sales (Aug)";"United States";"USD";"2015-09-01T17:30:00";"GMT";"8.07M";"8.05M";"8.54M";"Low"
"All Car Sales";"United States";"USD";"2015-09-01T20:00:00";"GMT";"7.80M";"";"7.73M";"Low"
"Domestic Car Sales";"United States";"USD";"2015-09-01T20:00:00";"GMT";"5.81M";"";"5.60M";"Low"
"Total Vehicle Sales";"United States";"USD";"2015-09-01T20:00:00";"GMT";"17.55M";"17.30M";"17.81M";"Low"
"API Weekly Crude Oil Stock";"United States";"USD";"2015-09-01T20:35:00";"GMT";"-7.300M";"-0.800M";"7.600M";"Moderate"
