{"events": {"event": [
    {
      "eventDateTime": "2011-04-27T08:30:00",
      "eventActual": "0.5%",
      "eventCountry": "United Kingdom",
      "eventExpectedVolatility": "High",
      "eventName": "GDP (QoQ)",
      "eventTimeZone": "GMT",
      "eventPrevious": "-0.5%",
      "eventCurrency": "GBP",
      "eventForecast": "0.5%"
    },
    {
      "eventDateTime": "2011-04-27T08:30:00",
      "eventActual": "31.7K",
      "eventCountry": "United Kingdom",
      "eventExpectedVolatility": "Moderate",
      "eventName": "Gross Mortgage Approvals",
      "eventTimeZone": "GMT",
      "eventPrevious": "30.2K",
      "eventCurrency": "GBP",
      "eventForecast": "30.6K"
    },
    {
      "eventDateTime": "2011-04-27T08:30:00",
      "eventActual": "-0.3%",
      "eventCountry": "United Kingdom",
      "eventExpectedVolatility": "Low",
      "eventName": "Index of Services",
      "eventTimeZone": "GMT",
      "eventPrevious": "-0.6%",
      "eventCurrency": "GBP",
      "eventForecast": "-0.3%"
    },
    {
      "eventDateTime": "2011-04-27T23:01:00",
      "eventActual": "-31",
      "eventCountry": "United Kingdom",
      "eventExpectedVolatility": "Low",
      "eventName": "GfK Consumer Confidence",
      "eventTimeZone": "GMT",
      "eventPrevious": "-28",
      "eventCurrency": "GBP",
      "eventForecast": "-27"
    }
  ]}}
