{"events": {"event": [
    {
      "eventDateTime": "2001-12-01T09:00:00",
      "eventActual": "-1.50%",
      "eventCountry": "Hong Kong",
      "eventExpectedVolatility": "Low",
      "eventName": "CPI (YoY) (Nov)",
      "eventTimeZone": "GMT",
      "eventPrevious": "-1.20%",
      "eventCurrency": "HKD",
      "eventForecast": ""
    },
    {
      "eventDateTime": "2001-12-01T09:00:00",
      "eventActual": "-11.40%",
      "eventCountry": "Hong Kong",
      "eventExpectedVolatility": "Low",
      "eventName": "Exports (MoM) (Nov)",
      "eventTimeZone": "GMT",
      "eventPrevious": "-13.80%",
      "eventCurrency": "HKD",
      "eventForecast": ""
    },
    {
      "eventDateTime": "2001-12-01T09:00:00",
      "eventActual": "112.28B",
      "eventCountry": "Hong Kong",
      "eventExpectedVolatility": "Low",
      "eventName": "Foreign Reserves (USD) (Nov)",
      "eventTimeZone": "GMT",
      "eventPrevious": "113.10B",
      "eventCurrency": "HKD",
      "eventForecast": ""
    },
    {
      "eventDateTime": "2001-12-01T09:00:00",
      "eventActual": "-11.50%",
      "eventCountry": "Hong Kong",
      "eventExpectedVolatility": "Low",
      "eventName": "Imports (MoM) (Nov)",
      "eventTimeZone": "GMT",
      "eventPrevious": "-14.90%",
      "eventCurrency": "HKD",
      "eventForecast": ""
    },
    {
      "eventDateTime": "2001-12-01T09:00:00",
      "eventActual": "1.51%",
      "eventCountry": "Hong Kong",
      "eventExpectedVolatility": "Low",
      "eventName": "M3 Money Supply (Nov)",
      "eventTimeZone": "GMT",
      "eventPrevious": "2.31%",
      "eventCurrency": "HKD",
      "eventForecast": ""
    },
    {
      "eventDateTime": "2001-12-01T09:00:00",
      "eventActual": "-4.10%",
      "eventCountry": "Hong Kong",
      "eventExpectedVolatility": "Low",
      "eventName": "Retail Sales (YoY) (Nov)",
      "eventTimeZone": "GMT",
      "eventPrevious": "-6.20%",
      "eventCurrency": "HKD",
      "eventForecast": ""
    },
    {
      "eventDateTime": "2001-12-01T09:00:00",
      "eventActual": "6.00%",
      "eventCountry": "Hong Kong",
      "eventExpectedVolatility": "Low",
      "eventName": "Unemployment Rate (Nov)",
      "eventTimeZone": "GMT",
      "eventPrevious": "5.50%",
      "eventCurrency": "HKD",
      "eventForecast": ""
    }
  ]}}
