{"events": {"event": [
    {
      "eventDateTime": "2010-06-11T06:00:00",
      "eventActual": "0.3%",
      "eventCountry": "Germany",
      "eventExpectedVolatility": "Low",
      "eventName": "German WPI (MoM)",
      "eventTimeZone": "GMT",
      "eventPrevious": "1.7%",
      "eventCurrency": "EUR",
      "eventForecast": "1.3%"
    },
    {
      "eventDateTime": "2010-06-11T06:45:00",
      "eventActual": "0.1%",
      "eventCountry": "France",
      "eventExpectedVolatility": "Moderate",
      "eventName": "French CPI (MoM)",
      "eventTimeZone": "GMT",
      "eventPrevious": "0.3%",
      "eventCurrency": "EUR",
      "eventForecast": "0.2%"
    },
    {
      "eventDateTime": "2010-06-11T19:30:00",
      "eventActual": "-111.9K",
      "eventCountry": "Euro Zone",
      "eventExpectedVolatility": "Moderate",
      "eventName": "CFTC EUR speculative net positions",
      "eventTimeZone": "GMT",
      "eventPrevious": "-93.3K",
      "eventCurrency": "EUR",
      "eventForecast": ""
    }
  ]}}
