{"events": {"event": {
    "eventDateTime": "2010-09-10T19:30:00",
    "eventActual": "57.0K",
    "eventCountry": "Australia",
    "eventExpectedVolatility": "Moderate",
    "eventName": "CFTC AUD speculative net positions",
    "eventTimeZone": "GMT",
    "eventPrevious": "43.8K",
    "eventCurrency": "AUD",
    "eventForecast": ""
  }}}
