{"events": {"event": [
    {
      "eventDateTime": "2010-09-16T01:00:00",
      "eventActual": "3.1%",
      "eventCountry": "Australia",
      "eventExpectedVolatility": "Low",
      "eventName": "MI Inflation Expectations",
      "eventTimeZone": "GMT",
      "eventPrevious": "2.8%",
      "eventCurrency": "AUD",
      "eventForecast": ""
    },
    {
      "eventDateTime": "2010-09-16T01:30:00",
      "eventActual": "",
      "eventCountry": "Australia",
      "eventExpectedVolatility": "Low",
      "eventName": "RBA Bulletin",
      "eventTimeZone": "GMT",
      "eventPrevious": "",
      "eventCurrency": "AUD",
      "eventForecast": ""
    },
    {
      "eventDateTime": "2010-09-16T03:45:00",
      "eventActual": "",
      "eventCountry": "Australia",
      "eventExpectedVolatility": "Moderate",
      "eventName": "RBA Governor Lowe Speaks",
      "eventTimeZone": "GMT",
      "eventPrevious": "",
      "eventCurrency": "AUD",
      "eventForecast": ""
    }
  ]}}
