{"events": {"event": {
    "eventDateTime": "2014-07-31T12:30:00",
    "eventActual": "0.4%",
    "eventCountry": "Canada",
    "eventExpectedVolatility": "High",
    "eventName": "GDP (MoM)",
    "eventTimeZone": "GMT",
    "eventPrevious": "0.1%",
    "eventCurrency": "CAD",
    "eventForecast": "0.3%"
  }}}
