{"events": {"event": [
    {
      "eventDateTime": "2012-01-01T09:00:00",
      "eventActual": "2.00%",
      "eventCountry": "United States",
      "eventExpectedVolatility": "Moderate",
      "eventName": "10-Year Note Auction (Dec)",
      "eventTimeZone": "GMT",
      "eventPrevious": "2.00%",
      "eventCurrency": "USD",
      "eventForecast": ""
    },
    {
      "eventDateTime": "2012-01-01T09:00:00",
      "eventActual": "0.25%",
      "eventCountry": "United States",
      "eventExpectedVolatility": "Low",
      "eventName": "3-Year Note Auction (Dec)",
      "eventTimeZone": "GMT",
      "eventPrevious": "0.38%",
      "eventCurrency": "USD",
      "eventForecast": ""
    },
    {
      "eventDateTime": "2012-01-01T09:00:00",
      "eventActual": "3.13%",
      "eventCountry": "United States",
      "eventExpectedVolatility": "Low",
      "eventName": "30-Year Bond Auction (Dec)",
      "eventTimeZone": "GMT",
      "eventPrevious": "3.13%",
      "eventCurrency": "USD",
      "eventForecast": ""
    },
    {
      "eventDateTime": "2012-01-01T09:00:00",
      "eventActual": "0.13%",
      "eventCountry": "United States",
      "eventExpectedVolatility": "Low",
      "eventName": "5-Year TIPS Auction (Dec)",
      "eventTimeZone": "GMT",
      "eventPrevious": "0.13%",
      "eventCurrency": "USD",
      "eventForecast": ""
    },
    {
      "eventDateTime": "2012-01-01T09:00:00",
      "eventActual": "0.11%",
      "eventCountry": "United States",
      "eventExpectedVolatility": "Low",
      "eventName": "52-Week Bill Auction (Dec)",
      "eventTimeZone": "GMT",
      "eventPrevious": "0.10%",
      "eventCurrency": "USD",
      "eventForecast": ""
    },
    {
      "eventDateTime": "2012-01-01T09:00:00",
      "eventActual": "0.06%",
      "eventCountry": "United States",
      "eventExpectedVolatility": "Low",
      "eventName": "6-Month Bill Auction (Dec)",
      "eventTimeZone": "GMT",
      "eventPrevious": "0.07%",
      "eventCurrency": "USD",
      "eventForecast": ""
    },
    {
      "eventDateTime": "2012-01-01T09:00:00",
      "eventActual": "1.38%",
      "eventCountry": "United States",
      "eventExpectedVolatility": "Low",
      "eventName": "7-Year Note Auction (Dec)",
      "eventTimeZone": "GMT",
      "eventPrevious": "1.38%",
      "eventCurrency": "USD",
      "eventForecast": ""
    },
    {
      "eventDateTime": "2012-01-01T09:00:00",
      "eventActual": "6.31M",
      "eventCountry": "United States",
      "eventExpectedVolatility": "Low",
      "eventName": "All Car Sales (Dec)",
      "eventTimeZone": "GMT",
      "eventPrevious": "6.28M",
      "eventCurrency": "USD",
      "eventForecast": ""
    },
    {
      "eventDateTime": "2012-01-01T09:00:00",
      "eventActual": "7.19M",
      "eventCountry": "United States",
      "eventExpectedVolatility": "Low",
      "eventName": "All Truck Sales (Dec)",
      "eventTimeZone": "GMT",
      "eventPrevious": "6.98M",
      "eventCurrency": "USD",
      "eventForecast": ""
    },
    {
      "eventDateTime": "2012-01-01T09:00:00",
      "eventActual": "-0.10%",
      "eventCountry": "United States",
      "eventExpectedVolatility": "Moderate",
      "eventName": "Building Permits (MoM) (Dec)",
      "eventTimeZone": "GMT",
      "eventPrevious": "5.70%",
      "eventCurrency": "USD",
      "eventForecast": ""
    },
    {
      "eventDateTime": "2012-01-01T09:00:00",
      "eventActual": "109.30",
      "eventCountry": "United States",
      "eventExpectedVolatility": "Low",
      "eventName": "CB Employment Trends Index (Dec)",
      "eventTimeZone": "GMT",
      "eventPrevious": "108.10",
      "eventCurrency": "USD",
      "eventForecast": ""
    },
    {
      "eventDateTime": "2012-01-01T09:00:00",
      "eventActual": "3.00%",
      "eventCountry": "United States",
      "eventExpectedVolatility": "Low",
      "eventName": "CPI (YoY) (Dec)",
      "eventTimeZone": "GMT",
      "eventPrevious": "3.40%",
      "eventCurrency": "USD",
      "eventForecast": ""
    },
    {
      "eventDateTime": "2012-01-01T09:00:00",
      "eventActual": "225.67",
      "eventCountry": "United States",
      "eventExpectedVolatility": "Low",
      "eventName": "CPI Index, n.s.a. (Dec)",
      "eventTimeZone": "GMT",
      "eventPrevious": "226.23",
      "eventCurrency": "USD",
      "eventForecast": ""
    },
    {
      "eventDateTime": "2012-01-01T09:00:00",
      "eventActual": "3.50%",
      "eventCountry": "United States",
      "eventExpectedVolatility": "Low",
      "eventName": "Chain Store Sales (MoM) (Dec)",
      "eventTimeZone": "GMT",
      "eventPrevious": "2.80%",
      "eventCurrency": "USD",
      "eventForecast": ""
    },
    {
      "eventDateTime": "2012-01-01T09:00:00",
      "eventActual": "1.02%",
      "eventCountry": "United States",
      "eventExpectedVolatility": "Low",
      "eventName": "Chain Store Sales (WoW) (Dec)",
      "eventTimeZone": "GMT",
      "eventPrevious": "0.12%",
      "eventCurrency": "USD",
      "eventForecast": ""
    },
    {
      "eventDateTime": "2012-01-01T09:00:00",
      "eventActual": "4.28%",
      "eventCountry": "United States",
      "eventExpectedVolatility": "Low",
      "eventName": "Chain Store Sales (YoY) (Dec)",
      "eventTimeZone": "GMT",
      "eventPrevious": "3.26%",
      "eventCurrency": "USD",
      "eventForecast": ""
    },
    {
      "eventDateTime": "2012-01-01T09:00:00",
      "eventActual": "41.79K",
      "eventCountry": "United States",
      "eventExpectedVolatility": "Low",
      "eventName": "Challenger Job Cuts (Dec)",
      "eventTimeZone": "GMT",
      "eventPrevious": "42.47K",
      "eventCurrency": "USD",
      "eventForecast": ""
    },
    {
      "eventDateTime": "2012-01-01T09:00:00",
      "eventActual": "0.20%",
      "eventCountry": "United States",
      "eventExpectedVolatility": "Low",
      "eventName": "Cleveland CPI (MoM) (Dec)",
      "eventTimeZone": "GMT",
      "eventPrevious": "0.20%",
      "eventCurrency": "USD",
      "eventForecast": ""
    },
    {
      "eventDateTime": "2012-01-01T09:00:00",
      "eventActual": "2.20%",
      "eventCountry": "United States",
      "eventExpectedVolatility": "Moderate",
      "eventName": "Core CPI (YoY) (Dec)",
      "eventTimeZone": "GMT",
      "eventPrevious": "2.20%",
      "eventCurrency": "USD",
      "eventForecast": ""
    },
    {
      "eventDateTime": "2012-01-01T09:00:00",
      "eventActual": "227.33",
      "eventCountry": "United States",
      "eventExpectedVolatility": "Low",
      "eventName": "Core CPI Index (Dec)",
      "eventTimeZone": "GMT",
      "eventPrevious": "226.94",
      "eventCurrency": "USD",
      "eventForecast": ""
    },
    {
      "eventDateTime": "2012-01-01T09:00:00",
      "eventActual": "2.00%",
      "eventCountry": "United States",
      "eventExpectedVolatility": "Moderate",
      "eventName": "Core PCE Price Index (YoY) (Dec)",
      "eventTimeZone": "GMT",
      "eventPrevious": "1.80%",
      "eventCurrency": "USD",
      "eventForecast": ""
    },
    {
      "eventDateTime": "2012-01-01T09:00:00",
      "eventActual": "2.60%",
      "eventCountry": "United States",
      "eventExpectedVolatility": "Low",
      "eventName": "Core PPI (YoY) (Dec)",
      "eventTimeZone": "GMT",
      "eventPrevious": "2.70%",
      "eventCurrency": "USD",
      "eventForecast": ""
    },
    {
      "eventDateTime": "2012-01-01T09:00:00",
      "eventActual": "-0.60",
      "eventCountry": "United States",
      "eventExpectedVolatility": "Low",
      "eventName": "Dallas Fed Mfg Business Index (Dec)",
      "eventTimeZone": "GMT",
      "eventPrevious": "4.20",
      "eventCurrency": "USD",
      "eventForecast": ""
    },
    {
      "eventDateTime": "2012-01-01T09:00:00",
      "eventActual": "2.00%",
      "eventCountry": "United States",
      "eventExpectedVolatility": "Low",
      "eventName": "Dallas Fed PCE (Dec)",
      "eventTimeZone": "GMT",
      "eventPrevious": "1.90%",
      "eventCurrency": "USD",
      "eventForecast": ""
    },
    {
      "eventDateTime": "2012-01-01T09:00:00",
      "eventActual": "8.80",
      "eventCountry": "United States",
      "eventExpectedVolatility": "Low",
      "eventName": "Dallas Fed Services Revenues (Dec)",
      "eventTimeZone": "GMT",
      "eventPrevious": "15.30",
      "eventCurrency": "USD",
      "eventForecast": ""
    },
    {
      "eventDateTime": "2012-01-01T09:00:00",
      "eventActual": "6.17M",
      "eventCountry": "United States",
      "eventExpectedVolatility": "Low",
      "eventName": "Domestic Truck Sales (Dec)",
      "eventTimeZone": "GMT",
      "eventPrevious": "6.00M",
      "eventCurrency": "USD",
      "eventForecast": ""
    },
    {
      "eventDateTime": "2012-01-01T09:00:00",
      "eventActual": "3.50%",
      "eventCountry": "United States",
      "eventExpectedVolatility": "Low",
      "eventName": "Durables Excluding Defense (MoM) (Dec)",
      "eventTimeZone": "GMT",
      "eventPrevious": "4.10%",
      "eventCurrency": "USD",
      "eventForecast": ""
    },
    {
      "eventDateTime": "2012-01-01T09:00:00",
      "eventActual": "0.81M",
      "eventCountry": "United States",
      "eventExpectedVolatility": "Low",
      "eventName": "EIA Weekly Distillates Stocks (Dec)",
      "eventTimeZone": "GMT",
      "eventPrevious": "-0.15M",
      "eventCurrency": "USD",
      "eventForecast": ""
    },
    {
      "eventDateTime": "2012-01-01T09:00:00",
      "eventActual": "-0.90%",
      "eventCountry": "United States",
      "eventExpectedVolatility": "Moderate",
      "eventName": "Existing Home Sales (MoM) (Dec)",
      "eventTimeZone": "GMT",
      "eventPrevious": "1.20%",
      "eventCurrency": "USD",
      "eventForecast": ""
    },
    {
      "eventDateTime": "2012-01-01T09:00:00",
      "eventActual": "-0.50%",
      "eventCountry": "United States",
      "eventExpectedVolatility": "Moderate",
      "eventName": "Export Price Index (MoM) (Dec)",
      "eventTimeZone": "GMT",
      "eventPrevious": "0.10%",
      "eventCurrency": "USD",
      "eventForecast": ""
    },
    {
      "eventDateTime": "2012-01-01T09:00:00",
      "eventActual": "1.10%",
      "eventCountry": "United States",
      "eventExpectedVolatility": "Low",
      "eventName": "Factory orders ex transportation (MoM) (Dec)",
      "eventTimeZone": "GMT",
      "eventPrevious": "1.10%",
      "eventCurrency": "USD",
      "eventForecast": ""
    },
    {
      "eventDateTime": "2012-01-01T09:00:00",
      "eventActual": "2.90%",
      "eventCountry": "United States",
      "eventExpectedVolatility": "Low",
      "eventName": "Goods Orders Non Defense Ex Air (MoM) (Dec)",
      "eventTimeZone": "GMT",
      "eventPrevious": "-1.20%",
      "eventCurrency": "USD",
      "eventForecast": ""
    },
    {
      "eventDateTime": "2012-01-01T09:00:00",
      "eventActual": "-20.00K",
      "eventCountry": "United States",
      "eventExpectedVolatility": "Low",
      "eventName": "Government Payrolls (Dec)",
      "eventTimeZone": "GMT",
      "eventPrevious": "-28.00K",
      "eventCurrency": "USD",
      "eventForecast": ""
    },
    {
      "eventDateTime": "2012-01-01T09:00:00",
      "eventActual": "182.30",
      "eventCountry": "United States",
      "eventExpectedVolatility": "Low",
      "eventName": "House Price Index (Dec)",
      "eventTimeZone": "GMT",
      "eventPrevious": "181.60",
      "eventCurrency": "USD",
      "eventForecast": ""
    },
    {
      "eventDateTime": "2012-01-01T09:00:00",
      "eventActual": "-1.20%",
      "eventCountry": "United States",
      "eventExpectedVolatility": "Low",
      "eventName": "House Price Index (YoY) (Dec)",
      "eventTimeZone": "GMT",
      "eventPrevious": "-2.30%",
      "eventCurrency": "USD",
      "eventForecast": ""
    },
    {
      "eventDateTime": "2012-01-01T09:00:00",
      "eventActual": "-2.40%",
      "eventCountry": "United States",
      "eventExpectedVolatility": "Moderate",
      "eventName": "Housing Starts (MoM) (Dec)",
      "eventTimeZone": "GMT",
      "eventPrevious": "16.60%",
      "eventCurrency": "USD",
      "eventForecast": ""
    },
    {
      "eventDateTime": "2012-01-01T09:00:00",
      "eventActual": "54.70",
      "eventCountry": "United States",
      "eventExpectedVolatility": "Moderate",
      "eventName": "ISM Manufacturing Employment (Dec)",
      "eventTimeZone": "GMT",
      "eventPrevious": "52.90",
      "eventCurrency": "USD",
      "eventForecast": ""
    },
    {
      "eventDateTime": "2012-01-01T09:00:00",
      "eventActual": "55.30",
      "eventCountry": "United States",
      "eventExpectedVolatility": "Low",
      "eventName": "ISM Manufacturing New Orders Index (Dec)",
      "eventTimeZone": "GMT",
      "eventPrevious": "54.00",
      "eventCurrency": "USD",
      "eventForecast": ""
    },
    {
      "eventDateTime": "2012-01-01T09:00:00",
      "eventActual": "55.90",
      "eventCountry": "United States",
      "eventExpectedVolatility": "Low",
      "eventName": "ISM Non-Manufacturing Business Activity (Dec)",
      "eventTimeZone": "GMT",
      "eventPrevious": "55.80",
      "eventCurrency": "USD",
      "eventForecast": ""
    },
    {
      "eventDateTime": "2012-01-01T09:00:00",
      "eventActual": "48.80",
      "eventCountry": "United States",
      "eventExpectedVolatility": "Moderate",
      "eventName": "ISM Non-Manufacturing Employment (Dec)",
      "eventTimeZone": "GMT",
      "eventPrevious": "52.90",
      "eventCurrency": "USD",
      "eventForecast": ""
    },
    {
      "eventDateTime": "2012-01-01T09:00:00",
      "eventActual": "54.10",
      "eventCountry": "United States",
      "eventExpectedVolatility": "Low",
      "eventName": "ISM Non-Manufacturing New Orders (Dec)",
      "eventTimeZone": "GMT",
      "eventPrevious": "53.40",
      "eventCurrency": "USD",
      "eventForecast": ""
    },
    {
      "eventDateTime": "2012-01-01T09:00:00",
      "eventActual": "62.00",
      "eventCountry": "United States",
      "eventExpectedVolatility": "Low",
      "eventName": "ISM Non-Manufacturing Prices (Dec)",
      "eventTimeZone": "GMT",
      "eventPrevious": "63.50",
      "eventCurrency": "USD",
      "eventForecast": ""
    },
    {
      "eventDateTime": "2012-01-01T09:00:00",
      "eventActual": "533.90",
      "eventCountry": "United States",
      "eventExpectedVolatility": "Low",
      "eventName": "ISM-New York Index (Dec)",
      "eventTimeZone": "GMT",
      "eventPrevious": "531.50",
      "eventCurrency": "USD",
      "eventForecast": ""
    },
    {
      "eventDateTime": "2012-01-01T09:00:00",
      "eventActual": "3.53M",
      "eventCountry": "United States",
      "eventExpectedVolatility": "High",
      "eventName": "JOLTs Job Openings (Dec)",
      "eventTimeZone": "GMT",
      "eventPrevious": "3.22M",
      "eventCurrency": "USD",
      "eventForecast": ""
    },
    {
      "eventDateTime": "2012-01-01T09:00:00",
      "eventActual": "379.40K",
      "eventCountry": "United States",
      "eventExpectedVolatility": "Low",
      "eventName": "Jobless Claims 4-Week Avg. (Dec)",
      "eventTimeZone": "GMT",
      "eventPrevious": "391.24K",
      "eventCurrency": "USD",
      "eventForecast": ""
    },
    {
      "eventDateTime": "2012-01-01T09:00:00",
      "eventActual": "-1.00",
      "eventCountry": "United States",
      "eventExpectedVolatility": "Low",
      "eventName": "KC Fed Composite Index (Dec)",
      "eventTimeZone": "GMT",
      "eventPrevious": "6.00",
      "eventCurrency": "USD",
      "eventForecast": ""
    },
    {
      "eventDateTime": "2012-01-01T09:00:00",
      "eventActual": "-3.00",
      "eventCountry": "United States",
      "eventExpectedVolatility": "Low",
      "eventName": "KC Fed Manufacturing Index (Dec)",
      "eventTimeZone": "GMT",
      "eventPrevious": "4.00",
      "eventCurrency": "USD",
      "eventForecast": ""
    },
    {
      "eventDateTime": "2012-01-01T09:00:00",
      "eventActual": "4.10%",
      "eventCountry": "United States",
      "eventExpectedVolatility": "Low",
      "eventName": "MBA 30-Year Mortgage Rate (Dec)",
      "eventTimeZone": "GMT",
      "eventPrevious": "4.22%",
      "eventCurrency": "USD",
      "eventForecast": ""
    },
    {
      "eventDateTime": "2012-01-01T09:00:00",
      "eventActual": "182.05",
      "eventCountry": "United States",
      "eventExpectedVolatility": "Low",
      "eventName": "MBA Purchase Index (Dec)",
      "eventTimeZone": "GMT",
      "eventPrevious": "190.00",
      "eventCurrency": "USD",
      "eventForecast": ""
    },
    {
      "eventDateTime": "2012-01-01T09:00:00",
      "eventActual": "25.00K",
      "eventCountry": "United States",
      "eventExpectedVolatility": "Low",
      "eventName": "Manufacturing Payrolls (Dec)",
      "eventTimeZone": "GMT",
      "eventPrevious": "-2.00K",
      "eventCurrency": "USD",
      "eventForecast": ""
    },
    {
      "eventDateTime": "2012-01-01T09:00:00",
      "eventActual": "0.70%",
      "eventCountry": "United States",
      "eventExpectedVolatility": "Low",
      "eventName": "Manufacturing Production (MoM) (Dec)",
      "eventTimeZone": "GMT",
      "eventPrevious": "-0.10%",
      "eventCurrency": "USD",
      "eventForecast": ""
    },
    {
      "eventDateTime": "2012-01-01T09:00:00",
      "eventActual": "2.70%",
      "eventCountry": "United States",
      "eventExpectedVolatility": "Low",
      "eventName": "Michigan 5-Year Inflation Expectations (Dec)",
      "eventTimeZone": "GMT",
      "eventPrevious": "2.60%",
      "eventCurrency": "USD",
      "eventForecast": ""
    },
    {
      "eventDateTime": "2012-01-01T09:00:00",
      "eventActual": "61.10",
      "eventCountry": "United States",
      "eventExpectedVolatility": "Moderate",
      "eventName": "Michigan Consumer Expectations (Dec)",
      "eventTimeZone": "GMT",
      "eventPrevious": "54.90",
      "eventCurrency": "USD",
      "eventForecast": ""
    },
    {
      "eventDateTime": "2012-01-01T09:00:00",
      "eventActual": "79.60",
      "eventCountry": "United States",
      "eventExpectedVolatility": "Low",
      "eventName": "Michigan Current Conditions (Dec)",
      "eventTimeZone": "GMT",
      "eventPrevious": "76.60",
      "eventCurrency": "USD",
      "eventForecast": ""
    },
    {
      "eventDateTime": "2012-01-01T09:00:00",
      "eventActual": "88.50",
      "eventCountry": "United States",
      "eventExpectedVolatility": "Low",
      "eventName": "Midwest Manufacturing (Dec)",
      "eventTimeZone": "GMT",
      "eventPrevious": "87.00",
      "eventCurrency": "USD",
      "eventForecast": ""
    },
    {
      "eventDateTime": "2012-01-01T09:00:00",
      "eventActual": "657.38",
      "eventCountry": "United States",
      "eventExpectedVolatility": "Low",
      "eventName": "Mortgage Market Index (Dec)",
      "eventTimeZone": "GMT",
      "eventPrevious": "651.63",
      "eventCurrency": "USD",
      "eventForecast": ""
    },
    {
      "eventDateTime": "2012-01-01T09:00:00",
      "eventActual": "3,495.75",
      "eventCountry": "United States",
      "eventExpectedVolatility": "Low",
      "eventName": "Mortgage Refinance Index (Dec)",
      "eventTimeZone": "GMT",
      "eventPrevious": "3,363.25",
      "eventCurrency": "USD",
      "eventForecast": ""
    },
    {
      "eventDateTime": "2012-01-01T09:00:00",
      "eventActual": "4.00%",
      "eventCountry": "United States",
      "eventExpectedVolatility": "Moderate",
      "eventName": "New Home Sales (MoM) (Dec)",
      "eventTimeZone": "GMT",
      "eventPrevious": "3.80%",
      "eventCurrency": "USD",
      "eventForecast": ""
    },
    {
      "eventDateTime": "2012-01-01T09:00:00",
      "eventActual": "101.90B",
      "eventCountry": "United States",
      "eventExpectedVolatility": "Low",
      "eventName": "Overall Net Capital Flow (Dec)",
      "eventTimeZone": "GMT",
      "eventPrevious": "41.20B",
      "eventCurrency": "USD",
      "eventForecast": ""
    },
    {
      "eventDateTime": "2012-01-01T09:00:00",
      "eventActual": "3.30%",
      "eventCountry": "United States",
      "eventExpectedVolatility": "Low",
      "eventName": "PPI (YoY) (Dec)",
      "eventTimeZone": "GMT",
      "eventPrevious": "3.70%",
      "eventCurrency": "USD",
      "eventForecast": ""
    },
    {
      "eventDateTime": "2012-01-01T09:00:00",
      "eventActual": "95.50",
      "eventCountry": "United States",
      "eventExpectedVolatility": "Low",
      "eventName": "Pending Home Sales Index (Dec)",
      "eventTimeZone": "GMT",
      "eventPrevious": "94.10",
      "eventCurrency": "USD",
      "eventForecast": ""
    },
    {
      "eventDateTime": "2012-01-01T09:00:00",
      "eventActual": "34.10",
      "eventCountry": "United States",
      "eventExpectedVolatility": "Low",
      "eventName": "Philly Fed Business Conditions (Dec)",
      "eventTimeZone": "GMT",
      "eventPrevious": "37.20",
      "eventCurrency": "USD",
      "eventForecast": ""
    },
    {
      "eventDateTime": "2012-01-01T09:00:00",
      "eventActual": "14.30",
      "eventCountry": "United States",
      "eventExpectedVolatility": "Low",
      "eventName": "Philly Fed CAPEX Index (Dec)",
      "eventTimeZone": "GMT",
      "eventPrevious": "16.30",
      "eventCurrency": "USD",
      "eventForecast": ""
    },
    {
      "eventDateTime": "2012-01-01T09:00:00",
      "eventActual": "10.80",
      "eventCountry": "United States",
      "eventExpectedVolatility": "Moderate",
      "eventName": "Philly Fed Employment (Dec)",
      "eventTimeZone": "GMT",
      "eventPrevious": "10.50",
      "eventCurrency": "USD",
      "eventForecast": ""
    },
    {
      "eventDateTime": "2012-01-01T09:00:00",
      "eventActual": "4.30",
      "eventCountry": "United States",
      "eventExpectedVolatility": "Low",
      "eventName": "Philly Fed New Orders (Dec)",
      "eventTimeZone": "GMT",
      "eventPrevious": "1.70",
      "eventCurrency": "USD",
      "eventForecast": ""
    },
    {
      "eventDateTime": "2012-01-01T09:00:00",
      "eventActual": "25.10",
      "eventCountry": "United States",
      "eventExpectedVolatility": "Low",
      "eventName": "Philly Fed Prices Paid (Dec)",
      "eventTimeZone": "GMT",
      "eventPrevious": "22.20",
      "eventCurrency": "USD",
      "eventForecast": ""
    },
    {
      "eventDateTime": "2012-01-01T09:00:00",
      "eventActual": "0.10%",
      "eventCountry": "United States",
      "eventExpectedVolatility": "Low",
      "eventName": "Real Earnings (MoM) (Dec)",
      "eventTimeZone": "GMT",
      "eventPrevious": "-0.20%",
      "eventCurrency": "USD",
      "eventForecast": ""
    },
    {
      "eventDateTime": "2012-01-01T09:00:00",
      "eventActual": "0.00%",
      "eventCountry": "United States",
      "eventExpectedVolatility": "Low",
      "eventName": "Real Personal Consumption (MoM) (Dec)",
      "eventTimeZone": "GMT",
      "eventPrevious": "-0.10%",
      "eventCurrency": "USD",
      "eventForecast": ""
    },
    {
      "eventDateTime": "2012-01-01T09:00:00",
      "eventActual": "-2.51%",
      "eventCountry": "United States",
      "eventExpectedVolatility": "Low",
      "eventName": "Redbook (MoM) (Dec)",
      "eventTimeZone": "GMT",
      "eventPrevious": "1.13%",
      "eventCurrency": "USD",
      "eventForecast": ""
    },
    {
      "eventDateTime": "2012-01-01T09:00:00",
      "eventActual": "3.81%",
      "eventCountry": "United States",
      "eventExpectedVolatility": "Low",
      "eventName": "Redbook (YoY) (Dec)",
      "eventTimeZone": "GMT",
      "eventPrevious": "3.82%",
      "eventCurrency": "USD",
      "eventForecast": ""
    },
    {
      "eventDateTime": "2012-01-01T09:00:00",
      "eventActual": "-0.60%",
      "eventCountry": "United States",
      "eventExpectedVolatility": "Low",
      "eventName": "Retail Control (MoM) (Dec)",
      "eventTimeZone": "GMT",
      "eventPrevious": "0.20%",
      "eventCurrency": "USD",
      "eventForecast": ""
    },
    {
      "eventDateTime": "2012-01-01T09:00:00",
      "eventActual": "-0.30%",
      "eventCountry": "United States",
      "eventExpectedVolatility": "Low",
      "eventName": "Retail Sales Ex Gas/Autos (MoM) (Dec)",
      "eventTimeZone": "GMT",
      "eventPrevious": "0.00%",
      "eventCurrency": "USD",
      "eventForecast": ""
    },
    {
      "eventDateTime": "2012-01-01T09:00:00",
      "eventActual": "-2.00",
      "eventCountry": "United States",
      "eventExpectedVolatility": "Low",
      "eventName": "Richmond Manufacturing Shipments (Dec)",
      "eventTimeZone": "GMT",
      "eventPrevious": "0.00",
      "eventCurrency": "USD",
      "eventForecast": ""
    },
    {
      "eventDateTime": "2012-01-01T09:00:00",
      "eventActual": "7.00",
      "eventCountry": "United States",
      "eventExpectedVolatility": "Low",
      "eventName": "Richmond Services Index (Dec)",
      "eventTimeZone": "GMT",
      "eventPrevious": "4.00",
      "eventCurrency": "USD",
      "eventForecast": ""
    },
    {
      "eventDateTime": "2012-01-01T09:00:00",
      "eventActual": "-1.10%",
      "eventCountry": "United States",
      "eventExpectedVolatility": "Low",
      "eventName": "Sandamp;P/CS HPI Composite - 20 n.s.a. (MoM) (Dec)",
      "eventTimeZone": "GMT",
      "eventPrevious": "-1.30%",
      "eventCurrency": "USD",
      "eventForecast": ""
    },
    {
      "eventDateTime": "2012-01-01T09:00:00",
      "eventActual": "-0.40%",
      "eventCountry": "United States",
      "eventExpectedVolatility": "Low",
      "eventName": "Sandamp;P/CS HPI Composite - 20 s.a. (MoM) (Dec)",
      "eventTimeZone": "GMT",
      "eventPrevious": "-0.50%",
      "eventCurrency": "USD",
      "eventForecast": ""
    },
    {
      "eventDateTime": "2012-01-01T09:00:00",
      "eventActual": "4.20B",
      "eventCountry": "United States",
      "eventExpectedVolatility": "Low",
      "eventName": "TIC Net Long-Term Transactions including Swaps (Dec)",
      "eventTimeZone": "GMT",
      "eventPrevious": "51.90B",
      "eventCurrency": "USD",
      "eventForecast": ""
    },
    {
      "eventDateTime": "2012-01-01T09:00:00",
      "eventActual": "8.00",
      "eventCountry": "United States",
      "eventExpectedVolatility": "Low",
      "eventName": "Texas Services Sector Outlook (Dec)",
      "eventTimeZone": "GMT",
      "eventPrevious": "8.60",
      "eventCurrency": "USD",
      "eventForecast": ""
    },
    {
      "eventDateTime": "2012-01-01T09:00:00",
      "eventActual": "-13.10B",
      "eventCountry": "United States",
      "eventExpectedVolatility": "Low",
      "eventName": "US Foreign Buying, T-bonds (Dec)",
      "eventTimeZone": "GMT",
      "eventPrevious": "60.80B",
      "eventCurrency": "USD",
      "eventForecast": ""
    }
  ]}}
