{"events": {"event": [
    {
      "eventDateTime": "2009-07-17T05:00:00",
      "eventActual": "76.9",
      "eventCountry": "Japan",
      "eventExpectedVolatility": "Low",
      "eventName": "Leading Index",
      "eventTimeZone": "GMT",
      "eventPrevious": "77.0",
      "eventCurrency": "JPY",
      "eventForecast": "76.9"
    },
    {
      "eventDateTime": "2009-07-17T19:30:00",
      "eventActual": "33.6K",
      "eventCountry": "Japan",
      "eventExpectedVolatility": "Moderate",
      "eventName": "CFTC JPY speculative net positions",
      "eventTimeZone": "GMT",
      "eventPrevious": "17.1K",
      "eventCurrency": "JPY",
      "eventForecast": ""
    }
  ]}}
