{"events": {"event": [
    {
      "eventDateTime": "2017-05-04T12:30:00",
      "eventActual": "46.98B",
      "eventCountry": "Canada",
      "eventExpectedVolatility": "Low",
      "eventName": "Exports (Mar)",
      "eventTimeZone": "GMT",
      "eventPrevious": "45.25B",
      "eventCurrency": "CAD",
      "eventForecast": ""
    },
    {
      "eventDateTime": "2017-05-04T12:30:00",
      "eventActual": "47.11B",
      "eventCountry": "Canada",
      "eventExpectedVolatility": "Low",
      "eventName": "Imports (Mar)",
      "eventTimeZone": "GMT",
      "eventPrevious": "46.33B",
      "eventCurrency": "CAD",
      "eventForecast": ""
    },
    {
      "eventDateTime": "2017-05-04T12:30:00",
      "eventActual": "-0.14B",
      "eventCountry": "Canada",
      "eventExpectedVolatility": "Moderate",
      "eventName": "Trade Balance (Mar)",
      "eventTimeZone": "GMT",
      "eventPrevious": "-1.08B",
      "eventCurrency": "CAD",
      "eventForecast": "-0.80B"
    },
    {
      "eventDateTime": "2017-05-04T20:25:00",
      "eventActual": "",
      "eventCountry": "Canada",
      "eventExpectedVolatility": "High",
      "eventName": "BoC Gov Poloz Speaks",
      "eventTimeZone": "GMT",
      "eventPrevious": "",
      "eventCurrency": "CAD",
      "eventForecast": ""
    }
  ]}}
