{"events": {"event": {
    "eventDateTime": "2015-05-04T06:00:00",
    "eventActual": "47.2%",
    "eventCountry": "Japan",
    "eventExpectedVolatility": "Moderate",
    "eventName": "Investing.com USD/JPY Index",
    "eventTimeZone": "GMT",
    "eventPrevious": "52.0%",
    "eventCurrency": "JPY",
    "eventForecast": ""
  }}}
