{"events": {"event": [
    {
      "eventDateTime": "2018-12-13T00:00:00",
      "eventActual": "-4.990B",
      "eventCountry": "New Zealand",
      "eventExpectedVolatility": "Low",
      "eventName": "Budget Balance (Feb)",
      "eventTimeZone": "GMT",
      "eventPrevious": "-1.260B",
      "eventCurrency": "NZD",
      "eventForecast": ""
    },
    {
      "eventDateTime": "2018-12-13T00:00:00",
      "eventActual": "1.720B",
      "eventCountry": "New Zealand",
      "eventExpectedVolatility": "Low",
      "eventName": "Economic Forecast (Feb)",
      "eventTimeZone": "GMT",
      "eventPrevious": "3.140B",
      "eventCurrency": "NZD",
      "eventForecast": ""
    },
    {
      "eventDateTime": "2018-12-13T00:00:00",
      "eventActual": "20.90%",
      "eventCountry": "New Zealand",
      "eventExpectedVolatility": "Low",
      "eventName": "Net Debt Forecast (Feb)",
      "eventTimeZone": "GMT",
      "eventPrevious": "20.80%",
      "eventCurrency": "NZD",
      "eventForecast": ""
    },
    {
      "eventDateTime": "2018-12-13T21:30:00",
      "eventActual": "53.5",
      "eventCountry": "New Zealand",
      "eventExpectedVolatility": "Moderate",
      "eventName": "Business NZ PMI (Nov)",
      "eventTimeZone": "GMT",
      "eventPrevious": "53.5",
      "eventCurrency": "NZD",
      "eventForecast": ""
    }
  ]}}
