{"events": {"event": {
    "eventDateTime": "2014-10-02T08:30:00",
    "eventActual": "64.2",
    "eventCountry": "United Kingdom",
    "eventExpectedVolatility": "High",
    "eventName": "Construction PMI (Sep)",
    "eventTimeZone": "GMT",
    "eventPrevious": "64.0",
    "eventCurrency": "GBP",
    "eventForecast": "63.5"
  }}}
