"Chicago Fed President Evans Speaks";"United States";"USD";"2012-06-12T00:15:00";"GMT";" ";"";"";"Low"
"NFIB Small Business Optimism";"United States";"USD";"2012-06-12T11:30:00";"GMT";"94.5";"94.0";"94.4";"Low"
"Import Price Index (MoM)";"United States";"USD";"2012-06-12T12:30:00";"GMT";"0.0%";"-1.0%";"-1.0%";"Moderate"
"Redbook (MoM)";"United States";"USD";"2012-06-12T12:55:00";"GMT";"1.10%";"";"0.60%";"Low"
"IBD/TIPP Economic Optimism";"United States";"USD";"2012-06-12T14:00:00";"GMT";"48.5";"47.0";"46.7";"Low"
"4-Week Bill Auction";"United States";"USD";"2012-06-12T15:30:00";"GMT";"0.040%";"";"0.055%";"Low"
"3-Year Note Auction";"United States";"USD";"2012-06-12T17:00:00";"GMT";"0.362%";"";"0.387%";"Low"
"Federal Budget Balance";"United States";"USD";"2012-06-12T18:00:00";"GMT";"59.1B";"-125.0B";"-124.6B";"Moderate"
"API Weekly Crude Oil Stock";"United States";"USD";"2012-06-12T20:30:00";"GMT";"-1.77M";"-1.50M";"1.59M";"Moderate"
"API Weekly Gasoline Stock";"United States";"USD";"2012-06-12T20:30:00";"GMT";"1.40M";"1.47M";"-0.88M";"Low"
