"German Factory Orders (MoM) (Jul)";"Germany";"EUR";"2017-09-06T06:00:00";"GMT";"0.9%";"0.3%";"-0.7%";"Moderate"
"Italian Retail Sales (MoM) (Jul)";"Italy";"EUR";"2017-09-06T08:00:00";"GMT";"0.6%";"0.4%";"-0.2%";"Low"
"Italian Retail Sales (YoY) (Jul)";"Italy";"EUR";"2017-09-06T08:00:00";"GMT";"1.3%";"1.1%";"0.0%";"Low"
"Retail PMI";"Euro Zone";"EUR";"2017-09-06T08:10:00";"GMT";"51.0";"";"50.8";"Low"
"German 5-Year Bobl Auction";"Germany";"EUR";"2017-09-06T09:35:00";"GMT";"-0.260%";"";"-0.360%";"Low"
