{"events": {"event": {
    "eventDateTime": "2016-08-02T13:30:00",
    "eventActual": "51.9",
    "eventCountry": "Canada",
    "eventExpectedVolatility": "Low",
    "eventName": "RBC Manufacturing PMI (Jul)",
    "eventTimeZone": "GMT",
    "eventPrevious": "51.8",
    "eventCurrency": "CAD",
    "eventForecast": ""
  }}}
