{"events": {"event": [
    {
      "eventDateTime": "2014-06-12T22:30:00",
      "eventActual": "52.7",
      "eventCountry": "New Zealand",
      "eventExpectedVolatility": "Moderate",
      "eventName": "Business NZ PMI",
      "eventTimeZone": "GMT",
      "eventPrevious": "54.4",
      "eventCurrency": "NZD",
      "eventForecast": ""
    },
    {
      "eventDateTime": "2014-06-12T22:45:00",
      "eventActual": "0.6%",
      "eventCountry": "New Zealand",
      "eventExpectedVolatility": "Low",
      "eventName": "FPI (MoM)",
      "eventTimeZone": "GMT",
      "eventPrevious": "0.6%",
      "eventCurrency": "NZD",
      "eventForecast": ""
    }
  ]}}
