"German Exports (MoM) (May)";"Germany";"EUR";"2016-07-08T06:00:00";"GMT";"0.1%";"0.3%";"-1.8%";"Low"
"German Imports (MoM) (May)";"Germany";"EUR";"2016-07-08T06:00:00";"GMT";"-0.3%";"0.4%";"0.1%";"Low"
"German Trade Balance (May)";"Germany";"EUR";"2016-07-08T06:00:00";"GMT";"24.1B";"23.8B";"22.2B";"Moderate"
"French Government Budget Balance (May)";"France";"EUR";"2016-07-08T06:45:00";"GMT";"-56.5B";"";"-65.7B";"Low"
"French Industrial Production (MoM) (May)";"France";"EUR";"2016-07-08T06:45:00";"GMT";"1.2%";"-0.5%";"-0.5%";"Low"
"CFTC EUR speculative net positions";"Euro Zone";"EUR";"2016-07-08T19:30:00";"GMT";"-61.9K";"";"-75.3K";"Moderate"
