"German Import Price Index (MoM) (Sep)";"Germany";"EUR";"2018-11-02T07:00:00";"GMT";"0.0%";"0.4%";"0.4%";"Low"
"German Import Price Index (YoY) (Sep)";"Germany";"EUR";"2018-11-02T07:00:00";"GMT";"4.8%";"4.6%";"4.4%";"Low"
"French Government Budget Balance (Sep)";"France";"EUR";"2018-11-02T07:45:00";"GMT";"-97.3B";"";"-87.1B";"Low"
"Spanish Manufacturing PMI (Oct)";"Spain";"EUR";"2018-11-02T08:15:00";"GMT";"51.4";"51.0";"51.8";"Moderate"
"Italian Manufacturing PMI (Oct)";"Italy";"EUR";"2018-11-02T08:45:00";"GMT";"50.0";"49.7";"49.2";"Moderate"
"French Manufacturing PMI (Oct)";"France";"EUR";"2018-11-02T08:50:00";"GMT";"51.2";"51.2";"51.2";"Moderate"
"German Manufacturing PMI (Oct)";"Germany";"EUR";"2018-11-02T08:55:00";"GMT";"52.3";"52.3";"52.2";"High"
"Manufacturing PMI (Oct)";"Euro Zone";"EUR";"2018-11-02T09:00:00";"GMT";"52.1";"52.1";"52.0";"Moderate"
"CFTC EUR speculative net positions";"Euro Zone";"EUR";"2018-11-02T19:30:00";"GMT";"-30.3K";"";"-32.7K";"Moderate"
