{"events": {"event": {
    "eventDateTime": "2011-03-15T05:00:00",
    "eventActual": "2.9%",
    "eventCountry": "Singapore",
    "eventExpectedVolatility": "Low",
    "eventName": "Retail Sales (YoY)",
    "eventTimeZone": "GMT",
    "eventPrevious": "3.2%",
    "eventCurrency": "SGD",
    "eventForecast": "3.0%"
  }}}
