{"events": {"event": [
    {
      "eventDateTime": "2008-05-12T02:30:00",
      "eventActual": "-6.1%",
      "eventCountry": "Australia",
      "eventExpectedVolatility": "Moderate",
      "eventName": "Home Loans (MoM)",
      "eventTimeZone": "GMT",
      "eventPrevious": "-5.9%",
      "eventCurrency": "AUD",
      "eventForecast": "-0.8%"
    },
    {
      "eventDateTime": "2008-05-12T02:30:00",
      "eventActual": "-8",
      "eventCountry": "Australia",
      "eventExpectedVolatility": "Moderate",
      "eventName": "NAB Business Confidence",
      "eventTimeZone": "GMT",
      "eventPrevious": "-4",
      "eventCurrency": "AUD",
      "eventForecast": "0"
    }
  ]}}
