"Home Loans (MoM) (Jun)";"Australia";"AUD";"2019-08-07T01:30:00";"GMT";"0.0%";"0.6%";"-0.9%";"Moderate"
"Invest Housing Finance (MoM)";"Australia";"AUD";"2019-08-07T01:30:00";"GMT";"-1.7%";"0.5%";"0.5%";"Low"
"RBA Chart Pack Release";"Australia";"AUD";"2019-08-07T01:30:00";"GMT";" ";"";"";"Low"
"RBA Assist Gov Bullock Speaks";"Australia";"AUD";"2019-08-07T21:30:00";"GMT";" ";"";"";"Moderate"
