"Business Investment (QoQ) (Q1)";"United Kingdom";"GBP";"2019-06-28T08:30:00";"GMT";"0.5%";"0.5%";"0.4%";"Moderate"
"Business Investment (YoY) (Q1)";"United Kingdom";"GBP";"2019-06-28T08:30:00";"GMT";"-1.4%";"-1.4%";"-1.5%";"Low"
"Current Account (Q1)";"United Kingdom";"GBP";"2019-06-28T08:30:00";"GMT";"-23.7B";"-32.0B";"-30.0B";"Moderate"
"GDP (QoQ) (Q1)";"United Kingdom";"GBP";"2019-06-28T08:30:00";"GMT";"0.5%";"0.5%";"0.5%";"High"
"GDP (YoY) (Q1)";"United Kingdom";"GBP";"2019-06-28T08:30:00";"GMT";"1.8%";"1.8%";"1.8%";"High"
"CFTC GBP speculative net positions";"United Kingdom";"GBP";"2019-06-28T19:30:00";"GMT";"-52.6K";"";"-58.9K";"Moderate"
