"German PPI (MoM) (Jun)";"Germany";"EUR";"2016-07-20T06:00:00";"GMT";"0.4%";"0.2%";"0.4%";"Moderate"
"German PPI (YoY) (Jun)";"Germany";"EUR";"2016-07-20T06:00:00";"GMT";"-2.7%";"-2.4%";"-2.2%";"Low"
"Current Account (May)";"Euro Zone";"EUR";"2016-07-20T08:00:00";"GMT";"36.4B";"24.9B";"30.8B";"Low"
"Current Account n.s.a. (May)";"Euro Zone";"EUR";"2016-07-20T08:00:00";"GMT";"36.1B";"";"15.4B";"Low"
"Net Investment Flow (May)";"Euro Zone";"EUR";"2016-07-20T08:00:00";"GMT";"129.0B";"";"46.7B";"Low"
"German 5-Year Bobl Auction";"Germany";"EUR";"2016-07-20T09:35:00";"GMT";"-0.380%";"";"-0.510%";"Low"
"Consumer Confidence (Jul)";"Euro Zone";"EUR";"2016-07-20T14:00:00";"GMT";"-7.2";"-8.0";"-7.9";"Low"
