"NFIB Small Business Optimism (Mar)";"United States";"USD";"2017-04-11T10:00:00";"GMT";"105.3";"104.7";"104.7";"Low"
"Redbook (MoM)";"United States";"USD";"2017-04-11T12:55:00";"GMT";"-0.7%";"";"0.9%";"Low"
"Redbook (YoY)";"United States";"USD";"2017-04-11T12:55:00";"GMT";"1.3%";"";"1.6%";"Low"
"JOLTs Job Openings (Feb)";"United States";"USD";"2017-04-11T14:00:00";"GMT";"5.625M";"5.655M";"5.743M";"High"
"4-Week Bill Auction";"United States";"USD";"2017-04-11T15:30:00";"GMT";"0.760%";"";"0.760%";"Low"
"10-Year Note Auction";"United States";"USD";"2017-04-11T17:00:00";"GMT";"2.560%";"";"2.332%";"Moderate"
"FOMC Member Kashkari Speaks";"United States";"USD";"2017-04-11T17:45:00";"GMT";" ";"";"";"Moderate"
"API Weekly Crude Oil Stock";"United States";"USD";"2017-04-11T20:35:00";"GMT";"-1.834M";"0.125M";"-1.300M";"Moderate"
