"Italian Business Confidence";"Italy";"EUR";"2012-04-26T08:00:00";"GMT";"91.1";"92.1";"89.5";"Low"
"Business and Consumer Survey";"Euro Zone";"EUR";"2012-04-26T09:00:00";"GMT";"94.5";"94.2";"92.8";"Low"
"Italian 6-Month BOT Auction";"Italy";"EUR";"2012-04-26T09:10:00";"GMT";"1.119%";"";"1.772%";"Low"
"German CPI (MoM)";"Germany";"EUR";"2012-04-26T12:00:00";"GMT";"0.3%";"0.1%";"0.1%";"Moderate"
