{"events": {"event": [
    {
      "eventDateTime": "2014-11-14T06:30:00",
      "eventActual": "2.70%",
      "eventCountry": "India",
      "eventExpectedVolatility": "Low",
      "eventName": "WPI Food (YoY) (Oct)",
      "eventTimeZone": "GMT",
      "eventPrevious": "3.50%",
      "eventCurrency": "INR",
      "eventForecast": ""
    },
    {
      "eventDateTime": "2014-11-14T06:30:00",
      "eventActual": "0.43%",
      "eventCountry": "India",
      "eventExpectedVolatility": "Low",
      "eventName": "WPI Fuel (YoY) (Oct)",
      "eventTimeZone": "GMT",
      "eventPrevious": "1.30%",
      "eventCurrency": "INR",
      "eventForecast": ""
    },
    {
      "eventDateTime": "2014-11-14T06:30:00",
      "eventActual": "1.77%",
      "eventCountry": "India",
      "eventExpectedVolatility": "Moderate",
      "eventName": "WPI Inflation (YoY) (Oct)",
      "eventTimeZone": "GMT",
      "eventPrevious": "2.38%",
      "eventCurrency": "INR",
      "eventForecast": "2.27%"
    },
    {
      "eventDateTime": "2014-11-14T06:30:00",
      "eventActual": "2.43%",
      "eventCountry": "India",
      "eventExpectedVolatility": "Low",
      "eventName": "WPI Manufacturing Inflation (YoY) (Oct)",
      "eventTimeZone": "GMT",
      "eventPrevious": "2.84%",
      "eventCurrency": "INR",
      "eventForecast": ""
    },
    {
      "eventDateTime": "2014-11-14T11:30:00",
      "eventActual": "11.2%",
      "eventCountry": "India",
      "eventExpectedVolatility": "Low",
      "eventName": "Bank Loan Growth (2wk)",
      "eventTimeZone": "GMT",
      "eventPrevious": "11.1%",
      "eventCurrency": "INR",
      "eventForecast": ""
    },
    {
      "eventDateTime": "2014-11-14T11:30:00",
      "eventActual": "12.0%",
      "eventCountry": "India",
      "eventExpectedVolatility": "Low",
      "eventName": "Deposit Growth (2wk)",
      "eventTimeZone": "GMT",
      "eventPrevious": "12.6%",
      "eventCurrency": "INR",
      "eventForecast": ""
    },
    {
      "eventDateTime": "2014-11-14T11:30:00",
      "eventActual": "315.13B",
      "eventCountry": "India",
      "eventExpectedVolatility": "Low",
      "eventName": "FX Reserves, USD",
      "eventTimeZone": "GMT",
      "eventPrevious": "315.91B",
      "eventCurrency": "INR",
      "eventForecast": ""
    }
  ]}}
