"Average Hourly Earnings (MoM) (Dec)";"United States";"USD";"2017-01-06T13:30:00";"GMT";"-0.1%";"0.3%";"0.4%";"Moderate"
"Average Weekly Hours (Dec)";"United States";"USD";"2017-01-06T13:30:00";"GMT";"34.3";"34.4";"34.3";"Low"
"Government Payrolls (Dec)";"United States";"USD";"2017-01-06T13:30:00";"GMT";"6.0K";"7.0K";"12.0K";"Low"
"Manufacturing Payrolls (Dec)";"United States";"USD";"2017-01-06T13:30:00";"GMT";"-7.0K";"0.0K";"17.0K";"Low"
"Nonfarm Payrolls (Dec)";"United States";"USD";"2017-01-06T13:30:00";"GMT";"204K";"178K";"156K";"High"
"Participation Rate (Dec)";"United States";"USD";"2017-01-06T13:30:00";"GMT";"62.6%";"";"62.7%";"Moderate"
"Private Nonfarm Payrolls (Dec)";"United States";"USD";"2017-01-06T13:30:00";"GMT";"198K";"170K";"144K";"Moderate"
"Trade Balance (Nov)";"United States";"USD";"2017-01-06T13:30:00";"GMT";"-42.40B";"-42.50B";"-45.20B";"Moderate"
"U6 Unemployment Rate (Dec)";"United States";"USD";"2017-01-06T13:30:00";"GMT";"9.3%";"";"9.2%";"Low"
"Unemployment Rate (Dec)";"United States";"USD";"2017-01-06T13:30:00";"GMT";"4.6%";"4.7%";"4.7%";"High"
"Factory Orders (MoM) (Nov)";"United States";"USD";"2017-01-06T15:00:00";"GMT";"2.8%";"-2.2%";"-2.4%";"Moderate"
"Factory orders ex transportation (MoM) (Nov)";"United States";"USD";"2017-01-06T15:00:00";"GMT";"0.8%";"";"0.1%";"Low"
"Chicago Fed President Evans Speaks";"United States";"USD";"2017-01-06T17:15:00";"GMT";" ";"";"";"Low"
"FOMC Member Lacker Speaks";"United States";"USD";"2017-01-06T18:00:00";"GMT";" ";"";"";"Moderate"
"U.S. Baker Hughes Oil Rig Count";"United States";"USD";"2017-01-06T18:00:00";"GMT";"525";"";"529";"Moderate"
"CFTC Copper speculative net positions";"United States";"USD";"2017-01-06T20:30:00";"GMT";"45.8K";"";"44.5K";"Low"
"CFTC Crude Oil speculative net positions";"United States";"USD";"2017-01-06T20:30:00";"GMT";"444.9K";"";"440.1K";"Moderate"
"CFTC Gold speculative net positions";"United States";"USD";"2017-01-06T20:30:00";"GMT";"98.3K";"";"96.6K";"Moderate"
"CFTC Sandamp:P 500 speculative net positions";"United States";"USD";"2017-01-06T20:30:00";"GMT";"9.7K";"";"81.4K";"Moderate"
"CFTC Silver speculative net positions";"United States";"USD";"2017-01-06T20:30:00";"GMT";"58.9K";"";"61.3K";"Low"
"FOMC Member Kaplan Speaks";"United States";"USD";"2017-01-06T20:35:00";"GMT";" ";"";"";"Moderate"
