"Manufacturing PMI";"Japan";"JPY";"2016-11-30T00:00:00";"GMT";" ";"";"";"Low"
"Construction Orders (YoY) (Oct)";"Japan";"JPY";"2016-11-30T05:00:00";"GMT";"16.3%";"";"15.2%";"Low"
"Housing Starts (YoY) (Oct)";"Japan";"JPY";"2016-11-30T05:00:00";"GMT";"10.0%";"11.2%";"13.7%";"Low"
"Capital Spending (YoY) (Q3)";"Japan";"JPY";"2016-11-30T23:50:00";"GMT";"3.1%";"-0.4%";"-1.3%";"Moderate"
"Foreign Bonds Buying";"Japan";"JPY";"2016-11-30T23:50:00";"GMT";"-260.4B";"";"112.3B";"Low"
"Foreign Investments in Japanese Stocks";"Japan";"JPY";"2016-11-30T23:50:00";"GMT";"461.5B";"";"330.5B";"Low"
