"Spanish CPI (MoM) (Apr)";"Spain";"EUR";"2018-05-11T07:00:00";"GMT";"0.1%";"0.8%";"0.8%";"Low"
"Spanish CPI (YoY) (Apr)";"Spain";"EUR";"2018-05-11T07:00:00";"GMT";"1.2%";"1.1%";"1.1%";"Moderate"
"Spanish HICP (MoM) (Apr)";"Spain";"EUR";"2018-05-11T07:00:00";"GMT";"1.2%";"0.8%";"0.8%";"Low"
"Spanish HICP (YoY) (Apr)";"Spain";"EUR";"2018-05-11T07:00:00";"GMT";"1.1%";"1.1%";"1.1%";"Moderate"
"Italian 3-Year BTP Auction";"Italy";"EUR";"2018-05-11T09:45:00";"GMT";"0.05%";"";"0.07%";"Low"
"Italian 7-Year BTP Auction";"Italy";"EUR";"2018-05-11T09:45:00";"GMT";"1.27%";"";"1.34%";"Low"
"ECB President Draghi Speaks";"Euro Zone";"EUR";"2018-05-11T13:15:00";"GMT";" ";"";"";"High"
"CFTC EUR speculative net positions";"Euro Zone";"EUR";"2018-05-11T19:30:00";"GMT";"120.6K";"";"120.5K";"Moderate"
