"10-Year Note Auction (Nov)";"United States";"USD";"2002-12-01T09:00:00";"GMT";"4.38%";"";"4.00%";"Moderate"
"5-Year Note Auction (Nov)";"United States";"USD";"2002-12-01T09:00:00";"GMT";"3.25%";"";"3.00%";"Low"
"All Car Sales (Nov)";"United States";"USD";"2002-12-01T09:00:00";"GMT";"7.54M";"";"7.84M";"Low"
"All Truck Sales (Nov)";"United States";"USD";"2002-12-01T09:00:00";"GMT";"8.38M";"";"8.35M";"Low"
"Business Inventories (MoM) (Nov)";"United States";"USD";"2002-12-01T09:00:00";"GMT";"0.20%";"";"0.20%";"Moderate"
"CB Consumer Confidence (Nov)";"United States";"USD";"2002-12-01T09:00:00";"GMT";"79.60";"";"84.90";"High"
"CB Employment Trends Index (Nov)";"United States";"USD";"2002-12-01T09:00:00";"GMT";"111.90";"";"112.70";"Low"
"CPI (MoM) (Nov)";"United States";"USD";"2002-12-01T09:00:00";"GMT";"0.20%";"";"0.20%";"Moderate"
"CPI (YoY) (Nov)";"United States";"USD";"2002-12-01T09:00:00";"GMT";"2.00%";"";"2.20%";"Low"
"CPI Index, n.s.a. (Nov)";"United States";"USD";"2002-12-01T09:00:00";"GMT";"181.30";"";"181.30";"Low"
"Capacity Utilization Rate (Nov)";"United States";"USD";"2002-12-01T09:00:00";"GMT";"75.20%";"";"75.60%";"Low"
"Chain Store Sales (MoM) (Nov)";"United States";"USD";"2002-12-01T09:00:00";"GMT";"3.20%";"";"0.00%";"Low"
"Chain Store Sales (WoW) (Nov)";"United States";"USD";"2002-12-01T09:00:00";"GMT";"-0.15%";"";"0.17%";"Low"
"Chain Store Sales (YoY) (Nov)";"United States";"USD";"2002-12-01T09:00:00";"GMT";"2.91%";"";"2.68%";"Low"
"Challenger Job Cuts (Nov)";"United States";"USD";"2002-12-01T09:00:00";"GMT";"176.01K";"";"157.51K";"Low"
"Chicago Fed National Activity (Nov)";"United States";"USD";"2002-12-01T09:00:00";"GMT";"-0.60";"";"-0.05";"Low"
"Chicago PMI (Nov)";"United States";"USD";"2002-12-01T09:00:00";"GMT";"45.90";"";"53.30";"Moderate"
"Cleveland CPI (MoM) (Nov)";"United States";"USD";"2002-12-01T09:00:00";"GMT";"0.20%";"";"0.20%";"Low"
"Construction Spending (MoM) (Nov)";"United States";"USD";"2002-12-01T09:00:00";"GMT";"0.90%";"";"0.60%";"Low"
"Consumer Credit (Nov)";"United States";"USD";"2002-12-01T09:00:00";"GMT";"6.50B";"";"8.03B";"Low"
"Continuing Jobless Claims (Nov)";"United States";"USD";"2002-12-01T09:00:00";"GMT";"3,553.22K";"";"3,468.19K";"Low"
"Core CPI (MoM) (Nov)";"United States";"USD";"2002-12-01T09:00:00";"GMT";"0.10%";"";"0.20%";"High"
"Core CPI (YoY) (Nov)";"United States";"USD";"2002-12-01T09:00:00";"GMT";"2.20%";"";"2.00%";"Moderate"
"Core CPI Index (Nov)";"United States";"USD";"2002-12-01T09:00:00";"GMT";"191.50";"";"191.90";"Low"
"Core PCE Price Index (MoM) (Nov)";"United States";"USD";"2002-12-01T09:00:00";"GMT";"0.10%";"";"0.10%";"Moderate"
"Core PCE Price Index (YoY) (Nov)";"United States";"USD";"2002-12-01T09:00:00";"GMT";"1.80%";"";"1.70%";"Moderate"
"Core Retail Sales (MoM) (Nov)";"United States";"USD";"2002-12-01T09:00:00";"GMT";"0.80%";"";"0.70%";"High"
"Crude Oil Inventories (Nov)";"United States";"USD";"2002-12-01T09:00:00";"GMT";"3.39M";"";"-0.61M";"High"
"Dallas Fed PCE (Nov)";"United States";"USD";"2002-12-01T09:00:00";"GMT";"2.20%";"";"1.90%";"Low"
"Domestic Truck Sales (Nov)";"United States";"USD";"2002-12-01T09:00:00";"GMT";"7.36M";"";"7.26M";"Low"
"Durables Excluding Defense (MoM) (Nov)";"United States";"USD";"2002-12-01T09:00:00";"GMT";"2.30%";"";"0.70%";"Low"
"EIA Weekly Distillates Stocks (Nov)";"United States";"USD";"2002-12-01T09:00:00";"GMT";"-1.58M";"";"-0.58M";"Low"
"Existing Home Sales (MoM) (Nov)";"United States";"USD";"2002-12-01T09:00:00";"GMT";"2.90%";"";"0.90%";"Moderate"
"Existing Home Sales (Nov)";"United States";"USD";"2002-12-01T09:00:00";"GMT";"5.68M";"";"5.73M";"High"
"Export Price Index (MoM) (Nov)";"United States";"USD";"2002-12-01T09:00:00";"GMT";"-0.10%";"";"0.10%";"Moderate"
"Factory Orders (MoM) (Nov)";"United States";"USD";"2002-12-01T09:00:00";"GMT";"-0.40%";"";"1.20%";"Moderate"
"Factory orders ex transportation (MoM) (Nov)";"United States";"USD";"2002-12-01T09:00:00";"GMT";"-0.80%";"";"0.50%";"Low"
"Federal Budget Balance (Nov)";"United States";"USD";"2002-12-01T09:00:00";"GMT";"-54.10B";"";"-58.90B";"Moderate"
"Gasoline Inventories (Nov)";"United States";"USD";"2002-12-01T09:00:00";"GMT";"-3.31M";"";"1.76M";"Low"
"Government Payrolls (Nov)";"United States";"USD";"2002-12-01T09:00:00";"GMT";"13.00K";"";"22.00K";"Low"
"House Price Index (MoM) (Nov)";"United States";"USD";"2002-12-01T09:00:00";"GMT";"0.70%";"";"0.60%";"Low"
"House Price Index (Nov)";"United States";"USD";"2002-12-01T09:00:00";"GMT";"165.60";"";"166.60";"Low"
"House Price Index (YoY) (Nov)";"United States";"USD";"2002-12-01T09:00:00";"GMT";"7.50%";"";"7.80%";"Low"
"Housing Starts (MoM) (Nov)";"United States";"USD";"2002-12-01T09:00:00";"GMT";"-8.60%";"";"6.40%";"Moderate"
"Housing Starts (Nov)";"United States";"USD";"2002-12-01T09:00:00";"GMT";"1.65M";"";"1.75M";"Moderate"
"ISM Manufacturing Employment (Nov)";"United States";"USD";"2002-12-01T09:00:00";"GMT";"46.40";"";"44.80";"Moderate"
"ISM Manufacturing New Orders Index (Nov)";"United States";"USD";"2002-12-01T09:00:00";"GMT";"52.10";"";"49.90";"Low"
"ISM Manufacturing PMI (Nov)";"United States";"USD";"2002-12-01T09:00:00";"GMT";"49.00";"";"48.50";"High"
"ISM Manufacturing Prices (Nov)";"United States";"USD";"2002-12-01T09:00:00";"GMT";"58.30";"";"55.70";"Low"
"ISM Non-Manufacturing Business Activity (Nov)";"United States";"USD";"2002-12-01T09:00:00";"GMT";"53.10";"";"56.80";"Low"
"ISM Non-Manufacturing Employment (Nov)";"United States";"USD";"2002-12-01T09:00:00";"GMT";"46.60";"";"46.00";"Moderate"
"ISM Non-Manufacturing New Orders (Nov)";"United States";"USD";"2002-12-01T09:00:00";"GMT";"52.30";"";"56.40";"Low"
"ISM Non-Manufacturing PMI (Nov)";"United States";"USD";"2002-12-01T09:00:00";"GMT";"51.40";"";"52.90";"High"
"ISM Non-Manufacturing Prices (Nov)";"United States";"USD";"2002-12-01T09:00:00";"GMT";"56.10";"";"57.60";"Low"
"ISM-New York Index (Nov)";"United States";"USD";"2002-12-01T09:00:00";"GMT";"253.20";"";"257.60";"Low"
"Import Price Index (MoM) (Nov)";"United States";"USD";"2002-12-01T09:00:00";"GMT";"0.00%";"";"-0.90%";"Moderate"
"Industrial Production (MoM) (Nov)";"United States";"USD";"2002-12-01T09:00:00";"GMT";"-0.30%";"";"0.50%";"Moderate"
"Initial Jobless Claims (Nov)";"United States";"USD";"2002-12-01T09:00:00";"GMT";"407.22K";"";"389.76K";"Moderate"
"JOLTs Job Openings (Nov)";"United States";"USD";"2002-12-01T09:00:00";"GMT";"3.50M";"";"3.59M";"High"
"Jobless Claims 4-Week Avg. (Nov)";"United States";"USD";"2002-12-01T09:00:00";"GMT";"406.77K";"";"398.52K";"Low"
"KC Fed Composite Index (Nov)";"United States";"USD";"2002-12-01T09:00:00";"GMT";"0.00";"";"3.00";"Low"
"KC Fed Manufacturing Index (Nov)";"United States";"USD";"2002-12-01T09:00:00";"GMT";"7.00";"";"10.00";"Low"
"MBA 30-Year Mortgage Rate (Nov)";"United States";"USD";"2002-12-01T09:00:00";"GMT";"6.02%";"";"5.95%";"Low"
"MBA Purchase Index (Nov)";"United States";"USD";"2002-12-01T09:00:00";"GMT";"352.09";"";"354.52";"Low"
"Manufacturing Payrolls (Nov)";"United States";"USD";"2002-12-01T09:00:00";"GMT";"-59.00K";"";"-68.00K";"Low"
"Manufacturing Production (MoM) (Nov)";"United States";"USD";"2002-12-01T09:00:00";"GMT";"-0.40%";"";"0.40%";"Low"
"Michigan 5-Year Inflation Expectations (Nov)";"United States";"USD";"2002-12-01T09:00:00";"GMT";"2.80%";"";"2.80%";"Low"
"Michigan Consumer Expectations (Nov)";"United States";"USD";"2002-12-01T09:00:00";"GMT";"73.10";"";"79.20";"Moderate"
"Michigan Consumer Sentiment (Nov)";"United States";"USD";"2002-12-01T09:00:00";"GMT";"80.40";"";"84.20";"Moderate"
"Michigan Current Conditions (Nov)";"United States";"USD";"2002-12-01T09:00:00";"GMT";"92.90";"";"93.10";"Low"
"Michigan Inflation Expectations (Nov)";"United States";"USD";"2002-12-01T09:00:00";"GMT";"2.50%";"";"2.40%";"Low"
"Midwest Manufacturing (Nov)";"United States";"USD";"2002-12-01T09:00:00";"GMT";"91.20";"";"92.30";"Low"
"Mortgage Market Index (Nov)";"United States";"USD";"2002-12-01T09:00:00";"GMT";"1,131.67";"";"1,063.95";"Low"
"Mortgage Refinance Index (Nov)";"United States";"USD";"2002-12-01T09:00:00";"GMT";"5,666.20";"";"5,190.22";"Low"
"NAHB Housing Market Index (Nov)";"United States";"USD";"2002-12-01T09:00:00";"GMT";"61.00";"";"62.00";"Low"
"NFIB Small Business Optimism (Nov)";"United States";"USD";"2002-12-01T09:00:00";"GMT";"100.40";"";"101.90";"Low"
"NY Empire State Manufacturing Index (Nov)";"United States";"USD";"2002-12-01T09:00:00";"GMT";"-3.79";"";"3.97";"Moderate"
"Natural Gas Storage (Nov)";"United States";"USD";"2002-12-01T09:00:00";"GMT";"22.61B";"";"-46.29B";"Low"
"New Home Sales (MoM) (Nov)";"United States";"USD";"2002-12-01T09:00:00";"GMT";"-3.60%";"";"1.80%";"Moderate"
"New Home Sales (Nov)";"United States";"USD";"2002-12-01T09:00:00";"GMT";"1,006.00K";"";"1,024.00K";"High"
"Overall Net Capital Flow (Nov)";"United States";"USD";"2002-12-01T09:00:00";"GMT";"32.20B";"";"65.20B";"Low"
"Pending Home Sales (MoM) (Nov)";"United States";"USD";"2002-12-01T09:00:00";"GMT";"-1.80%";"";"2.90%";"High"
"Pending Home Sales Index (Nov)";"United States";"USD";"2002-12-01T09:00:00";"GMT";"100.90";"";"103.80";"Low"
"Personal Income (MoM) (Nov)";"United States";"USD";"2002-12-01T09:00:00";"GMT";"0.30%";"";"0.30%";"Low"
"Personal Spending (MoM) (Nov)";"United States";"USD";"2002-12-01T09:00:00";"GMT";"0.60%";"";"0.40%";"Moderate"
"Philadelphia Fed Manufacturing Index (Nov)";"United States";"USD";"2002-12-01T09:00:00";"GMT";"-7.50";"";"7.20";"High"
"Philly Fed Business Conditions (Nov)";"United States";"USD";"2002-12-01T09:00:00";"GMT";"49.00";"";"44.60";"Low"
"Philly Fed CAPEX Index (Nov)";"United States";"USD";"2002-12-01T09:00:00";"GMT";"16.40";"";"25.40";"Low"
"Philly Fed Employment (Nov)";"United States";"USD";"2002-12-01T09:00:00";"GMT";"-3.60";"";"-0.10";"Moderate"
"Philly Fed New Orders (Nov)";"United States";"USD";"2002-12-01T09:00:00";"GMT";"2.30";"";"10.50";"Low"
"Philly Fed Prices Paid (Nov)";"United States";"USD";"2002-12-01T09:00:00";"GMT";"19.40";"";"16.90";"Low"
"Private Nonfarm Payrolls (Nov)";"United States";"USD";"2002-12-01T09:00:00";"GMT";"112.00K";"";"-12.00K";"Moderate"
"Real Personal Consumption (MoM) (Nov)";"United States";"USD";"2002-12-01T09:00:00";"GMT";"0.40%";"";"0.30%";"Low"
"Retail Control (MoM) (Nov)";"United States";"USD";"2002-12-01T09:00:00";"GMT";"1.00%";"";"0.30%";"Low"
"Retail Sales (MoM) (Nov)";"United States";"USD";"2002-12-01T09:00:00";"GMT";"0.40%";"";"0.60%";"High"
"Retail Sales Ex Gas/Autos (MoM) (Nov)";"United States";"USD";"2002-12-01T09:00:00";"GMT";"0.70%";"";"0.60%";"Low"
"Richmond Manufacturing Index (Nov)";"United States";"USD";"2002-12-01T09:00:00";"GMT";"-4.00";"";"-3.00";"Low"
"Richmond Manufacturing Shipments (Nov)";"United States";"USD";"2002-12-01T09:00:00";"GMT";"1.00";"";"0.00";"Low"
"Richmond Services Index (Nov)";"United States";"USD";"2002-12-01T09:00:00";"GMT";"-26.00";"";"0.00";"Low"
"Sandamp;P/CS HPI Composite - 20 n.s.a. (MoM) (Nov)";"United States";"USD";"2002-12-01T09:00:00";"GMT";"0.80%";"";"0.60%";"Low"
"Sandamp;P/CS HPI Composite - 20 n.s.a. (YoY) (Nov)";"United States";"USD";"2002-12-01T09:00:00";"GMT";"11.00%";"";"11.50%";"Moderate"
"Sandamp;P/CS HPI Composite - 20 s.a. (MoM) (Nov)";"United States";"USD";"2002-12-01T09:00:00";"GMT";"1.00%";"";"0.90%";"Low"
"TIC Net Long-Term Transactions (Nov)";"United States";"USD";"2002-12-01T09:00:00";"GMT";"42.40B";"";"69.40B";"Moderate"
"TIC Net Long-Term Transactions including Swaps (Nov)";"United States";"USD";"2002-12-01T09:00:00";"GMT";"34.70B";"";"59.70B";"Low"
"Trade Balance (Nov)";"United States";"USD";"2002-12-01T09:00:00";"GMT";"-35.20B";"";"-39.60B";"Moderate"
"US Foreign Buying, T-bonds (Nov)";"United States";"USD";"2002-12-01T09:00:00";"GMT";"6.10B";"";"21.10B";"Low"
"Wholesale Inventories (MoM) (Nov)";"United States";"USD";"2002-12-01T09:00:00";"GMT";"-0.10%";"";"0.10%";"Low"
"ADP Nonfarm Employment Change (Nov)";"United States";"USD";"2002-12-01T12:15:00";"GMT";"-42K";"";"-18K";"High"
"U6 Unemployment Rate (Nov)";"United States";"USD";"2002-12-01T12:30:00";"GMT";"9.60%";"";"9.70%";"Low"
"Unemployment Rate (Nov)";"United States";"USD";"2002-12-01T12:30:00";"GMT";"5.7%";"";"5.9%";"High"
