{"events": {"event": [
    {
      "eventDateTime": "2018-09-26T01:00:00",
      "eventActual": "-38.3",
      "eventCountry": "New Zealand",
      "eventExpectedVolatility": "Moderate",
      "eventName": "ANZ Business Confidence (Sep)",
      "eventTimeZone": "GMT",
      "eventPrevious": "-50.3",
      "eventCurrency": "NZD",
      "eventForecast": ""
    },
    {
      "eventDateTime": "2018-09-26T01:00:00",
      "eventActual": "7.8%",
      "eventCountry": "New Zealand",
      "eventExpectedVolatility": "Low",
      "eventName": "NBNZ Own Activity (Sep)",
      "eventTimeZone": "GMT",
      "eventPrevious": "3.8%",
      "eventCurrency": "NZD",
      "eventForecast": ""
    },
    {
      "eventDateTime": "2018-09-26T21:00:00",
      "eventActual": "1.75%",
      "eventCountry": "New Zealand",
      "eventExpectedVolatility": "High",
      "eventName": "RBNZ Interest Rate Decision",
      "eventTimeZone": "GMT",
      "eventPrevious": "1.75%",
      "eventCurrency": "NZD",
      "eventForecast": "1.75%"
    },
    {
      "eventDateTime": "2018-09-26T21:00:00",
      "eventActual": "",
      "eventCountry": "New Zealand",
      "eventExpectedVolatility": "Moderate",
      "eventName": "RBNZ Monetary Policy Statement",
      "eventTimeZone": "GMT",
      "eventPrevious": "",
      "eventCurrency": "NZD",
      "eventForecast": ""
    },
    {
      "eventDateTime": "2018-09-26T21:00:00",
      "eventActual": "",
      "eventCountry": "New Zealand",
      "eventExpectedVolatility": "High",
      "eventName": "RBNZ Rate Statement",
      "eventTimeZone": "GMT",
      "eventPrevious": "",
      "eventCurrency": "NZD",
      "eventForecast": ""
    },
    {
      "eventDateTime": "2018-09-26T22:00:00",
      "eventActual": "",
      "eventCountry": "New Zealand",
      "eventExpectedVolatility": "High",
      "eventName": "RBNZ Press Conference",
      "eventTimeZone": "GMT",
      "eventPrevious": "",
      "eventCurrency": "NZD",
      "eventForecast": ""
    }
  ]}}
