{"events": {"event": [
    {
      "eventDateTime": "2014-06-18T07:00:00",
      "eventActual": "6.9%",
      "eventCountry": "Spain",
      "eventExpectedVolatility": "Low",
      "eventName": "Spanish industrial New Orders (YoY)",
      "eventTimeZone": "GMT",
      "eventPrevious": "8.7%",
      "eventCurrency": "EUR",
      "eventForecast": "3.6%"
    },
    {
      "eventDateTime": "2014-06-18T08:45:00",
      "eventActual": "0.876%",
      "eventCountry": "Spain",
      "eventExpectedVolatility": "Low",
      "eventName": "Spanish 3-Year Bonos Auction",
      "eventTimeZone": "GMT",
      "eventPrevious": "0.968%",
      "eventCurrency": "EUR",
      "eventForecast": ""
    },
    {
      "eventDateTime": "2014-06-18T08:45:00",
      "eventActual": "1.402%",
      "eventCountry": "Spain",
      "eventExpectedVolatility": "Low",
      "eventName": "Spanish 5-Year Bonos Auction",
      "eventTimeZone": "GMT",
      "eventPrevious": "1.520%",
      "eventCurrency": "EUR",
      "eventForecast": ""
    },
    {
      "eventDateTime": "2014-06-18T09:00:00",
      "eventActual": "1.1%",
      "eventCountry": "Germany",
      "eventExpectedVolatility": "Low",
      "eventName": "German House Price Index (MoM)",
      "eventTimeZone": "GMT",
      "eventPrevious": "0.4%",
      "eventCurrency": "EUR",
      "eventForecast": ""
    },
    {
      "eventDateTime": "2014-06-18T09:35:00",
      "eventActual": "1.390%",
      "eventCountry": "Germany",
      "eventExpectedVolatility": "Moderate",
      "eventName": "German 10-Year Bund Auction",
      "eventTimeZone": "GMT",
      "eventPrevious": "1.410%",
      "eventCurrency": "EUR",
      "eventForecast": ""
    }
  ]}}
