"Retail Sales (MoM)";"United Kingdom";"GBP";"2013-01-18T09:30:00";"GMT";"0.0%";"0.2%";"-0.1%";"High"
"Retail Sales (YoY)";"United Kingdom";"GBP";"2013-01-18T09:30:00";"GMT";"0.9%";"1.1%";"0.3%";"Moderate"
"CFTC GBP speculative net positions";"United Kingdom";"GBP";"2013-01-18T20:30:00";"GMT";"25.9K";"";"28.3K";"Moderate"
