"Business Confidence (Apr)";"South Africa";"ZAR";"2010-05-01T09:00:00";"GMT";"97.90";"";"97.90";"Low"
"CPI (MoM) (Apr)";"South Africa";"ZAR";"2010-05-01T09:00:00";"GMT";"0.80%";"";"0.11%";"Moderate"
"CPI (YoY) (Apr)";"South Africa";"ZAR";"2010-05-01T09:00:00";"GMT";"5.16%";"";"4.77%";"Low"
"Core CPI (MoM) (Apr)";"South Africa";"ZAR";"2010-05-01T09:00:00";"GMT";"1.00%";"";"0.00%";"Moderate"
"Core CPI (YoY) (Apr)";"South Africa";"ZAR";"2010-05-01T09:00:00";"GMT";"5.00%";"";"4.60%";"Low"
"Foreign Reserves (USD) (Apr)";"South Africa";"ZAR";"2010-05-01T09:00:00";"GMT";"42.01B";"";"42.34B";"Low"
"Gold Production (YoY) (Apr)";"South Africa";"ZAR";"2010-05-01T09:00:00";"GMT";"-12.05%";"";"-6.01%";"Low"
"Interest Rate Decision (Apr)";"South Africa";"ZAR";"2010-05-01T09:00:00";"GMT";"6.50%";"";"6.50%";"Moderate"
"M3 Money Supply (YoY) (Apr)";"South Africa";"ZAR";"2010-05-01T09:00:00";"GMT";"1.55%";"";"1.67%";"Low"
"Mining Production (Apr)";"South Africa";"ZAR";"2010-05-01T09:00:00";"GMT";"11.94%";"";"0.00%";"Low"
"Net FX Reserves (USD) (Apr)";"South Africa";"ZAR";"2010-05-01T09:00:00";"GMT";"38.28B";"";"38.50B";"Low"
"Prime Rate (Apr)";"South Africa";"ZAR";"2010-05-01T09:00:00";"GMT";"10.00%";"";"10.00%";"Low"
"Private Sector Credit (Apr)";"South Africa";"ZAR";"2010-05-01T09:00:00";"GMT";"-0.66%";"";"-0.87%";"Low"
"Retail Sales (YoY) (Apr)";"South Africa";"ZAR";"2010-05-01T09:00:00";"GMT";"3.40%";"";"4.10%";"Low"
"Total Vehicle Sales (Apr)";"South Africa";"ZAR";"2010-05-01T09:00:00";"GMT";"44.82K";"";"36.36K";"Low"
"Total Vehicle Sales (YoY) (Apr)";"South Africa";"ZAR";"2010-05-01T09:00:00";"GMT";"24.70%";"";"38.80%";"Low"
"Trade Balance (Apr)";"South Africa";"ZAR";"2010-05-01T09:00:00";"GMT";"3.23B";"";"1.28B";"Low"
