{"events": {"event": [
    {
      "eventDateTime": "2016-04-08T05:45:00",
      "eventActual": "3.6%",
      "eventCountry": "Switzerland",
      "eventExpectedVolatility": "Moderate",
      "eventName": "Unemployment Rate n.s.a. (Mar)",
      "eventTimeZone": "GMT",
      "eventPrevious": "3.7%",
      "eventCurrency": "CHF",
      "eventForecast": "3.6%"
    },
    {
      "eventDateTime": "2016-04-08T05:45:00",
      "eventActual": "3.5%",
      "eventCountry": "Switzerland",
      "eventExpectedVolatility": "Moderate",
      "eventName": "Unemployment Rate s.a. (Mar)",
      "eventTimeZone": "GMT",
      "eventPrevious": "3.4%",
      "eventCurrency": "CHF",
      "eventForecast": "3.5%"
    },
    {
      "eventDateTime": "2016-04-08T07:15:00",
      "eventActual": "0.3%",
      "eventCountry": "Switzerland",
      "eventExpectedVolatility": "Moderate",
      "eventName": "CPI (MoM) (Mar)",
      "eventTimeZone": "GMT",
      "eventPrevious": "0.2%",
      "eventCurrency": "CHF",
      "eventForecast": "0.3%"
    },
    {
      "eventDateTime": "2016-04-08T07:15:00",
      "eventActual": "-0.9%",
      "eventCountry": "Switzerland",
      "eventExpectedVolatility": "Low",
      "eventName": "CPI (YoY) (Mar)",
      "eventTimeZone": "GMT",
      "eventPrevious": "-0.8%",
      "eventCurrency": "CHF",
      "eventForecast": "-0.9%"
    },
    {
      "eventDateTime": "2016-04-08T19:30:00",
      "eventActual": "5.6K",
      "eventCountry": "Switzerland",
      "eventExpectedVolatility": "Low",
      "eventName": "CFTC CHF speculative net positions",
      "eventTimeZone": "GMT",
      "eventPrevious": "4.6K",
      "eventCurrency": "CHF",
      "eventForecast": ""
    }
  ]}}
