{"events": {"event": [
    {
      "eventDateTime": "2003-04-01T09:00:00",
      "eventActual": "-2.00%",
      "eventCountry": "Hong Kong",
      "eventExpectedVolatility": "Low",
      "eventName": "CPI (YoY) (Mar)",
      "eventTimeZone": "GMT",
      "eventPrevious": "-2.00%",
      "eventCurrency": "HKD",
      "eventForecast": ""
    },
    {
      "eventDateTime": "2003-04-01T09:00:00",
      "eventActual": "15.30%",
      "eventCountry": "Hong Kong",
      "eventExpectedVolatility": "Low",
      "eventName": "Exports (MoM) (Mar)",
      "eventTimeZone": "GMT",
      "eventPrevious": "10.30%",
      "eventCurrency": "HKD",
      "eventForecast": ""
    },
    {
      "eventDateTime": "2003-04-01T09:00:00",
      "eventActual": "113.56B",
      "eventCountry": "Hong Kong",
      "eventExpectedVolatility": "Low",
      "eventName": "Foreign Reserves (USD) (Mar)",
      "eventTimeZone": "GMT",
      "eventPrevious": "113.75B",
      "eventCurrency": "HKD",
      "eventForecast": ""
    },
    {
      "eventDateTime": "2003-04-01T09:00:00",
      "eventActual": "14.60%",
      "eventCountry": "Hong Kong",
      "eventExpectedVolatility": "Low",
      "eventName": "Imports (MoM) (Mar)",
      "eventTimeZone": "GMT",
      "eventPrevious": "18.30%",
      "eventCurrency": "HKD",
      "eventForecast": ""
    },
    {
      "eventDateTime": "2003-04-01T09:00:00",
      "eventActual": "-0.37%",
      "eventCountry": "Hong Kong",
      "eventExpectedVolatility": "Low",
      "eventName": "M3 Money Supply (Mar)",
      "eventTimeZone": "GMT",
      "eventPrevious": "0.09%",
      "eventCurrency": "HKD",
      "eventForecast": ""
    },
    {
      "eventDateTime": "2003-04-01T09:00:00",
      "eventActual": "-6.00%",
      "eventCountry": "Hong Kong",
      "eventExpectedVolatility": "Low",
      "eventName": "Retail Sales (YoY) (Mar)",
      "eventTimeZone": "GMT",
      "eventPrevious": "-12.60%",
      "eventCurrency": "HKD",
      "eventForecast": ""
    },
    {
      "eventDateTime": "2003-04-01T09:00:00",
      "eventActual": "7.50%",
      "eventCountry": "Hong Kong",
      "eventExpectedVolatility": "Low",
      "eventName": "Unemployment Rate (Mar)",
      "eventTimeZone": "GMT",
      "eventPrevious": "7.60%",
      "eventCurrency": "HKD",
      "eventForecast": ""
    }
  ]}}
