"Current Account % of GDP (Q3)";"South Africa";"ZAR";"2017-12-14T08:00:00";"GMT";"-2.40%";"-2.05%";"-2.30%";"Low"
"Current Account (Q3)";"South Africa";"ZAR";"2017-12-14T08:00:00";"GMT";"-111.0B";"-92.0B";"-109.0B";"Low"
"PPI (MoM) (Nov)";"South Africa";"ZAR";"2017-12-14T09:30:00";"GMT";"0.7%";"0.3%";"0.5%";"Low"
"PPI (YoY) (Nov)";"South Africa";"ZAR";"2017-12-14T09:30:00";"GMT";"5.0%";"4.9%";"5.1%";"Low"
