{"events": {"event": [
    {
      "eventDateTime": "2018-08-16T02:00:00",
      "eventActual": "6.2%",
      "eventCountry": "South Korea",
      "eventExpectedVolatility": "Low",
      "eventName": "Exports (YoY) (Jul)",
      "eventTimeZone": "GMT",
      "eventPrevious": "6.2%",
      "eventCurrency": "KRW",
      "eventForecast": ""
    },
    {
      "eventDateTime": "2018-08-16T02:00:00",
      "eventActual": "16.4%",
      "eventCountry": "South Korea",
      "eventExpectedVolatility": "Low",
      "eventName": "Imports (YoY) (Jul)",
      "eventTimeZone": "GMT",
      "eventPrevious": "16.2%",
      "eventCurrency": "KRW",
      "eventForecast": ""
    },
    {
      "eventDateTime": "2018-08-16T02:00:00",
      "eventActual": "6.91B",
      "eventCountry": "South Korea",
      "eventExpectedVolatility": "Low",
      "eventName": "Trade Balance (Jul)",
      "eventTimeZone": "GMT",
      "eventPrevious": "7.00B",
      "eventCurrency": "KRW",
      "eventForecast": ""
    },
    {
      "eventDateTime": "2018-08-16T23:00:00",
      "eventActual": "3.8%",
      "eventCountry": "South Korea",
      "eventExpectedVolatility": "Low",
      "eventName": "Unemployment Rate (Jul)",
      "eventTimeZone": "GMT",
      "eventPrevious": "3.7%",
      "eventCurrency": "KRW",
      "eventForecast": ""
    }
  ]}}
