{"events": {"event": {
    "eventDateTime": "2019-03-25T05:00:00",
    "eventActual": "0.5%",
    "eventCountry": "Singapore",
    "eventExpectedVolatility": "Moderate",
    "eventName": "CPI (YoY) (Feb)",
    "eventTimeZone": "GMT",
    "eventPrevious": "0.4%",
    "eventCurrency": "SGD",
    "eventForecast": "0.5%"
  }}}
