{"events": {"event": [
    {
      "eventDateTime": "2009-06-08T08:30:00",
      "eventActual": "-27.0",
      "eventCountry": "Euro Zone",
      "eventExpectedVolatility": "Low",
      "eventName": "Sentix Investor Confidence",
      "eventTimeZone": "GMT",
      "eventPrevious": "-34.3",
      "eventCurrency": "EUR",
      "eventForecast": "-31.0"
    },
    {
      "eventDateTime": "2009-06-08T10:00:00",
      "eventActual": "0.0%",
      "eventCountry": "Germany",
      "eventExpectedVolatility": "Moderate",
      "eventName": "German Factory Orders (MoM)",
      "eventTimeZone": "GMT",
      "eventPrevious": "3.7%",
      "eventCurrency": "EUR",
      "eventForecast": "0.0%"
    }
  ]}}
