"Manufacturing PMI";"United Kingdom";"GBP";"2012-05-01T08:30:00";"GMT";"51.9";"51.4";"50.5";"High"
"Average Earnings ex Bonus (Apr)";"United Kingdom";"GBP";"2012-05-01T09:00:00";"GMT";"1.60%";"";"1.80%";"Low"
"Core PPI Output (MoM) (Apr)";"United Kingdom";"GBP";"2012-05-01T09:00:00";"GMT";"0.10%";"";"0.20%";"Low"
"Core PPI Output (YoY) (Apr)";"United Kingdom";"GBP";"2012-05-01T09:00:00";"GMT";"2.00%";"";"1.40%";"Low"
"Core RPI (MoM) (Apr)";"United Kingdom";"GBP";"2012-05-01T09:00:00";"GMT";"0.40%";"";"0.70%";"Low"
"Core RPI (YoY) (Apr)";"United Kingdom";"GBP";"2012-05-01T09:00:00";"GMT";"3.70%";"";"3.50%";"Low"
"Core Retail Sales (MoM) (Apr)";"United Kingdom";"GBP";"2012-05-01T09:00:00";"GMT";"1.50%";"";"-1.20%";"Moderate"
"Core Retail Sales (YoY) (Apr)";"United Kingdom";"GBP";"2012-05-01T09:00:00";"GMT";"1.80%";"";"-1.50%";"Moderate"
"Halifax House Price Index (YoY) (Apr)";"United Kingdom";"GBP";"2012-05-01T09:00:00";"GMT";"-0.60%";"";"-0.50%";"Moderate"
"Manufacturing Production (YoY) (Apr)";"United Kingdom";"GBP";"2012-05-01T09:00:00";"GMT";"-0.80%";"";"-1.30%";"Low"
"Nationwide HPI (YoY) (Apr)";"United Kingdom";"GBP";"2012-05-01T09:00:00";"GMT";"-0.90%";"";"-0.90%";"Moderate"
"Public Sector Net Cash Requirement (Apr)";"United Kingdom";"GBP";"2012-05-01T09:00:00";"GMT";"12.95B";"";"-26.74B";"Low"
"RPI (MoM) (Apr)";"United Kingdom";"GBP";"2012-05-01T09:00:00";"GMT";"0.40%";"";"0.70%";"Low"
"Trade Balance Non-EU (Apr)";"United Kingdom";"GBP";"2012-05-01T09:00:00";"GMT";"-4.94B";"";"-4.88B";"Moderate"
"7-Year Treasury Gilt Auction";"United Kingdom";"GBP";"2012-05-01T09:30:00";"GMT";"1.470%";"";"1.495%";"Low"
