"MBA 30-Year Mortgage Rate";"United States";"USD";"2015-09-02T11:00:00";"GMT";"4.08%";"";"4.08%";"Low"
"MBA Mortgage Applications (WoW)";"United States";"USD";"2015-09-02T11:00:00";"GMT";"0.2%";"";"11.3%";"Low"
"MBA Purchase Index";"United States";"USD";"2015-09-02T11:00:00";"GMT";"198.7";"";"206.9";"Low"
"Mortgage Market Index";"United States";"USD";"2015-09-02T11:00:00";"GMT";"412.7";"";"459.5";"Low"
"Mortgage Refinance Index";"United States";"USD";"2015-09-02T11:00:00";"GMT";"1,629.3";"";"1,902.4";"Low"
"ADP Nonfarm Employment Change (Aug)";"United States";"USD";"2015-09-02T12:15:00";"GMT";"177K";"201K";"190K";"High"
"Nonfarm Productivity (QoQ) (Q2)";"United States";"USD";"2015-09-02T12:30:00";"GMT";"1.3%";"2.8%";"3.3%";"Moderate"
"Unit Labor Costs (QoQ) (Q2)";"United States";"USD";"2015-09-02T12:30:00";"GMT";"0.5%";"-1.0%";"-1.4%";"Moderate"
"ISM-New York Index (Aug)";"United States";"USD";"2015-09-02T13:45:00";"GMT";"699.7";"";"700.2";"Low"
"Factory Orders (MoM) (Jul)";"United States";"USD";"2015-09-02T14:00:00";"GMT";"2.2%";"0.9%";"0.4%";"Moderate"
"Factory orders ex transportation (MoM) (Jul)";"United States";"USD";"2015-09-02T14:00:00";"GMT";"0.6%";"";"-0.6%";"Low"
"Crude Oil Inventories";"United States";"USD";"2015-09-02T14:30:00";"GMT";"-5.452M";"0.032M";"4.667M";"High"
"EIA Weekly Distillates Stocks";"United States";"USD";"2015-09-02T14:30:00";"GMT";"1.436M";"0.920M";"0.115M";"Low"
"Gasoline Inventories";"United States";"USD";"2015-09-02T14:30:00";"GMT";"1.660M";"-1.328M";"-0.271M";"Low"
"Beige Book";"United States";"USD";"2015-09-02T18:00:00";"GMT";" ";"";"";"Moderate"
