"Average Earnings Index +Bonus";"United Kingdom";"GBP";"2013-07-17T08:30:00";"GMT";"1.3%";"1.4%";"1.7%";"High"
"Average Earnings ex Bonus";"United Kingdom";"GBP";"2013-07-17T08:30:00";"GMT";"0.9%";"1.1%";"1.0%";"Low"
"BoE MPC Meeting Minutes";"United Kingdom";"GBP";"2013-07-17T08:30:00";"GMT";" ";"";"";"High"
"Claimant Count Change";"United Kingdom";"GBP";"2013-07-17T08:30:00";"GMT";"-16.2K";"-8.0K";"-21.2K";"High"
"Unemployment Rate";"United Kingdom";"GBP";"2013-07-17T08:30:00";"GMT";"7.8%";"7.8%";"7.8%";"Moderate"
