{"events": {"event": {
    "eventDateTime": "2019-01-10T21:45:00",
    "eventActual": "-2.0%",
    "eventCountry": "New Zealand",
    "eventExpectedVolatility": "Moderate",
    "eventName": "Building Consents (MoM) (Nov)",
    "eventTimeZone": "GMT",
    "eventPrevious": "1.4%",
    "eventCurrency": "NZD",
    "eventForecast": ""
  }}}
