{"events": {"event": [
    {
      "eventDateTime": "2008-11-07T13:30:00",
      "eventActual": "0.2%",
      "eventCountry": "United States",
      "eventExpectedVolatility": "Moderate",
      "eventName": "Average Hourly Earnings (MoM)",
      "eventTimeZone": "GMT",
      "eventPrevious": "0.2%",
      "eventCurrency": "USD",
      "eventForecast": "0.2%"
    },
    {
      "eventDateTime": "2008-11-07T13:30:00",
      "eventActual": "-240K",
      "eventCountry": "United States",
      "eventExpectedVolatility": "High",
      "eventName": "Nonfarm Payrolls",
      "eventTimeZone": "GMT",
      "eventPrevious": "-159K",
      "eventCurrency": "USD",
      "eventForecast": "-200K"
    },
    {
      "eventDateTime": "2008-11-07T13:30:00",
      "eventActual": "11.80%",
      "eventCountry": "United States",
      "eventExpectedVolatility": "Low",
      "eventName": "U6 Unemployment Rate (Oct)",
      "eventTimeZone": "GMT",
      "eventPrevious": "11.00%",
      "eventCurrency": "USD",
      "eventForecast": ""
    },
    {
      "eventDateTime": "2008-11-07T13:30:00",
      "eventActual": "6.5%",
      "eventCountry": "United States",
      "eventExpectedVolatility": "High",
      "eventName": "Unemployment Rate",
      "eventTimeZone": "GMT",
      "eventPrevious": "6.1%",
      "eventCurrency": "USD",
      "eventForecast": "6.3%"
    },
    {
      "eventDateTime": "2008-11-07T15:00:00",
      "eventActual": "-4.6%",
      "eventCountry": "United States",
      "eventExpectedVolatility": "High",
      "eventName": "Pending Home Sales (MoM)",
      "eventTimeZone": "GMT",
      "eventPrevious": "7.4%",
      "eventCurrency": "USD",
      "eventForecast": "-3.4%"
    },
    {
      "eventDateTime": "2008-11-07T15:00:00",
      "eventActual": "-0.1%",
      "eventCountry": "United States",
      "eventExpectedVolatility": "Low",
      "eventName": "Wholesale Inventories (MoM)",
      "eventTimeZone": "GMT",
      "eventPrevious": "0.8%",
      "eventCurrency": "USD",
      "eventForecast": "0.4%"
    },
    {
      "eventDateTime": "2008-11-07T17:00:00",
      "eventActual": "442",
      "eventCountry": "United States",
      "eventExpectedVolatility": "Moderate",
      "eventName": "U.S. Baker Hughes Oil Rig Count",
      "eventTimeZone": "GMT",
      "eventPrevious": "408",
      "eventCurrency": "USD",
      "eventForecast": ""
    },
    {
      "eventDateTime": "2008-11-07T20:00:00",
      "eventActual": "6.90B",
      "eventCountry": "United States",
      "eventExpectedVolatility": "Low",
      "eventName": "Consumer Credit",
      "eventTimeZone": "GMT",
      "eventPrevious": "-7.90B",
      "eventCurrency": "USD",
      "eventForecast": "-0.30B"
    },
    {
      "eventDateTime": "2008-11-07T20:30:00",
      "eventActual": "-10.5k",
      "eventCountry": "United States",
      "eventExpectedVolatility": "Moderate",
      "eventName": "CFTC Crude Oil speculative net positions",
      "eventTimeZone": "GMT",
      "eventPrevious": "-8.4k",
      "eventCurrency": "USD",
      "eventForecast": ""
    },
    {
      "eventDateTime": "2008-11-07T20:30:00",
      "eventActual": "68.2K",
      "eventCountry": "United States",
      "eventExpectedVolatility": "Moderate",
      "eventName": "CFTC Gold speculative net positions",
      "eventTimeZone": "GMT",
      "eventPrevious": "78.3K",
      "eventCurrency": "USD",
      "eventForecast": ""
    },
    {
      "eventDateTime": "2008-11-07T20:30:00",
      "eventActual": "17.5K",
      "eventCountry": "United States",
      "eventExpectedVolatility": "Low",
      "eventName": "CFTC Silver speculative net positions",
      "eventTimeZone": "GMT",
      "eventPrevious": "15.1K",
      "eventCurrency": "USD",
      "eventForecast": ""
    }
  ]}}
