{"events": {"event": [
    {
      "eventDateTime": "2013-08-30T12:30:00",
      "eventActual": "0.1%",
      "eventCountry": "United States",
      "eventExpectedVolatility": "Moderate",
      "eventName": "Core PCE Price Index (MoM)",
      "eventTimeZone": "GMT",
      "eventPrevious": "0.2%",
      "eventCurrency": "USD",
      "eventForecast": "0.2%"
    },
    {
      "eventDateTime": "2013-08-30T12:30:00",
      "eventActual": "0.1%",
      "eventCountry": "United States",
      "eventExpectedVolatility": "Low",
      "eventName": "Personal Income (MoM)",
      "eventTimeZone": "GMT",
      "eventPrevious": "0.3%",
      "eventCurrency": "USD",
      "eventForecast": "0.2%"
    },
    {
      "eventDateTime": "2013-08-30T12:30:00",
      "eventActual": "0.1%",
      "eventCountry": "United States",
      "eventExpectedVolatility": "Moderate",
      "eventName": "Personal Spending (MoM)",
      "eventTimeZone": "GMT",
      "eventPrevious": "0.6%",
      "eventCurrency": "USD",
      "eventForecast": "0.3%"
    },
    {
      "eventDateTime": "2013-08-30T13:00:00",
      "eventActual": "",
      "eventCountry": "United States",
      "eventExpectedVolatility": "Moderate",
      "eventName": "FOMC Member Bullard Speaks",
      "eventTimeZone": "GMT",
      "eventPrevious": "",
      "eventCurrency": "USD",
      "eventForecast": ""
    },
    {
      "eventDateTime": "2013-08-30T13:45:00",
      "eventActual": "53.0",
      "eventCountry": "United States",
      "eventExpectedVolatility": "Moderate",
      "eventName": "Chicago PMI",
      "eventTimeZone": "GMT",
      "eventPrevious": "52.3",
      "eventCurrency": "USD",
      "eventForecast": "53.0"
    },
    {
      "eventDateTime": "2013-08-30T13:55:00",
      "eventActual": "82.1",
      "eventCountry": "United States",
      "eventExpectedVolatility": "Moderate",
      "eventName": "Michigan Consumer Sentiment",
      "eventTimeZone": "GMT",
      "eventPrevious": "80.0",
      "eventCurrency": "USD",
      "eventForecast": "80.5"
    },
    {
      "eventDateTime": "2013-08-30T13:55:00",
      "eventActual": "3.0%",
      "eventCountry": "United States",
      "eventExpectedVolatility": "Low",
      "eventName": "Michigan Inflation Expectations",
      "eventTimeZone": "GMT",
      "eventPrevious": "3.1%",
      "eventCurrency": "USD",
      "eventForecast": ""
    },
    {
      "eventDateTime": "2013-08-30T17:00:00",
      "eventActual": "1388",
      "eventCountry": "United States",
      "eventExpectedVolatility": "Moderate",
      "eventName": "U.S. Baker Hughes Oil Rig Count",
      "eventTimeZone": "GMT",
      "eventPrevious": "1382",
      "eventCurrency": "USD",
      "eventForecast": ""
    },
    {
      "eventDateTime": "2013-08-30T19:30:00",
      "eventActual": "78.3K",
      "eventCountry": "United States",
      "eventExpectedVolatility": "Moderate",
      "eventName": "CFTC Gold speculative net positions",
      "eventTimeZone": "GMT",
      "eventPrevious": "60.4K",
      "eventCurrency": "USD",
      "eventForecast": ""
    },
    {
      "eventDateTime": "2013-08-30T19:30:00",
      "eventActual": "16.4K",
      "eventCountry": "United States",
      "eventExpectedVolatility": "Low",
      "eventName": "CFTC Silver speculative net positions",
      "eventTimeZone": "GMT",
      "eventPrevious": "18.5K",
      "eventCurrency": "USD",
      "eventForecast": ""
    },
    {
      "eventDateTime": "2013-08-30T20:30:00",
      "eventActual": "345.1k",
      "eventCountry": "United States",
      "eventExpectedVolatility": "Moderate",
      "eventName": "CFTC Crude Oil speculative net positions",
      "eventTimeZone": "GMT",
      "eventPrevious": "345.4k",
      "eventCurrency": "USD",
      "eventForecast": ""
    }
  ]}}
