{"events": {"event": [
    {
      "eventDateTime": "2014-07-02T11:00:00",
      "eventActual": "4.28%",
      "eventCountry": "United States",
      "eventExpectedVolatility": "Low",
      "eventName": "MBA 30-Year Mortgage Rate",
      "eventTimeZone": "GMT",
      "eventPrevious": "4.33%",
      "eventCurrency": "USD",
      "eventForecast": ""
    },
    {
      "eventDateTime": "2014-07-02T11:00:00",
      "eventActual": "-0.2%",
      "eventCountry": "United States",
      "eventExpectedVolatility": "Low",
      "eventName": "MBA Mortgage Applications (WoW)",
      "eventTimeZone": "GMT",
      "eventPrevious": "-1.0%",
      "eventCurrency": "USD",
      "eventForecast": ""
    },
    {
      "eventDateTime": "2014-07-02T12:15:00",
      "eventActual": "281K",
      "eventCountry": "United States",
      "eventExpectedVolatility": "High",
      "eventName": "ADP Nonfarm Employment Change",
      "eventTimeZone": "GMT",
      "eventPrevious": "179K",
      "eventCurrency": "USD",
      "eventForecast": "200K"
    },
    {
      "eventDateTime": "2014-07-02T13:45:00",
      "eventActual": "635.3",
      "eventCountry": "United States",
      "eventExpectedVolatility": "Low",
      "eventName": "ISM-New York Index",
      "eventTimeZone": "GMT",
      "eventPrevious": "630.1",
      "eventCurrency": "USD",
      "eventForecast": ""
    },
    {
      "eventDateTime": "2014-07-02T14:00:00",
      "eventActual": "-0.5%",
      "eventCountry": "United States",
      "eventExpectedVolatility": "Moderate",
      "eventName": "Factory Orders (MoM)",
      "eventTimeZone": "GMT",
      "eventPrevious": "0.8%",
      "eventCurrency": "USD",
      "eventForecast": "-0.3%"
    },
    {
      "eventDateTime": "2014-07-02T14:00:00",
      "eventActual": "-0.1%",
      "eventCountry": "United States",
      "eventExpectedVolatility": "Low",
      "eventName": "Factory orders ex transportation (MoM)",
      "eventTimeZone": "GMT",
      "eventPrevious": "0.6%",
      "eventCurrency": "USD",
      "eventForecast": ""
    },
    {
      "eventDateTime": "2014-07-02T14:30:00",
      "eventActual": "-3.155M",
      "eventCountry": "United States",
      "eventExpectedVolatility": "High",
      "eventName": "Crude Oil Inventories",
      "eventTimeZone": "GMT",
      "eventPrevious": "1.742M",
      "eventCurrency": "USD",
      "eventForecast": "-2.229M"
    },
    {
      "eventDateTime": "2014-07-02T14:30:00",
      "eventActual": "0.975M",
      "eventCountry": "United States",
      "eventExpectedVolatility": "Low",
      "eventName": "EIA Weekly Distillates Stocks",
      "eventTimeZone": "GMT",
      "eventPrevious": "1.177M",
      "eventCurrency": "USD",
      "eventForecast": "0.757M"
    },
    {
      "eventDateTime": "2014-07-02T14:30:00",
      "eventActual": "-1.235M",
      "eventCountry": "United States",
      "eventExpectedVolatility": "Low",
      "eventName": "Gasoline Inventories",
      "eventTimeZone": "GMT",
      "eventPrevious": "0.710M",
      "eventCurrency": "USD",
      "eventForecast": "0.357M"
    },
    {
      "eventDateTime": "2014-07-02T15:00:00",
      "eventActual": "",
      "eventCountry": "United States",
      "eventExpectedVolatility": "High",
      "eventName": "Fed Chair Yellen Speaks",
      "eventTimeZone": "GMT",
      "eventPrevious": "",
      "eventCurrency": "USD",
      "eventForecast": ""
    }
  ]}}
