{"events": {"event": [
    {
      "eventDateTime": "2004-01-01T09:00:00",
      "eventActual": "-15.60%",
      "eventCountry": "New Zealand",
      "eventExpectedVolatility": "Moderate",
      "eventName": "ANZ Business Confidence (Dec)",
      "eventTimeZone": "GMT",
      "eventPrevious": "-3.20%",
      "eventCurrency": "NZD",
      "eventForecast": ""
    },
    {
      "eventDateTime": "2004-01-01T09:00:00",
      "eventActual": "-14.60%",
      "eventCountry": "New Zealand",
      "eventExpectedVolatility": "Moderate",
      "eventName": "Building Consents (MoM) (Dec)",
      "eventTimeZone": "GMT",
      "eventPrevious": "24.30%",
      "eventCurrency": "NZD",
      "eventForecast": ""
    },
    {
      "eventDateTime": "2004-01-01T09:00:00",
      "eventActual": "3.10%",
      "eventCountry": "New Zealand",
      "eventExpectedVolatility": "Moderate",
      "eventName": "Electronic Card Retail Sales (MoM) (Dec)",
      "eventTimeZone": "GMT",
      "eventPrevious": "0.90%",
      "eventCurrency": "NZD",
      "eventForecast": ""
    },
    {
      "eventDateTime": "2004-01-01T09:00:00",
      "eventActual": "9.60%",
      "eventCountry": "New Zealand",
      "eventExpectedVolatility": "Low",
      "eventName": "Electronic Card Retail Sales (YoY) (Dec)",
      "eventTimeZone": "GMT",
      "eventPrevious": "8.50%",
      "eventCurrency": "NZD",
      "eventForecast": ""
    },
    {
      "eventDateTime": "2004-01-01T09:00:00",
      "eventActual": "2.29B",
      "eventCountry": "New Zealand",
      "eventExpectedVolatility": "Low",
      "eventName": "Exports (Dec)",
      "eventTimeZone": "GMT",
      "eventPrevious": "2.39B",
      "eventCurrency": "NZD",
      "eventForecast": ""
    },
    {
      "eventDateTime": "2004-01-01T09:00:00",
      "eventActual": "11.89%",
      "eventCountry": "New Zealand",
      "eventExpectedVolatility": "Low",
      "eventName": "External Migration andamp; Visitors (Dec)",
      "eventTimeZone": "GMT",
      "eventPrevious": "6.56%",
      "eventCurrency": "NZD",
      "eventForecast": ""
    },
    {
      "eventDateTime": "2004-01-01T09:00:00",
      "eventActual": "-0.40%",
      "eventCountry": "New Zealand",
      "eventExpectedVolatility": "Low",
      "eventName": "FPI (MoM) (Dec)",
      "eventTimeZone": "GMT",
      "eventPrevious": "0.20%",
      "eventCurrency": "NZD",
      "eventForecast": ""
    },
    {
      "eventDateTime": "2004-01-01T09:00:00",
      "eventActual": "14.10%",
      "eventCountry": "New Zealand",
      "eventExpectedVolatility": "Low",
      "eventName": "Government Monthly Debt (Dec)",
      "eventTimeZone": "GMT",
      "eventPrevious": "12.80%",
      "eventCurrency": "NZD",
      "eventForecast": ""
    },
    {
      "eventDateTime": "2004-01-01T09:00:00",
      "eventActual": "2.81B",
      "eventCountry": "New Zealand",
      "eventExpectedVolatility": "Low",
      "eventName": "Imports (Dec)",
      "eventTimeZone": "GMT",
      "eventPrevious": "2.78B",
      "eventCurrency": "NZD",
      "eventForecast": ""
    },
    {
      "eventDateTime": "2004-01-01T09:00:00",
      "eventActual": "30.20%",
      "eventCountry": "New Zealand",
      "eventExpectedVolatility": "Low",
      "eventName": "NBNZ Own Activity (Dec)",
      "eventTimeZone": "GMT",
      "eventPrevious": "28.50%",
      "eventCurrency": "NZD",
      "eventForecast": ""
    },
    {
      "eventDateTime": "2004-01-01T09:00:00",
      "eventActual": "1,570.00",
      "eventCountry": "New Zealand",
      "eventExpectedVolatility": "Low",
      "eventName": "Permanent/Long-Term Migration (Dec)",
      "eventTimeZone": "GMT",
      "eventPrevious": "1,130.00",
      "eventCurrency": "NZD",
      "eventForecast": ""
    },
    {
      "eventDateTime": "2004-01-01T09:00:00",
      "eventActual": "5.00%",
      "eventCountry": "New Zealand",
      "eventExpectedVolatility": "High",
      "eventName": "RBNZ Interest Rate Decision (Dec)",
      "eventTimeZone": "GMT",
      "eventPrevious": "5.00%",
      "eventCurrency": "NZD",
      "eventForecast": ""
    },
    {
      "eventDateTime": "2004-01-01T09:00:00",
      "eventActual": "45.70%",
      "eventCountry": "New Zealand",
      "eventExpectedVolatility": "Low",
      "eventName": "RBNZ Offshore Holdings (Dec)",
      "eventTimeZone": "GMT",
      "eventPrevious": "43.20%",
      "eventCurrency": "NZD",
      "eventForecast": ""
    },
    {
      "eventDateTime": "2004-01-01T09:00:00",
      "eventActual": "0.10%",
      "eventCountry": "New Zealand",
      "eventExpectedVolatility": "Low",
      "eventName": "REINZ House Price Index (MoM) (Dec)",
      "eventTimeZone": "GMT",
      "eventPrevious": "1.50%",
      "eventCurrency": "NZD",
      "eventForecast": ""
    },
    {
      "eventDateTime": "2004-01-01T09:00:00",
      "eventActual": "21.60%",
      "eventCountry": "New Zealand",
      "eventExpectedVolatility": "Low",
      "eventName": "REINZ House Price Index (YoY) (Dec)",
      "eventTimeZone": "GMT",
      "eventPrevious": "24.50%",
      "eventCurrency": "NZD",
      "eventForecast": ""
    },
    {
      "eventDateTime": "2004-01-01T09:00:00",
      "eventActual": "-513.00M",
      "eventCountry": "New Zealand",
      "eventExpectedVolatility": "Moderate",
      "eventName": "Trade Balance (MoM) (Dec)",
      "eventTimeZone": "GMT",
      "eventPrevious": "-389.80M",
      "eventCurrency": "NZD",
      "eventForecast": ""
    },
    {
      "eventDateTime": "2004-01-01T09:00:00",
      "eventActual": "-3,380.00M",
      "eventCountry": "New Zealand",
      "eventExpectedVolatility": "Moderate",
      "eventName": "Trade Balance (YoY) (Dec)",
      "eventTimeZone": "GMT",
      "eventPrevious": "-3,140.00M",
      "eventCurrency": "NZD",
      "eventForecast": ""
    }
  ]}}
