{"events": {"event": [
    {
      "eventDateTime": "2007-01-01T09:00:00",
      "eventActual": "50.00",
      "eventCountry": "Australia",
      "eventExpectedVolatility": "Low",
      "eventName": "AIG Construction Index (Dec)",
      "eventTimeZone": "GMT",
      "eventPrevious": "50.00",
      "eventCurrency": "AUD",
      "eventForecast": ""
    },
    {
      "eventDateTime": "2007-01-01T09:00:00",
      "eventActual": "53.10",
      "eventCountry": "Australia",
      "eventExpectedVolatility": "Moderate",
      "eventName": "AIG Manufacturing Index (Dec)",
      "eventTimeZone": "GMT",
      "eventPrevious": "53.72",
      "eventCurrency": "AUD",
      "eventForecast": ""
    },
    {
      "eventDateTime": "2007-01-01T09:00:00",
      "eventActual": "50.55",
      "eventCountry": "Australia",
      "eventExpectedVolatility": "Low",
      "eventName": "AIG Services Index (Dec)",
      "eventTimeZone": "GMT",
      "eventPrevious": "50.42",
      "eventCurrency": "AUD",
      "eventForecast": ""
    },
    {
      "eventDateTime": "2007-01-01T09:00:00",
      "eventActual": "5.90%",
      "eventCountry": "Australia",
      "eventExpectedVolatility": "Low",
      "eventName": "ANZ Internet Job Ads (MoM) (Dec)",
      "eventTimeZone": "GMT",
      "eventPrevious": "0.50%",
      "eventCurrency": "AUD",
      "eventForecast": ""
    },
    {
      "eventDateTime": "2007-01-01T09:00:00",
      "eventActual": "2.10%",
      "eventCountry": "Australia",
      "eventExpectedVolatility": "Low",
      "eventName": "ANZ Newspaper Job Ads (MoM) (Dec)",
      "eventTimeZone": "GMT",
      "eventPrevious": "-0.60%",
      "eventCurrency": "AUD",
      "eventForecast": ""
    },
    {
      "eventDateTime": "2007-01-01T09:00:00",
      "eventActual": "-2.00%",
      "eventCountry": "Australia",
      "eventExpectedVolatility": "Moderate",
      "eventName": "Building Approvals (MoM) (Dec)",
      "eventTimeZone": "GMT",
      "eventPrevious": "6.30%",
      "eventCurrency": "AUD",
      "eventForecast": ""
    },
    {
      "eventDateTime": "2007-01-01T09:00:00",
      "eventActual": "56.10K",
      "eventCountry": "Australia",
      "eventExpectedVolatility": "High",
      "eventName": "Employment Change (Dec)",
      "eventTimeZone": "GMT",
      "eventPrevious": "28.20K",
      "eventCurrency": "AUD",
      "eventForecast": ""
    },
    {
      "eventDateTime": "2007-01-01T09:00:00",
      "eventActual": "-0.30%",
      "eventCountry": "Australia",
      "eventExpectedVolatility": "Low",
      "eventName": "Exports (MoM) (Dec)",
      "eventTimeZone": "GMT",
      "eventPrevious": "-0.60%",
      "eventCurrency": "AUD",
      "eventForecast": ""
    },
    {
      "eventDateTime": "2007-01-01T09:00:00",
      "eventActual": "47.10K",
      "eventCountry": "Australia",
      "eventExpectedVolatility": "Moderate",
      "eventName": "Full Employment Change (Dec)",
      "eventTimeZone": "GMT",
      "eventPrevious": "19.30K",
      "eventCurrency": "AUD",
      "eventForecast": ""
    },
    {
      "eventDateTime": "2007-01-01T09:00:00",
      "eventActual": "6.00%",
      "eventCountry": "Australia",
      "eventExpectedVolatility": "Moderate",
      "eventName": "HIA New Home Sales (MoM) (Dec)",
      "eventTimeZone": "GMT",
      "eventPrevious": "-5.30%",
      "eventCurrency": "AUD",
      "eventForecast": ""
    },
    {
      "eventDateTime": "2007-01-01T09:00:00",
      "eventActual": "-1.10%",
      "eventCountry": "Australia",
      "eventExpectedVolatility": "Moderate",
      "eventName": "Home Loans (MoM) (Dec)",
      "eventTimeZone": "GMT",
      "eventPrevious": "-0.60%",
      "eventCurrency": "AUD",
      "eventForecast": ""
    },
    {
      "eventDateTime": "2007-01-01T09:00:00",
      "eventActual": "0.70%",
      "eventCountry": "Australia",
      "eventExpectedVolatility": "Low",
      "eventName": "Housing Credit (Dec)",
      "eventTimeZone": "GMT",
      "eventPrevious": "0.90%",
      "eventCurrency": "AUD",
      "eventForecast": ""
    },
    {
      "eventDateTime": "2007-01-01T09:00:00",
      "eventActual": "4.30%",
      "eventCountry": "Australia",
      "eventExpectedVolatility": "Low",
      "eventName": "Imports (MoM) (Dec)",
      "eventTimeZone": "GMT",
      "eventPrevious": "-5.20%",
      "eventCurrency": "AUD",
      "eventForecast": ""
    },
    {
      "eventDateTime": "2007-01-01T09:00:00",
      "eventActual": "5.40%",
      "eventCountry": "Australia",
      "eventExpectedVolatility": "Low",
      "eventName": "Invest Housing Finance (MoM) (Dec)",
      "eventTimeZone": "GMT",
      "eventPrevious": "2.50%",
      "eventCurrency": "AUD",
      "eventForecast": ""
    },
    {
      "eventDateTime": "2007-01-01T09:00:00",
      "eventActual": "0.30%",
      "eventCountry": "Australia",
      "eventExpectedVolatility": "Low",
      "eventName": "MI Inflation Gauge (MoM) (Dec)",
      "eventTimeZone": "GMT",
      "eventPrevious": "0.20%",
      "eventCurrency": "AUD",
      "eventForecast": ""
    },
    {
      "eventDateTime": "2007-01-01T09:00:00",
      "eventActual": "6.00",
      "eventCountry": "Australia",
      "eventExpectedVolatility": "Moderate",
      "eventName": "NAB Business Confidence (Dec)",
      "eventTimeZone": "GMT",
      "eventPrevious": "7.00",
      "eventCurrency": "AUD",
      "eventForecast": ""
    },
    {
      "eventDateTime": "2007-01-01T09:00:00",
      "eventActual": "9.40",
      "eventCountry": "Australia",
      "eventExpectedVolatility": "Low",
      "eventName": "NAB Business Survey (Dec)",
      "eventTimeZone": "GMT",
      "eventPrevious": "14.70",
      "eventCurrency": "AUD",
      "eventForecast": ""
    },
    {
      "eventDateTime": "2007-01-01T09:00:00",
      "eventActual": "65.10%",
      "eventCountry": "Australia",
      "eventExpectedVolatility": "Low",
      "eventName": "Participation Rate (Dec)",
      "eventTimeZone": "GMT",
      "eventPrevious": "64.80%",
      "eventCurrency": "AUD",
      "eventForecast": ""
    },
    {
      "eventDateTime": "2007-01-01T09:00:00",
      "eventActual": "-0.80%",
      "eventCountry": "Australia",
      "eventExpectedVolatility": "Low",
      "eventName": "Private House Approvals (Dec)",
      "eventTimeZone": "GMT",
      "eventPrevious": "5.30%",
      "eventCurrency": "AUD",
      "eventForecast": ""
    },
    {
      "eventDateTime": "2007-01-01T09:00:00",
      "eventActual": "1.10%",
      "eventCountry": "Australia",
      "eventExpectedVolatility": "Moderate",
      "eventName": "Private Sector Credit (MoM) (Dec)",
      "eventTimeZone": "GMT",
      "eventPrevious": "1.10%",
      "eventCurrency": "AUD",
      "eventForecast": ""
    },
    {
      "eventDateTime": "2007-01-01T09:00:00",
      "eventActual": "6.25%",
      "eventCountry": "Australia",
      "eventExpectedVolatility": "High",
      "eventName": "RBA Interest Rate Decision (Dec)",
      "eventTimeZone": "GMT",
      "eventPrevious": "6.25%",
      "eventCurrency": "AUD",
      "eventForecast": ""
    },
    {
      "eventDateTime": "2007-01-01T09:00:00",
      "eventActual": "0.30%",
      "eventCountry": "Australia",
      "eventExpectedVolatility": "High",
      "eventName": "Retail Sales (MoM) (Dec)",
      "eventTimeZone": "GMT",
      "eventPrevious": "0.10%",
      "eventCurrency": "AUD",
      "eventForecast": ""
    },
    {
      "eventDateTime": "2007-01-01T09:00:00",
      "eventActual": "-1.65B",
      "eventCountry": "Australia",
      "eventExpectedVolatility": "Moderate",
      "eventName": "Trade Balance (Dec)",
      "eventTimeZone": "GMT",
      "eventPrevious": "-0.78B",
      "eventCurrency": "AUD",
      "eventForecast": ""
    },
    {
      "eventDateTime": "2007-01-01T09:00:00",
      "eventActual": "4.60%",
      "eventCountry": "Australia",
      "eventExpectedVolatility": "Moderate",
      "eventName": "Unemployment Rate (Dec)",
      "eventTimeZone": "GMT",
      "eventPrevious": "4.50%",
      "eventCurrency": "AUD",
      "eventForecast": ""
    },
    {
      "eventDateTime": "2007-01-01T09:00:00",
      "eventActual": "11.80%",
      "eventCountry": "Australia",
      "eventExpectedVolatility": "Moderate",
      "eventName": "Westpac Consumer Sentiment (Dec)",
      "eventTimeZone": "GMT",
      "eventPrevious": "-9.70%",
      "eventCurrency": "AUD",
      "eventForecast": ""
    }
  ]}}
