"AIG Construction Index (Dec)";"Australia";"AUD";"2007-01-01T09:00:00";"GMT";"50.00";"";"50.00";"Low"
"AIG Manufacturing Index (Dec)";"Australia";"AUD";"2007-01-01T09:00:00";"GMT";"53.72";"";"53.10";"Moderate"
"AIG Services Index (Dec)";"Australia";"AUD";"2007-01-01T09:00:00";"GMT";"50.42";"";"50.55";"Low"
"ANZ Internet Job Ads (MoM) (Dec)";"Australia";"AUD";"2007-01-01T09:00:00";"GMT";"0.50%";"";"5.90%";"Low"
"ANZ Newspaper Job Ads (MoM) (Dec)";"Australia";"AUD";"2007-01-01T09:00:00";"GMT";"-0.60%";"";"2.10%";"Low"
"Building Approvals (MoM) (Dec)";"Australia";"AUD";"2007-01-01T09:00:00";"GMT";"6.30%";"";"-2.00%";"Moderate"
"Employment Change (Dec)";"Australia";"AUD";"2007-01-01T09:00:00";"GMT";"28.20K";"";"56.10K";"High"
"Exports (MoM) (Dec)";"Australia";"AUD";"2007-01-01T09:00:00";"GMT";"-0.60%";"";"-0.30%";"Low"
"Full Employment Change (Dec)";"Australia";"AUD";"2007-01-01T09:00:00";"GMT";"19.30K";"";"47.10K";"Moderate"
"HIA New Home Sales (MoM) (Dec)";"Australia";"AUD";"2007-01-01T09:00:00";"GMT";"-5.30%";"";"6.00%";"Moderate"
"Home Loans (MoM) (Dec)";"Australia";"AUD";"2007-01-01T09:00:00";"GMT";"-0.60%";"";"-1.10%";"Moderate"
"Housing Credit (Dec)";"Australia";"AUD";"2007-01-01T09:00:00";"GMT";"0.90%";"";"0.70%";"Low"
"Imports (MoM) (Dec)";"Australia";"AUD";"2007-01-01T09:00:00";"GMT";"-5.20%";"";"4.30%";"Low"
"Invest Housing Finance (MoM) (Dec)";"Australia";"AUD";"2007-01-01T09:00:00";"GMT";"2.50%";"";"5.40%";"Low"
"MI Inflation Gauge (MoM) (Dec)";"Australia";"AUD";"2007-01-01T09:00:00";"GMT";"0.20%";"";"0.30%";"Low"
"NAB Business Confidence (Dec)";"Australia";"AUD";"2007-01-01T09:00:00";"GMT";"7.00";"";"6.00";"Moderate"
"NAB Business Survey (Dec)";"Australia";"AUD";"2007-01-01T09:00:00";"GMT";"14.70";"";"9.40";"Low"
"Participation Rate (Dec)";"Australia";"AUD";"2007-01-01T09:00:00";"GMT";"64.80%";"";"65.10%";"Low"
"Private House Approvals (Dec)";"Australia";"AUD";"2007-01-01T09:00:00";"GMT";"5.30%";"";"-0.80%";"Low"
"Private Sector Credit (MoM) (Dec)";"Australia";"AUD";"2007-01-01T09:00:00";"GMT";"1.10%";"";"1.10%";"Moderate"
"RBA Interest Rate Decision (Dec)";"Australia";"AUD";"2007-01-01T09:00:00";"GMT";"6.25%";"";"6.25%";"High"
"Retail Sales (MoM) (Dec)";"Australia";"AUD";"2007-01-01T09:00:00";"GMT";"0.10%";"";"0.30%";"High"
"Trade Balance (Dec)";"Australia";"AUD";"2007-01-01T09:00:00";"GMT";"-0.78B";"";"-1.65B";"Moderate"
"Unemployment Rate (Dec)";"Australia";"AUD";"2007-01-01T09:00:00";"GMT";"4.50%";"";"4.60%";"Moderate"
"Westpac Consumer Sentiment (Dec)";"Australia";"AUD";"2007-01-01T09:00:00";"GMT";"-9.70%";"";"11.80%";"Moderate"
