{"events": {"event": {
    "eventDateTime": "2018-12-28T09:30:00",
    "eventActual": "39.4K",
    "eventCountry": "United Kingdom",
    "eventExpectedVolatility": "Moderate",
    "eventName": "Gross Mortgage Approvals",
    "eventTimeZone": "GMT",
    "eventPrevious": "39.7K",
    "eventCurrency": "GBP",
    "eventForecast": "38.9K"
  }}}
