{"events": {"event": [
    {
      "eventDateTime": "2010-03-19T02:00:00",
      "eventActual": "1.1%",
      "eventCountry": "New Zealand",
      "eventExpectedVolatility": "Low",
      "eventName": "Credit Card Spending (YoY)",
      "eventTimeZone": "GMT",
      "eventPrevious": "2.7%",
      "eventCurrency": "NZD",
      "eventForecast": ""
    },
    {
      "eventDateTime": "2010-03-19T19:30:00",
      "eventActual": "2.8K",
      "eventCountry": "New Zealand",
      "eventExpectedVolatility": "Low",
      "eventName": "CFTC NZD speculative net positions",
      "eventTimeZone": "GMT",
      "eventPrevious": "3.2K",
      "eventCurrency": "NZD",
      "eventForecast": ""
    }
  ]}}
