{"events": {"event": [
    {
      "eventDateTime": "2019-12-08T23:50:00",
      "eventActual": "2.1%",
      "eventCountry": "Japan",
      "eventExpectedVolatility": "Low",
      "eventName": "Bank Lending (YoY) (Nov)",
      "eventTimeZone": "GMT",
      "eventPrevious": "2.0%",
      "eventCurrency": "JPY",
      "eventForecast": ""
    },
    {
      "eventDateTime": "2019-12-08T23:50:00",
      "eventActual": "1.817T",
      "eventCountry": "Japan",
      "eventExpectedVolatility": "Moderate",
      "eventName": "Current Account n.s.a. (Oct)",
      "eventTimeZone": "GMT",
      "eventPrevious": "1.613T",
      "eventCurrency": "JPY",
      "eventForecast": "1.798T"
    },
    {
      "eventDateTime": "2019-12-08T23:50:00",
      "eventActual": "0.4%",
      "eventCountry": "Japan",
      "eventExpectedVolatility": "High",
      "eventName": "GDP (QoQ) (Q3)",
      "eventTimeZone": "GMT",
      "eventPrevious": "0.1%",
      "eventCurrency": "JPY",
      "eventForecast": "0.2%"
    },
    {
      "eventDateTime": "2019-12-08T23:50:00",
      "eventActual": "1.8%",
      "eventCountry": "Japan",
      "eventExpectedVolatility": "Moderate",
      "eventName": "GDP (YoY) (Q3)",
      "eventTimeZone": "GMT",
      "eventPrevious": "0.2%",
      "eventCurrency": "JPY",
      "eventForecast": "0.7%"
    },
    {
      "eventDateTime": "2019-12-08T23:50:00",
      "eventActual": "1.8%",
      "eventCountry": "Japan",
      "eventExpectedVolatility": "Low",
      "eventName": "GDP Capital Expenditure (QoQ) (Q3)",
      "eventTimeZone": "GMT",
      "eventPrevious": "0.9%",
      "eventCurrency": "JPY",
      "eventForecast": "1.7%"
    },
    {
      "eventDateTime": "2019-12-08T23:50:00",
      "eventActual": "-0.2%",
      "eventCountry": "Japan",
      "eventExpectedVolatility": "Low",
      "eventName": "GDP External Demand (QoQ) (Q3)",
      "eventTimeZone": "GMT",
      "eventPrevious": "-0.2%",
      "eventCurrency": "JPY",
      "eventForecast": ""
    },
    {
      "eventDateTime": "2019-12-08T23:50:00",
      "eventActual": "0.6%",
      "eventCountry": "Japan",
      "eventExpectedVolatility": "Low",
      "eventName": "GDP Price Index (YoY)",
      "eventTimeZone": "GMT",
      "eventPrevious": "0.6%",
      "eventCurrency": "JPY",
      "eventForecast": ""
    },
    {
      "eventDateTime": "2019-12-08T23:50:00",
      "eventActual": "0.5%",
      "eventCountry": "Japan",
      "eventExpectedVolatility": "Low",
      "eventName": "GDP Private Consumption (QoQ) (Q3)",
      "eventTimeZone": "GMT",
      "eventPrevious": "0.4%",
      "eventCurrency": "JPY",
      "eventForecast": ""
    }
  ]}}
