"Retail Sales (MoM)";"United Kingdom";"GBP";"2013-02-15T09:30:00";"GMT";"-0.3%";"0.4%";"-0.6%";"High"
"Retail Sales (YoY)";"United Kingdom";"GBP";"2013-02-15T09:30:00";"GMT";"0.1%";"0.8%";"-0.6%";"Moderate"
"CFTC GBP speculative net positions";"United Kingdom";"GBP";"2013-02-15T20:30:00";"GMT";"1.2K";"";"-16.8K";"Moderate"
