"Core Retail Sales (MoM) (Jun)";"United Kingdom";"GBP";"2017-07-20T08:30:00";"GMT";"-1.5%";"0.5%";"0.9%";"Moderate"
"Core Retail Sales (YoY) (Jun)";"United Kingdom";"GBP";"2017-07-20T08:30:00";"GMT";"0.6%";"2.5%";"3.0%";"Moderate"
"Retail Sales (MoM) (Jun)";"United Kingdom";"GBP";"2017-07-20T08:30:00";"GMT";"-1.1%";"0.4%";"0.6%";"High"
"Retail Sales (YoY) (Jun)";"United Kingdom";"GBP";"2017-07-20T08:30:00";"GMT";"0.9%";"2.5%";"2.9%";"Moderate"
