{"events": {"event": {
    "eventDateTime": "2014-10-31T19:30:00",
    "eventActual": "-20.3K",
    "eventCountry": "Switzerland",
    "eventExpectedVolatility": "Low",
    "eventName": "CFTC CHF speculative net positions",
    "eventTimeZone": "GMT",
    "eventPrevious": "-17.9K",
    "eventCurrency": "CHF",
    "eventForecast": ""
  }}}
