{"events": {"event": [
    {
      "eventDateTime": "2005-09-01T09:00:00",
      "eventActual": "117.00",
      "eventCountry": "South Africa",
      "eventExpectedVolatility": "Low",
      "eventName": "Business Confidence (Aug)",
      "eventTimeZone": "GMT",
      "eventPrevious": "119.70",
      "eventCurrency": "ZAR",
      "eventForecast": ""
    },
    {
      "eventDateTime": "2005-09-01T09:00:00",
      "eventActual": "0.31%",
      "eventCountry": "South Africa",
      "eventExpectedVolatility": "Moderate",
      "eventName": "CPI (MoM) (Aug)",
      "eventTimeZone": "GMT",
      "eventPrevious": "0.95%",
      "eventCurrency": "ZAR",
      "eventForecast": ""
    },
    {
      "eventDateTime": "2005-09-01T09:00:00",
      "eventActual": "3.73%",
      "eventCountry": "South Africa",
      "eventExpectedVolatility": "Low",
      "eventName": "CPI (YoY) (Aug)",
      "eventTimeZone": "GMT",
      "eventPrevious": "3.41%",
      "eventCurrency": "ZAR",
      "eventForecast": ""
    },
    {
      "eventDateTime": "2005-09-01T09:00:00",
      "eventActual": "18.96B",
      "eventCountry": "South Africa",
      "eventExpectedVolatility": "Low",
      "eventName": "Foreign Reserves (USD) (Aug)",
      "eventTimeZone": "GMT",
      "eventPrevious": "18.88B",
      "eventCurrency": "ZAR",
      "eventForecast": ""
    },
    {
      "eventDateTime": "2005-09-01T09:00:00",
      "eventActual": "-21.29%",
      "eventCountry": "South Africa",
      "eventExpectedVolatility": "Low",
      "eventName": "Gold Production (YoY) (Aug)",
      "eventTimeZone": "GMT",
      "eventPrevious": "-17.02%",
      "eventCurrency": "ZAR",
      "eventForecast": ""
    },
    {
      "eventDateTime": "2005-09-01T09:00:00",
      "eventActual": "7.00%",
      "eventCountry": "South Africa",
      "eventExpectedVolatility": "Moderate",
      "eventName": "Interest Rate Decision (Aug)",
      "eventTimeZone": "GMT",
      "eventPrevious": "7.00%",
      "eventCurrency": "ZAR",
      "eventForecast": ""
    },
    {
      "eventDateTime": "2005-09-01T09:00:00",
      "eventActual": "19.00%",
      "eventCountry": "South Africa",
      "eventExpectedVolatility": "Low",
      "eventName": "M3 Money Supply (YoY) (Aug)",
      "eventTimeZone": "GMT",
      "eventPrevious": "19.86%",
      "eventCurrency": "ZAR",
      "eventForecast": ""
    },
    {
      "eventDateTime": "2005-09-01T09:00:00",
      "eventActual": "0.00%",
      "eventCountry": "South Africa",
      "eventExpectedVolatility": "Low",
      "eventName": "Mining Production (Aug)",
      "eventTimeZone": "GMT",
      "eventPrevious": "-4.82%",
      "eventCurrency": "ZAR",
      "eventForecast": ""
    },
    {
      "eventDateTime": "2005-09-01T09:00:00",
      "eventActual": "15.50B",
      "eventCountry": "South Africa",
      "eventExpectedVolatility": "Low",
      "eventName": "Net FX Reserves (USD) (Aug)",
      "eventTimeZone": "GMT",
      "eventPrevious": "15.37B",
      "eventCurrency": "ZAR",
      "eventForecast": ""
    },
    {
      "eventDateTime": "2005-09-01T09:00:00",
      "eventActual": "10.50%",
      "eventCountry": "South Africa",
      "eventExpectedVolatility": "Low",
      "eventName": "Prime Rate (Aug)",
      "eventTimeZone": "GMT",
      "eventPrevious": "10.50%",
      "eventCurrency": "ZAR",
      "eventForecast": ""
    },
    {
      "eventDateTime": "2005-09-01T09:00:00",
      "eventActual": "22.73%",
      "eventCountry": "South Africa",
      "eventExpectedVolatility": "Low",
      "eventName": "Private Sector Credit (Aug)",
      "eventTimeZone": "GMT",
      "eventPrevious": "24.16%",
      "eventCurrency": "ZAR",
      "eventForecast": ""
    },
    {
      "eventDateTime": "2005-09-01T09:00:00",
      "eventActual": "10.70%",
      "eventCountry": "South Africa",
      "eventExpectedVolatility": "Low",
      "eventName": "Retail Sales (YoY) (Aug)",
      "eventTimeZone": "GMT",
      "eventPrevious": "5.10%",
      "eventCurrency": "ZAR",
      "eventForecast": ""
    },
    {
      "eventDateTime": "2005-09-01T09:00:00",
      "eventActual": "53.18K",
      "eventCountry": "South Africa",
      "eventExpectedVolatility": "Low",
      "eventName": "Total Vehicle Sales (Aug)",
      "eventTimeZone": "GMT",
      "eventPrevious": "46.81K",
      "eventCurrency": "ZAR",
      "eventForecast": ""
    },
    {
      "eventDateTime": "2005-09-01T09:00:00",
      "eventActual": "29.30%",
      "eventCountry": "South Africa",
      "eventExpectedVolatility": "Low",
      "eventName": "Total Vehicle Sales (YoY) (Aug)",
      "eventTimeZone": "GMT",
      "eventPrevious": "19.40%",
      "eventCurrency": "ZAR",
      "eventForecast": ""
    }
  ]}}
