{"events": {"event": [
    {
      "eventDateTime": "2010-03-19T04:30:00",
      "eventActual": "3.8%",
      "eventCountry": "Japan",
      "eventExpectedVolatility": "Low",
      "eventName": "All Industries Activity Index (MoM)",
      "eventTimeZone": "GMT",
      "eventPrevious": "-0.2%",
      "eventCurrency": "JPY",
      "eventForecast": "1.5%"
    },
    {
      "eventDateTime": "2010-03-19T19:30:00",
      "eventActual": "15.2K",
      "eventCountry": "Japan",
      "eventExpectedVolatility": "Moderate",
      "eventName": "CFTC JPY speculative net positions",
      "eventTimeZone": "GMT",
      "eventPrevious": "26.3K",
      "eventCurrency": "JPY",
      "eventForecast": ""
    }
  ]}}
