{"events": {"event": [
    {
      "eventDateTime": "2016-03-14T07:30:00",
      "eventActual": "26.7%",
      "eventCountry": "Euro Zone",
      "eventExpectedVolatility": "Moderate",
      "eventName": "Investing.com EUR/USD Index",
      "eventTimeZone": "GMT",
      "eventPrevious": "22.6%",
      "eventCurrency": "EUR",
      "eventForecast": ""
    },
    {
      "eventDateTime": "2016-03-14T10:00:00",
      "eventActual": "2.1%",
      "eventCountry": "Euro Zone",
      "eventExpectedVolatility": "Moderate",
      "eventName": "Industrial Production (MoM) (Jan)",
      "eventTimeZone": "GMT",
      "eventPrevious": "-0.5%",
      "eventCurrency": "EUR",
      "eventForecast": "1.7%"
    },
    {
      "eventDateTime": "2016-03-14T10:00:00",
      "eventActual": "2.8%",
      "eventCountry": "Euro Zone",
      "eventExpectedVolatility": "Low",
      "eventName": "Industrial Production (YoY) (Jan)",
      "eventTimeZone": "GMT",
      "eventPrevious": "-0.1%",
      "eventCurrency": "EUR",
      "eventForecast": "1.4%"
    },
    {
      "eventDateTime": "2016-03-14T10:35:00",
      "eventActual": "-0.481%",
      "eventCountry": "Germany",
      "eventExpectedVolatility": "Low",
      "eventName": "German 6-Month Bubill Auction",
      "eventTimeZone": "GMT",
      "eventPrevious": "-0.435%",
      "eventCurrency": "EUR",
      "eventForecast": ""
    },
    {
      "eventDateTime": "2016-03-14T14:00:00",
      "eventActual": "-0.418%",
      "eventCountry": "France",
      "eventExpectedVolatility": "Low",
      "eventName": "French 12-Month BTF Auction",
      "eventTimeZone": "GMT",
      "eventPrevious": "-0.453%",
      "eventCurrency": "EUR",
      "eventForecast": ""
    },
    {
      "eventDateTime": "2016-03-14T14:00:00",
      "eventActual": "-0.425%",
      "eventCountry": "France",
      "eventExpectedVolatility": "Low",
      "eventName": "French 3-Month BTF Auction",
      "eventTimeZone": "GMT",
      "eventPrevious": "-0.433%",
      "eventCurrency": "EUR",
      "eventForecast": ""
    },
    {
      "eventDateTime": "2016-03-14T14:00:00",
      "eventActual": "-0.419%",
      "eventCountry": "France",
      "eventExpectedVolatility": "Low",
      "eventName": "French 6-Month BTF Auction",
      "eventTimeZone": "GMT",
      "eventPrevious": "-0.438%",
      "eventCurrency": "EUR",
      "eventForecast": ""
    }
  ]}}
