{"events": {"event": {
    "eventDateTime": "2006-12-19T09:00:00",
    "eventActual": "108.7",
    "eventCountry": "Germany",
    "eventExpectedVolatility": "High",
    "eventName": "German Ifo Business Climate Index",
    "eventTimeZone": "GMT",
    "eventPrevious": "106.8",
    "eventCurrency": "EUR",
    "eventForecast": "106.8"
  }}}
