"Continuing Jobless Claims";"United States";"USD";"2013-08-08T12:30:00";"GMT";"2,951K";"2,950K";"3,018K";"Low"
"Initial Jobless Claims";"United States";"USD";"2013-08-08T12:30:00";"GMT";"328K";"336K";"333K";"Moderate"
"Bloomberg Consumer Confidence";"United States";"USD";"2013-08-08T13:45:00";"GMT";"36.5";"";"38.25";"Low"
"MBA Delinquency Rates (QoQ)";"United States";"USD";"2013-08-08T14:00:00";"GMT";"7.25%";"";"6.96%";"Low"
"Natural Gas Storage";"United States";"USD";"2013-08-08T14:30:00";"GMT";"59B";"77B";"96B";"Low"
"30-Year Bond Auction";"United States";"USD";"2013-08-08T17:00:00";"GMT";"3.660%";"";"3.652%";"Low"
