{"events": {"event": [
    {
      "eventDateTime": "2013-08-08T12:30:00",
      "eventActual": "3,018K",
      "eventCountry": "United States",
      "eventExpectedVolatility": "Low",
      "eventName": "Continuing Jobless Claims",
      "eventTimeZone": "GMT",
      "eventPrevious": "2,951K",
      "eventCurrency": "USD",
      "eventForecast": "2,950K"
    },
    {
      "eventDateTime": "2013-08-08T12:30:00",
      "eventActual": "333K",
      "eventCountry": "United States",
      "eventExpectedVolatility": "Moderate",
      "eventName": "Initial Jobless Claims",
      "eventTimeZone": "GMT",
      "eventPrevious": "328K",
      "eventCurrency": "USD",
      "eventForecast": "336K"
    },
    {
      "eventDateTime": "2013-08-08T13:45:00",
      "eventActual": "38.25",
      "eventCountry": "United States",
      "eventExpectedVolatility": "Low",
      "eventName": "Bloomberg Consumer Confidence",
      "eventTimeZone": "GMT",
      "eventPrevious": "36.5",
      "eventCurrency": "USD",
      "eventForecast": ""
    },
    {
      "eventDateTime": "2013-08-08T14:00:00",
      "eventActual": "6.96%",
      "eventCountry": "United States",
      "eventExpectedVolatility": "Low",
      "eventName": "MBA Delinquency Rates (QoQ)",
      "eventTimeZone": "GMT",
      "eventPrevious": "7.25%",
      "eventCurrency": "USD",
      "eventForecast": ""
    },
    {
      "eventDateTime": "2013-08-08T14:30:00",
      "eventActual": "96B",
      "eventCountry": "United States",
      "eventExpectedVolatility": "Low",
      "eventName": "Natural Gas Storage",
      "eventTimeZone": "GMT",
      "eventPrevious": "59B",
      "eventCurrency": "USD",
      "eventForecast": "77B"
    },
    {
      "eventDateTime": "2013-08-08T17:00:00",
      "eventActual": "3.652%",
      "eventCountry": "United States",
      "eventExpectedVolatility": "Low",
      "eventName": "30-Year Bond Auction",
      "eventTimeZone": "GMT",
      "eventPrevious": "3.660%",
      "eventCurrency": "USD",
      "eventForecast": ""
    }
  ]}}
