"Markit Composite PMI (Dec)";"Brazil";"BRL";"2016-01-06T12:00:00";"GMT";"44.5";"43.8";"43.9";"Low"
"Markit Services PMI (Dec)";"Brazil";"BRL";"2016-01-06T12:00:00";"GMT";"45.5";"44.5";"43.5";"Low"
"Foreign Exchange Flows";"Brazil";"BRL";"2016-01-06T14:30:00";"GMT";"0.81B";"";"-2.15B";"Low"
