{"events": {"event": [
    {
      "eventDateTime": "2001-01-05T12:30:00",
      "eventActual": "142K",
      "eventCountry": "United States",
      "eventExpectedVolatility": "High",
      "eventName": "Nonfarm Payrolls (Dec)",
      "eventTimeZone": "GMT",
      "eventPrevious": "225K",
      "eventCurrency": "USD",
      "eventForecast": ""
    },
    {
      "eventDateTime": "2001-01-05T17:00:00",
      "eventActual": "244",
      "eventCountry": "United States",
      "eventExpectedVolatility": "Moderate",
      "eventName": "U.S. Baker Hughes Oil Rig Count",
      "eventTimeZone": "GMT",
      "eventPrevious": "234",
      "eventCurrency": "USD",
      "eventForecast": ""
    },
    {
      "eventDateTime": "2001-01-05T20:30:00",
      "eventActual": "-11.5k",
      "eventCountry": "United States",
      "eventExpectedVolatility": "Moderate",
      "eventName": "CFTC Crude Oil speculative net positions",
      "eventTimeZone": "GMT",
      "eventPrevious": "-4.9k",
      "eventCurrency": "USD",
      "eventForecast": ""
    }
  ]}}
