{"events": {"event": {
    "eventDateTime": "2001-04-13T20:30:00",
    "eventActual": "-13.6k",
    "eventCountry": "United States",
    "eventExpectedVolatility": "Moderate",
    "eventName": "CFTC Crude Oil speculative net positions",
    "eventTimeZone": "GMT",
    "eventPrevious": "-39.4k",
    "eventCurrency": "USD",
    "eventForecast": ""
  }}}
