{"events": {"event": [
    {
      "eventDateTime": "2012-11-30T00:01:00",
      "eventActual": "-22",
      "eventCountry": "United Kingdom",
      "eventExpectedVolatility": "Low",
      "eventName": "GfK Consumer Confidence",
      "eventTimeZone": "GMT",
      "eventPrevious": "-30",
      "eventCurrency": "GBP",
      "eventForecast": "-30"
    },
    {
      "eventDateTime": "2012-11-30T20:30:00",
      "eventActual": "10.3K",
      "eventCountry": "United Kingdom",
      "eventExpectedVolatility": "Moderate",
      "eventName": "CFTC GBP speculative net positions",
      "eventTimeZone": "GMT",
      "eventPrevious": "0.7K",
      "eventCurrency": "GBP",
      "eventForecast": ""
    }
  ]}}
