{"events": {"event": {
    "eventDateTime": "2018-04-03T05:00:00",
    "eventActual": "51.0",
    "eventCountry": "India",
    "eventExpectedVolatility": "Low",
    "eventName": "Nikkei Markit Manufacturing PMI (Mar)",
    "eventTimeZone": "GMT",
    "eventPrevious": "52.1",
    "eventCurrency": "INR",
    "eventForecast": "52.8"
  }}}
