{"events": {"event": {
    "eventDateTime": "2017-09-22T19:30:00",
    "eventActual": "-1.6K",
    "eventCountry": "Switzerland",
    "eventExpectedVolatility": "Low",
    "eventName": "CFTC CHF speculative net positions",
    "eventTimeZone": "GMT",
    "eventPrevious": "-1.3K",
    "eventCurrency": "CHF",
    "eventForecast": ""
  }}}
