{"events": {"event": [
    {
      "eventDateTime": "2016-08-01T06:30:00",
      "eventActual": "20.3%",
      "eventCountry": "Euro Zone",
      "eventExpectedVolatility": "Moderate",
      "eventName": "Investing.com EUR/USD Index",
      "eventTimeZone": "GMT",
      "eventPrevious": "30.2%",
      "eventCurrency": "EUR",
      "eventForecast": ""
    },
    {
      "eventDateTime": "2016-08-01T07:15:00",
      "eventActual": "51.0",
      "eventCountry": "Spain",
      "eventExpectedVolatility": "Moderate",
      "eventName": "Spanish Manufacturing PMI (Jul)",
      "eventTimeZone": "GMT",
      "eventPrevious": "52.2",
      "eventCurrency": "EUR",
      "eventForecast": "51.6"
    },
    {
      "eventDateTime": "2016-08-01T07:45:00",
      "eventActual": "51.2",
      "eventCountry": "Italy",
      "eventExpectedVolatility": "Moderate",
      "eventName": "Italian Manufacturing PMI (Jul)",
      "eventTimeZone": "GMT",
      "eventPrevious": "53.5",
      "eventCurrency": "EUR",
      "eventForecast": "52.0"
    },
    {
      "eventDateTime": "2016-08-01T07:50:00",
      "eventActual": "48.6",
      "eventCountry": "France",
      "eventExpectedVolatility": "Moderate",
      "eventName": "French Manufacturing PMI (Jul)",
      "eventTimeZone": "GMT",
      "eventPrevious": "48.6",
      "eventCurrency": "EUR",
      "eventForecast": "48.6"
    },
    {
      "eventDateTime": "2016-08-01T07:55:00",
      "eventActual": "53.8",
      "eventCountry": "Germany",
      "eventExpectedVolatility": "High",
      "eventName": "German Manufacturing PMI (Jul)",
      "eventTimeZone": "GMT",
      "eventPrevious": "53.7",
      "eventCurrency": "EUR",
      "eventForecast": "53.7"
    },
    {
      "eventDateTime": "2016-08-01T08:00:00",
      "eventActual": "52.0",
      "eventCountry": "Euro Zone",
      "eventExpectedVolatility": "Moderate",
      "eventName": "Manufacturing PMI (Jul)",
      "eventTimeZone": "GMT",
      "eventPrevious": "51.9",
      "eventCurrency": "EUR",
      "eventForecast": "51.9"
    },
    {
      "eventDateTime": "2016-08-01T13:00:00",
      "eventActual": "-0.560%",
      "eventCountry": "France",
      "eventExpectedVolatility": "Low",
      "eventName": "French 12-Month BTF Auction",
      "eventTimeZone": "GMT",
      "eventPrevious": "-0.546%",
      "eventCurrency": "EUR",
      "eventForecast": ""
    },
    {
      "eventDateTime": "2016-08-01T13:00:00",
      "eventActual": "-0.570%",
      "eventCountry": "France",
      "eventExpectedVolatility": "Low",
      "eventName": "French 3-Month BTF Auction",
      "eventTimeZone": "GMT",
      "eventPrevious": "-0.572%",
      "eventCurrency": "EUR",
      "eventForecast": ""
    },
    {
      "eventDateTime": "2016-08-01T13:00:00",
      "eventActual": "-0.556%",
      "eventCountry": "France",
      "eventExpectedVolatility": "Low",
      "eventName": "French 6-Month BTF Auction",
      "eventTimeZone": "GMT",
      "eventPrevious": "-0.555%",
      "eventCurrency": "EUR",
      "eventForecast": ""
    }
  ]}}
