{"events": {"event": [
    {
      "eventDateTime": "2016-12-09T07:00:00",
      "eventActual": "0.5%",
      "eventCountry": "Germany",
      "eventExpectedVolatility": "Low",
      "eventName": "German Exports (MoM) (Oct)",
      "eventTimeZone": "GMT",
      "eventPrevious": "-1.0%",
      "eventCurrency": "EUR",
      "eventForecast": "1.0%"
    },
    {
      "eventDateTime": "2016-12-09T07:00:00",
      "eventActual": "1.3%",
      "eventCountry": "Germany",
      "eventExpectedVolatility": "Low",
      "eventName": "German Imports (MoM) (Oct)",
      "eventTimeZone": "GMT",
      "eventPrevious": "-0.7%",
      "eventCurrency": "EUR",
      "eventForecast": "0.9%"
    },
    {
      "eventDateTime": "2016-12-09T07:00:00",
      "eventActual": "20.5B",
      "eventCountry": "Germany",
      "eventExpectedVolatility": "Moderate",
      "eventName": "German Trade Balance (Oct)",
      "eventTimeZone": "GMT",
      "eventPrevious": "21.1B",
      "eventCurrency": "EUR",
      "eventForecast": "21.5B"
    },
    {
      "eventDateTime": "2016-12-09T07:45:00",
      "eventActual": "-85.5B",
      "eventCountry": "France",
      "eventExpectedVolatility": "Low",
      "eventName": "French Government Budget Balance (Oct)",
      "eventTimeZone": "GMT",
      "eventPrevious": "-83.0B",
      "eventCurrency": "EUR",
      "eventForecast": ""
    },
    {
      "eventDateTime": "2016-12-09T07:45:00",
      "eventActual": "-0.2%",
      "eventCountry": "France",
      "eventExpectedVolatility": "Low",
      "eventName": "French Industrial Production (MoM) (Oct)",
      "eventTimeZone": "GMT",
      "eventPrevious": "-1.4%",
      "eventCurrency": "EUR",
      "eventForecast": "0.6%"
    },
    {
      "eventDateTime": "2016-12-09T20:30:00",
      "eventActual": "-114.6K",
      "eventCountry": "Euro Zone",
      "eventExpectedVolatility": "Moderate",
      "eventName": "CFTC EUR speculative net positions",
      "eventTimeZone": "GMT",
      "eventPrevious": "-119.2K",
      "eventCurrency": "EUR",
      "eventForecast": ""
    }
  ]}}
