"CPI (YoY) (Dec)";"Hong Kong";"HKD";"2003-01-01T09:00:00";"GMT";"-3.70%";"";"-1.50%";"Low"
"Exports (MoM) (Dec)";"Hong Kong";"HKD";"2003-01-01T09:00:00";"GMT";"17.30%";"";"16.60%";"Low"
"Foreign Reserves (USD) (Dec)";"Hong Kong";"HKD";"2003-01-01T09:00:00";"GMT";"110.96B";"";"111.92B";"Low"
"Imports (MoM) (Dec)";"Hong Kong";"HKD";"2003-01-01T09:00:00";"GMT";"15.20%";"";"16.20%";"Low"
"M3 Money Supply (Dec)";"Hong Kong";"HKD";"2003-01-01T09:00:00";"GMT";"-0.79%";"";"-0.58%";"Low"
"Retail Sales (YoY) (Dec)";"Hong Kong";"HKD";"2003-01-01T09:00:00";"GMT";"-2.80%";"";"-1.80%";"Low"
"Unemployment Rate (Dec)";"Hong Kong";"HKD";"2003-01-01T09:00:00";"GMT";"7.30%";"";"7.40%";"Low"
