"10-Year Note Auction (Sep)";"United States";"USD";"2010-10-01T09:00:00";"GMT";"2.63%";"";"2.63%";"Moderate"
"3-Year Note Auction (Sep)";"United States";"USD";"2010-10-01T09:00:00";"GMT";"0.75%";"";"0.75%";"Low"
"30-Year Bond Auction (Sep)";"United States";"USD";"2010-10-01T09:00:00";"GMT";"3.88%";"";"3.88%";"Low"
"5-Year Note Auction (Sep)";"United States";"USD";"2010-10-01T09:00:00";"GMT";"1.13%";"";"1.25%";"Low"
"7-Year Note Auction (Sep)";"United States";"USD";"2010-10-01T09:00:00";"GMT";"1.85%";"";"1.88%";"Low"
"All Car Sales (Sep)";"United States";"USD";"2010-10-01T09:00:00";"GMT";"5.79M";"";"5.76M";"Low"
"All Truck Sales (Sep)";"United States";"USD";"2010-10-01T09:00:00";"GMT";"6.02M";"";"5.94M";"Low"
"Building Permits (MoM) (Sep)";"United States";"USD";"2010-10-01T09:00:00";"GMT";"1.80%";"";"-5.60%";"Moderate"
"CB Employment Trends Index (Sep)";"United States";"USD";"2010-10-01T09:00:00";"GMT";"101.10";"";"101.20";"Low"
"CPI (YoY) (Sep)";"United States";"USD";"2010-10-01T09:00:00";"GMT";"1.10%";"";"1.10%";"Low"
"CPI Index, n.s.a. (Sep)";"United States";"USD";"2010-10-01T09:00:00";"GMT";"218.31";"";"218.44";"Low"
"Chain Store Sales (MoM) (Sep)";"United States";"USD";"2010-10-01T09:00:00";"GMT";"3.00%";"";"2.60%";"Low"
"Chain Store Sales (WoW) (Sep)";"United States";"USD";"2010-10-01T09:00:00";"GMT";"-0.45%";"";"-0.25%";"Low"
"Chain Store Sales (YoY) (Sep)";"United States";"USD";"2010-10-01T09:00:00";"GMT";"2.91%";"";"2.84%";"Low"
"Challenger Job Cuts (Sep)";"United States";"USD";"2010-10-01T09:00:00";"GMT";"34.77K";"";"37.15K";"Low"
"Chicago Fed National Activity (Sep)";"United States";"USD";"2010-10-01T09:00:00";"GMT";"-0.24";"";"-0.24";"Low"
"Cleveland CPI (MoM) (Sep)";"United States";"USD";"2010-10-01T09:00:00";"GMT";"0.00%";"";"0.10%";"Low"
"Continuing Jobless Claims (Sep)";"United States";"USD";"2010-10-01T09:00:00";"GMT";"4,464.86K";"";"4,453.68K";"Low"
"Core CPI (YoY) (Sep)";"United States";"USD";"2010-10-01T09:00:00";"GMT";"0.90%";"";"0.80%";"Moderate"
"Core CPI Index (Sep)";"United States";"USD";"2010-10-01T09:00:00";"GMT";"221.51";"";"221.71";"Low"
"Core PCE Price Index (YoY) (Sep)";"United States";"USD";"2010-10-01T09:00:00";"GMT";"1.30%";"";"1.20%";"Moderate"
"Dallas Fed Mfg Business Index (Sep)";"United States";"USD";"2010-10-01T09:00:00";"GMT";"-8.00";"";"-12.70";"Low"
"Dallas Fed PCE (Sep)";"United States";"USD";"2010-10-01T09:00:00";"GMT";"1.40%";"";"1.10%";"Low"
"Dallas Fed Services Revenues (Sep)";"United States";"USD";"2010-10-01T09:00:00";"GMT";"7.30";"";"5.00";"Low"
"Domestic Truck Sales (Sep)";"United States";"USD";"2010-10-01T09:00:00";"GMT";"5.06M";"";"5.01M";"Low"
"Durables Excluding Defense (MoM) (Sep)";"United States";"USD";"2010-10-01T09:00:00";"GMT";"1.40%";"";"2.90%";"Low"
"EIA Weekly Distillates Stocks (Sep)";"United States";"USD";"2010-10-01T09:00:00";"GMT";"1.23M";"";"-0.54M";"Low"
"Existing Home Sales (MoM) (Sep)";"United States";"USD";"2010-10-01T09:00:00";"GMT";"6.70%";"";"4.30%";"Moderate"
"Export Price Index (MoM) (Sep)";"United States";"USD";"2010-10-01T09:00:00";"GMT";"0.80%";"";"0.60%";"Moderate"
"Factory orders ex transportation (MoM) (Sep)";"United States";"USD";"2010-10-01T09:00:00";"GMT";"1.30%";"";"1.00%";"Low"
"Goods Orders Non Defense Ex Air (MoM) (Sep)";"United States";"USD";"2010-10-01T09:00:00";"GMT";"4.10%";"";"-0.60%";"Low"
"Government Payrolls (Sep)";"United States";"USD";"2010-10-01T09:00:00";"GMT";"-149.00K";"";"-173.00K";"Low"
"House Price Index (Sep)";"United States";"USD";"2010-10-01T09:00:00";"GMT";"188.00";"";"186.30";"Low"
"House Price Index (YoY) (Sep)";"United States";"USD";"2010-10-01T09:00:00";"GMT";"-2.70%";"";"-3.40%";"Low"
"Housing Starts (MoM) (Sep)";"United States";"USD";"2010-10-01T09:00:00";"GMT";"9.70%";"";"-0.80%";"Moderate"
"ISM Manufacturing Employment (Sep)";"United States";"USD";"2010-10-01T09:00:00";"GMT";"62.10";"";"57.90";"Moderate"
"ISM Manufacturing New Orders Index (Sep)";"United States";"USD";"2010-10-01T09:00:00";"GMT";"56.90";"";"53.50";"Low"
"ISM Non-Manufacturing Business Activity (Sep)";"United States";"USD";"2010-10-01T09:00:00";"GMT";"55.80";"";"53.30";"Low"
"ISM Non-Manufacturing Employment (Sep)";"United States";"USD";"2010-10-01T09:00:00";"GMT";"48.90";"";"51.50";"Moderate"
"ISM Non-Manufacturing New Orders (Sep)";"United States";"USD";"2010-10-01T09:00:00";"GMT";"55.10";"";"54.70";"Low"
"ISM Non-Manufacturing Prices (Sep)";"United States";"USD";"2010-10-01T09:00:00";"GMT";"58.30";"";"60.30";"Low"
"ISM-New York Index (Sep)";"United States";"USD";"2010-10-01T09:00:00";"GMT";"457.00";"";"463.60";"Low"
"JOLTs Job Openings (Sep)";"United States";"USD";"2010-10-01T09:00:00";"GMT";"2.87M";"";"2.78M";"High"
"Jobless Claims 4-Week Avg. (Sep)";"United States";"USD";"2010-10-01T09:00:00";"GMT";"474.58K";"";"456.30K";"Low"
"KC Fed Composite Index (Sep)";"United States";"USD";"2010-10-01T09:00:00";"GMT";"4.00";"";"6.00";"Low"
"KC Fed Manufacturing Index (Sep)";"United States";"USD";"2010-10-01T09:00:00";"GMT";"9.00";"";"16.00";"Low"
"MBA 30-Year Mortgage Rate (Sep)";"United States";"USD";"2010-10-01T09:00:00";"GMT";"4.53%";"";"4.41%";"Low"
"MBA Purchase Index (Sep)";"United States";"USD";"2010-10-01T09:00:00";"GMT";"173.34";"";"184.72";"Low"
"Manufacturing Payrolls (Sep)";"United States";"USD";"2010-10-01T09:00:00";"GMT";"-8.00K";"";"10.00K";"Low"
"Manufacturing Production (MoM) (Sep)";"United States";"USD";"2010-10-01T09:00:00";"GMT";"0.10%";"";"0.10%";"Low"
"Michigan 5-Year Inflation Expectations (Sep)";"United States";"USD";"2010-10-01T09:00:00";"GMT";"2.70%";"";"2.70%";"Low"
"Michigan Consumer Expectations (Sep)";"United States";"USD";"2010-10-01T09:00:00";"GMT";"62.90";"";"59.10";"Moderate"
"Michigan Current Conditions (Sep)";"United States";"USD";"2010-10-01T09:00:00";"GMT";"78.30";"";"79.60";"Low"
"Midwest Manufacturing (Sep)";"United States";"USD";"2010-10-01T09:00:00";"GMT";"79.50";"";"80.10";"Low"
"Mortgage Market Index (Sep)";"United States";"USD";"2010-10-01T09:00:00";"GMT";"836.39";"";"802.31";"Low"
"Mortgage Refinance Index (Sep)";"United States";"USD";"2010-10-01T09:00:00";"GMT";"4,697.80";"";"4,395.99";"Low"
"NFIB Small Business Optimism (Sep)";"United States";"USD";"2010-10-01T09:00:00";"GMT";"88.80";"";"89.00";"Low"
"New Home Sales (MoM) (Sep)";"United States";"USD";"2010-10-01T09:00:00";"GMT";"-0.40%";"";"12.40%";"Moderate"
"Overall Net Capital Flow (Sep)";"United States";"USD";"2010-10-01T09:00:00";"GMT";"19.40B";"";"85.60B";"Low"
"Pending Home Sales Index (Sep)";"United States";"USD";"2010-10-01T09:00:00";"GMT";"81.20";"";"81.30";"Low"
"Philly Fed Business Conditions (Sep)";"United States";"USD";"2010-10-01T09:00:00";"GMT";"26.10";"";"29.90";"Low"
"Philly Fed CAPEX Index (Sep)";"United States";"USD";"2010-10-01T09:00:00";"GMT";"15.30";"";"9.10";"Low"
"Philly Fed Employment (Sep)";"United States";"USD";"2010-10-01T09:00:00";"GMT";"0.50";"";"4.30";"Moderate"
"Philly Fed New Orders (Sep)";"United States";"USD";"2010-10-01T09:00:00";"GMT";"0.00";"";"-2.30";"Low"
"Philly Fed Prices Paid (Sep)";"United States";"USD";"2010-10-01T09:00:00";"GMT";"20.40";"";"18.60";"Low"
"Private Nonfarm Payrolls (Sep)";"United States";"USD";"2010-10-01T09:00:00";"GMT";"110.00K";"";"124.00K";"Moderate"
"Real Earnings (MoM) (Sep)";"United States";"USD";"2010-10-01T09:00:00";"GMT";"0.00%";"";"0.00%";"Low"
"Real Personal Consumption (MoM) (Sep)";"United States";"USD";"2010-10-01T09:00:00";"GMT";"0.50%";"";"0.10%";"Low"
"Redbook (MoM) (Sep)";"United States";"USD";"2010-10-01T09:00:00";"GMT";"0.95%";"";"-0.29%";"Low"
"Redbook (YoY) (Sep)";"United States";"USD";"2010-10-01T09:00:00";"GMT";"2.84%";"";"2.63%";"Low"
"Retail Control (MoM) (Sep)";"United States";"USD";"2010-10-01T09:00:00";"GMT";"1.00%";"";"0.30%";"Low"
"Retail Sales Ex Gas/Autos (MoM) (Sep)";"United States";"USD";"2010-10-01T09:00:00";"GMT";"0.80%";"";"0.30%";"Low"
"Richmond Manufacturing Shipments (Sep)";"United States";"USD";"2010-10-01T09:00:00";"GMT";"0.00";"";"2.00";"Low"
"Richmond Services Index (Sep)";"United States";"USD";"2010-10-01T09:00:00";"GMT";"-6.00";"";"-6.00";"Low"
"Sandamp;P/CS HPI Composite - 20 n.s.a. (MoM) (Sep)";"United States";"USD";"2010-10-01T09:00:00";"GMT";"-0.30%";"";"-0.80%";"Low"
"Sandamp;P/CS HPI Composite - 20 s.a. (MoM) (Sep)";"United States";"USD";"2010-10-01T09:00:00";"GMT";"-0.60%";"";"-0.70%";"Low"
"TIC Net Long-Term Transactions including Swaps (Sep)";"United States";"USD";"2010-10-01T09:00:00";"GMT";"98.40B";"";"54.40B";"Low"
"Texas Services Sector Outlook (Sep)";"United States";"USD";"2010-10-01T09:00:00";"GMT";"0.70";"";"10.00";"Low"
"US Foreign Buying, T-bonds (Sep)";"United States";"USD";"2010-10-01T09:00:00";"GMT";"118.00B";"";"77.20B";"Low"
"Core PCE Price Index (MoM)";"United States";"USD";"2010-10-01T12:30:00";"GMT";"0.1%";"0.1%";"0.1%";"Moderate"
"Personal Income (MoM)";"United States";"USD";"2010-10-01T12:30:00";"GMT";"0.2%";"0.3%";"0.5%";"Low"
"Personal Spending (MoM)";"United States";"USD";"2010-10-01T12:30:00";"GMT";"0.4%";"0.3%";"0.4%";"Moderate"
"Michigan Consumer Sentiment";"United States";"USD";"2010-10-01T13:55:00";"GMT";"66.6";"67.1";"68.2";"Moderate"
"Michigan Inflation Expectations";"United States";"USD";"2010-10-01T13:55:00";"GMT";"2.2%";"";"2.2%";"Low"
"Construction Spending (MoM)";"United States";"USD";"2010-10-01T14:00:00";"GMT";"-1.4%";"-0.5%";"0.4%";"Low"
"ISM Manufacturing PMI";"United States";"USD";"2010-10-01T14:00:00";"GMT";"56.3";"54.5";"54.4";"High"
"ISM Manufacturing Prices";"United States";"USD";"2010-10-01T14:00:00";"GMT";"61.5";"59.3";"70.5";"Low"
"U.S. Baker Hughes Oil Rig Count";"United States";"USD";"2010-10-01T17:00:00";"GMT";"673";"";"687";"Moderate"
"CFTC Gold speculative net positions";"United States";"USD";"2010-10-01T19:30:00";"GMT";"244.0K";"";"257.6K";"Moderate"
"CFTC Silver speculative net positions";"United States";"USD";"2010-10-01T19:30:00";"GMT";"49.4K";"";"51.5K";"Low"
"CFTC Crude Oil speculative net positions";"United States";"USD";"2010-10-01T20:30:00";"GMT";"43.9k";"";"61.5k";"Moderate"
"Total Vehicle Sales";"United States";"USD";"2010-10-01T21:00:00";"GMT";"11.50M";"11.60M";"11.80M";"Low"
