{"events": {"event": [
    {
      "eventDateTime": "2014-03-11T00:30:00",
      "eventActual": "7",
      "eventCountry": "Australia",
      "eventExpectedVolatility": "Moderate",
      "eventName": "NAB Business Confidence",
      "eventTimeZone": "GMT",
      "eventPrevious": "9",
      "eventCurrency": "AUD",
      "eventForecast": ""
    },
    {
      "eventDateTime": "2014-03-11T00:30:00",
      "eventActual": "0",
      "eventCountry": "Australia",
      "eventExpectedVolatility": "Low",
      "eventName": "NAB Business Survey",
      "eventTimeZone": "GMT",
      "eventPrevious": "4",
      "eventCurrency": "AUD",
      "eventForecast": ""
    },
    {
      "eventDateTime": "2014-03-11T23:30:00",
      "eventActual": "-0.7%",
      "eventCountry": "Australia",
      "eventExpectedVolatility": "Moderate",
      "eventName": "Westpac Consumer Sentiment",
      "eventTimeZone": "GMT",
      "eventPrevious": "-3.0%",
      "eventCurrency": "AUD",
      "eventForecast": ""
    }
  ]}}
