"ANZ Business Confidence (Aug)";"New Zealand";"NZD";"2002-09-01T09:00:00";"GMT";"-21.90%";"";"-30.90%";"Moderate"
"Building Consents (MoM) (Aug)";"New Zealand";"NZD";"2002-09-01T09:00:00";"GMT";"18.10%";"";"-18.30%";"Moderate"
"Exports (Aug)";"New Zealand";"NZD";"2002-09-01T09:00:00";"GMT";"2.55B";"";"2.39B";"Low"
"External Migration andamp; Visitors (Aug)";"New Zealand";"NZD";"2002-09-01T09:00:00";"GMT";"5.39%";"";"-2.62%";"Low"
"FPI (MoM) (Aug)";"New Zealand";"NZD";"2002-09-01T09:00:00";"GMT";"0.60%";"";"0.10%";"Low"
"Imports (Aug)";"New Zealand";"NZD";"2002-09-01T09:00:00";"GMT";"2.83B";"";"2.94B";"Low"
"NBNZ Own Activity (Aug)";"New Zealand";"NZD";"2002-09-01T09:00:00";"GMT";"26.50%";"";"15.60%";"Low"
"Permanent/Long-Term Migration (Aug)";"New Zealand";"NZD";"2002-09-01T09:00:00";"GMT";"3,160.00";"";"3,560.00";"Low"
"RBNZ Interest Rate Decision (Aug)";"New Zealand";"NZD";"2002-09-01T09:00:00";"GMT";"5.73%";"";"5.75%";"High"
"RBNZ Offshore Holdings (Aug)";"New Zealand";"NZD";"2002-09-01T09:00:00";"GMT";"49.40%";"";"48.10%";"Low"
"REINZ House Price Index (MoM) (Aug)";"New Zealand";"NZD";"2002-09-01T09:00:00";"GMT";"1.80%";"";"0.70%";"Low"
"REINZ House Price Index (YoY) (Aug)";"New Zealand";"NZD";"2002-09-01T09:00:00";"GMT";"8.50%";"";"9.60%";"Low"
"Trade Balance (MoM) (Aug)";"New Zealand";"NZD";"2002-09-01T09:00:00";"GMT";"-275.80M";"";"-557.00M";"Moderate"
"Trade Balance (YoY) (Aug)";"New Zealand";"NZD";"2002-09-01T09:00:00";"GMT";"270.00M";"";"-180.00M";"Moderate"
