"BoJ Interest Rate Decision";"Japan";"JPY";"2019-01-23T03:00:00";"GMT";"-0.10%";"-0.10%";"-0.10%";"Moderate"
"BoJ Monetary Policy Statement";"Japan";"JPY";"2019-01-23T03:00:00";"GMT";" ";"";"";"High"
"BoJ Outlook Report (YoY)";"Japan";"JPY";"2019-01-23T03:00:00";"GMT";" ";"";"";"High"
"All Industries Activity Index (MoM)";"Japan";"JPY";"2019-01-23T04:30:00";"GMT";"2.1%";"-0.4%";"-0.3%";"Low"
"BoJ Press Conference";"Japan";"JPY";"2019-01-23T06:30:00";"GMT";" ";"";"";"High"
"Foreign Bonds Buying";"Japan";"JPY";"2019-01-23T23:50:00";"GMT";"2,216.1B";"";"822.9B";"Low"
"Foreign Investments in Japanese Stocks";"Japan";"JPY";"2019-01-23T23:50:00";"GMT";"-427.9B";"";"-66.7B";"Low"
