{"events": {"event": [
    {
      "eventDateTime": "2016-03-24T05:00:00",
      "eventActual": "-4.8%",
      "eventCountry": "Singapore",
      "eventExpectedVolatility": "Low",
      "eventName": "Industrial Production (MoM) (Feb)",
      "eventTimeZone": "GMT",
      "eventPrevious": "9.9%",
      "eventCurrency": "SGD",
      "eventForecast": "-2.2%"
    },
    {
      "eventDateTime": "2016-03-24T05:00:00",
      "eventActual": "-4.7%",
      "eventCountry": "Singapore",
      "eventExpectedVolatility": "Low",
      "eventName": "Industrial Production (YoY) (Feb)",
      "eventTimeZone": "GMT",
      "eventPrevious": "0.1%",
      "eventCurrency": "SGD",
      "eventForecast": "-3.7%"
    }
  ]}}
