{"events": {"event": {
    "eventDateTime": "2015-05-08T19:30:00",
    "eventActual": "0.7K",
    "eventCountry": "Russia",
    "eventExpectedVolatility": "Moderate",
    "eventName": "CFTC RUB speculative positions",
    "eventTimeZone": "GMT",
    "eventPrevious": "1.2K",
    "eventCurrency": "RUB",
    "eventForecast": ""
  }}}
