{"events": {"event": [
    {
      "eventDateTime": "2018-11-30T05:00:00",
      "eventActual": "-16.5%",
      "eventCountry": "Japan",
      "eventExpectedVolatility": "Low",
      "eventName": "Construction Orders (YoY) (Oct)",
      "eventTimeZone": "GMT",
      "eventPrevious": "1.0%",
      "eventCurrency": "JPY",
      "eventForecast": ""
    },
    {
      "eventDateTime": "2018-11-30T05:00:00",
      "eventActual": "42.9",
      "eventCountry": "Japan",
      "eventExpectedVolatility": "Low",
      "eventName": "Household Confidence (Nov)",
      "eventTimeZone": "GMT",
      "eventPrevious": "43.0",
      "eventCurrency": "JPY",
      "eventForecast": "43.3"
    },
    {
      "eventDateTime": "2018-11-30T05:00:00",
      "eventActual": "0.3%",
      "eventCountry": "Japan",
      "eventExpectedVolatility": "Low",
      "eventName": "Housing Starts (YoY) (Oct)",
      "eventTimeZone": "GMT",
      "eventPrevious": "-1.5%",
      "eventCurrency": "JPY",
      "eventForecast": "0.4%"
    },
    {
      "eventDateTime": "2018-11-30T20:30:00",
      "eventActual": "-104.3K",
      "eventCountry": "Japan",
      "eventExpectedVolatility": "Moderate",
      "eventName": "CFTC JPY speculative net positions",
      "eventTimeZone": "GMT",
      "eventPrevious": "-100.1K",
      "eventCurrency": "JPY",
      "eventForecast": ""
    }
  ]}}
