{"events": {"event": [
    {
      "eventDateTime": "2016-01-19T02:00:00",
      "eventActual": "10.0%",
      "eventCountry": "China",
      "eventExpectedVolatility": "Moderate",
      "eventName": "Fixed Asset Investment (YoY) (Dec)",
      "eventTimeZone": "GMT",
      "eventPrevious": "10.2%",
      "eventCurrency": "CNY",
      "eventForecast": "10.2%"
    },
    {
      "eventDateTime": "2016-01-19T02:00:00",
      "eventActual": "1.6%",
      "eventCountry": "China",
      "eventExpectedVolatility": "Moderate",
      "eventName": "GDP (QoQ) (Q4)",
      "eventTimeZone": "GMT",
      "eventPrevious": "1.8%",
      "eventCurrency": "CNY",
      "eventForecast": "1.7%"
    },
    {
      "eventDateTime": "2016-01-19T02:00:00",
      "eventActual": "6.8%",
      "eventCountry": "China",
      "eventExpectedVolatility": "High",
      "eventName": "GDP (YoY) (Q4)",
      "eventTimeZone": "GMT",
      "eventPrevious": "6.9%",
      "eventCurrency": "CNY",
      "eventForecast": "6.8%"
    },
    {
      "eventDateTime": "2016-01-19T02:00:00",
      "eventActual": "5.9%",
      "eventCountry": "China",
      "eventExpectedVolatility": "High",
      "eventName": "Industrial Production (YoY) (Dec)",
      "eventTimeZone": "GMT",
      "eventPrevious": "6.2%",
      "eventCurrency": "CNY",
      "eventForecast": "6.0%"
    },
    {
      "eventDateTime": "2016-01-19T02:00:00",
      "eventActual": "11.1%",
      "eventCountry": "China",
      "eventExpectedVolatility": "Low",
      "eventName": "Retail Sales (YoY) (Dec)",
      "eventTimeZone": "GMT",
      "eventPrevious": "11.2%",
      "eventCurrency": "CNY",
      "eventForecast": "11.3%"
    }
  ]}}
