{"events": {"event": [
    {
      "eventDateTime": "2010-05-03T07:50:00",
      "eventActual": "56.6",
      "eventCountry": "France",
      "eventExpectedVolatility": "Moderate",
      "eventName": "French Manufacturing PMI",
      "eventTimeZone": "GMT",
      "eventPrevious": "56.7",
      "eventCurrency": "EUR",
      "eventForecast": "56.7"
    },
    {
      "eventDateTime": "2010-05-03T07:55:00",
      "eventActual": "61.5",
      "eventCountry": "Germany",
      "eventExpectedVolatility": "High",
      "eventName": "German Manufacturing PMI",
      "eventTimeZone": "GMT",
      "eventPrevious": "61.3",
      "eventCurrency": "EUR",
      "eventForecast": "61.3"
    },
    {
      "eventDateTime": "2010-05-03T08:00:00",
      "eventActual": "57.6",
      "eventCountry": "Euro Zone",
      "eventExpectedVolatility": "Moderate",
      "eventName": "Manufacturing PMI",
      "eventTimeZone": "GMT",
      "eventPrevious": "57.5",
      "eventCurrency": "EUR",
      "eventForecast": "57.5"
    }
  ]}}
