{"events": {"event": [
    {
      "eventDateTime": "2017-06-13T22:45:00",
      "eventActual": "-3.10%",
      "eventCountry": "New Zealand",
      "eventExpectedVolatility": "Low",
      "eventName": "Current Account % of GDP (Q1)",
      "eventTimeZone": "GMT",
      "eventPrevious": "-2.70%",
      "eventCurrency": "NZD",
      "eventForecast": "-2.70%"
    },
    {
      "eventDateTime": "2017-06-13T22:45:00",
      "eventActual": "0.24B",
      "eventCountry": "New Zealand",
      "eventExpectedVolatility": "Moderate",
      "eventName": "Current Account (QoQ) (Q1)",
      "eventTimeZone": "GMT",
      "eventPrevious": "-2.42B",
      "eventCurrency": "NZD",
      "eventForecast": "0.92B"
    },
    {
      "eventDateTime": "2017-06-13T22:45:00",
      "eventActual": "-8.13B",
      "eventCountry": "New Zealand",
      "eventExpectedVolatility": "Moderate",
      "eventName": "Current Account (YoY) (Q1)",
      "eventTimeZone": "GMT",
      "eventPrevious": "-7.11B",
      "eventCurrency": "NZD",
      "eventForecast": "-7.28B"
    },
    {
      "eventDateTime": "2017-06-13T22:45:00",
      "eventActual": "2.4%",
      "eventCountry": "New Zealand",
      "eventExpectedVolatility": "Low",
      "eventName": "FPI (MoM) (May)",
      "eventTimeZone": "GMT",
      "eventPrevious": "-0.8%",
      "eventCurrency": "NZD",
      "eventForecast": ""
    }
  ]}}
