{"events": {"event": {
    "eventDateTime": "2017-12-29T20:30:00",
    "eventActual": "-17.6K",
    "eventCountry": "New Zealand",
    "eventExpectedVolatility": "Low",
    "eventName": "CFTC NZD speculative net positions",
    "eventTimeZone": "GMT",
    "eventPrevious": "-16.6K",
    "eventCurrency": "NZD",
    "eventForecast": ""
  }}}
