{"events": {"event": [
    {
      "eventDateTime": "2018-09-13T08:00:00",
      "eventActual": "",
      "eventCountry": "United States",
      "eventExpectedVolatility": "Moderate",
      "eventName": "IEA Monthly Report",
      "eventTimeZone": "GMT",
      "eventPrevious": "",
      "eventCurrency": "USD",
      "eventForecast": ""
    },
    {
      "eventDateTime": "2018-09-13T12:30:00",
      "eventActual": "0.2%",
      "eventCountry": "United States",
      "eventExpectedVolatility": "Moderate",
      "eventName": "CPI (MoM) (Aug)",
      "eventTimeZone": "GMT",
      "eventPrevious": "0.2%",
      "eventCurrency": "USD",
      "eventForecast": "0.3%"
    },
    {
      "eventDateTime": "2018-09-13T12:30:00",
      "eventActual": "2.7%",
      "eventCountry": "United States",
      "eventExpectedVolatility": "Low",
      "eventName": "CPI (YoY) (Aug)",
      "eventTimeZone": "GMT",
      "eventPrevious": "2.9%",
      "eventCurrency": "USD",
      "eventForecast": "2.8%"
    },
    {
      "eventDateTime": "2018-09-13T12:30:00",
      "eventActual": "252.15",
      "eventCountry": "United States",
      "eventExpectedVolatility": "Low",
      "eventName": "CPI Index, n.s.a. (Aug)",
      "eventTimeZone": "GMT",
      "eventPrevious": "252.01",
      "eventCurrency": "USD",
      "eventForecast": "252.40"
    },
    {
      "eventDateTime": "2018-09-13T12:30:00",
      "eventActual": "1,696K",
      "eventCountry": "United States",
      "eventExpectedVolatility": "Low",
      "eventName": "Continuing Jobless Claims",
      "eventTimeZone": "GMT",
      "eventPrevious": "1,711K",
      "eventCurrency": "USD",
      "eventForecast": "1,710K"
    },
    {
      "eventDateTime": "2018-09-13T12:30:00",
      "eventActual": "0.1%",
      "eventCountry": "United States",
      "eventExpectedVolatility": "High",
      "eventName": "Core CPI (MoM) (Aug)",
      "eventTimeZone": "GMT",
      "eventPrevious": "0.2%",
      "eventCurrency": "USD",
      "eventForecast": "0.2%"
    },
    {
      "eventDateTime": "2018-09-13T12:30:00",
      "eventActual": "2.2%",
      "eventCountry": "United States",
      "eventExpectedVolatility": "Moderate",
      "eventName": "Core CPI (YoY) (Aug)",
      "eventTimeZone": "GMT",
      "eventPrevious": "2.4%",
      "eventCurrency": "USD",
      "eventForecast": "2.4%"
    },
    {
      "eventDateTime": "2018-09-13T12:30:00",
      "eventActual": "258.14",
      "eventCountry": "United States",
      "eventExpectedVolatility": "Low",
      "eventName": "Core CPI Index (Aug)",
      "eventTimeZone": "GMT",
      "eventPrevious": "257.93",
      "eventCurrency": "USD",
      "eventForecast": ""
    },
    {
      "eventDateTime": "2018-09-13T12:30:00",
      "eventActual": "204K",
      "eventCountry": "United States",
      "eventExpectedVolatility": "Moderate",
      "eventName": "Initial Jobless Claims",
      "eventTimeZone": "GMT",
      "eventPrevious": "205K",
      "eventCurrency": "USD",
      "eventForecast": "210K"
    },
    {
      "eventDateTime": "2018-09-13T12:30:00",
      "eventActual": "208.00K",
      "eventCountry": "United States",
      "eventExpectedVolatility": "Low",
      "eventName": "Jobless Claims 4-Week Avg.",
      "eventTimeZone": "GMT",
      "eventPrevious": "210.00K",
      "eventCurrency": "USD",
      "eventForecast": ""
    },
    {
      "eventDateTime": "2018-09-13T12:30:00",
      "eventActual": "0.1%",
      "eventCountry": "United States",
      "eventExpectedVolatility": "Low",
      "eventName": "Real Earnings (MoM) (Aug)",
      "eventTimeZone": "GMT",
      "eventPrevious": "-0.2%",
      "eventCurrency": "USD",
      "eventForecast": ""
    },
    {
      "eventDateTime": "2018-09-13T13:45:00",
      "eventActual": "59.0",
      "eventCountry": "United States",
      "eventExpectedVolatility": "Low",
      "eventName": "Bloomberg Consumer Confidence",
      "eventTimeZone": "GMT",
      "eventPrevious": "58.0",
      "eventCurrency": "USD",
      "eventForecast": ""
    },
    {
      "eventDateTime": "2018-09-13T14:00:00",
      "eventActual": "",
      "eventCountry": "United States",
      "eventExpectedVolatility": "Moderate",
      "eventName": "FOMC Member Quarles Speaks",
      "eventTimeZone": "GMT",
      "eventPrevious": "",
      "eventCurrency": "USD",
      "eventForecast": ""
    },
    {
      "eventDateTime": "2018-09-13T14:30:00",
      "eventActual": "69B",
      "eventCountry": "United States",
      "eventExpectedVolatility": "Low",
      "eventName": "Natural Gas Storage",
      "eventTimeZone": "GMT",
      "eventPrevious": "63B",
      "eventCurrency": "USD",
      "eventForecast": "68B"
    },
    {
      "eventDateTime": "2018-09-13T15:00:00",
      "eventActual": "0.1%",
      "eventCountry": "United States",
      "eventExpectedVolatility": "Low",
      "eventName": "Cleveland CPI (MoM) (Aug)",
      "eventTimeZone": "GMT",
      "eventPrevious": "0.2%",
      "eventCurrency": "USD",
      "eventForecast": ""
    },
    {
      "eventDateTime": "2018-09-13T17:00:00",
      "eventActual": "3.088%",
      "eventCountry": "United States",
      "eventExpectedVolatility": "Low",
      "eventName": "30-Year Bond Auction",
      "eventTimeZone": "GMT",
      "eventPrevious": "3.090%",
      "eventCurrency": "USD",
      "eventForecast": ""
    },
    {
      "eventDateTime": "2018-09-13T17:15:00",
      "eventActual": "",
      "eventCountry": "United States",
      "eventExpectedVolatility": "Moderate",
      "eventName": "FOMC Member Bostic Speaks",
      "eventTimeZone": "GMT",
      "eventPrevious": "",
      "eventCurrency": "USD",
      "eventForecast": ""
    },
    {
      "eventDateTime": "2018-09-13T18:00:00",
      "eventActual": "-214.0B",
      "eventCountry": "United States",
      "eventExpectedVolatility": "Moderate",
      "eventName": "Federal Budget Balance (Aug)",
      "eventTimeZone": "GMT",
      "eventPrevious": "-77.0B",
      "eventCurrency": "USD",
      "eventForecast": "-169.8B"
    }
  ]}}
