{"events": {"event": [
    {
      "eventDateTime": "2017-10-25T12:45:00",
      "eventActual": "-3.30%",
      "eventCountry": "South Africa",
      "eventExpectedVolatility": "Low",
      "eventName": "Budget Balance",
      "eventTimeZone": "GMT",
      "eventPrevious": "-3.70%",
      "eventCurrency": "ZAR",
      "eventForecast": ""
    },
    {
      "eventDateTime": "2017-10-25T12:45:00",
      "eventActual": "-147.500B",
      "eventCountry": "South Africa",
      "eventExpectedVolatility": "Low",
      "eventName": "Budget Balance",
      "eventTimeZone": "GMT",
      "eventPrevious": "-152.200B",
      "eventCurrency": "ZAR",
      "eventForecast": ""
    }
  ]}}
