{"events": {"event": {
    "eventDateTime": "2013-07-09T06:45:00",
    "eventActual": "-72.6B",
    "eventCountry": "France",
    "eventExpectedVolatility": "Low",
    "eventName": "French Government Budget Balance",
    "eventTimeZone": "GMT",
    "eventPrevious": "-66.8B",
    "eventCurrency": "EUR",
    "eventForecast": ""
  }}}
