"Building Permits (Jun)";"United States";"USD";"2015-07-17T12:30:00";"GMT";"1.250M";"1.150M";"1.343M";"High"
"Building Permits (MoM) (Jun)";"United States";"USD";"2015-07-17T12:30:00";"GMT";"11.8%";"-11.8%";"7.4%";"Moderate"
"CPI (MoM) (Jun)";"United States";"USD";"2015-07-17T12:30:00";"GMT";"0.4%";"0.3%";"0.3%";"Moderate"
"CPI (YoY) (Jun)";"United States";"USD";"2015-07-17T12:30:00";"GMT";"0.0%";"0.1%";"0.1%";"Low"
"CPI Index, n.s.a. (Jun)";"United States";"USD";"2015-07-17T12:30:00";"GMT";"237.81";"238.67";"238.64";"Low"
"Core CPI (MoM) (Jun)";"United States";"USD";"2015-07-17T12:30:00";"GMT";"0.1%";"0.2%";"0.2%";"High"
"Core CPI (YoY) (Jun)";"United States";"USD";"2015-07-17T12:30:00";"GMT";"1.7%";"1.8%";"1.8%";"Moderate"
"Core CPI Index (Jun)";"United States";"USD";"2015-07-17T12:30:00";"GMT";"241.76";"";"242.19";"Low"
"Housing Starts (Jun)";"United States";"USD";"2015-07-17T12:30:00";"GMT";"1.069M";"1.110M";"1.174M";"Moderate"
"Housing Starts (MoM) (Jun)";"United States";"USD";"2015-07-17T12:30:00";"GMT";"-10.2%";"6.2%";"9.8%";"Moderate"
"Real Earnings (MoM) (Jun)";"United States";"USD";"2015-07-17T12:30:00";"GMT";"-0.2%";"";"-0.3%";"Low"
"FOMC Member Stanley Fischer Speaks";"United States";"USD";"2015-07-17T14:00:00";"GMT";" ";"";"";"Moderate"
"Michigan 5-Year Inflation Expectations (Jul)";"United States";"USD";"2015-07-17T14:00:00";"GMT";"2.60%";"";"2.70%";"Low"
"Michigan Consumer Expectations (Jul)";"United States";"USD";"2015-07-17T14:00:00";"GMT";"87.8";"87.0";"85.2";"Moderate"
"Michigan Consumer Sentiment (Jul)";"United States";"USD";"2015-07-17T14:00:00";"GMT";"96.1";"96.1";"93.3";"Moderate"
"Michigan Current Conditions (Jul)";"United States";"USD";"2015-07-17T14:00:00";"GMT";"108.9";"97.2";"106.0";"Low"
"Michigan Inflation Expectations (Jul)";"United States";"USD";"2015-07-17T14:00:00";"GMT";"2.7%";"";"2.8%";"Low"
"Cleveland CPI (MoM) (Jun)";"United States";"USD";"2015-07-17T15:30:00";"GMT";"0.2%";"";"0.3%";"Low"
"U.S. Baker Hughes Oil Rig Count";"United States";"USD";"2015-07-17T17:00:00";"GMT";"645";"";"638";"Moderate"
"CFTC Copper speculative net positions";"United States";"USD";"2015-07-17T19:30:00";"GMT";"-25.4K";"";"-20.8K";"Low"
"CFTC Gold speculative net positions";"United States";"USD";"2015-07-17T19:30:00";"GMT";"50.4K";"";"47.8K";"Moderate"
"CFTC Sandamp:P 500 speculative net positions";"United States";"USD";"2015-07-17T19:30:00";"GMT";"-180.5K";"";"-135.1K";"Moderate"
"CFTC Silver speculative net positions";"United States";"USD";"2015-07-17T19:30:00";"GMT";"6.8K";"";"9.6K";"Low"
"CFTC Crude Oil speculative net positions";"United States";"USD";"2015-07-17T20:30:00";"GMT";"296.2k";"";"264.4k";"Moderate"
