{"events": {"event": [
    {
      "eventDateTime": "2013-03-07T01:30:00",
      "eventActual": "",
      "eventCountry": "United States",
      "eventExpectedVolatility": "Moderate",
      "eventName": "FOMC Member Fisher Speaks",
      "eventTimeZone": "GMT",
      "eventPrevious": "",
      "eventCurrency": "USD",
      "eventForecast": ""
    },
    {
      "eventDateTime": "2013-03-07T12:30:00",
      "eventActual": "7.0%",
      "eventCountry": "United States",
      "eventExpectedVolatility": "Low",
      "eventName": "Challenger Job Cuts (YoY)",
      "eventTimeZone": "GMT",
      "eventPrevious": "-24.4%",
      "eventCurrency": "USD",
      "eventForecast": ""
    },
    {
      "eventDateTime": "2013-03-07T13:30:00",
      "eventActual": "3,094K",
      "eventCountry": "United States",
      "eventExpectedVolatility": "Low",
      "eventName": "Continuing Jobless Claims",
      "eventTimeZone": "GMT",
      "eventPrevious": "3,091K",
      "eventCurrency": "USD",
      "eventForecast": "3,110K"
    },
    {
      "eventDateTime": "2013-03-07T13:30:00",
      "eventActual": "340K",
      "eventCountry": "United States",
      "eventExpectedVolatility": "Moderate",
      "eventName": "Initial Jobless Claims",
      "eventTimeZone": "GMT",
      "eventPrevious": "347K",
      "eventCurrency": "USD",
      "eventForecast": "355K"
    },
    {
      "eventDateTime": "2013-03-07T13:30:00",
      "eventActual": "-1.9%",
      "eventCountry": "United States",
      "eventExpectedVolatility": "Moderate",
      "eventName": "Nonfarm Productivity (QoQ)",
      "eventTimeZone": "GMT",
      "eventPrevious": "-2.0%",
      "eventCurrency": "USD",
      "eventForecast": "-1.6%"
    },
    {
      "eventDateTime": "2013-03-07T13:30:00",
      "eventActual": "-44.5B",
      "eventCountry": "United States",
      "eventExpectedVolatility": "Moderate",
      "eventName": "Trade Balance",
      "eventTimeZone": "GMT",
      "eventPrevious": "-38.1B",
      "eventCurrency": "USD",
      "eventForecast": "-42.6B"
    },
    {
      "eventDateTime": "2013-03-07T13:30:00",
      "eventActual": "4.6%",
      "eventCountry": "United States",
      "eventExpectedVolatility": "Moderate",
      "eventName": "Unit Labor Costs (QoQ)",
      "eventTimeZone": "GMT",
      "eventPrevious": "4.5%",
      "eventCurrency": "USD",
      "eventForecast": "4.3%"
    },
    {
      "eventDateTime": "2013-03-07T14:45:00",
      "eventActual": "33.8",
      "eventCountry": "United States",
      "eventExpectedVolatility": "Low",
      "eventName": "Bloomberg Consumer Confidence",
      "eventTimeZone": "GMT",
      "eventPrevious": "33.6",
      "eventCurrency": "USD",
      "eventForecast": ""
    },
    {
      "eventDateTime": "2013-03-07T15:30:00",
      "eventActual": "-146B",
      "eventCountry": "United States",
      "eventExpectedVolatility": "Low",
      "eventName": "Natural Gas Storage",
      "eventTimeZone": "GMT",
      "eventPrevious": "-171B",
      "eventCurrency": "USD",
      "eventForecast": "-134B"
    },
    {
      "eventDateTime": "2013-03-07T20:00:00",
      "eventActual": "16.15B",
      "eventCountry": "United States",
      "eventExpectedVolatility": "Low",
      "eventName": "Consumer Credit",
      "eventTimeZone": "GMT",
      "eventPrevious": "15.10B",
      "eventCurrency": "USD",
      "eventForecast": "14.50B"
    }
  ]}}
