"Global Semiconductor Sales (MoM)";"United States";"USD";"2012-02-06T14:00:00";"GMT";"-2.0%";"";"-5.5%";"Low"
"3-Month Bill Auction";"United States";"USD";"2012-02-06T16:30:00";"GMT";"0.050%";"";"0.080%";"Low"
"FOMC Member Fisher Speaks";"United States";"USD";"2012-02-06T17:15:00";"GMT";" ";"";"";"Moderate"
