{"events": {"event": [
    {
      "eventDateTime": "2019-04-15T05:30:00",
      "eventActual": "62.3%",
      "eventCountry": "Canada",
      "eventExpectedVolatility": "Moderate",
      "eventName": "Investing.com USD/CAD Index",
      "eventTimeZone": "GMT",
      "eventPrevious": "57.2%",
      "eventCurrency": "CAD",
      "eventForecast": ""
    },
    {
      "eventDateTime": "2019-04-15T14:30:00",
      "eventActual": "",
      "eventCountry": "Canada",
      "eventExpectedVolatility": "Moderate",
      "eventName": "BoC Business Outlook Survey",
      "eventTimeZone": "GMT",
      "eventPrevious": "",
      "eventCurrency": "CAD",
      "eventForecast": ""
    }
  ]}}
