"CPI (YoY)";"United Kingdom";"GBP";"2009-02-17T09:30:00";"GMT";"3.1%";"2.6%";"3.0%";"High"
"Core CPI (YoY)";"United Kingdom";"GBP";"2009-02-17T09:30:00";"GMT";"1.1%";"1.0%";"1.3%";"Low"
"House Price Index (YoY)";"United Kingdom";"GBP";"2009-02-17T09:30:00";"GMT";"-8.6%";"-10.1%";"-10.2%";"Low"
"RPI (YoY)";"United Kingdom";"GBP";"2009-02-17T09:30:00";"GMT";"0.9%";"-0.1%";"0.1%";"Low"
