{"events": {"event": [
    {
      "eventDateTime": "2009-10-08T00:30:00",
      "eventActual": "40.6K",
      "eventCountry": "Australia",
      "eventExpectedVolatility": "High",
      "eventName": "Employment Change",
      "eventTimeZone": "GMT",
      "eventPrevious": "-26.1K",
      "eventCurrency": "AUD",
      "eventForecast": "-10.0K"
    },
    {
      "eventDateTime": "2009-10-08T00:30:00",
      "eventActual": "5.7%",
      "eventCountry": "Australia",
      "eventExpectedVolatility": "Moderate",
      "eventName": "Unemployment Rate",
      "eventTimeZone": "GMT",
      "eventPrevious": "5.8%",
      "eventCurrency": "AUD",
      "eventForecast": "6.0%"
    }
  ]}}
