{"events": {"event": [
    {
      "eventDateTime": "2015-04-09T22:00:00",
      "eventActual": "26.70%",
      "eventCountry": "New Zealand",
      "eventExpectedVolatility": "Low",
      "eventName": "Government Monthly Debt (Feb)",
      "eventTimeZone": "GMT",
      "eventPrevious": "26.10%",
      "eventCurrency": "NZD",
      "eventForecast": ""
    },
    {
      "eventDateTime": "2015-04-09T22:00:00",
      "eventActual": "56.00%",
      "eventCountry": "New Zealand",
      "eventExpectedVolatility": "Low",
      "eventName": "Government Operating Balance (Feb)",
      "eventTimeZone": "GMT",
      "eventPrevious": "112.10%",
      "eventCurrency": "NZD",
      "eventForecast": ""
    }
  ]}}
