"German CPI (MoM) (Jan)";"Germany";"EUR";"2017-02-14T07:00:00";"GMT";"-0.6%";"-0.6%";"-0.6%";"Moderate"
"German CPI (YoY) (Jan)";"Germany";"EUR";"2017-02-14T07:00:00";"GMT";"1.9%";"1.9%";"1.9%";"Low"
"German GDP (QoQ) (Q4)";"Germany";"EUR";"2017-02-14T07:00:00";"GMT";"0.1%";"0.5%";"0.4%";"High"
"German GDP (YoY) (Q4)";"Germany";"EUR";"2017-02-14T07:00:00";"GMT";"1.5%";"1.7%";"1.2%";"Moderate"
"German HICP (MoM) (Jan)";"Germany";"EUR";"2017-02-14T07:00:00";"GMT";"-0.8%";"-0.8%";"-0.8%";"Low"
"German HICP (YoY) (Jan)";"Germany";"EUR";"2017-02-14T07:00:00";"GMT";"1.9%";"1.9%";"1.9%";"Low"
"Italian GDP (QoQ) (Q4)";"Italy";"EUR";"2017-02-14T09:00:00";"GMT";"0.3%";"0.2%";"0.2%";"Low"
"Italian GDP (YoY) (Q4)";"Italy";"EUR";"2017-02-14T09:00:00";"GMT";"1.1%";"1.0%";"1.1%";"Low"
"Spanish 12-Month Letras Auction";"Spain";"EUR";"2017-02-14T09:50:00";"GMT";"-0.291%";"";"-0.294%";"Low"
"Spanish 6-Month Letras Auction";"Spain";"EUR";"2017-02-14T09:50:00";"GMT";"-0.364%";"";"-0.365%";"Low"
"GDP (QoQ) (Q4)";"Euro Zone";"EUR";"2017-02-14T10:00:00";"GMT";"0.5%";"0.5%";"0.4%";"Moderate"
"GDP (YoY) (Q4)";"Euro Zone";"EUR";"2017-02-14T10:00:00";"GMT";"1.8%";"1.8%";"1.7%";"Moderate"
"German ZEW Current Conditions (Feb)";"Germany";"EUR";"2017-02-14T10:00:00";"GMT";"77.3";"77.2";"76.4";"Moderate"
"German ZEW Economic Sentiment (Feb)";"Germany";"EUR";"2017-02-14T10:00:00";"GMT";"16.6";"15.0";"10.4";"High"
"Industrial Production (MoM) (Dec)";"Euro Zone";"EUR";"2017-02-14T10:00:00";"GMT";"1.5%";"-1.5%";"-1.6%";"Moderate"
"Industrial Production (YoY) (Dec)";"Euro Zone";"EUR";"2017-02-14T10:00:00";"GMT";"3.2%";"1.7%";"2.0%";"Low"
"ZEW Economic Sentiment";"Euro Zone";"EUR";"2017-02-14T10:00:00";"GMT";"23.2";"22.3";"17.1";"Moderate"
