{"events": {"event": {
    "eventDateTime": "2009-02-16T00:01:00",
    "eventActual": "1.2%",
    "eventCountry": "United Kingdom",
    "eventExpectedVolatility": "Low",
    "eventName": "Rightmove House Price Index (MoM)",
    "eventTimeZone": "GMT",
    "eventPrevious": "-1.9%",
    "eventCurrency": "GBP",
    "eventForecast": ""
  }}}
