{"events": {"event": {
    "eventDateTime": "2014-10-21T06:00:00",
    "eventActual": "2.452B",
    "eventCountry": "Switzerland",
    "eventExpectedVolatility": "Low",
    "eventName": "Trade Balance (Sep)",
    "eventTimeZone": "GMT",
    "eventPrevious": "1.331B",
    "eventCurrency": "CHF",
    "eventForecast": "2.646B"
  }}}
