{"events": {"event": {
    "eventDateTime": "2019-04-22T11:30:00",
    "eventActual": "",
    "eventCountry": "Brazil",
    "eventExpectedVolatility": "Moderate",
    "eventName": "BCB Focus Market Readout",
    "eventTimeZone": "GMT",
    "eventPrevious": "",
    "eventCurrency": "BRL",
    "eventForecast": ""
  }}}
