{"events": {"event": [
    {
      "eventDateTime": "2019-03-08T11:00:00",
      "eventActual": "1.25%",
      "eventCountry": "Brazil",
      "eventExpectedVolatility": "Low",
      "eventName": "IGP-DI Inflation Index (MoM) (Feb)",
      "eventTimeZone": "GMT",
      "eventPrevious": "0.07%",
      "eventCurrency": "BRL",
      "eventForecast": "0.19%"
    },
    {
      "eventDateTime": "2019-03-08T20:30:00",
      "eventActual": "3.1K",
      "eventCountry": "Brazil",
      "eventExpectedVolatility": "Moderate",
      "eventName": "CFTC BRL speculative net positions",
      "eventTimeZone": "GMT",
      "eventPrevious": "1.0K",
      "eventCurrency": "BRL",
      "eventForecast": ""
    }
  ]}}
