"Exports (MoM) (Jun)";"Hong Kong";"HKD";"2016-07-26T08:30:00";"GMT";"-0.1%";"";"-1.0%";"Low"
"Imports (MoM) (Jun)";"Hong Kong";"HKD";"2016-07-26T08:30:00";"GMT";"-4.3%";"";"-0.9%";"Low"
"Trade Balance";"Hong Kong";"HKD";"2016-07-26T08:30:00";"GMT";"-26.2B";"";"-45.6B";"Low"
