{"events": {"event": [
    {
      "eventDateTime": "2012-08-07T04:30:00",
      "eventActual": "3.50%",
      "eventCountry": "Australia",
      "eventExpectedVolatility": "High",
      "eventName": "RBA Interest Rate Decision",
      "eventTimeZone": "GMT",
      "eventPrevious": "3.50%",
      "eventCurrency": "AUD",
      "eventForecast": "3.50%"
    },
    {
      "eventDateTime": "2012-08-07T04:30:00",
      "eventActual": "",
      "eventCountry": "Australia",
      "eventExpectedVolatility": "High",
      "eventName": "RBA Rate Statement",
      "eventTimeZone": "GMT",
      "eventPrevious": "",
      "eventCurrency": "AUD",
      "eventForecast": ""
    }
  ]}}
