{"events": {"event": [
    {
      "eventDateTime": "2015-10-06T05:00:00",
      "eventActual": "47.4%",
      "eventCountry": "United States",
      "eventExpectedVolatility": "Moderate",
      "eventName": "Investing.com Gold Index",
      "eventTimeZone": "GMT",
      "eventPrevious": "56.0%",
      "eventCurrency": "USD",
      "eventForecast": ""
    },
    {
      "eventDateTime": "2015-10-06T05:00:00",
      "eventActual": "24.6%",
      "eventCountry": "United States",
      "eventExpectedVolatility": "Moderate",
      "eventName": "Investing.com Sandamp:P 500 Index",
      "eventTimeZone": "GMT",
      "eventPrevious": "38.2%",
      "eventCurrency": "USD",
      "eventForecast": ""
    },
    {
      "eventDateTime": "2015-10-06T12:30:00",
      "eventActual": "-48.33B",
      "eventCountry": "United States",
      "eventExpectedVolatility": "Moderate",
      "eventName": "Trade Balance (Aug)",
      "eventTimeZone": "GMT",
      "eventPrevious": "-41.81B",
      "eventCurrency": "USD",
      "eventForecast": "-47.40B"
    },
    {
      "eventDateTime": "2015-10-06T12:55:00",
      "eventActual": "-1.6%",
      "eventCountry": "United States",
      "eventExpectedVolatility": "Low",
      "eventName": "Redbook (MoM)",
      "eventTimeZone": "GMT",
      "eventPrevious": "-1.5%",
      "eventCurrency": "USD",
      "eventForecast": ""
    },
    {
      "eventDateTime": "2015-10-06T12:55:00",
      "eventActual": "0.7%",
      "eventCountry": "United States",
      "eventExpectedVolatility": "Low",
      "eventName": "Redbook (YoY)",
      "eventTimeZone": "GMT",
      "eventPrevious": "0.9%",
      "eventCurrency": "USD",
      "eventForecast": ""
    },
    {
      "eventDateTime": "2015-10-06T14:00:00",
      "eventActual": "47.3",
      "eventCountry": "United States",
      "eventExpectedVolatility": "Low",
      "eventName": "IBD/TIPP Economic Optimism",
      "eventTimeZone": "GMT",
      "eventPrevious": "42.0",
      "eventCurrency": "USD",
      "eventForecast": "44.6"
    },
    {
      "eventDateTime": "2015-10-06T15:30:00",
      "eventActual": "0.000%",
      "eventCountry": "United States",
      "eventExpectedVolatility": "Low",
      "eventName": "4-Week Bill Auction",
      "eventTimeZone": "GMT",
      "eventPrevious": "0.000%",
      "eventCurrency": "USD",
      "eventForecast": ""
    },
    {
      "eventDateTime": "2015-10-06T17:00:00",
      "eventActual": "0.895%",
      "eventCountry": "United States",
      "eventExpectedVolatility": "Low",
      "eventName": "3-Year Note Auction",
      "eventTimeZone": "GMT",
      "eventPrevious": "1.056%",
      "eventCurrency": "USD",
      "eventForecast": ""
    },
    {
      "eventDateTime": "2015-10-06T20:35:00",
      "eventActual": "-1.200M",
      "eventCountry": "United States",
      "eventExpectedVolatility": "Moderate",
      "eventName": "API Weekly Crude Oil Stock",
      "eventTimeZone": "GMT",
      "eventPrevious": "4.600M",
      "eventCurrency": "USD",
      "eventForecast": "1.700M"
    },
    {
      "eventDateTime": "2015-10-06T21:30:00",
      "eventActual": "",
      "eventCountry": "United States",
      "eventExpectedVolatility": "Moderate",
      "eventName": "FOMC Member Williams Speaks",
      "eventTimeZone": "GMT",
      "eventPrevious": "",
      "eventCurrency": "USD",
      "eventForecast": ""
    }
  ]}}
