"FGV Consumer confidence (Nov)";"Brazil";"BRL";"2018-11-26T10:00:00";"GMT";"86.1";"";"93.2";"Low"
"BCB Focus Market Readout";"Brazil";"BRL";"2018-11-26T11:30:00";"GMT";" ";"";"";"Moderate"
"Federal Tax Revenue";"Brazil";"BRL";"2018-11-26T15:00:00";"GMT";"110.66B";"127.00B";"0.00B";"Low"
