"BoJ Interest Rate Decision";"Japan";"JPY";"2008-06-13T00:00:00";"GMT";"0.50%";"0.50%";"0.50%";"Moderate"
"Industrial Production (MoM)";"Japan";"JPY";"2008-06-13T04:30:00";"GMT";"-0.3%";"-0.3%";"-0.2%";"Moderate"
"Household Confidence";"Japan";"JPY";"2008-06-13T05:00:00";"GMT";"35.2";"34.5";"33.9";"Low"
"BoJ Monthly Report";"Japan";"JPY";"2008-06-13T06:00:00";"GMT";"0.00";"0.00";"0.00";"Moderate"
"CFTC JPY speculative net positions";"Japan";"JPY";"2008-06-13T19:30:00";"GMT";"23.4K";"";"7.7K";"Moderate"
