"CPI (YoY) (Jan)";"India";"INR";"2018-02-12T12:00:00";"GMT";"5.21%";"5.14%";"5.07%";"Moderate"
"Cumulative Industrial Production (Dec)";"India";"INR";"2018-02-12T12:00:00";"GMT";"3.20%";"";"3.70%";"Low"
"Industrial Production (YoY) (Dec)";"India";"INR";"2018-02-12T12:00:00";"GMT";"8.8%";"6.2%";"7.1%";"Low"
"Manufacturing Output (MoM) (Dec)";"India";"INR";"2018-02-12T12:00:00";"GMT";"10.7%";"";"8.4%";"Low"
