"German WPI (MoM) (Feb)";"Germany";"EUR";"2015-03-13T07:00:00";"GMT";"-0.4%";"-0.2%";"0.5%";"Low"
"German WPI (YoY) (Feb)";"Germany";"EUR";"2015-03-13T07:00:00";"GMT";"-2.6%";"";"-2.1%";"Low"
"Italian CPI (MoM) (Feb)";"Italy";"EUR";"2015-03-13T09:00:00";"GMT";"0.4%";"0.3%";"0.4%";"Moderate"
"Italian CPI (YoY) (Feb)";"Italy";"EUR";"2015-03-13T09:00:00";"GMT";"-0.1%";"-0.2%";"-0.1%";"Low"
"Italian HICP (MoM) (Feb)";"Italy";"EUR";"2015-03-13T09:00:00";"GMT";"0.3%";"0.3%";"0.3%";"Low"
"Italian HICP (YoY) (Feb)";"Italy";"EUR";"2015-03-13T09:00:00";"GMT";"0.1%";"0.1%";"0.1%";"Low"
"CFTC EUR speculative net positions";"Euro Zone";"EUR";"2015-03-13T19:30:00";"GMT";"-172.4K";"";"-181.1K";"Moderate"
