"Auto Production (MoM) (Feb)";"Brazil";"BRL";"2006-03-01T09:00:00";"GMT";"-5.61%";"";"3.52%";"Low"
"Auto Sales (MoM) (Feb)";"Brazil";"BRL";"2006-03-01T09:00:00";"GMT";"-27.64%";"";"-3.77%";"Low"
"Bank lending (MoM) (Feb)";"Brazil";"BRL";"2006-03-01T09:00:00";"GMT";"0.28%";"";"1.14%";"Low"
"Budget Balance (Feb)";"Brazil";"BRL";"2006-03-01T09:00:00";"GMT";"-11.48B";"";"-8.82B";"Low"
"Budget Surplus (Feb)";"Brazil";"BRL";"2006-03-01T09:00:00";"GMT";"6.42B";"";"4.53B";"Low"
"CAGED Net Payroll Jobs (Feb)";"Brazil";"BRL";"2006-03-01T09:00:00";"GMT";"87.00K";"";"177.00K";"Moderate"
"CNI Factory Utilization (Feb)";"Brazil";"BRL";"2006-03-01T09:00:00";"GMT";"81.20%";"";"81.70%";"Low"
"CPI (MoM) (Feb)";"Brazil";"BRL";"2006-03-01T09:00:00";"GMT";"0.59%";"";"0.41%";"Moderate"
"CPI (YoY) (Feb)";"Brazil";"BRL";"2006-03-01T09:00:00";"GMT";"5.70%";"";"5.51%";"Moderate"
"Debt-to-GDP ratio (Feb)";"Brazil";"BRL";"2006-03-01T09:00:00";"GMT";"47.80%";"";"47.70%";"Low"
"FGV Consumer confidence (Feb)";"Brazil";"BRL";"2006-03-01T09:00:00";"GMT";"106.70";"";"107.70";"Low"
"Federal Tax Revenue (Feb)";"Brazil";"BRL";"2006-03-01T09:00:00";"GMT";"44.00B";"";"38.00B";"Low"
"Foreign direct investment (USD) (Feb)";"Brazil";"BRL";"2006-03-01T09:00:00";"GMT";"1.47B";"";"0.85B";"Low"
"IBC-Br Economic Activity (Feb)";"Brazil";"BRL";"2006-03-01T09:00:00";"GMT";"1.17%";"";"-0.12%";"Low"
"IGP-DI Inflation Index (MoM) (Feb)";"Brazil";"BRL";"2006-03-01T09:00:00";"GMT";"0.72%";"";"-0.06%";"Low"
"IGP-M Inflation Index (MoM) (Feb)";"Brazil";"BRL";"2006-03-01T09:00:00";"GMT";"0.92%";"";"0.01%";"Low"
"IPC-Fipe Inflation Index (MoM) (Feb)";"Brazil";"BRL";"2006-03-01T09:00:00";"GMT";"0.50%";"";"-0.03%";"Moderate"
"Industrial Production (MoM) (Feb)";"Brazil";"BRL";"2006-03-01T09:00:00";"GMT";"0.89%";"";"0.55%";"Low"
"Industrial Production (YoY) (Feb)";"Brazil";"BRL";"2006-03-01T09:00:00";"GMT";"3.33%";"";"4.97%";"Moderate"
"Mid-Month CPI (MoM) (Feb)";"Brazil";"BRL";"2006-03-01T09:00:00";"GMT";"0.51%";"";"0.52%";"Low"
"Mid-Month CPI (YoY) (Feb)";"Brazil";"BRL";"2006-03-01T09:00:00";"GMT";"5.70%";"";"5.47%";"Low"
"Retail Sales (MoM) (Feb)";"Brazil";"BRL";"2006-03-01T09:00:00";"GMT";"0.77%";"";"-1.22%";"Moderate"
"Retail Sales (YoY) (Feb)";"Brazil";"BRL";"2006-03-01T09:00:00";"GMT";"6.59%";"";"6.21%";"Moderate"
"Trade Balance (Feb)";"Brazil";"BRL";"2006-03-01T09:00:00";"GMT";"2.84B";"";"2.80B";"Low"
"Unemployment Rate (Feb)";"Brazil";"BRL";"2006-03-01T09:00:00";"GMT";"9.30%";"";"10.10%";"Moderate"
