{"events": {"event": [
    {
      "eventDateTime": "2007-05-11T17:00:00",
      "eventActual": "282",
      "eventCountry": "United States",
      "eventExpectedVolatility": "Moderate",
      "eventName": "U.S. Baker Hughes Oil Rig Count",
      "eventTimeZone": "GMT",
      "eventPrevious": "282",
      "eventCurrency": "USD",
      "eventForecast": ""
    },
    {
      "eventDateTime": "2007-05-11T20:30:00",
      "eventActual": "56.0k",
      "eventCountry": "United States",
      "eventExpectedVolatility": "Moderate",
      "eventName": "CFTC Crude Oil speculative net positions",
      "eventTimeZone": "GMT",
      "eventPrevious": "66.1k",
      "eventCurrency": "USD",
      "eventForecast": ""
    }
  ]}}
