{"events": {"event": [
    {
      "eventDateTime": "2000-01-01T09:00:00",
      "eventActual": "-25.27%",
      "eventCountry": "Brazil",
      "eventExpectedVolatility": "Low",
      "eventName": "Auto Production (MoM) (Dec)",
      "eventTimeZone": "GMT",
      "eventPrevious": "-1.20%",
      "eventCurrency": "BRL",
      "eventForecast": ""
    },
    {
      "eventDateTime": "2000-01-01T09:00:00",
      "eventActual": "-0.60%",
      "eventCountry": "Brazil",
      "eventExpectedVolatility": "Low",
      "eventName": "Auto Sales (MoM) (Dec)",
      "eventTimeZone": "GMT",
      "eventPrevious": "-5.56%",
      "eventCurrency": "BRL",
      "eventForecast": ""
    },
    {
      "eventDateTime": "2000-01-01T09:00:00",
      "eventActual": "-2.47%",
      "eventCountry": "Brazil",
      "eventExpectedVolatility": "Low",
      "eventName": "Bank lending (MoM) (Dec)",
      "eventTimeZone": "GMT",
      "eventPrevious": "1.03%",
      "eventCurrency": "BRL",
      "eventForecast": ""
    },
    {
      "eventDateTime": "2000-01-01T09:00:00",
      "eventActual": "-10.49B",
      "eventCountry": "Brazil",
      "eventExpectedVolatility": "Low",
      "eventName": "Budget Balance (Dec)",
      "eventTimeZone": "GMT",
      "eventPrevious": "-2.98B",
      "eventCurrency": "BRL",
      "eventForecast": ""
    },
    {
      "eventDateTime": "2000-01-01T09:00:00",
      "eventActual": "-1.80B",
      "eventCountry": "Brazil",
      "eventExpectedVolatility": "Low",
      "eventName": "Budget Surplus (Dec)",
      "eventTimeZone": "GMT",
      "eventPrevious": "0.86B",
      "eventCurrency": "BRL",
      "eventForecast": ""
    },
    {
      "eventDateTime": "2000-01-01T09:00:00",
      "eventActual": "-243.00K",
      "eventCountry": "Brazil",
      "eventExpectedVolatility": "Moderate",
      "eventName": "CAGED Net Payroll Jobs (Dec)",
      "eventTimeZone": "GMT",
      "eventPrevious": "-16.00K",
      "eventCurrency": "BRL",
      "eventForecast": ""
    },
    {
      "eventDateTime": "2000-01-01T09:00:00",
      "eventActual": "0.60%",
      "eventCountry": "Brazil",
      "eventExpectedVolatility": "Moderate",
      "eventName": "CPI (MoM) (Dec)",
      "eventTimeZone": "GMT",
      "eventPrevious": "0.95%",
      "eventCurrency": "BRL",
      "eventForecast": ""
    },
    {
      "eventDateTime": "2000-01-01T09:00:00",
      "eventActual": "8.94%",
      "eventCountry": "Brazil",
      "eventExpectedVolatility": "Moderate",
      "eventName": "CPI (YoY) (Dec)",
      "eventTimeZone": "GMT",
      "eventPrevious": "8.65%",
      "eventCurrency": "BRL",
      "eventForecast": ""
    },
    {
      "eventDateTime": "2000-01-01T09:00:00",
      "eventActual": "22.00B",
      "eventCountry": "Brazil",
      "eventExpectedVolatility": "Low",
      "eventName": "Federal Tax Revenue (Dec)",
      "eventTimeZone": "GMT",
      "eventPrevious": "17.00B",
      "eventCurrency": "BRL",
      "eventForecast": ""
    },
    {
      "eventDateTime": "2000-01-01T09:00:00",
      "eventActual": "2.35B",
      "eventCountry": "Brazil",
      "eventExpectedVolatility": "Low",
      "eventName": "Foreign direct investment (USD) (Dec)",
      "eventTimeZone": "GMT",
      "eventPrevious": "1.80B",
      "eventCurrency": "BRL",
      "eventForecast": ""
    },
    {
      "eventDateTime": "2000-01-01T09:00:00",
      "eventActual": "1.23%",
      "eventCountry": "Brazil",
      "eventExpectedVolatility": "Low",
      "eventName": "IGP-DI Inflation Index (MoM) (Dec)",
      "eventTimeZone": "GMT",
      "eventPrevious": "2.53%",
      "eventCurrency": "BRL",
      "eventForecast": ""
    },
    {
      "eventDateTime": "2000-01-01T09:00:00",
      "eventActual": "1.81%",
      "eventCountry": "Brazil",
      "eventExpectedVolatility": "Low",
      "eventName": "IGP-M Inflation Index (MoM) (Dec)",
      "eventTimeZone": "GMT",
      "eventPrevious": "2.39%",
      "eventCurrency": "BRL",
      "eventForecast": ""
    },
    {
      "eventDateTime": "2000-01-01T09:00:00",
      "eventActual": "0.49%",
      "eventCountry": "Brazil",
      "eventExpectedVolatility": "Moderate",
      "eventName": "IPC-Fipe Inflation Index (MoM) (Dec)",
      "eventTimeZone": "GMT",
      "eventPrevious": "1.48%",
      "eventCurrency": "BRL",
      "eventForecast": ""
    },
    {
      "eventDateTime": "2000-01-01T09:00:00",
      "eventActual": "0.88%",
      "eventCountry": "Brazil",
      "eventExpectedVolatility": "Low",
      "eventName": "Industrial Production (MoM) (Dec)",
      "eventTimeZone": "GMT",
      "eventPrevious": "-0.77%",
      "eventCurrency": "BRL",
      "eventForecast": ""
    },
    {
      "eventDateTime": "2000-01-01T09:00:00",
      "eventActual": "8.58%",
      "eventCountry": "Brazil",
      "eventExpectedVolatility": "Moderate",
      "eventName": "Industrial Production (YoY) (Dec)",
      "eventTimeZone": "GMT",
      "eventPrevious": "4.91%",
      "eventCurrency": "BRL",
      "eventForecast": ""
    },
    {
      "eventDateTime": "2000-01-01T09:00:00",
      "eventActual": "0.91%",
      "eventCountry": "Brazil",
      "eventExpectedVolatility": "Low",
      "eventName": "Mid-Month CPI (MoM) (Dec)",
      "eventTimeZone": "GMT",
      "eventPrevious": "0.99%",
      "eventCurrency": "BRL",
      "eventForecast": ""
    },
    {
      "eventDateTime": "2000-01-01T09:00:00",
      "eventActual": "8.92%",
      "eventCountry": "Brazil",
      "eventExpectedVolatility": "Low",
      "eventName": "Mid-Month CPI (YoY) (Dec)",
      "eventTimeZone": "GMT",
      "eventPrevious": "8.08%",
      "eventCurrency": "BRL",
      "eventForecast": ""
    },
    {
      "eventDateTime": "2000-01-01T09:00:00",
      "eventActual": "0.23B",
      "eventCountry": "Brazil",
      "eventExpectedVolatility": "Low",
      "eventName": "Trade Balance (Dec)",
      "eventTimeZone": "GMT",
      "eventPrevious": "-0.53B",
      "eventCurrency": "BRL",
      "eventForecast": ""
    }
  ]}}
