"Economy Watchers Current Index (Jan)";"Japan";"JPY";"2017-02-08T05:00:00";"GMT";"51.4";"51.9";"49.8";"Low"
"Core Machinery Orders (MoM) (Dec)";"Japan";"JPY";"2017-02-08T23:50:00";"GMT";"-5.1%";"3.1%";"6.7%";"Low"
"Core Machinery Orders (YoY) (Dec)";"Japan";"JPY";"2017-02-08T23:50:00";"GMT";"10.4%";"4.6%";"6.7%";"Low"
"Foreign Bonds Buying";"Japan";"JPY";"2017-02-08T23:50:00";"GMT";"-1,356.7B";"";"-126.6B";"Low"
"Foreign Investments in Japanese Stocks";"Japan";"JPY";"2017-02-08T23:50:00";"GMT";"-143.9B";"";"-248.0B";"Low"
"M2 Money Stock (YoY)";"Japan";"JPY";"2017-02-08T23:50:00";"GMT";"4.0%";"4.0%";"4.1%";"Low"
