"Manufacturing BSI Index (Jan)";"South Korea";"KRW";"2016-12-28T21:00:00";"GMT";"74";"";"73";"Low"
"Industrial Production (MoM) (Nov)";"South Korea";"KRW";"2016-12-28T23:00:00";"GMT";"-1.3%";"1.0%";"3.4%";"Low"
"Industrial Production (YoY) (Nov)";"South Korea";"KRW";"2016-12-28T23:00:00";"GMT";"-1.3%";"2.2%";"4.8%";"Low"
"Retail Sales (MoM)";"South Korea";"KRW";"2016-12-28T23:00:00";"GMT";"5.5%";"";"-0.2%";"Low"
"Service Sector Output (MoM) (Nov)";"South Korea";"KRW";"2016-12-28T23:00:00";"GMT";"-0.2%";"";"0.1%";"Low"
