"30-Year JGB Auction";"Japan";"JPY";"2019-07-04T03:35:00";"GMT";"0.320%";"";"0.360%";"Low"
"Household Spending (MoM) (May)";"Japan";"JPY";"2019-07-04T23:30:00";"GMT";"-1.4%";"1.2%";"5.5%";"Moderate"
"Household Spending (YoY) (May)";"Japan";"JPY";"2019-07-04T23:30:00";"GMT";"1.3%";"1.4%";"4.0%";"Moderate"
"Foreign Reserves (USD) (Jun)";"Japan";"JPY";"2019-07-04T23:50:00";"GMT";"1,308.0B";"";"1,322.3B";"Low"
