{"events": {"event": [
    {
      "eventDateTime": "2017-07-20T03:10:00",
      "eventActual": "-0.10%",
      "eventCountry": "Japan",
      "eventExpectedVolatility": "Moderate",
      "eventName": "BoJ Interest Rate Decision",
      "eventTimeZone": "GMT",
      "eventPrevious": "-0.10%",
      "eventCurrency": "JPY",
      "eventForecast": "-0.10%"
    },
    {
      "eventDateTime": "2017-07-20T03:10:00",
      "eventActual": "",
      "eventCountry": "Japan",
      "eventExpectedVolatility": "High",
      "eventName": "BoJ Monetary Policy Statement",
      "eventTimeZone": "GMT",
      "eventPrevious": "",
      "eventCurrency": "JPY",
      "eventForecast": ""
    },
    {
      "eventDateTime": "2017-07-20T03:10:00",
      "eventActual": "",
      "eventCountry": "Japan",
      "eventExpectedVolatility": "High",
      "eventName": "BoJ Outlook Report (YoY)",
      "eventTimeZone": "GMT",
      "eventPrevious": "",
      "eventCurrency": "JPY",
      "eventForecast": ""
    },
    {
      "eventDateTime": "2017-07-20T04:30:00",
      "eventActual": "-0.9%",
      "eventCountry": "Japan",
      "eventExpectedVolatility": "Low",
      "eventName": "All Industries Activity Index (MoM)",
      "eventTimeZone": "GMT",
      "eventPrevious": "2.3%",
      "eventCurrency": "JPY",
      "eventForecast": "-0.8%"
    },
    {
      "eventDateTime": "2017-07-20T06:30:00",
      "eventActual": "",
      "eventCountry": "Japan",
      "eventExpectedVolatility": "High",
      "eventName": "BoJ Press Conference",
      "eventTimeZone": "GMT",
      "eventPrevious": "",
      "eventCurrency": "JPY",
      "eventForecast": ""
    },
    {
      "eventDateTime": "2017-07-20T23:50:00",
      "eventActual": "947.8B",
      "eventCountry": "Japan",
      "eventExpectedVolatility": "Low",
      "eventName": "Foreign Bonds Buying",
      "eventTimeZone": "GMT",
      "eventPrevious": "805.8B",
      "eventCurrency": "JPY",
      "eventForecast": ""
    },
    {
      "eventDateTime": "2017-07-20T23:50:00",
      "eventActual": "341.0B",
      "eventCountry": "Japan",
      "eventExpectedVolatility": "Low",
      "eventName": "Foreign Investments in Japanese Stocks",
      "eventTimeZone": "GMT",
      "eventPrevious": "-35.2B",
      "eventCurrency": "JPY",
      "eventForecast": ""
    }
  ]}}
