{"events": {"event": {
    "eventDateTime": "2012-12-04T13:30:00",
    "eventActual": "48.80",
    "eventCountry": "Singapore",
    "eventExpectedVolatility": "Low",
    "eventName": "Manufacturing PMI",
    "eventTimeZone": "GMT",
    "eventPrevious": "48.30",
    "eventCurrency": "SGD",
    "eventForecast": "48.00"
  }}}
