"Challenger Job Cuts (Nov)";"United States";"USD";"2015-12-03T12:30:00";"GMT";"50.5K";"";"31.0K";"Low"
"Challenger Job Cuts (YoY)";"United States";"USD";"2015-12-03T12:30:00";"GMT";"-1.3%";"";"-13.9%";"Low"
"Continuing Jobless Claims";"United States";"USD";"2015-12-03T13:30:00";"GMT";"2,155K";"2,187K";"2,161K";"Low"
"FOMC Member Mester Speaks";"United States";"USD";"2015-12-03T13:30:00";"GMT";" ";"";"";"Moderate"
"Initial Jobless Claims";"United States";"USD";"2015-12-03T13:30:00";"GMT";"260K";"268K";"269K";"Moderate"
"Jobless Claims 4-Week Avg.";"United States";"USD";"2015-12-03T13:30:00";"GMT";"271.00K";"";"269.25K";"Low"
"Markit Composite PMI (Nov)";"United States";"USD";"2015-12-03T14:45:00";"GMT";"56.1";"";"55.9";"Moderate"
"Services PMI (Nov)";"United States";"USD";"2015-12-03T14:45:00";"GMT";"56.5";"56.5";"56.1";"Moderate"
"Bloomberg Consumer Confidence";"United States";"USD";"2015-12-03T14:50:00";"GMT";"40.9";"";"39.6";"Low"
"Factory Orders (MoM) (Oct)";"United States";"USD";"2015-12-03T15:00:00";"GMT";"-0.8%";"1.4%";"1.5%";"Moderate"
"Factory orders ex transportation (MoM) (Oct)";"United States";"USD";"2015-12-03T15:00:00";"GMT";"-0.6%";"";"0.2%";"Low"
"Fed Chair Yellen Testifies";"United States";"USD";"2015-12-03T15:00:00";"GMT";" ";"";"";"High"
"ISM Non-Manufacturing Business Activity (Nov)";"United States";"USD";"2015-12-03T15:00:00";"GMT";"63.0";"60.2";"58.2";"Low"
"ISM Non-Manufacturing Employment (Nov)";"United States";"USD";"2015-12-03T15:00:00";"GMT";"59.2";"";"55.0";"Moderate"
"ISM Non-Manufacturing New Orders (Nov)";"United States";"USD";"2015-12-03T15:00:00";"GMT";"62.0";"";"57.5";"Low"
"ISM Non-Manufacturing PMI (Nov)";"United States";"USD";"2015-12-03T15:00:00";"GMT";"59.1";"58.0";"55.9";"High"
"ISM Non-Manufacturing Prices (Nov)";"United States";"USD";"2015-12-03T15:00:00";"GMT";"49.1";"";"50.3";"Low"
"Natural Gas Storage";"United States";"USD";"2015-12-03T15:30:00";"GMT";"9B";"-51B";"-53B";"Low"
"FOMC Member Stanley Fischer Speaks";"United States";"USD";"2015-12-03T18:10:00";"GMT";" ";"";"";"Moderate"
