"German WPI (MoM)";"Germany";"EUR";"2009-03-13T07:00:00";"GMT";"-0.4%";"";"-0.1%";"Low"
"Retail Sales (MoM)";"Euro Zone";"EUR";"2009-03-13T10:00:00";"GMT";"0.0%";"0.2%";"0.1%";"Moderate"
"CFTC EUR speculative net positions";"Euro Zone";"EUR";"2009-03-13T19:30:00";"GMT";"-19.4K";"";"-10.2K";"Moderate"
