{"events": {"event": [
    {
      "eventDateTime": "2003-03-01T09:00:00",
      "eventActual": "0.90%",
      "eventCountry": "China",
      "eventExpectedVolatility": "Moderate",
      "eventName": "CPI (MoM) (Feb)",
      "eventTimeZone": "GMT",
      "eventPrevious": "1.10%",
      "eventCurrency": "CNY",
      "eventForecast": ""
    },
    {
      "eventDateTime": "2003-03-01T09:00:00",
      "eventActual": "0.20%",
      "eventCountry": "China",
      "eventExpectedVolatility": "Moderate",
      "eventName": "CPI (YoY) (Feb)",
      "eventTimeZone": "GMT",
      "eventPrevious": "0.40%",
      "eventCurrency": "CNY",
      "eventForecast": ""
    },
    {
      "eventDateTime": "2003-03-01T09:00:00",
      "eventActual": "27.80%",
      "eventCountry": "China",
      "eventExpectedVolatility": "Moderate",
      "eventName": "Exports (YoY) (Feb)",
      "eventTimeZone": "GMT",
      "eventPrevious": "37.20%",
      "eventCurrency": "CNY",
      "eventForecast": ""
    },
    {
      "eventDateTime": "2003-03-01T09:00:00",
      "eventActual": "53.61%",
      "eventCountry": "China",
      "eventExpectedVolatility": "Low",
      "eventName": "FDI (Feb)",
      "eventTimeZone": "GMT",
      "eventPrevious": "48.19%",
      "eventCurrency": "CNY",
      "eventForecast": ""
    },
    {
      "eventDateTime": "2003-03-01T09:00:00",
      "eventActual": "32.80%",
      "eventCountry": "China",
      "eventExpectedVolatility": "Moderate",
      "eventName": "Fixed Asset Investment (YoY) (Feb)",
      "eventTimeZone": "GMT",
      "eventPrevious": "17.40%",
      "eventCurrency": "CNY",
      "eventForecast": ""
    },
    {
      "eventDateTime": "2003-03-01T09:00:00",
      "eventActual": "49.40%",
      "eventCountry": "China",
      "eventExpectedVolatility": "Moderate",
      "eventName": "Imports (YoY) (Feb)",
      "eventTimeZone": "GMT",
      "eventPrevious": "63.40%",
      "eventCurrency": "CNY",
      "eventForecast": ""
    },
    {
      "eventDateTime": "2003-03-01T09:00:00",
      "eventActual": "19.80%",
      "eventCountry": "China",
      "eventExpectedVolatility": "High",
      "eventName": "Industrial Production (YoY) (Feb)",
      "eventTimeZone": "GMT",
      "eventPrevious": "14.80%",
      "eventCurrency": "CNY",
      "eventForecast": ""
    },
    {
      "eventDateTime": "2003-03-01T09:00:00",
      "eventActual": "18.10%",
      "eventCountry": "China",
      "eventExpectedVolatility": "Low",
      "eventName": "M2 Money Stock (YoY) (Feb)",
      "eventTimeZone": "GMT",
      "eventPrevious": "19.30%",
      "eventCurrency": "CNY",
      "eventForecast": ""
    },
    {
      "eventDateTime": "2003-03-01T09:00:00",
      "eventActual": "19.40%",
      "eventCountry": "China",
      "eventExpectedVolatility": "Low",
      "eventName": "Outstanding Loan Growth (YoY) (Feb)",
      "eventTimeZone": "GMT",
      "eventPrevious": "18.90%",
      "eventCurrency": "CNY",
      "eventForecast": ""
    },
    {
      "eventDateTime": "2003-03-01T09:00:00",
      "eventActual": "1.98%",
      "eventCountry": "China",
      "eventExpectedVolatility": "Moderate",
      "eventName": "PBoC Deposit Rate (Feb)",
      "eventTimeZone": "GMT",
      "eventPrevious": "1.98%",
      "eventCurrency": "CNY",
      "eventForecast": ""
    },
    {
      "eventDateTime": "2003-03-01T09:00:00",
      "eventActual": "5.31%",
      "eventCountry": "China",
      "eventExpectedVolatility": "High",
      "eventName": "PBoC Interest Rate (Feb)",
      "eventTimeZone": "GMT",
      "eventPrevious": "5.31%",
      "eventCurrency": "CNY",
      "eventForecast": ""
    },
    {
      "eventDateTime": "2003-03-01T09:00:00",
      "eventActual": "6.00%",
      "eventCountry": "China",
      "eventExpectedVolatility": "Moderate",
      "eventName": "PBoC Reserve Requirement Ratio (Feb)",
      "eventTimeZone": "GMT",
      "eventPrevious": "6.00%",
      "eventCurrency": "CNY",
      "eventForecast": ""
    },
    {
      "eventDateTime": "2003-03-01T09:00:00",
      "eventActual": "3.90%",
      "eventCountry": "China",
      "eventExpectedVolatility": "Moderate",
      "eventName": "PPI (YoY) (Feb)",
      "eventTimeZone": "GMT",
      "eventPrevious": "2.40%",
      "eventCurrency": "CNY",
      "eventForecast": ""
    },
    {
      "eventDateTime": "2003-03-01T09:00:00",
      "eventActual": "8.50%",
      "eventCountry": "China",
      "eventExpectedVolatility": "Low",
      "eventName": "Retail Sales (YoY) (Feb)",
      "eventTimeZone": "GMT",
      "eventPrevious": "10.00%",
      "eventCurrency": "CNY",
      "eventForecast": ""
    },
    {
      "eventDateTime": "2003-03-01T09:00:00",
      "eventActual": "0.70B",
      "eventCountry": "China",
      "eventExpectedVolatility": "Moderate",
      "eventName": "Trade Balance (USD) (Feb)",
      "eventTimeZone": "GMT",
      "eventPrevious": "-1.26B",
      "eventCurrency": "CNY",
      "eventForecast": ""
    }
  ]}}
