{"events": {"event": [
    {
      "eventDateTime": "2016-11-29T10:00:00",
      "eventActual": "-0.03%",
      "eventCountry": "Brazil",
      "eventExpectedVolatility": "Low",
      "eventName": "IGP-M Inflation Index (MoM) (Nov)",
      "eventTimeZone": "GMT",
      "eventPrevious": "0.16%",
      "eventCurrency": "BRL",
      "eventForecast": "0.06%"
    },
    {
      "eventDateTime": "2016-11-29T11:00:00",
      "eventActual": "11.8%",
      "eventCountry": "Brazil",
      "eventExpectedVolatility": "Moderate",
      "eventName": "Unemployment Rate",
      "eventTimeZone": "GMT",
      "eventPrevious": "11.8%",
      "eventCurrency": "BRL",
      "eventForecast": "11.8%"
    }
  ]}}
