{"events": {"event": [
    {
      "eventDateTime": "2014-11-23T21:45:00",
      "eventActual": "8.00%",
      "eventCountry": "New Zealand",
      "eventExpectedVolatility": "Low",
      "eventName": "External Migration andamp; Visitors (Oct)",
      "eventTimeZone": "GMT",
      "eventPrevious": "1.20%",
      "eventCurrency": "NZD",
      "eventForecast": ""
    },
    {
      "eventDateTime": "2014-11-23T21:45:00",
      "eventActual": "5,250",
      "eventCountry": "New Zealand",
      "eventExpectedVolatility": "Low",
      "eventName": "Permanent/Long-Term Migration (Oct)",
      "eventTimeZone": "GMT",
      "eventPrevious": "4,670",
      "eventCurrency": "NZD",
      "eventForecast": ""
    },
    {
      "eventDateTime": "2014-11-23T21:45:00",
      "eventActual": "3.3%",
      "eventCountry": "New Zealand",
      "eventExpectedVolatility": "Low",
      "eventName": "Visitor Arrivals (MoM)",
      "eventTimeZone": "GMT",
      "eventPrevious": "1.1%",
      "eventCurrency": "NZD",
      "eventForecast": ""
    }
  ]}}
