{"events": {"event": {
    "eventDateTime": "2015-12-30T14:30:00",
    "eventActual": "0.81B",
    "eventCountry": "Brazil",
    "eventExpectedVolatility": "Low",
    "eventName": "Foreign Exchange Flows",
    "eventTimeZone": "GMT",
    "eventPrevious": "0.37B",
    "eventCurrency": "BRL",
    "eventForecast": ""
  }}}
