{"events": {"event": [
    {
      "eventDateTime": "2016-08-04T09:00:00",
      "eventActual": "0.35%",
      "eventCountry": "Brazil",
      "eventExpectedVolatility": "Moderate",
      "eventName": "IPC-Fipe Inflation Index (MoM) (Jul)",
      "eventTimeZone": "GMT",
      "eventPrevious": "0.65%",
      "eventCurrency": "BRL",
      "eventForecast": "0.68%"
    },
    {
      "eventDateTime": "2016-08-04T14:20:00",
      "eventActual": "4.7%",
      "eventCountry": "Brazil",
      "eventExpectedVolatility": "Low",
      "eventName": "Auto Production (MoM) (Jul)",
      "eventTimeZone": "GMT",
      "eventPrevious": "4.2%",
      "eventCurrency": "BRL",
      "eventForecast": ""
    },
    {
      "eventDateTime": "2016-08-04T14:20:00",
      "eventActual": "5.6%",
      "eventCountry": "Brazil",
      "eventExpectedVolatility": "Low",
      "eventName": "Auto Sales (MoM) (Jul)",
      "eventTimeZone": "GMT",
      "eventPrevious": "2.6%",
      "eventCurrency": "BRL",
      "eventForecast": ""
    }
  ]}}
