"Foreign Reserves (USD) (Mar)";"South Africa";"ZAR";"2015-04-09T06:00:00";"GMT";"47.19B";"46.97B";"46.44B";"Low"
"Net FX Reserves (USD) (Mar)";"South Africa";"ZAR";"2015-04-09T06:00:00";"GMT";"41.923B";"41.700B";"41.280B";"Low"
"Business Confidence (Mar)";"South Africa";"ZAR";"2015-04-09T09:30:00";"GMT";"92.8";"";"89.1";"Low"
"Gold Production (YoY) (Feb)";"South Africa";"ZAR";"2015-04-09T09:30:00";"GMT";"-27.5%";"";"-8.0%";"Low"
"Mining Production (Feb)";"South Africa";"ZAR";"2015-04-09T09:30:00";"GMT";"-2.3%";"-0.4%";"7.5%";"Low"
"Manufacturing Production (MoM) (Feb)";"South Africa";"ZAR";"2015-04-09T11:00:00";"GMT";"-1.5%";"0.4%";"0.7%";"Low"
