{"events": {"event": [
    {
      "eventDateTime": "2008-06-03T02:30:00",
      "eventActual": "7.8%",
      "eventCountry": "Australia",
      "eventExpectedVolatility": "Moderate",
      "eventName": "Building Approvals (MoM)",
      "eventTimeZone": "GMT",
      "eventPrevious": "-5.7%",
      "eventCurrency": "AUD",
      "eventForecast": "-0.9%"
    },
    {
      "eventDateTime": "2008-06-03T02:30:00",
      "eventActual": "-19.5B",
      "eventCountry": "Australia",
      "eventExpectedVolatility": "Moderate",
      "eventName": "Current Account",
      "eventTimeZone": "GMT",
      "eventPrevious": "-19.4B",
      "eventCurrency": "AUD",
      "eventForecast": "-20.4B"
    },
    {
      "eventDateTime": "2008-06-03T05:30:00",
      "eventActual": "7.25%",
      "eventCountry": "Australia",
      "eventExpectedVolatility": "High",
      "eventName": "RBA Interest Rate Decision",
      "eventTimeZone": "GMT",
      "eventPrevious": "7.25%",
      "eventCurrency": "AUD",
      "eventForecast": "7.25%"
    }
  ]}}
