"U.S. Baker Hughes Oil Rig Count";"United States";"USD";"2008-06-20T17:00:00";"GMT";"389";"";"384";"Moderate"
"CFTC Gold speculative net positions";"United States";"USD";"2008-06-20T19:30:00";"GMT";"151.2K";"";"151.2K";"Moderate"
"CFTC Silver speculative net positions";"United States";"USD";"2008-06-20T19:30:00";"GMT";"40.9K";"";"40.0K";"Low"
"CFTC Crude Oil speculative net positions";"United States";"USD";"2008-06-20T20:30:00";"GMT";"22.3k";"";"5.7k";"Moderate"
