{"events": {"event": {
    "eventDateTime": "2018-03-06T15:10:00",
    "eventActual": "-0.6%",
    "eventCountry": "New Zealand",
    "eventExpectedVolatility": "Moderate",
    "eventName": "GlobalDairyTrade Price Index",
    "eventTimeZone": "GMT",
    "eventPrevious": "-0.5%",
    "eventCurrency": "NZD",
    "eventForecast": ""
  }}}
