{"events": {"event": {
    "eventDateTime": "2012-07-19T08:30:00",
    "eventActual": "3.20%",
    "eventCountry": "Hong Kong",
    "eventExpectedVolatility": "Low",
    "eventName": "Unemployment Rate",
    "eventTimeZone": "GMT",
    "eventPrevious": "3.20%",
    "eventCurrency": "HKD",
    "eventForecast": "3.30%"
  }}}
