{"events": {"event": [
    {
      "eventDateTime": "2013-04-04T00:30:00",
      "eventActual": "3.1%",
      "eventCountry": "Australia",
      "eventExpectedVolatility": "Moderate",
      "eventName": "Building Approvals (MoM)",
      "eventTimeZone": "GMT",
      "eventPrevious": "-2.0%",
      "eventCurrency": "AUD",
      "eventForecast": "2.4%"
    },
    {
      "eventDateTime": "2013-04-04T00:30:00",
      "eventActual": "1.3%",
      "eventCountry": "Australia",
      "eventExpectedVolatility": "High",
      "eventName": "Retail Sales (MoM)",
      "eventTimeZone": "GMT",
      "eventPrevious": "1.2%",
      "eventCurrency": "AUD",
      "eventForecast": "0.3%"
    }
  ]}}
