{"events": {"event": [
    {
      "eventDateTime": "2010-07-15T12:30:00",
      "eventActual": "0.40%",
      "eventCountry": "Canada",
      "eventExpectedVolatility": "Moderate",
      "eventName": "Manufacturing Sales (MoM)",
      "eventTimeZone": "GMT",
      "eventPrevious": "0.20%",
      "eventCurrency": "CAD",
      "eventForecast": "0.40%"
    },
    {
      "eventDateTime": "2010-07-15T12:30:00",
      "eventActual": "0.2%",
      "eventCountry": "Canada",
      "eventExpectedVolatility": "Low",
      "eventName": "New Motor Vehicle Sales (MoM)",
      "eventTimeZone": "GMT",
      "eventPrevious": "-4.7%",
      "eventCurrency": "CAD",
      "eventForecast": "-5.2%"
    }
  ]}}
