{"events": {"event": [
    {
      "eventDateTime": "2016-10-26T00:30:00",
      "eventActual": "0.7%",
      "eventCountry": "Australia",
      "eventExpectedVolatility": "High",
      "eventName": "CPI (QoQ) (Q3)",
      "eventTimeZone": "GMT",
      "eventPrevious": "0.4%",
      "eventCurrency": "AUD",
      "eventForecast": "0.5%"
    },
    {
      "eventDateTime": "2016-10-26T00:30:00",
      "eventActual": "1.3%",
      "eventCountry": "Australia",
      "eventExpectedVolatility": "Moderate",
      "eventName": "CPI (YoY) (Q3)",
      "eventTimeZone": "GMT",
      "eventPrevious": "1.0%",
      "eventCurrency": "AUD",
      "eventForecast": "1.1%"
    },
    {
      "eventDateTime": "2016-10-26T00:30:00",
      "eventActual": "109.40",
      "eventCountry": "Australia",
      "eventExpectedVolatility": "Low",
      "eventName": "CPI Index Number (Q3)",
      "eventTimeZone": "GMT",
      "eventPrevious": "108.60",
      "eventCurrency": "AUD",
      "eventForecast": ""
    },
    {
      "eventDateTime": "2016-10-26T00:30:00",
      "eventActual": "0.4%",
      "eventCountry": "Australia",
      "eventExpectedVolatility": "Moderate",
      "eventName": "Trimmed Mean CPI (QoQ) (Q3)",
      "eventTimeZone": "GMT",
      "eventPrevious": "0.5%",
      "eventCurrency": "AUD",
      "eventForecast": "0.4%"
    },
    {
      "eventDateTime": "2016-10-26T00:30:00",
      "eventActual": "1.7%",
      "eventCountry": "Australia",
      "eventExpectedVolatility": "Low",
      "eventName": "Trimmed Mean CPI (YoY) (Q3)",
      "eventTimeZone": "GMT",
      "eventPrevious": "1.7%",
      "eventCurrency": "AUD",
      "eventForecast": "1.7%"
    },
    {
      "eventDateTime": "2016-10-26T00:30:00",
      "eventActual": "0.3%",
      "eventCountry": "Australia",
      "eventExpectedVolatility": "Low",
      "eventName": "Weighted mean CPI (QoQ) (Q3)",
      "eventTimeZone": "GMT",
      "eventPrevious": "0.4%",
      "eventCurrency": "AUD",
      "eventForecast": "0.4%"
    },
    {
      "eventDateTime": "2016-10-26T00:30:00",
      "eventActual": "1.3%",
      "eventCountry": "Australia",
      "eventExpectedVolatility": "Low",
      "eventName": "Weighted mean CPI (YoY) (Q3)",
      "eventTimeZone": "GMT",
      "eventPrevious": "1.3%",
      "eventCurrency": "AUD",
      "eventForecast": "1.4%"
    }
  ]}}
