{"events": {"event": [
    {
      "eventDateTime": "2011-12-01T00:30:00",
      "eventActual": "-10.7%",
      "eventCountry": "Australia",
      "eventExpectedVolatility": "Moderate",
      "eventName": "Building Approvals (MoM)",
      "eventTimeZone": "GMT",
      "eventPrevious": "-14.2%",
      "eventCurrency": "AUD",
      "eventForecast": "3.6%"
    },
    {
      "eventDateTime": "2011-12-01T00:30:00",
      "eventActual": "0.2%",
      "eventCountry": "Australia",
      "eventExpectedVolatility": "High",
      "eventName": "Retail Sales (MoM)",
      "eventTimeZone": "GMT",
      "eventPrevious": "0.4%",
      "eventCurrency": "AUD",
      "eventForecast": "0.4%"
    },
    {
      "eventDateTime": "2011-12-01T05:30:00",
      "eventActual": "18.1%",
      "eventCountry": "Australia",
      "eventExpectedVolatility": "Low",
      "eventName": "Commodity Prices (YoY)",
      "eventTimeZone": "GMT",
      "eventPrevious": "19.6%",
      "eventCurrency": "AUD",
      "eventForecast": ""
    },
    {
      "eventDateTime": "2011-12-01T09:00:00",
      "eventActual": "-0.10%",
      "eventCountry": "Australia",
      "eventExpectedVolatility": "Low",
      "eventName": "ANZ Internet Job Ads (MoM) (Nov)",
      "eventTimeZone": "GMT",
      "eventPrevious": "0.00%",
      "eventCurrency": "AUD",
      "eventForecast": ""
    },
    {
      "eventDateTime": "2011-12-01T09:00:00",
      "eventActual": "-0.60%",
      "eventCountry": "Australia",
      "eventExpectedVolatility": "Low",
      "eventName": "ANZ Newspaper Job Ads (MoM) (Nov)",
      "eventTimeZone": "GMT",
      "eventPrevious": "-1.10%",
      "eventCurrency": "AUD",
      "eventForecast": ""
    },
    {
      "eventDateTime": "2011-12-01T09:00:00",
      "eventActual": "0.00%",
      "eventCountry": "Australia",
      "eventExpectedVolatility": "Low",
      "eventName": "Exports (MoM) (Nov)",
      "eventTimeZone": "GMT",
      "eventPrevious": "0.00%",
      "eventCurrency": "AUD",
      "eventForecast": ""
    },
    {
      "eventDateTime": "2011-12-01T09:00:00",
      "eventActual": "-31.20K",
      "eventCountry": "Australia",
      "eventExpectedVolatility": "Moderate",
      "eventName": "Full Employment Change (Nov)",
      "eventTimeZone": "GMT",
      "eventPrevious": "23.30K",
      "eventCurrency": "AUD",
      "eventForecast": ""
    },
    {
      "eventDateTime": "2011-12-01T09:00:00",
      "eventActual": "0.00%",
      "eventCountry": "Australia",
      "eventExpectedVolatility": "Low",
      "eventName": "Housing Credit (Nov)",
      "eventTimeZone": "GMT",
      "eventPrevious": "0.40%",
      "eventCurrency": "AUD",
      "eventForecast": ""
    },
    {
      "eventDateTime": "2011-12-01T09:00:00",
      "eventActual": "0.70%",
      "eventCountry": "Australia",
      "eventExpectedVolatility": "Low",
      "eventName": "Imports (MoM) (Nov)",
      "eventTimeZone": "GMT",
      "eventPrevious": "1.00%",
      "eventCurrency": "AUD",
      "eventForecast": ""
    },
    {
      "eventDateTime": "2011-12-01T09:00:00",
      "eventActual": "0.20%",
      "eventCountry": "Australia",
      "eventExpectedVolatility": "Low",
      "eventName": "Invest Housing Finance (MoM) (Nov)",
      "eventTimeZone": "GMT",
      "eventPrevious": "-3.50%",
      "eventCurrency": "AUD",
      "eventForecast": ""
    },
    {
      "eventDateTime": "2011-12-01T09:00:00",
      "eventActual": "1.50",
      "eventCountry": "Australia",
      "eventExpectedVolatility": "Low",
      "eventName": "NAB Business Survey (Nov)",
      "eventTimeZone": "GMT",
      "eventPrevious": "0.70",
      "eventCurrency": "AUD",
      "eventForecast": ""
    },
    {
      "eventDateTime": "2011-12-01T09:00:00",
      "eventActual": "65.40%",
      "eventCountry": "Australia",
      "eventExpectedVolatility": "Low",
      "eventName": "Participation Rate (Nov)",
      "eventTimeZone": "GMT",
      "eventPrevious": "65.40%",
      "eventCurrency": "AUD",
      "eventForecast": ""
    },
    {
      "eventDateTime": "2011-12-01T09:00:00",
      "eventActual": "6.00%",
      "eventCountry": "Australia",
      "eventExpectedVolatility": "Low",
      "eventName": "Private House Approvals (Nov)",
      "eventTimeZone": "GMT",
      "eventPrevious": "-7.70%",
      "eventCurrency": "AUD",
      "eventForecast": ""
    }
  ]}}
