"French GDP (QoQ)";"France";"EUR";"2014-02-14T06:30:00";"GMT";"-0.1%";"0.2%";"0.3%";"Moderate"
"German GDP (QoQ)";"Germany";"EUR";"2014-02-14T07:00:00";"GMT";"0.3%";"0.3%";"0.4%";"High"
"German GDP (YoY)";"Germany";"EUR";"2014-02-14T07:00:00";"GMT";"1.1%";"1.3%";"1.3%";"Moderate"
"French Non-Farm Payrolls (QoQ)";"France";"EUR";"2014-02-14T07:45:00";"GMT";"-0.1%";"-0.1%";"0.1%";"Moderate"
"Spanish CPI (MoM)";"Spain";"EUR";"2014-02-14T08:00:00";"GMT";"0.1%";"-1.3%";"-1.3%";"Low"
"Spanish CPI (YoY)";"Spain";"EUR";"2014-02-14T08:00:00";"GMT";"0.3%";"0.2%";"0.2%";"Moderate"
"Italian GDP (QoQ)";"Italy";"EUR";"2014-02-14T09:00:00";"GMT";"0.0%";"0.1%";"0.1%";"Low"
"Italian GDP (YoY)";"Italy";"EUR";"2014-02-14T09:00:00";"GMT";"-1.9%";"-0.8%";"-0.8%";"Low"
"GDP (QoQ)";"Euro Zone";"EUR";"2014-02-14T10:00:00";"GMT";"0.1%";"0.2%";"0.3%";"Moderate"
"GDP (YoY)";"Euro Zone";"EUR";"2014-02-14T10:00:00";"GMT";"-0.3%";"0.4%";"0.5%";"Moderate"
"CFTC EUR speculative net positions";"Euro Zone";"EUR";"2014-02-14T20:30:00";"GMT";"-13.6K";"";"-6.9K";"Moderate"
