"Cash Reserve Ratio";"India";"INR";"2017-08-02T09:00:00";"GMT";"4.00%";"4.00%";"4.00%";"Low"
"Interest Rate Decision";"India";"INR";"2017-08-02T09:00:00";"GMT";"6.25%";"6.00%";"6.00%";"High"
"Reverse REPO Rate";"India";"INR";"2017-08-02T09:00:00";"GMT";"6.00%";"5.75%";"5.75%";"Low"
"M3 Money Supply";"India";"INR";"2017-08-02T13:00:00";"GMT";"7.2%";"";"7.1%";"Low"
