{"events": {"event": [
    {
      "eventDateTime": "2018-09-25T05:00:00",
      "eventActual": "103.9",
      "eventCountry": "Japan",
      "eventExpectedVolatility": "Low",
      "eventName": "Leading Index",
      "eventTimeZone": "GMT",
      "eventPrevious": "104.6",
      "eventCurrency": "JPY",
      "eventForecast": "103.5"
    },
    {
      "eventDateTime": "2018-09-25T05:35:00",
      "eventActual": "",
      "eventCountry": "Japan",
      "eventExpectedVolatility": "Moderate",
      "eventName": "BoJ Governor Kuroda Speaks",
      "eventTimeZone": "GMT",
      "eventPrevious": "",
      "eventCurrency": "JPY",
      "eventForecast": ""
    }
  ]}}
