{"events": {"event": {
    "eventDateTime": "2010-10-18T00:30:00",
    "eventActual": "0.9%",
    "eventCountry": "Australia",
    "eventExpectedVolatility": "Low",
    "eventName": "New Motor Vehicle Sales (MoM)",
    "eventTimeZone": "GMT",
    "eventPrevious": "0.2%",
    "eventCurrency": "AUD",
    "eventForecast": ""
  }}}
