{"events": {"event": {
    "eventDateTime": "2008-07-04T19:30:00",
    "eventActual": "3.2K",
    "eventCountry": "New Zealand",
    "eventExpectedVolatility": "Low",
    "eventName": "CFTC NZD speculative net positions",
    "eventTimeZone": "GMT",
    "eventPrevious": "2.7K",
    "eventCurrency": "NZD",
    "eventForecast": ""
  }}}
