"ECB President Draghi Speaks";"Euro Zone";"EUR";"2012-04-25T07:00:00";"GMT";" ";"";"";"High"
"Spanish PPI (YoY)";"Spain";"EUR";"2012-04-25T07:00:00";"GMT";"3.4%";"3.4%";"3.3%";"Low"
"German 30-Year Bund Auction";"Germany";"EUR";"2012-04-25T09:30:00";"GMT";"2.620%";"";"2.410%";"Low"
