{"events": {"event": {
    "eventDateTime": "2016-12-02T20:30:00",
    "eventActual": "22.0K",
    "eventCountry": "Russia",
    "eventExpectedVolatility": "Moderate",
    "eventName": "CFTC RUB speculative positions",
    "eventTimeZone": "GMT",
    "eventPrevious": "21.9K",
    "eventCurrency": "RUB",
    "eventForecast": ""
  }}}
