{"events": {"event": [
    {
      "eventDateTime": "2015-12-04T00:00:00",
      "eventActual": "-5.6%",
      "eventCountry": "New Zealand",
      "eventExpectedVolatility": "Low",
      "eventName": "ANZ Commodity Price Index (MoM)",
      "eventTimeZone": "GMT",
      "eventPrevious": "7.1%",
      "eventCurrency": "NZD",
      "eventForecast": ""
    },
    {
      "eventDateTime": "2015-12-04T20:30:00",
      "eventActual": "4.8K",
      "eventCountry": "New Zealand",
      "eventExpectedVolatility": "Low",
      "eventName": "CFTC NZD speculative net positions",
      "eventTimeZone": "GMT",
      "eventPrevious": "4.0K",
      "eventCurrency": "NZD",
      "eventForecast": ""
    }
  ]}}
