{"events": {"event": [
    {
      "eventDateTime": "2009-01-07T13:15:00",
      "eventActual": "-693K",
      "eventCountry": "United States",
      "eventExpectedVolatility": "High",
      "eventName": "ADP Nonfarm Employment Change",
      "eventTimeZone": "GMT",
      "eventPrevious": "-476K",
      "eventCurrency": "USD",
      "eventForecast": "-450K"
    },
    {
      "eventDateTime": "2009-01-07T15:30:00",
      "eventActual": "6.700M",
      "eventCountry": "United States",
      "eventExpectedVolatility": "High",
      "eventName": "Crude Oil Inventories",
      "eventTimeZone": "GMT",
      "eventPrevious": "0.500M",
      "eventCurrency": "USD",
      "eventForecast": ""
    }
  ]}}
