{"events": {"event": [
    {
      "eventDateTime": "2019-01-25T18:00:00",
      "eventActual": "862",
      "eventCountry": "United States",
      "eventExpectedVolatility": "Moderate",
      "eventName": "U.S. Baker Hughes Oil Rig Count",
      "eventTimeZone": "GMT",
      "eventPrevious": "825",
      "eventCurrency": "USD",
      "eventForecast": ""
    },
    {
      "eventDateTime": "2019-01-25T18:00:00",
      "eventActual": "1,059",
      "eventCountry": "United States",
      "eventExpectedVolatility": "Moderate",
      "eventName": "U.S. Baker Hughes Total Rig Count",
      "eventTimeZone": "GMT",
      "eventPrevious": "1,050",
      "eventCurrency": "USD",
      "eventForecast": ""
    }
  ]}}
