{"events": {"event": [
    {
      "eventDateTime": "2000-04-01T09:00:00",
      "eventActual": "1.04%",
      "eventCountry": "South Africa",
      "eventExpectedVolatility": "Moderate",
      "eventName": "CPI (MoM) (Mar)",
      "eventTimeZone": "GMT",
      "eventPrevious": "-0.42%",
      "eventCurrency": "ZAR",
      "eventForecast": ""
    },
    {
      "eventDateTime": "2000-04-01T09:00:00",
      "eventActual": "3.42%",
      "eventCountry": "South Africa",
      "eventExpectedVolatility": "Low",
      "eventName": "CPI (YoY) (Mar)",
      "eventTimeZone": "GMT",
      "eventPrevious": "2.35%",
      "eventCurrency": "ZAR",
      "eventForecast": ""
    },
    {
      "eventDateTime": "2000-04-01T09:00:00",
      "eventActual": "7.47B",
      "eventCountry": "South Africa",
      "eventExpectedVolatility": "Low",
      "eventName": "Foreign Reserves (USD) (Mar)",
      "eventTimeZone": "GMT",
      "eventPrevious": "7.51B",
      "eventCurrency": "ZAR",
      "eventForecast": ""
    },
    {
      "eventDateTime": "2000-04-01T09:00:00",
      "eventActual": "-7.99%",
      "eventCountry": "South Africa",
      "eventExpectedVolatility": "Low",
      "eventName": "Gold Production (YoY) (Mar)",
      "eventTimeZone": "GMT",
      "eventPrevious": "3.86%",
      "eventCurrency": "ZAR",
      "eventForecast": ""
    },
    {
      "eventDateTime": "2000-04-01T09:00:00",
      "eventActual": "11.75%",
      "eventCountry": "South Africa",
      "eventExpectedVolatility": "Moderate",
      "eventName": "Interest Rate Decision (Mar)",
      "eventTimeZone": "GMT",
      "eventPrevious": "11.75%",
      "eventCurrency": "ZAR",
      "eventForecast": ""
    },
    {
      "eventDateTime": "2000-04-01T09:00:00",
      "eventActual": "9.11%",
      "eventCountry": "South Africa",
      "eventExpectedVolatility": "Low",
      "eventName": "M3 Money Supply (YoY) (Mar)",
      "eventTimeZone": "GMT",
      "eventPrevious": "13.07%",
      "eventCurrency": "ZAR",
      "eventForecast": ""
    },
    {
      "eventDateTime": "2000-04-01T09:00:00",
      "eventActual": "-4.74%",
      "eventCountry": "South Africa",
      "eventExpectedVolatility": "Low",
      "eventName": "Mining Production (Mar)",
      "eventTimeZone": "GMT",
      "eventPrevious": "0.79%",
      "eventCurrency": "ZAR",
      "eventForecast": ""
    },
    {
      "eventDateTime": "2000-04-01T09:00:00",
      "eventActual": "-10.31B",
      "eventCountry": "South Africa",
      "eventExpectedVolatility": "Low",
      "eventName": "Net FX Reserves (USD) (Mar)",
      "eventTimeZone": "GMT",
      "eventPrevious": "-11.12B",
      "eventCurrency": "ZAR",
      "eventForecast": ""
    },
    {
      "eventDateTime": "2000-04-01T09:00:00",
      "eventActual": "14.50%",
      "eventCountry": "South Africa",
      "eventExpectedVolatility": "Low",
      "eventName": "Prime Rate (Mar)",
      "eventTimeZone": "GMT",
      "eventPrevious": "14.50%",
      "eventCurrency": "ZAR",
      "eventForecast": ""
    },
    {
      "eventDateTime": "2000-04-01T09:00:00",
      "eventActual": "7.92%",
      "eventCountry": "South Africa",
      "eventExpectedVolatility": "Low",
      "eventName": "Private Sector Credit (Mar)",
      "eventTimeZone": "GMT",
      "eventPrevious": "8.87%",
      "eventCurrency": "ZAR",
      "eventForecast": ""
    },
    {
      "eventDateTime": "2000-04-01T09:00:00",
      "eventActual": "31.78K",
      "eventCountry": "South Africa",
      "eventExpectedVolatility": "Low",
      "eventName": "Total Vehicle Sales (Mar)",
      "eventTimeZone": "GMT",
      "eventPrevious": "26.90K",
      "eventCurrency": "ZAR",
      "eventForecast": ""
    },
    {
      "eventDateTime": "2000-04-01T09:00:00",
      "eventActual": "23.90%",
      "eventCountry": "South Africa",
      "eventExpectedVolatility": "Low",
      "eventName": "Total Vehicle Sales (YoY) (Mar)",
      "eventTimeZone": "GMT",
      "eventPrevious": "18.20%",
      "eventCurrency": "ZAR",
      "eventForecast": ""
    }
  ]}}
