"Investing.com USD/CAD Index";"Canada";"CAD";"2016-10-31T06:30:00";"GMT";"38.2%";"";"38.2%";"Moderate"
"IPPI (MoM) (Sep)";"Canada";"CAD";"2016-10-31T12:30:00";"GMT";"-0.4%";"0.2%";"0.4%";"Low"
"IPPI (YoY) (Sep)";"Canada";"CAD";"2016-10-31T12:30:00";"GMT";"-1.3%";"";"-0.5%";"Low"
"RMPI (MoM) (Sep)";"Canada";"CAD";"2016-10-31T12:30:00";"GMT";"-0.7%";"0.5%";"-0.1%";"Moderate"
"RMPI (YoY) (Sep)";"Canada";"CAD";"2016-10-31T12:30:00";"GMT";"0.6%";"";"-1.9%";"Low"
