{"events": {"event": {
    "eventDateTime": "2019-04-19T11:30:00",
    "eventActual": "414.90B",
    "eventCountry": "India",
    "eventExpectedVolatility": "Low",
    "eventName": "FX Reserves, USD",
    "eventTimeZone": "GMT",
    "eventPrevious": "413.78B",
    "eventCurrency": "INR",
    "eventForecast": ""
  }}}
