{"events": {"event": {
    "eventDateTime": "2017-04-17T13:00:00",
    "eventActual": "0.8%",
    "eventCountry": "Russia",
    "eventExpectedVolatility": "Low",
    "eventName": "Industrial Production (YoY)",
    "eventTimeZone": "GMT",
    "eventPrevious": "-2.7%",
    "eventCurrency": "RUB",
    "eventForecast": ""
  }}}
