"Employment Change (May)";"Canada";"CAD";"2015-06-05T12:30:00";"GMT";"-19.7K";"10.0K";"58.9K";"High"
"Full Employment Change (May)";"Canada";"CAD";"2015-06-05T12:30:00";"GMT";"46.9K";"";"30.9K";"Low"
"Labor Productivity (QoQ) (Q1)";"Canada";"CAD";"2015-06-05T12:30:00";"GMT";"0.3%";"0.2%";"-0.1%";"Moderate"
"Part Time Employment Change (May)";"Canada";"CAD";"2015-06-05T12:30:00";"GMT";"-66.5K";"";"27.9K";"Low"
"Participation Rate (May)";"Canada";"CAD";"2015-06-05T12:30:00";"GMT";"65.8%";"65.8%";"65.9%";"Low"
"Unemployment Rate (May)";"Canada";"CAD";"2015-06-05T12:30:00";"GMT";"6.8%";"6.8%";"6.8%";"Moderate"
"CFTC CAD speculative net positions";"Canada";"CAD";"2015-06-05T19:30:00";"GMT";"7.3K";"";"-1.0K";"Low"
