{"events": {"event": {
    "eventDateTime": "2015-10-22T11:00:00",
    "eventActual": "7.6%",
    "eventCountry": "Brazil",
    "eventExpectedVolatility": "Moderate",
    "eventName": "Unemployment Rate (Sep)",
    "eventTimeZone": "GMT",
    "eventPrevious": "7.6%",
    "eventCurrency": "BRL",
    "eventForecast": "7.8%"
  }}}
