{"events": {"event": {
    "eventDateTime": "2015-11-27T05:00:00",
    "eventActual": "1.2%",
    "eventCountry": "Japan",
    "eventExpectedVolatility": "Low",
    "eventName": "BoJ Core CPI (YoY)",
    "eventTimeZone": "GMT",
    "eventPrevious": "1.2%",
    "eventCurrency": "JPY",
    "eventForecast": ""
  }}}
