{"events": {"event": [
    {
      "eventDateTime": "2013-02-26T21:00:00",
      "eventActual": "102",
      "eventCountry": "South Korea",
      "eventExpectedVolatility": "Low",
      "eventName": "Consumer Confidence",
      "eventTimeZone": "GMT",
      "eventPrevious": "102",
      "eventCurrency": "KRW",
      "eventForecast": "102"
    },
    {
      "eventDateTime": "2013-02-26T23:00:00",
      "eventActual": "6.52B",
      "eventCountry": "South Korea",
      "eventExpectedVolatility": "Low",
      "eventName": "Current Account",
      "eventTimeZone": "GMT",
      "eventPrevious": "3.00B",
      "eventCurrency": "KRW",
      "eventForecast": ""
    }
  ]}}
