{"events": {"event": [
    {
      "eventDateTime": "2011-02-04T13:30:00",
      "eventActual": "0.4%",
      "eventCountry": "United States",
      "eventExpectedVolatility": "Moderate",
      "eventName": "Average Hourly Earnings (MoM)",
      "eventTimeZone": "GMT",
      "eventPrevious": "0.1%",
      "eventCurrency": "USD",
      "eventForecast": "0.2%"
    },
    {
      "eventDateTime": "2011-02-04T13:30:00",
      "eventActual": "34.2",
      "eventCountry": "United States",
      "eventExpectedVolatility": "Low",
      "eventName": "Average Weekly Hours",
      "eventTimeZone": "GMT",
      "eventPrevious": "34.3",
      "eventCurrency": "USD",
      "eventForecast": "34.3"
    },
    {
      "eventDateTime": "2011-02-04T13:30:00",
      "eventActual": "36K",
      "eventCountry": "United States",
      "eventExpectedVolatility": "High",
      "eventName": "Nonfarm Payrolls",
      "eventTimeZone": "GMT",
      "eventPrevious": "121K",
      "eventCurrency": "USD",
      "eventForecast": "150K"
    },
    {
      "eventDateTime": "2011-02-04T13:30:00",
      "eventActual": "50K",
      "eventCountry": "United States",
      "eventExpectedVolatility": "Moderate",
      "eventName": "Private Nonfarm Payrolls",
      "eventTimeZone": "GMT",
      "eventPrevious": "139K",
      "eventCurrency": "USD",
      "eventForecast": "163K"
    },
    {
      "eventDateTime": "2011-02-04T13:30:00",
      "eventActual": "16.20%",
      "eventCountry": "United States",
      "eventExpectedVolatility": "Low",
      "eventName": "U6 Unemployment Rate (Jan)",
      "eventTimeZone": "GMT",
      "eventPrevious": "16.60%",
      "eventCurrency": "USD",
      "eventForecast": ""
    },
    {
      "eventDateTime": "2011-02-04T13:30:00",
      "eventActual": "9.0%",
      "eventCountry": "United States",
      "eventExpectedVolatility": "High",
      "eventName": "Unemployment Rate",
      "eventTimeZone": "GMT",
      "eventPrevious": "9.4%",
      "eventCurrency": "USD",
      "eventForecast": "9.6%"
    },
    {
      "eventDateTime": "2011-02-04T17:00:00",
      "eventActual": "818",
      "eventCountry": "United States",
      "eventExpectedVolatility": "Moderate",
      "eventName": "U.S. Baker Hughes Oil Rig Count",
      "eventTimeZone": "GMT",
      "eventPrevious": "809",
      "eventCurrency": "USD",
      "eventForecast": ""
    },
    {
      "eventDateTime": "2011-02-04T18:00:00",
      "eventActual": "",
      "eventCountry": "United States",
      "eventExpectedVolatility": "Moderate",
      "eventName": "FOMC Member Fisher Speaks",
      "eventTimeZone": "GMT",
      "eventPrevious": "",
      "eventCurrency": "USD",
      "eventForecast": ""
    },
    {
      "eventDateTime": "2011-02-04T20:30:00",
      "eventActual": "152.7k",
      "eventCountry": "United States",
      "eventExpectedVolatility": "Moderate",
      "eventName": "CFTC Crude Oil speculative net positions",
      "eventTimeZone": "GMT",
      "eventPrevious": "143.3k",
      "eventCurrency": "USD",
      "eventForecast": ""
    },
    {
      "eventDateTime": "2011-02-04T20:30:00",
      "eventActual": "151.2K",
      "eventCountry": "United States",
      "eventExpectedVolatility": "Moderate",
      "eventName": "CFTC Gold speculative net positions",
      "eventTimeZone": "GMT",
      "eventPrevious": "160.6K",
      "eventCurrency": "USD",
      "eventForecast": ""
    },
    {
      "eventDateTime": "2011-02-04T20:30:00",
      "eventActual": "30.7K",
      "eventCountry": "United States",
      "eventExpectedVolatility": "Low",
      "eventName": "CFTC Silver speculative net positions",
      "eventTimeZone": "GMT",
      "eventPrevious": "28.2K",
      "eventCurrency": "USD",
      "eventForecast": ""
    }
  ]}}
