{"events": {"event": [
    {
      "eventDateTime": "2000-06-01T09:00:00",
      "eventActual": "5.75%",
      "eventCountry": "Canada",
      "eventExpectedVolatility": "High",
      "eventName": "BoC Interest Rate Decision (May)",
      "eventTimeZone": "GMT",
      "eventPrevious": "5.25%",
      "eventCurrency": "CAD",
      "eventForecast": ""
    },
    {
      "eventDateTime": "2000-06-01T09:00:00",
      "eventActual": "3.50B",
      "eventCountry": "Canada",
      "eventExpectedVolatility": "Low",
      "eventName": "Budget Balance (May)",
      "eventTimeZone": "GMT",
      "eventPrevious": "2.95B",
      "eventCurrency": "CAD",
      "eventForecast": ""
    },
    {
      "eventDateTime": "2000-06-01T09:00:00",
      "eventActual": "5.00%",
      "eventCountry": "Canada",
      "eventExpectedVolatility": "Moderate",
      "eventName": "Building Permits (MoM) (May)",
      "eventTimeZone": "GMT",
      "eventPrevious": "-7.30%",
      "eventCurrency": "CAD",
      "eventForecast": ""
    },
    {
      "eventDateTime": "2000-06-01T09:00:00",
      "eventActual": "0.40%",
      "eventCountry": "Canada",
      "eventExpectedVolatility": "Moderate",
      "eventName": "CPI (MoM) (May)",
      "eventTimeZone": "GMT",
      "eventPrevious": "-0.30%",
      "eventCurrency": "CAD",
      "eventForecast": ""
    },
    {
      "eventDateTime": "2000-06-01T09:00:00",
      "eventActual": "2.40%",
      "eventCountry": "Canada",
      "eventExpectedVolatility": "Low",
      "eventName": "CPI (YoY) (May)",
      "eventTimeZone": "GMT",
      "eventPrevious": "2.20%",
      "eventCurrency": "CAD",
      "eventForecast": ""
    },
    {
      "eventDateTime": "2000-06-01T09:00:00",
      "eventActual": "0.20%",
      "eventCountry": "Canada",
      "eventExpectedVolatility": "High",
      "eventName": "Core CPI (MoM) (May)",
      "eventTimeZone": "GMT",
      "eventPrevious": "0.00%",
      "eventCurrency": "CAD",
      "eventForecast": ""
    },
    {
      "eventDateTime": "2000-06-01T09:00:00",
      "eventActual": "1.10%",
      "eventCountry": "Canada",
      "eventExpectedVolatility": "Moderate",
      "eventName": "Core CPI (YoY) (May)",
      "eventTimeZone": "GMT",
      "eventPrevious": "1.20%",
      "eventCurrency": "CAD",
      "eventForecast": ""
    },
    {
      "eventDateTime": "2000-06-01T09:00:00",
      "eventActual": "0.10%",
      "eventCountry": "Canada",
      "eventExpectedVolatility": "High",
      "eventName": "Core Retail Sales (MoM) (May)",
      "eventTimeZone": "GMT",
      "eventPrevious": "-0.30%",
      "eventCurrency": "CAD",
      "eventForecast": ""
    },
    {
      "eventDateTime": "2000-06-01T09:00:00",
      "eventActual": "13.70K",
      "eventCountry": "Canada",
      "eventExpectedVolatility": "High",
      "eventName": "Employment Change (May)",
      "eventTimeZone": "GMT",
      "eventPrevious": "25.20K",
      "eventCurrency": "CAD",
      "eventForecast": ""
    },
    {
      "eventDateTime": "2000-06-01T09:00:00",
      "eventActual": "35.66B",
      "eventCountry": "Canada",
      "eventExpectedVolatility": "Low",
      "eventName": "Exports (May)",
      "eventTimeZone": "GMT",
      "eventPrevious": "33.76B",
      "eventCurrency": "CAD",
      "eventForecast": ""
    },
    {
      "eventDateTime": "2000-06-01T09:00:00",
      "eventActual": "-5.36B",
      "eventCountry": "Canada",
      "eventExpectedVolatility": "Moderate",
      "eventName": "Foreign Securities Purchases (May)",
      "eventTimeZone": "GMT",
      "eventPrevious": "8.96B",
      "eventCurrency": "CAD",
      "eventForecast": ""
    },
    {
      "eventDateTime": "2000-06-01T09:00:00",
      "eventActual": "9.40B",
      "eventCountry": "Canada",
      "eventExpectedVolatility": "Low",
      "eventName": "Foreign Securities Purchases by Canadians (May)",
      "eventTimeZone": "GMT",
      "eventPrevious": "5.36B",
      "eventCurrency": "CAD",
      "eventForecast": ""
    },
    {
      "eventDateTime": "2000-06-01T09:00:00",
      "eventActual": "42.20K",
      "eventCountry": "Canada",
      "eventExpectedVolatility": "Low",
      "eventName": "Full Employment Change (May)",
      "eventTimeZone": "GMT",
      "eventPrevious": "-27.10K",
      "eventCurrency": "CAD",
      "eventForecast": ""
    },
    {
      "eventDateTime": "2000-06-01T09:00:00",
      "eventActual": "0.60%",
      "eventCountry": "Canada",
      "eventExpectedVolatility": "High",
      "eventName": "GDP (MoM) (May)",
      "eventTimeZone": "GMT",
      "eventPrevious": "-0.10%",
      "eventCurrency": "CAD",
      "eventForecast": ""
    },
    {
      "eventDateTime": "2000-06-01T09:00:00",
      "eventActual": "144.70K",
      "eventCountry": "Canada",
      "eventExpectedVolatility": "Moderate",
      "eventName": "Housing Starts (May)",
      "eventTimeZone": "GMT",
      "eventPrevious": "157.00K",
      "eventCurrency": "CAD",
      "eventForecast": ""
    },
    {
      "eventDateTime": "2000-06-01T09:00:00",
      "eventActual": "0.30%",
      "eventCountry": "Canada",
      "eventExpectedVolatility": "Low",
      "eventName": "IPPI (MoM) (May)",
      "eventTimeZone": "GMT",
      "eventPrevious": "0.00%",
      "eventCurrency": "CAD",
      "eventForecast": ""
    },
    {
      "eventDateTime": "2000-06-01T09:00:00",
      "eventActual": "5.10%",
      "eventCountry": "Canada",
      "eventExpectedVolatility": "Low",
      "eventName": "IPPI (YoY) (May)",
      "eventTimeZone": "GMT",
      "eventPrevious": "4.90%",
      "eventCurrency": "CAD",
      "eventForecast": ""
    },
    {
      "eventDateTime": "2000-06-01T09:00:00",
      "eventActual": "30.49B",
      "eventCountry": "Canada",
      "eventExpectedVolatility": "Low",
      "eventName": "Imports (May)",
      "eventTimeZone": "GMT",
      "eventPrevious": "29.51B",
      "eventCurrency": "CAD",
      "eventForecast": ""
    },
    {
      "eventDateTime": "2000-06-01T09:00:00",
      "eventActual": "61.00",
      "eventCountry": "Canada",
      "eventExpectedVolatility": "Low",
      "eventName": "Ivey PMI n.s.a (May)",
      "eventTimeZone": "GMT",
      "eventPrevious": "59.00",
      "eventCurrency": "CAD",
      "eventForecast": ""
    },
    {
      "eventDateTime": "2000-06-01T09:00:00",
      "eventActual": "2.90%",
      "eventCountry": "Canada",
      "eventExpectedVolatility": "Moderate",
      "eventName": "Manufacturing Sales (MoM) (May)",
      "eventTimeZone": "GMT",
      "eventPrevious": "-3.20%",
      "eventCurrency": "CAD",
      "eventForecast": ""
    },
    {
      "eventDateTime": "2000-06-01T09:00:00",
      "eventActual": "0.30%",
      "eventCountry": "Canada",
      "eventExpectedVolatility": "Moderate",
      "eventName": "New Housing Price Index (MoM) (May)",
      "eventTimeZone": "GMT",
      "eventPrevious": "0.10%",
      "eventCurrency": "CAD",
      "eventForecast": ""
    },
    {
      "eventDateTime": "2000-06-01T09:00:00",
      "eventActual": "-28.40K",
      "eventCountry": "Canada",
      "eventExpectedVolatility": "Low",
      "eventName": "Part Time Employment Change (May)",
      "eventTimeZone": "GMT",
      "eventPrevious": "52.20K",
      "eventCurrency": "CAD",
      "eventForecast": ""
    },
    {
      "eventDateTime": "2000-06-01T09:00:00",
      "eventActual": "65.60%",
      "eventCountry": "Canada",
      "eventExpectedVolatility": "Low",
      "eventName": "Participation Rate (May)",
      "eventTimeZone": "GMT",
      "eventPrevious": "65.70%",
      "eventCurrency": "CAD",
      "eventForecast": ""
    },
    {
      "eventDateTime": "2000-06-01T09:00:00",
      "eventActual": "5.90%",
      "eventCountry": "Canada",
      "eventExpectedVolatility": "Moderate",
      "eventName": "RMPI (MoM) (May)",
      "eventTimeZone": "GMT",
      "eventPrevious": "-5.80%",
      "eventCurrency": "CAD",
      "eventForecast": ""
    },
    {
      "eventDateTime": "2000-06-01T09:00:00",
      "eventActual": "23.40%",
      "eventCountry": "Canada",
      "eventExpectedVolatility": "Low",
      "eventName": "RMPI (YoY) (May)",
      "eventTimeZone": "GMT",
      "eventPrevious": "18.10%",
      "eventCurrency": "CAD",
      "eventForecast": ""
    },
    {
      "eventDateTime": "2000-06-01T09:00:00",
      "eventActual": "0.50%",
      "eventCountry": "Canada",
      "eventExpectedVolatility": "Moderate",
      "eventName": "Retail Sales (MoM) (May)",
      "eventTimeZone": "GMT",
      "eventPrevious": "-1.20%",
      "eventCurrency": "CAD",
      "eventForecast": ""
    },
    {
      "eventDateTime": "2000-06-01T09:00:00",
      "eventActual": "5.16B",
      "eventCountry": "Canada",
      "eventExpectedVolatility": "Moderate",
      "eventName": "Trade Balance (May)",
      "eventTimeZone": "GMT",
      "eventPrevious": "4.25B",
      "eventCurrency": "CAD",
      "eventForecast": ""
    },
    {
      "eventDateTime": "2000-06-01T09:00:00",
      "eventActual": "6.60%",
      "eventCountry": "Canada",
      "eventExpectedVolatility": "Moderate",
      "eventName": "Unemployment Rate (May)",
      "eventTimeZone": "GMT",
      "eventPrevious": "6.70%",
      "eventCurrency": "CAD",
      "eventForecast": ""
    },
    {
      "eventDateTime": "2000-06-01T09:00:00",
      "eventActual": "0.50%",
      "eventCountry": "Canada",
      "eventExpectedVolatility": "Moderate",
      "eventName": "Wholesale Sales (MoM) (May)",
      "eventTimeZone": "GMT",
      "eventPrevious": "0.50%",
      "eventCurrency": "CAD",
      "eventForecast": ""
    }
  ]}}
