{"events": {"event": {
    "eventDateTime": "2012-10-08T02:30:00",
    "eventActual": "54.3",
    "eventCountry": "China",
    "eventExpectedVolatility": "Moderate",
    "eventName": "Caixin Services PMI",
    "eventTimeZone": "GMT",
    "eventPrevious": "52.0",
    "eventCurrency": "CNY",
    "eventForecast": ""
  }}}
