{"events": {"event": {
    "eventDateTime": "2010-09-02T23:50:00",
    "eventActual": "-1.70%",
    "eventCountry": "Japan",
    "eventExpectedVolatility": "Moderate",
    "eventName": "Capital Spending (YoY)",
    "eventTimeZone": "GMT",
    "eventPrevious": "-11.50%",
    "eventCurrency": "JPY",
    "eventForecast": "-6.60%"
  }}}
