{"events": {"event": [
    {
      "eventDateTime": "2015-04-24T14:30:00",
      "eventActual": "",
      "eventCountry": "Canada",
      "eventExpectedVolatility": "High",
      "eventName": "BoC Gov Poloz Speaks",
      "eventTimeZone": "GMT",
      "eventPrevious": "",
      "eventCurrency": "CAD",
      "eventForecast": ""
    },
    {
      "eventDateTime": "2015-04-24T19:30:00",
      "eventActual": "-27.1K",
      "eventCountry": "Canada",
      "eventExpectedVolatility": "Low",
      "eventName": "CFTC CAD speculative net positions",
      "eventTimeZone": "GMT",
      "eventPrevious": "-30.6K",
      "eventCurrency": "CAD",
      "eventForecast": ""
    }
  ]}}
