{"events": {"event": [
    {
      "eventDateTime": "2010-01-22T09:30:00",
      "eventActual": "0.3%",
      "eventCountry": "United Kingdom",
      "eventExpectedVolatility": "High",
      "eventName": "Retail Sales (MoM)",
      "eventTimeZone": "GMT",
      "eventPrevious": "-0.3%",
      "eventCurrency": "GBP",
      "eventForecast": "1.3%"
    },
    {
      "eventDateTime": "2010-01-22T20:30:00",
      "eventActual": "-20.2K",
      "eventCountry": "United Kingdom",
      "eventExpectedVolatility": "Moderate",
      "eventName": "CFTC GBP speculative net positions",
      "eventTimeZone": "GMT",
      "eventPrevious": "-35.5K",
      "eventCurrency": "GBP",
      "eventForecast": ""
    }
  ]}}
