{"events": {"event": {
    "eventDateTime": "2008-08-27T03:00:00",
    "eventActual": "-20.50",
    "eventCountry": "New Zealand",
    "eventExpectedVolatility": "Moderate",
    "eventName": "ANZ Business Confidence",
    "eventTimeZone": "GMT",
    "eventPrevious": "-43.20",
    "eventCurrency": "NZD",
    "eventForecast": ""
  }}}
