{"events": {"event": {
    "eventDateTime": "2011-10-03T13:00:00",
    "eventActual": "3.4%",
    "eventCountry": "Russia",
    "eventExpectedVolatility": "Moderate",
    "eventName": "GDP Monthly (YoY)",
    "eventTimeZone": "GMT",
    "eventPrevious": "4.1%",
    "eventCurrency": "RUB",
    "eventForecast": "3.4%"
  }}}
