{"events": {"event": [
    {
      "eventDateTime": "2011-04-29T12:30:00",
      "eventActual": "-0.2%",
      "eventCountry": "Canada",
      "eventExpectedVolatility": "High",
      "eventName": "GDP (MoM)",
      "eventTimeZone": "GMT",
      "eventPrevious": "0.5%",
      "eventCurrency": "CAD",
      "eventForecast": "0.0%"
    },
    {
      "eventDateTime": "2011-04-29T19:30:00",
      "eventActual": "59.1K",
      "eventCountry": "Canada",
      "eventExpectedVolatility": "Low",
      "eventName": "CFTC CAD speculative net positions",
      "eventTimeZone": "GMT",
      "eventPrevious": "65.0K",
      "eventCurrency": "CAD",
      "eventForecast": ""
    }
  ]}}
