{"events": {"event": [
    {
      "eventDateTime": "2014-11-21T02:00:00",
      "eventActual": "6.7%",
      "eventCountry": "New Zealand",
      "eventExpectedVolatility": "Low",
      "eventName": "Credit Card Spending (YoY)",
      "eventTimeZone": "GMT",
      "eventPrevious": "4.5%",
      "eventCurrency": "NZD",
      "eventForecast": ""
    },
    {
      "eventDateTime": "2014-11-21T20:30:00",
      "eventActual": "-1.2K",
      "eventCountry": "New Zealand",
      "eventExpectedVolatility": "Low",
      "eventName": "CFTC NZD speculative net positions",
      "eventTimeZone": "GMT",
      "eventPrevious": "-1.0K",
      "eventCurrency": "NZD",
      "eventForecast": ""
    }
  ]}}
