{"events": {"event": {
    "eventDateTime": "2018-07-15T23:01:00",
    "eventActual": "-0.1%",
    "eventCountry": "United Kingdom",
    "eventExpectedVolatility": "Low",
    "eventName": "Rightmove House Price Index (MoM)",
    "eventTimeZone": "GMT",
    "eventPrevious": "0.4%",
    "eventCurrency": "GBP",
    "eventForecast": ""
  }}}
