"Nonfarm Payrolls (Sep)";"United States";"USD";"2001-10-05T12:30:00";"GMT";"-160K";"";"-241K";"High"
"U.S. Baker Hughes Oil Rig Count";"United States";"USD";"2001-10-05T17:00:00";"GMT";"215";"";"205";"Moderate"
"CFTC Crude Oil speculative net positions";"United States";"USD";"2001-10-05T20:30:00";"GMT";"-19.0k";"";"-44.7k";"Moderate"
