"CPI (MoM) (Apr)";"China";"CNY";"2007-05-01T09:00:00";"GMT";"-0.30%";"";"-0.10%";"Moderate"
"CPI (YoY) (Apr)";"China";"CNY";"2007-05-01T09:00:00";"GMT";"3.30%";"";"3.00%";"Moderate"
"Exports (YoY) (Apr)";"China";"CNY";"2007-05-01T09:00:00";"GMT";"7.10%";"";"26.90%";"Moderate"
"FDI (Apr)";"China";"CNY";"2007-05-01T09:00:00";"GMT";"11.56%";"";"10.17%";"Low"
"Fixed Asset Investment (YoY) (Apr)";"China";"CNY";"2007-05-01T09:00:00";"GMT";"25.30%";"";"25.50%";"Moderate"
"Imports (YoY) (Apr)";"China";"CNY";"2007-05-01T09:00:00";"GMT";"14.50%";"";"21.30%";"Moderate"
"Industrial Production (YoY) (Apr)";"China";"CNY";"2007-05-01T09:00:00";"GMT";"17.60%";"";"17.40%";"High"
"M2 Money Stock (YoY) (Apr)";"China";"CNY";"2007-05-01T09:00:00";"GMT";"17.30%";"";"17.10%";"Low"
"Manufacturing PMI (Apr)";"China";"CNY";"2007-05-01T09:00:00";"GMT";"56.10";"";"58.60";"High"
"New Loans (Apr)";"China";"CNY";"2007-05-01T09:00:00";"GMT";"441.70B";"";"422.00B";"Moderate"
"Non-Manufacturing PMI (Apr)";"China";"CNY";"2007-05-01T09:00:00";"GMT";"58.20";"";"60.40";"Moderate"
"Outstanding Loan Growth (YoY) (Apr)";"China";"CNY";"2007-05-01T09:00:00";"GMT";"16.20%";"";"16.50%";"Low"
"PBoC Deposit Rate (Apr)";"China";"CNY";"2007-05-01T09:00:00";"GMT";"2.64%";"";"2.79%";"Moderate"
"PBoC Reserve Requirement Ratio (Apr)";"China";"CNY";"2007-05-01T09:00:00";"GMT";"10.00%";"";"10.26%";"Moderate"
"PPI (YoY) (Apr)";"China";"CNY";"2007-05-01T09:00:00";"GMT";"2.60%";"";"2.90%";"Moderate"
"Retail Sales (YoY) (Apr)";"China";"CNY";"2007-05-01T09:00:00";"GMT";"15.30%";"";"15.50%";"Low"
"Trade Balance (USD) (Apr)";"China";"CNY";"2007-05-01T09:00:00";"GMT";"6.89B";"";"16.73B";"Moderate"
