{"events": {"event": {
    "eventDateTime": "2016-02-18T08:55:00",
    "eventActual": "",
    "eventCountry": "United Kingdom",
    "eventExpectedVolatility": "Moderate",
    "eventName": "BoE MPC Member Cunliffe Speaks",
    "eventTimeZone": "GMT",
    "eventPrevious": "",
    "eventCurrency": "GBP",
    "eventForecast": ""
  }}}
