{"events": {"event": [
    {
      "eventDateTime": "2014-04-17T12:30:00",
      "eventActual": "0.6%",
      "eventCountry": "Canada",
      "eventExpectedVolatility": "Moderate",
      "eventName": "CPI (MoM)",
      "eventTimeZone": "GMT",
      "eventPrevious": "0.8%",
      "eventCurrency": "CAD",
      "eventForecast": "0.4%"
    },
    {
      "eventDateTime": "2014-04-17T12:30:00",
      "eventActual": "1.5%",
      "eventCountry": "Canada",
      "eventExpectedVolatility": "Low",
      "eventName": "CPI (YoY)",
      "eventTimeZone": "GMT",
      "eventPrevious": "1.1%",
      "eventCurrency": "CAD",
      "eventForecast": "1.4%"
    },
    {
      "eventDateTime": "2014-04-17T12:30:00",
      "eventActual": "0.3%",
      "eventCountry": "Canada",
      "eventExpectedVolatility": "High",
      "eventName": "Core CPI (MoM)",
      "eventTimeZone": "GMT",
      "eventPrevious": "0.7%",
      "eventCurrency": "CAD",
      "eventForecast": "0.3%"
    },
    {
      "eventDateTime": "2014-04-17T12:30:00",
      "eventActual": "1.3%",
      "eventCountry": "Canada",
      "eventExpectedVolatility": "Moderate",
      "eventName": "Core CPI (YoY)",
      "eventTimeZone": "GMT",
      "eventPrevious": "1.2%",
      "eventCurrency": "CAD",
      "eventForecast": "1.3%"
    }
  ]}}
