{"events": {"event": [
    {
      "eventDateTime": "2015-02-02T12:00:00",
      "eventActual": "50.7",
      "eventCountry": "Brazil",
      "eventExpectedVolatility": "Low",
      "eventName": "Markit Manufacturing PMI (Jan)",
      "eventTimeZone": "GMT",
      "eventPrevious": "50.2",
      "eventCurrency": "BRL",
      "eventForecast": "49.5"
    },
    {
      "eventDateTime": "2015-02-02T17:00:00",
      "eventActual": "-3.17B",
      "eventCountry": "Brazil",
      "eventExpectedVolatility": "Low",
      "eventName": "Trade Balance (Jan)",
      "eventTimeZone": "GMT",
      "eventPrevious": "0.29B",
      "eventCurrency": "BRL",
      "eventForecast": "-3.00B"
    }
  ]}}
