{"events": {"event": [
    {
      "eventDateTime": "2017-07-24T00:30:00",
      "eventActual": "52.2",
      "eventCountry": "Japan",
      "eventExpectedVolatility": "Low",
      "eventName": "Manufacturing PMI (Jul)",
      "eventTimeZone": "GMT",
      "eventPrevious": "52.4",
      "eventCurrency": "JPY",
      "eventForecast": "52.3"
    },
    {
      "eventDateTime": "2017-07-24T05:00:00",
      "eventActual": "104.6",
      "eventCountry": "Japan",
      "eventExpectedVolatility": "Low",
      "eventName": "Leading Index",
      "eventTimeZone": "GMT",
      "eventPrevious": "104.7",
      "eventCurrency": "JPY",
      "eventForecast": "104.7"
    },
    {
      "eventDateTime": "2017-07-24T05:30:00",
      "eventActual": "71.9%",
      "eventCountry": "Japan",
      "eventExpectedVolatility": "Moderate",
      "eventName": "Investing.com USD/JPY Index",
      "eventTimeZone": "GMT",
      "eventPrevious": "70.5%",
      "eventCurrency": "JPY",
      "eventForecast": ""
    },
    {
      "eventDateTime": "2017-07-24T23:50:00",
      "eventActual": "",
      "eventCountry": "Japan",
      "eventExpectedVolatility": "Moderate",
      "eventName": "Monetary Policy Meeting Minutes",
      "eventTimeZone": "GMT",
      "eventPrevious": "",
      "eventCurrency": "JPY",
      "eventForecast": ""
    }
  ]}}
