"NY Empire State Manufacturing Index";"United States";"USD";"2008-06-16T12:30:00";"GMT";"-3.2";"-1.5";"-8.6";"Moderate"
"TIC Net Long-Term Transactions";"United States";"USD";"2008-06-16T13:00:00";"GMT";"80.4B";"63.0B";"115.1B";"Moderate"
"Fed Chairman Bernanke Speaks";"United States";"USD";"2008-06-16T14:00:00";"GMT";" ";"";"";"High"
"NAHB Housing Market Index";"United States";"USD";"2008-06-16T17:00:00";"GMT";"19";"19";"18";"Low"
