{"events": {"event": {
    "eventDateTime": "2008-11-17T10:00:00",
    "eventActual": "-5.7B",
    "eventCountry": "Euro Zone",
    "eventExpectedVolatility": "Moderate",
    "eventName": "Trade Balance",
    "eventTimeZone": "GMT",
    "eventPrevious": "-6.1B",
    "eventCurrency": "EUR",
    "eventForecast": "-5.7B"
  }}}
