{"events": {"event": [
    {
      "eventDateTime": "2016-09-15T12:10:00",
      "eventActual": "21.52B",
      "eventCountry": "India",
      "eventExpectedVolatility": "Low",
      "eventName": "Exports (USD) (Aug)",
      "eventTimeZone": "GMT",
      "eventPrevious": "21.69B",
      "eventCurrency": "INR",
      "eventForecast": ""
    },
    {
      "eventDateTime": "2016-09-15T12:10:00",
      "eventActual": "29.19B",
      "eventCountry": "India",
      "eventExpectedVolatility": "Low",
      "eventName": "Imports (USD) (Aug)",
      "eventTimeZone": "GMT",
      "eventPrevious": "29.45B",
      "eventCurrency": "INR",
      "eventForecast": ""
    },
    {
      "eventDateTime": "2016-09-15T12:10:00",
      "eventActual": "-7.67B",
      "eventCountry": "India",
      "eventExpectedVolatility": "Low",
      "eventName": "Trade Balance (Aug)",
      "eventTimeZone": "GMT",
      "eventPrevious": "-7.76B",
      "eventCurrency": "INR",
      "eventForecast": "-7.26B"
    }
  ]}}
