{"events": {"event": [
    {
      "eventDateTime": "2013-08-26T12:30:00",
      "eventActual": "-0.6%",
      "eventCountry": "United States",
      "eventExpectedVolatility": "High",
      "eventName": "Core Durable Goods Orders (MoM)",
      "eventTimeZone": "GMT",
      "eventPrevious": "0.1%",
      "eventCurrency": "USD",
      "eventForecast": "0.5%"
    },
    {
      "eventDateTime": "2013-08-26T12:30:00",
      "eventActual": "-7.3%",
      "eventCountry": "United States",
      "eventExpectedVolatility": "Moderate",
      "eventName": "Durable Goods Orders (MoM)",
      "eventTimeZone": "GMT",
      "eventPrevious": "3.9%",
      "eventCurrency": "USD",
      "eventForecast": "-4.0%"
    },
    {
      "eventDateTime": "2013-08-26T14:30:00",
      "eventActual": "5.00",
      "eventCountry": "United States",
      "eventExpectedVolatility": "Low",
      "eventName": "Dallas Fed Mfg Business Index",
      "eventTimeZone": "GMT",
      "eventPrevious": "4.40",
      "eventCurrency": "USD",
      "eventForecast": "3.90"
    },
    {
      "eventDateTime": "2013-08-26T15:30:00",
      "eventActual": "0.040%",
      "eventCountry": "United States",
      "eventExpectedVolatility": "Low",
      "eventName": "3-Month Bill Auction",
      "eventTimeZone": "GMT",
      "eventPrevious": "0.050%",
      "eventCurrency": "USD",
      "eventForecast": ""
    },
    {
      "eventDateTime": "2013-08-26T15:30:00",
      "eventActual": "0.065%",
      "eventCountry": "United States",
      "eventExpectedVolatility": "Low",
      "eventName": "6-Month Bill Auction",
      "eventTimeZone": "GMT",
      "eventPrevious": "0.075%",
      "eventCurrency": "USD",
      "eventForecast": ""
    }
  ]}}
