"Core Durable Goods Orders (MoM)";"United States";"USD";"2013-08-26T12:30:00";"GMT";"0.1%";"0.5%";"-0.6%";"High"
"Durable Goods Orders (MoM)";"United States";"USD";"2013-08-26T12:30:00";"GMT";"3.9%";"-4.0%";"-7.3%";"Moderate"
"Dallas Fed Mfg Business Index";"United States";"USD";"2013-08-26T14:30:00";"GMT";"4.40";"3.90";"5.00";"Low"
"3-Month Bill Auction";"United States";"USD";"2013-08-26T15:30:00";"GMT";"0.050%";"";"0.040%";"Low"
"6-Month Bill Auction";"United States";"USD";"2013-08-26T15:30:00";"GMT";"0.075%";"";"0.065%";"Low"
