{"events": {"event": [
    {
      "eventDateTime": "2015-10-08T21:45:00",
      "eventActual": "0.9%",
      "eventCountry": "New Zealand",
      "eventExpectedVolatility": "Moderate",
      "eventName": "Electronic Card Retail Sales (MoM) (Sep)",
      "eventTimeZone": "GMT",
      "eventPrevious": "0.5%",
      "eventCurrency": "NZD",
      "eventForecast": ""
    },
    {
      "eventDateTime": "2015-10-08T21:45:00",
      "eventActual": "6.1%",
      "eventCountry": "New Zealand",
      "eventExpectedVolatility": "Low",
      "eventName": "Electronic Card Retail Sales (YoY) (Sep)",
      "eventTimeZone": "GMT",
      "eventPrevious": "4.2%",
      "eventCurrency": "NZD",
      "eventForecast": ""
    }
  ]}}
