{"events": {"event": {
    "eventDateTime": "2008-11-13T04:30:00",
    "eventActual": "1.1%",
    "eventCountry": "Japan",
    "eventExpectedVolatility": "Moderate",
    "eventName": "Industrial Production (MoM)",
    "eventTimeZone": "GMT",
    "eventPrevious": "1.2%",
    "eventCurrency": "JPY",
    "eventForecast": ""
  }}}
