"German Retail Sales (MoM)";"Germany";"EUR";"2010-03-03T07:00:00";"GMT";"0.9%";"-0.5%";"0.0%";"Moderate"
"French Services PMI";"France";"EUR";"2010-03-03T08:45:00";"GMT";"54.7";"54.6";"54.6";"Moderate"
"German Services PMI";"Germany";"EUR";"2010-03-03T08:55:00";"GMT";"51.7";"51.7";"51.9";"Moderate"
"Services PMI";"Euro Zone";"EUR";"2010-03-03T09:00:00";"GMT";"52.0";"52.0";"51.8";"Moderate"
"Retail Sales (MoM)";"Euro Zone";"EUR";"2010-03-03T10:00:00";"GMT";"0.5%";"-0.3%";"-0.3%";"Moderate"
