{"events": {"event": {
    "eventDateTime": "2011-03-21T00:01:00",
    "eventActual": "0.8%",
    "eventCountry": "United Kingdom",
    "eventExpectedVolatility": "Low",
    "eventName": "Rightmove House Price Index (MoM)",
    "eventTimeZone": "GMT",
    "eventPrevious": "3.1%",
    "eventCurrency": "GBP",
    "eventForecast": ""
  }}}
