{"events": {"event": [
    {
      "eventDateTime": "2013-06-03T00:30:00",
      "eventActual": "0.2%",
      "eventCountry": "Australia",
      "eventExpectedVolatility": "Low",
      "eventName": "MI Inflation Gauge (MoM)",
      "eventTimeZone": "GMT",
      "eventPrevious": "0.3%",
      "eventCurrency": "AUD",
      "eventForecast": ""
    },
    {
      "eventDateTime": "2013-06-03T01:30:00",
      "eventActual": "-2.40%",
      "eventCountry": "Australia",
      "eventExpectedVolatility": "Low",
      "eventName": "ANZ Job Advertisements (MoM)",
      "eventTimeZone": "GMT",
      "eventPrevious": "-1.70%",
      "eventCurrency": "AUD",
      "eventForecast": ""
    },
    {
      "eventDateTime": "2013-06-03T01:30:00",
      "eventActual": "-0.6%",
      "eventCountry": "Australia",
      "eventExpectedVolatility": "Low",
      "eventName": "Business inventories (MoM)",
      "eventTimeZone": "GMT",
      "eventPrevious": "0.2%",
      "eventCurrency": "AUD",
      "eventForecast": "0.1%"
    },
    {
      "eventDateTime": "2013-06-03T01:30:00",
      "eventActual": "3.0%",
      "eventCountry": "Australia",
      "eventExpectedVolatility": "Moderate",
      "eventName": "Company Gross Operating Profits (QoQ)",
      "eventTimeZone": "GMT",
      "eventPrevious": "-0.5%",
      "eventCurrency": "AUD",
      "eventForecast": "1.5%"
    },
    {
      "eventDateTime": "2013-06-03T01:30:00",
      "eventActual": "0.2%",
      "eventCountry": "Australia",
      "eventExpectedVolatility": "High",
      "eventName": "Retail Sales (MoM)",
      "eventTimeZone": "GMT",
      "eventPrevious": "-0.4%",
      "eventCurrency": "AUD",
      "eventForecast": "0.3%"
    },
    {
      "eventDateTime": "2013-06-03T06:30:00",
      "eventActual": "-8.6%",
      "eventCountry": "Australia",
      "eventExpectedVolatility": "Low",
      "eventName": "Commodity Prices (YoY)",
      "eventTimeZone": "GMT",
      "eventPrevious": "-7.3%",
      "eventCurrency": "AUD",
      "eventForecast": ""
    }
  ]}}
