{"events": {"event": [
    {
      "eventDateTime": "2012-06-08T01:30:00",
      "eventActual": "0.2%",
      "eventCountry": "Australia",
      "eventExpectedVolatility": "Moderate",
      "eventName": "Home Loans (MoM)",
      "eventTimeZone": "GMT",
      "eventPrevious": "0.8%",
      "eventCurrency": "AUD",
      "eventForecast": "0.1%"
    },
    {
      "eventDateTime": "2012-06-08T01:30:00",
      "eventActual": "-0.20B",
      "eventCountry": "Australia",
      "eventExpectedVolatility": "Moderate",
      "eventName": "Trade Balance",
      "eventTimeZone": "GMT",
      "eventPrevious": "-1.28B",
      "eventCurrency": "AUD",
      "eventForecast": "-0.90B"
    },
    {
      "eventDateTime": "2012-06-08T02:15:00",
      "eventActual": "",
      "eventCountry": "Australia",
      "eventExpectedVolatility": "Moderate",
      "eventName": "RBA Governor Stevens Speaks",
      "eventTimeZone": "GMT",
      "eventPrevious": "",
      "eventCurrency": "AUD",
      "eventForecast": ""
    },
    {
      "eventDateTime": "2012-06-08T19:30:00",
      "eventActual": "-51.2K",
      "eventCountry": "Australia",
      "eventExpectedVolatility": "Moderate",
      "eventName": "CFTC AUD speculative net positions",
      "eventTimeZone": "GMT",
      "eventPrevious": "-35.5K",
      "eventCurrency": "AUD",
      "eventForecast": ""
    }
  ]}}
