{"events": {"event": [
    {
      "eventDateTime": "2016-06-24T07:00:00",
      "eventActual": "-5.5%",
      "eventCountry": "Spain",
      "eventExpectedVolatility": "Low",
      "eventName": "Spanish PPI (YoY)",
      "eventTimeZone": "GMT",
      "eventPrevious": "-6.1%",
      "eventCurrency": "EUR",
      "eventForecast": ""
    },
    {
      "eventDateTime": "2016-06-24T08:00:00",
      "eventActual": "103.1",
      "eventCountry": "Germany",
      "eventExpectedVolatility": "Moderate",
      "eventName": "German Business Expectations (Jun)",
      "eventTimeZone": "GMT",
      "eventPrevious": "101.7",
      "eventCurrency": "EUR",
      "eventForecast": "101.2"
    },
    {
      "eventDateTime": "2016-06-24T08:00:00",
      "eventActual": "114.5",
      "eventCountry": "Germany",
      "eventExpectedVolatility": "Moderate",
      "eventName": "German Current Assessment (Jun)",
      "eventTimeZone": "GMT",
      "eventPrevious": "114.2",
      "eventCurrency": "EUR",
      "eventForecast": "114.0"
    },
    {
      "eventDateTime": "2016-06-24T08:00:00",
      "eventActual": "100.0",
      "eventCountry": "Germany",
      "eventExpectedVolatility": "High",
      "eventName": "German Ifo Business Climate Index (Jun)",
      "eventTimeZone": "GMT",
      "eventPrevious": "107.8",
      "eventCurrency": "EUR",
      "eventForecast": ""
    },
    {
      "eventDateTime": "2016-06-24T08:00:00",
      "eventActual": "0.1%",
      "eventCountry": "Italy",
      "eventExpectedVolatility": "Low",
      "eventName": "Italian Retail Sales (MoM) (Apr)",
      "eventTimeZone": "GMT",
      "eventPrevious": "-0.6%",
      "eventCurrency": "EUR",
      "eventForecast": "0.2%"
    },
    {
      "eventDateTime": "2016-06-24T08:00:00",
      "eventActual": "-0.5%",
      "eventCountry": "Italy",
      "eventExpectedVolatility": "Low",
      "eventName": "Italian Retail Sales (YoY) (Apr)",
      "eventTimeZone": "GMT",
      "eventPrevious": "2.1%",
      "eventCurrency": "EUR",
      "eventForecast": "2.0%"
    },
    {
      "eventDateTime": "2016-06-24T09:00:00",
      "eventActual": "0.0%",
      "eventCountry": "Italy",
      "eventExpectedVolatility": "Low",
      "eventName": "Italian Wage Inflation (MoM) (May)",
      "eventTimeZone": "GMT",
      "eventPrevious": "0.0%",
      "eventCurrency": "EUR",
      "eventForecast": ""
    },
    {
      "eventDateTime": "2016-06-24T09:00:00",
      "eventActual": "0.6%",
      "eventCountry": "Italy",
      "eventExpectedVolatility": "Low",
      "eventName": "Italian Wage Inflation (YoY) (May)",
      "eventTimeZone": "GMT",
      "eventPrevious": "0.6%",
      "eventCurrency": "EUR",
      "eventForecast": ""
    },
    {
      "eventDateTime": "2016-06-24T09:30:00",
      "eventActual": "399.3B",
      "eventCountry": "Euro Zone",
      "eventExpectedVolatility": "Moderate",
      "eventName": "ECB LTRO",
      "eventTimeZone": "GMT",
      "eventPrevious": "6.7B",
      "eventCurrency": "EUR",
      "eventForecast": ""
    },
    {
      "eventDateTime": "2016-06-24T16:00:00",
      "eventActual": "3,520.3K",
      "eventCountry": "France",
      "eventExpectedVolatility": "Moderate",
      "eventName": "France Jobseekers Total (May)",
      "eventTimeZone": "GMT",
      "eventPrevious": "3,511.1K",
      "eventCurrency": "EUR",
      "eventForecast": "3,506.0K"
    },
    {
      "eventDateTime": "2016-06-24T19:30:00",
      "eventActual": "-61.3K",
      "eventCountry": "Euro Zone",
      "eventExpectedVolatility": "Moderate",
      "eventName": "CFTC EUR speculative net positions",
      "eventTimeZone": "GMT",
      "eventPrevious": "-56.5K",
      "eventCurrency": "EUR",
      "eventForecast": ""
    }
  ]}}
