{"events": {"event": {
    "eventDateTime": "2016-07-12T22:45:00",
    "eventActual": "0.4%",
    "eventCountry": "New Zealand",
    "eventExpectedVolatility": "Low",
    "eventName": "FPI (MoM) (Jun)",
    "eventTimeZone": "GMT",
    "eventPrevious": "-0.5%",
    "eventCurrency": "NZD",
    "eventForecast": "1.5%"
  }}}
