{"events": {"event": [
    {
      "eventDateTime": "2013-10-31T12:30:00",
      "eventActual": "2,881K",
      "eventCountry": "United States",
      "eventExpectedVolatility": "Low",
      "eventName": "Continuing Jobless Claims",
      "eventTimeZone": "GMT",
      "eventPrevious": "2,850K",
      "eventCurrency": "USD",
      "eventForecast": "2,870K"
    },
    {
      "eventDateTime": "2013-10-31T12:30:00",
      "eventActual": "340K",
      "eventCountry": "United States",
      "eventExpectedVolatility": "Moderate",
      "eventName": "Initial Jobless Claims",
      "eventTimeZone": "GMT",
      "eventPrevious": "350K",
      "eventCurrency": "USD",
      "eventForecast": "339K"
    },
    {
      "eventDateTime": "2013-10-31T13:00:00",
      "eventActual": "",
      "eventCountry": "United States",
      "eventExpectedVolatility": "Moderate",
      "eventName": "Treasury Secretary Lew Speaks",
      "eventTimeZone": "GMT",
      "eventPrevious": "",
      "eventCurrency": "USD",
      "eventForecast": ""
    },
    {
      "eventDateTime": "2013-10-31T13:45:00",
      "eventActual": "31.2",
      "eventCountry": "United States",
      "eventExpectedVolatility": "Low",
      "eventName": "Bloomberg Consumer Confidence",
      "eventTimeZone": "GMT",
      "eventPrevious": "31.95",
      "eventCurrency": "USD",
      "eventForecast": ""
    },
    {
      "eventDateTime": "2013-10-31T13:45:00",
      "eventActual": "65.9",
      "eventCountry": "United States",
      "eventExpectedVolatility": "Moderate",
      "eventName": "Chicago PMI",
      "eventTimeZone": "GMT",
      "eventPrevious": "55.7",
      "eventCurrency": "USD",
      "eventForecast": "55.0"
    },
    {
      "eventDateTime": "2013-10-31T13:45:00",
      "eventActual": "57.7",
      "eventCountry": "United States",
      "eventExpectedVolatility": "Low",
      "eventName": "Chicago PMI Employment",
      "eventTimeZone": "GMT",
      "eventPrevious": "53.2",
      "eventCurrency": "USD",
      "eventForecast": ""
    },
    {
      "eventDateTime": "2013-10-31T13:45:00",
      "eventActual": "74.3",
      "eventCountry": "United States",
      "eventExpectedVolatility": "Low",
      "eventName": "Chicago PMI New Orders",
      "eventTimeZone": "GMT",
      "eventPrevious": "58.9",
      "eventCurrency": "USD",
      "eventForecast": ""
    },
    {
      "eventDateTime": "2013-10-31T13:45:00",
      "eventActual": "56.7",
      "eventCountry": "United States",
      "eventExpectedVolatility": "Low",
      "eventName": "Chicago PMI Prices",
      "eventTimeZone": "GMT",
      "eventPrevious": "57.1",
      "eventCurrency": "USD",
      "eventForecast": ""
    },
    {
      "eventDateTime": "2013-10-31T14:30:00",
      "eventActual": "38B",
      "eventCountry": "United States",
      "eventExpectedVolatility": "Low",
      "eventName": "Natural Gas Storage",
      "eventTimeZone": "GMT",
      "eventPrevious": "87B",
      "eventCurrency": "USD",
      "eventForecast": "36B"
    }
  ]}}
