"Continuing Jobless Claims";"United States";"USD";"2013-10-31T12:30:00";"GMT";"2,850K";"2,870K";"2,881K";"Low"
"Initial Jobless Claims";"United States";"USD";"2013-10-31T12:30:00";"GMT";"350K";"339K";"340K";"Moderate"
"Treasury Secretary Lew Speaks";"United States";"USD";"2013-10-31T13:00:00";"GMT";" ";"";"";"Moderate"
"Bloomberg Consumer Confidence";"United States";"USD";"2013-10-31T13:45:00";"GMT";"31.95";"";"31.2";"Low"
"Chicago PMI";"United States";"USD";"2013-10-31T13:45:00";"GMT";"55.7";"55.0";"65.9";"Moderate"
"Chicago PMI Employment";"United States";"USD";"2013-10-31T13:45:00";"GMT";"53.2";"";"57.7";"Low"
"Chicago PMI New Orders";"United States";"USD";"2013-10-31T13:45:00";"GMT";"58.9";"";"74.3";"Low"
"Chicago PMI Prices";"United States";"USD";"2013-10-31T13:45:00";"GMT";"57.1";"";"56.7";"Low"
"Natural Gas Storage";"United States";"USD";"2013-10-31T14:30:00";"GMT";"87B";"36B";"38B";"Low"
