{"events": {"event": [
    {
      "eventDateTime": "2015-01-22T09:25:00",
      "eventActual": "",
      "eventCountry": "United Kingdom",
      "eventExpectedVolatility": "Moderate",
      "eventName": "MPC Member Fisher Speaks",
      "eventTimeZone": "GMT",
      "eventPrevious": "",
      "eventCurrency": "GBP",
      "eventForecast": ""
    },
    {
      "eventDateTime": "2015-01-22T09:30:00",
      "eventActual": "12.47B",
      "eventCountry": "United Kingdom",
      "eventExpectedVolatility": "Low",
      "eventName": "Public Sector Net Borrowing (Dec)",
      "eventTimeZone": "GMT",
      "eventPrevious": "11.73B",
      "eventCurrency": "GBP",
      "eventForecast": "9.00B"
    },
    {
      "eventDateTime": "2015-01-22T09:30:00",
      "eventActual": "13.1B",
      "eventCountry": "United Kingdom",
      "eventExpectedVolatility": "Low",
      "eventName": "Public Sector Net Borrowing Ex. Interest (Dec)",
      "eventTimeZone": "GMT",
      "eventPrevious": "12.4B",
      "eventCurrency": "GBP",
      "eventForecast": "9.7B"
    },
    {
      "eventDateTime": "2015-01-22T09:30:00",
      "eventActual": "21.408B",
      "eventCountry": "United Kingdom",
      "eventExpectedVolatility": "Low",
      "eventName": "Public Sector Net Cash Requirement (Dec)",
      "eventTimeZone": "GMT",
      "eventPrevious": "7.096B",
      "eventCurrency": "GBP",
      "eventForecast": ""
    },
    {
      "eventDateTime": "2015-01-22T11:00:00",
      "eventActual": "4",
      "eventCountry": "United Kingdom",
      "eventExpectedVolatility": "Moderate",
      "eventName": "CBI Industrial Trends Orders (Jan)",
      "eventTimeZone": "GMT",
      "eventPrevious": "5",
      "eventCurrency": "GBP",
      "eventForecast": "5"
    }
  ]}}
