"German WPI (MoM) (Aug)";"Germany";"EUR";"2019-09-13T06:00:00";"GMT";"-0.3%";"";"-0.8%";"Low"
"German WPI (YoY) (Aug)";"Germany";"EUR";"2019-09-13T06:00:00";"GMT";"-0.1%";"";"-1.1%";"Low"
"Spanish CPI (MoM) (Aug)";"Spain";"EUR";"2019-09-13T07:00:00";"GMT";"-0.6%";"-0.1%";"-0.1%";"Low"
"Spanish CPI (YoY) (Aug)";"Spain";"EUR";"2019-09-13T07:00:00";"GMT";"0.5%";"0.3%";"0.3%";"Moderate"
"Spanish HICP (MoM) (Aug)";"Spain";"EUR";"2019-09-13T07:00:00";"GMT";"-1.1%";"-0.1%";"-0.1%";"Low"
"Spanish HICP (YoY) (Aug)";"Spain";"EUR";"2019-09-13T07:00:00";"GMT";"0.6%";"0.4%";"0.4%";"Moderate"
"Labor Cost Index (YoY) (Q2)";"Euro Zone";"EUR";"2019-09-13T09:00:00";"GMT";"2.50%";"";"2.70%";"Low"
"Trade Balance (Jul)";"Euro Zone";"EUR";"2019-09-13T09:00:00";"GMT";"20.6B";"17.4B";"24.8B";"Moderate"
"Wages in euro zone (YoY) (Q2)";"Euro Zone";"EUR";"2019-09-13T09:00:00";"GMT";"2.70%";"";"2.70%";"Moderate"
"EU Finance Ministers Meeting";"Euro Zone";"EUR";"2019-09-13T10:00:00";"GMT";" ";"";"";"Moderate"
"Eurogroup Meetings";"Euro Zone";"EUR";"2019-09-13T10:00:00";"GMT";" ";"";"";"Moderate"
"CFTC EUR speculative net positions";"Euro Zone";"EUR";"2019-09-13T19:30:00";"GMT";"-49.1K";"";"-49.8K";"Moderate"
