"Auto Production (MoM) (Jan)";"Brazil";"BRL";"2009-02-01T09:00:00";"GMT";"-51.27%";"";"97.39%";"Low"
"Auto Sales (MoM) (Jan)";"Brazil";"BRL";"2009-02-01T09:00:00";"GMT";"9.37%";"";"1.53%";"Low"
"Bank lending (MoM) (Jan)";"Brazil";"BRL";"2009-02-01T09:00:00";"GMT";"1.50%";"";"0.10%";"Low"
"Budget Balance (Jan)";"Brazil";"BRL";"2009-02-01T09:00:00";"GMT";"-38.17B";"";"-7.84B";"Low"
"Budget Surplus (Jan)";"Brazil";"BRL";"2009-02-01T09:00:00";"GMT";"-20.95B";"";"7.21B";"Low"
"CAGED Net Payroll Jobs (Jan)";"Brazil";"BRL";"2009-02-01T09:00:00";"GMT";"-655.00K";"";"-102.00K";"Moderate"
"CNI Factory Utilization (Jan)";"Brazil";"BRL";"2009-02-01T09:00:00";"GMT";"80.00%";"";"79.50%";"Low"
"CPI (MoM) (Jan)";"Brazil";"BRL";"2009-02-01T09:00:00";"GMT";"0.28%";"";"0.48%";"Moderate"
"CPI (YoY) (Jan)";"Brazil";"BRL";"2009-02-01T09:00:00";"GMT";"5.90%";"";"5.84%";"Moderate"
"Debt-to-GDP ratio (Jan)";"Brazil";"BRL";"2009-02-01T09:00:00";"GMT";"37.60%";"";"38.10%";"Low"
"FGV Consumer confidence (Jan)";"Brazil";"BRL";"2009-02-01T09:00:00";"GMT";"94.90";"";"96.50";"Low"
"Federal Tax Revenue (Jan)";"Brazil";"BRL";"2009-02-01T09:00:00";"GMT";"68.00B";"";"63.00B";"Low"
"Foreign direct investment (USD) (Jan)";"Brazil";"BRL";"2009-02-01T09:00:00";"GMT";"8.12B";"";"1.93B";"Low"
"IBC-Br Economic Activity (Jan)";"Brazil";"BRL";"2009-02-01T09:00:00";"GMT";"-4.15%";"";"-0.42%";"Low"
"IGP-DI Inflation Index (MoM) (Jan)";"Brazil";"BRL";"2009-02-01T09:00:00";"GMT";"-0.44%";"";"0.01%";"Low"
"IGP-M Inflation Index (MoM) (Jan)";"Brazil";"BRL";"2009-02-01T09:00:00";"GMT";"-0.13%";"";"-0.44%";"Low"
"IPC-Fipe Inflation Index (MoM) (Jan)";"Brazil";"BRL";"2009-02-01T09:00:00";"GMT";"0.16%";"";"0.46%";"Moderate"
"Industrial Production (MoM) (Jan)";"Brazil";"BRL";"2009-02-01T09:00:00";"GMT";"-12.75%";"";"2.54%";"Low"
"Industrial Production (YoY) (Jan)";"Brazil";"BRL";"2009-02-01T09:00:00";"GMT";"-14.58%";"";"-16.98%";"Moderate"
"Interest Rate Decision (Jan)";"Brazil";"BRL";"2009-02-01T09:00:00";"GMT";"13.75%";"";"12.75%";"Moderate"
"Mid-Month CPI (MoM) (Jan)";"Brazil";"BRL";"2009-02-01T09:00:00";"GMT";"0.29%";"";"0.40%";"Low"
"Mid-Month CPI (YoY) (Jan)";"Brazil";"BRL";"2009-02-01T09:00:00";"GMT";"6.10%";"";"5.79%";"Low"
"Retail Sales (MoM) (Jan)";"Brazil";"BRL";"2009-02-01T09:00:00";"GMT";"0.25%";"";"0.62%";"Moderate"
"Retail Sales (YoY) (Jan)";"Brazil";"BRL";"2009-02-01T09:00:00";"GMT";"3.78%";"";"6.04%";"Moderate"
"Trade Balance (Jan)";"Brazil";"BRL";"2009-02-01T09:00:00";"GMT";"2.32B";"";"-0.53B";"Low"
"Unemployment Rate (Jan)";"Brazil";"BRL";"2009-02-01T09:00:00";"GMT";"6.80%";"";"8.20%";"Moderate"
