"Exports (Jul)";"Canada";"CAD";"2019-09-04T12:30:00";"GMT";"50.22B";"";"49.76B";"Low"
"Imports (Jul)";"Canada";"CAD";"2019-09-04T12:30:00";"GMT";"50.28B";"51.80B";"50.89B";"Low"
"Labor Productivity (QoQ) (Q2)";"Canada";"CAD";"2019-09-04T12:30:00";"GMT";"0.4%";"0.3%";"0.2%";"Moderate"
"Trade Balance (Jul)";"Canada";"CAD";"2019-09-04T12:30:00";"GMT";"-0.06B";"-0.40B";"-1.12B";"Moderate"
"BoC Interest Rate Decision";"Canada";"CAD";"2019-09-04T14:00:00";"GMT";"1.75%";"1.75%";"1.75%";"High"
"BoC Rate Statement";"Canada";"CAD";"2019-09-04T14:00:00";"GMT";" ";"";"";"Moderate"
