{"events": {"event": [
    {
      "eventDateTime": "2019-09-04T12:30:00",
      "eventActual": "49.76B",
      "eventCountry": "Canada",
      "eventExpectedVolatility": "Low",
      "eventName": "Exports (Jul)",
      "eventTimeZone": "GMT",
      "eventPrevious": "50.22B",
      "eventCurrency": "CAD",
      "eventForecast": ""
    },
    {
      "eventDateTime": "2019-09-04T12:30:00",
      "eventActual": "50.89B",
      "eventCountry": "Canada",
      "eventExpectedVolatility": "Low",
      "eventName": "Imports (Jul)",
      "eventTimeZone": "GMT",
      "eventPrevious": "50.28B",
      "eventCurrency": "CAD",
      "eventForecast": "51.80B"
    },
    {
      "eventDateTime": "2019-09-04T12:30:00",
      "eventActual": "0.2%",
      "eventCountry": "Canada",
      "eventExpectedVolatility": "Moderate",
      "eventName": "Labor Productivity (QoQ) (Q2)",
      "eventTimeZone": "GMT",
      "eventPrevious": "0.4%",
      "eventCurrency": "CAD",
      "eventForecast": "0.3%"
    },
    {
      "eventDateTime": "2019-09-04T12:30:00",
      "eventActual": "-1.12B",
      "eventCountry": "Canada",
      "eventExpectedVolatility": "Moderate",
      "eventName": "Trade Balance (Jul)",
      "eventTimeZone": "GMT",
      "eventPrevious": "-0.06B",
      "eventCurrency": "CAD",
      "eventForecast": "-0.40B"
    },
    {
      "eventDateTime": "2019-09-04T14:00:00",
      "eventActual": "1.75%",
      "eventCountry": "Canada",
      "eventExpectedVolatility": "High",
      "eventName": "BoC Interest Rate Decision",
      "eventTimeZone": "GMT",
      "eventPrevious": "1.75%",
      "eventCurrency": "CAD",
      "eventForecast": "1.75%"
    },
    {
      "eventDateTime": "2019-09-04T14:00:00",
      "eventActual": "",
      "eventCountry": "Canada",
      "eventExpectedVolatility": "Moderate",
      "eventName": "BoC Rate Statement",
      "eventTimeZone": "GMT",
      "eventPrevious": "",
      "eventCurrency": "CAD",
      "eventForecast": ""
    }
  ]}}
