{"events": {"event": [
    {
      "eventDateTime": "2019-09-11T07:00:00",
      "eventActual": "0.8%",
      "eventCountry": "Spain",
      "eventExpectedVolatility": "Low",
      "eventName": "Spanish Industrial Production (YoY) (Jul)",
      "eventTimeZone": "GMT",
      "eventPrevious": "1.6%",
      "eventCurrency": "EUR",
      "eventForecast": "1.5%"
    },
    {
      "eventDateTime": "2019-09-11T09:45:00",
      "eventActual": "-0.226%",
      "eventCountry": "Italy",
      "eventExpectedVolatility": "Low",
      "eventName": "Italian 12-Month BOT Auction",
      "eventTimeZone": "GMT",
      "eventPrevious": "0.107%",
      "eventCurrency": "EUR",
      "eventForecast": ""
    }
  ]}}
