"Investing.com USD/CAD Index";"Canada";"CAD";"2017-10-16T05:30:00";"GMT";"42.6%";"";"41.6%";"Moderate"
"Foreign Securities Purchases (Aug)";"Canada";"CAD";"2017-10-16T12:30:00";"GMT";"23.97B";"20.05B";"9.85B";"Moderate"
"Foreign Securities Purchases by Canadians (Aug)";"Canada";"CAD";"2017-10-16T12:30:00";"GMT";"-1.78B";"";"12.04B";"Low"
"BoC Business Outlook Survey";"Canada";"CAD";"2017-10-16T14:30:00";"GMT";" ";"";"";"Moderate"
