{"events": {"event": {
    "eventDateTime": "2017-10-11T21:00:00",
    "eventActual": "384.67B",
    "eventCountry": "South Korea",
    "eventExpectedVolatility": "Low",
    "eventName": "FX Reserves - USD (Sep)",
    "eventTimeZone": "GMT",
    "eventPrevious": "384.84B",
    "eventCurrency": "KRW",
    "eventForecast": ""
  }}}
