{"events": {"event": {
    "eventDateTime": "2008-08-04T07:30:00",
    "eventActual": "54.1",
    "eventCountry": "Switzerland",
    "eventExpectedVolatility": "Moderate",
    "eventName": "procure.ch PMI",
    "eventTimeZone": "GMT",
    "eventPrevious": "54.9",
    "eventCurrency": "CHF",
    "eventForecast": "53.4"
  }}}
