{"events": {"event": [
    {
      "eventDateTime": "2019-01-17T00:01:00",
      "eventActual": "-19%",
      "eventCountry": "United Kingdom",
      "eventExpectedVolatility": "Moderate",
      "eventName": "RICS House Price Balance (Dec)",
      "eventTimeZone": "GMT",
      "eventPrevious": "-11%",
      "eventCurrency": "GBP",
      "eventForecast": "-13%"
    },
    {
      "eventDateTime": "2019-01-17T09:30:00",
      "eventActual": "",
      "eventCountry": "United Kingdom",
      "eventExpectedVolatility": "Moderate",
      "eventName": "BOE Credit Conditions Survey",
      "eventTimeZone": "GMT",
      "eventPrevious": "",
      "eventCurrency": "GBP",
      "eventForecast": ""
    },
    {
      "eventDateTime": "2019-01-17T10:45:00",
      "eventActual": "1.018%",
      "eventCountry": "United Kingdom",
      "eventExpectedVolatility": "Low",
      "eventName": "5-Year Treasury Gilt Auction",
      "eventTimeZone": "GMT",
      "eventPrevious": "0.966%",
      "eventCurrency": "GBP",
      "eventForecast": ""
    }
  ]}}
