{"events": {"event": [
    {
      "eventDateTime": "2009-03-19T12:30:00",
      "eventActual": "646K",
      "eventCountry": "United States",
      "eventExpectedVolatility": "Moderate",
      "eventName": "Initial Jobless Claims",
      "eventTimeZone": "GMT",
      "eventPrevious": "654K",
      "eventCurrency": "USD",
      "eventForecast": "649K"
    },
    {
      "eventDateTime": "2009-03-19T14:00:00",
      "eventActual": "-35.0",
      "eventCountry": "United States",
      "eventExpectedVolatility": "High",
      "eventName": "Philadelphia Fed Manufacturing Index",
      "eventTimeZone": "GMT",
      "eventPrevious": "-41.3",
      "eventCurrency": "USD",
      "eventForecast": "-39.1"
    }
  ]}}
