{"events": {"event": [
    {
      "eventDateTime": "2011-11-30T00:01:00",
      "eventActual": "-31",
      "eventCountry": "United Kingdom",
      "eventExpectedVolatility": "Low",
      "eventName": "GfK Consumer Confidence",
      "eventTimeZone": "GMT",
      "eventPrevious": "-32",
      "eventCurrency": "GBP",
      "eventForecast": "-33"
    },
    {
      "eventDateTime": "2011-11-30T09:30:00",
      "eventActual": "-9.1B",
      "eventCountry": "United Kingdom",
      "eventExpectedVolatility": "Low",
      "eventName": "Housing Equity Withdrawal (QoQ)",
      "eventTimeZone": "GMT",
      "eventPrevious": "-8.9B",
      "eventCurrency": "GBP",
      "eventForecast": "-6.0B"
    }
  ]}}
