"Retail Sales (YoY) (Aug)";"Russia";"RUB";"2019-09-18T13:00:00";"GMT";"1.1%";"0.8%";"0.8%";"Moderate"
"Russian Real Wage Growth (YoY) (Aug)";"Russia";"RUB";"2019-09-18T13:00:00";"GMT";"3.0%";"3.0%";"3.0%";"Low"
"Unemployment Rate (Aug)";"Russia";"RUB";"2019-09-18T13:00:00";"GMT";"4.5%";"4.4%";"4.3%";"Moderate"
