{"events": {"event": [
    {
      "eventDateTime": "2017-04-24T05:00:00",
      "eventActual": "104.8",
      "eventCountry": "Japan",
      "eventExpectedVolatility": "Low",
      "eventName": "Leading Index",
      "eventTimeZone": "GMT",
      "eventPrevious": "104.4",
      "eventCurrency": "JPY",
      "eventForecast": "104.4"
    },
    {
      "eventDateTime": "2017-04-24T05:30:00",
      "eventActual": "64.2%",
      "eventCountry": "Japan",
      "eventExpectedVolatility": "Moderate",
      "eventName": "Investing.com USD/JPY Index",
      "eventTimeZone": "GMT",
      "eventPrevious": "66.2%",
      "eventCurrency": "JPY",
      "eventForecast": ""
    },
    {
      "eventDateTime": "2017-04-24T23:50:00",
      "eventActual": "0.8%",
      "eventCountry": "Japan",
      "eventExpectedVolatility": "Low",
      "eventName": "Corporate Services Price Index (CSPI) (YoY)",
      "eventTimeZone": "GMT",
      "eventPrevious": "0.8%",
      "eventCurrency": "JPY",
      "eventForecast": "0.8%"
    }
  ]}}
