{"events": {"event": {
    "eventDateTime": "2016-01-15T20:30:00",
    "eventActual": "3.3K",
    "eventCountry": "Switzerland",
    "eventExpectedVolatility": "Low",
    "eventName": "CFTC CHF speculative net positions",
    "eventTimeZone": "GMT",
    "eventPrevious": "3.6K",
    "eventCurrency": "CHF",
    "eventForecast": ""
  }}}
