"Redbook (MoM)";"United States";"USD";"2018-01-30T13:55:00";"GMT";"0.0%";"";"0.0%";"Low"
"Redbook (YoY)";"United States";"USD";"2018-01-30T13:55:00";"GMT";"3.8%";"";"3.2%";"Low"
"Sandamp:P/CS HPI Composite - 20 n.s.a. (MoM) (Nov)";"United States";"USD";"2018-01-30T14:00:00";"GMT";"0.2%";"0.4%";"0.2%";"Low"
"Sandamp:P/CS HPI Composite - 20 n.s.a. (YoY) (Nov)";"United States";"USD";"2018-01-30T14:00:00";"GMT";"6.3%";"6.3%";"6.4%";"Moderate"
"Sandamp:P/CS HPI Composite - 20 s.a. (MoM) (Nov)";"United States";"USD";"2018-01-30T14:00:00";"GMT";"0.7%";"0.7%";"0.7%";"Low"
"CB Consumer Confidence (Jan)";"United States";"USD";"2018-01-30T15:00:00";"GMT";"123.1";"123.1";"125.4";"High"
"Dallas Fed Services Revenues (Jan)";"United States";"USD";"2018-01-30T15:30:00";"GMT";"24.4";"";"12.8";"Low"
"Texas Services Sector Outlook (Jan)";"United States";"USD";"2018-01-30T15:30:00";"GMT";"18.1";"";"22.2";"Low"
"4-Week Bill Auction";"United States";"USD";"2018-01-30T16:30:00";"GMT";"1.230%";"";"1.440%";"Low"
"52-Week Bill Auction";"United States";"USD";"2018-01-30T16:30:00";"GMT";"1.780%";"";"1.830%";"Low"
"API Weekly Crude Oil Stock";"United States";"USD";"2018-01-30T21:35:00";"GMT";"4.755M";"1.500M";"3.229M";"Moderate"
