"Interest Rate Decision";"Brazil";"BRL";"2015-07-30T00:00:00";"GMT";"13.75%";"14.25%";"14.25%";"Moderate"
"IGP-M Inflation Index (MoM) (Jul)";"Brazil";"BRL";"2015-07-30T11:00:00";"GMT";"0.67%";"0.73%";"0.69%";"Low"
"Bank lending (MoM) (Jun)";"Brazil";"BRL";"2015-07-30T13:30:00";"GMT";"0.7%";"";"0.6%";"Low"
