{"events": {"event": [
    {
      "eventDateTime": "2019-06-12T12:00:00",
      "eventActual": "-0.6%",
      "eventCountry": "Brazil",
      "eventExpectedVolatility": "Moderate",
      "eventName": "Retail Sales (MoM) (Apr)",
      "eventTimeZone": "GMT",
      "eventPrevious": "0.1%",
      "eventCurrency": "BRL",
      "eventForecast": "0.1%"
    },
    {
      "eventDateTime": "2019-06-12T12:00:00",
      "eventActual": "1.7%",
      "eventCountry": "Brazil",
      "eventExpectedVolatility": "Moderate",
      "eventName": "Retail Sales (YoY) (Apr)",
      "eventTimeZone": "GMT",
      "eventPrevious": "-4.4%",
      "eventCurrency": "BRL",
      "eventForecast": "2.9%"
    },
    {
      "eventDateTime": "2019-06-12T15:30:00",
      "eventActual": "0.773B",
      "eventCountry": "Brazil",
      "eventExpectedVolatility": "Low",
      "eventName": "Foreign Exchange Flows",
      "eventTimeZone": "GMT",
      "eventPrevious": "0.346B",
      "eventCurrency": "BRL",
      "eventForecast": ""
    }
  ]}}
