{"events": {"event": {
    "eventDateTime": "2016-07-15T19:30:00",
    "eventActual": "6.7K",
    "eventCountry": "Switzerland",
    "eventExpectedVolatility": "Low",
    "eventName": "CFTC CHF speculative net positions",
    "eventTimeZone": "GMT",
    "eventPrevious": "8.7K",
    "eventCurrency": "CHF",
    "eventForecast": ""
  }}}
