{"events": {"event": [
    {
      "eventDateTime": "2015-05-26T00:00:00",
      "eventActual": "3.2%",
      "eventCountry": "Singapore",
      "eventExpectedVolatility": "Low",
      "eventName": "GDP (QoQ) (Q1)",
      "eventTimeZone": "GMT",
      "eventPrevious": "1.1%",
      "eventCurrency": "SGD",
      "eventForecast": "1.8%"
    },
    {
      "eventDateTime": "2015-05-26T00:00:00",
      "eventActual": "2.6%",
      "eventCountry": "Singapore",
      "eventExpectedVolatility": "Low",
      "eventName": "GDP (YoY) (Q1)",
      "eventTimeZone": "GMT",
      "eventPrevious": "2.1%",
      "eventCurrency": "SGD",
      "eventForecast": "2.2%"
    },
    {
      "eventDateTime": "2015-05-26T05:00:00",
      "eventActual": "-5.8%",
      "eventCountry": "Singapore",
      "eventExpectedVolatility": "Low",
      "eventName": "Industrial Production (MoM) (Apr)",
      "eventTimeZone": "GMT",
      "eventPrevious": "1.2%",
      "eventCurrency": "SGD",
      "eventForecast": "0.5%"
    },
    {
      "eventDateTime": "2015-05-26T05:00:00",
      "eventActual": "-8.7%",
      "eventCountry": "Singapore",
      "eventExpectedVolatility": "Low",
      "eventName": "Industrial Production (YoY) (Apr)",
      "eventTimeZone": "GMT",
      "eventPrevious": "-5.5%",
      "eventCurrency": "SGD",
      "eventForecast": "-3.0%"
    }
  ]}}
