"Building Approvals (MoM)";"Australia";"AUD";"2012-10-04T01:30:00";"GMT";"-21.2%";"4.7%";"6.4%";"Moderate"
"Retail Sales (MoM)";"Australia";"AUD";"2012-10-04T01:30:00";"GMT";"-0.8%";"0.4%";"0.2%";"High"
"AIG Construction Index";"Australia";"AUD";"2012-10-04T23:30:00";"GMT";"32.2";"";"30.9";"Low"
