{"events": {"event": {
    "eventDateTime": "2016-12-01T05:00:00",
    "eventActual": "52.3",
    "eventCountry": "India",
    "eventExpectedVolatility": "Low",
    "eventName": "Nikkei Markit Manufacturing PMI (Nov)",
    "eventTimeZone": "GMT",
    "eventPrevious": "54.4",
    "eventCurrency": "INR",
    "eventForecast": "52.0"
  }}}
