{"events": {"event": {
    "eventDateTime": "2017-02-16T13:00:00",
    "eventActual": "393.6B",
    "eventCountry": "Russia",
    "eventExpectedVolatility": "Moderate",
    "eventName": "Central Bank reserves (USD)",
    "eventTimeZone": "GMT",
    "eventPrevious": "394.1B",
    "eventCurrency": "RUB",
    "eventForecast": ""
  }}}
