"Industrial orders (Q1)";"Switzerland";"CHF";"2018-06-13T07:15:00";"GMT";"19.6%";"";"9.0%";"Low"
"PPI (MoM) (May)";"Switzerland";"CHF";"2018-06-13T07:15:00";"GMT";"0.4%";"0.3%";"0.2%";"Moderate"
"PPI (YoY) (May)";"Switzerland";"CHF";"2018-06-13T07:15:00";"GMT";"2.7%";"3.2%";"3.2%";"Low"
