"French Consumer Confidence (May)";"France";"EUR";"2016-05-27T06:45:00";"GMT";"94";"94";"98";"Low"
"Spanish Retail Sales (YoY) (Apr)";"Spain";"EUR";"2016-05-27T07:00:00";"GMT";"4.4%";"3.9%";"4.1%";"Low"
"Italian Business Confidence (May)";"Italy";"EUR";"2016-05-27T08:00:00";"GMT";"102.7";"103.0";"102.1";"Low"
"Italian Consumer Confidence (May)";"Italy";"EUR";"2016-05-27T08:00:00";"GMT";"114.1";"114.4";"112.7";"Low"
"Italian 6-Month BOT Auction";"Italy";"EUR";"2016-05-27T09:10:00";"GMT";"-0.172%";"";"-0.262%";"Low"
"CFTC EUR speculative net positions";"Euro Zone";"EUR";"2016-05-27T19:30:00";"GMT";"-22.6K";"";"-37.9K";"Moderate"
