{"events": {"event": {
    "eventDateTime": "2018-03-12T06:30:00",
    "eventActual": "46.5%",
    "eventCountry": "United Kingdom",
    "eventExpectedVolatility": "Moderate",
    "eventName": "Investing.com GBP/USD Index",
    "eventTimeZone": "GMT",
    "eventPrevious": "55.8%",
    "eventCurrency": "GBP",
    "eventForecast": ""
  }}}
