{"events": {"event": {
    "eventDateTime": "2019-02-04T06:30:00",
    "eventActual": "60.4%",
    "eventCountry": "Japan",
    "eventExpectedVolatility": "Moderate",
    "eventName": "Investing.com USD/JPY Index",
    "eventTimeZone": "GMT",
    "eventPrevious": "64.9%",
    "eventCurrency": "JPY",
    "eventForecast": ""
  }}}
