"MI Leading Index (MoM)";"Australia";"AUD";"2013-05-29T00:30:00";"GMT";"0.6%";"";"0.2%";"Low"
"HIA New Home Sales (MoM)";"Australia";"AUD";"2013-05-29T01:00:00";"GMT";"4.2%";"";"3.9%";"Moderate"
"Construction Work Done (QoQ)";"Australia";"AUD";"2013-05-29T01:30:00";"GMT";"0.1%";"1.0%";"-2.0%";"Moderate"
