{"events": {"event": [
    {
      "eventDateTime": "2013-05-29T00:30:00",
      "eventActual": "0.2%",
      "eventCountry": "Australia",
      "eventExpectedVolatility": "Low",
      "eventName": "MI Leading Index (MoM)",
      "eventTimeZone": "GMT",
      "eventPrevious": "0.6%",
      "eventCurrency": "AUD",
      "eventForecast": ""
    },
    {
      "eventDateTime": "2013-05-29T01:00:00",
      "eventActual": "3.9%",
      "eventCountry": "Australia",
      "eventExpectedVolatility": "Moderate",
      "eventName": "HIA New Home Sales (MoM)",
      "eventTimeZone": "GMT",
      "eventPrevious": "4.2%",
      "eventCurrency": "AUD",
      "eventForecast": ""
    },
    {
      "eventDateTime": "2013-05-29T01:30:00",
      "eventActual": "-2.0%",
      "eventCountry": "Australia",
      "eventExpectedVolatility": "Moderate",
      "eventName": "Construction Work Done (QoQ)",
      "eventTimeZone": "GMT",
      "eventPrevious": "0.1%",
      "eventCurrency": "AUD",
      "eventForecast": "1.0%"
    }
  ]}}
