"MI Inflation Expectations";"Australia";"AUD";"2012-10-11T00:00:00";"GMT";"2.4%";"";"2.6%";"Low"
"Employment Change";"Australia";"AUD";"2012-10-11T00:30:00";"GMT";"-9.1K";"3.8K";"14.5K";"High"
"Unemployment Rate";"Australia";"AUD";"2012-10-11T00:30:00";"GMT";"5.1%";"5.3%";"5.4%";"Moderate"
