{"events": {"event": {
    "eventDateTime": "2007-05-24T09:00:00",
    "eventActual": "108.6",
    "eventCountry": "Germany",
    "eventExpectedVolatility": "High",
    "eventName": "German Ifo Business Climate Index",
    "eventTimeZone": "GMT",
    "eventPrevious": "108.6",
    "eventCurrency": "EUR",
    "eventForecast": "108.9"
  }}}
