"Average Hourly Earnings (MoM)";"United States";"USD";"2013-10-22T12:30:00";"GMT";"0.3%";"0.2%";"0.1%";"Moderate"
"Average Weekly Hours";"United States";"USD";"2013-10-22T12:30:00";"GMT";"34.5";"34.5";"34.5";"Low"
"Nonfarm Payrolls";"United States";"USD";"2013-10-22T12:30:00";"GMT";"193K";"180K";"148K";"High"
"Private Nonfarm Payrolls";"United States";"USD";"2013-10-22T12:30:00";"GMT";"161K";"180K";"126K";"Moderate"
"U6 Unemployment Rate (Sep)";"United States";"USD";"2013-10-22T12:30:00";"GMT";"13.60%";"";"13.70%";"Low"
"Unemployment Rate";"United States";"USD";"2013-10-22T12:30:00";"GMT";"7.3%";"7.3%";"7.2%";"High"
"Redbook (MoM)";"United States";"USD";"2013-10-22T12:55:00";"GMT";"-1.40%";"";"-1.50%";"Low"
"Redbook (YoY)";"United States";"USD";"2013-10-22T12:55:00";"GMT";"3.2%";"";"2.9%";"Low"
"Overall Net Capital Flow";"United States";"USD";"2013-10-22T13:00:00";"GMT";"56.70B";"";"-2.90B";"Low"
"TIC Net Long-Term Transactions";"United States";"USD";"2013-10-22T13:00:00";"GMT";"31.0B";"30.9B";"-8.9B";"Moderate"
"TIC Net Long-Term Transactions including Swaps";"United States";"USD";"2013-10-22T13:00:00";"GMT";"14.30B";"";"24.30B";"Low"
"US Foreign Buying, T-bonds";"United States";"USD";"2013-10-22T13:00:00";"GMT";"33.90B";"";"-10.80B";"Low"
"Construction Spending (MoM)";"United States";"USD";"2013-10-22T14:00:00";"GMT";"1.4%";"0.4%";"0.6%";"Low"
"Richmond Manufacturing Index";"United States";"USD";"2013-10-22T14:00:00";"GMT";"0";"0";"1";"Low"
"Natural Gas Storage";"United States";"USD";"2013-10-22T14:30:00";"GMT";"90B";"80B";"77B";"Low"
"4-Week Bill Auction";"United States";"USD";"2013-10-22T15:30:00";"GMT";"0.240%";"";"0.030%";"Low"
"API Weekly Crude Oil Stock";"United States";"USD";"2013-10-22T20:30:00";"GMT";"5.90M";"3.00M";"3.00M";"Moderate"
"API Weekly Distillates Stocks";"United States";"USD";"2013-10-22T20:30:00";"GMT";"-1.300M";"-1.600M";"0.815M";"Low"
"API Weekly Gasoline Stock";"United States";"USD";"2013-10-22T20:30:00";"GMT";"-2.20M";"-0.40M";"-0.51M";"Low"
