{"events": {"event": [
    {
      "eventDateTime": "2017-03-16T12:00:00",
      "eventActual": "0.25%",
      "eventCountry": "United Kingdom",
      "eventExpectedVolatility": "High",
      "eventName": "BoE Interest Rate Decision (Mar)",
      "eventTimeZone": "GMT",
      "eventPrevious": "0.25%",
      "eventCurrency": "GBP",
      "eventForecast": "0.25%"
    },
    {
      "eventDateTime": "2017-03-16T12:00:00",
      "eventActual": "",
      "eventCountry": "United Kingdom",
      "eventExpectedVolatility": "High",
      "eventName": "BoE MPC Meeting Minutes",
      "eventTimeZone": "GMT",
      "eventPrevious": "",
      "eventCurrency": "GBP",
      "eventForecast": ""
    },
    {
      "eventDateTime": "2017-03-16T12:00:00",
      "eventActual": "0",
      "eventCountry": "United Kingdom",
      "eventExpectedVolatility": "Moderate",
      "eventName": "BoE MPC vote cut (Mar)",
      "eventTimeZone": "GMT",
      "eventPrevious": "0",
      "eventCurrency": "GBP",
      "eventForecast": "0"
    },
    {
      "eventDateTime": "2017-03-16T12:00:00",
      "eventActual": "1",
      "eventCountry": "United Kingdom",
      "eventExpectedVolatility": "Moderate",
      "eventName": "BoE MPC vote hike (Mar)",
      "eventTimeZone": "GMT",
      "eventPrevious": "0",
      "eventCurrency": "GBP",
      "eventForecast": "0"
    },
    {
      "eventDateTime": "2017-03-16T12:00:00",
      "eventActual": "8",
      "eventCountry": "United Kingdom",
      "eventExpectedVolatility": "Moderate",
      "eventName": "BoE MPC vote unchanged (Mar)",
      "eventTimeZone": "GMT",
      "eventPrevious": "9",
      "eventCurrency": "GBP",
      "eventForecast": "9"
    },
    {
      "eventDateTime": "2017-03-16T12:00:00",
      "eventActual": "435B",
      "eventCountry": "United Kingdom",
      "eventExpectedVolatility": "Moderate",
      "eventName": "BoE QE Total (Mar)",
      "eventTimeZone": "GMT",
      "eventPrevious": "435B",
      "eventCurrency": "GBP",
      "eventForecast": "435B"
    }
  ]}}
