{"events": {"event": [
    {
      "eventDateTime": "2013-08-12T07:30:00",
      "eventActual": "25.83B",
      "eventCountry": "India",
      "eventExpectedVolatility": "Low",
      "eventName": "Exports (USD)",
      "eventTimeZone": "GMT",
      "eventPrevious": "23.79B",
      "eventCurrency": "INR",
      "eventForecast": ""
    },
    {
      "eventDateTime": "2013-08-12T07:30:00",
      "eventActual": "38.10B",
      "eventCountry": "India",
      "eventExpectedVolatility": "Low",
      "eventName": "Imports (USD)",
      "eventTimeZone": "GMT",
      "eventPrevious": "36.03B",
      "eventCurrency": "INR",
      "eventForecast": ""
    },
    {
      "eventDateTime": "2013-08-12T07:30:00",
      "eventActual": "-12.27B",
      "eventCountry": "India",
      "eventExpectedVolatility": "Low",
      "eventName": "Trade Balance",
      "eventTimeZone": "GMT",
      "eventPrevious": "-12.20B",
      "eventCurrency": "INR",
      "eventForecast": "-13.80B"
    },
    {
      "eventDateTime": "2013-08-12T12:00:00",
      "eventActual": "9.6%",
      "eventCountry": "India",
      "eventExpectedVolatility": "Moderate",
      "eventName": "CPI (YoY)",
      "eventTimeZone": "GMT",
      "eventPrevious": "9.9%",
      "eventCurrency": "INR",
      "eventForecast": "9.7%"
    },
    {
      "eventDateTime": "2013-08-12T12:00:00",
      "eventActual": "-2.2%",
      "eventCountry": "India",
      "eventExpectedVolatility": "Low",
      "eventName": "Industrial Production (YoY)",
      "eventTimeZone": "GMT",
      "eventPrevious": "-1.6%",
      "eventCurrency": "INR",
      "eventForecast": "-1.2%"
    },
    {
      "eventDateTime": "2013-08-12T12:00:00",
      "eventActual": "-2.20%",
      "eventCountry": "India",
      "eventExpectedVolatility": "Low",
      "eventName": "Manufacturing Output (MoM)",
      "eventTimeZone": "GMT",
      "eventPrevious": "-2.00%",
      "eventCurrency": "INR",
      "eventForecast": ""
    }
  ]}}
