"Continuing Jobless Claims";"United States";"USD";"2011-10-06T12:30:00";"GMT";"3,752K";"3,725K";"3,700K";"Low"
"Initial Jobless Claims";"United States";"USD";"2011-10-06T12:30:00";"GMT";"395K";"411K";"401K";"Moderate"
"Bloomberg Consumer Confidence";"United States";"USD";"2011-10-06T13:45:00";"GMT";"23.5";"";"24.9";"Low"
"Treasury Secretary Geithner Speaks";"United States";"USD";"2011-10-06T14:00:00";"GMT";" ";"";"";"Moderate"
"Natural Gas Storage";"United States";"USD";"2011-10-06T14:30:00";"GMT";"111B";"94B";"97B";"Low"
"Treasury Secretary Geithner Speaks";"United States";"USD";"2011-10-06T18:00:00";"GMT";" ";"";"";"Moderate"
