{"events": {"event": [
    {
      "eventDateTime": "2008-03-20T12:30:00",
      "eventActual": "0.90B",
      "eventCountry": "Canada",
      "eventExpectedVolatility": "Moderate",
      "eventName": "Foreign Securities Purchases",
      "eventTimeZone": "GMT",
      "eventPrevious": "1.20B",
      "eventCurrency": "CAD",
      "eventForecast": "1.90B"
    },
    {
      "eventDateTime": "2008-03-20T12:30:00",
      "eventActual": "-0.3%",
      "eventCountry": "Canada",
      "eventExpectedVolatility": "Moderate",
      "eventName": "Leading Indicators (MoM)",
      "eventTimeZone": "GMT",
      "eventPrevious": "0.2%",
      "eventCurrency": "CAD",
      "eventForecast": "0.1%"
    }
  ]}}
