{"events": {"event": [
    {
      "eventDateTime": "2014-03-10T05:00:00",
      "eventActual": "53.0",
      "eventCountry": "Japan",
      "eventExpectedVolatility": "Low",
      "eventName": "Economy Watchers Current Index",
      "eventTimeZone": "GMT",
      "eventPrevious": "54.7",
      "eventCurrency": "JPY",
      "eventForecast": "54.3"
    },
    {
      "eventDateTime": "2014-03-10T23:50:00",
      "eventActual": "4.0%",
      "eventCountry": "Japan",
      "eventExpectedVolatility": "Low",
      "eventName": "M2 Money Stock (YoY)",
      "eventTimeZone": "GMT",
      "eventPrevious": "4.3%",
      "eventCurrency": "JPY",
      "eventForecast": "4.4%"
    }
  ]}}
