{"events": {"event": {
    "eventDateTime": "2016-02-25T13:30:00",
    "eventActual": "-3.1%",
    "eventCountry": "Canada",
    "eventExpectedVolatility": "Low",
    "eventName": "Corporate Profits (QoQ)",
    "eventTimeZone": "GMT",
    "eventPrevious": "-5.4%",
    "eventCurrency": "CAD",
    "eventForecast": ""
  }}}
