{"events": {"event": {
    "eventDateTime": "2014-07-09T12:15:00",
    "eventActual": "198.2K",
    "eventCountry": "Canada",
    "eventExpectedVolatility": "Moderate",
    "eventName": "Housing Starts",
    "eventTimeZone": "GMT",
    "eventPrevious": "197.0K",
    "eventCurrency": "CAD",
    "eventForecast": "189.0K"
  }}}
