{"events": {"event": [
    {
      "eventDateTime": "2016-02-01T09:00:00",
      "eventActual": "43.5",
      "eventCountry": "South Africa",
      "eventExpectedVolatility": "Low",
      "eventName": "Manufacturing PMI",
      "eventTimeZone": "GMT",
      "eventPrevious": "45.5",
      "eventCurrency": "ZAR",
      "eventForecast": "45.1"
    },
    {
      "eventDateTime": "2016-02-01T11:49:00",
      "eventActual": "48.62K",
      "eventCountry": "South Africa",
      "eventExpectedVolatility": "Low",
      "eventName": "Total Vehicle Sales (Jan)",
      "eventTimeZone": "GMT",
      "eventPrevious": "49.25K",
      "eventCurrency": "ZAR",
      "eventForecast": ""
    },
    {
      "eventDateTime": "2016-02-01T11:49:00",
      "eventActual": "-6.90%",
      "eventCountry": "South Africa",
      "eventExpectedVolatility": "Low",
      "eventName": "Total Vehicle Sales (YoY) (Jan)",
      "eventTimeZone": "GMT",
      "eventPrevious": "-4.20%",
      "eventCurrency": "ZAR",
      "eventForecast": ""
    }
  ]}}
