{"events": {"event": {
    "eventDateTime": "2015-09-08T23:00:00",
    "eventActual": "3.6%",
    "eventCountry": "South Korea",
    "eventExpectedVolatility": "Low",
    "eventName": "Unemployment Rate (Aug)",
    "eventTimeZone": "GMT",
    "eventPrevious": "3.7%",
    "eventCurrency": "KRW",
    "eventForecast": "3.8%"
  }}}
