"ECB President Draghi Speaks";"Euro Zone";"EUR";"2016-01-22T07:45:00";"GMT";" ";"";"";"High"
"French Manufacturing PMI (Jan)";"France";"EUR";"2016-01-22T08:00:00";"GMT";"51.4";"51.3";"50.0";"Moderate"
"French Markit Composite PMI (Jan)";"France";"EUR";"2016-01-22T08:00:00";"GMT";"50.1";"";"50.5";"Low"
"French Services PMI (Jan)";"France";"EUR";"2016-01-22T08:00:00";"GMT";"49.8";"50.2";"50.6";"Moderate"
"German Composite PMI (Jan)";"Germany";"EUR";"2016-01-22T08:30:00";"GMT";"55.5";"";"54.5";"Low"
"German Manufacturing PMI (Jan)";"Germany";"EUR";"2016-01-22T08:30:00";"GMT";"53.2";"53.0";"52.1";"High"
"German Services PMI (Jan)";"Germany";"EUR";"2016-01-22T08:30:00";"GMT";"56.0";"55.6";"55.4";"Moderate"
"ECB's Nowotny Speaks";"Euro Zone";"EUR";"2016-01-22T09:00:00";"GMT";" ";"";"";"Moderate"
"Manufacturing PMI (Jan)";"Euro Zone";"EUR";"2016-01-22T09:00:00";"GMT";"53.2";"53.0";"52.3";"Moderate"
"Markit Composite PMI (Jan)";"Euro Zone";"EUR";"2016-01-22T09:00:00";"GMT";"54.3";"54.2";"53.5";"Moderate"
"Services PMI (Jan)";"Euro Zone";"EUR";"2016-01-22T09:00:00";"GMT";"54.2";"54.2";"53.6";"Moderate"
"CFTC EUR speculative net positions";"Euro Zone";"EUR";"2016-01-22T20:30:00";"GMT";"-146.5K";"";"-137.0K";"Moderate"
