{"events": {"event": {
    "eventDateTime": "2017-10-19T01:00:00",
    "eventActual": "1.25%",
    "eventCountry": "South Korea",
    "eventExpectedVolatility": "Low",
    "eventName": "Interest Rate Decision (Oct)",
    "eventTimeZone": "GMT",
    "eventPrevious": "1.25%",
    "eventCurrency": "KRW",
    "eventForecast": "1.25%"
  }}}
