{"events": {"event": {
    "eventDateTime": "2017-08-31T08:30:00",
    "eventActual": "15.8%",
    "eventCountry": "Hong Kong",
    "eventExpectedVolatility": "Low",
    "eventName": "M3 Money Supply (Jul)",
    "eventTimeZone": "GMT",
    "eventPrevious": "15.9%",
    "eventCurrency": "HKD",
    "eventForecast": ""
  }}}
