{"events": {"event": [
    {
      "eventDateTime": "2016-11-16T23:50:00",
      "eventActual": "466.2B",
      "eventCountry": "Japan",
      "eventExpectedVolatility": "Low",
      "eventName": "Foreign Bonds Buying",
      "eventTimeZone": "GMT",
      "eventPrevious": "605.3B",
      "eventCurrency": "JPY",
      "eventForecast": ""
    },
    {
      "eventDateTime": "2016-11-16T23:50:00",
      "eventActual": "545.8B",
      "eventCountry": "Japan",
      "eventExpectedVolatility": "Low",
      "eventName": "Foreign Investments in Japanese Stocks",
      "eventTimeZone": "GMT",
      "eventPrevious": "-106.4B",
      "eventCurrency": "JPY",
      "eventForecast": ""
    }
  ]}}
