{"events": {"event": [
    {
      "eventDateTime": "2010-11-18T13:30:00",
      "eventActual": "439K",
      "eventCountry": "United States",
      "eventExpectedVolatility": "Moderate",
      "eventName": "Initial Jobless Claims",
      "eventTimeZone": "GMT",
      "eventPrevious": "435K",
      "eventCurrency": "USD",
      "eventForecast": "442K"
    },
    {
      "eventDateTime": "2010-11-18T14:00:00",
      "eventActual": "9.13%",
      "eventCountry": "United States",
      "eventExpectedVolatility": "Low",
      "eventName": "MBA Delinquency Rates (QoQ)",
      "eventTimeZone": "GMT",
      "eventPrevious": "9.85%",
      "eventCurrency": "USD",
      "eventForecast": "9.26%"
    },
    {
      "eventDateTime": "2010-11-18T15:00:00",
      "eventActual": "22.5",
      "eventCountry": "United States",
      "eventExpectedVolatility": "High",
      "eventName": "Philadelphia Fed Manufacturing Index",
      "eventTimeZone": "GMT",
      "eventPrevious": "1.0",
      "eventCurrency": "USD",
      "eventForecast": "4.5"
    },
    {
      "eventDateTime": "2010-11-18T15:30:00",
      "eventActual": "3B",
      "eventCountry": "United States",
      "eventExpectedVolatility": "Low",
      "eventName": "Natural Gas Storage",
      "eventTimeZone": "GMT",
      "eventPrevious": "19B",
      "eventCurrency": "USD",
      "eventForecast": "11B"
    },
    {
      "eventDateTime": "2010-11-18T17:00:00",
      "eventActual": "",
      "eventCountry": "United States",
      "eventExpectedVolatility": "Moderate",
      "eventName": "Fed Governor Warsh Speaks",
      "eventTimeZone": "GMT",
      "eventPrevious": "",
      "eventCurrency": "USD",
      "eventForecast": ""
    }
  ]}}
