{"events": {"event": [
    {
      "eventDateTime": "2013-08-30T12:00:00",
      "eventActual": "1.5%",
      "eventCountry": "Brazil",
      "eventExpectedVolatility": "Moderate",
      "eventName": "GDP (QoQ)",
      "eventTimeZone": "GMT",
      "eventPrevious": "0.6%",
      "eventCurrency": "BRL",
      "eventForecast": "0.9%"
    },
    {
      "eventDateTime": "2013-08-30T12:00:00",
      "eventActual": "3.3%",
      "eventCountry": "Brazil",
      "eventExpectedVolatility": "Moderate",
      "eventName": "GDP (YoY)",
      "eventTimeZone": "GMT",
      "eventPrevious": "1.9%",
      "eventCurrency": "BRL",
      "eventForecast": "2.5%"
    },
    {
      "eventDateTime": "2013-08-30T13:30:00",
      "eventActual": "34.1%",
      "eventCountry": "Brazil",
      "eventExpectedVolatility": "Low",
      "eventName": "Debt-to-GDP ratio",
      "eventTimeZone": "GMT",
      "eventPrevious": "34.5%",
      "eventCurrency": "BRL",
      "eventForecast": "34.2%"
    }
  ]}}
