"Bank Loan Growth (Jul)";"India";"INR";"2004-08-01T09:00:00";"GMT";"19.53%";"";"21.61%";"Low"
"Cash Reserve Ratio (Jul)";"India";"INR";"2004-08-01T09:00:00";"GMT";"4.50%";"";"4.50%";"Low"
"Deposit Growth (Jul)";"India";"INR";"2004-08-01T09:00:00";"GMT";"16.31%";"";"16.46%";"Low"
"Exports (USD) (Jul)";"India";"INR";"2004-08-01T09:00:00";"GMT";"6.07B";"";"5.82B";"Low"
"FX Reserves, USD (Jul)";"India";"INR";"2004-08-01T09:00:00";"GMT";"120.08B";"";"118.32B";"Low"
"Federal Fiscal Deficit (Jul)";"India";"INR";"2004-08-01T09:00:00";"GMT";"416.81B";"";"503.98B";"Low"
"Imports (USD) (Jul)";"India";"INR";"2004-08-01T09:00:00";"GMT";"8.72B";"";"7.87B";"Low"
"Interest Rate Decision (Jul)";"India";"INR";"2004-08-01T09:00:00";"GMT";"4.50%";"";"4.50%";"High"
"M3 Money Supply (Jul)";"India";"INR";"2004-08-01T09:00:00";"GMT";"14.78%";"";"14.41%";"Low"
"Reverse REPO Rate (Jul)";"India";"INR";"2004-08-01T09:00:00";"GMT";"6.00%";"";"6.00%";"Low"
"Trade Balance (Jul)";"India";"INR";"2004-08-01T09:00:00";"GMT";"-2.65B";"";"-2.05B";"Low"
