{"events": {"event": [
    {
      "eventDateTime": "2011-03-29T08:30:00",
      "eventActual": "0.0%",
      "eventCountry": "United Kingdom",
      "eventExpectedVolatility": "Moderate",
      "eventName": "Business Investment (QoQ)",
      "eventTimeZone": "GMT",
      "eventPrevious": "-2.5%",
      "eventCurrency": "GBP",
      "eventForecast": "-2.3%"
    },
    {
      "eventDateTime": "2011-03-29T08:30:00",
      "eventActual": "-10.5B",
      "eventCountry": "United Kingdom",
      "eventExpectedVolatility": "Moderate",
      "eventName": "Current Account",
      "eventTimeZone": "GMT",
      "eventPrevious": "-8.8B",
      "eventCurrency": "GBP",
      "eventForecast": "-10.4B"
    },
    {
      "eventDateTime": "2011-03-29T08:30:00",
      "eventActual": "-0.5%",
      "eventCountry": "United Kingdom",
      "eventExpectedVolatility": "High",
      "eventName": "GDP (QoQ)",
      "eventTimeZone": "GMT",
      "eventPrevious": "-0.6%",
      "eventCurrency": "GBP",
      "eventForecast": "-0.6%"
    },
    {
      "eventDateTime": "2011-03-29T08:30:00",
      "eventActual": "-0.3%",
      "eventCountry": "United Kingdom",
      "eventExpectedVolatility": "Low",
      "eventName": "M4 Money Supply (MoM)",
      "eventTimeZone": "GMT",
      "eventPrevious": "0.8%",
      "eventCurrency": "GBP",
      "eventForecast": "0.7%"
    },
    {
      "eventDateTime": "2011-03-29T08:30:00",
      "eventActual": "47K",
      "eventCountry": "United Kingdom",
      "eventExpectedVolatility": "Low",
      "eventName": "Mortgage Approvals",
      "eventTimeZone": "GMT",
      "eventPrevious": "43K",
      "eventCurrency": "GBP",
      "eventForecast": "47K"
    },
    {
      "eventDateTime": "2011-03-29T08:30:00",
      "eventActual": "2.0B",
      "eventCountry": "United Kingdom",
      "eventExpectedVolatility": "Low",
      "eventName": "Net Lending to Individuals",
      "eventTimeZone": "GMT",
      "eventPrevious": "1.6B",
      "eventCurrency": "GBP",
      "eventForecast": "1.2B"
    }
  ]}}
