{"events": {"event": {
    "eventDateTime": "2009-04-18T03:30:00",
    "eventActual": "",
    "eventCountry": "Euro Zone",
    "eventExpectedVolatility": "High",
    "eventName": "ECB President Trichet Speaks",
    "eventTimeZone": "GMT",
    "eventPrevious": "",
    "eventCurrency": "EUR",
    "eventForecast": ""
  }}}
