{"events": {"event": [
    {
      "eventDateTime": "2009-07-22T08:30:00",
      "eventActual": "",
      "eventCountry": "United Kingdom",
      "eventExpectedVolatility": "High",
      "eventName": "BoE MPC Meeting Minutes",
      "eventTimeZone": "GMT",
      "eventPrevious": "",
      "eventCurrency": "GBP",
      "eventForecast": ""
    },
    {
      "eventDateTime": "2009-07-22T10:00:00",
      "eventActual": "-59",
      "eventCountry": "United Kingdom",
      "eventExpectedVolatility": "Moderate",
      "eventName": "CBI Industrial Trends Orders",
      "eventTimeZone": "GMT",
      "eventPrevious": "-51",
      "eventCurrency": "GBP",
      "eventForecast": "-46"
    }
  ]}}
