"Building Capital Expenditure (MoM) (Q2)";"Australia";"AUD";"2019-08-29T01:30:00";"GMT";"-1.9%";"";"-3.3%";"Low"
"Plant/Machinery Capital Expenditure (QoQ) (Q2)";"Australia";"AUD";"2019-08-29T01:30:00";"GMT";"-0.5%";"";"2.5%";"Low"
"Private New Capital Expenditure (QoQ) (Q2)";"Australia";"AUD";"2019-08-29T01:30:00";"GMT";"-1.3%";"0.5%";"-0.5%";"Moderate"
