{"events": {"event": [
    {
      "eventDateTime": "2019-02-06T02:00:00",
      "eventActual": "",
      "eventCountry": "United States",
      "eventExpectedVolatility": "High",
      "eventName": "U.S. President Trump Speaks",
      "eventTimeZone": "GMT",
      "eventPrevious": "",
      "eventCurrency": "USD",
      "eventForecast": ""
    },
    {
      "eventDateTime": "2019-02-06T12:00:00",
      "eventActual": "4.69%",
      "eventCountry": "United States",
      "eventExpectedVolatility": "Low",
      "eventName": "MBA 30-Year Mortgage Rate",
      "eventTimeZone": "GMT",
      "eventPrevious": "4.76%",
      "eventCurrency": "USD",
      "eventForecast": ""
    },
    {
      "eventDateTime": "2019-02-06T12:00:00",
      "eventActual": "-2.5%",
      "eventCountry": "United States",
      "eventExpectedVolatility": "Low",
      "eventName": "MBA Mortgage Applications (WoW)",
      "eventTimeZone": "GMT",
      "eventPrevious": "-3.0%",
      "eventCurrency": "USD",
      "eventForecast": ""
    },
    {
      "eventDateTime": "2019-02-06T12:00:00",
      "eventActual": "253.1",
      "eventCountry": "United States",
      "eventExpectedVolatility": "Low",
      "eventName": "MBA Purchase Index",
      "eventTimeZone": "GMT",
      "eventPrevious": "266.2",
      "eventCurrency": "USD",
      "eventForecast": ""
    },
    {
      "eventDateTime": "2019-02-06T12:00:00",
      "eventActual": "378.9",
      "eventCountry": "United States",
      "eventExpectedVolatility": "Low",
      "eventName": "Mortgage Market Index",
      "eventTimeZone": "GMT",
      "eventPrevious": "388.7",
      "eventCurrency": "USD",
      "eventForecast": ""
    },
    {
      "eventDateTime": "2019-02-06T12:00:00",
      "eventActual": "1,053.4",
      "eventCountry": "United States",
      "eventExpectedVolatility": "Low",
      "eventName": "Mortgage Refinance Index",
      "eventTimeZone": "GMT",
      "eventPrevious": "1,049.9",
      "eventCurrency": "USD",
      "eventForecast": ""
    },
    {
      "eventDateTime": "2019-02-06T13:30:00",
      "eventActual": "209.90B",
      "eventCountry": "United States",
      "eventExpectedVolatility": "Moderate",
      "eventName": "Exports",
      "eventTimeZone": "GMT",
      "eventPrevious": "211.20B",
      "eventCurrency": "USD",
      "eventForecast": ""
    },
    {
      "eventDateTime": "2019-02-06T13:30:00",
      "eventActual": "259.20B",
      "eventCountry": "United States",
      "eventExpectedVolatility": "Moderate",
      "eventName": "Imports",
      "eventTimeZone": "GMT",
      "eventPrevious": "266.90B",
      "eventCurrency": "USD",
      "eventForecast": ""
    },
    {
      "eventDateTime": "2019-02-06T13:30:00",
      "eventActual": "0.0%",
      "eventCountry": "United States",
      "eventExpectedVolatility": "Moderate",
      "eventName": "Nonfarm Productivity (QoQ) (Q4)",
      "eventTimeZone": "GMT",
      "eventPrevious": "2.3%",
      "eventCurrency": "USD",
      "eventForecast": "1.7%"
    },
    {
      "eventDateTime": "2019-02-06T13:30:00",
      "eventActual": "-49.30B",
      "eventCountry": "United States",
      "eventExpectedVolatility": "Moderate",
      "eventName": "Trade Balance (Nov)",
      "eventTimeZone": "GMT",
      "eventPrevious": "-55.70B",
      "eventCurrency": "USD",
      "eventForecast": "-54.00B"
    },
    {
      "eventDateTime": "2019-02-06T15:30:00",
      "eventActual": "-0.863M",
      "eventCountry": "United States",
      "eventExpectedVolatility": "Low",
      "eventName": "Crude Oil Imports",
      "eventTimeZone": "GMT",
      "eventPrevious": "-1.017M",
      "eventCurrency": "USD",
      "eventForecast": ""
    },
    {
      "eventDateTime": "2019-02-06T15:30:00",
      "eventActual": "1.263M",
      "eventCountry": "United States",
      "eventExpectedVolatility": "High",
      "eventName": "Crude Oil Inventories",
      "eventTimeZone": "GMT",
      "eventPrevious": "0.919M",
      "eventCurrency": "USD",
      "eventForecast": "2.179M"
    },
    {
      "eventDateTime": "2019-02-06T15:30:00",
      "eventActual": "1.441M",
      "eventCountry": "United States",
      "eventExpectedVolatility": "Moderate",
      "eventName": "Cushing Crude Oil Inventories",
      "eventTimeZone": "GMT",
      "eventPrevious": "-0.145M",
      "eventCurrency": "USD",
      "eventForecast": ""
    },
    {
      "eventDateTime": "2019-02-06T15:30:00",
      "eventActual": "0.102M",
      "eventCountry": "United States",
      "eventExpectedVolatility": "Low",
      "eventName": "Distillate Fuel Production",
      "eventTimeZone": "GMT",
      "eventPrevious": "-0.185M",
      "eventCurrency": "USD",
      "eventForecast": ""
    },
    {
      "eventDateTime": "2019-02-06T15:30:00",
      "eventActual": "-2.257M",
      "eventCountry": "United States",
      "eventExpectedVolatility": "Low",
      "eventName": "EIA Weekly Distillates Stocks",
      "eventTimeZone": "GMT",
      "eventPrevious": "-1.122M",
      "eventCurrency": "USD",
      "eventForecast": "-1.814M"
    },
    {
      "eventDateTime": "2019-02-06T15:30:00",
      "eventActual": "0.513M",
      "eventCountry": "United States",
      "eventExpectedVolatility": "Low",
      "eventName": "Gasoline Inventories",
      "eventTimeZone": "GMT",
      "eventPrevious": "-2.235M",
      "eventCurrency": "USD",
      "eventForecast": "1.601M"
    },
    {
      "eventDateTime": "2019-02-06T15:30:00",
      "eventActual": "-0.048M",
      "eventCountry": "United States",
      "eventExpectedVolatility": "Low",
      "eventName": "Gasoline Production",
      "eventTimeZone": "GMT",
      "eventPrevious": "0.300M",
      "eventCurrency": "USD",
      "eventForecast": ""
    },
    {
      "eventDateTime": "2019-02-06T15:30:00",
      "eventActual": "-0.456M",
      "eventCountry": "United States",
      "eventExpectedVolatility": "Low",
      "eventName": "Heating Oil Stockpiles",
      "eventTimeZone": "GMT",
      "eventPrevious": "0.263M",
      "eventCurrency": "USD",
      "eventForecast": ""
    },
    {
      "eventDateTime": "2019-02-06T18:00:00",
      "eventActual": "2.689%",
      "eventCountry": "United States",
      "eventExpectedVolatility": "Moderate",
      "eventName": "10-Year Note Auction",
      "eventTimeZone": "GMT",
      "eventPrevious": "2.728%",
      "eventCurrency": "USD",
      "eventForecast": ""
    },
    {
      "eventDateTime": "2019-02-06T23:05:00",
      "eventActual": "",
      "eventCountry": "United States",
      "eventExpectedVolatility": "Moderate",
      "eventName": "FOMC Member Quarles Speaks",
      "eventTimeZone": "GMT",
      "eventPrevious": "",
      "eventCurrency": "USD",
      "eventForecast": ""
    }
  ]}}
