{"events": {"event": {
    "eventDateTime": "2008-02-15T20:30:00",
    "eventActual": "43.5K",
    "eventCountry": "Japan",
    "eventExpectedVolatility": "Moderate",
    "eventName": "CFTC JPY speculative net positions",
    "eventTimeZone": "GMT",
    "eventPrevious": "54.7K",
    "eventCurrency": "JPY",
    "eventForecast": ""
  }}}
