{"events": {"event": {
    "eventDateTime": "2013-05-17T19:30:00",
    "eventActual": "-88.4K",
    "eventCountry": "Japan",
    "eventExpectedVolatility": "Moderate",
    "eventName": "CFTC JPY speculative net positions",
    "eventTimeZone": "GMT",
    "eventPrevious": "-78.6K",
    "eventCurrency": "JPY",
    "eventForecast": ""
  }}}
