{"events": {"event": [
    {
      "eventDateTime": "2012-03-15T09:00:00",
      "eventActual": "",
      "eventCountry": "Euro Zone",
      "eventExpectedVolatility": "Moderate",
      "eventName": "ECB Economic Bulletin",
      "eventTimeZone": "GMT",
      "eventPrevious": "",
      "eventCurrency": "EUR",
      "eventForecast": ""
    },
    {
      "eventDateTime": "2012-03-15T09:00:00",
      "eventActual": "-0.5%",
      "eventCountry": "Germany",
      "eventExpectedVolatility": "Low",
      "eventName": "German House Price Index (MoM)",
      "eventTimeZone": "GMT",
      "eventPrevious": "-0.5%",
      "eventCurrency": "EUR",
      "eventForecast": ""
    },
    {
      "eventDateTime": "2012-03-15T09:50:00",
      "eventActual": "0.70%",
      "eventCountry": "France",
      "eventExpectedVolatility": "Low",
      "eventName": "French 2-Year BTAN Auction",
      "eventTimeZone": "GMT",
      "eventPrevious": "0.89%",
      "eventCurrency": "EUR",
      "eventForecast": ""
    },
    {
      "eventDateTime": "2012-03-15T10:00:00",
      "eventActual": "-0.2%",
      "eventCountry": "Euro Zone",
      "eventExpectedVolatility": "Low",
      "eventName": "Employment Change (QoQ)",
      "eventTimeZone": "GMT",
      "eventPrevious": "-0.2%",
      "eventCurrency": "EUR",
      "eventForecast": "-0.2%"
    }
  ]}}
