{"events": {"event": [
    {
      "eventDateTime": "2013-05-16T06:45:00",
      "eventActual": "-0.1%",
      "eventCountry": "France",
      "eventExpectedVolatility": "Moderate",
      "eventName": "French Non-Farm Payrolls (QoQ)",
      "eventTimeZone": "GMT",
      "eventPrevious": "-0.3%",
      "eventCurrency": "EUR",
      "eventForecast": "-0.3%"
    },
    {
      "eventDateTime": "2013-05-16T07:30:00",
      "eventActual": "-13.9%",
      "eventCountry": "Spain",
      "eventExpectedVolatility": "Low",
      "eventName": "Spanish industrial New Orders (YoY)",
      "eventTimeZone": "GMT",
      "eventPrevious": "-5.7%",
      "eventCurrency": "EUR",
      "eventForecast": "-6.6%"
    },
    {
      "eventDateTime": "2013-05-16T08:00:00",
      "eventActual": "3.24B",
      "eventCountry": "Italy",
      "eventExpectedVolatility": "Low",
      "eventName": "Italian Trade Balance",
      "eventTimeZone": "GMT",
      "eventPrevious": "1.09B",
      "eventCurrency": "EUR",
      "eventForecast": "1.72B"
    },
    {
      "eventDateTime": "2013-05-16T09:00:00",
      "eventActual": "1.2%",
      "eventCountry": "Euro Zone",
      "eventExpectedVolatility": "High",
      "eventName": "CPI (YoY)",
      "eventTimeZone": "GMT",
      "eventPrevious": "1.2%",
      "eventCurrency": "EUR",
      "eventForecast": "1.2%"
    },
    {
      "eventDateTime": "2013-05-16T09:00:00",
      "eventActual": "1.0%",
      "eventCountry": "Euro Zone",
      "eventExpectedVolatility": "Moderate",
      "eventName": "Core CPI (YoY)",
      "eventTimeZone": "GMT",
      "eventPrevious": "1.5%",
      "eventCurrency": "EUR",
      "eventForecast": "1.0%"
    },
    {
      "eventDateTime": "2013-05-16T09:00:00",
      "eventActual": "0.21%",
      "eventCountry": "France",
      "eventExpectedVolatility": "Low",
      "eventName": "French 2-Year BTAN Auction",
      "eventTimeZone": "GMT",
      "eventPrevious": "0.24%",
      "eventCurrency": "EUR",
      "eventForecast": ""
    },
    {
      "eventDateTime": "2013-05-16T09:00:00",
      "eventActual": "0.74%",
      "eventCountry": "France",
      "eventExpectedVolatility": "Low",
      "eventName": "French 5-Year BTAN Auction",
      "eventTimeZone": "GMT",
      "eventPrevious": "0.73%",
      "eventCurrency": "EUR",
      "eventForecast": ""
    },
    {
      "eventDateTime": "2013-05-16T09:00:00",
      "eventActual": "18.7B",
      "eventCountry": "Euro Zone",
      "eventExpectedVolatility": "Moderate",
      "eventName": "Trade Balance",
      "eventTimeZone": "GMT",
      "eventPrevious": "12.7B",
      "eventCurrency": "EUR",
      "eventForecast": "11.8B"
    }
  ]}}
