{"events": {"event": {
    "eventDateTime": "2012-06-18T01:30:00",
    "eventActual": "2.4%",
    "eventCountry": "Australia",
    "eventExpectedVolatility": "Low",
    "eventName": "New Motor Vehicle Sales (MoM)",
    "eventTimeZone": "GMT",
    "eventPrevious": "-1.0%",
    "eventCurrency": "AUD",
    "eventForecast": ""
  }}}
