{"events": {"event": [
    {
      "eventDateTime": "2008-06-24T23:50:00",
      "eventActual": "0.64T",
      "eventCountry": "Japan",
      "eventExpectedVolatility": "Moderate",
      "eventName": "Adjusted Trade Balance",
      "eventTimeZone": "GMT",
      "eventPrevious": "0.61T",
      "eventCurrency": "JPY",
      "eventForecast": "0.41T"
    },
    {
      "eventDateTime": "2008-06-24T23:50:00",
      "eventActual": "0.6%",
      "eventCountry": "Japan",
      "eventExpectedVolatility": "Low",
      "eventName": "Corporate Services Price Index (CSPI) (YoY)",
      "eventTimeZone": "GMT",
      "eventPrevious": "0.5%",
      "eventCurrency": "JPY",
      "eventForecast": "0.5%"
    }
  ]}}
