"GDP (MoM)";"Canada";"CAD";"2014-02-28T13:30:00";"GMT";"0.2%";"-0.2%";"-0.5%";"High"
"GDP (QoQ)";"Canada";"CAD";"2014-02-28T13:30:00";"GMT";"0.7%";"";"0.7%";"Moderate"
"GDP Annualized (QoQ)";"Canada";"CAD";"2014-02-28T13:30:00";"GMT";"2.7%";"2.5%";"2.9%";"Moderate"
"Budget Balance";"Canada";"CAD";"2014-02-28T16:00:00";"GMT";"-0.61B";"";"1.15B";"Low"
"Budget Balance (YoY)";"Canada";"CAD";"2014-02-28T16:00:00";"GMT";"-13.85B";"";"-12.70B";"Low"
"CFTC CAD speculative net positions";"Canada";"CAD";"2014-02-28T20:30:00";"GMT";"-65.0K";"";"-58.6K";"Low"
