{"events": {"event": {
    "eventDateTime": "2008-11-18T23:50:00",
    "eventActual": "-0.1%",
    "eventCountry": "Japan",
    "eventExpectedVolatility": "Low",
    "eventName": "All Industries Activity Index (MoM)",
    "eventTimeZone": "GMT",
    "eventPrevious": "-1.8%",
    "eventCurrency": "JPY",
    "eventForecast": "-0.1%"
  }}}
