{"events": {"event": [
    {
      "eventDateTime": "2004-03-19T17:00:00",
      "eventActual": "162",
      "eventCountry": "United States",
      "eventExpectedVolatility": "Moderate",
      "eventName": "U.S. Baker Hughes Oil Rig Count",
      "eventTimeZone": "GMT",
      "eventPrevious": "169",
      "eventCurrency": "USD",
      "eventForecast": ""
    },
    {
      "eventDateTime": "2004-03-19T20:30:00",
      "eventActual": "68.8k",
      "eventCountry": "United States",
      "eventExpectedVolatility": "Moderate",
      "eventName": "CFTC Crude Oil speculative net positions",
      "eventTimeZone": "GMT",
      "eventPrevious": "75.7k",
      "eventCurrency": "USD",
      "eventForecast": ""
    }
  ]}}
