{"events": {"event": {
    "eventDateTime": "2010-02-17T13:30:00",
    "eventActual": "0.7%",
    "eventCountry": "Canada",
    "eventExpectedVolatility": "Moderate",
    "eventName": "Wholesale Sales (MoM)",
    "eventTimeZone": "GMT",
    "eventPrevious": "2.7%",
    "eventCurrency": "CAD",
    "eventForecast": "0.6%"
  }}}
