{"events": {"event": {
    "eventDateTime": "2018-02-07T13:30:00",
    "eventActual": "4.8%",
    "eventCountry": "Canada",
    "eventExpectedVolatility": "Moderate",
    "eventName": "Building Permits (MoM) (Dec)",
    "eventTimeZone": "GMT",
    "eventPrevious": "-7.3%",
    "eventCurrency": "CAD",
    "eventForecast": "2.0%"
  }}}
