{"events": {"event": {
    "eventDateTime": "2017-11-15T15:50:00",
    "eventActual": "-0.40%",
    "eventCountry": "Russia",
    "eventExpectedVolatility": "Low",
    "eventName": "Budget Balance % of GDP (Oct)",
    "eventTimeZone": "GMT",
    "eventPrevious": "-0.30%",
    "eventCurrency": "RUB",
    "eventForecast": ""
  }}}
