{"events": {"event": [
    {
      "eventDateTime": "2008-08-18T22:45:00",
      "eventActual": "5.6%",
      "eventCountry": "New Zealand",
      "eventExpectedVolatility": "Moderate",
      "eventName": "PPI Input (QoQ)",
      "eventTimeZone": "GMT",
      "eventPrevious": "2.3%",
      "eventCurrency": "NZD",
      "eventForecast": "2.6%"
    },
    {
      "eventDateTime": "2008-08-18T22:45:00",
      "eventActual": "3.5%",
      "eventCountry": "New Zealand",
      "eventExpectedVolatility": "Low",
      "eventName": "PPI Output (QoQ)",
      "eventTimeZone": "GMT",
      "eventPrevious": "1.8%",
      "eventCurrency": "NZD",
      "eventForecast": "2.1%"
    }
  ]}}
