"Investing.com Gold Index";"United States";"USD";"2016-03-28T07:30:00";"GMT";"57.4%";"";"60.9%";"Moderate"
"Investing.com Sandamp:P 500 Index";"United States";"USD";"2016-03-28T07:30:00";"GMT";"20.1%";"";"27.0%";"Moderate"
"Core PCE Price Index (MoM) (Feb)";"United States";"USD";"2016-03-28T12:30:00";"GMT";"0.3%";"0.2%";"0.1%";"Moderate"
"Core PCE Price Index (YoY) (Feb)";"United States";"USD";"2016-03-28T12:30:00";"GMT";"1.7%";"1.8%";"1.7%";"Moderate"
"Goods Trade Balance (Feb)";"United States";"USD";"2016-03-28T12:30:00";"GMT";"-62.23B";"-62.30B";"-62.86B";"Moderate"
"Personal Income (MoM) (Feb)";"United States";"USD";"2016-03-28T12:30:00";"GMT";"0.5%";"0.1%";"0.2%";"Low"
"Personal Spending (MoM) (Feb)";"United States";"USD";"2016-03-28T12:30:00";"GMT";"0.1%";"0.1%";"0.1%";"Moderate"
"Real Personal Consumption (MoM) (Feb)";"United States";"USD";"2016-03-28T12:30:00";"GMT";"0.4%";"0.1%";"0.2%";"Low"
"Pending Home Sales (MoM) (Feb)";"United States";"USD";"2016-03-28T14:00:00";"GMT";"-3.0%";"1.0%";"3.5%";"High"
"Pending Home Sales Index (Feb)";"United States";"USD";"2016-03-28T14:00:00";"GMT";"105.4";"";"109.1";"Low"
"Dallas Fed Mfg Business Index (Mar)";"United States";"USD";"2016-03-28T14:30:00";"GMT";"-31.8";"-26.0";"-13.6";"Low"
"Dallas Fed PCE (Feb)";"United States";"USD";"2016-03-28T15:00:00";"GMT";"2.30%";"";"1.80%";"Low"
"3-Month Bill Auction";"United States";"USD";"2016-03-28T15:30:00";"GMT";"0.300%";"";"0.300%";"Low"
"6-Month Bill Auction";"United States";"USD";"2016-03-28T15:30:00";"GMT";"0.440%";"";"0.475%";"Low"
"2-Year Note Auction";"United States";"USD";"2016-03-28T17:00:00";"GMT";"0.752%";"";"0.877%";"Low"
