{"events": {"event": [
    {
      "eventDateTime": "2015-01-08T00:30:00",
      "eventActual": "7.5%",
      "eventCountry": "Australia",
      "eventExpectedVolatility": "Moderate",
      "eventName": "Building Approvals (MoM) (Nov)",
      "eventTimeZone": "GMT",
      "eventPrevious": "11.5%",
      "eventCurrency": "AUD",
      "eventForecast": "-3.5%"
    },
    {
      "eventDateTime": "2015-01-08T00:30:00",
      "eventActual": "-0.3%",
      "eventCountry": "Australia",
      "eventExpectedVolatility": "Low",
      "eventName": "Private House Approvals (Nov)",
      "eventTimeZone": "GMT",
      "eventPrevious": "-0.2%",
      "eventCurrency": "AUD",
      "eventForecast": ""
    },
    {
      "eventDateTime": "2015-01-08T22:30:00",
      "eventActual": "44.4",
      "eventCountry": "Australia",
      "eventExpectedVolatility": "Low",
      "eventName": "AIG Construction Index (Dec)",
      "eventTimeZone": "GMT",
      "eventPrevious": "45.0",
      "eventCurrency": "AUD",
      "eventForecast": ""
    }
  ]}}
