{"events": {"event": [
    {
      "eventDateTime": "2018-05-31T04:30:00",
      "eventActual": "",
      "eventCountry": "India",
      "eventExpectedVolatility": "Moderate",
      "eventName": "RBI Monetary and Credit Information Review",
      "eventTimeZone": "GMT",
      "eventPrevious": "",
      "eventCurrency": "INR",
      "eventForecast": ""
    },
    {
      "eventDateTime": "2018-05-31T11:30:00",
      "eventActual": "4.7%",
      "eventCountry": "India",
      "eventExpectedVolatility": "Low",
      "eventName": "Infrastructure Output (YoY) (Apr)",
      "eventTimeZone": "GMT",
      "eventPrevious": "4.4%",
      "eventCurrency": "INR",
      "eventForecast": ""
    },
    {
      "eventDateTime": "2018-05-31T12:00:00",
      "eventActual": "6.7%",
      "eventCountry": "India",
      "eventExpectedVolatility": "Low",
      "eventName": "GDP Annual",
      "eventTimeZone": "GMT",
      "eventPrevious": "7.1%",
      "eventCurrency": "INR",
      "eventForecast": ""
    },
    {
      "eventDateTime": "2018-05-31T12:00:00",
      "eventActual": "7.7%",
      "eventCountry": "India",
      "eventExpectedVolatility": "Moderate",
      "eventName": "GDP Quarterly (YoY) (Q4)",
      "eventTimeZone": "GMT",
      "eventPrevious": "7.0%",
      "eventCurrency": "INR",
      "eventForecast": "7.3%"
    },
    {
      "eventDateTime": "2018-05-31T13:05:00",
      "eventActual": "5,916.63B",
      "eventCountry": "India",
      "eventExpectedVolatility": "Low",
      "eventName": "Federal Fiscal Deficit (Mar)",
      "eventTimeZone": "GMT",
      "eventPrevious": "7,156.99B",
      "eventCurrency": "INR",
      "eventForecast": ""
    }
  ]}}
