"German Unemployment Change";"Germany";"EUR";"2010-08-31T07:55:00";"GMT";"-21K";"-19K";"-17K";"High"
"German Unemployment Rate";"Germany";"EUR";"2010-08-31T07:55:00";"GMT";"7.6%";"7.6%";"7.6%";"Moderate"
"Italian Retail Sales (MoM)";"Italy";"EUR";"2010-08-31T08:00:00";"GMT";"-0.1%";"0.2%";"0.3%";"Low"
"CPI (YoY)";"Euro Zone";"EUR";"2010-08-31T09:00:00";"GMT";"1.7%";"1.6%";"1.6%";"High"
"Italian CPI (MoM)";"Italy";"EUR";"2010-08-31T09:00:00";"GMT";"0.4%";"0.2%";"0.2%";"Moderate"
"Unemployment Rate";"Euro Zone";"EUR";"2010-08-31T09:00:00";"GMT";"10.0%";"10.0%";"10.0%";"Moderate"
"Italian Monthly Unemployment Rate";"Italy";"EUR";"2010-08-31T10:00:00";"GMT";"8.5%";"8.6%";"8.4%";"Low"
