{"events": {"event": [
    {
      "eventDateTime": "2013-02-14T21:45:00",
      "eventActual": "1.5%",
      "eventCountry": "New Zealand",
      "eventExpectedVolatility": "Moderate",
      "eventName": "Core Retail Sales (QoQ)",
      "eventTimeZone": "GMT",
      "eventPrevious": "0.0%",
      "eventCurrency": "NZD",
      "eventForecast": ""
    },
    {
      "eventDateTime": "2013-02-14T21:45:00",
      "eventActual": "2.1%",
      "eventCountry": "New Zealand",
      "eventExpectedVolatility": "Moderate",
      "eventName": "Retail Sales (QoQ)",
      "eventTimeZone": "GMT",
      "eventPrevious": "-0.4%",
      "eventCurrency": "NZD",
      "eventForecast": "1.1%"
    }
  ]}}
