{"events": {"event": {
    "eventDateTime": "2012-11-05T01:45:00",
    "eventActual": "53.5",
    "eventCountry": "China",
    "eventExpectedVolatility": "Moderate",
    "eventName": "Caixin Services PMI",
    "eventTimeZone": "GMT",
    "eventPrevious": "54.3",
    "eventCurrency": "CNY",
    "eventForecast": ""
  }}}
