"Investing.com EUR/USD Index";"Euro Zone";"EUR";"2018-11-05T06:30:00";"GMT";"50.9%";"";"49.1%";"Moderate"
"Spanish Unemployment Change";"Spain";"EUR";"2018-11-05T08:00:00";"GMT";"20.4K";"";"52.2K";"Moderate"
"Spanish Consumer Confidence";"Spain";"EUR";"2018-11-05T09:00:00";"GMT";"90.6";"";"93.0";"Low"
"Sentix Investor Confidence (Nov)";"Euro Zone";"EUR";"2018-11-05T09:30:00";"GMT";"11.4";"10.1";"8.8";"Low"
"ECB's De Guindos Speaks";"Euro Zone";"EUR";"2018-11-05T12:45:00";"GMT";" ";"";"";"Moderate"
"French 12-Month BTF Auction";"France";"EUR";"2018-11-05T14:00:00";"GMT";"-0.620%";"";"-0.626%";"Low"
"French 3-Month BTF Auction";"France";"EUR";"2018-11-05T14:00:00";"GMT";"-0.765%";"";"-0.735%";"Low"
"French 6-Month BTF Auction";"France";"EUR";"2018-11-05T14:00:00";"GMT";"-0.660%";"";"-0.667%";"Low"
