"CPI (YoY) (Sep)";"Hong Kong";"HKD";"2010-10-01T09:00:00";"GMT";"2.40%";"";"1.90%";"Low"
"Exports (MoM) (Sep)";"Hong Kong";"HKD";"2010-10-01T09:00:00";"GMT";"36.00%";"";"24.00%";"Low"
"Foreign Reserves (USD) (Sep)";"Hong Kong";"HKD";"2010-10-01T09:00:00";"GMT";"261.40B";"";"266.10B";"Low"
"Imports (MoM) (Sep)";"Hong Kong";"HKD";"2010-10-01T09:00:00";"GMT";"28.40%";"";"19.50%";"Low"
"M3 Money Supply (Sep)";"Hong Kong";"HKD";"2010-10-01T09:00:00";"GMT";"5.19%";"";"8.74%";"Low"
"Retail Sales (YoY) (Sep)";"Hong Kong";"HKD";"2010-10-01T09:00:00";"GMT";"17.10%";"";"17.20%";"Low"
"Unemployment Rate (Sep)";"Hong Kong";"HKD";"2010-10-01T09:00:00";"GMT";"4.30%";"";"4.20%";"Low"
