{"events": {"event": [
    {
      "eventDateTime": "2010-06-01T09:00:00",
      "eventActual": "17.99%",
      "eventCountry": "India",
      "eventExpectedVolatility": "Low",
      "eventName": "Bank Loan Growth (May)",
      "eventTimeZone": "GMT",
      "eventPrevious": "17.15%",
      "eventCurrency": "INR",
      "eventForecast": ""
    },
    {
      "eventDateTime": "2010-06-01T09:00:00",
      "eventActual": "6.00%",
      "eventCountry": "India",
      "eventExpectedVolatility": "Low",
      "eventName": "Cash Reserve Ratio (May)",
      "eventTimeZone": "GMT",
      "eventPrevious": "5.81%",
      "eventCurrency": "INR",
      "eventForecast": ""
    },
    {
      "eventDateTime": "2010-06-01T09:00:00",
      "eventActual": "14.00%",
      "eventCountry": "India",
      "eventExpectedVolatility": "Low",
      "eventName": "Cumulative Industrial Production (May)",
      "eventTimeZone": "GMT",
      "eventPrevious": "10.40%",
      "eventCurrency": "INR",
      "eventForecast": ""
    },
    {
      "eventDateTime": "2010-06-01T09:00:00",
      "eventActual": "14.80%",
      "eventCountry": "India",
      "eventExpectedVolatility": "Low",
      "eventName": "Deposit Growth (May)",
      "eventTimeZone": "GMT",
      "eventPrevious": "15.70%",
      "eventCurrency": "INR",
      "eventForecast": ""
    },
    {
      "eventDateTime": "2010-06-01T09:00:00",
      "eventActual": "17.28B",
      "eventCountry": "India",
      "eventExpectedVolatility": "Low",
      "eventName": "Exports (USD) (May)",
      "eventTimeZone": "GMT",
      "eventPrevious": "18.14B",
      "eventCurrency": "INR",
      "eventForecast": ""
    },
    {
      "eventDateTime": "2010-06-01T09:00:00",
      "eventActual": "271.09B",
      "eventCountry": "India",
      "eventExpectedVolatility": "Low",
      "eventName": "FX Reserves, USD (May)",
      "eventTimeZone": "GMT",
      "eventPrevious": "279.63B",
      "eventCurrency": "INR",
      "eventForecast": ""
    },
    {
      "eventDateTime": "2010-06-01T09:00:00",
      "eventActual": "1,009.07B",
      "eventCountry": "India",
      "eventExpectedVolatility": "Low",
      "eventName": "Federal Fiscal Deficit (May)",
      "eventTimeZone": "GMT",
      "eventPrevious": "539.93B",
      "eventCurrency": "INR",
      "eventForecast": ""
    },
    {
      "eventDateTime": "2010-06-01T09:00:00",
      "eventActual": "29.75B",
      "eventCountry": "India",
      "eventExpectedVolatility": "Low",
      "eventName": "Imports (USD) (May)",
      "eventTimeZone": "GMT",
      "eventPrevious": "31.67B",
      "eventCurrency": "INR",
      "eventForecast": ""
    },
    {
      "eventDateTime": "2010-06-01T09:00:00",
      "eventActual": "8.50%",
      "eventCountry": "India",
      "eventExpectedVolatility": "Low",
      "eventName": "Industrial Production (YoY) (May)",
      "eventTimeZone": "GMT",
      "eventPrevious": "13.00%",
      "eventCurrency": "INR",
      "eventForecast": ""
    },
    {
      "eventDateTime": "2010-06-01T09:00:00",
      "eventActual": "8.31%",
      "eventCountry": "India",
      "eventExpectedVolatility": "Low",
      "eventName": "Infrastructure Output (YoY) (May)",
      "eventTimeZone": "GMT",
      "eventPrevious": "9.91%",
      "eventCurrency": "INR",
      "eventForecast": ""
    },
    {
      "eventDateTime": "2010-06-01T09:00:00",
      "eventActual": "5.25%",
      "eventCountry": "India",
      "eventExpectedVolatility": "High",
      "eventName": "Interest Rate Decision (May)",
      "eventTimeZone": "GMT",
      "eventPrevious": "5.10%",
      "eventCurrency": "INR",
      "eventForecast": ""
    },
    {
      "eventDateTime": "2010-06-01T09:00:00",
      "eventActual": "15.25%",
      "eventCountry": "India",
      "eventExpectedVolatility": "Low",
      "eventName": "M3 Money Supply (May)",
      "eventTimeZone": "GMT",
      "eventPrevious": "15.67%",
      "eventCurrency": "INR",
      "eventForecast": ""
    },
    {
      "eventDateTime": "2010-06-01T09:00:00",
      "eventActual": "8.90%",
      "eventCountry": "India",
      "eventExpectedVolatility": "Low",
      "eventName": "Manufacturing Output (MoM) (May)",
      "eventTimeZone": "GMT",
      "eventPrevious": "14.50%",
      "eventCurrency": "INR",
      "eventForecast": ""
    },
    {
      "eventDateTime": "2010-06-01T09:00:00",
      "eventActual": "3.75%",
      "eventCountry": "India",
      "eventExpectedVolatility": "Low",
      "eventName": "Reverse REPO Rate (May)",
      "eventTimeZone": "GMT",
      "eventPrevious": "3.61%",
      "eventCurrency": "INR",
      "eventForecast": ""
    },
    {
      "eventDateTime": "2010-06-01T09:00:00",
      "eventActual": "-12.47B",
      "eventCountry": "India",
      "eventExpectedVolatility": "Low",
      "eventName": "Trade Balance (May)",
      "eventTimeZone": "GMT",
      "eventPrevious": "-13.54B",
      "eventCurrency": "INR",
      "eventForecast": ""
    },
    {
      "eventDateTime": "2010-06-01T09:00:00",
      "eventActual": "21.40%",
      "eventCountry": "India",
      "eventExpectedVolatility": "Low",
      "eventName": "WPI Food (YoY) (May)",
      "eventTimeZone": "GMT",
      "eventPrevious": "20.50%",
      "eventCurrency": "INR",
      "eventForecast": ""
    },
    {
      "eventDateTime": "2010-06-01T09:00:00",
      "eventActual": "14.40%",
      "eventCountry": "India",
      "eventExpectedVolatility": "Low",
      "eventName": "WPI Fuel (YoY) (May)",
      "eventTimeZone": "GMT",
      "eventPrevious": "13.60%",
      "eventCurrency": "INR",
      "eventForecast": ""
    },
    {
      "eventDateTime": "2010-06-01T09:00:00",
      "eventActual": "10.48%",
      "eventCountry": "India",
      "eventExpectedVolatility": "Moderate",
      "eventName": "WPI Inflation (YoY) (May)",
      "eventTimeZone": "GMT",
      "eventPrevious": "10.88%",
      "eventCurrency": "INR",
      "eventForecast": ""
    },
    {
      "eventDateTime": "2010-06-01T09:00:00",
      "eventActual": "5.88%",
      "eventCountry": "India",
      "eventExpectedVolatility": "Low",
      "eventName": "WPI Manufacturing Inflation (YoY) (May)",
      "eventTimeZone": "GMT",
      "eventPrevious": "6.41%",
      "eventCurrency": "INR",
      "eventForecast": ""
    }
  ]}}
