{"events": {"event": [
    {
      "eventDateTime": "2009-03-11T07:00:00",
      "eventActual": "-1.2%",
      "eventCountry": "Germany",
      "eventExpectedVolatility": "Moderate",
      "eventName": "German PPI (MoM)",
      "eventTimeZone": "GMT",
      "eventPrevious": "-1.0%",
      "eventCurrency": "EUR",
      "eventForecast": "-0.1%"
    },
    {
      "eventDateTime": "2009-03-11T11:00:00",
      "eventActual": "-8.0%",
      "eventCountry": "Germany",
      "eventExpectedVolatility": "Moderate",
      "eventName": "German Factory Orders (MoM)",
      "eventTimeZone": "GMT",
      "eventPrevious": "-6.9%",
      "eventCurrency": "EUR",
      "eventForecast": "-1.9%"
    },
    {
      "eventDateTime": "2009-03-11T12:45:00",
      "eventActual": "0.50%",
      "eventCountry": "Euro Zone",
      "eventExpectedVolatility": "High",
      "eventName": "Deposit Facility Rate",
      "eventTimeZone": "GMT",
      "eventPrevious": "1.00%",
      "eventCurrency": "EUR",
      "eventForecast": ""
    }
  ]}}
