{"events": {"event": {
    "eventDateTime": "2011-03-04T20:30:00",
    "eventActual": "71.9K",
    "eventCountry": "Australia",
    "eventExpectedVolatility": "Moderate",
    "eventName": "CFTC AUD speculative net positions",
    "eventTimeZone": "GMT",
    "eventPrevious": "66.1K",
    "eventCurrency": "AUD",
    "eventForecast": ""
  }}}
