{"events": {"event": [
    {
      "eventDateTime": "2019-04-04T11:30:00",
      "eventActual": "60.6K",
      "eventCountry": "United States",
      "eventExpectedVolatility": "Low",
      "eventName": "Challenger Job Cuts (Mar)",
      "eventTimeZone": "GMT",
      "eventPrevious": "76.8K",
      "eventCurrency": "USD",
      "eventForecast": ""
    },
    {
      "eventDateTime": "2019-04-04T11:30:00",
      "eventActual": "0.4%",
      "eventCountry": "United States",
      "eventExpectedVolatility": "Low",
      "eventName": "Challenger Job Cuts (YoY)",
      "eventTimeZone": "GMT",
      "eventPrevious": "117.2%",
      "eventCurrency": "USD",
      "eventForecast": ""
    },
    {
      "eventDateTime": "2019-04-04T12:30:00",
      "eventActual": "1,717K",
      "eventCountry": "United States",
      "eventExpectedVolatility": "Low",
      "eventName": "Continuing Jobless Claims",
      "eventTimeZone": "GMT",
      "eventPrevious": "1,755K",
      "eventCurrency": "USD",
      "eventForecast": "1,750K"
    },
    {
      "eventDateTime": "2019-04-04T12:30:00",
      "eventActual": "202K",
      "eventCountry": "United States",
      "eventExpectedVolatility": "Moderate",
      "eventName": "Initial Jobless Claims",
      "eventTimeZone": "GMT",
      "eventPrevious": "212K",
      "eventCurrency": "USD",
      "eventForecast": "216K"
    },
    {
      "eventDateTime": "2019-04-04T12:30:00",
      "eventActual": "213.50K",
      "eventCountry": "United States",
      "eventExpectedVolatility": "Low",
      "eventName": "Jobless Claims 4-Week Avg.",
      "eventTimeZone": "GMT",
      "eventPrevious": "217.50K",
      "eventCurrency": "USD",
      "eventForecast": ""
    },
    {
      "eventDateTime": "2019-04-04T14:30:00",
      "eventActual": "23B",
      "eventCountry": "United States",
      "eventExpectedVolatility": "Low",
      "eventName": "Natural Gas Storage",
      "eventTimeZone": "GMT",
      "eventPrevious": "-36B",
      "eventCurrency": "USD",
      "eventForecast": "10B"
    },
    {
      "eventDateTime": "2019-04-04T15:30:00",
      "eventActual": "2.390%",
      "eventCountry": "United States",
      "eventExpectedVolatility": "Low",
      "eventName": "4-Week Bill Auction",
      "eventTimeZone": "GMT",
      "eventPrevious": "2.400%",
      "eventCurrency": "USD",
      "eventForecast": ""
    },
    {
      "eventDateTime": "2019-04-04T15:30:00",
      "eventActual": "2.380%",
      "eventCountry": "United States",
      "eventExpectedVolatility": "Low",
      "eventName": "8-Week Bill Auction",
      "eventTimeZone": "GMT",
      "eventPrevious": "2.395%",
      "eventCurrency": "USD",
      "eventForecast": ""
    },
    {
      "eventDateTime": "2019-04-04T17:00:00",
      "eventActual": "",
      "eventCountry": "United States",
      "eventExpectedVolatility": "Moderate",
      "eventName": "FOMC Member Mester Speaks",
      "eventTimeZone": "GMT",
      "eventPrevious": "",
      "eventCurrency": "USD",
      "eventForecast": ""
    },
    {
      "eventDateTime": "2019-04-04T20:00:00",
      "eventActual": "",
      "eventCountry": "United States",
      "eventExpectedVolatility": "Moderate",
      "eventName": "FOMC Member Williams Speaks",
      "eventTimeZone": "GMT",
      "eventPrevious": "",
      "eventCurrency": "USD",
      "eventForecast": ""
    }
  ]}}
