"BoJ Interest Rate Decision";"Japan";"JPY";"2016-04-28T03:00:00";"GMT";"-0.10%";"-0.10%";"-0.10%";"Moderate"
"BoJ Monetary Policy Statement";"Japan";"JPY";"2016-04-28T03:00:00";"GMT";" ";"";"";"High"
"BoJ Core CPI (YoY)";"Japan";"JPY";"2016-04-28T05:00:00";"GMT";"1.1%";"1.2%";"1.1%";"Low"
"BoJ Outlook Report (YoY)";"Japan";"JPY";"2016-04-28T05:00:00";"GMT";" ";"";"";"High"
"Construction Orders (YoY) (Mar)";"Japan";"JPY";"2016-04-28T05:00:00";"GMT";"-12.4%";"";"19.8%";"Low"
"Housing Starts (YoY) (Mar)";"Japan";"JPY";"2016-04-28T05:00:00";"GMT";"7.8%";"-1.3%";"8.4%";"Low"
"BoJ Press Conference";"Japan";"JPY";"2016-04-28T06:30:00";"GMT";" ";"";"";"High"
