{"events": {"event": {
    "eventDateTime": "2020-01-01T22:00:00",
    "eventActual": "49.2",
    "eventCountry": "Australia",
    "eventExpectedVolatility": "Low",
    "eventName": "Manufacturing PMI",
    "eventTimeZone": "GMT",
    "eventPrevious": "49.9",
    "eventCurrency": "AUD",
    "eventForecast": "49.4"
  }}}
