{"events": {"event": [
    {
      "eventDateTime": "2006-10-06T12:30:00",
      "eventActual": "156K",
      "eventCountry": "United States",
      "eventExpectedVolatility": "High",
      "eventName": "Nonfarm Payrolls (Sep)",
      "eventTimeZone": "GMT",
      "eventPrevious": "185K",
      "eventCurrency": "USD",
      "eventForecast": ""
    },
    {
      "eventDateTime": "2006-10-06T17:00:00",
      "eventActual": "288",
      "eventCountry": "United States",
      "eventExpectedVolatility": "Moderate",
      "eventName": "U.S. Baker Hughes Oil Rig Count",
      "eventTimeZone": "GMT",
      "eventPrevious": "295",
      "eventCurrency": "USD",
      "eventForecast": ""
    },
    {
      "eventDateTime": "2006-10-06T20:30:00",
      "eventActual": "0.1k",
      "eventCountry": "United States",
      "eventExpectedVolatility": "Moderate",
      "eventName": "CFTC Crude Oil speculative net positions",
      "eventTimeZone": "GMT",
      "eventPrevious": "13.7k",
      "eventCurrency": "USD",
      "eventForecast": ""
    }
  ]}}
