{"events": {"event": {
    "eventDateTime": "2015-03-06T20:30:00",
    "eventActual": "-1.4K",
    "eventCountry": "New Zealand",
    "eventExpectedVolatility": "Low",
    "eventName": "CFTC NZD speculative net positions",
    "eventTimeZone": "GMT",
    "eventPrevious": "-4.3K",
    "eventCurrency": "NZD",
    "eventForecast": ""
  }}}
