{"events": {"event": {
    "eventDateTime": "2020-01-09T11:00:00",
    "eventActual": "37.90",
    "eventCountry": "Russia",
    "eventExpectedVolatility": "Low",
    "eventName": "Russia Thomon Reuters IPSOS PCSI (Jan)",
    "eventTimeZone": "GMT",
    "eventPrevious": "36.65",
    "eventCurrency": "RUB",
    "eventForecast": ""
  }}}
