{"events": {"event": [
    {
      "eventDateTime": "2016-07-13T07:35:00",
      "eventActual": "-4.8%",
      "eventCountry": "China",
      "eventExpectedVolatility": "Moderate",
      "eventName": "Exports (YoY) (Jun)",
      "eventTimeZone": "GMT",
      "eventPrevious": "-4.1%",
      "eventCurrency": "CNY",
      "eventForecast": "-4.1%"
    },
    {
      "eventDateTime": "2016-07-13T07:35:00",
      "eventActual": "-8.4%",
      "eventCountry": "China",
      "eventExpectedVolatility": "Moderate",
      "eventName": "Imports (YoY) (Jun)",
      "eventTimeZone": "GMT",
      "eventPrevious": "-0.4%",
      "eventCurrency": "CNY",
      "eventForecast": "-5.0%"
    },
    {
      "eventDateTime": "2016-07-13T07:35:00",
      "eventActual": "48.11B",
      "eventCountry": "China",
      "eventExpectedVolatility": "Moderate",
      "eventName": "Trade Balance (USD) (Jun)",
      "eventTimeZone": "GMT",
      "eventPrevious": "49.98B",
      "eventCurrency": "CNY",
      "eventForecast": "46.64B"
    }
  ]}}
