{"events": {"event": {
    "eventDateTime": "2017-05-08T09:00:00",
    "eventActual": "260.7B",
    "eventCountry": "Singapore",
    "eventExpectedVolatility": "Low",
    "eventName": "Foreign Reserves USD (MoM) (Apr)",
    "eventTimeZone": "GMT",
    "eventPrevious": "259.1B",
    "eventCurrency": "SGD",
    "eventForecast": ""
  }}}
