"German Trade Balance";"Germany";"EUR";"2012-07-09T06:00:00";"GMT";"16.2B";"15.4B";"15.0B";"Moderate"
"Sentix Investor Confidence";"Euro Zone";"EUR";"2012-07-09T08:30:00";"GMT";"-28.9";"-26.7";"-29.6";"Low"
"German 6-Month Bubill Auction";"Germany";"EUR";"2012-07-09T09:30:00";"GMT";"0.007%";"";"-0.034%";"Low"
"ECB President Draghi Speaks";"Euro Zone";"EUR";"2012-07-09T12:30:00";"GMT";" ";"";"";"High"
"French 12-Month BTF Auction";"France";"EUR";"2012-07-09T13:00:00";"GMT";"0.163%";"";"0.013%";"Low"
"French 3-Month BTF Auction";"France";"EUR";"2012-07-09T13:00:00";"GMT";"0.048%";"";"-0.005%";"Low"
"French 6-Month BTF Auction";"France";"EUR";"2012-07-09T13:00:00";"GMT";"0.096%";"";"-0.006%";"Low"
