{"events": {"event": [
    {
      "eventDateTime": "2015-12-23T02:25:00",
      "eventActual": "0.3%",
      "eventCountry": "United States",
      "eventExpectedVolatility": "Moderate",
      "eventName": "Personal Spending (MoM) (Nov)",
      "eventTimeZone": "GMT",
      "eventPrevious": "0.0%",
      "eventCurrency": "USD",
      "eventForecast": "0.3%"
    },
    {
      "eventDateTime": "2015-12-23T12:00:00",
      "eventActual": "4.16%",
      "eventCountry": "United States",
      "eventExpectedVolatility": "Low",
      "eventName": "MBA 30-Year Mortgage Rate",
      "eventTimeZone": "GMT",
      "eventPrevious": "4.14%",
      "eventCurrency": "USD",
      "eventForecast": ""
    },
    {
      "eventDateTime": "2015-12-23T12:00:00",
      "eventActual": "7.3%",
      "eventCountry": "United States",
      "eventExpectedVolatility": "Low",
      "eventName": "MBA Mortgage Applications (WoW)",
      "eventTimeZone": "GMT",
      "eventPrevious": "-1.1%",
      "eventCurrency": "USD",
      "eventForecast": ""
    },
    {
      "eventDateTime": "2015-12-23T12:00:00",
      "eventActual": "230.8",
      "eventCountry": "United States",
      "eventExpectedVolatility": "Low",
      "eventName": "MBA Purchase Index",
      "eventTimeZone": "GMT",
      "eventPrevious": "221.7",
      "eventCurrency": "USD",
      "eventForecast": ""
    },
    {
      "eventDateTime": "2015-12-23T12:00:00",
      "eventActual": "450.0",
      "eventCountry": "United States",
      "eventExpectedVolatility": "Low",
      "eventName": "Mortgage Market Index",
      "eventTimeZone": "GMT",
      "eventPrevious": "419.4",
      "eventCurrency": "USD",
      "eventForecast": ""
    },
    {
      "eventDateTime": "2015-12-23T12:00:00",
      "eventActual": "1,764.0",
      "eventCountry": "United States",
      "eventExpectedVolatility": "Low",
      "eventName": "Mortgage Refinance Index",
      "eventTimeZone": "GMT",
      "eventPrevious": "1,592.7",
      "eventCurrency": "USD",
      "eventForecast": ""
    },
    {
      "eventDateTime": "2015-12-23T13:30:00",
      "eventActual": "-0.1%",
      "eventCountry": "United States",
      "eventExpectedVolatility": "High",
      "eventName": "Core Durable Goods Orders (MoM) (Nov)",
      "eventTimeZone": "GMT",
      "eventPrevious": "0.5%",
      "eventCurrency": "USD",
      "eventForecast": "0.1%"
    },
    {
      "eventDateTime": "2015-12-23T13:30:00",
      "eventActual": "0.1%",
      "eventCountry": "United States",
      "eventExpectedVolatility": "Moderate",
      "eventName": "Core PCE Price Index (MoM) (Nov)",
      "eventTimeZone": "GMT",
      "eventPrevious": "0.0%",
      "eventCurrency": "USD",
      "eventForecast": "0.1%"
    },
    {
      "eventDateTime": "2015-12-23T13:30:00",
      "eventActual": "1.3%",
      "eventCountry": "United States",
      "eventExpectedVolatility": "Moderate",
      "eventName": "Core PCE Price Index (YoY) (Nov)",
      "eventTimeZone": "GMT",
      "eventPrevious": "1.3%",
      "eventCurrency": "USD",
      "eventForecast": "1.4%"
    },
    {
      "eventDateTime": "2015-12-23T13:30:00",
      "eventActual": "0.0%",
      "eventCountry": "United States",
      "eventExpectedVolatility": "Moderate",
      "eventName": "Durable Goods Orders (MoM) (Nov)",
      "eventTimeZone": "GMT",
      "eventPrevious": "2.9%",
      "eventCurrency": "USD",
      "eventForecast": "-0.6%"
    },
    {
      "eventDateTime": "2015-12-23T13:30:00",
      "eventActual": "-1.5%",
      "eventCountry": "United States",
      "eventExpectedVolatility": "Low",
      "eventName": "Durables Excluding Defense (MoM) (Nov)",
      "eventTimeZone": "GMT",
      "eventPrevious": "3.0%",
      "eventCurrency": "USD",
      "eventForecast": "-0.2%"
    },
    {
      "eventDateTime": "2015-12-23T13:30:00",
      "eventActual": "-0.4%",
      "eventCountry": "United States",
      "eventExpectedVolatility": "Low",
      "eventName": "Goods Orders Non Defense Ex Air (MoM) (Nov)",
      "eventTimeZone": "GMT",
      "eventPrevious": "0.6%",
      "eventCurrency": "USD",
      "eventForecast": "-0.1%"
    },
    {
      "eventDateTime": "2015-12-23T13:30:00",
      "eventActual": "0.3%",
      "eventCountry": "United States",
      "eventExpectedVolatility": "Low",
      "eventName": "Personal Income (MoM) (Nov)",
      "eventTimeZone": "GMT",
      "eventPrevious": "0.4%",
      "eventCurrency": "USD",
      "eventForecast": "0.2%"
    },
    {
      "eventDateTime": "2015-12-23T13:30:00",
      "eventActual": "0.3%",
      "eventCountry": "United States",
      "eventExpectedVolatility": "Low",
      "eventName": "Real Personal Consumption (MoM) (Nov)",
      "eventTimeZone": "GMT",
      "eventPrevious": "0.1%",
      "eventCurrency": "USD",
      "eventForecast": "0.3%"
    },
    {
      "eventDateTime": "2015-12-23T15:00:00",
      "eventActual": "2.60%",
      "eventCountry": "United States",
      "eventExpectedVolatility": "Low",
      "eventName": "Michigan 5-Year Inflation Expectations (Dec)",
      "eventTimeZone": "GMT",
      "eventPrevious": "2.60%",
      "eventCurrency": "USD",
      "eventForecast": ""
    },
    {
      "eventDateTime": "2015-12-23T15:00:00",
      "eventActual": "82.7",
      "eventCountry": "United States",
      "eventExpectedVolatility": "Moderate",
      "eventName": "Michigan Consumer Expectations (Dec)",
      "eventTimeZone": "GMT",
      "eventPrevious": "82.0",
      "eventCurrency": "USD",
      "eventForecast": "82.0"
    },
    {
      "eventDateTime": "2015-12-23T15:00:00",
      "eventActual": "92.6",
      "eventCountry": "United States",
      "eventExpectedVolatility": "Moderate",
      "eventName": "Michigan Consumer Sentiment (Dec)",
      "eventTimeZone": "GMT",
      "eventPrevious": "91.8",
      "eventCurrency": "USD",
      "eventForecast": "92.0"
    },
    {
      "eventDateTime": "2015-12-23T15:00:00",
      "eventActual": "108.1",
      "eventCountry": "United States",
      "eventExpectedVolatility": "Low",
      "eventName": "Michigan Current Conditions (Dec)",
      "eventTimeZone": "GMT",
      "eventPrevious": "107.0",
      "eventCurrency": "USD",
      "eventForecast": "106.5"
    },
    {
      "eventDateTime": "2015-12-23T15:00:00",
      "eventActual": "2.6%",
      "eventCountry": "United States",
      "eventExpectedVolatility": "Low",
      "eventName": "Michigan Inflation Expectations (Dec)",
      "eventTimeZone": "GMT",
      "eventPrevious": "2.6%",
      "eventCurrency": "USD",
      "eventForecast": ""
    },
    {
      "eventDateTime": "2015-12-23T15:00:00",
      "eventActual": "4.3%",
      "eventCountry": "United States",
      "eventExpectedVolatility": "Moderate",
      "eventName": "New Home Sales (MoM) (Nov)",
      "eventTimeZone": "GMT",
      "eventPrevious": "6.3%",
      "eventCurrency": "USD",
      "eventForecast": "2.0%"
    },
    {
      "eventDateTime": "2015-12-23T15:00:00",
      "eventActual": "490K",
      "eventCountry": "United States",
      "eventExpectedVolatility": "High",
      "eventName": "New Home Sales (Nov)",
      "eventTimeZone": "GMT",
      "eventPrevious": "470K",
      "eventCurrency": "USD",
      "eventForecast": "505K"
    },
    {
      "eventDateTime": "2015-12-23T15:30:00",
      "eventActual": "-5.877M",
      "eventCountry": "United States",
      "eventExpectedVolatility": "High",
      "eventName": "Crude Oil Inventories",
      "eventTimeZone": "GMT",
      "eventPrevious": "4.801M",
      "eventCurrency": "USD",
      "eventForecast": "1.083M"
    },
    {
      "eventDateTime": "2015-12-23T15:30:00",
      "eventActual": "-0.661M",
      "eventCountry": "United States",
      "eventExpectedVolatility": "Low",
      "eventName": "EIA Weekly Distillates Stocks",
      "eventTimeZone": "GMT",
      "eventPrevious": "2.563M",
      "eventCurrency": "USD",
      "eventForecast": "2.017M"
    },
    {
      "eventDateTime": "2015-12-23T15:30:00",
      "eventActual": "1.111M",
      "eventCountry": "United States",
      "eventExpectedVolatility": "Low",
      "eventName": "Gasoline Inventories",
      "eventTimeZone": "GMT",
      "eventPrevious": "1.731M",
      "eventCurrency": "USD",
      "eventForecast": "1.383M"
    },
    {
      "eventDateTime": "2015-12-23T18:00:00",
      "eventActual": "1.60%",
      "eventCountry": "United States",
      "eventExpectedVolatility": "Low",
      "eventName": "Dallas Fed PCE (Nov)",
      "eventTimeZone": "GMT",
      "eventPrevious": "1.30%",
      "eventCurrency": "USD",
      "eventForecast": ""
    },
    {
      "eventDateTime": "2015-12-23T18:00:00",
      "eventActual": "538",
      "eventCountry": "United States",
      "eventExpectedVolatility": "Moderate",
      "eventName": "U.S. Baker Hughes Oil Rig Count",
      "eventTimeZone": "GMT",
      "eventPrevious": "541",
      "eventCurrency": "USD",
      "eventForecast": ""
    }
  ]}}
