{"events": {"event": {
    "eventDateTime": "2019-11-08T19:30:00",
    "eventActual": "-43.5K",
    "eventCountry": "Brazil",
    "eventExpectedVolatility": "Moderate",
    "eventName": "CFTC BRL speculative net positions",
    "eventTimeZone": "GMT",
    "eventPrevious": "-43.7K",
    "eventCurrency": "BRL",
    "eventForecast": ""
  }}}
