{"events": {"event": [
    {
      "eventDateTime": "2017-12-17T23:50:00",
      "eventActual": "0.36T",
      "eventCountry": "Japan",
      "eventExpectedVolatility": "Moderate",
      "eventName": "Adjusted Trade Balance",
      "eventTimeZone": "GMT",
      "eventPrevious": "0.35T",
      "eventCurrency": "JPY",
      "eventForecast": "0.27T"
    },
    {
      "eventDateTime": "2017-12-17T23:50:00",
      "eventActual": "16.2%",
      "eventCountry": "Japan",
      "eventExpectedVolatility": "Moderate",
      "eventName": "Exports (YoY) (Nov)",
      "eventTimeZone": "GMT",
      "eventPrevious": "14.0%",
      "eventCurrency": "JPY",
      "eventForecast": "14.6%"
    },
    {
      "eventDateTime": "2017-12-17T23:50:00",
      "eventActual": "17.2%",
      "eventCountry": "Japan",
      "eventExpectedVolatility": "Low",
      "eventName": "Imports (YoY) (Nov)",
      "eventTimeZone": "GMT",
      "eventPrevious": "18.9%",
      "eventCurrency": "JPY",
      "eventForecast": "18.0%"
    },
    {
      "eventDateTime": "2017-12-17T23:50:00",
      "eventActual": "113B",
      "eventCountry": "Japan",
      "eventExpectedVolatility": "Moderate",
      "eventName": "Trade Balance (Nov)",
      "eventTimeZone": "GMT",
      "eventPrevious": "285B",
      "eventCurrency": "JPY",
      "eventForecast": "-55B"
    }
  ]}}
