"Adjusted Trade Balance";"Japan";"JPY";"2017-12-17T23:50:00";"GMT";"0.35T";"0.27T";"0.36T";"Moderate"
"Exports (YoY) (Nov)";"Japan";"JPY";"2017-12-17T23:50:00";"GMT";"14.0%";"14.6%";"16.2%";"Moderate"
"Imports (YoY) (Nov)";"Japan";"JPY";"2017-12-17T23:50:00";"GMT";"18.9%";"18.0%";"17.2%";"Low"
"Trade Balance (Nov)";"Japan";"JPY";"2017-12-17T23:50:00";"GMT";"285B";"-55B";"113B";"Moderate"
