"Coincident Indicator (MoM) (Jan)";"Japan";"JPY";"2018-03-07T05:00:00";"GMT";"2.0%";"";"-5.7%";"Low"
"Leading Index";"Japan";"JPY";"2018-03-07T05:00:00";"GMT";"107.4";"106.2";"104.8";"Low"
"Leading Index (MoM) (Jan)";"Japan";"JPY";"2018-03-07T05:00:00";"GMT";"-1.0%";"";"-1.8%";"Low"
"Adjusted Current Account";"Japan";"JPY";"2018-03-07T23:50:00";"GMT";"1.68T";"1.76T";"2.02T";"Moderate"
"Bank Lending (YoY) (Feb)";"Japan";"JPY";"2018-03-07T23:50:00";"GMT";"2.4%";"2.4%";"2.1%";"Low"
"Current Account n.s.a. (Jan)";"Japan";"JPY";"2018-03-07T23:50:00";"GMT";"0.797T";"0.310T";"0.607T";"Moderate"
"Foreign Bonds Buying";"Japan";"JPY";"2018-03-07T23:50:00";"GMT";"205.4B";"";"-1,188.5B";"Low"
"Foreign Investments in Japanese Stocks";"Japan";"JPY";"2018-03-07T23:50:00";"GMT";"-53.7B";"";"-463.4B";"Low"
"GDP (QoQ) (Q4)";"Japan";"JPY";"2018-03-07T23:50:00";"GMT";"0.1%";"0.2%";"0.4%";"High"
"GDP (YoY) (Q4)";"Japan";"JPY";"2018-03-07T23:50:00";"GMT";"0.5%";"0.9%";"1.6%";"Moderate"
"GDP Capital Expenditure (QoQ) (Q4)";"Japan";"JPY";"2018-03-07T23:50:00";"GMT";"0.7%";"1.2%";"1.0%";"Low"
"GDP External Demand (QoQ) (Q4)";"Japan";"JPY";"2018-03-07T23:50:00";"GMT";"0.5%";"";"0.0%";"Low"
"GDP Price Index (YoY)";"Japan";"JPY";"2018-03-07T23:50:00";"GMT";"0.0%";"0.0%";"0.1%";"Low"
"GDP Private Consumption (QoQ) (Q4)";"Japan";"JPY";"2018-03-07T23:50:00";"GMT";"0.5%";"";"0.5%";"Low"
