{"events": {"event": [
    {
      "eventDateTime": "2009-03-05T00:30:00",
      "eventActual": "-3.7%",
      "eventCountry": "Australia",
      "eventExpectedVolatility": "Moderate",
      "eventName": "Building Approvals (MoM)",
      "eventTimeZone": "GMT",
      "eventPrevious": "-2.9%",
      "eventCurrency": "AUD",
      "eventForecast": "1.3%"
    },
    {
      "eventDateTime": "2009-03-05T00:30:00",
      "eventActual": "0.97B",
      "eventCountry": "Australia",
      "eventExpectedVolatility": "Moderate",
      "eventName": "Trade Balance",
      "eventTimeZone": "GMT",
      "eventPrevious": "0.59B",
      "eventCurrency": "AUD",
      "eventForecast": "1.10B"
    },
    {
      "eventDateTime": "2009-03-05T22:30:00",
      "eventActual": "29.5",
      "eventCountry": "Australia",
      "eventExpectedVolatility": "Low",
      "eventName": "AIG Construction Index",
      "eventTimeZone": "GMT",
      "eventPrevious": "34.1",
      "eventCurrency": "AUD",
      "eventForecast": ""
    }
  ]}}
