"BoJ Interest Rate Decision";"Japan";"JPY";"2015-10-07T03:00:00";"GMT";"0.10%";"0.10%";"0.10%";"Moderate"
"BoJ Monetary Policy Statement";"Japan";"JPY";"2015-10-07T03:00:00";"GMT";" ";"";"";"High"
"Coincident Indicator (MoM) (Aug)";"Japan";"JPY";"2015-10-07T05:00:00";"GMT";"-0.2%";"";"-0.6%";"Low"
"Leading Index";"Japan";"JPY";"2015-10-07T05:00:00";"GMT";"105.0";"103.4";"103.5";"Low"
"Leading Index (MoM) (Aug)";"Japan";"JPY";"2015-10-07T05:00:00";"GMT";"-1.7%";"";"-1.5%";"Low"
"BoJ Press Conference";"Japan";"JPY";"2015-10-07T06:30:00";"GMT";" ";"";"";"High"
"Adjusted Current Account";"Japan";"JPY";"2015-10-07T23:50:00";"GMT";"1.32T";"1.28T";"1.59T";"Moderate"
"Core Machinery Orders (MoM) (Aug)";"Japan";"JPY";"2015-10-07T23:50:00";"GMT";"-3.6%";"3.2%";"-5.7%";"Low"
"Core Machinery Orders (YoY) (Aug)";"Japan";"JPY";"2015-10-07T23:50:00";"GMT";"2.8%";"4.2%";"-3.5%";"Low"
"Current Account n.s.a. (Aug)";"Japan";"JPY";"2015-10-07T23:50:00";"GMT";"1.809T";"1.221T";"1.653T";"Moderate"
"Foreign Bonds Buying";"Japan";"JPY";"2015-10-07T23:50:00";"GMT";"1,037.8B";"";"-1,261.5B";"Low"
"Foreign Investments in Japanese Stocks";"Japan";"JPY";"2015-10-07T23:50:00";"GMT";"-192.2B";"";"-177.3B";"Low"
