"Chicago Fed President Evans Speaks";"United States";"USD";"2014-12-19T15:00:00";"GMT";" ";"";"";"Low"
"KC Fed Composite Index (Dec)";"United States";"USD";"2014-12-19T16:00:00";"GMT";"7";"";"8";"Low"
"KC Fed Manufacturing Index (Dec)";"United States";"USD";"2014-12-19T16:00:00";"GMT";"9";"5";"9";"Low"
"U.S. Baker Hughes Oil Rig Count";"United States";"USD";"2014-12-19T17:00:00";"GMT";"1546";"";"1536";"Moderate"
"CFTC Crude Oil speculative net positions";"United States";"USD";"2014-12-19T20:30:00";"GMT";"261.8k";"";"284.1k";"Moderate"
"CFTC Gold speculative net positions";"United States";"USD";"2014-12-19T20:30:00";"GMT";"114.9K";"";"118.4K";"Moderate"
"CFTC Silver speculative net positions";"United States";"USD";"2014-12-19T20:30:00";"GMT";"28.5K";"";"26.5K";"Low"
