"Current Account (Q1)";"Canada";"CAD";"2018-05-30T12:30:00";"GMT";"-16.5B";"-18.2B";"-19.5B";"Moderate"
"IPPI (MoM) (Apr)";"Canada";"CAD";"2018-05-30T12:30:00";"GMT";"0.9%";"0.7%";"0.5%";"Low"
"IPPI (YoY) (Apr)";"Canada";"CAD";"2018-05-30T12:30:00";"GMT";"2.4%";"";"2.4%";"Low"
"RMPI (MoM) (Apr)";"Canada";"CAD";"2018-05-30T12:30:00";"GMT";"2.1%";"2.1%";"0.7%";"Moderate"
"RMPI (YoY) (Apr)";"Canada";"CAD";"2018-05-30T12:30:00";"GMT";"10.0%";"-0.5%";"8.9%";"Low"
"BoC Interest Rate Decision";"Canada";"CAD";"2018-05-30T14:00:00";"GMT";"1.25%";"1.25%";"1.25%";"High"
"BoC Rate Statement";"Canada";"CAD";"2018-05-30T14:00:00";"GMT";" ";"";"";"Moderate"
