{"events": {"event": [
    {
      "eventDateTime": "2011-07-12T05:30:00",
      "eventActual": "0.1%",
      "eventCountry": "France",
      "eventExpectedVolatility": "Moderate",
      "eventName": "French CPI (MoM)",
      "eventTimeZone": "GMT",
      "eventPrevious": "0.1%",
      "eventCurrency": "EUR",
      "eventForecast": "0.1%"
    },
    {
      "eventDateTime": "2011-07-12T06:00:00",
      "eventActual": "0.1%",
      "eventCountry": "Germany",
      "eventExpectedVolatility": "Moderate",
      "eventName": "German CPI (MoM)",
      "eventTimeZone": "GMT",
      "eventPrevious": "0.1%",
      "eventCurrency": "EUR",
      "eventForecast": "0.1%"
    },
    {
      "eventDateTime": "2011-07-12T10:00:00",
      "eventActual": "-0.4%",
      "eventCountry": "Germany",
      "eventExpectedVolatility": "Low",
      "eventName": "German House Price Index (MoM)",
      "eventTimeZone": "GMT",
      "eventPrevious": "1.6%",
      "eventCurrency": "EUR",
      "eventForecast": "1.4%"
    }
  ]}}
