{"events": {"event": {
    "eventDateTime": "2016-10-12T03:00:00",
    "eventActual": "7.70%",
    "eventCountry": "South Korea",
    "eventExpectedVolatility": "Low",
    "eventName": "M2 Money supply (Aug)",
    "eventTimeZone": "GMT",
    "eventPrevious": "7.80%",
    "eventCurrency": "KRW",
    "eventForecast": ""
  }}}
