"Average Earnings Index +Bonus (Dec)";"United Kingdom";"GBP";"2016-02-17T09:30:00";"GMT";"2.1%";"1.9%";"1.9%";"High"
"Average Earnings ex Bonus (Dec)";"United Kingdom";"GBP";"2016-02-17T09:30:00";"GMT";"1.9%";"1.8%";"2.0%";"Low"
"Claimant Count Change (Jan)";"United Kingdom";"GBP";"2016-02-17T09:30:00";"GMT";"-15.2K";"-3.0K";"-14.8K";"High"
"Unemployment Rate (Dec)";"United Kingdom";"GBP";"2016-02-17T09:30:00";"GMT";"5.1%";"5.0%";"5.1%";"Moderate"
"10-Year Treasury Gilt Auction";"United Kingdom";"GBP";"2016-02-17T10:40:00";"GMT";"1.880%";"";"1.590%";"Low"
