{"events": {"event": [
    {
      "eventDateTime": "2009-02-11T09:30:00",
      "eventActual": "3.2%",
      "eventCountry": "United Kingdom",
      "eventExpectedVolatility": "High",
      "eventName": "Average Earnings Index +Bonus",
      "eventTimeZone": "GMT",
      "eventPrevious": "3.2%",
      "eventCurrency": "GBP",
      "eventForecast": "3.0%"
    },
    {
      "eventDateTime": "2009-02-11T09:30:00",
      "eventActual": "73.8K",
      "eventCountry": "United Kingdom",
      "eventExpectedVolatility": "High",
      "eventName": "Claimant Count Change",
      "eventTimeZone": "GMT",
      "eventPrevious": "79.9K",
      "eventCurrency": "GBP",
      "eventForecast": "88.5K"
    },
    {
      "eventDateTime": "2009-02-11T09:30:00",
      "eventActual": "6.3%",
      "eventCountry": "United Kingdom",
      "eventExpectedVolatility": "Moderate",
      "eventName": "Unemployment Rate",
      "eventTimeZone": "GMT",
      "eventPrevious": "6.1%",
      "eventCurrency": "GBP",
      "eventForecast": "6.3%"
    },
    {
      "eventDateTime": "2009-02-11T10:30:00",
      "eventActual": "",
      "eventCountry": "United Kingdom",
      "eventExpectedVolatility": "High",
      "eventName": "BoE Inflation Report",
      "eventTimeZone": "GMT",
      "eventPrevious": "",
      "eventCurrency": "GBP",
      "eventForecast": ""
    }
  ]}}
