"Investing.com USD/CAD Index";"Canada";"CAD";"2015-07-07T05:30:00";"GMT";"49.6%";"";"39.2%";"Moderate"
"Exports (May)";"Canada";"CAD";"2015-07-07T12:30:00";"GMT";"42.25B";"";"42.00B";"Low"
"Imports (May)";"Canada";"CAD";"2015-07-07T12:30:00";"GMT";"45.25B";"";"45.34B";"Low"
"Trade Balance (May)";"Canada";"CAD";"2015-07-07T12:30:00";"GMT";"-2.99B";"-2.50B";"-3.34B";"Moderate"
