{"events": {"event": [
    {
      "eventDateTime": "2017-08-21T05:30:00",
      "eventActual": "64.7%",
      "eventCountry": "United States",
      "eventExpectedVolatility": "Moderate",
      "eventName": "Investing.com Gold Index",
      "eventTimeZone": "GMT",
      "eventPrevious": "64.7%",
      "eventCurrency": "USD",
      "eventForecast": ""
    },
    {
      "eventDateTime": "2017-08-21T05:30:00",
      "eventActual": "67.0%",
      "eventCountry": "United States",
      "eventExpectedVolatility": "Moderate",
      "eventName": "Investing.com Sandamp:P 500 Index",
      "eventTimeZone": "GMT",
      "eventPrevious": "50.4%",
      "eventCurrency": "USD",
      "eventForecast": ""
    },
    {
      "eventDateTime": "2017-08-21T12:30:00",
      "eventActual": "-0.01",
      "eventCountry": "United States",
      "eventExpectedVolatility": "Low",
      "eventName": "Chicago Fed National Activity (Jul)",
      "eventTimeZone": "GMT",
      "eventPrevious": "0.16",
      "eventCurrency": "USD",
      "eventForecast": ""
    },
    {
      "eventDateTime": "2017-08-21T15:30:00",
      "eventActual": "1.000%",
      "eventCountry": "United States",
      "eventExpectedVolatility": "Low",
      "eventName": "3-Month Bill Auction",
      "eventTimeZone": "GMT",
      "eventPrevious": "1.015%",
      "eventCurrency": "USD",
      "eventForecast": ""
    },
    {
      "eventDateTime": "2017-08-21T15:30:00",
      "eventActual": "1.115%",
      "eventCountry": "United States",
      "eventExpectedVolatility": "Low",
      "eventName": "6-Month Bill Auction",
      "eventTimeZone": "GMT",
      "eventPrevious": "1.115%",
      "eventCurrency": "USD",
      "eventForecast": ""
    }
  ]}}
