{"events": {"event": [
    {
      "eventDateTime": "2015-03-03T00:00:00",
      "eventActual": "1.8%",
      "eventCountry": "New Zealand",
      "eventExpectedVolatility": "Low",
      "eventName": "ANZ Commodity Price Index (MoM)",
      "eventTimeZone": "GMT",
      "eventPrevious": "1.0%",
      "eventCurrency": "NZD",
      "eventForecast": ""
    },
    {
      "eventDateTime": "2015-03-03T20:00:00",
      "eventActual": "1.10%",
      "eventCountry": "New Zealand",
      "eventExpectedVolatility": "Moderate",
      "eventName": "GlobalDairyTrade Price Index",
      "eventTimeZone": "GMT",
      "eventPrevious": "10.10%",
      "eventCurrency": "NZD",
      "eventForecast": ""
    }
  ]}}
