"CPI (MoM) (Jul)";"China";"CNY";"2015-08-09T02:00:00";"GMT";"0.0%";"0.3%";"0.3%";"Moderate"
"CPI (YoY) (Jul)";"China";"CNY";"2015-08-09T02:00:00";"GMT";"1.4%";"1.5%";"1.6%";"Moderate"
"PPI (YoY) (Jul)";"China";"CNY";"2015-08-09T02:00:00";"GMT";"-4.8%";"-5.0%";"-5.4%";"Moderate"
