{"events": {"event": {
    "eventDateTime": "2013-09-26T12:00:00",
    "eventActual": "5.3%",
    "eventCountry": "Brazil",
    "eventExpectedVolatility": "Moderate",
    "eventName": "Unemployment Rate",
    "eventTimeZone": "GMT",
    "eventPrevious": "5.6%",
    "eventCurrency": "BRL",
    "eventForecast": "5.6%"
  }}}
