{"events": {"event": [
    {
      "eventDateTime": "2018-11-14T04:30:00",
      "eventActual": "",
      "eventCountry": "India",
      "eventExpectedVolatility": "Low",
      "eventName": "RBI Monthly Bulletin",
      "eventTimeZone": "GMT",
      "eventPrevious": "",
      "eventCurrency": "INR",
      "eventForecast": ""
    },
    {
      "eventDateTime": "2018-11-14T06:30:00",
      "eventActual": "-1.49%",
      "eventCountry": "India",
      "eventExpectedVolatility": "Low",
      "eventName": "WPI Food (YoY) (Oct)",
      "eventTimeZone": "GMT",
      "eventPrevious": "-0.21%",
      "eventCurrency": "INR",
      "eventForecast": ""
    },
    {
      "eventDateTime": "2018-11-14T06:30:00",
      "eventActual": "18.44%",
      "eventCountry": "India",
      "eventExpectedVolatility": "Low",
      "eventName": "WPI Fuel (YoY) (Oct)",
      "eventTimeZone": "GMT",
      "eventPrevious": "16.65%",
      "eventCurrency": "INR",
      "eventForecast": ""
    },
    {
      "eventDateTime": "2018-11-14T06:30:00",
      "eventActual": "5.28%",
      "eventCountry": "India",
      "eventExpectedVolatility": "Moderate",
      "eventName": "WPI Inflation (YoY) (Oct)",
      "eventTimeZone": "GMT",
      "eventPrevious": "5.13%",
      "eventCurrency": "INR",
      "eventForecast": "5.00%"
    },
    {
      "eventDateTime": "2018-11-14T06:30:00",
      "eventActual": "4.49%",
      "eventCountry": "India",
      "eventExpectedVolatility": "Low",
      "eventName": "WPI Manufacturing Inflation (YoY) (Oct)",
      "eventTimeZone": "GMT",
      "eventPrevious": "4.22%",
      "eventCurrency": "INR",
      "eventForecast": ""
    }
  ]}}
