{"events": {"event": [
    {
      "eventDateTime": "2013-07-24T11:00:00",
      "eventActual": "-1.2%",
      "eventCountry": "United States",
      "eventExpectedVolatility": "Low",
      "eventName": "MBA Mortgage Applications (WoW)",
      "eventTimeZone": "GMT",
      "eventPrevious": "-2.6%",
      "eventCurrency": "USD",
      "eventForecast": ""
    },
    {
      "eventDateTime": "2013-07-24T12:58:00",
      "eventActual": "53.20",
      "eventCountry": "United States",
      "eventExpectedVolatility": "Moderate",
      "eventName": "Manufacturing PMI",
      "eventTimeZone": "GMT",
      "eventPrevious": "51.90",
      "eventCurrency": "USD",
      "eventForecast": "52.50"
    },
    {
      "eventDateTime": "2013-07-24T14:00:00",
      "eventActual": "497K",
      "eventCountry": "United States",
      "eventExpectedVolatility": "High",
      "eventName": "New Home Sales",
      "eventTimeZone": "GMT",
      "eventPrevious": "459K",
      "eventCurrency": "USD",
      "eventForecast": "482K"
    },
    {
      "eventDateTime": "2013-07-24T14:00:00",
      "eventActual": "8.3%",
      "eventCountry": "United States",
      "eventExpectedVolatility": "Moderate",
      "eventName": "New Home Sales (MoM)",
      "eventTimeZone": "GMT",
      "eventPrevious": "1.3%",
      "eventCurrency": "USD",
      "eventForecast": "1.8%"
    },
    {
      "eventDateTime": "2013-07-24T14:30:00",
      "eventActual": "-2.825M",
      "eventCountry": "United States",
      "eventExpectedVolatility": "High",
      "eventName": "Crude Oil Inventories",
      "eventTimeZone": "GMT",
      "eventPrevious": "-6.902M",
      "eventCurrency": "USD",
      "eventForecast": "-2.456M"
    },
    {
      "eventDateTime": "2013-07-24T14:30:00",
      "eventActual": "-1.227M",
      "eventCountry": "United States",
      "eventExpectedVolatility": "Low",
      "eventName": "EIA Weekly Distillates Stocks",
      "eventTimeZone": "GMT",
      "eventPrevious": "3.870M",
      "eventCurrency": "USD",
      "eventForecast": "1.856M"
    },
    {
      "eventDateTime": "2013-07-24T14:30:00",
      "eventActual": "-1.389M",
      "eventCountry": "United States",
      "eventExpectedVolatility": "Low",
      "eventName": "Gasoline Inventories",
      "eventTimeZone": "GMT",
      "eventPrevious": "3.055M",
      "eventCurrency": "USD",
      "eventForecast": "1.088M"
    },
    {
      "eventDateTime": "2013-07-24T17:00:00",
      "eventActual": "1.410%",
      "eventCountry": "United States",
      "eventExpectedVolatility": "Low",
      "eventName": "5-Year Note Auction",
      "eventTimeZone": "GMT",
      "eventPrevious": "1.484%",
      "eventCurrency": "USD",
      "eventForecast": ""
    }
  ]}}
