{"events": {"event": [
    {
      "eventDateTime": "2018-03-09T01:30:00",
      "eventActual": "1.2%",
      "eventCountry": "China",
      "eventExpectedVolatility": "Moderate",
      "eventName": "CPI (MoM) (Feb)",
      "eventTimeZone": "GMT",
      "eventPrevious": "0.6%",
      "eventCurrency": "CNY",
      "eventForecast": "0.8%"
    },
    {
      "eventDateTime": "2018-03-09T01:30:00",
      "eventActual": "2.9%",
      "eventCountry": "China",
      "eventExpectedVolatility": "Moderate",
      "eventName": "CPI (YoY) (Feb)",
      "eventTimeZone": "GMT",
      "eventPrevious": "1.5%",
      "eventCurrency": "CNY",
      "eventForecast": "2.5%"
    },
    {
      "eventDateTime": "2018-03-09T01:30:00",
      "eventActual": "3.7%",
      "eventCountry": "China",
      "eventExpectedVolatility": "Moderate",
      "eventName": "PPI (YoY) (Feb)",
      "eventTimeZone": "GMT",
      "eventPrevious": "4.3%",
      "eventCurrency": "CNY",
      "eventForecast": "3.8%"
    },
    {
      "eventDateTime": "2018-03-09T03:30:00",
      "eventActual": "8.8%",
      "eventCountry": "China",
      "eventExpectedVolatility": "Low",
      "eventName": "M2 Money Stock (YoY) (Jan)",
      "eventTimeZone": "GMT",
      "eventPrevious": "8.2%",
      "eventCurrency": "CNY",
      "eventForecast": "8.4%"
    },
    {
      "eventDateTime": "2018-03-09T03:30:00",
      "eventActual": "839.3B",
      "eventCountry": "China",
      "eventExpectedVolatility": "Moderate",
      "eventName": "New Loans (Jan)",
      "eventTimeZone": "GMT",
      "eventPrevious": "584.4B",
      "eventCurrency": "CNY",
      "eventForecast": "2,000.0B"
    },
    {
      "eventDateTime": "2018-03-09T03:30:00",
      "eventActual": "12.8%",
      "eventCountry": "China",
      "eventExpectedVolatility": "Low",
      "eventName": "Outstanding Loan Growth (YoY) (Jan)",
      "eventTimeZone": "GMT",
      "eventPrevious": "12.7%",
      "eventCurrency": "CNY",
      "eventForecast": "12.5%"
    }
  ]}}
