{"events": {"event": [
    {
      "eventDateTime": "2016-09-05T01:00:00",
      "eventActual": "0.2%",
      "eventCountry": "Australia",
      "eventExpectedVolatility": "Low",
      "eventName": "MI Inflation Gauge (MoM) (Aug)",
      "eventTimeZone": "GMT",
      "eventPrevious": "-0.3%",
      "eventCurrency": "AUD",
      "eventForecast": ""
    },
    {
      "eventDateTime": "2016-09-05T01:30:00",
      "eventActual": "1.8%",
      "eventCountry": "Australia",
      "eventExpectedVolatility": "Low",
      "eventName": "ANZ Internet Job Ads (MoM) (Aug)",
      "eventTimeZone": "GMT",
      "eventPrevious": "-0.7%",
      "eventCurrency": "AUD",
      "eventForecast": ""
    },
    {
      "eventDateTime": "2016-09-05T01:30:00",
      "eventActual": "1.8%",
      "eventCountry": "Australia",
      "eventExpectedVolatility": "Low",
      "eventName": "ANZ Job Advertisements (MoM)",
      "eventTimeZone": "GMT",
      "eventPrevious": "-0.8%",
      "eventCurrency": "AUD",
      "eventForecast": ""
    },
    {
      "eventDateTime": "2016-09-05T01:30:00",
      "eventActual": "-5.0%",
      "eventCountry": "Australia",
      "eventExpectedVolatility": "Low",
      "eventName": "ANZ Newspaper Job Ads (MoM) (Aug)",
      "eventTimeZone": "GMT",
      "eventPrevious": "-12.6%",
      "eventCurrency": "AUD",
      "eventForecast": ""
    },
    {
      "eventDateTime": "2016-09-05T01:30:00",
      "eventActual": "0.3%",
      "eventCountry": "Australia",
      "eventExpectedVolatility": "Low",
      "eventName": "Business inventories (MoM) (Q2)",
      "eventTimeZone": "GMT",
      "eventPrevious": "-0.4%",
      "eventCurrency": "AUD",
      "eventForecast": "0.4%"
    },
    {
      "eventDateTime": "2016-09-05T01:30:00",
      "eventActual": "6.9%",
      "eventCountry": "Australia",
      "eventExpectedVolatility": "Moderate",
      "eventName": "Company Gross Operating Profits (QoQ) (Q2)",
      "eventTimeZone": "GMT",
      "eventPrevious": "-4.4%",
      "eventCurrency": "AUD",
      "eventForecast": "2.0%"
    },
    {
      "eventDateTime": "2016-09-05T01:30:00",
      "eventActual": "18.7%",
      "eventCountry": "Australia",
      "eventExpectedVolatility": "Low",
      "eventName": "Company Profits Pre-Tax (QoQ) (Q2)",
      "eventTimeZone": "GMT",
      "eventPrevious": "-16.9%",
      "eventCurrency": "AUD",
      "eventForecast": ""
    },
    {
      "eventDateTime": "2016-09-05T06:30:00",
      "eventActual": "51.7%",
      "eventCountry": "Australia",
      "eventExpectedVolatility": "Moderate",
      "eventName": "Investing.com AUD/USD Index",
      "eventTimeZone": "GMT",
      "eventPrevious": "52.5%",
      "eventCurrency": "AUD",
      "eventForecast": ""
    }
  ]}}
