{"events": {"event": {
    "eventDateTime": "2008-06-15T22:45:00",
    "eventActual": "3.7%",
    "eventCountry": "New Zealand",
    "eventExpectedVolatility": "Low",
    "eventName": "Manufacturing Sales Volume (QoQ)",
    "eventTimeZone": "GMT",
    "eventPrevious": "8.3%",
    "eventCurrency": "NZD",
    "eventForecast": ""
  }}}
