"German ZEW Economic Sentiment";"Germany";"EUR";"2009-02-17T10:00:00";"GMT";"-31.0";"-26.5";"-5.8";"High"
"Trade Balance";"Euro Zone";"EUR";"2009-02-17T10:00:00";"GMT";"-4.9B";"-5.2B";"-0.3B";"Moderate"
"ZEW Economic Sentiment";"Euro Zone";"EUR";"2009-02-17T10:00:00";"GMT";"-30.8";"-27.5";"-8.7";"Moderate"
