{"events": {"event": {
    "eventDateTime": "2011-03-08T06:45:00",
    "eventActual": "3.4%",
    "eventCountry": "Switzerland",
    "eventExpectedVolatility": "Moderate",
    "eventName": "Unemployment Rate s.a.",
    "eventTimeZone": "GMT",
    "eventPrevious": "3.5%",
    "eventCurrency": "CHF",
    "eventForecast": "3.4%"
  }}}
