"Home Loans (MoM) (Sep)";"Australia";"AUD";"2015-11-10T00:30:00";"GMT";"1.5%";"0.1%";"2.0%";"Moderate"
"Invest Housing Finance (MoM) (Sep)";"Australia";"AUD";"2015-11-10T00:30:00";"GMT";"-0.4%";"";"-8.5%";"Low"
"NAB Business Confidence (Oct)";"Australia";"AUD";"2015-11-10T00:30:00";"GMT";"5";"3";"2";"Moderate"
"NAB Business Survey (Oct)";"Australia";"AUD";"2015-11-10T00:30:00";"GMT";"9";"";"9";"Low"
"Westpac Consumer Sentiment";"Australia";"AUD";"2015-11-10T23:30:00";"GMT";"4.2%";"";"3.9%";"Moderate"
