{"events": {"event": [
    {
      "eventDateTime": "2016-10-03T06:00:00",
      "eventActual": "51.1",
      "eventCountry": "Russia",
      "eventExpectedVolatility": "Moderate",
      "eventName": "Markit Manufacturing PMI (Sep)",
      "eventTimeZone": "GMT",
      "eventPrevious": "50.8",
      "eventCurrency": "RUB",
      "eventForecast": ""
    },
    {
      "eventDateTime": "2016-10-03T13:00:00",
      "eventActual": "0.0%",
      "eventCountry": "Russia",
      "eventExpectedVolatility": "Moderate",
      "eventName": "GDP Quarterly (YoY)",
      "eventTimeZone": "GMT",
      "eventPrevious": "-0.8%",
      "eventCurrency": "RUB",
      "eventForecast": "-0.6%"
    }
  ]}}
