{"events": {"event": [
    {
      "eventDateTime": "2017-03-15T12:30:00",
      "eventActual": "6.5%",
      "eventCountry": "India",
      "eventExpectedVolatility": "Low",
      "eventName": "M3 Money Supply",
      "eventTimeZone": "GMT",
      "eventPrevious": "6.5%",
      "eventCurrency": "INR",
      "eventForecast": ""
    },
    {
      "eventDateTime": "2017-03-15T12:30:00",
      "eventActual": "-8.90B",
      "eventCountry": "India",
      "eventExpectedVolatility": "Low",
      "eventName": "Trade Balance (Feb)",
      "eventTimeZone": "GMT",
      "eventPrevious": "-9.84B",
      "eventCurrency": "INR",
      "eventForecast": "-8.84B"
    }
  ]}}
