{"events": {"event": [
    {
      "eventDateTime": "2013-06-12T11:00:00",
      "eventActual": "5.0%",
      "eventCountry": "United States",
      "eventExpectedVolatility": "Low",
      "eventName": "MBA Mortgage Applications (WoW)",
      "eventTimeZone": "GMT",
      "eventPrevious": "-11.5%",
      "eventCurrency": "USD",
      "eventForecast": ""
    },
    {
      "eventDateTime": "2013-06-12T14:30:00",
      "eventActual": "2.523M",
      "eventCountry": "United States",
      "eventExpectedVolatility": "High",
      "eventName": "Crude Oil Inventories",
      "eventTimeZone": "GMT",
      "eventPrevious": "-6.267M",
      "eventCurrency": "USD",
      "eventForecast": "-0.722M"
    },
    {
      "eventDateTime": "2013-06-12T14:30:00",
      "eventActual": "-1.163M",
      "eventCountry": "United States",
      "eventExpectedVolatility": "Low",
      "eventName": "EIA Weekly Distillates Stocks",
      "eventTimeZone": "GMT",
      "eventPrevious": "2.611M",
      "eventCurrency": "USD",
      "eventForecast": "1.500M"
    },
    {
      "eventDateTime": "2013-06-12T14:30:00",
      "eventActual": "2.748M",
      "eventCountry": "United States",
      "eventExpectedVolatility": "Low",
      "eventName": "Gasoline Inventories",
      "eventTimeZone": "GMT",
      "eventPrevious": "-0.366M",
      "eventCurrency": "USD",
      "eventForecast": "0.644M"
    },
    {
      "eventDateTime": "2013-06-12T17:00:00",
      "eventActual": "2.209%",
      "eventCountry": "United States",
      "eventExpectedVolatility": "Moderate",
      "eventName": "10-Year Note Auction",
      "eventTimeZone": "GMT",
      "eventPrevious": "1.810%",
      "eventCurrency": "USD",
      "eventForecast": ""
    },
    {
      "eventDateTime": "2013-06-12T18:00:00",
      "eventActual": "-139.0B",
      "eventCountry": "United States",
      "eventExpectedVolatility": "Moderate",
      "eventName": "Federal Budget Balance",
      "eventTimeZone": "GMT",
      "eventPrevious": "112.9B",
      "eventCurrency": "USD",
      "eventForecast": "-110.0B"
    }
  ]}}
