"Fixed Asset Investment (YoY) (Apr)";"China";"CNY";"2016-05-14T05:30:00";"GMT";"10.7%";"10.9%";"10.5%";"Moderate"
"Industrial Production (YoY) (Apr)";"China";"CNY";"2016-05-14T05:30:00";"GMT";"6.8%";"6.5%";"6.0%";"High"
"Retail Sales (YoY) (Apr)";"China";"CNY";"2016-05-14T05:30:00";"GMT";"10.5%";"10.5%";"10.1%";"Low"
