{"events": {"event": [
    {
      "eventDateTime": "2011-06-15T12:30:00",
      "eventActual": "-1.30%",
      "eventCountry": "Canada",
      "eventExpectedVolatility": "Moderate",
      "eventName": "Manufacturing Sales (MoM)",
      "eventTimeZone": "GMT",
      "eventPrevious": "1.90%",
      "eventCurrency": "CAD",
      "eventForecast": "-1.30%"
    },
    {
      "eventDateTime": "2011-06-15T19:50:00",
      "eventActual": "",
      "eventCountry": "Canada",
      "eventExpectedVolatility": "Moderate",
      "eventName": "BoC Gov Carney Speaks",
      "eventTimeZone": "GMT",
      "eventPrevious": "",
      "eventCurrency": "CAD",
      "eventForecast": ""
    }
  ]}}
