{"events": {"event": [
    {
      "eventDateTime": "2007-12-01T09:00:00",
      "eventActual": "0.70%",
      "eventCountry": "China",
      "eventExpectedVolatility": "Moderate",
      "eventName": "CPI (MoM) (Nov)",
      "eventTimeZone": "GMT",
      "eventPrevious": "0.30%",
      "eventCurrency": "CNY",
      "eventForecast": ""
    },
    {
      "eventDateTime": "2007-12-01T09:00:00",
      "eventActual": "6.90%",
      "eventCountry": "China",
      "eventExpectedVolatility": "Moderate",
      "eventName": "CPI (YoY) (Nov)",
      "eventTimeZone": "GMT",
      "eventPrevious": "6.50%",
      "eventCurrency": "CNY",
      "eventForecast": ""
    },
    {
      "eventDateTime": "2007-12-01T09:00:00",
      "eventActual": "22.70%",
      "eventCountry": "China",
      "eventExpectedVolatility": "Moderate",
      "eventName": "Exports (YoY) (Nov)",
      "eventTimeZone": "GMT",
      "eventPrevious": "22.30%",
      "eventCurrency": "CNY",
      "eventForecast": ""
    },
    {
      "eventDateTime": "2007-12-01T09:00:00",
      "eventActual": "13.66%",
      "eventCountry": "China",
      "eventExpectedVolatility": "Low",
      "eventName": "FDI (Nov)",
      "eventTimeZone": "GMT",
      "eventPrevious": "11.15%",
      "eventCurrency": "CNY",
      "eventForecast": ""
    },
    {
      "eventDateTime": "2007-12-01T09:00:00",
      "eventActual": "26.80%",
      "eventCountry": "China",
      "eventExpectedVolatility": "Moderate",
      "eventName": "Fixed Asset Investment (YoY) (Nov)",
      "eventTimeZone": "GMT",
      "eventPrevious": "26.90%",
      "eventCurrency": "CNY",
      "eventForecast": ""
    },
    {
      "eventDateTime": "2007-12-01T09:00:00",
      "eventActual": "25.30%",
      "eventCountry": "China",
      "eventExpectedVolatility": "Moderate",
      "eventName": "Imports (YoY) (Nov)",
      "eventTimeZone": "GMT",
      "eventPrevious": "25.50%",
      "eventCurrency": "CNY",
      "eventForecast": ""
    },
    {
      "eventDateTime": "2007-12-01T09:00:00",
      "eventActual": "17.30%",
      "eventCountry": "China",
      "eventExpectedVolatility": "High",
      "eventName": "Industrial Production (YoY) (Nov)",
      "eventTimeZone": "GMT",
      "eventPrevious": "17.90%",
      "eventCurrency": "CNY",
      "eventForecast": ""
    },
    {
      "eventDateTime": "2007-12-01T09:00:00",
      "eventActual": "18.40%",
      "eventCountry": "China",
      "eventExpectedVolatility": "Low",
      "eventName": "M2 Money Stock (YoY) (Nov)",
      "eventTimeZone": "GMT",
      "eventPrevious": "18.50%",
      "eventCurrency": "CNY",
      "eventForecast": ""
    },
    {
      "eventDateTime": "2007-12-01T09:00:00",
      "eventActual": "55.40",
      "eventCountry": "China",
      "eventExpectedVolatility": "High",
      "eventName": "Manufacturing PMI (Nov)",
      "eventTimeZone": "GMT",
      "eventPrevious": "53.20",
      "eventCurrency": "CNY",
      "eventForecast": ""
    },
    {
      "eventDateTime": "2007-12-01T09:00:00",
      "eventActual": "87.40B",
      "eventCountry": "China",
      "eventExpectedVolatility": "Moderate",
      "eventName": "New Loans (Nov)",
      "eventTimeZone": "GMT",
      "eventPrevious": "136.10B",
      "eventCurrency": "CNY",
      "eventForecast": ""
    },
    {
      "eventDateTime": "2007-12-01T09:00:00",
      "eventActual": "60.60",
      "eventCountry": "China",
      "eventExpectedVolatility": "Moderate",
      "eventName": "Non-Manufacturing PMI (Nov)",
      "eventTimeZone": "GMT",
      "eventPrevious": "61.40",
      "eventCurrency": "CNY",
      "eventForecast": ""
    },
    {
      "eventDateTime": "2007-12-01T09:00:00",
      "eventActual": "17.00%",
      "eventCountry": "China",
      "eventExpectedVolatility": "Low",
      "eventName": "Outstanding Loan Growth (YoY) (Nov)",
      "eventTimeZone": "GMT",
      "eventPrevious": "17.70%",
      "eventCurrency": "CNY",
      "eventForecast": ""
    },
    {
      "eventDateTime": "2007-12-01T09:00:00",
      "eventActual": "3.87%",
      "eventCountry": "China",
      "eventExpectedVolatility": "Moderate",
      "eventName": "PBoC Deposit Rate (Nov)",
      "eventTimeZone": "GMT",
      "eventPrevious": "3.87%",
      "eventCurrency": "CNY",
      "eventForecast": ""
    },
    {
      "eventDateTime": "2007-12-01T09:00:00",
      "eventActual": "13.11%",
      "eventCountry": "China",
      "eventExpectedVolatility": "Moderate",
      "eventName": "PBoC Reserve Requirement Ratio (Nov)",
      "eventTimeZone": "GMT",
      "eventPrevious": "12.61%",
      "eventCurrency": "CNY",
      "eventForecast": ""
    },
    {
      "eventDateTime": "2007-12-01T09:00:00",
      "eventActual": "4.60%",
      "eventCountry": "China",
      "eventExpectedVolatility": "Moderate",
      "eventName": "PPI (YoY) (Nov)",
      "eventTimeZone": "GMT",
      "eventPrevious": "3.20%",
      "eventCurrency": "CNY",
      "eventForecast": ""
    },
    {
      "eventDateTime": "2007-12-01T09:00:00",
      "eventActual": "18.80%",
      "eventCountry": "China",
      "eventExpectedVolatility": "Low",
      "eventName": "Retail Sales (YoY) (Nov)",
      "eventTimeZone": "GMT",
      "eventPrevious": "18.10%",
      "eventCurrency": "CNY",
      "eventForecast": ""
    },
    {
      "eventDateTime": "2007-12-01T09:00:00",
      "eventActual": "26.39B",
      "eventCountry": "China",
      "eventExpectedVolatility": "Moderate",
      "eventName": "Trade Balance (USD) (Nov)",
      "eventTimeZone": "GMT",
      "eventPrevious": "27.20B",
      "eventCurrency": "CNY",
      "eventForecast": ""
    }
  ]}}
