"German PPI (MoM)";"Germany";"EUR";"2011-01-20T07:00:00";"GMT";"0.2%";"0.5%";"0.7%";"Moderate"
"ECB Economic Bulletin";"Euro Zone";"EUR";"2011-01-20T09:00:00";"GMT";" ";"";"";"Moderate"
"Consumer Confidence";"Euro Zone";"EUR";"2011-01-20T15:00:00";"GMT";"-11.0";"-12.0";"-11.0";"Low"
