{"events": {"event": [
    {
      "eventDateTime": "2014-04-15T05:00:00",
      "eventActual": "3.0%",
      "eventCountry": "Singapore",
      "eventExpectedVolatility": "Low",
      "eventName": "Retail Sales (MoM)",
      "eventTimeZone": "GMT",
      "eventPrevious": "0.6%",
      "eventCurrency": "SGD",
      "eventForecast": ""
    },
    {
      "eventDateTime": "2014-04-15T05:00:00",
      "eventActual": "-9.5%",
      "eventCountry": "Singapore",
      "eventExpectedVolatility": "Low",
      "eventName": "Retail Sales (YoY)",
      "eventTimeZone": "GMT",
      "eventPrevious": "0.1%",
      "eventCurrency": "SGD",
      "eventForecast": ""
    }
  ]}}
