"NFIB Small Business Optimism";"United States";"USD";"2013-08-13T11:30:00";"GMT";"93.5";"95.4";"94.1";"Low"
"Core Retail Sales (MoM)";"United States";"USD";"2013-08-13T12:30:00";"GMT";"0.1%";"0.4%";"0.5%";"High"
"Import Price Index (MoM)";"United States";"USD";"2013-08-13T12:30:00";"GMT";"-0.4%";"0.6%";"0.2%";"Moderate"
"Retail Sales (MoM)";"United States";"USD";"2013-08-13T12:30:00";"GMT";"0.6%";"0.3%";"0.2%";"High"
"Redbook (MoM)";"United States";"USD";"2013-08-13T12:55:00";"GMT";"1.00%";"";"0.40%";"Low"
"Redbook (YoY)";"United States";"USD";"2013-08-13T12:55:00";"GMT";"3.7%";"";"3.7%";"Low"
"Business Inventories (MoM)";"United States";"USD";"2013-08-13T14:00:00";"GMT";"-0.1%";"0.2%";"0.0%";"Moderate"
"4-Week Bill Auction";"United States";"USD";"2013-08-13T15:30:00";"GMT";"0.045%";"";"0.055%";"Low"
