{"events": {"event": [
    {
      "eventDateTime": "2009-08-10T06:45:00",
      "eventActual": "0.3%",
      "eventCountry": "France",
      "eventExpectedVolatility": "Low",
      "eventName": "French Industrial Production (MoM)",
      "eventTimeZone": "GMT",
      "eventPrevious": "2.8%",
      "eventCurrency": "EUR",
      "eventForecast": "0.0%"
    },
    {
      "eventDateTime": "2009-08-10T08:30:00",
      "eventActual": "-17.0",
      "eventCountry": "Euro Zone",
      "eventExpectedVolatility": "Low",
      "eventName": "Sentix Investor Confidence",
      "eventTimeZone": "GMT",
      "eventPrevious": "-31.3",
      "eventCurrency": "EUR",
      "eventForecast": "-26.0"
    }
  ]}}
