{"events": {"event": {
    "eventDateTime": "2013-07-05T11:30:00",
    "eventActual": "284.65B",
    "eventCountry": "India",
    "eventExpectedVolatility": "Low",
    "eventName": "FX Reserves, USD",
    "eventTimeZone": "GMT",
    "eventPrevious": "287.85B",
    "eventCurrency": "INR",
    "eventForecast": ""
  }}}
