"GDP (QoQ)";"United Kingdom";"GBP";"2009-08-28T08:30:00";"GMT";"-0.8%";"-0.8%";"-0.7%";"High"
"Index of Services";"United Kingdom";"GBP";"2009-08-28T08:30:00";"GMT";"-1.0%";"-0.6%";"-0.6%";"Low"
"CFTC GBP speculative net positions";"United Kingdom";"GBP";"2009-08-28T19:30:00";"GMT";"-1.7K";"";"-7.0K";"Moderate"
