{"events": {"event": [
    {
      "eventDateTime": "2013-06-12T05:00:00",
      "eventActual": "",
      "eventCountry": "Japan",
      "eventExpectedVolatility": "Moderate",
      "eventName": "BoJ Monthly Report",
      "eventTimeZone": "GMT",
      "eventPrevious": "",
      "eventCurrency": "JPY",
      "eventForecast": ""
    },
    {
      "eventDateTime": "2013-06-12T23:50:00",
      "eventActual": "-386.9B",
      "eventCountry": "Japan",
      "eventExpectedVolatility": "Low",
      "eventName": "Foreign Bonds Buying",
      "eventTimeZone": "GMT",
      "eventPrevious": "-1,172.5B",
      "eventCurrency": "JPY",
      "eventForecast": ""
    }
  ]}}
