{"events": {"event": {
    "eventDateTime": "2015-04-20T05:30:00",
    "eventActual": "54.7%",
    "eventCountry": "Japan",
    "eventExpectedVolatility": "Moderate",
    "eventName": "Investing.com USD/JPY Index",
    "eventTimeZone": "GMT",
    "eventPrevious": "51.0%",
    "eventCurrency": "JPY",
    "eventForecast": ""
  }}}
