{"events": {"event": {
    "eventDateTime": "2017-03-24T20:30:00",
    "eventActual": "45.0K",
    "eventCountry": "Australia",
    "eventExpectedVolatility": "Moderate",
    "eventName": "CFTC AUD speculative net positions",
    "eventTimeZone": "GMT",
    "eventPrevious": "43.3K",
    "eventCurrency": "AUD",
    "eventForecast": ""
  }}}
