"RBNZ Interest Rate Decision";"New Zealand";"NZD";"2019-05-08T02:00:00";"GMT";"1.75%";"1.50%";"1.50%";"High"
"RBNZ Monetary Policy Statement";"New Zealand";"NZD";"2019-05-08T02:00:00";"GMT";" ";"";"";"Moderate"
"RBNZ Rate Statement";"New Zealand";"NZD";"2019-05-08T02:00:00";"GMT";" ";"";"";"High"
"RBNZ Press Conference";"New Zealand";"NZD";"2019-05-08T03:00:00";"GMT";" ";"";"";"High"
