{"events": {"event": {
    "eventDateTime": "2011-05-13T19:30:00",
    "eventActual": "13.1K",
    "eventCountry": "Japan",
    "eventExpectedVolatility": "Moderate",
    "eventName": "CFTC JPY speculative net positions",
    "eventTimeZone": "GMT",
    "eventPrevious": "-18.8K",
    "eventCurrency": "JPY",
    "eventForecast": ""
  }}}
