"Redbook (MoM)";"United States";"USD";"2018-10-23T12:55:00";"GMT";"0.1%";"";"0.0%";"Low"
"Redbook (YoY)";"United States";"USD";"2018-10-23T12:55:00";"GMT";"5.8%";"";"5.5%";"Low"
"FOMC Member Kashkari Speaks";"United States";"USD";"2018-10-23T13:30:00";"GMT";" ";"";"";"Moderate"
"Richmond Manufacturing Index (Oct)";"United States";"USD";"2018-10-23T14:00:00";"GMT";"29";"25";"15";"Low"
"Richmond Manufacturing Shipments (Oct)";"United States";"USD";"2018-10-23T14:00:00";"GMT";"33";"";"7";"Low"
"Richmond Services Index (Oct)";"United States";"USD";"2018-10-23T14:00:00";"GMT";"18";"";"-1";"Low"
"4-Week Bill Auction";"United States";"USD";"2018-10-23T15:30:00";"GMT";"2.155%";"";"2.180%";"Low"
"8-Week Bill Auction";"United States";"USD";"2018-10-23T15:30:00";"GMT";"2.170%";"";"2.180%";"Low"
"2-Year Note Auction";"United States";"USD";"2018-10-23T17:00:00";"GMT";"2.829%";"";"2.880%";"Low"
"FOMC Member Bostic Speaks";"United States";"USD";"2018-10-23T17:30:00";"GMT";" ";"";"";"Moderate"
"API Weekly Crude Oil Stock";"United States";"USD";"2018-10-23T20:30:00";"GMT";"-2.100M";"";"9.880M";"Moderate"
"Chicago Fed President Evans Speaks";"United States";"USD";"2018-10-23T22:15:00";"GMT";" ";"";"";"Low"
