"Italian Trade Balance (Nov)";"Italy";"EUR";"2019-01-17T09:00:00";"GMT";"3.784B";"2.890B";"3.843B";"Low"
"Italian Trade Balance EU (Nov)";"Italy";"EUR";"2019-01-17T09:00:00";"GMT";"0.74B";"";"0.51B";"Low"
"Spanish 3-Year Bonos Auction";"Spain";"EUR";"2019-01-17T09:40:00";"GMT";"-0.039%";"";"-0.047%";"Low"
"Spanish 5-Year Bonos Auction";"Spain";"EUR";"2019-01-17T09:40:00";"GMT";"0.329%";"";"0.289%";"Low"
"CPI (MoM) (Dec)";"Euro Zone";"EUR";"2019-01-17T10:00:00";"GMT";"-0.2%";"-0.2%";"0.0%";"Moderate"
"CPI (YoY) (Dec)";"Euro Zone";"EUR";"2019-01-17T10:00:00";"GMT";"1.9%";"1.6%";"1.6%";"High"
"CPI ex Tobacco (MoM) (Dec)";"Euro Zone";"EUR";"2019-01-17T10:00:00";"GMT";"-0.2%";"";"0.0%";"Low"
"CPI ex Tobacco (YoY) (Dec)";"Euro Zone";"EUR";"2019-01-17T10:00:00";"GMT";"1.9%";"";"1.5%";"Low"
"Core CPI (MoM) (Dec)";"Euro Zone";"EUR";"2019-01-17T10:00:00";"GMT";"0.5%";"0.5%";"0.5%";"Low"
"Core CPI (YoY) (Dec)";"Euro Zone";"EUR";"2019-01-17T10:00:00";"GMT";"1.0%";"1.0%";"1.0%";"Moderate"
"ECB's Lautenschlaeger Speaks";"Euro Zone";"EUR";"2019-01-17T11:00:00";"GMT";" ";"";"";"Moderate"
