{"events": {"event": [
    {
      "eventDateTime": "2017-10-02T00:30:00",
      "eventActual": "52.9",
      "eventCountry": "Japan",
      "eventExpectedVolatility": "Low",
      "eventName": "Manufacturing PMI (Sep)",
      "eventTimeZone": "GMT",
      "eventPrevious": "52.6",
      "eventCurrency": "JPY",
      "eventForecast": "52.6"
    },
    {
      "eventDateTime": "2017-10-02T05:30:00",
      "eventActual": "66.9%",
      "eventCountry": "Japan",
      "eventExpectedVolatility": "Moderate",
      "eventName": "Investing.com USD/JPY Index",
      "eventTimeZone": "GMT",
      "eventPrevious": "56.1%",
      "eventCurrency": "JPY",
      "eventForecast": ""
    },
    {
      "eventDateTime": "2017-10-02T23:50:00",
      "eventActual": "15.6%",
      "eventCountry": "Japan",
      "eventExpectedVolatility": "Low",
      "eventName": "Monetary Base (YoY)",
      "eventTimeZone": "GMT",
      "eventPrevious": "16.3%",
      "eventCurrency": "JPY",
      "eventForecast": "17.2%"
    }
  ]}}
