"Manufacturing PMI (Sep)";"Japan";"JPY";"2017-10-02T00:30:00";"GMT";"52.6";"52.6";"52.9";"Low"
"Investing.com USD/JPY Index";"Japan";"JPY";"2017-10-02T05:30:00";"GMT";"56.1%";"";"66.9%";"Moderate"
"Monetary Base (YoY)";"Japan";"JPY";"2017-10-02T23:50:00";"GMT";"16.3%";"17.2%";"15.6%";"Low"
