"Foreign Reserves (USD) (Jul)";"South Africa";"ZAR";"2017-08-07T06:00:00";"GMT";"47.35B";"47.10B";"46.75B";"Low"
"Net FX Reserves (USD) (Jul)";"South Africa";"ZAR";"2017-08-07T06:00:00";"GMT";"42.235B";"42.300B";"42.410B";"Low"
"Unemployment (Q2)";"South Africa";"ZAR";"2017-08-07T07:30:00";"GMT";"6.200M";"";"6.180M";"Low"
"Unemployment Rate (Q2)";"South Africa";"ZAR";"2017-08-07T07:30:00";"GMT";"27.70%";"";"27.70%";"Low"
