{"events": {"event": [
    {
      "eventDateTime": "2008-12-17T09:30:00",
      "eventActual": "3.3%",
      "eventCountry": "United Kingdom",
      "eventExpectedVolatility": "High",
      "eventName": "Average Earnings Index +Bonus",
      "eventTimeZone": "GMT",
      "eventPrevious": "3.3%",
      "eventCurrency": "GBP",
      "eventForecast": "3.2%"
    },
    {
      "eventDateTime": "2008-12-17T09:30:00",
      "eventActual": "",
      "eventCountry": "United Kingdom",
      "eventExpectedVolatility": "High",
      "eventName": "BoE MPC Meeting Minutes",
      "eventTimeZone": "GMT",
      "eventPrevious": "",
      "eventCurrency": "GBP",
      "eventForecast": ""
    },
    {
      "eventDateTime": "2008-12-17T09:30:00",
      "eventActual": "75.7K",
      "eventCountry": "United Kingdom",
      "eventExpectedVolatility": "High",
      "eventName": "Claimant Count Change",
      "eventTimeZone": "GMT",
      "eventPrevious": "36.5K",
      "eventCurrency": "GBP",
      "eventForecast": "45.0K"
    },
    {
      "eventDateTime": "2008-12-17T09:30:00",
      "eventActual": "6.0%",
      "eventCountry": "United Kingdom",
      "eventExpectedVolatility": "Moderate",
      "eventName": "Unemployment Rate",
      "eventTimeZone": "GMT",
      "eventPrevious": "5.8%",
      "eventCurrency": "GBP",
      "eventForecast": "6.0%"
    },
    {
      "eventDateTime": "2008-12-17T11:00:00",
      "eventActual": "-55",
      "eventCountry": "United Kingdom",
      "eventExpectedVolatility": "Low",
      "eventName": "CBI Distributive Trades Survey",
      "eventTimeZone": "GMT",
      "eventPrevious": "-46",
      "eventCurrency": "GBP",
      "eventForecast": "-41"
    }
  ]}}
