{"events": {"event": {
    "eventDateTime": "2008-06-17T07:15:00",
    "eventActual": "-9.3%",
    "eventCountry": "Switzerland",
    "eventExpectedVolatility": "Moderate",
    "eventName": "Industrial Production (QoQ)",
    "eventTimeZone": "GMT",
    "eventPrevious": "6.8%",
    "eventCurrency": "CHF",
    "eventForecast": "-5.1%"
  }}}
