{"events": {"event": [
    {
      "eventDateTime": "2019-12-06T11:30:00",
      "eventActual": "8.0%",
      "eventCountry": "India",
      "eventExpectedVolatility": "Low",
      "eventName": "Bank Loan Growth",
      "eventTimeZone": "GMT",
      "eventPrevious": "8.1%",
      "eventCurrency": "INR",
      "eventForecast": ""
    },
    {
      "eventDateTime": "2019-12-06T11:30:00",
      "eventActual": "9.7%",
      "eventCountry": "India",
      "eventExpectedVolatility": "Low",
      "eventName": "Deposit Growth",
      "eventTimeZone": "GMT",
      "eventPrevious": "9.9%",
      "eventCurrency": "INR",
      "eventForecast": ""
    },
    {
      "eventDateTime": "2019-12-06T11:30:00",
      "eventActual": "451.08B",
      "eventCountry": "India",
      "eventExpectedVolatility": "Low",
      "eventName": "FX Reserves, USD",
      "eventTimeZone": "GMT",
      "eventPrevious": "448.60B",
      "eventCurrency": "INR",
      "eventForecast": ""
    },
    {
      "eventDateTime": "2019-12-06T11:30:00",
      "eventActual": "9.8%",
      "eventCountry": "India",
      "eventExpectedVolatility": "Low",
      "eventName": "M3 Money Supply",
      "eventTimeZone": "GMT",
      "eventPrevious": "9.9%",
      "eventCurrency": "INR",
      "eventForecast": ""
    }
  ]}}
