{"events": {"event": {
    "eventDateTime": "2011-09-08T11:00:00",
    "eventActual": "0.50%",
    "eventCountry": "United Kingdom",
    "eventExpectedVolatility": "High",
    "eventName": "BoE Interest Rate Decision",
    "eventTimeZone": "GMT",
    "eventPrevious": "0.50%",
    "eventCurrency": "GBP",
    "eventForecast": "0.50%"
  }}}
