{"events": {"event": [
    {
      "eventDateTime": "2011-05-11T05:00:00",
      "eventActual": "99.5",
      "eventCountry": "Japan",
      "eventExpectedVolatility": "Low",
      "eventName": "Leading Index",
      "eventTimeZone": "GMT",
      "eventPrevious": "104.0",
      "eventCurrency": "JPY",
      "eventForecast": "99.9"
    },
    {
      "eventDateTime": "2011-05-11T23:50:00",
      "eventActual": "0.75T",
      "eventCountry": "Japan",
      "eventExpectedVolatility": "Moderate",
      "eventName": "Adjusted Current Account",
      "eventTimeZone": "GMT",
      "eventPrevious": "1.22T",
      "eventCurrency": "JPY",
      "eventForecast": "1.02T"
    },
    {
      "eventDateTime": "2011-05-11T23:50:00",
      "eventActual": "-0.9%",
      "eventCountry": "Japan",
      "eventExpectedVolatility": "Low",
      "eventName": "Bank Lending (YoY)",
      "eventTimeZone": "GMT",
      "eventPrevious": "-1.7%",
      "eventCurrency": "JPY",
      "eventForecast": ""
    },
    {
      "eventDateTime": "2011-05-11T23:50:00",
      "eventActual": "2.7%",
      "eventCountry": "Japan",
      "eventExpectedVolatility": "Low",
      "eventName": "M2 Money Stock (YoY)",
      "eventTimeZone": "GMT",
      "eventPrevious": "2.6%",
      "eventCurrency": "JPY",
      "eventForecast": "2.7%"
    }
  ]}}
