{"events": {"event": {
    "eventDateTime": "2016-12-29T12:00:00",
    "eventActual": "-1.09B",
    "eventCountry": "South Africa",
    "eventExpectedVolatility": "Low",
    "eventName": "Trade Balance (Nov)",
    "eventTimeZone": "GMT",
    "eventPrevious": "-3.91B",
    "eventCurrency": "ZAR",
    "eventForecast": ""
  }}}
