{"events": {"event": [
    {
      "eventDateTime": "2012-12-28T14:45:00",
      "eventActual": "51.6",
      "eventCountry": "United States",
      "eventExpectedVolatility": "Moderate",
      "eventName": "Chicago PMI",
      "eventTimeZone": "GMT",
      "eventPrevious": "50.4",
      "eventCurrency": "USD",
      "eventForecast": "51.0"
    },
    {
      "eventDateTime": "2012-12-28T15:00:00",
      "eventActual": "1.7%",
      "eventCountry": "United States",
      "eventExpectedVolatility": "High",
      "eventName": "Pending Home Sales (MoM)",
      "eventTimeZone": "GMT",
      "eventPrevious": "5.0%",
      "eventCurrency": "USD",
      "eventForecast": "1.0%"
    },
    {
      "eventDateTime": "2012-12-28T15:30:00",
      "eventActual": "-72B",
      "eventCountry": "United States",
      "eventExpectedVolatility": "Low",
      "eventName": "Natural Gas Storage",
      "eventTimeZone": "GMT",
      "eventPrevious": "-82B",
      "eventCurrency": "USD",
      "eventForecast": "-76B"
    },
    {
      "eventDateTime": "2012-12-28T16:00:00",
      "eventActual": "-0.586M",
      "eventCountry": "United States",
      "eventExpectedVolatility": "High",
      "eventName": "Crude Oil Inventories",
      "eventTimeZone": "GMT",
      "eventPrevious": "-0.964M",
      "eventCurrency": "USD",
      "eventForecast": "-1.857M"
    },
    {
      "eventDateTime": "2012-12-28T16:00:00",
      "eventActual": "3.782M",
      "eventCountry": "United States",
      "eventExpectedVolatility": "Low",
      "eventName": "Gasoline Inventories",
      "eventTimeZone": "GMT",
      "eventPrevious": "2.207M",
      "eventCurrency": "USD",
      "eventForecast": "0.543M"
    },
    {
      "eventDateTime": "2012-12-28T17:00:00",
      "eventActual": "1327",
      "eventCountry": "United States",
      "eventExpectedVolatility": "Moderate",
      "eventName": "U.S. Baker Hughes Oil Rig Count",
      "eventTimeZone": "GMT",
      "eventPrevious": "1340",
      "eventCurrency": "USD",
      "eventForecast": ""
    }
  ]}}
