{"events": {"event": [
    {
      "eventDateTime": "2019-03-13T12:30:00",
      "eventActual": "",
      "eventCountry": "United Kingdom",
      "eventExpectedVolatility": "High",
      "eventName": "Annual Budget Release",
      "eventTimeZone": "GMT",
      "eventPrevious": "",
      "eventCurrency": "GBP",
      "eventForecast": ""
    },
    {
      "eventDateTime": "2019-03-13T12:30:00",
      "eventActual": "",
      "eventCountry": "United Kingdom",
      "eventExpectedVolatility": "High",
      "eventName": "Spring Forecast Statement",
      "eventTimeZone": "GMT",
      "eventPrevious": "",
      "eventCurrency": "GBP",
      "eventForecast": ""
    },
    {
      "eventDateTime": "2019-03-13T19:00:00",
      "eventActual": "",
      "eventCountry": "United Kingdom",
      "eventExpectedVolatility": "High",
      "eventName": "UK Parliament vote on No Brexit Deal",
      "eventTimeZone": "GMT",
      "eventPrevious": "",
      "eventCurrency": "GBP",
      "eventForecast": ""
    }
  ]}}
