"Annual Budget Release";"United Kingdom";"GBP";"2019-03-13T12:30:00";"GMT";" ";"";"";"High"
"Spring Forecast Statement";"United Kingdom";"GBP";"2019-03-13T12:30:00";"GMT";" ";"";"";"High"
"UK Parliament vote on No Brexit Deal";"United Kingdom";"GBP";"2019-03-13T19:00:00";"GMT";" ";"";"";"High"
