"BoJ Interest Rate Decision";"Japan";"JPY";"2015-05-22T02:50:00";"GMT";"0.10%";"0.10%";"0.10%";"Moderate"
"BoJ Press Conference";"Japan";"JPY";"2015-05-22T06:30:00";"GMT";" ";"";"";"High"
"BoJ Governor Kuroda Speaks";"Japan";"JPY";"2015-05-22T13:30:00";"GMT";" ";"";"";"Moderate"
"CFTC JPY speculative net positions";"Japan";"JPY";"2015-05-22T19:30:00";"GMT";"-23.6K";"";"-22.0K";"Moderate"
