"Employment Change";"Canada";"CAD";"2009-02-06T12:00:00";"GMT";"-20.4K";"-40.0K";"-129.0K";"High"
"Unemployment Rate";"Canada";"CAD";"2009-02-06T12:00:00";"GMT";"6.6%";"6.8%";"7.2%";"Moderate"
"CFTC CAD speculative net positions";"Canada";"CAD";"2009-02-06T20:30:00";"GMT";"-15.0K";"";"-12.6K";"Low"
