{"events": {"event": {
    "eventDateTime": "2010-09-17T19:30:00",
    "eventActual": "56.7K",
    "eventCountry": "Australia",
    "eventExpectedVolatility": "Moderate",
    "eventName": "CFTC AUD speculative net positions",
    "eventTimeZone": "GMT",
    "eventPrevious": "57.0K",
    "eventCurrency": "AUD",
    "eventForecast": ""
  }}}
