{"events": {"event": {
    "eventDateTime": "2011-11-17T10:00:00",
    "eventActual": "-64.3",
    "eventCountry": "Switzerland",
    "eventExpectedVolatility": "Low",
    "eventName": "ZEW Expectations",
    "eventTimeZone": "GMT",
    "eventPrevious": "-54.4",
    "eventCurrency": "CHF",
    "eventForecast": ""
  }}}
