{"events": {"event": [
    {
      "eventDateTime": "2002-06-01T09:00:00",
      "eventActual": "2.25%",
      "eventCountry": "Canada",
      "eventExpectedVolatility": "High",
      "eventName": "BoC Interest Rate Decision (May)",
      "eventTimeZone": "GMT",
      "eventPrevious": "2.25%",
      "eventCurrency": "CAD",
      "eventForecast": ""
    },
    {
      "eventDateTime": "2002-06-01T09:00:00",
      "eventActual": "-0.25B",
      "eventCountry": "Canada",
      "eventExpectedVolatility": "Low",
      "eventName": "Budget Balance (May)",
      "eventTimeZone": "GMT",
      "eventPrevious": "-0.16B",
      "eventCurrency": "CAD",
      "eventForecast": ""
    },
    {
      "eventDateTime": "2002-06-01T09:00:00",
      "eventActual": "-3.00%",
      "eventCountry": "Canada",
      "eventExpectedVolatility": "Moderate",
      "eventName": "Building Permits (MoM) (May)",
      "eventTimeZone": "GMT",
      "eventPrevious": "1.00%",
      "eventCurrency": "CAD",
      "eventForecast": ""
    },
    {
      "eventDateTime": "2002-06-01T09:00:00",
      "eventActual": "0.20%",
      "eventCountry": "Canada",
      "eventExpectedVolatility": "Moderate",
      "eventName": "CPI (MoM) (May)",
      "eventTimeZone": "GMT",
      "eventPrevious": "0.60%",
      "eventCurrency": "CAD",
      "eventForecast": ""
    },
    {
      "eventDateTime": "2002-06-01T09:00:00",
      "eventActual": "1.10%",
      "eventCountry": "Canada",
      "eventExpectedVolatility": "Low",
      "eventName": "CPI (YoY) (May)",
      "eventTimeZone": "GMT",
      "eventPrevious": "1.70%",
      "eventCurrency": "CAD",
      "eventForecast": ""
    },
    {
      "eventDateTime": "2002-06-01T09:00:00",
      "eventActual": "0.20%",
      "eventCountry": "Canada",
      "eventExpectedVolatility": "High",
      "eventName": "Core CPI (MoM) (May)",
      "eventTimeZone": "GMT",
      "eventPrevious": "0.40%",
      "eventCurrency": "CAD",
      "eventForecast": ""
    },
    {
      "eventDateTime": "2002-06-01T09:00:00",
      "eventActual": "2.10%",
      "eventCountry": "Canada",
      "eventExpectedVolatility": "Moderate",
      "eventName": "Core CPI (YoY) (May)",
      "eventTimeZone": "GMT",
      "eventPrevious": "2.30%",
      "eventCurrency": "CAD",
      "eventForecast": ""
    },
    {
      "eventDateTime": "2002-06-01T09:00:00",
      "eventActual": "-1.00%",
      "eventCountry": "Canada",
      "eventExpectedVolatility": "High",
      "eventName": "Core Retail Sales (MoM) (May)",
      "eventTimeZone": "GMT",
      "eventPrevious": "0.50%",
      "eventCurrency": "CAD",
      "eventForecast": ""
    },
    {
      "eventDateTime": "2002-06-01T09:00:00",
      "eventActual": "53.50K",
      "eventCountry": "Canada",
      "eventExpectedVolatility": "High",
      "eventName": "Employment Change (May)",
      "eventTimeZone": "GMT",
      "eventPrevious": "61.40K",
      "eventCurrency": "CAD",
      "eventForecast": ""
    },
    {
      "eventDateTime": "2002-06-01T09:00:00",
      "eventActual": "34.27B",
      "eventCountry": "Canada",
      "eventExpectedVolatility": "Low",
      "eventName": "Exports (May)",
      "eventTimeZone": "GMT",
      "eventPrevious": "34.78B",
      "eventCurrency": "CAD",
      "eventForecast": ""
    },
    {
      "eventDateTime": "2002-06-01T09:00:00",
      "eventActual": "2.83B",
      "eventCountry": "Canada",
      "eventExpectedVolatility": "Moderate",
      "eventName": "Foreign Securities Purchases (May)",
      "eventTimeZone": "GMT",
      "eventPrevious": "1.02B",
      "eventCurrency": "CAD",
      "eventForecast": ""
    },
    {
      "eventDateTime": "2002-06-01T09:00:00",
      "eventActual": "2.22B",
      "eventCountry": "Canada",
      "eventExpectedVolatility": "Low",
      "eventName": "Foreign Securities Purchases by Canadians (May)",
      "eventTimeZone": "GMT",
      "eventPrevious": "3.21B",
      "eventCurrency": "CAD",
      "eventForecast": ""
    },
    {
      "eventDateTime": "2002-06-01T09:00:00",
      "eventActual": "55.00K",
      "eventCountry": "Canada",
      "eventExpectedVolatility": "Low",
      "eventName": "Full Employment Change (May)",
      "eventTimeZone": "GMT",
      "eventPrevious": "28.40K",
      "eventCurrency": "CAD",
      "eventForecast": ""
    },
    {
      "eventDateTime": "2002-06-01T09:00:00",
      "eventActual": "0.10%",
      "eventCountry": "Canada",
      "eventExpectedVolatility": "High",
      "eventName": "GDP (MoM) (May)",
      "eventTimeZone": "GMT",
      "eventPrevious": "0.70%",
      "eventCurrency": "CAD",
      "eventForecast": ""
    },
    {
      "eventDateTime": "2002-06-01T09:00:00",
      "eventActual": "211.50K",
      "eventCountry": "Canada",
      "eventExpectedVolatility": "Moderate",
      "eventName": "Housing Starts (May)",
      "eventTimeZone": "GMT",
      "eventPrevious": "192.10K",
      "eventCurrency": "CAD",
      "eventForecast": ""
    },
    {
      "eventDateTime": "2002-06-01T09:00:00",
      "eventActual": "-0.50%",
      "eventCountry": "Canada",
      "eventExpectedVolatility": "Low",
      "eventName": "IPPI (MoM) (May)",
      "eventTimeZone": "GMT",
      "eventPrevious": "0.20%",
      "eventCurrency": "CAD",
      "eventForecast": ""
    },
    {
      "eventDateTime": "2002-06-01T09:00:00",
      "eventActual": "-2.20%",
      "eventCountry": "Canada",
      "eventExpectedVolatility": "Low",
      "eventName": "IPPI (YoY) (May)",
      "eventTimeZone": "GMT",
      "eventPrevious": "-1.10%",
      "eventCurrency": "CAD",
      "eventForecast": ""
    },
    {
      "eventDateTime": "2002-06-01T09:00:00",
      "eventActual": "29.16B",
      "eventCountry": "Canada",
      "eventExpectedVolatility": "Low",
      "eventName": "Imports (May)",
      "eventTimeZone": "GMT",
      "eventPrevious": "29.24B",
      "eventCurrency": "CAD",
      "eventForecast": ""
    },
    {
      "eventDateTime": "2002-06-01T09:00:00",
      "eventActual": "56.60",
      "eventCountry": "Canada",
      "eventExpectedVolatility": "Low",
      "eventName": "Ivey PMI n.s.a (May)",
      "eventTimeZone": "GMT",
      "eventPrevious": "55.90",
      "eventCurrency": "CAD",
      "eventForecast": ""
    },
    {
      "eventDateTime": "2002-06-01T09:00:00",
      "eventActual": "0.00%",
      "eventCountry": "Canada",
      "eventExpectedVolatility": "Moderate",
      "eventName": "Manufacturing Sales (MoM) (May)",
      "eventTimeZone": "GMT",
      "eventPrevious": "1.40%",
      "eventCurrency": "CAD",
      "eventForecast": ""
    },
    {
      "eventDateTime": "2002-06-01T09:00:00",
      "eventActual": "0.70%",
      "eventCountry": "Canada",
      "eventExpectedVolatility": "Moderate",
      "eventName": "New Housing Price Index (MoM) (May)",
      "eventTimeZone": "GMT",
      "eventPrevious": "0.60%",
      "eventCurrency": "CAD",
      "eventForecast": ""
    },
    {
      "eventDateTime": "2002-06-01T09:00:00",
      "eventActual": "-1.50K",
      "eventCountry": "Canada",
      "eventExpectedVolatility": "Low",
      "eventName": "Part Time Employment Change (May)",
      "eventTimeZone": "GMT",
      "eventPrevious": "33.10K",
      "eventCurrency": "CAD",
      "eventForecast": ""
    },
    {
      "eventDateTime": "2002-06-01T09:00:00",
      "eventActual": "66.70%",
      "eventCountry": "Canada",
      "eventExpectedVolatility": "Low",
      "eventName": "Participation Rate (May)",
      "eventTimeZone": "GMT",
      "eventPrevious": "66.60%",
      "eventCurrency": "CAD",
      "eventForecast": ""
    },
    {
      "eventDateTime": "2002-06-01T09:00:00",
      "eventActual": "1.20%",
      "eventCountry": "Canada",
      "eventExpectedVolatility": "Moderate",
      "eventName": "RMPI (MoM) (May)",
      "eventTimeZone": "GMT",
      "eventPrevious": "1.10%",
      "eventCurrency": "CAD",
      "eventForecast": ""
    },
    {
      "eventDateTime": "2002-06-01T09:00:00",
      "eventActual": "-4.70%",
      "eventCountry": "Canada",
      "eventExpectedVolatility": "Low",
      "eventName": "RMPI (YoY) (May)",
      "eventTimeZone": "GMT",
      "eventPrevious": "-5.50%",
      "eventCurrency": "CAD",
      "eventForecast": ""
    },
    {
      "eventDateTime": "2002-06-01T09:00:00",
      "eventActual": "-1.80%",
      "eventCountry": "Canada",
      "eventExpectedVolatility": "Moderate",
      "eventName": "Retail Sales (MoM) (May)",
      "eventTimeZone": "GMT",
      "eventPrevious": "2.20%",
      "eventCurrency": "CAD",
      "eventForecast": ""
    },
    {
      "eventDateTime": "2002-06-01T09:00:00",
      "eventActual": "5.10B",
      "eventCountry": "Canada",
      "eventExpectedVolatility": "Moderate",
      "eventName": "Trade Balance (May)",
      "eventTimeZone": "GMT",
      "eventPrevious": "5.55B",
      "eventCurrency": "CAD",
      "eventForecast": ""
    },
    {
      "eventDateTime": "2002-06-01T09:00:00",
      "eventActual": "7.70%",
      "eventCountry": "Canada",
      "eventExpectedVolatility": "Moderate",
      "eventName": "Unemployment Rate (May)",
      "eventTimeZone": "GMT",
      "eventPrevious": "7.70%",
      "eventCurrency": "CAD",
      "eventForecast": ""
    },
    {
      "eventDateTime": "2002-06-01T09:00:00",
      "eventActual": "1.30%",
      "eventCountry": "Canada",
      "eventExpectedVolatility": "Moderate",
      "eventName": "Wholesale Sales (MoM) (May)",
      "eventTimeZone": "GMT",
      "eventPrevious": "1.30%",
      "eventCurrency": "CAD",
      "eventForecast": ""
    }
  ]}}
