{"events": {"event": {
    "eventDateTime": "2018-07-30T05:30:00",
    "eventActual": "58.0%",
    "eventCountry": "Canada",
    "eventExpectedVolatility": "Moderate",
    "eventName": "Investing.com USD/CAD Index",
    "eventTimeZone": "GMT",
    "eventPrevious": "58.8%",
    "eventCurrency": "CAD",
    "eventForecast": ""
  }}}
