{"events": {"event": {
    "eventDateTime": "2017-11-23T21:00:00",
    "eventActual": "112",
    "eventCountry": "South Korea",
    "eventExpectedVolatility": "Low",
    "eventName": "Consumer Confidence (Nov)",
    "eventTimeZone": "GMT",
    "eventPrevious": "109",
    "eventCurrency": "KRW",
    "eventForecast": ""
  }}}
