{"events": {"event": [
    {
      "eventDateTime": "2012-09-21T14:00:00",
      "eventActual": "1.26K",
      "eventCountry": "United States",
      "eventExpectedVolatility": "Low",
      "eventName": "Mass Layoffs",
      "eventTimeZone": "GMT",
      "eventPrevious": "1.34K",
      "eventCurrency": "USD",
      "eventForecast": ""
    },
    {
      "eventDateTime": "2012-09-21T17:00:00",
      "eventActual": "1402",
      "eventCountry": "United States",
      "eventExpectedVolatility": "Moderate",
      "eventName": "U.S. Baker Hughes Oil Rig Count",
      "eventTimeZone": "GMT",
      "eventPrevious": "1413",
      "eventCurrency": "USD",
      "eventForecast": ""
    },
    {
      "eventDateTime": "2012-09-21T19:30:00",
      "eventActual": "191.1K",
      "eventCountry": "United States",
      "eventExpectedVolatility": "Moderate",
      "eventName": "CFTC Gold speculative net positions",
      "eventTimeZone": "GMT",
      "eventPrevious": "182.0K",
      "eventCurrency": "USD",
      "eventForecast": ""
    },
    {
      "eventDateTime": "2012-09-21T19:30:00",
      "eventActual": "32.6K",
      "eventCountry": "United States",
      "eventExpectedVolatility": "Low",
      "eventName": "CFTC Silver speculative net positions",
      "eventTimeZone": "GMT",
      "eventPrevious": "31.5K",
      "eventCurrency": "USD",
      "eventForecast": ""
    },
    {
      "eventDateTime": "2012-09-21T20:30:00",
      "eventActual": "267.2k",
      "eventCountry": "United States",
      "eventExpectedVolatility": "Moderate",
      "eventName": "CFTC Crude Oil speculative net positions",
      "eventTimeZone": "GMT",
      "eventPrevious": "248.7k",
      "eventCurrency": "USD",
      "eventForecast": ""
    }
  ]}}
