{"events": {"event": {
    "eventDateTime": "2019-06-14T19:30:00",
    "eventActual": "-16.1K",
    "eventCountry": "New Zealand",
    "eventExpectedVolatility": "Low",
    "eventName": "CFTC NZD speculative net positions",
    "eventTimeZone": "GMT",
    "eventPrevious": "-20.4K",
    "eventCurrency": "NZD",
    "eventForecast": ""
  }}}
