{"events": {"event": [
    {
      "eventDateTime": "2013-05-15T20:00:00",
      "eventActual": "-2.60%",
      "eventCountry": "New Zealand",
      "eventExpectedVolatility": "Moderate",
      "eventName": "GlobalDairyTrade Price Index",
      "eventTimeZone": "GMT",
      "eventPrevious": "-8.60%",
      "eventCurrency": "NZD",
      "eventForecast": ""
    },
    {
      "eventDateTime": "2013-05-15T22:30:00",
      "eventActual": "54.5",
      "eventCountry": "New Zealand",
      "eventExpectedVolatility": "Moderate",
      "eventName": "Business NZ PMI",
      "eventTimeZone": "GMT",
      "eventPrevious": "53.4",
      "eventCurrency": "NZD",
      "eventForecast": ""
    }
  ]}}
