{"events": {"event": [
    {
      "eventDateTime": "2016-02-29T00:00:00",
      "eventActual": "7.1",
      "eventCountry": "New Zealand",
      "eventExpectedVolatility": "Moderate",
      "eventName": "ANZ Business Confidence (Jan)",
      "eventTimeZone": "GMT",
      "eventPrevious": "23.0",
      "eventCurrency": "NZD",
      "eventForecast": ""
    },
    {
      "eventDateTime": "2016-02-29T00:00:00",
      "eventActual": "25.5%",
      "eventCountry": "New Zealand",
      "eventExpectedVolatility": "Low",
      "eventName": "NBNZ Own Activity (Jan)",
      "eventTimeZone": "GMT",
      "eventPrevious": "34.4%",
      "eventCurrency": "NZD",
      "eventForecast": ""
    },
    {
      "eventDateTime": "2016-02-29T07:30:00",
      "eventActual": "40.6%",
      "eventCountry": "New Zealand",
      "eventExpectedVolatility": "Moderate",
      "eventName": "Investing.com NZD/USD Index",
      "eventTimeZone": "GMT",
      "eventPrevious": "39.0%",
      "eventCurrency": "NZD",
      "eventForecast": ""
    },
    {
      "eventDateTime": "2016-02-29T21:45:00",
      "eventActual": "-5.7%",
      "eventCountry": "New Zealand",
      "eventExpectedVolatility": "Low",
      "eventName": "Terms of Trade - Exports Prices (Q4)",
      "eventTimeZone": "GMT",
      "eventPrevious": "3.4%",
      "eventCurrency": "NZD",
      "eventForecast": "-4.4%"
    },
    {
      "eventDateTime": "2016-02-29T21:45:00",
      "eventActual": "-2.4%",
      "eventCountry": "New Zealand",
      "eventExpectedVolatility": "Low",
      "eventName": "Terms of Trade - Exports Volume (QoQ) (Q4)",
      "eventTimeZone": "GMT",
      "eventPrevious": "3.7%",
      "eventCurrency": "NZD",
      "eventForecast": "-0.6%"
    },
    {
      "eventDateTime": "2016-02-29T21:45:00",
      "eventActual": "-3.7%",
      "eventCountry": "New Zealand",
      "eventExpectedVolatility": "Low",
      "eventName": "Terms of Trade - Imports Prices (Q4)",
      "eventTimeZone": "GMT",
      "eventPrevious": "7.3%",
      "eventCurrency": "NZD",
      "eventForecast": "-3.5%"
    },
    {
      "eventDateTime": "2016-02-29T21:45:00",
      "eventActual": "-2.0%",
      "eventCountry": "New Zealand",
      "eventExpectedVolatility": "Low",
      "eventName": "Terms of Trade Index (QoQ) (Q4)",
      "eventTimeZone": "GMT",
      "eventPrevious": "-3.7%",
      "eventCurrency": "NZD",
      "eventForecast": ""
    }
  ]}}
