{"events": {"event": {
    "eventDateTime": "2015-05-01T19:30:00",
    "eventActual": "1.2K",
    "eventCountry": "Russia",
    "eventExpectedVolatility": "Moderate",
    "eventName": "CFTC RUB speculative positions",
    "eventTimeZone": "GMT",
    "eventPrevious": "1.4K",
    "eventCurrency": "RUB",
    "eventForecast": ""
  }}}
