"Exports (YoY) (May)";"South Korea";"KRW";"2018-06-01T00:00:00";"GMT";"6.1%";"12.7%";"13.5%";"Low"
"Imports (YoY) (May)";"South Korea";"KRW";"2018-06-01T00:00:00";"GMT";"5.2%";"10.7%";"12.6%";"Low"
"Trade Balance (May)";"South Korea";"KRW";"2018-06-01T00:00:00";"GMT";"6.80B";"";"6.70B";"Low"
"Nikkei Manufacturing PMI (May)";"South Korea";"KRW";"2018-06-01T00:30:00";"GMT";"48.4";"";"48.9";"Low"
