{"events": {"event": [
    {
      "eventDateTime": "2011-01-13T13:30:00",
      "eventActual": "3,879K",
      "eventCountry": "United States",
      "eventExpectedVolatility": "Low",
      "eventName": "Continuing Jobless Claims",
      "eventTimeZone": "GMT",
      "eventPrevious": "4,103K",
      "eventCurrency": "USD",
      "eventForecast": "4,100K"
    },
    {
      "eventDateTime": "2011-01-13T13:30:00",
      "eventActual": "0.2%",
      "eventCountry": "United States",
      "eventExpectedVolatility": "Moderate",
      "eventName": "Core PPI (MoM)",
      "eventTimeZone": "GMT",
      "eventPrevious": "0.3%",
      "eventCurrency": "USD",
      "eventForecast": "0.2%"
    },
    {
      "eventDateTime": "2011-01-13T13:30:00",
      "eventActual": "445K",
      "eventCountry": "United States",
      "eventExpectedVolatility": "Moderate",
      "eventName": "Initial Jobless Claims",
      "eventTimeZone": "GMT",
      "eventPrevious": "410K",
      "eventCurrency": "USD",
      "eventForecast": "404K"
    },
    {
      "eventDateTime": "2011-01-13T13:30:00",
      "eventActual": "1.1%",
      "eventCountry": "United States",
      "eventExpectedVolatility": "High",
      "eventName": "PPI (MoM)",
      "eventTimeZone": "GMT",
      "eventPrevious": "0.8%",
      "eventCurrency": "USD",
      "eventForecast": "0.7%"
    },
    {
      "eventDateTime": "2011-01-13T13:30:00",
      "eventActual": "-38.3B",
      "eventCountry": "United States",
      "eventExpectedVolatility": "Moderate",
      "eventName": "Trade Balance",
      "eventTimeZone": "GMT",
      "eventPrevious": "-38.4B",
      "eventCurrency": "USD",
      "eventForecast": "-40.6B"
    },
    {
      "eventDateTime": "2011-01-13T15:30:00",
      "eventActual": "-138B",
      "eventCountry": "United States",
      "eventExpectedVolatility": "Low",
      "eventName": "Natural Gas Storage",
      "eventTimeZone": "GMT",
      "eventPrevious": "-135B",
      "eventCurrency": "USD",
      "eventForecast": "-145B"
    },
    {
      "eventDateTime": "2011-01-13T18:00:00",
      "eventActual": "",
      "eventCountry": "United States",
      "eventExpectedVolatility": "High",
      "eventName": "Fed Chairman Bernanke Speaks",
      "eventTimeZone": "GMT",
      "eventPrevious": "",
      "eventCurrency": "USD",
      "eventForecast": ""
    }
  ]}}
