{"events": {"event": {
    "eventDateTime": "2014-01-27T08:30:00",
    "eventActual": "-54.4B",
    "eventCountry": "Hong Kong",
    "eventExpectedVolatility": "Low",
    "eventName": "Trade Balance",
    "eventTimeZone": "GMT",
    "eventPrevious": "-44.6B",
    "eventCurrency": "HKD",
    "eventForecast": "-46.0B"
  }}}
