{"events": {"event": [
    {
      "eventDateTime": "2018-02-05T04:00:00",
      "eventActual": "",
      "eventCountry": "Japan",
      "eventExpectedVolatility": "Moderate",
      "eventName": "BoJ Governor Kuroda Speaks",
      "eventTimeZone": "GMT",
      "eventPrevious": "",
      "eventCurrency": "JPY",
      "eventForecast": ""
    },
    {
      "eventDateTime": "2018-02-05T06:30:00",
      "eventActual": "59.0%",
      "eventCountry": "Japan",
      "eventExpectedVolatility": "Moderate",
      "eventName": "Investing.com USD/JPY Index",
      "eventTimeZone": "GMT",
      "eventPrevious": "69.4%",
      "eventCurrency": "JPY",
      "eventForecast": ""
    }
  ]}}
