{"events": {"event": {
    "eventDateTime": "2013-02-18T23:50:00",
    "eventActual": "",
    "eventCountry": "Japan",
    "eventExpectedVolatility": "Moderate",
    "eventName": "Monetary Policy Meeting Minutes",
    "eventTimeZone": "GMT",
    "eventPrevious": "",
    "eventCurrency": "JPY",
    "eventForecast": ""
  }}}
