{"events": {"event": [
    {
      "eventDateTime": "2014-01-29T12:00:00",
      "eventActual": "4.52%",
      "eventCountry": "United States",
      "eventExpectedVolatility": "Low",
      "eventName": "MBA 30-Year Mortgage Rate",
      "eventTimeZone": "GMT",
      "eventPrevious": "4.57%",
      "eventCurrency": "USD",
      "eventForecast": ""
    },
    {
      "eventDateTime": "2014-01-29T12:00:00",
      "eventActual": "-0.2%",
      "eventCountry": "United States",
      "eventExpectedVolatility": "Low",
      "eventName": "MBA Mortgage Applications (WoW)",
      "eventTimeZone": "GMT",
      "eventPrevious": "4.7%",
      "eventCurrency": "USD",
      "eventForecast": ""
    },
    {
      "eventDateTime": "2014-01-29T15:30:00",
      "eventActual": "6.421M",
      "eventCountry": "United States",
      "eventExpectedVolatility": "High",
      "eventName": "Crude Oil Inventories",
      "eventTimeZone": "GMT",
      "eventPrevious": "0.990M",
      "eventCurrency": "USD",
      "eventForecast": "2.338M"
    },
    {
      "eventDateTime": "2014-01-29T15:30:00",
      "eventActual": "-4.584M",
      "eventCountry": "United States",
      "eventExpectedVolatility": "Low",
      "eventName": "EIA Weekly Distillates Stocks",
      "eventTimeZone": "GMT",
      "eventPrevious": "-3.212M",
      "eventCurrency": "USD",
      "eventForecast": "-2.231M"
    },
    {
      "eventDateTime": "2014-01-29T15:30:00",
      "eventActual": "-0.819M",
      "eventCountry": "United States",
      "eventExpectedVolatility": "Low",
      "eventName": "Gasoline Inventories",
      "eventTimeZone": "GMT",
      "eventPrevious": "2.123M",
      "eventCurrency": "USD",
      "eventForecast": "1.125M"
    },
    {
      "eventDateTime": "2014-01-29T19:00:00",
      "eventActual": "",
      "eventCountry": "United States",
      "eventExpectedVolatility": "High",
      "eventName": "FOMC Statement",
      "eventTimeZone": "GMT",
      "eventPrevious": "",
      "eventCurrency": "USD",
      "eventForecast": ""
    },
    {
      "eventDateTime": "2014-01-29T19:00:00",
      "eventActual": "0.25%",
      "eventCountry": "United States",
      "eventExpectedVolatility": "High",
      "eventName": "Fed Interest Rate Decision",
      "eventTimeZone": "GMT",
      "eventPrevious": "0.25%",
      "eventCurrency": "USD",
      "eventForecast": "0.25%"
    }
  ]}}
