"Capacity Utilization Rate (Q1)";"Canada";"CAD";"2019-06-07T12:30:00";"GMT";"81.8%";"81.0%";"80.9%";"Low"
"Employment Change (May)";"Canada";"CAD";"2019-06-07T12:30:00";"GMT";"106.5K";"8.0K";"27.7K";"High"
"Full Employment Change (May)";"Canada";"CAD";"2019-06-07T12:30:00";"GMT";"73.0K";"9.0K";"27.7K";"Low"
"Part Time Employment Change (May)";"Canada";"CAD";"2019-06-07T12:30:00";"GMT";"33.6K";"0.5K";"0.0K";"Low"
"Participation Rate (May)";"Canada";"CAD";"2019-06-07T12:30:00";"GMT";"65.9%";"65.8%";"65.7%";"Low"
"Unemployment Rate (May)";"Canada";"CAD";"2019-06-07T12:30:00";"GMT";"5.7%";"5.7%";"5.4%";"Moderate"
"CFTC CAD speculative net positions";"Canada";"CAD";"2019-06-07T19:30:00";"GMT";"-39.4K";"";"-41.8K";"Low"
