"Average Earnings Index +Bonus (Sep)";"United Kingdom";"GBP";"2014-11-12T09:30:00";"GMT";"0.7%";"0.9%";"1.0%";"High"
"Average Earnings ex Bonus (Sep)";"United Kingdom";"GBP";"2014-11-12T09:30:00";"GMT";"0.9%";"1.1%";"1.3%";"Low"
"Claimant Count Change (Oct)";"United Kingdom";"GBP";"2014-11-12T09:30:00";"GMT";"-18.4K";"-24.9K";"-20.4K";"High"
"Unemployment Rate (Sep)";"United Kingdom";"GBP";"2014-11-12T09:30:00";"GMT";"6.0%";"5.9%";"6.0%";"Moderate"
"BoE Gov Carney Speaks";"United Kingdom";"GBP";"2014-11-12T10:30:00";"GMT";" ";"";"";"High"
"BoE Inflation Report";"United Kingdom";"GBP";"2014-11-12T10:30:00";"GMT";" ";"";"";"High"
