{"events": {"event": [
    {
      "eventDateTime": "2010-05-12T11:00:00",
      "eventActual": "3.9%",
      "eventCountry": "United States",
      "eventExpectedVolatility": "Low",
      "eventName": "MBA Mortgage Applications (WoW)",
      "eventTimeZone": "GMT",
      "eventPrevious": "4.0%",
      "eventCurrency": "USD",
      "eventForecast": ""
    },
    {
      "eventDateTime": "2010-05-12T12:30:00",
      "eventActual": "-40.4B",
      "eventCountry": "United States",
      "eventExpectedVolatility": "Moderate",
      "eventName": "Trade Balance",
      "eventTimeZone": "GMT",
      "eventPrevious": "-39.4B",
      "eventCurrency": "USD",
      "eventForecast": "-40.0B"
    },
    {
      "eventDateTime": "2010-05-12T14:30:00",
      "eventActual": "1.900M",
      "eventCountry": "United States",
      "eventExpectedVolatility": "High",
      "eventName": "Crude Oil Inventories",
      "eventTimeZone": "GMT",
      "eventPrevious": "2.800M",
      "eventCurrency": "USD",
      "eventForecast": ""
    },
    {
      "eventDateTime": "2010-05-12T18:00:00",
      "eventActual": "-82.7B",
      "eventCountry": "United States",
      "eventExpectedVolatility": "Moderate",
      "eventName": "Federal Budget Balance",
      "eventTimeZone": "GMT",
      "eventPrevious": "-65.4B",
      "eventCurrency": "USD",
      "eventForecast": "-20.0B"
    }
  ]}}
