{"events": {"event": [
    {
      "eventDateTime": "2016-10-27T07:00:00",
      "eventActual": "18.91%",
      "eventCountry": "Spain",
      "eventExpectedVolatility": "Low",
      "eventName": "Spanish Unemployment Rate (Q3)",
      "eventTimeZone": "GMT",
      "eventPrevious": "20.00%",
      "eventCurrency": "EUR",
      "eventForecast": "19.30%"
    },
    {
      "eventDateTime": "2016-10-27T08:00:00",
      "eventActual": "103.0",
      "eventCountry": "Italy",
      "eventExpectedVolatility": "Low",
      "eventName": "Italian Business Confidence (Oct)",
      "eventTimeZone": "GMT",
      "eventPrevious": "102.1",
      "eventCurrency": "EUR",
      "eventForecast": "102.1"
    },
    {
      "eventDateTime": "2016-10-27T08:00:00",
      "eventActual": "108.0",
      "eventCountry": "Italy",
      "eventExpectedVolatility": "Low",
      "eventName": "Italian Consumer Confidence (Oct)",
      "eventTimeZone": "GMT",
      "eventPrevious": "108.6",
      "eventCurrency": "EUR",
      "eventForecast": ""
    },
    {
      "eventDateTime": "2016-10-27T08:00:00",
      "eventActual": "5.0%",
      "eventCountry": "Euro Zone",
      "eventExpectedVolatility": "Low",
      "eventName": "M3 Money Supply (YoY) (Sep)",
      "eventTimeZone": "GMT",
      "eventPrevious": "5.1%",
      "eventCurrency": "EUR",
      "eventForecast": "5.1%"
    },
    {
      "eventDateTime": "2016-10-27T08:00:00",
      "eventActual": "1.8%",
      "eventCountry": "Euro Zone",
      "eventExpectedVolatility": "Low",
      "eventName": "Private Sector Loans (YoY)",
      "eventTimeZone": "GMT",
      "eventPrevious": "1.8%",
      "eventCurrency": "EUR",
      "eventForecast": "1.9%"
    },
    {
      "eventDateTime": "2016-10-27T09:00:00",
      "eventActual": "0.0%",
      "eventCountry": "Italy",
      "eventExpectedVolatility": "Low",
      "eventName": "Italian Wage Inflation (MoM) (Sep)",
      "eventTimeZone": "GMT",
      "eventPrevious": "0.0%",
      "eventCurrency": "EUR",
      "eventForecast": ""
    },
    {
      "eventDateTime": "2016-10-27T09:00:00",
      "eventActual": "0.6%",
      "eventCountry": "Italy",
      "eventExpectedVolatility": "Low",
      "eventName": "Italian Wage Inflation (YoY) (Sep)",
      "eventTimeZone": "GMT",
      "eventPrevious": "0.6%",
      "eventCurrency": "EUR",
      "eventForecast": ""
    },
    {
      "eventDateTime": "2016-10-27T09:10:00",
      "eventActual": "-0.295%",
      "eventCountry": "Italy",
      "eventExpectedVolatility": "Low",
      "eventName": "Italian 6-Month BOT Auction",
      "eventTimeZone": "GMT",
      "eventPrevious": "-0.257%",
      "eventCurrency": "EUR",
      "eventForecast": ""
    }
  ]}}
