"Services PMI";"Euro Zone";"EUR";"2011-06-03T08:00:00";"GMT";"55.4";"55.4";"56.0";"Moderate"
"Spanish Consumer Confidence";"Spain";"EUR";"2011-06-03T10:00:00";"GMT";"73.2";"";"74.3";"Low"
"CFTC EUR speculative net positions";"Euro Zone";"EUR";"2011-06-03T19:30:00";"GMT";"19.1K";"";"22.0K";"Moderate"
