{"events": {"event": {
    "eventDateTime": "2010-07-21T20:00:00",
    "eventActual": "10.75%",
    "eventCountry": "Brazil",
    "eventExpectedVolatility": "Moderate",
    "eventName": "Interest Rate Decision",
    "eventTimeZone": "GMT",
    "eventPrevious": "10.25%",
    "eventCurrency": "BRL",
    "eventForecast": "11.00%"
  }}}
