{"events": {"event": [
    {
      "eventDateTime": "2013-11-22T15:00:00",
      "eventActual": "3.91M",
      "eventCountry": "United States",
      "eventExpectedVolatility": "High",
      "eventName": "JOLTs Job Openings",
      "eventTimeZone": "GMT",
      "eventPrevious": "3.84M",
      "eventCurrency": "USD",
      "eventForecast": "3.89M"
    },
    {
      "eventDateTime": "2013-11-22T16:00:00",
      "eventActual": "7.00",
      "eventCountry": "United States",
      "eventExpectedVolatility": "Low",
      "eventName": "KC Fed Composite Index",
      "eventTimeZone": "GMT",
      "eventPrevious": "6.00",
      "eventCurrency": "USD",
      "eventForecast": "5.00"
    },
    {
      "eventDateTime": "2013-11-22T17:00:00",
      "eventActual": "1387",
      "eventCountry": "United States",
      "eventExpectedVolatility": "Moderate",
      "eventName": "U.S. Baker Hughes Oil Rig Count",
      "eventTimeZone": "GMT",
      "eventPrevious": "1385",
      "eventCurrency": "USD",
      "eventForecast": ""
    },
    {
      "eventDateTime": "2013-11-22T20:30:00",
      "eventActual": "313.2k",
      "eventCountry": "United States",
      "eventExpectedVolatility": "Moderate",
      "eventName": "CFTC Crude Oil speculative net positions",
      "eventTimeZone": "GMT",
      "eventPrevious": "305.6k",
      "eventCurrency": "USD",
      "eventForecast": ""
    },
    {
      "eventDateTime": "2013-11-22T20:30:00",
      "eventActual": "48.1K",
      "eventCountry": "United States",
      "eventExpectedVolatility": "Moderate",
      "eventName": "CFTC Gold speculative net positions",
      "eventTimeZone": "GMT",
      "eventPrevious": "61.4K",
      "eventCurrency": "USD",
      "eventForecast": ""
    },
    {
      "eventDateTime": "2013-11-22T20:30:00",
      "eventActual": "10.0K",
      "eventCountry": "United States",
      "eventExpectedVolatility": "Low",
      "eventName": "CFTC Silver speculative net positions",
      "eventTimeZone": "GMT",
      "eventPrevious": "13.0K",
      "eventCurrency": "USD",
      "eventForecast": ""
    }
  ]}}
