{"events": {"event": [
    {
      "eventDateTime": "2008-06-18T08:30:00",
      "eventActual": "",
      "eventCountry": "United Kingdom",
      "eventExpectedVolatility": "High",
      "eventName": "BoE MPC Meeting Minutes",
      "eventTimeZone": "GMT",
      "eventPrevious": "",
      "eventCurrency": "GBP",
      "eventForecast": ""
    },
    {
      "eventDateTime": "2008-06-18T10:00:00",
      "eventActual": "1",
      "eventCountry": "United Kingdom",
      "eventExpectedVolatility": "Moderate",
      "eventName": "CBI Industrial Trends Orders",
      "eventTimeZone": "GMT",
      "eventPrevious": "-10",
      "eventCurrency": "GBP",
      "eventForecast": ""
    }
  ]}}
