{"events": {"event": {
    "eventDateTime": "2017-06-15T22:30:00",
    "eventActual": "58.5",
    "eventCountry": "New Zealand",
    "eventExpectedVolatility": "Moderate",
    "eventName": "Business NZ PMI (May)",
    "eventTimeZone": "GMT",
    "eventPrevious": "56.8",
    "eventCurrency": "NZD",
    "eventForecast": ""
  }}}
