{"events": {"event": [
    {
      "eventDateTime": "2017-02-09T13:30:00",
      "eventActual": "2,078K",
      "eventCountry": "United States",
      "eventExpectedVolatility": "Low",
      "eventName": "Continuing Jobless Claims",
      "eventTimeZone": "GMT",
      "eventPrevious": "2,063K",
      "eventCurrency": "USD",
      "eventForecast": "2,060K"
    },
    {
      "eventDateTime": "2017-02-09T13:30:00",
      "eventActual": "234K",
      "eventCountry": "United States",
      "eventExpectedVolatility": "Moderate",
      "eventName": "Initial Jobless Claims",
      "eventTimeZone": "GMT",
      "eventPrevious": "246K",
      "eventCurrency": "USD",
      "eventForecast": "250K"
    },
    {
      "eventDateTime": "2017-02-09T13:30:00",
      "eventActual": "244.25K",
      "eventCountry": "United States",
      "eventExpectedVolatility": "Low",
      "eventName": "Jobless Claims 4-Week Avg.",
      "eventTimeZone": "GMT",
      "eventPrevious": "248.00K",
      "eventCurrency": "USD",
      "eventForecast": ""
    },
    {
      "eventDateTime": "2017-02-09T14:05:00",
      "eventActual": "",
      "eventCountry": "United States",
      "eventExpectedVolatility": "Moderate",
      "eventName": "FOMC Member Bullard Speaks",
      "eventTimeZone": "GMT",
      "eventPrevious": "",
      "eventCurrency": "USD",
      "eventForecast": ""
    },
    {
      "eventDateTime": "2017-02-09T14:45:00",
      "eventActual": "47.2",
      "eventCountry": "United States",
      "eventExpectedVolatility": "Low",
      "eventName": "Bloomberg Consumer Confidence",
      "eventTimeZone": "GMT",
      "eventPrevious": "46.6",
      "eventCurrency": "USD",
      "eventForecast": ""
    },
    {
      "eventDateTime": "2017-02-09T15:00:00",
      "eventActual": "-152B",
      "eventCountry": "United States",
      "eventExpectedVolatility": "Low",
      "eventName": "Natural Gas Storage",
      "eventTimeZone": "GMT",
      "eventPrevious": "-87B",
      "eventCurrency": "USD",
      "eventForecast": "-153B"
    },
    {
      "eventDateTime": "2017-02-09T15:00:00",
      "eventActual": "1.0%",
      "eventCountry": "United States",
      "eventExpectedVolatility": "Low",
      "eventName": "Wholesale Inventories (MoM) (Dec)",
      "eventTimeZone": "GMT",
      "eventPrevious": "1.0%",
      "eventCurrency": "USD",
      "eventForecast": "1.0%"
    },
    {
      "eventDateTime": "2017-02-09T18:00:00",
      "eventActual": "3.005%",
      "eventCountry": "United States",
      "eventExpectedVolatility": "Low",
      "eventName": "30-Year Bond Auction",
      "eventTimeZone": "GMT",
      "eventPrevious": "2.914%",
      "eventCurrency": "USD",
      "eventForecast": ""
    },
    {
      "eventDateTime": "2017-02-09T18:10:00",
      "eventActual": "",
      "eventCountry": "United States",
      "eventExpectedVolatility": "Low",
      "eventName": "Chicago Fed President Evans Speaks",
      "eventTimeZone": "GMT",
      "eventPrevious": "",
      "eventCurrency": "USD",
      "eventForecast": ""
    }
  ]}}
