"Continuing Jobless Claims";"United States";"USD";"2017-02-09T13:30:00";"GMT";"2,063K";"2,060K";"2,078K";"Low"
"Initial Jobless Claims";"United States";"USD";"2017-02-09T13:30:00";"GMT";"246K";"250K";"234K";"Moderate"
"Jobless Claims 4-Week Avg.";"United States";"USD";"2017-02-09T13:30:00";"GMT";"248.00K";"";"244.25K";"Low"
"FOMC Member Bullard Speaks";"United States";"USD";"2017-02-09T14:05:00";"GMT";" ";"";"";"Moderate"
"Bloomberg Consumer Confidence";"United States";"USD";"2017-02-09T14:45:00";"GMT";"46.6";"";"47.2";"Low"
"Natural Gas Storage";"United States";"USD";"2017-02-09T15:00:00";"GMT";"-87B";"-153B";"-152B";"Low"
"Wholesale Inventories (MoM) (Dec)";"United States";"USD";"2017-02-09T15:00:00";"GMT";"1.0%";"1.0%";"1.0%";"Low"
"30-Year Bond Auction";"United States";"USD";"2017-02-09T18:00:00";"GMT";"2.914%";"";"3.005%";"Low"
"Chicago Fed President Evans Speaks";"United States";"USD";"2017-02-09T18:10:00";"GMT";" ";"";"";"Low"
