{"events": {"event": [
    {
      "eventDateTime": "2012-09-21T11:30:00",
      "eventActual": "16.60%",
      "eventCountry": "India",
      "eventExpectedVolatility": "Low",
      "eventName": "Bank Loan Growth",
      "eventTimeZone": "GMT",
      "eventPrevious": "16.70%",
      "eventCurrency": "INR",
      "eventForecast": ""
    },
    {
      "eventDateTime": "2012-09-21T11:30:00",
      "eventActual": "294.48B",
      "eventCountry": "India",
      "eventExpectedVolatility": "Low",
      "eventName": "FX Reserves, USD",
      "eventTimeZone": "GMT",
      "eventPrevious": "292.04B",
      "eventCurrency": "INR",
      "eventForecast": ""
    }
  ]}}
