"Investing.com NZD/USD Index";"New Zealand";"NZD";"2018-01-29T06:30:00";"GMT";"48.5%";"";"50.8%";"Moderate"
"Exports (Dec)";"New Zealand";"NZD";"2018-01-29T21:45:00";"GMT";"4.61B";"5.00B";"5.55B";"Low"
"Imports (Dec)";"New Zealand";"NZD";"2018-01-29T21:45:00";"GMT";"5.84B";"5.10B";"4.91B";"Low"
"Trade Balance (MoM) (Dec)";"New Zealand";"NZD";"2018-01-29T21:45:00";"GMT";"-1,233M";"-125M";"640M";"Moderate"
"Trade Balance (YoY) (Dec)";"New Zealand";"NZD";"2018-01-29T21:45:00";"GMT";"-3,480M";"-3,420M";"-2,840M";"Moderate"
