"CPI (MoM) (Jul)";"Canada";"CAD";"2018-08-17T12:30:00";"GMT";"0.1%";"0.1%";"0.5%";"Moderate"
"CPI (YoY) (Jul)";"Canada";"CAD";"2018-08-17T12:30:00";"GMT";"2.5%";"2.5%";"3.0%";"Low"
"Common CPI (YoY)";"Canada";"CAD";"2018-08-17T12:30:00";"GMT";"1.9%";"";"1.9%";"Low"
"Core CPI (YoY) (Jul)";"Canada";"CAD";"2018-08-17T12:30:00";"GMT";"1.3%";"1.3%";"1.6%";"Moderate"
"Core CPI (YoY) (Jul)";"Canada";"CAD";"2018-08-17T12:30:00";"GMT";"1.3%";"1.3%";"1.6%";"Moderate"
"Foreign Securities Purchases (Jun)";"Canada";"CAD";"2018-08-17T12:30:00";"GMT";"3.01B";"4.91B";"11.55B";"Moderate"
"Foreign Securities Purchases by Canadians (Jun)";"Canada";"CAD";"2018-08-17T12:30:00";"GMT";"5.40B";"";"11.29B";"Low"
"Median CPI (YoY)";"Canada";"CAD";"2018-08-17T12:30:00";"GMT";"2.0%";"";"2.0%";"Low"
"Trimmed CPI (YoY)";"Canada";"CAD";"2018-08-17T12:30:00";"GMT";"2.0%";"";"2.1%";"Low"
"CFTC CAD speculative net positions";"Canada";"CAD";"2018-08-17T19:30:00";"GMT";"-24.9K";"";"-26.2K";"Low"
