{"events": {"event": {
    "eventDateTime": "2019-07-08T19:30:00",
    "eventActual": "-10.7K",
    "eventCountry": "Switzerland",
    "eventExpectedVolatility": "Low",
    "eventName": "CFTC CHF speculative net positions",
    "eventTimeZone": "GMT",
    "eventPrevious": "-16.5K",
    "eventCurrency": "CHF",
    "eventForecast": ""
  }}}
