{"events": {"event": [
    {
      "eventDateTime": "2019-10-11T13:00:00",
      "eventActual": "12.01B",
      "eventCountry": "Russia",
      "eventExpectedVolatility": "Low",
      "eventName": "Trade Balance (Aug)",
      "eventTimeZone": "GMT",
      "eventPrevious": "10.79B",
      "eventCurrency": "RUB",
      "eventForecast": "12.00B"
    },
    {
      "eventDateTime": "2019-10-11T19:30:00",
      "eventActual": "28.4K",
      "eventCountry": "Russia",
      "eventExpectedVolatility": "Moderate",
      "eventName": "CFTC RUB speculative positions",
      "eventTimeZone": "GMT",
      "eventPrevious": "26.3K",
      "eventCurrency": "RUB",
      "eventForecast": ""
    }
  ]}}
