{"events": {"event": [
    {
      "eventDateTime": "2008-09-11T01:00:00",
      "eventActual": "4.4%",
      "eventCountry": "Australia",
      "eventExpectedVolatility": "Low",
      "eventName": "MI Inflation Expectations",
      "eventTimeZone": "GMT",
      "eventPrevious": "4.9%",
      "eventCurrency": "AUD",
      "eventForecast": ""
    },
    {
      "eventDateTime": "2008-09-11T01:30:00",
      "eventActual": "14.6K",
      "eventCountry": "Australia",
      "eventExpectedVolatility": "High",
      "eventName": "Employment Change",
      "eventTimeZone": "GMT",
      "eventPrevious": "10.9K",
      "eventCurrency": "AUD",
      "eventForecast": "5.5K"
    },
    {
      "eventDateTime": "2008-09-11T01:30:00",
      "eventActual": "4.1%",
      "eventCountry": "Australia",
      "eventExpectedVolatility": "Moderate",
      "eventName": "Unemployment Rate",
      "eventTimeZone": "GMT",
      "eventPrevious": "4.3%",
      "eventCurrency": "AUD",
      "eventForecast": "4.4%"
    }
  ]}}
