"Spanish Services PMI (Jan)";"Spain";"EUR";"2015-02-04T08:15:00";"GMT";"54.3";"54.9";"56.7";"Moderate"
"Italian Services PMI (Jan)";"Italy";"EUR";"2015-02-04T08:45:00";"GMT";"49.4";"50.0";"51.2";"Moderate"
"French Markit Composite PMI (Jan)";"France";"EUR";"2015-02-04T08:50:00";"GMT";"49.5";"49.5";"49.3";"Low"
"French Services PMI (Jan)";"France";"EUR";"2015-02-04T08:50:00";"GMT";"49.5";"49.5";"49.4";"Moderate"
"German Composite PMI (Jan)";"Germany";"EUR";"2015-02-04T08:55:00";"GMT";"52.6";"52.6";"53.5";"Low"
"German Services PMI (Jan)";"Germany";"EUR";"2015-02-04T08:55:00";"GMT";"52.7";"52.7";"54.0";"Moderate"
"Markit Composite PMI (Jan)";"Euro Zone";"EUR";"2015-02-04T09:00:00";"GMT";"52.2";"52.2";"52.6";"Moderate"
"Services PMI (Jan)";"Euro Zone";"EUR";"2015-02-04T09:00:00";"GMT";"52.3";"52.3";"52.7";"Moderate"
"Retail Sales (MoM) (Dec)";"Euro Zone";"EUR";"2015-02-04T10:00:00";"GMT";"0.7%";"0.2%";"0.3%";"Moderate"
"Retail Sales (YoY) (Dec)";"Euro Zone";"EUR";"2015-02-04T10:00:00";"GMT";"1.6%";"2.0%";"2.8%";"Low"
