{"events": {"event": {
    "eventDateTime": "2014-12-31T02:00:00",
    "eventActual": "608.2B",
    "eventCountry": "Singapore",
    "eventExpectedVolatility": "Low",
    "eventName": "Bank Lending (Nov)",
    "eventTimeZone": "GMT",
    "eventPrevious": "604.4B",
    "eventCurrency": "SGD",
    "eventForecast": ""
  }}}
