"FX Reserves, USD";"India";"INR";"2016-02-12T11:30:00";"GMT";"349.15B";"";"351.48B";"Low"
"CPI (YoY) (Jan)";"India";"INR";"2016-02-12T12:00:00";"GMT";"5.61%";"5.40%";"5.69%";"Moderate"
"Cumulative Industrial Production (Dec)";"India";"INR";"2016-02-12T12:00:00";"GMT";"3.90%";"";"3.10%";"Low"
"Industrial Production (YoY) (Dec)";"India";"INR";"2016-02-12T12:00:00";"GMT";"-3.2%";"-0.1%";"-1.3%";"Low"
"Manufacturing Output (MoM) (Dec)";"India";"INR";"2016-02-12T12:00:00";"GMT";"-4.4%";"";"-2.4%";"Low"
