{"events": {"event": [
    {
      "eventDateTime": "2014-03-13T12:00:00",
      "eventActual": "0.4%",
      "eventCountry": "Brazil",
      "eventExpectedVolatility": "Moderate",
      "eventName": "Retail Sales (MoM)",
      "eventTimeZone": "GMT",
      "eventPrevious": "-0.2%",
      "eventCurrency": "BRL",
      "eventForecast": "-0.3%"
    },
    {
      "eventDateTime": "2014-03-13T12:00:00",
      "eventActual": "6.2%",
      "eventCountry": "Brazil",
      "eventExpectedVolatility": "Moderate",
      "eventName": "Retail Sales (YoY)",
      "eventTimeZone": "GMT",
      "eventPrevious": "3.9%",
      "eventCurrency": "BRL",
      "eventForecast": "4.6%"
    }
  ]}}
