{"events": {"event": {
    "eventDateTime": "2011-12-14T06:30:00",
    "eventActual": "9.10%",
    "eventCountry": "India",
    "eventExpectedVolatility": "Moderate",
    "eventName": "WPI Inflation (YoY)",
    "eventTimeZone": "GMT",
    "eventPrevious": "9.70%",
    "eventCurrency": "INR",
    "eventForecast": "9.50%"
  }}}
