{"events": {"event": {
    "eventDateTime": "2009-09-16T12:30:00",
    "eventActual": "5.50%",
    "eventCountry": "Canada",
    "eventExpectedVolatility": "Moderate",
    "eventName": "Manufacturing Sales (MoM)",
    "eventTimeZone": "GMT",
    "eventPrevious": "2.20%",
    "eventCurrency": "CAD",
    "eventForecast": "2.30%"
  }}}
