{"events": {"event": {
    "eventDateTime": "2019-02-07T10:00:00",
    "eventActual": "0.07%",
    "eventCountry": "Brazil",
    "eventExpectedVolatility": "Low",
    "eventName": "IGP-DI Inflation Index (MoM) (Jan)",
    "eventTimeZone": "GMT",
    "eventPrevious": "-0.45%",
    "eventCurrency": "BRL",
    "eventForecast": ""
  }}}
