"All Industries Activity Index (MoM)";"Japan";"JPY";"2014-02-19T04:30:00";"GMT";"0.4%";"0.2%";"-0.1%";"Low"
"BoJ Monthly Report";"Japan";"JPY";"2014-02-19T05:00:00";"GMT";" ";"";"";"Moderate"
"Adjusted Trade Balance";"Japan";"JPY";"2014-02-19T23:50:00";"GMT";"-1.26T";"-1.56T";"-1.82T";"Moderate"
"Exports (YoY)";"Japan";"JPY";"2014-02-19T23:50:00";"GMT";"15.3%";"12.6%";"9.5%";"Moderate"
"Foreign Bonds Buying";"Japan";"JPY";"2014-02-19T23:50:00";"GMT";"-613.0B";"";"501.5B";"Low"
"Imports (YoY)";"Japan";"JPY";"2014-02-19T23:50:00";"GMT";"24.7%";"21.8%";"25.0%";"Low"
"Trade Balance";"Japan";"JPY";"2014-02-19T23:50:00";"GMT";"-1,302B";"-2,489B";"-2,790B";"Moderate"
