{"events": {"event": [
    {
      "eventDateTime": "2014-09-24T11:00:00",
      "eventActual": "103.0",
      "eventCountry": "Brazil",
      "eventExpectedVolatility": "Low",
      "eventName": "FGV Consumer confidence (Sep)",
      "eventTimeZone": "GMT",
      "eventPrevious": "102.3",
      "eventCurrency": "BRL",
      "eventForecast": "101.0"
    },
    {
      "eventDateTime": "2014-09-24T13:30:00",
      "eventActual": "-5.49B",
      "eventCountry": "Brazil",
      "eventExpectedVolatility": "Low",
      "eventName": "Current Account (USD) (Aug)",
      "eventTimeZone": "GMT",
      "eventPrevious": "-6.02B",
      "eventCurrency": "BRL",
      "eventForecast": "-5.30B"
    },
    {
      "eventDateTime": "2014-09-24T13:30:00",
      "eventActual": "6.84B",
      "eventCountry": "Brazil",
      "eventExpectedVolatility": "Low",
      "eventName": "Foreign direct investment (USD) (Aug)",
      "eventTimeZone": "GMT",
      "eventPrevious": "5.90B",
      "eventCurrency": "BRL",
      "eventForecast": "4.45B"
    },
    {
      "eventDateTime": "2014-09-24T15:30:00",
      "eventActual": "3.43B",
      "eventCountry": "Brazil",
      "eventExpectedVolatility": "Low",
      "eventName": "Foreign Exchange Flows",
      "eventTimeZone": "GMT",
      "eventPrevious": "2.25B",
      "eventCurrency": "BRL",
      "eventForecast": ""
    }
  ]}}
