"MBA 30-Year Mortgage Rate";"United States";"USD";"2015-07-01T11:00:00";"GMT";"4.19%";"";"4.26%";"Low"
"MBA Mortgage Applications (WoW)";"United States";"USD";"2015-07-01T11:00:00";"GMT";"1.6%";"";"-4.7%";"Low"
"MBA Purchase Index";"United States";"USD";"2015-07-01T11:00:00";"GMT";"207.8";"";"199.2";"Low"
"Mortgage Market Index";"United States";"USD";"2015-07-01T11:00:00";"GMT";"384.5";"";"366.5";"Low"
"Mortgage Refinance Index";"United States";"USD";"2015-07-01T11:00:00";"GMT";"1,379.9";"";"1,307.7";"Low"
"Challenger Job Cuts (Jun)";"United States";"USD";"2015-07-01T11:30:00";"GMT";"41.0K";"";"44.8K";"Low"
"Challenger Job Cuts (YoY)";"United States";"USD";"2015-07-01T11:30:00";"GMT";"-22.5%";"";"42.7%";"Low"
"ADP Nonfarm Employment Change (Jun)";"United States";"USD";"2015-07-01T12:15:00";"GMT";"203K";"218K";"237K";"High"
"Manufacturing PMI (Jun)";"United States";"USD";"2015-07-01T13:45:00";"GMT";"53.4";"53.4";"53.6";"Moderate"
"Construction Spending (MoM) (May)";"United States";"USD";"2015-07-01T14:00:00";"GMT";"2.1%";"0.5%";"0.8%";"Low"
"ISM Manufacturing Employment (Jun)";"United States";"USD";"2015-07-01T14:00:00";"GMT";"51.7";"52.0";"55.5";"Moderate"
"ISM Manufacturing New Orders Index (Jun)";"United States";"USD";"2015-07-01T14:00:00";"GMT";"55.8";"";"56.0";"Low"
"ISM Manufacturing PMI (Jun)";"United States";"USD";"2015-07-01T14:00:00";"GMT";"52.8";"53.1";"53.5";"High"
"ISM Manufacturing Prices (Jun)";"United States";"USD";"2015-07-01T14:00:00";"GMT";"49.5";"51.0";"49.5";"Low"
"Crude Oil Inventories";"United States";"USD";"2015-07-01T14:30:00";"GMT";"-4.934M";"-2.000M";"2.386M";"High"
"EIA Weekly Distillates Stocks";"United States";"USD";"2015-07-01T14:30:00";"GMT";"1.837M";"1.620M";"0.392M";"Low"
"Gasoline Inventories";"United States";"USD";"2015-07-01T14:30:00";"GMT";"0.680M";"0.458M";"-1.757M";"Low"
"All Car Sales";"United States";"USD";"2015-07-01T19:30:00";"GMT";"8.11M";"";"7.78M";"Low"
"All Truck Sales (Jun)";"United States";"USD";"2015-07-01T19:30:00";"GMT";"9.68M";"";"9.37M";"Low"
"Domestic Car Sales";"United States";"USD";"2015-07-01T19:30:00";"GMT";"5.87M";"";"5.61M";"Low"
"Domestic Truck Sales (Jun)";"United States";"USD";"2015-07-01T19:30:00";"GMT";"8.36M";"8.10M";"8.01M";"Low"
"Total Vehicle Sales";"United States";"USD";"2015-07-01T19:30:00";"GMT";"17.79M";"17.20M";"17.16M";"Low"
