"Manufacturing PMI";"United Kingdom";"GBP";"2011-04-01T08:30:00";"GMT";"60.9";"60.9";"57.1";"High"
"Average Earnings ex Bonus (Mar)";"United Kingdom";"GBP";"2011-04-01T09:00:00";"GMT";"2.20%";"";"2.10%";"Low"
"BoE Consumer Credit (Mar)";"United Kingdom";"GBP";"2011-04-01T09:00:00";"GMT";"-0.04B";"";"-0.26B";"Low"
"BoE QE Total (Mar)";"United Kingdom";"GBP";"2011-04-01T09:00:00";"GMT";"200.00B";"";"200.00B";"Moderate"
"CPI (MoM) (Mar)";"United Kingdom";"GBP";"2011-04-01T09:00:00";"GMT";"0.70%";"";"0.30%";"Moderate"
"Core PPI Output (MoM) (Mar)";"United Kingdom";"GBP";"2011-04-01T09:00:00";"GMT";"0.20%";"";"0.40%";"Low"
"Core PPI Output (YoY) (Mar)";"United Kingdom";"GBP";"2011-04-01T09:00:00";"GMT";"2.50%";"";"2.50%";"Low"
"Core RPI (MoM) (Mar)";"United Kingdom";"GBP";"2011-04-01T09:00:00";"GMT";"1.00%";"";"0.50%";"Low"
"Core RPI (YoY) (Mar)";"United Kingdom";"GBP";"2011-04-01T09:00:00";"GMT";"5.50%";"";"5.40%";"Low"
"Core Retail Sales (MoM) (Mar)";"United Kingdom";"GBP";"2011-04-01T09:00:00";"GMT";"-1.00%";"";"-0.20%";"Moderate"
"Core Retail Sales (YoY) (Mar)";"United Kingdom";"GBP";"2011-04-01T09:00:00";"GMT";"-0.70%";"";"-0.60%";"Moderate"
"Halifax House Price Index (YoY) (Mar)";"United Kingdom";"GBP";"2011-04-01T09:00:00";"GMT";"-2.80%";"";"-2.90%";"Moderate"
"Industrial Production (YoY) (Mar)";"United Kingdom";"GBP";"2011-04-01T09:00:00";"GMT";"1.20%";"";"-0.70%";"Low"
"Manufacturing Production (YoY) (Mar)";"United Kingdom";"GBP";"2011-04-01T09:00:00";"GMT";"4.90%";"";"2.60%";"Low"
"Mortgage Lending (Mar)";"United Kingdom";"GBP";"2011-04-01T09:00:00";"GMT";"0.39B";"";"0.36B";"Low"
"Nationwide HPI (YoY) (Mar)";"United Kingdom";"GBP";"2011-04-01T09:00:00";"GMT";"-0.10%";"";"0.10%";"Moderate"
"PPI Input (YoY) (Mar)";"United Kingdom";"GBP";"2011-04-01T09:00:00";"GMT";"13.90%";"";"13.50%";"Low"
"PPI Output (YoY) (Mar)";"United Kingdom";"GBP";"2011-04-01T09:00:00";"GMT";"4.40%";"";"4.70%";"Low"
"Public Sector Net Cash Requirement (Mar)";"United Kingdom";"GBP";"2011-04-01T09:00:00";"GMT";"-1.72B";"";"17.14B";"Low"
"RPI (MoM) (Mar)";"United Kingdom";"GBP";"2011-04-01T09:00:00";"GMT";"1.00%";"";"0.50%";"Low"
"Retail Sales (YoY) (Mar)";"United Kingdom";"GBP";"2011-04-01T09:00:00";"GMT";"1.30%";"";"1.30%";"Moderate"
"Trade Balance Non-EU (Mar)";"United Kingdom";"GBP";"2011-04-01T09:00:00";"GMT";"-3.23B";"";"-5.51B";"Moderate"
"CFTC GBP speculative net positions";"United Kingdom";"GBP";"2011-04-01T19:30:00";"GMT";"29.7K";"";"0.7K";"Moderate"
