"GDP (QoQ)";"United States";"USD";"2011-02-25T13:30:00";"GMT";"3.2%";"3.3%";"2.8%";"High"
"GDP Price Index (QoQ)";"United States";"USD";"2011-02-25T13:30:00";"GMT";"0.3%";"0.3%";"0.4%";"Moderate"
"Michigan Consumer Sentiment";"United States";"USD";"2011-02-25T14:55:00";"GMT";"75.1";"75.1";"77.5";"Moderate"
"Michigan Inflation Expectations";"United States";"USD";"2011-02-25T14:55:00";"GMT";"3.4%";"";"3.4%";"Low"
"U.S. Baker Hughes Oil Rig Count";"United States";"USD";"2011-02-25T17:00:00";"GMT";"798";"";"783";"Moderate"
"CFTC Crude Oil speculative net positions";"United States";"USD";"2011-02-25T20:30:00";"GMT";"165.5k";"";"219.0k";"Moderate"
"CFTC Gold speculative net positions";"United States";"USD";"2011-02-25T20:30:00";"GMT";"172.8K";"";"180.4K";"Moderate"
"CFTC Silver speculative net positions";"United States";"USD";"2011-02-25T20:30:00";"GMT";"40.9K";"";"39.2K";"Low"
