{"events": {"event": [
    {
      "eventDateTime": "2011-11-08T06:45:00",
      "eventActual": "-24",
      "eventCountry": "Switzerland",
      "eventExpectedVolatility": "Moderate",
      "eventName": "SECO Consumer Climate",
      "eventTimeZone": "GMT",
      "eventPrevious": "-17",
      "eventCurrency": "CHF",
      "eventForecast": "-21"
    },
    {
      "eventDateTime": "2011-11-08T09:40:00",
      "eventActual": "",
      "eventCountry": "Switzerland",
      "eventExpectedVolatility": "Moderate",
      "eventName": "SNB Board Member Jordan Speaks",
      "eventTimeZone": "GMT",
      "eventPrevious": "",
      "eventCurrency": "CHF",
      "eventForecast": ""
    },
    {
      "eventDateTime": "2011-11-08T13:30:00",
      "eventActual": "",
      "eventCountry": "Switzerland",
      "eventExpectedVolatility": "Moderate",
      "eventName": "SNB Chairman Hildebrand Speaks",
      "eventTimeZone": "GMT",
      "eventPrevious": "",
      "eventCurrency": "CHF",
      "eventForecast": ""
    }
  ]}}
