{"events": {"event": [
    {
      "eventDateTime": "2015-07-22T12:00:00",
      "eventActual": "0.59%",
      "eventCountry": "Brazil",
      "eventExpectedVolatility": "Low",
      "eventName": "Mid-Month CPI (MoM) (Jul)",
      "eventTimeZone": "GMT",
      "eventPrevious": "0.99%",
      "eventCurrency": "BRL",
      "eventForecast": "0.59%"
    },
    {
      "eventDateTime": "2015-07-22T12:00:00",
      "eventActual": "9.25%",
      "eventCountry": "Brazil",
      "eventExpectedVolatility": "Low",
      "eventName": "Mid-Month CPI (YoY) (Jul)",
      "eventTimeZone": "GMT",
      "eventPrevious": "8.80%",
      "eventCurrency": "BRL",
      "eventForecast": "9.25%"
    },
    {
      "eventDateTime": "2015-07-22T13:30:00",
      "eventActual": "-2.55B",
      "eventCountry": "Brazil",
      "eventExpectedVolatility": "Low",
      "eventName": "Current Account (USD) (Jun)",
      "eventTimeZone": "GMT",
      "eventPrevious": "-3.37B",
      "eventCurrency": "BRL",
      "eventForecast": "-2.29B"
    },
    {
      "eventDateTime": "2015-07-22T13:30:00",
      "eventActual": "5.40B",
      "eventCountry": "Brazil",
      "eventExpectedVolatility": "Low",
      "eventName": "Foreign direct investment (USD) (Jun)",
      "eventTimeZone": "GMT",
      "eventPrevious": "6.61B",
      "eventCurrency": "BRL",
      "eventForecast": "4.50B"
    },
    {
      "eventDateTime": "2015-07-22T15:30:00",
      "eventActual": "-2.36B",
      "eventCountry": "Brazil",
      "eventExpectedVolatility": "Low",
      "eventName": "Foreign Exchange Flows",
      "eventTimeZone": "GMT",
      "eventPrevious": "-1.26B",
      "eventCurrency": "BRL",
      "eventForecast": ""
    }
  ]}}
