"Mid-Month CPI (MoM) (Jul)";"Brazil";"BRL";"2015-07-22T12:00:00";"GMT";"0.99%";"0.59%";"0.59%";"Low"
"Mid-Month CPI (YoY) (Jul)";"Brazil";"BRL";"2015-07-22T12:00:00";"GMT";"8.80%";"9.25%";"9.25%";"Low"
"Current Account (USD) (Jun)";"Brazil";"BRL";"2015-07-22T13:30:00";"GMT";"-3.37B";"-2.29B";"-2.55B";"Low"
"Foreign direct investment (USD) (Jun)";"Brazil";"BRL";"2015-07-22T13:30:00";"GMT";"6.61B";"4.50B";"5.40B";"Low"
"Foreign Exchange Flows";"Brazil";"BRL";"2015-07-22T15:30:00";"GMT";"-1.26B";"";"-2.36B";"Low"
