{"events": {"event": {
    "eventDateTime": "2011-05-10T01:30:00",
    "eventActual": "1.74B",
    "eventCountry": "Australia",
    "eventExpectedVolatility": "Moderate",
    "eventName": "Trade Balance",
    "eventTimeZone": "GMT",
    "eventPrevious": "-0.09B",
    "eventCurrency": "AUD",
    "eventForecast": "0.53B"
  }}}
