{"events": {"event": [
    {
      "eventDateTime": "2017-07-27T08:30:00",
      "eventActual": "11.1%",
      "eventCountry": "Hong Kong",
      "eventExpectedVolatility": "Low",
      "eventName": "Exports (MoM) (Jun)",
      "eventTimeZone": "GMT",
      "eventPrevious": "4.0%",
      "eventCurrency": "HKD",
      "eventForecast": ""
    },
    {
      "eventDateTime": "2017-07-27T08:30:00",
      "eventActual": "10.4%",
      "eventCountry": "Hong Kong",
      "eventExpectedVolatility": "Low",
      "eventName": "Imports (MoM) (Jun)",
      "eventTimeZone": "GMT",
      "eventPrevious": "6.6%",
      "eventCurrency": "HKD",
      "eventForecast": ""
    },
    {
      "eventDateTime": "2017-07-27T08:30:00",
      "eventActual": "-48.3B",
      "eventCountry": "Hong Kong",
      "eventExpectedVolatility": "Low",
      "eventName": "Trade Balance",
      "eventTimeZone": "GMT",
      "eventPrevious": "-35.7B",
      "eventCurrency": "HKD",
      "eventForecast": ""
    }
  ]}}
