"CPI (MoM)";"United States";"USD";"2010-03-18T12:30:00";"GMT";"0.2%";"0.1%";"0.0%";"Moderate"
"Core CPI (MoM)";"United States";"USD";"2010-03-18T12:30:00";"GMT";"-0.1%";"0.1%";"0.1%";"High"
"Current Account";"United States";"USD";"2010-03-18T12:30:00";"GMT";"-102.0B";"-120.0B";"-116.0B";"Moderate"
"Initial Jobless Claims";"United States";"USD";"2010-03-18T12:30:00";"GMT";"462K";"455K";"457K";"Moderate"
"Philadelphia Fed Manufacturing Index";"United States";"USD";"2010-03-18T14:00:00";"GMT";"17.6";"18.0";"18.9";"High"
"Natural Gas Storage";"United States";"USD";"2010-03-18T14:30:00";"GMT";"-111B";"";"-11B";"Low"
