{"events": {"event": [
    {
      "eventDateTime": "2008-06-01T09:00:00",
      "eventActual": "0.80%",
      "eventCountry": "South Korea",
      "eventExpectedVolatility": "Low",
      "eventName": "CPI (MoM) (May)",
      "eventTimeZone": "GMT",
      "eventPrevious": "0.60%",
      "eventCurrency": "KRW",
      "eventForecast": ""
    },
    {
      "eventDateTime": "2008-06-01T09:00:00",
      "eventActual": "4.90%",
      "eventCountry": "South Korea",
      "eventExpectedVolatility": "Moderate",
      "eventName": "CPI (YoY) (May)",
      "eventTimeZone": "GMT",
      "eventPrevious": "4.10%",
      "eventCurrency": "KRW",
      "eventForecast": ""
    },
    {
      "eventDateTime": "2008-06-01T09:00:00",
      "eventActual": "-1.26B",
      "eventCountry": "South Korea",
      "eventExpectedVolatility": "Low",
      "eventName": "Current Account (May)",
      "eventTimeZone": "GMT",
      "eventPrevious": "0.74B",
      "eventCurrency": "KRW",
      "eventForecast": ""
    },
    {
      "eventDateTime": "2008-06-01T09:00:00",
      "eventActual": "23.90%",
      "eventCountry": "South Korea",
      "eventExpectedVolatility": "Low",
      "eventName": "Export Price Index (YoY) (May)",
      "eventTimeZone": "GMT",
      "eventPrevious": "15.70%",
      "eventCurrency": "KRW",
      "eventForecast": ""
    },
    {
      "eventDateTime": "2008-06-01T09:00:00",
      "eventActual": "26.90%",
      "eventCountry": "South Korea",
      "eventExpectedVolatility": "Low",
      "eventName": "Exports (YoY) (May)",
      "eventTimeZone": "GMT",
      "eventPrevious": "26.40%",
      "eventCurrency": "KRW",
      "eventForecast": ""
    },
    {
      "eventDateTime": "2008-06-01T09:00:00",
      "eventActual": "258.20B",
      "eventCountry": "South Korea",
      "eventExpectedVolatility": "Low",
      "eventName": "FX Reserves - USD (May)",
      "eventTimeZone": "GMT",
      "eventPrevious": "260.48B",
      "eventCurrency": "KRW",
      "eventForecast": ""
    },
    {
      "eventDateTime": "2008-06-01T09:00:00",
      "eventActual": "44.60%",
      "eventCountry": "South Korea",
      "eventExpectedVolatility": "Low",
      "eventName": "Import Price Index (YoY) (May)",
      "eventTimeZone": "GMT",
      "eventPrevious": "31.30%",
      "eventCurrency": "KRW",
      "eventForecast": ""
    },
    {
      "eventDateTime": "2008-06-01T09:00:00",
      "eventActual": "29.60%",
      "eventCountry": "South Korea",
      "eventExpectedVolatility": "Low",
      "eventName": "Imports (YoY) (May)",
      "eventTimeZone": "GMT",
      "eventPrevious": "29.30%",
      "eventCurrency": "KRW",
      "eventForecast": ""
    },
    {
      "eventDateTime": "2008-06-01T09:00:00",
      "eventActual": "-0.60%",
      "eventCountry": "South Korea",
      "eventExpectedVolatility": "Low",
      "eventName": "Industrial Production (MoM) (May)",
      "eventTimeZone": "GMT",
      "eventPrevious": "0.70%",
      "eventCurrency": "KRW",
      "eventForecast": ""
    },
    {
      "eventDateTime": "2008-06-01T09:00:00",
      "eventActual": "9.20%",
      "eventCountry": "South Korea",
      "eventExpectedVolatility": "Low",
      "eventName": "Industrial Production (YoY) (May)",
      "eventTimeZone": "GMT",
      "eventPrevious": "11.20%",
      "eventCurrency": "KRW",
      "eventForecast": ""
    },
    {
      "eventDateTime": "2008-06-01T09:00:00",
      "eventActual": "5.00%",
      "eventCountry": "South Korea",
      "eventExpectedVolatility": "Low",
      "eventName": "Interest Rate Decision (May)",
      "eventTimeZone": "GMT",
      "eventPrevious": "5.00%",
      "eventCurrency": "KRW",
      "eventForecast": ""
    },
    {
      "eventDateTime": "2008-06-01T09:00:00",
      "eventActual": "14.40%",
      "eventCountry": "South Korea",
      "eventExpectedVolatility": "Low",
      "eventName": "M2 Money supply (May)",
      "eventTimeZone": "GMT",
      "eventPrevious": "14.50%",
      "eventCurrency": "KRW",
      "eventForecast": ""
    },
    {
      "eventDateTime": "2008-06-01T09:00:00",
      "eventActual": "88.00",
      "eventCountry": "South Korea",
      "eventExpectedVolatility": "Low",
      "eventName": "Manufacturing BSI Index (May)",
      "eventTimeZone": "GMT",
      "eventPrevious": "86.00",
      "eventCurrency": "KRW",
      "eventForecast": ""
    },
    {
      "eventDateTime": "2008-06-01T09:00:00",
      "eventActual": "2.00%",
      "eventCountry": "South Korea",
      "eventExpectedVolatility": "Low",
      "eventName": "PPI (MoM) (May)",
      "eventTimeZone": "GMT",
      "eventPrevious": "2.10%",
      "eventCurrency": "KRW",
      "eventForecast": ""
    },
    {
      "eventDateTime": "2008-06-01T09:00:00",
      "eventActual": "9.00%",
      "eventCountry": "South Korea",
      "eventExpectedVolatility": "Low",
      "eventName": "PPI (YoY) (May)",
      "eventTimeZone": "GMT",
      "eventPrevious": "7.50%",
      "eventCurrency": "KRW",
      "eventForecast": ""
    },
    {
      "eventDateTime": "2008-06-01T09:00:00",
      "eventActual": "-0.20%",
      "eventCountry": "South Korea",
      "eventExpectedVolatility": "Low",
      "eventName": "Service Sector Output (MoM) (May)",
      "eventTimeZone": "GMT",
      "eventPrevious": "0.00%",
      "eventCurrency": "KRW",
      "eventForecast": ""
    },
    {
      "eventDateTime": "2008-06-01T09:00:00",
      "eventActual": "0.00B",
      "eventCountry": "South Korea",
      "eventExpectedVolatility": "Low",
      "eventName": "Trade Balance (May)",
      "eventTimeZone": "GMT",
      "eventPrevious": "-0.41B",
      "eventCurrency": "KRW",
      "eventForecast": ""
    },
    {
      "eventDateTime": "2008-06-01T09:00:00",
      "eventActual": "3.20%",
      "eventCountry": "South Korea",
      "eventExpectedVolatility": "Low",
      "eventName": "Unemployment Rate (May)",
      "eventTimeZone": "GMT",
      "eventPrevious": "3.10%",
      "eventCurrency": "KRW",
      "eventForecast": ""
    }
  ]}}
