{"events": {"event": [
    {
      "eventDateTime": "2017-01-20T05:00:00",
      "eventActual": "18",
      "eventCountry": "Japan",
      "eventExpectedVolatility": "Low",
      "eventName": "Reuters Tankan Index (Jan)",
      "eventTimeZone": "GMT",
      "eventPrevious": "16",
      "eventCurrency": "JPY",
      "eventForecast": ""
    },
    {
      "eventDateTime": "2017-01-20T20:30:00",
      "eventActual": "-77.8K",
      "eventCountry": "Japan",
      "eventExpectedVolatility": "Moderate",
      "eventName": "CFTC JPY speculative net positions",
      "eventTimeZone": "GMT",
      "eventPrevious": "-79.8K",
      "eventCurrency": "JPY",
      "eventForecast": ""
    }
  ]}}
