{"events": {"event": [
    {
      "eventDateTime": "2010-06-07T08:30:00",
      "eventActual": "-4.1",
      "eventCountry": "Euro Zone",
      "eventExpectedVolatility": "Low",
      "eventName": "Sentix Investor Confidence",
      "eventTimeZone": "GMT",
      "eventPrevious": "-6.4",
      "eventCurrency": "EUR",
      "eventForecast": "-5.2"
    },
    {
      "eventDateTime": "2010-06-07T10:00:00",
      "eventActual": "2.8%",
      "eventCountry": "Germany",
      "eventExpectedVolatility": "Moderate",
      "eventName": "German Factory Orders (MoM)",
      "eventTimeZone": "GMT",
      "eventPrevious": "5.1%",
      "eventCurrency": "EUR",
      "eventForecast": "-0.1%"
    }
  ]}}
