{"events": {"event": {
    "eventDateTime": "2010-08-15T23:01:00",
    "eventActual": "-1.7%",
    "eventCountry": "United Kingdom",
    "eventExpectedVolatility": "Low",
    "eventName": "Rightmove House Price Index (MoM)",
    "eventTimeZone": "GMT",
    "eventPrevious": "-0.6%",
    "eventCurrency": "GBP",
    "eventForecast": ""
  }}}
