{"events": {"event": {
    "eventDateTime": "2013-11-13T03:00:00",
    "eventActual": "6.70%",
    "eventCountry": "South Korea",
    "eventExpectedVolatility": "Low",
    "eventName": "M2 Money supply",
    "eventTimeZone": "GMT",
    "eventPrevious": "7.30%",
    "eventCurrency": "KRW",
    "eventForecast": ""
  }}}
