{"events": {"event": {
    "eventDateTime": "2017-12-29T20:30:00",
    "eventActual": "-13.9K",
    "eventCountry": "Switzerland",
    "eventExpectedVolatility": "Low",
    "eventName": "CFTC CHF speculative net positions",
    "eventTimeZone": "GMT",
    "eventPrevious": "-17.4K",
    "eventCurrency": "CHF",
    "eventForecast": ""
  }}}
