"Investing.com EUR/USD Index";"Euro Zone";"EUR";"2015-12-29T07:30:00";"GMT";"33.3%";"";"24.0%";"Moderate"
"Spanish Retail Sales (YoY) (Nov)";"Spain";"EUR";"2015-12-29T08:00:00";"GMT";"6.0%";"4.6%";"3.3%";"Low"
"Italian Business Confidence (Dec)";"Italy";"EUR";"2015-12-29T09:00:00";"GMT";"104.4";"104.2";"104.1";"Low"
"Italian Consumer Confidence (Dec)";"Italy";"EUR";"2015-12-29T09:00:00";"GMT";"118.4";"117.0";"117.6";"Low"
"Italian 6-Month BOT Auction";"Italy";"EUR";"2015-12-29T10:10:00";"GMT";"-0.112%";"";"-0.038%";"Low"
