"10-Year Note Auction (Aug)";"United States";"USD";"2005-09-01T09:00:00";"GMT";"4.13%";"";"4.25%";"Moderate"
"5-Year Note Auction (Aug)";"United States";"USD";"2005-09-01T09:00:00";"GMT";"3.88%";"";"4.13%";"Low"
"All Car Sales (Aug)";"United States";"USD";"2005-09-01T09:00:00";"GMT";"8.02M";"";"7.80M";"Low"
"All Truck Sales (Aug)";"United States";"USD";"2005-09-01T09:00:00";"GMT";"12.59M";"";"9.12M";"Low"
"Business Inventories (MoM) (Aug)";"United States";"USD";"2005-09-01T09:00:00";"GMT";"-0.40%";"";"0.30%";"Moderate"
"CB Consumer Confidence (Aug)";"United States";"USD";"2005-09-01T09:00:00";"GMT";"103.60";"";"105.50";"High"
"CB Employment Trends Index (Aug)";"United States";"USD";"2005-09-01T09:00:00";"GMT";"122.70";"";"123.40";"Low"
"CPI (MoM) (Aug)";"United States";"USD";"2005-09-01T09:00:00";"GMT";"0.60%";"";"0.60%";"Moderate"
"CPI (YoY) (Aug)";"United States";"USD";"2005-09-01T09:00:00";"GMT";"3.20%";"";"3.60%";"Low"
"CPI Index, n.s.a. (Aug)";"United States";"USD";"2005-09-01T09:00:00";"GMT";"195.40";"";"196.40";"Low"
"Capacity Utilization Rate (Aug)";"United States";"USD";"2005-09-01T09:00:00";"GMT";"80.10%";"";"80.10%";"Low"
"Chain Store Sales (MoM) (Aug)";"United States";"USD";"2005-09-01T09:00:00";"GMT";"3.60%";"";"3.70%";"Low"
"Chain Store Sales (WoW) (Aug)";"United States";"USD";"2005-09-01T09:00:00";"GMT";"0.43%";"";"-0.35%";"Low"
"Chain Store Sales (YoY) (Aug)";"United States";"USD";"2005-09-01T09:00:00";"GMT";"4.23%";"";"4.04%";"Low"
"Challenger Job Cuts (Aug)";"United States";"USD";"2005-09-01T09:00:00";"GMT";"102.97K";"";"70.57K";"Low"
"Chicago Fed National Activity (Aug)";"United States";"USD";"2005-09-01T09:00:00";"GMT";"-0.01";"";"0.26";"Low"
"Chicago PMI (Aug)";"United States";"USD";"2005-09-01T09:00:00";"GMT";"61.20";"";"52.30";"Moderate"
"Cleveland CPI (MoM) (Aug)";"United States";"USD";"2005-09-01T09:00:00";"GMT";"0.20%";"";"0.20%";"Low"
"Construction Spending (MoM) (Aug)";"United States";"USD";"2005-09-01T09:00:00";"GMT";"1.90%";"";"0.90%";"Low"
"Consumer Credit (Aug)";"United States";"USD";"2005-09-01T09:00:00";"GMT";"9.40B";"";"9.81B";"Low"
"Continuing Jobless Claims (Aug)";"United States";"USD";"2005-09-01T09:00:00";"GMT";"2,592.00K";"";"2,580.00K";"Low"
"Core CPI (MoM) (Aug)";"United States";"USD";"2005-09-01T09:00:00";"GMT";"0.10%";"";"0.10%";"High"
"Core CPI (YoY) (Aug)";"United States";"USD";"2005-09-01T09:00:00";"GMT";"2.10%";"";"2.10%";"Moderate"
"Core CPI Index (Aug)";"United States";"USD";"2005-09-01T09:00:00";"GMT";"200.90";"";"201.10";"Low"
"Core PCE Price Index (MoM) (Aug)";"United States";"USD";"2005-09-01T09:00:00";"GMT";"0.10%";"";"0.10%";"Moderate"
"Core PCE Price Index (YoY) (Aug)";"United States";"USD";"2005-09-01T09:00:00";"GMT";"2.00%";"";"2.10%";"Moderate"
"Core Retail Sales (MoM) (Aug)";"United States";"USD";"2005-09-01T09:00:00";"GMT";"0.20%";"";"1.60%";"High"
"Crude Oil Inventories (Aug)";"United States";"USD";"2005-09-01T09:00:00";"GMT";"-1.80M";"";"-0.11M";"High"
"Dallas Fed Mfg Business Index (Aug)";"United States";"USD";"2005-09-01T09:00:00";"GMT";"30.20";"";"23.80";"Low"
"Dallas Fed PCE (Aug)";"United States";"USD";"2005-09-01T09:00:00";"GMT";"2.70%";"";"2.10%";"Low"
"Domestic Truck Sales (Aug)";"United States";"USD";"2005-09-01T09:00:00";"GMT";"11.25M";"";"7.89M";"Low"
"Durables Excluding Defense (MoM) (Aug)";"United States";"USD";"2005-09-01T09:00:00";"GMT";"-5.30%";"";"4.70%";"Low"
"EIA Weekly Distillates Stocks (Aug)";"United States";"USD";"2005-09-01T09:00:00";"GMT";"2.58M";"";"1.62M";"Low"
"Existing Home Sales (Aug)";"United States";"USD";"2005-09-01T09:00:00";"GMT";"7.14M";"";"7.23M";"High"
"Existing Home Sales (MoM) (Aug)";"United States";"USD";"2005-09-01T09:00:00";"GMT";"-0.60%";"";"1.30%";"Moderate"
"Export Price Index (MoM) (Aug)";"United States";"USD";"2005-09-01T09:00:00";"GMT";"0.10%";"";"-0.20%";"Moderate"
"Factory Orders (MoM) (Aug)";"United States";"USD";"2005-09-01T09:00:00";"GMT";"-2.40%";"";"3.20%";"Moderate"
"Factory orders ex transportation (MoM) (Aug)";"United States";"USD";"2005-09-01T09:00:00";"GMT";"-0.70%";"";"3.50%";"Low"
"Federal Budget Balance (Aug)";"United States";"USD";"2005-09-01T09:00:00";"GMT";"-53.40B";"";"-51.00B";"Moderate"
"Gasoline Inventories (Aug)";"United States";"USD";"2005-09-01T09:00:00";"GMT";"-2.45M";"";"-2.91M";"Low"
"Government Payrolls (Aug)";"United States";"USD";"2005-09-01T09:00:00";"GMT";"94.00K";"";"6.00K";"Low"
"House Price Index (Aug)";"United States";"USD";"2005-09-01T09:00:00";"GMT";"212.00";"";"213.60";"Low"
"House Price Index (MoM) (Aug)";"United States";"USD";"2005-09-01T09:00:00";"GMT";"1.00%";"";"0.80%";"Low"
"House Price Index (YoY) (Aug)";"United States";"USD";"2005-09-01T09:00:00";"GMT";"10.50%";"";"10.50%";"Low"
"Housing Starts (Aug)";"United States";"USD";"2005-09-01T09:00:00";"GMT";"2.05M";"";"2.10M";"Moderate"
"Housing Starts (MoM) (Aug)";"United States";"USD";"2005-09-01T09:00:00";"GMT";"-0.70%";"";"2.00%";"Moderate"
"ISM Manufacturing Employment (Aug)";"United States";"USD";"2005-09-01T09:00:00";"GMT";"53.20";"";"51.80";"Moderate"
"ISM Manufacturing New Orders Index (Aug)";"United States";"USD";"2005-09-01T09:00:00";"GMT";"57.20";"";"57.80";"Low"
"ISM Manufacturing PMI (Aug)";"United States";"USD";"2005-09-01T09:00:00";"GMT";"52.80";"";"52.40";"High"
"ISM Manufacturing Prices (Aug)";"United States";"USD";"2005-09-01T09:00:00";"GMT";"48.50";"";"62.50";"Low"
"ISM Non-Manufacturing Business Activity (Aug)";"United States";"USD";"2005-09-01T09:00:00";"GMT";"61.30";"";"64.80";"Low"
"ISM Non-Manufacturing Employment (Aug)";"United States";"USD";"2005-09-01T09:00:00";"GMT";"55.10";"";"60.20";"Moderate"
"ISM Non-Manufacturing New Orders (Aug)";"United States";"USD";"2005-09-01T09:00:00";"GMT";"64.40";"";"65.30";"Low"
"ISM Non-Manufacturing PMI (Aug)";"United States";"USD";"2005-09-01T09:00:00";"GMT";"59.50";"";"61.30";"High"
"ISM Non-Manufacturing Prices (Aug)";"United States";"USD";"2005-09-01T09:00:00";"GMT";"65.80";"";"66.10";"Low"
"ISM-New York Index (Aug)";"United States";"USD";"2005-09-01T09:00:00";"GMT";"322.60";"";"328.10";"Low"
"Import Price Index (MoM) (Aug)";"United States";"USD";"2005-09-01T09:00:00";"GMT";"1.20%";"";"1.40%";"Moderate"
"Industrial Production (MoM) (Aug)";"United States";"USD";"2005-09-01T09:00:00";"GMT";"-0.20%";"";"0.20%";"Moderate"
"Initial Jobless Claims (Aug)";"United States";"USD";"2005-09-01T09:00:00";"GMT";"323.90K";"";"317.09K";"Moderate"
"JOLTs Job Openings (Aug)";"United States";"USD";"2005-09-01T09:00:00";"GMT";"4.16M";"";"4.09M";"High"
"Jobless Claims 4-Week Avg. (Aug)";"United States";"USD";"2005-09-01T09:00:00";"GMT";"324.73K";"";"316.46K";"Low"
"KC Fed Composite Index (Aug)";"United States";"USD";"2005-09-01T09:00:00";"GMT";"10.00";"";"9.00";"Low"
"KC Fed Manufacturing Index (Aug)";"United States";"USD";"2005-09-01T09:00:00";"GMT";"2.00";"";"12.00";"Low"
"MBA 30-Year Mortgage Rate (Aug)";"United States";"USD";"2005-09-01T09:00:00";"GMT";"5.72%";"";"5.78%";"Low"
"MBA Purchase Index (Aug)";"United States";"USD";"2005-09-01T09:00:00";"GMT";"490.82";"";"490.56";"Low"
"Manufacturing Payrolls (Aug)";"United States";"USD";"2005-09-01T09:00:00";"GMT";"-1.00K";"";"-23.00K";"Low"
"Manufacturing Production (MoM) (Aug)";"United States";"USD";"2005-09-01T09:00:00";"GMT";"-0.20%";"";"0.30%";"Low"
"Michigan 5-Year Inflation Expectations (Aug)";"United States";"USD";"2005-09-01T09:00:00";"GMT";"2.90%";"";"2.80%";"Low"
"Michigan Consumer Expectations (Aug)";"United States";"USD";"2005-09-01T09:00:00";"GMT";"85.50";"";"81.30";"Moderate"
"Michigan Consumer Sentiment (Aug)";"United States";"USD";"2005-09-01T09:00:00";"GMT";"96.50";"";"89.10";"Moderate"
"Michigan Current Conditions (Aug)";"United States";"USD";"2005-09-01T09:00:00";"GMT";"112.00";"";"108.20";"Low"
"Michigan Inflation Expectations (Aug)";"United States";"USD";"2005-09-01T09:00:00";"GMT";"3.00%";"";"3.10%";"Low"
"Midwest Manufacturing (Aug)";"United States";"USD";"2005-09-01T09:00:00";"GMT";"96.10";"";"96.30";"Low"
"Mortgage Market Index (Aug)";"United States";"USD";"2005-09-01T09:00:00";"GMT";"778.59";"";"749.56";"Low"
"Mortgage Refinance Index (Aug)";"United States";"USD";"2005-09-01T09:00:00";"GMT";"2,452.56";"";"2,256.08";"Low"
"NAHB Housing Market Index (Aug)";"United States";"USD";"2005-09-01T09:00:00";"GMT";"70.00";"";"67.00";"Low"
"NFIB Small Business Optimism (Aug)";"United States";"USD";"2005-09-01T09:00:00";"GMT";"101.10";"";"100.90";"Low"
"NY Empire State Manufacturing Index (Aug)";"United States";"USD";"2005-09-01T09:00:00";"GMT";"23.79";"";"23.72";"Moderate"
"Natural Gas Storage (Aug)";"United States";"USD";"2005-09-01T09:00:00";"GMT";"55.76B";"";"51.00B";"Low"
"New Home Sales (Aug)";"United States";"USD";"2005-09-01T09:00:00";"GMT";"1,389.00K";"";"1,255.00K";"High"
"New Home Sales (MoM) (Aug)";"United States";"USD";"2005-09-01T09:00:00";"GMT";"9.00%";"";"-9.60%";"Moderate"
"Overall Net Capital Flow (Aug)";"United States";"USD";"2005-09-01T09:00:00";"GMT";"63.10B";"";"47.30B";"Low"
"Pending Home Sales (MoM) (Aug)";"United States";"USD";"2005-09-01T09:00:00";"GMT";"1.00%";"";"-0.60%";"High"
"Pending Home Sales Index (Aug)";"United States";"USD";"2005-09-01T09:00:00";"GMT";"127.00";"";"126.20";"Low"
"Personal Income (MoM) (Aug)";"United States";"USD";"2005-09-01T09:00:00";"GMT";"0.70%";"";"0.60%";"Low"
"Personal Spending (MoM) (Aug)";"United States";"USD";"2005-09-01T09:00:00";"GMT";"1.10%";"";"0.10%";"Moderate"
"Philadelphia Fed Manufacturing Index (Aug)";"United States";"USD";"2005-09-01T09:00:00";"GMT";"8.00";"";"11.00";"High"
"Philly Fed Business Conditions (Aug)";"United States";"USD";"2005-09-01T09:00:00";"GMT";"14.60";"";"25.00";"Low"
"Philly Fed CAPEX Index (Aug)";"United States";"USD";"2005-09-01T09:00:00";"GMT";"13.30";"";"19.60";"Low"
"Philly Fed Employment (Aug)";"United States";"USD";"2005-09-01T09:00:00";"GMT";"2.60";"";"4.70";"Moderate"
"Philly Fed New Orders (Aug)";"United States";"USD";"2005-09-01T09:00:00";"GMT";"5.50";"";"13.70";"Low"
"Philly Fed Prices Paid (Aug)";"United States";"USD";"2005-09-01T09:00:00";"GMT";"27.10";"";"26.40";"Low"
"Private Nonfarm Payrolls (Aug)";"United States";"USD";"2005-09-01T09:00:00";"GMT";"281.00K";"";"190.00K";"Moderate"
"Real Personal Consumption (MoM) (Aug)";"United States";"USD";"2005-09-01T09:00:00";"GMT";"0.60%";"";"-0.40%";"Low"
"Redbook (MoM) (Aug)";"United States";"USD";"2005-09-01T09:00:00";"GMT";"0.26%";"";"-0.76%";"Low"
"Redbook (YoY) (Aug)";"United States";"USD";"2005-09-01T09:00:00";"GMT";"4.84%";"";"3.65%";"Low"
"Retail Control (MoM) (Aug)";"United States";"USD";"2005-09-01T09:00:00";"GMT";"-0.20%";"";"0.90%";"Low"
"Retail Sales (MoM) (Aug)";"United States";"USD";"2005-09-01T09:00:00";"GMT";"1.00%";"";"-1.40%";"High"
"Retail Sales Ex Gas/Autos (MoM) (Aug)";"United States";"USD";"2005-09-01T09:00:00";"GMT";"-0.20%";"";"0.80%";"Low"
"Richmond Manufacturing Index (Aug)";"United States";"USD";"2005-09-01T09:00:00";"GMT";"-4.00";"";"1.00";"Low"
"Richmond Manufacturing Shipments (Aug)";"United States";"USD";"2005-09-01T09:00:00";"GMT";"0.00";"";"4.00";"Low"
"Richmond Services Index (Aug)";"United States";"USD";"2005-09-01T09:00:00";"GMT";"26.00";"";"21.00";"Low"
"Sandamp;P/CS HPI Composite - 20 n.s.a. (MoM) (Aug)";"United States";"USD";"2005-09-01T09:00:00";"GMT";"1.40%";"";"1.20%";"Low"
"Sandamp;P/CS HPI Composite - 20 n.s.a. (YoY) (Aug)";"United States";"USD";"2005-09-01T09:00:00";"GMT";"15.10%";"";"15.20%";"Moderate"
"Sandamp;P/CS HPI Composite - 20 s.a. (MoM) (Aug)";"United States";"USD";"2005-09-01T09:00:00";"GMT";"1.00%";"";"1.00%";"Low"
"TIC Net Long-Term Transactions (Aug)";"United States";"USD";"2005-09-01T09:00:00";"GMT";"76.80B";"";"79.60B";"Moderate"
"TIC Net Long-Term Transactions including Swaps (Aug)";"United States";"USD";"2005-09-01T09:00:00";"GMT";"62.70B";"";"64.40B";"Low"
"Trade Balance (Aug)";"United States";"USD";"2005-09-01T09:00:00";"GMT";"-58.10B";"";"-58.40B";"Moderate"
"US Foreign Buying, T-bonds (Aug)";"United States";"USD";"2005-09-01T09:00:00";"GMT";"28.70B";"";"25.60B";"Low"
"Wholesale Inventories (MoM) (Aug)";"United States";"USD";"2005-09-01T09:00:00";"GMT";"0.40%";"";"0.50%";"Low"
"ADP Nonfarm Employment Change (Aug)";"United States";"USD";"2005-09-01T12:15:00";"GMT";"204K";"";"175K";"High"
"U6 Unemployment Rate (Aug)";"United States";"USD";"2005-09-01T12:30:00";"GMT";"8.80%";"";"8.90%";"Low"
"Unemployment Rate (Aug)";"United States";"USD";"2005-09-01T12:30:00";"GMT";"5%";"";"4.9%";"High"
