{"events": {"event": [
    {
      "eventDateTime": "2012-08-15T00:30:00",
      "eventActual": "-2.50%",
      "eventCountry": "Australia",
      "eventExpectedVolatility": "Moderate",
      "eventName": "Westpac Consumer Sentiment",
      "eventTimeZone": "GMT",
      "eventPrevious": "3.70%",
      "eventCurrency": "AUD",
      "eventForecast": ""
    },
    {
      "eventDateTime": "2012-08-15T01:30:00",
      "eventActual": "1.0%",
      "eventCountry": "Australia",
      "eventExpectedVolatility": "Moderate",
      "eventName": "Wage Price Index (QoQ)",
      "eventTimeZone": "GMT",
      "eventPrevious": "0.9%",
      "eventCurrency": "AUD",
      "eventForecast": "0.8%"
    }
  ]}}
