{"events": {"event": {
    "eventDateTime": "2009-11-16T23:50:00",
    "eventActual": "-0.5%",
    "eventCountry": "Japan",
    "eventExpectedVolatility": "Moderate",
    "eventName": "Tertiary Industry Activity Index (MoM)",
    "eventTimeZone": "GMT",
    "eventPrevious": "0.3%",
    "eventCurrency": "JPY",
    "eventForecast": "0.1%"
  }}}
