{"events": {"event": [
    {
      "eventDateTime": "2013-05-22T12:30:00",
      "eventActual": "-0.2%",
      "eventCountry": "Canada",
      "eventExpectedVolatility": "High",
      "eventName": "Core Retail Sales (MoM)",
      "eventTimeZone": "GMT",
      "eventPrevious": "0.7%",
      "eventCurrency": "CAD",
      "eventForecast": "0.2%"
    },
    {
      "eventDateTime": "2013-05-22T12:30:00",
      "eventActual": "0.0%",
      "eventCountry": "Canada",
      "eventExpectedVolatility": "Moderate",
      "eventName": "Retail Sales (MoM)",
      "eventTimeZone": "GMT",
      "eventPrevious": "0.7%",
      "eventCurrency": "CAD",
      "eventForecast": "0.2%"
    }
  ]}}
