"Investing.com Gold Index";"United States";"USD";"2018-10-15T05:30:00";"GMT";"69.6%";"";"53.7%";"Moderate"
"Investing.com Sandamp:P 500 Index";"United States";"USD";"2018-10-15T05:30:00";"GMT";"63.6%";"";"67.8%";"Moderate"
"Core Retail Sales (MoM) (Sep)";"United States";"USD";"2018-10-15T12:30:00";"GMT";"0.2%";"0.4%";"-0.1%";"High"
"NY Empire State Manufacturing Index (Oct)";"United States";"USD";"2018-10-15T12:30:00";"GMT";"19.00";"20.40";"21.10";"Moderate"
"Retail Control (MoM) (Sep)";"United States";"USD";"2018-10-15T12:30:00";"GMT";"0.1%";"0.3%";"0.5%";"Low"
"Retail Sales (MoM) (Sep)";"United States";"USD";"2018-10-15T12:30:00";"GMT";"0.1%";"0.7%";"0.1%";"High"
"Retail Sales Ex Gas/Autos (MoM) (Sep)";"United States";"USD";"2018-10-15T12:30:00";"GMT";"0.1%";"";"0.0%";"Low"
"Business Inventories (MoM) (Aug)";"United States";"USD";"2018-10-15T14:00:00";"GMT";"0.7%";"0.5%";"0.5%";"Moderate"
"3-Month Bill Auction";"United States";"USD";"2018-10-15T15:30:00";"GMT";"2.220%";"";"2.270%";"Low"
"6-Month Bill Auction";"United States";"USD";"2018-10-15T15:30:00";"GMT";"2.380%";"";"2.415%";"Low"
"Federal Budget Balance";"United States";"USD";"2018-10-15T18:00:00";"GMT";"-214.0B";"71.0B";"119.0B";"Moderate"
