{"events": {"event": [
    {
      "eventDateTime": "2013-11-14T01:08:00",
      "eventActual": "2.50%",
      "eventCountry": "South Korea",
      "eventExpectedVolatility": "Low",
      "eventName": "Interest Rate Decision",
      "eventTimeZone": "GMT",
      "eventPrevious": "2.50%",
      "eventCurrency": "KRW",
      "eventForecast": "2.50%"
    },
    {
      "eventDateTime": "2013-11-14T03:03:00",
      "eventActual": "4.90B",
      "eventCountry": "South Korea",
      "eventExpectedVolatility": "Low",
      "eventName": "Trade Balance",
      "eventTimeZone": "GMT",
      "eventPrevious": "4.90B",
      "eventCurrency": "KRW",
      "eventForecast": ""
    }
  ]}}
