"CPI (MoM) (Apr)";"Canada";"CAD";"2018-05-18T12:30:00";"GMT";"0.3%";"0.4%";"0.3%";"Moderate"
"CPI (YoY) (Apr)";"Canada";"CAD";"2018-05-18T12:30:00";"GMT";"2.3%";"2.3%";"2.2%";"Low"
"Common CPI (YoY)";"Canada";"CAD";"2018-05-18T12:30:00";"GMT";"1.9%";"1.9%";"1.9%";"Low"
"Core CPI (MoM) (Apr)";"Canada";"CAD";"2018-05-18T12:30:00";"GMT";"0.2%";"";"0.1%";"High"
"Core CPI (YoY) (Apr)";"Canada";"CAD";"2018-05-18T12:30:00";"GMT";"1.4%";"1.4%";"1.5%";"Moderate"
"Core Retail Sales (MoM) (Mar)";"Canada";"CAD";"2018-05-18T12:30:00";"GMT";"0.0%";"0.5%";"-0.2%";"High"
"Median CPI (YoY)";"Canada";"CAD";"2018-05-18T12:30:00";"GMT";"2.1%";"2.1%";"2.1%";"Low"
"Retail Sales (MoM) (Mar)";"Canada";"CAD";"2018-05-18T12:30:00";"GMT";"0.5%";"0.3%";"0.6%";"Moderate"
"Trimmed CPI (YoY)";"Canada";"CAD";"2018-05-18T12:30:00";"GMT";"2.0%";"2.1%";"2.1%";"Low"
"CFTC CAD speculative net positions";"Canada";"CAD";"2018-05-18T19:30:00";"GMT";"-23.9K";"";"-23.7K";"Low"
