{"events": {"event": [
    {
      "eventDateTime": "2013-09-03T05:45:00",
      "eventActual": "0.5%",
      "eventCountry": "Switzerland",
      "eventExpectedVolatility": "Moderate",
      "eventName": "GDP (QoQ)",
      "eventTimeZone": "GMT",
      "eventPrevious": "0.6%",
      "eventCurrency": "CHF",
      "eventForecast": "0.3%"
    },
    {
      "eventDateTime": "2013-09-03T05:45:00",
      "eventActual": "2.5%",
      "eventCountry": "Switzerland",
      "eventExpectedVolatility": "Moderate",
      "eventName": "GDP (YoY)",
      "eventTimeZone": "GMT",
      "eventPrevious": "1.2%",
      "eventCurrency": "CHF",
      "eventForecast": "1.7%"
    }
  ]}}
