"ECB President Draghi Speaks";"Euro Zone";"EUR";"2012-06-15T06:50:00";"GMT";" ";"";"";"High"
"Italian Trade Balance";"Italy";"EUR";"2012-06-15T08:00:00";"GMT";"2.07B";"1.34B";"-0.20B";"Low"
"Employment Change (QoQ)";"Euro Zone";"EUR";"2012-06-15T09:00:00";"GMT";"-0.3%";"-0.2%";"-0.2%";"Low"
"Trade Balance";"Euro Zone";"EUR";"2012-06-15T09:00:00";"GMT";"3.7B";"4.2B";"6.2B";"Moderate"
"CFTC EUR speculative net positions";"Euro Zone";"EUR";"2012-06-15T19:30:00";"GMT";"-214.4K";"";"-195.2K";"Moderate"
