{"events": {"event": [
    {
      "eventDateTime": "2010-08-05T12:30:00",
      "eventActual": "479K",
      "eventCountry": "United States",
      "eventExpectedVolatility": "Moderate",
      "eventName": "Initial Jobless Claims",
      "eventTimeZone": "GMT",
      "eventPrevious": "460K",
      "eventCurrency": "USD",
      "eventForecast": "455K"
    },
    {
      "eventDateTime": "2010-08-05T14:30:00",
      "eventActual": "29B",
      "eventCountry": "United States",
      "eventExpectedVolatility": "Low",
      "eventName": "Natural Gas Storage",
      "eventTimeZone": "GMT",
      "eventPrevious": "28B",
      "eventCurrency": "USD",
      "eventForecast": ""
    }
  ]}}
