{"events": {"event": [
    {
      "eventDateTime": "2015-01-13T07:00:00",
      "eventActual": "-1.0%",
      "eventCountry": "Germany",
      "eventExpectedVolatility": "Low",
      "eventName": "German WPI (MoM) (Dec)",
      "eventTimeZone": "GMT",
      "eventPrevious": "-0.7%",
      "eventCurrency": "EUR",
      "eventForecast": "0.2%"
    },
    {
      "eventDateTime": "2015-01-13T07:00:00",
      "eventActual": "-2.3%",
      "eventCountry": "Germany",
      "eventExpectedVolatility": "Low",
      "eventName": "German WPI (YoY) (Dec)",
      "eventTimeZone": "GMT",
      "eventPrevious": "-1.1%",
      "eventCurrency": "EUR",
      "eventForecast": ""
    },
    {
      "eventDateTime": "2015-01-13T09:00:00",
      "eventActual": "0.3%",
      "eventCountry": "Italy",
      "eventExpectedVolatility": "Low",
      "eventName": "Italian Industrial Production (MoM) (Nov)",
      "eventTimeZone": "GMT",
      "eventPrevious": "0.0%",
      "eventCurrency": "EUR",
      "eventForecast": "0.1%"
    },
    {
      "eventDateTime": "2015-01-13T09:00:00",
      "eventActual": "-1.8%",
      "eventCountry": "Italy",
      "eventExpectedVolatility": "Low",
      "eventName": "Italian Industrial Production (YoY) (Nov)",
      "eventTimeZone": "GMT",
      "eventPrevious": "-3.0%",
      "eventCurrency": "EUR",
      "eventForecast": "-2.7%"
    },
    {
      "eventDateTime": "2015-01-13T10:25:00",
      "eventActual": "2.46%",
      "eventCountry": "Italy",
      "eventExpectedVolatility": "Low",
      "eventName": "Italian 15-Year BTP Auction",
      "eventTimeZone": "GMT",
      "eventPrevious": "2.97%",
      "eventCurrency": "EUR",
      "eventForecast": ""
    },
    {
      "eventDateTime": "2015-01-13T10:25:00",
      "eventActual": "0.61%",
      "eventCountry": "Italy",
      "eventExpectedVolatility": "Low",
      "eventName": "Italian 3-Year BTP Auction",
      "eventTimeZone": "GMT",
      "eventPrevious": "0.77%",
      "eventCurrency": "EUR",
      "eventForecast": ""
    }
  ]}}
