{"events": {"event": [
    {
      "eventDateTime": "2016-02-01T02:00:00",
      "eventActual": "52.3",
      "eventCountry": "Japan",
      "eventExpectedVolatility": "Low",
      "eventName": "Manufacturing PMI (Jan)",
      "eventTimeZone": "GMT",
      "eventPrevious": "52.4",
      "eventCurrency": "JPY",
      "eventForecast": "52.4"
    },
    {
      "eventDateTime": "2016-02-01T07:30:00",
      "eventActual": "31.6%",
      "eventCountry": "Japan",
      "eventExpectedVolatility": "Moderate",
      "eventName": "Investing.com USD/JPY Index",
      "eventTimeZone": "GMT",
      "eventPrevious": "37.3%",
      "eventCurrency": "JPY",
      "eventForecast": ""
    },
    {
      "eventDateTime": "2016-02-01T23:50:00",
      "eventActual": "28.9%",
      "eventCountry": "Japan",
      "eventExpectedVolatility": "Low",
      "eventName": "Monetary Base (YoY)",
      "eventTimeZone": "GMT",
      "eventPrevious": "29.5%",
      "eventCurrency": "JPY",
      "eventForecast": "28.3%"
    }
  ]}}
