{"events": {"event": [
    {
      "eventDateTime": "2018-11-05T07:00:00",
      "eventActual": "0.48%",
      "eventCountry": "Brazil",
      "eventExpectedVolatility": "Moderate",
      "eventName": "IPC-Fipe Inflation Index (MoM) (Oct)",
      "eventTimeZone": "GMT",
      "eventPrevious": "0.39%",
      "eventCurrency": "BRL",
      "eventForecast": "0.40%"
    },
    {
      "eventDateTime": "2018-11-05T11:30:00",
      "eventActual": "",
      "eventCountry": "Brazil",
      "eventExpectedVolatility": "Moderate",
      "eventName": "BCB Focus Market Readout",
      "eventTimeZone": "GMT",
      "eventPrevious": "",
      "eventCurrency": "BRL",
      "eventForecast": ""
    }
  ]}}
