{"events": {"event": [
    {
      "eventDateTime": "2010-02-01T09:00:00",
      "eventActual": "14.37%",
      "eventCountry": "India",
      "eventExpectedVolatility": "Low",
      "eventName": "Bank Loan Growth (Jan)",
      "eventTimeZone": "GMT",
      "eventPrevious": "11.97%",
      "eventCurrency": "INR",
      "eventForecast": ""
    },
    {
      "eventDateTime": "2010-02-01T09:00:00",
      "eventActual": "5.00%",
      "eventCountry": "India",
      "eventExpectedVolatility": "Low",
      "eventName": "Cash Reserve Ratio (Jan)",
      "eventTimeZone": "GMT",
      "eventPrevious": "5.00%",
      "eventCurrency": "INR",
      "eventForecast": ""
    },
    {
      "eventDateTime": "2010-02-01T09:00:00",
      "eventActual": "9.60%",
      "eventCountry": "India",
      "eventExpectedVolatility": "Low",
      "eventName": "Cumulative Industrial Production (Jan)",
      "eventTimeZone": "GMT",
      "eventPrevious": "8.60%",
      "eventCurrency": "INR",
      "eventForecast": ""
    },
    {
      "eventDateTime": "2010-02-01T09:00:00",
      "eventActual": "17.15%",
      "eventCountry": "India",
      "eventExpectedVolatility": "Low",
      "eventName": "Deposit Growth (Jan)",
      "eventTimeZone": "GMT",
      "eventPrevious": "18.03%",
      "eventCurrency": "INR",
      "eventForecast": ""
    },
    {
      "eventDateTime": "2010-02-01T09:00:00",
      "eventActual": "15.56B",
      "eventCountry": "India",
      "eventExpectedVolatility": "Low",
      "eventName": "Exports (USD) (Jan)",
      "eventTimeZone": "GMT",
      "eventPrevious": "16.49B",
      "eventCurrency": "INR",
      "eventForecast": ""
    },
    {
      "eventDateTime": "2010-02-01T09:00:00",
      "eventActual": "280.96B",
      "eventCountry": "India",
      "eventExpectedVolatility": "Low",
      "eventName": "FX Reserves, USD (Jan)",
      "eventTimeZone": "GMT",
      "eventPrevious": "283.52B",
      "eventCurrency": "INR",
      "eventForecast": ""
    },
    {
      "eventDateTime": "2010-02-01T09:00:00",
      "eventActual": "3,495.38B",
      "eventCountry": "India",
      "eventExpectedVolatility": "Low",
      "eventName": "Federal Fiscal Deficit (Jan)",
      "eventTimeZone": "GMT",
      "eventPrevious": "3,099.80B",
      "eventCurrency": "INR",
      "eventForecast": ""
    },
    {
      "eventDateTime": "2010-02-01T09:00:00",
      "eventActual": "25.27B",
      "eventCountry": "India",
      "eventExpectedVolatility": "Low",
      "eventName": "Imports (USD) (Jan)",
      "eventTimeZone": "GMT",
      "eventPrevious": "28.25B",
      "eventCurrency": "INR",
      "eventForecast": ""
    },
    {
      "eventDateTime": "2010-02-01T09:00:00",
      "eventActual": "13.30%",
      "eventCountry": "India",
      "eventExpectedVolatility": "Low",
      "eventName": "Industrial Production (YoY) (Jan)",
      "eventTimeZone": "GMT",
      "eventPrevious": "9.50%",
      "eventCurrency": "INR",
      "eventForecast": ""
    },
    {
      "eventDateTime": "2010-02-01T09:00:00",
      "eventActual": "11.66%",
      "eventCountry": "India",
      "eventExpectedVolatility": "Low",
      "eventName": "Infrastructure Output (YoY) (Jan)",
      "eventTimeZone": "GMT",
      "eventPrevious": "8.33%",
      "eventCurrency": "INR",
      "eventForecast": ""
    },
    {
      "eventDateTime": "2010-02-01T09:00:00",
      "eventActual": "4.75%",
      "eventCountry": "India",
      "eventExpectedVolatility": "High",
      "eventName": "Interest Rate Decision (Jan)",
      "eventTimeZone": "GMT",
      "eventPrevious": "4.75%",
      "eventCurrency": "INR",
      "eventForecast": ""
    },
    {
      "eventDateTime": "2010-02-01T09:00:00",
      "eventActual": "17.43%",
      "eventCountry": "India",
      "eventExpectedVolatility": "Low",
      "eventName": "M3 Money Supply (Jan)",
      "eventTimeZone": "GMT",
      "eventPrevious": "18.16%",
      "eventCurrency": "INR",
      "eventForecast": ""
    },
    {
      "eventDateTime": "2010-02-01T09:00:00",
      "eventActual": "14.50%",
      "eventCountry": "India",
      "eventExpectedVolatility": "Low",
      "eventName": "Manufacturing Output (MoM) (Jan)",
      "eventTimeZone": "GMT",
      "eventPrevious": "10.20%",
      "eventCurrency": "INR",
      "eventForecast": ""
    },
    {
      "eventDateTime": "2010-02-01T09:00:00",
      "eventActual": "3.25%",
      "eventCountry": "India",
      "eventExpectedVolatility": "Low",
      "eventName": "Reverse REPO Rate (Jan)",
      "eventTimeZone": "GMT",
      "eventPrevious": "3.25%",
      "eventCurrency": "INR",
      "eventForecast": ""
    },
    {
      "eventDateTime": "2010-02-01T09:00:00",
      "eventActual": "-9.71B",
      "eventCountry": "India",
      "eventExpectedVolatility": "Low",
      "eventName": "Trade Balance (Jan)",
      "eventTimeZone": "GMT",
      "eventPrevious": "-11.76B",
      "eventCurrency": "INR",
      "eventForecast": ""
    },
    {
      "eventDateTime": "2010-02-01T09:00:00",
      "eventActual": "20.20%",
      "eventCountry": "India",
      "eventExpectedVolatility": "Low",
      "eventName": "WPI Food (YoY) (Jan)",
      "eventTimeZone": "GMT",
      "eventPrevious": "20.80%",
      "eventCurrency": "INR",
      "eventForecast": ""
    },
    {
      "eventDateTime": "2010-02-01T09:00:00",
      "eventActual": "6.80%",
      "eventCountry": "India",
      "eventExpectedVolatility": "Low",
      "eventName": "WPI Fuel (YoY) (Jan)",
      "eventTimeZone": "GMT",
      "eventPrevious": "4.60%",
      "eventCurrency": "INR",
      "eventForecast": ""
    },
    {
      "eventDateTime": "2010-02-01T09:00:00",
      "eventActual": "8.68%",
      "eventCountry": "India",
      "eventExpectedVolatility": "Moderate",
      "eventName": "WPI Inflation (YoY) (Jan)",
      "eventTimeZone": "GMT",
      "eventPrevious": "7.15%",
      "eventCurrency": "INR",
      "eventForecast": ""
    },
    {
      "eventDateTime": "2010-02-01T09:00:00",
      "eventActual": "5.09%",
      "eventCountry": "India",
      "eventExpectedVolatility": "Low",
      "eventName": "WPI Manufacturing Inflation (YoY) (Jan)",
      "eventTimeZone": "GMT",
      "eventPrevious": "4.11%",
      "eventCurrency": "INR",
      "eventForecast": ""
    }
  ]}}
