{"events": {"event": {
    "eventDateTime": "2012-12-28T12:00:00",
    "eventActual": "-7.94B",
    "eventCountry": "South Africa",
    "eventExpectedVolatility": "Low",
    "eventName": "Trade Balance",
    "eventTimeZone": "GMT",
    "eventPrevious": "-21.20B",
    "eventCurrency": "ZAR",
    "eventForecast": "-17.60B"
  }}}
