"Spanish Services PMI";"Spain";"EUR";"2014-02-05T08:13:00";"GMT";"54.2";"54.8";"54.9";"Moderate"
"Italian Services PMI";"Italy";"EUR";"2014-02-05T08:43:00";"GMT";"47.9";"48.6";"49.4";"Moderate"
"French Services PMI";"France";"EUR";"2014-02-05T08:48:00";"GMT";"48.6";"48.6";"48.9";"Moderate"
"German Services PMI";"Germany";"EUR";"2014-02-05T08:53:00";"GMT";"53.6";"53.6";"53.1";"Moderate"
"Services PMI";"Euro Zone";"EUR";"2014-02-05T08:58:00";"GMT";"51.9";"51.9";"51.6";"Moderate"
"Retail Sales (MoM)";"Euro Zone";"EUR";"2014-02-05T10:00:00";"GMT";"0.9%";"-0.5%";"-1.6%";"Moderate"
"Retail Sales (YoY)";"Euro Zone";"EUR";"2014-02-05T10:00:00";"GMT";"1.3%";"1.5%";"-1.0%";"Low"
"German 5-Year Bobl Auction";"Germany";"EUR";"2014-02-05T10:35:00";"GMT";"0.900%";"";"0.630%";"Low"
