{"events": {"event": {
    "eventDateTime": "2012-10-17T11:00:00",
    "eventActual": "6.40%",
    "eventCountry": "South Africa",
    "eventExpectedVolatility": "Low",
    "eventName": "Retail Sales (YoY)",
    "eventTimeZone": "GMT",
    "eventPrevious": "2.90%",
    "eventCurrency": "ZAR",
    "eventForecast": "4.60%"
  }}}
