{"events": {"event": {
    "eventDateTime": "2013-06-14T19:30:00",
    "eventActual": "-63.3K",
    "eventCountry": "Australia",
    "eventExpectedVolatility": "Moderate",
    "eventName": "CFTC AUD speculative net positions",
    "eventTimeZone": "GMT",
    "eventPrevious": "-58.6K",
    "eventCurrency": "AUD",
    "eventForecast": ""
  }}}
