"IGP-M Inflation Index (MoM) (Jun)";"Brazil";"BRL";"2019-06-27T11:00:00";"GMT";"0.45%";"0.72%";"0.80%";"Low"
"BCB Inflation Report";"Brazil";"BRL";"2019-06-27T12:00:00";"GMT";" ";"";"";"Low"
"BCB National Monetary Council Meeting";"Brazil";"BRL";"2019-06-27T12:00:00";"GMT";" ";"";"";"Moderate"
"CAGED Net Payroll Jobs (May)";"Brazil";"BRL";"2019-06-27T18:00:00";"GMT";"129.60K";"73.00K";"32.14K";"Moderate"
