"Initial Jobless Claims";"United States";"USD";"2008-11-20T13:30:00";"GMT";"516K";"508K";"542K";"Moderate"
"Philadelphia Fed Manufacturing Index";"United States";"USD";"2008-11-20T15:00:00";"GMT";"-37.5";"-35.0";"-39.3";"High"
"Treasury Secretary Paulson Speaks";"United States";"USD";"2008-11-20T19:00:00";"GMT";" ";"";"";"Low"
