"IGP-DI Inflation Index (MoM) (Feb)";"Brazil";"BRL";"2015-03-06T11:00:00";"GMT";"0.67%";"0.40%";"0.53%";"Low"
"CPI (MoM) (Feb)";"Brazil";"BRL";"2015-03-06T12:00:00";"GMT";"1.24%";"1.08%";"1.22%";"Moderate"
"CPI (YoY) (Feb)";"Brazil";"BRL";"2015-03-06T12:00:00";"GMT";"7.14%";"7.54%";"7.70%";"Moderate"
