"Average Earnings Index +Bonus";"United Kingdom";"GBP";"2012-01-18T09:30:00";"GMT";"2.1%";"2.0%";"1.9%";"High"
"Claimant Count Change";"United Kingdom";"GBP";"2012-01-18T09:30:00";"GMT";"0.2K";"8.0K";"1.2K";"High"
"Unemployment Rate";"United Kingdom";"GBP";"2012-01-18T09:30:00";"GMT";"8.3%";"8.3%";"8.4%";"Moderate"
