{"events": {"event": {
    "eventDateTime": "2019-09-04T00:30:00",
    "eventActual": "40.8",
    "eventCountry": "Hong Kong",
    "eventExpectedVolatility": "Low",
    "eventName": "Manufacturing PMI (Aug)",
    "eventTimeZone": "GMT",
    "eventPrevious": "43.8",
    "eventCurrency": "HKD",
    "eventForecast": ""
  }}}
