"Monster Employment Index";"United States";"USD";"2011-06-03T04:05:00";"GMT";"145";"";"143";"Low"
"Average Hourly Earnings (MoM)";"United States";"USD";"2011-06-03T12:30:00";"GMT";"0.1%";"0.2%";"0.3%";"Moderate"
"Average Weekly Hours";"United States";"USD";"2011-06-03T12:30:00";"GMT";"34.4";"34.3";"34.4";"Low"
"Nonfarm Payrolls";"United States";"USD";"2011-06-03T12:30:00";"GMT";"232K";"169K";"54K";"High"
"Private Nonfarm Payrolls";"United States";"USD";"2011-06-03T12:30:00";"GMT";"251K";"180K";"83K";"Moderate"
"U6 Unemployment Rate (May)";"United States";"USD";"2011-06-03T12:30:00";"GMT";"16.10%";"";"15.80%";"Low"
"Unemployment Rate";"United States";"USD";"2011-06-03T12:30:00";"GMT";"9.0%";"9.0%";"9.1%";"High"
"ISM Non-Manufacturing PMI";"United States";"USD";"2011-06-03T14:00:00";"GMT";"52.8";"54.0";"54.6";"High"
"U.S. Baker Hughes Oil Rig Count";"United States";"USD";"2011-06-03T17:00:00";"GMT";"958";"";"959";"Moderate"
"CFTC Gold speculative net positions";"United States";"USD";"2011-06-03T19:30:00";"GMT";"172.4K";"";"191.8K";"Moderate"
"CFTC Silver speculative net positions";"United States";"USD";"2011-06-03T19:30:00";"GMT";"17.6K";"";"17.6K";"Low"
"CFTC Crude Oil speculative net positions";"United States";"USD";"2011-06-03T20:30:00";"GMT";"199.2k";"";"191.1k";"Moderate"
