{"events": {"event": {
    "eventDateTime": "2012-01-06T12:00:00",
    "eventActual": "6.50%",
    "eventCountry": "Brazil",
    "eventExpectedVolatility": "Moderate",
    "eventName": "CPI (YoY)",
    "eventTimeZone": "GMT",
    "eventPrevious": "6.60%",
    "eventCurrency": "BRL",
    "eventForecast": ""
  }}}
