{"events": {"event": {
    "eventDateTime": "2018-02-13T21:45:00",
    "eventActual": "1.2%",
    "eventCountry": "New Zealand",
    "eventExpectedVolatility": "Low",
    "eventName": "FPI (MoM) (Jan)",
    "eventTimeZone": "GMT",
    "eventPrevious": "-0.8%",
    "eventCurrency": "NZD",
    "eventForecast": ""
  }}}
