"Redbook (MoM)";"United States";"USD";"2018-01-23T13:55:00";"GMT";"-0.3%";"";"0.0%";"Low"
"Redbook (YoY)";"United States";"USD";"2018-01-23T13:55:00";"GMT";"2.6%";"";"3.8%";"Low"
"Richmond Manufacturing Index (Jan)";"United States";"USD";"2018-01-23T15:00:00";"GMT";"20";"19";"14";"Low"
"Richmond Manufacturing Shipments (Jan)";"United States";"USD";"2018-01-23T15:00:00";"GMT";"24";"";"15";"Low"
"Richmond Services Index (Jan)";"United States";"USD";"2018-01-23T15:00:00";"GMT";"25";"";"20";"Low"
"4-Week Bill Auction";"United States";"USD";"2018-01-23T16:30:00";"GMT";"1.295%";"";"1.230%";"Low"
"2-Year Note Auction";"United States";"USD";"2018-01-23T18:00:00";"GMT";"1.922%";"";"2.066%";"Low"
"API Weekly Crude Oil Stock";"United States";"USD";"2018-01-23T21:35:00";"GMT";"-5.121M";"-1.600M";"4.755M";"Moderate"
"Chicago Fed President Evans Speaks";"United States";"USD";"2018-01-23T23:30:00";"GMT";" ";"";"";"Low"
