{"events": {"event": [
    {
      "eventDateTime": "2017-09-07T12:30:00",
      "eventActual": "-3.5%",
      "eventCountry": "Canada",
      "eventExpectedVolatility": "Moderate",
      "eventName": "Building Permits (MoM) (Jul)",
      "eventTimeZone": "GMT",
      "eventPrevious": "4.4%",
      "eventCurrency": "CAD",
      "eventForecast": "-1.5%"
    },
    {
      "eventDateTime": "2017-09-07T14:00:00",
      "eventActual": "56.3",
      "eventCountry": "Canada",
      "eventExpectedVolatility": "High",
      "eventName": "Ivey PMI (Aug)",
      "eventTimeZone": "GMT",
      "eventPrevious": "60.0",
      "eventCurrency": "CAD",
      "eventForecast": "61.3"
    },
    {
      "eventDateTime": "2017-09-07T14:00:00",
      "eventActual": "56.8",
      "eventCountry": "Canada",
      "eventExpectedVolatility": "Low",
      "eventName": "Ivey PMI n.s.a (Aug)",
      "eventTimeZone": "GMT",
      "eventPrevious": "52.9",
      "eventCurrency": "CAD",
      "eventForecast": ""
    }
  ]}}
