{"events": {"event": [
    {
      "eventDateTime": "2015-10-15T01:00:00",
      "eventActual": "1.50%",
      "eventCountry": "South Korea",
      "eventExpectedVolatility": "Low",
      "eventName": "Interest Rate Decision (Oct)",
      "eventTimeZone": "GMT",
      "eventPrevious": "1.50%",
      "eventCurrency": "KRW",
      "eventForecast": "1.50%"
    },
    {
      "eventDateTime": "2015-10-15T23:00:00",
      "eventActual": "-8.4%",
      "eventCountry": "South Korea",
      "eventExpectedVolatility": "Low",
      "eventName": "Exports (YoY) (Sep)",
      "eventTimeZone": "GMT",
      "eventPrevious": "-8.3%",
      "eventCurrency": "KRW",
      "eventForecast": ""
    },
    {
      "eventDateTime": "2015-10-15T23:00:00",
      "eventActual": "-21.8%",
      "eventCountry": "South Korea",
      "eventExpectedVolatility": "Low",
      "eventName": "Imports (YoY) (Sep)",
      "eventTimeZone": "GMT",
      "eventPrevious": "-21.8%",
      "eventCurrency": "KRW",
      "eventForecast": ""
    },
    {
      "eventDateTime": "2015-10-15T23:00:00",
      "eventActual": "8.90B",
      "eventCountry": "South Korea",
      "eventExpectedVolatility": "Low",
      "eventName": "Trade Balance (Sep)",
      "eventTimeZone": "GMT",
      "eventPrevious": "8.90B",
      "eventCurrency": "KRW",
      "eventForecast": "8.90B"
    }
  ]}}
