"Capacity Utilization (MoM) (Jul)";"Japan";"JPY";"2015-09-14T04:30:00";"GMT";"0.7%";"";"-0.2%";"Low"
"Industrial Production (MoM) (Jul)";"Japan";"JPY";"2015-09-14T04:30:00";"GMT";"-0.6%";"-0.6%";"-0.8%";"Moderate"
"Tertiary Industry Activity Index (MoM)";"Japan";"JPY";"2015-09-14T04:30:00";"GMT";"0.3%";"0.2%";"0.2%";"Moderate"
"Investing.com USD/JPY Index";"Japan";"JPY";"2015-09-14T05:30:00";"GMT";"45.7%";"";"45.4%";"Moderate"
"Reuters Tankan Index (Sep)";"Japan";"JPY";"2015-09-14T23:30:00";"GMT";"17";"";"9";"Low"
