"Current Account";"Euro Zone";"EUR";"2013-06-21T08:00:00";"GMT";"25.9B";"14.2B";"19.5B";"Low"
"Italian Wage Inflation (MoM)";"Italy";"EUR";"2013-06-21T08:00:00";"GMT";"0.3%";"";"0.0%";"Low"
"CFTC EUR speculative net positions";"Euro Zone";"EUR";"2013-06-21T19:30:00";"GMT";"-7.5K";"";"20.0K";"Moderate"
