{"events": {"event": [
    {
      "eventDateTime": "2015-01-30T05:00:00",
      "eventActual": "7.5%",
      "eventCountry": "Japan",
      "eventExpectedVolatility": "Low",
      "eventName": "Construction Orders (YoY) (Dec)",
      "eventTimeZone": "GMT",
      "eventPrevious": "16.9%",
      "eventCurrency": "JPY",
      "eventForecast": ""
    },
    {
      "eventDateTime": "2015-01-30T05:00:00",
      "eventActual": "-14.7%",
      "eventCountry": "Japan",
      "eventExpectedVolatility": "Low",
      "eventName": "Housing Starts (YoY) (Dec)",
      "eventTimeZone": "GMT",
      "eventPrevious": "-14.3%",
      "eventCurrency": "JPY",
      "eventForecast": "-14.8%"
    },
    {
      "eventDateTime": "2015-01-30T20:30:00",
      "eventActual": "-64.7K",
      "eventCountry": "Japan",
      "eventExpectedVolatility": "Moderate",
      "eventName": "CFTC JPY speculative net positions",
      "eventTimeZone": "GMT",
      "eventPrevious": "-77.9K",
      "eventCurrency": "JPY",
      "eventForecast": ""
    }
  ]}}
