"German Factory Orders (MoM) (Oct)";"Germany";"EUR";"2014-12-05T07:00:00";"GMT";"1.1%";"0.6%";"2.5%";"Moderate"
"Spanish Industrial Production (YoY) (Oct)";"Spain";"EUR";"2014-12-05T08:00:00";"GMT";"1.0%";"1.4%";"1.2%";"Low"
"GDP (QoQ) (Q3)";"Euro Zone";"EUR";"2014-12-05T10:00:00";"GMT";"0.2%";"0.2%";"0.2%";"Moderate"
"GDP (YoY) (Q3)";"Euro Zone";"EUR";"2014-12-05T10:00:00";"GMT";"0.8%";"0.8%";"0.8%";"Moderate"
"CFTC EUR speculative net positions";"Euro Zone";"EUR";"2014-12-05T20:30:00";"GMT";"-165.1K";"";"-159.3K";"Moderate"
