{"events": {"event": {
    "eventDateTime": "2008-10-03T19:30:00",
    "eventActual": "-4.8K",
    "eventCountry": "New Zealand",
    "eventExpectedVolatility": "Low",
    "eventName": "CFTC NZD speculative net positions",
    "eventTimeZone": "GMT",
    "eventPrevious": "-4.6K",
    "eventCurrency": "NZD",
    "eventForecast": ""
  }}}
