"Mass Layoffs";"United States";"USD";"2010-07-23T15:00:00";"GMT";"1.41K";"";"1.65K";"Low"
"U.S. Baker Hughes Oil Rig Count";"United States";"USD";"2010-07-23T17:00:00";"GMT";"580";"";"591";"Moderate"
"CFTC Gold speculative net positions";"United States";"USD";"2010-07-23T19:30:00";"GMT";"204.9K";"";"178.3K";"Moderate"
"CFTC Silver speculative net positions";"United States";"USD";"2010-07-23T19:30:00";"GMT";"35.2K";"";"31.6K";"Low"
"CFTC Crude Oil speculative net positions";"United States";"USD";"2010-07-23T20:30:00";"GMT";"34.6k";"";"36.1k";"Moderate"
