"Spanish Industrial Production (YoY)";"Spain";"EUR";"2011-06-06T07:00:00";"GMT";"-0.4%";"0.3%";"-1.6%";"Low"
"Sentix Investor Confidence";"Euro Zone";"EUR";"2011-06-06T08:30:00";"GMT";"10.9";"8.6";"3.5";"Low"
"PPI (MoM)";"Euro Zone";"EUR";"2011-06-06T09:00:00";"GMT";"0.8%";"0.8%";"0.9%";"Low"
