"German WPI (MoM)";"Germany";"EUR";"2012-05-14T06:00:00";"GMT";"0.9%";"0.4%";"0.5%";"Low"
"French Current Account";"France";"EUR";"2012-05-14T06:45:00";"GMT";"-5.30B";"";"-4.10B";"Low"
"Italian CPI (MoM)";"Italy";"EUR";"2012-05-14T08:00:00";"GMT";"0.5%";"0.5%";"0.5%";"Moderate"
"Italian CPI (YoY)";"Italy";"EUR";"2012-05-14T08:00:00";"GMT";"3.3%";"3.3%";"3.3%";"Low"
"Spanish 12-Month Letras Auction";"Spain";"EUR";"2012-05-14T08:30:00";"GMT";"2.623%";"";"2.985%";"Low"
"Industrial Production (MoM)";"Euro Zone";"EUR";"2012-05-14T09:00:00";"GMT";"0.8%";"0.4%";"-0.3%";"Moderate"
"Italian 10-Year BTP Auction";"Italy";"EUR";"2012-05-14T09:10:00";"GMT";"5.84%";"";"5.66%";"Moderate"
"Italian 3-Year BTP Auction";"Italy";"EUR";"2012-05-14T09:10:00";"GMT";"3.89%";"";"3.91%";"Low"
"German 6-Month Bubill Auction";"Germany";"EUR";"2012-05-14T09:30:00";"GMT";"0.066%";"";"0.037%";"Low"
"French 12-Month BTF Auction";"France";"EUR";"2012-05-14T13:00:00";"GMT";"0.174%";"";"0.185%";"Low"
"French 3-Month BTF Auction";"France";"EUR";"2012-05-14T13:00:00";"GMT";"0.082%";"";"0.074%";"Low"
"French 6-Month BTF Auction";"France";"EUR";"2012-05-14T13:00:00";"GMT";"0.114%";"";"0.111%";"Low"
