{"events": {"event": [
    {
      "eventDateTime": "2018-02-07T13:00:00",
      "eventActual": "0.3%",
      "eventCountry": "Russia",
      "eventExpectedVolatility": "Moderate",
      "eventName": "CPI (MoM)",
      "eventTimeZone": "GMT",
      "eventPrevious": "0.4%",
      "eventCurrency": "RUB",
      "eventForecast": "0.4%"
    },
    {
      "eventDateTime": "2018-02-07T13:00:00",
      "eventActual": "2.2%",
      "eventCountry": "Russia",
      "eventExpectedVolatility": "Moderate",
      "eventName": "CPI (YoY)",
      "eventTimeZone": "GMT",
      "eventPrevious": "2.5%",
      "eventCurrency": "RUB",
      "eventForecast": "2.3%"
    }
  ]}}
