{"events": {"event": [
    {
      "eventDateTime": "2019-10-27T01:30:00",
      "eventActual": "-3.30%",
      "eventCountry": "China",
      "eventExpectedVolatility": "Low",
      "eventName": "Chinese Industrial profit (YoY) (Sep)",
      "eventTimeZone": "GMT",
      "eventPrevious": "-2.00%",
      "eventCurrency": "CNY",
      "eventForecast": ""
    },
    {
      "eventDateTime": "2019-10-27T01:30:00",
      "eventActual": "-2.1%",
      "eventCountry": "China",
      "eventExpectedVolatility": "Low",
      "eventName": "Chinese Industrial profit YTD (Sep)",
      "eventTimeZone": "GMT",
      "eventPrevious": "-1.7%",
      "eventCurrency": "CNY",
      "eventForecast": ""
    }
  ]}}
