{"events": {"event": {
    "eventDateTime": "2016-06-02T13:00:00",
    "eventActual": "49.8",
    "eventCountry": "Singapore",
    "eventExpectedVolatility": "Low",
    "eventName": "Manufacturing PMI (May)",
    "eventTimeZone": "GMT",
    "eventPrevious": "49.8",
    "eventCurrency": "SGD",
    "eventForecast": ""
  }}}
