"Investing.com EUR/USD Index";"Euro Zone";"EUR";"2017-01-23T06:30:00";"GMT";"36.8%";"";"33.5%";"Moderate"
"ECB President Draghi Speaks";"Euro Zone";"EUR";"2017-01-23T11:30:00";"GMT";" ";"";"";"High"
"French 12-Month BTF Auction";"France";"EUR";"2017-01-23T14:00:00";"GMT";"-0.526%";"";"-0.530%";"Low"
"French 3-Month BTF Auction";"France";"EUR";"2017-01-23T14:00:00";"GMT";"-0.553%";"";"-0.552%";"Low"
"French 6-Month BTF Auction";"France";"EUR";"2017-01-23T14:00:00";"GMT";"-0.532%";"";"-0.540%";"Low"
"Consumer Confidence (Jan)";"Euro Zone";"EUR";"2017-01-23T15:00:00";"GMT";"-5.1";"-4.8";"-4.9";"Low"
