"CPI (MoM) (Dec)";"South Korea";"KRW";"2000-01-01T09:00:00";"GMT";"-0.20%";"";"-0.20%";"Low"
"CPI (YoY) (Dec)";"South Korea";"KRW";"2000-01-01T09:00:00";"GMT";"1.40%";"";"1.40%";"Moderate"
"Current Account (Dec)";"South Korea";"KRW";"2000-01-01T09:00:00";"GMT";"1.79B";"";"0.96B";"Low"
"Export Price Index (YoY) (Dec)";"South Korea";"KRW";"2000-01-01T09:00:00";"GMT";"-7.10%";"";"-3.70%";"Low"
"Exports (YoY) (Dec)";"South Korea";"KRW";"2000-01-01T09:00:00";"GMT";"21.70%";"";"20.40%";"Low"
"FX Reserves - USD (Dec)";"South Korea";"KRW";"2000-01-01T09:00:00";"GMT";"69.68B";"";"74.05B";"Low"
"Import Price Index (YoY) (Dec)";"South Korea";"KRW";"2000-01-01T09:00:00";"GMT";"1.80%";"";"7.50%";"Low"
"Imports (YoY) (Dec)";"South Korea";"KRW";"2000-01-01T09:00:00";"GMT";"40.90%";"";"45.40%";"Low"
"Industrial Production (MoM) (Dec)";"South Korea";"KRW";"2000-01-01T09:00:00";"GMT";"4.30%";"";"0.00%";"Low"
"Industrial Production (YoY) (Dec)";"South Korea";"KRW";"2000-01-01T09:00:00";"GMT";"29.30%";"";"24.80%";"Low"
"Interest Rate Decision (Dec)";"South Korea";"KRW";"2000-01-01T09:00:00";"GMT";"4.75%";"";"4.75%";"Low"
"M2 Money supply (Dec)";"South Korea";"KRW";"2000-01-01T09:00:00";"GMT";"8.10%";"";"8.20%";"Low"
"PPI (MoM) (Dec)";"South Korea";"KRW";"2000-01-01T09:00:00";"GMT";"0.60%";"";"-0.20%";"Low"
"PPI (YoY) (Dec)";"South Korea";"KRW";"2000-01-01T09:00:00";"GMT";"0.60%";"";"0.90%";"Low"
"Trade Balance (Dec)";"South Korea";"KRW";"2000-01-01T09:00:00";"GMT";"2.47B";"";"0.00B";"Low"
"Unemployment Rate (Dec)";"South Korea";"KRW";"2000-01-01T09:00:00";"GMT";"5.20%";"";"5.20%";"Low"
