"BoC Interest Rate Decision (Mar)";"Canada";"CAD";"2004-04-01T09:00:00";"GMT";"2.50%";"";"2.25%";"High"
"Budget Balance (Mar)";"Canada";"CAD";"2004-04-01T09:00:00";"GMT";"3.84B";"";"-3.18B";"Low"
"Building Permits (MoM) (Mar)";"Canada";"CAD";"2004-04-01T09:00:00";"GMT";"0.10%";"";"8.60%";"Moderate"
"CPI (MoM) (Mar)";"Canada";"CAD";"2004-04-01T09:00:00";"GMT";"0.20%";"";"0.40%";"Moderate"
"CPI (YoY) (Mar)";"Canada";"CAD";"2004-04-01T09:00:00";"GMT";"0.70%";"";"0.80%";"Low"
"Core CPI (MoM) (Mar)";"Canada";"CAD";"2004-04-01T09:00:00";"GMT";"0.20%";"";"0.30%";"High"
"Core CPI (YoY) (Mar)";"Canada";"CAD";"2004-04-01T09:00:00";"GMT";"1.20%";"";"1.30%";"Moderate"
"Core Retail Sales (MoM) (Mar)";"Canada";"CAD";"2004-04-01T09:00:00";"GMT";"1.00%";"";"0.40%";"High"
"Employment Change (Mar)";"Canada";"CAD";"2004-04-01T09:00:00";"GMT";"19.60K";"";"11.80K";"High"
"Exports (Mar)";"Canada";"CAD";"2004-04-01T09:00:00";"GMT";"34.21B";"";"34.56B";"Low"
"Foreign Securities Purchases (Mar)";"Canada";"CAD";"2004-04-01T09:00:00";"GMT";"-7.14B";"";"4.69B";"Moderate"
"Foreign Securities Purchases by Canadians (Mar)";"Canada";"CAD";"2004-04-01T09:00:00";"GMT";"3.51B";"";"1.87B";"Low"
"Full Employment Change (Mar)";"Canada";"CAD";"2004-04-01T09:00:00";"GMT";"37.70K";"";"32.90K";"Low"
"GDP (MoM) (Mar)";"Canada";"CAD";"2004-04-01T09:00:00";"GMT";"-0.10%";"";"0.90%";"High"
"Housing Starts (Mar)";"Canada";"CAD";"2004-04-01T09:00:00";"GMT";"216.70K";"";"244.00K";"Moderate"
"IPPI (MoM) (Mar)";"Canada";"CAD";"2004-04-01T09:00:00";"GMT";"2.20%";"";"0.80%";"Low"
"IPPI (YoY) (Mar)";"Canada";"CAD";"2004-04-01T09:00:00";"GMT";"-1.90%";"";"-0.90%";"Low"
"Imports (Mar)";"Canada";"CAD";"2004-04-01T09:00:00";"GMT";"28.79B";"";"29.33B";"Low"
"Ivey PMI n.s.a (Mar)";"Canada";"CAD";"2004-04-01T09:00:00";"GMT";"59.60";"";"64.00";"Low"
"Manufacturing Sales (MoM) (Mar)";"Canada";"CAD";"2004-04-01T09:00:00";"GMT";"1.70%";"";"2.20%";"Moderate"
"New Housing Price Index (MoM) (Mar)";"Canada";"CAD";"2004-04-01T09:00:00";"GMT";"0.40%";"";"0.30%";"Moderate"
"Part Time Employment Change (Mar)";"Canada";"CAD";"2004-04-01T09:00:00";"GMT";"-18.10K";"";"-21.10K";"Low"
"Participation Rate (Mar)";"Canada";"CAD";"2004-04-01T09:00:00";"GMT";"67.60%";"";"67.60%";"Low"
"RMPI (MoM) (Mar)";"Canada";"CAD";"2004-04-01T09:00:00";"GMT";"4.20%";"";"4.30%";"Moderate"
"RMPI (YoY) (Mar)";"Canada";"CAD";"2004-04-01T09:00:00";"GMT";"-6.30%";"";"1.80%";"Low"
"Retail Sales (MoM) (Mar)";"Canada";"CAD";"2004-04-01T09:00:00";"GMT";"2.80%";"";"-0.10%";"Moderate"
"Trade Balance (Mar)";"Canada";"CAD";"2004-04-01T09:00:00";"GMT";"5.42B";"";"5.23B";"Moderate"
"Unemployment Rate (Mar)";"Canada";"CAD";"2004-04-01T09:00:00";"GMT";"7.40%";"";"7.30%";"Moderate"
"Wholesale Sales (MoM) (Mar)";"Canada";"CAD";"2004-04-01T09:00:00";"GMT";"0.50%";"";"2.00%";"Moderate"
