{"events": {"event": {
    "eventDateTime": "2018-04-04T01:45:00",
    "eventActual": "52.3",
    "eventCountry": "China",
    "eventExpectedVolatility": "Moderate",
    "eventName": "Caixin Services PMI (Mar)",
    "eventTimeZone": "GMT",
    "eventPrevious": "54.2",
    "eventCurrency": "CNY",
    "eventForecast": "54.5"
  }}}
