{"events": {"event": {
    "eventDateTime": "2013-05-02T05:00:00",
    "eventActual": "51.00",
    "eventCountry": "India",
    "eventExpectedVolatility": "Low",
    "eventName": "Nikkei Markit Manufacturing PMI",
    "eventTimeZone": "GMT",
    "eventPrevious": "52.00",
    "eventCurrency": "INR",
    "eventForecast": "52.10"
  }}}
