{"events": {"event": [
    {
      "eventDateTime": "2013-04-15T12:30:00",
      "eventActual": "3.05",
      "eventCountry": "United States",
      "eventExpectedVolatility": "Moderate",
      "eventName": "NY Empire State Manufacturing Index",
      "eventTimeZone": "GMT",
      "eventPrevious": "9.24",
      "eventCurrency": "USD",
      "eventForecast": "7.00"
    },
    {
      "eventDateTime": "2013-04-15T13:00:00",
      "eventActual": "53.60B",
      "eventCountry": "United States",
      "eventExpectedVolatility": "Low",
      "eventName": "Overall Net Capital Flow",
      "eventTimeZone": "GMT",
      "eventPrevious": "116.80B",
      "eventCurrency": "USD",
      "eventForecast": ""
    },
    {
      "eventDateTime": "2013-04-15T13:00:00",
      "eventActual": "-17.8B",
      "eventCountry": "United States",
      "eventExpectedVolatility": "Moderate",
      "eventName": "TIC Net Long-Term Transactions",
      "eventTimeZone": "GMT",
      "eventPrevious": "25.7B",
      "eventCurrency": "USD",
      "eventForecast": "40.0B"
    },
    {
      "eventDateTime": "2013-04-15T13:00:00",
      "eventActual": "-0.12B",
      "eventCountry": "United States",
      "eventExpectedVolatility": "Low",
      "eventName": "US Foreign Buying, T-bonds",
      "eventTimeZone": "GMT",
      "eventPrevious": "32.30B",
      "eventCurrency": "USD",
      "eventForecast": ""
    },
    {
      "eventDateTime": "2013-04-15T14:00:00",
      "eventActual": "42",
      "eventCountry": "United States",
      "eventExpectedVolatility": "Low",
      "eventName": "NAHB Housing Market Index",
      "eventTimeZone": "GMT",
      "eventPrevious": "44",
      "eventCurrency": "USD",
      "eventForecast": "45"
    },
    {
      "eventDateTime": "2013-04-15T15:30:00",
      "eventActual": "0.055%",
      "eventCountry": "United States",
      "eventExpectedVolatility": "Low",
      "eventName": "3-Month Bill Auction",
      "eventTimeZone": "GMT",
      "eventPrevious": "0.065%",
      "eventCurrency": "USD",
      "eventForecast": ""
    },
    {
      "eventDateTime": "2013-04-15T15:30:00",
      "eventActual": "0.090%",
      "eventCountry": "United States",
      "eventExpectedVolatility": "Low",
      "eventName": "6-Month Bill Auction",
      "eventTimeZone": "GMT",
      "eventPrevious": "0.095%",
      "eventCurrency": "USD",
      "eventForecast": ""
    }
  ]}}
