{"events": {"event": [
    {
      "eventDateTime": "2012-07-01T09:00:00",
      "eventActual": "-0.83",
      "eventCountry": "Euro Zone",
      "eventExpectedVolatility": "Low",
      "eventName": "Business Climate (Jun)",
      "eventTimeZone": "GMT",
      "eventPrevious": "-0.66",
      "eventCurrency": "EUR",
      "eventForecast": ""
    },
    {
      "eventDateTime": "2012-07-01T09:00:00",
      "eventActual": "-0.10%",
      "eventCountry": "Euro Zone",
      "eventExpectedVolatility": "Moderate",
      "eventName": "CPI (MoM) (Jun)",
      "eventTimeZone": "GMT",
      "eventPrevious": "-0.10%",
      "eventCurrency": "EUR",
      "eventForecast": ""
    },
    {
      "eventDateTime": "2012-07-01T09:00:00",
      "eventActual": "-0.08%",
      "eventCountry": "Euro Zone",
      "eventExpectedVolatility": "Low",
      "eventName": "CPI ex Tobacco (MoM) (Jun)",
      "eventTimeZone": "GMT",
      "eventPrevious": "-0.16%",
      "eventCurrency": "EUR",
      "eventForecast": ""
    },
    {
      "eventDateTime": "2012-07-01T09:00:00",
      "eventActual": "2.26%",
      "eventCountry": "Euro Zone",
      "eventExpectedVolatility": "Low",
      "eventName": "CPI ex Tobacco (YoY) (Jun)",
      "eventTimeZone": "GMT",
      "eventPrevious": "2.34%",
      "eventCurrency": "EUR",
      "eventForecast": ""
    },
    {
      "eventDateTime": "2012-07-01T09:00:00",
      "eventActual": "19.90",
      "eventCountry": "Euro Zone",
      "eventExpectedVolatility": "Low",
      "eventName": "Consumer Inflation Expectation (Jun)",
      "eventTimeZone": "GMT",
      "eventPrevious": "22.80",
      "eventCurrency": "EUR",
      "eventForecast": ""
    },
    {
      "eventDateTime": "2012-07-01T09:00:00",
      "eventActual": "0.10%",
      "eventCountry": "Euro Zone",
      "eventExpectedVolatility": "Low",
      "eventName": "Core CPI (MoM) (Jun)",
      "eventTimeZone": "GMT",
      "eventPrevious": "0.00%",
      "eventCurrency": "EUR",
      "eventForecast": ""
    },
    {
      "eventDateTime": "2012-07-01T09:00:00",
      "eventActual": "22.80B",
      "eventCountry": "Euro Zone",
      "eventExpectedVolatility": "Low",
      "eventName": "Current Account n.s.a. (Jun)",
      "eventTimeZone": "GMT",
      "eventPrevious": "-4.80B",
      "eventCurrency": "EUR",
      "eventForecast": ""
    },
    {
      "eventDateTime": "2012-07-01T09:00:00",
      "eventActual": "36.29B",
      "eventCountry": "France",
      "eventExpectedVolatility": "Low",
      "eventName": "French Exports (Jun)",
      "eventTimeZone": "GMT",
      "eventPrevious": "37.89B",
      "eventCurrency": "EUR",
      "eventForecast": ""
    },
    {
      "eventDateTime": "2012-07-01T09:00:00",
      "eventActual": "0.10%",
      "eventCountry": "France",
      "eventExpectedVolatility": "Moderate",
      "eventName": "French HICP (MoM) (Jun)",
      "eventTimeZone": "GMT",
      "eventPrevious": "-0.10%",
      "eventCurrency": "EUR",
      "eventForecast": ""
    },
    {
      "eventDateTime": "2012-07-01T09:00:00",
      "eventActual": "2.26%",
      "eventCountry": "France",
      "eventExpectedVolatility": "Low",
      "eventName": "French HICP (YoY) (Jun)",
      "eventTimeZone": "GMT",
      "eventPrevious": "2.29%",
      "eventCurrency": "EUR",
      "eventForecast": ""
    },
    {
      "eventDateTime": "2012-07-01T09:00:00",
      "eventActual": "42.56B",
      "eventCountry": "France",
      "eventExpectedVolatility": "Low",
      "eventName": "French Imports (Jun)",
      "eventTimeZone": "GMT",
      "eventPrevious": "43.15B",
      "eventCurrency": "EUR",
      "eventForecast": ""
    },
    {
      "eventDateTime": "2012-07-01T09:00:00",
      "eventActual": "48.10",
      "eventCountry": "Germany",
      "eventExpectedVolatility": "Low",
      "eventName": "German Composite PMI (Jun)",
      "eventTimeZone": "GMT",
      "eventPrevious": "",
      "eventCurrency": "EUR",
      "eventForecast": ""
    },
    {
      "eventDateTime": "2012-07-01T09:00:00",
      "eventActual": "-1.46%",
      "eventCountry": "Germany",
      "eventExpectedVolatility": "Low",
      "eventName": "German Exports (MoM) (Jun)",
      "eventTimeZone": "GMT",
      "eventPrevious": "4.62%",
      "eventCurrency": "EUR",
      "eventForecast": ""
    },
    {
      "eventDateTime": "2012-07-01T09:00:00",
      "eventActual": "-0.20%",
      "eventCountry": "Germany",
      "eventExpectedVolatility": "Low",
      "eventName": "German HICP (MoM) (Jun)",
      "eventTimeZone": "GMT",
      "eventPrevious": "-0.30%",
      "eventCurrency": "EUR",
      "eventForecast": ""
    },
    {
      "eventDateTime": "2012-07-01T09:00:00",
      "eventActual": "2.00%",
      "eventCountry": "Germany",
      "eventExpectedVolatility": "Low",
      "eventName": "German HICP (YoY) (Jun)",
      "eventTimeZone": "GMT",
      "eventPrevious": "2.10%",
      "eventCurrency": "EUR",
      "eventForecast": ""
    },
    {
      "eventDateTime": "2012-07-01T09:00:00",
      "eventActual": "1.60%",
      "eventCountry": "Germany",
      "eventExpectedVolatility": "Low",
      "eventName": "German Import Price Index (YoY) (Jun)",
      "eventTimeZone": "GMT",
      "eventPrevious": "2.40%",
      "eventCurrency": "EUR",
      "eventForecast": ""
    },
    {
      "eventDateTime": "2012-07-01T09:00:00",
      "eventActual": "-2.80%",
      "eventCountry": "Germany",
      "eventExpectedVolatility": "Low",
      "eventName": "German Imports (MoM) (Jun)",
      "eventTimeZone": "GMT",
      "eventPrevious": "4.80%",
      "eventCurrency": "EUR",
      "eventForecast": ""
    },
    {
      "eventDateTime": "2012-07-01T09:00:00",
      "eventActual": "2.89M",
      "eventCountry": "Germany",
      "eventExpectedVolatility": "Low",
      "eventName": "German Unemployment (Jun)",
      "eventTimeZone": "GMT",
      "eventPrevious": "2.88M",
      "eventCurrency": "EUR",
      "eventForecast": ""
    },
    {
      "eventDateTime": "2012-07-01T09:00:00",
      "eventActual": "2.80M",
      "eventCountry": "Germany",
      "eventExpectedVolatility": "Low",
      "eventName": "German Unemployment n.s.a. (Jun)",
      "eventTimeZone": "GMT",
      "eventPrevious": "2.90M",
      "eventCurrency": "EUR",
      "eventForecast": ""
    },
    {
      "eventDateTime": "2012-07-01T09:00:00",
      "eventActual": "1.00%",
      "eventCountry": "Germany",
      "eventExpectedVolatility": "Low",
      "eventName": "German WPI (YoY) (Jun)",
      "eventTimeZone": "GMT",
      "eventPrevious": "1.60%",
      "eventCurrency": "EUR",
      "eventForecast": ""
    },
    {
      "eventDateTime": "2012-07-01T09:00:00",
      "eventActual": "33.20",
      "eventCountry": "Germany",
      "eventExpectedVolatility": "Moderate",
      "eventName": "German ZEW Current Conditions (Jun)",
      "eventTimeZone": "GMT",
      "eventPrevious": "44.10",
      "eventCurrency": "EUR",
      "eventForecast": ""
    },
    {
      "eventDateTime": "2012-07-01T09:00:00",
      "eventActual": "-2.00%",
      "eventCountry": "Euro Zone",
      "eventExpectedVolatility": "Low",
      "eventName": "Industrial Production (YoY) (Jun)",
      "eventTimeZone": "GMT",
      "eventPrevious": "-2.40%",
      "eventCurrency": "EUR",
      "eventForecast": ""
    },
    {
      "eventDateTime": "2012-07-01T09:00:00",
      "eventActual": "-12.00",
      "eventCountry": "Euro Zone",
      "eventExpectedVolatility": "Low",
      "eventName": "Industrial Sentiment (Jun)",
      "eventTimeZone": "GMT",
      "eventPrevious": "-10.80",
      "eventCurrency": "EUR",
      "eventForecast": ""
    },
    {
      "eventDateTime": "2012-07-01T09:00:00",
      "eventActual": "0.20%",
      "eventCountry": "Italy",
      "eventExpectedVolatility": "Low",
      "eventName": "Italian HICP (MoM) (Jun)",
      "eventTimeZone": "GMT",
      "eventPrevious": "0.00%",
      "eventCurrency": "EUR",
      "eventForecast": ""
    },
    {
      "eventDateTime": "2012-07-01T09:00:00",
      "eventActual": "3.60%",
      "eventCountry": "Italy",
      "eventExpectedVolatility": "Low",
      "eventName": "Italian HICP (YoY) (Jun)",
      "eventTimeZone": "GMT",
      "eventPrevious": "3.50%",
      "eventCurrency": "EUR",
      "eventForecast": ""
    },
    {
      "eventDateTime": "2012-07-01T09:00:00",
      "eventActual": "-10.27%",
      "eventCountry": "Italy",
      "eventExpectedVolatility": "Low",
      "eventName": "Italian Industrial New Orders (YoY) (Jun)",
      "eventTimeZone": "GMT",
      "eventPrevious": "-8.25%",
      "eventCurrency": "EUR",
      "eventForecast": ""
    },
    {
      "eventDateTime": "2012-07-01T09:00:00",
      "eventActual": "-6.90%",
      "eventCountry": "Italy",
      "eventExpectedVolatility": "Low",
      "eventName": "Italian Industrial Production (YoY) (Jun)",
      "eventTimeZone": "GMT",
      "eventPrevious": "-5.60%",
      "eventCurrency": "EUR",
      "eventForecast": ""
    },
    {
      "eventDateTime": "2012-07-01T09:00:00",
      "eventActual": "-6.80%",
      "eventCountry": "Italy",
      "eventExpectedVolatility": "Low",
      "eventName": "Italian Industrial Sales (YoY) (Jun)",
      "eventTimeZone": "GMT",
      "eventPrevious": "-1.70%",
      "eventCurrency": "EUR",
      "eventForecast": ""
    },
    {
      "eventDateTime": "2012-07-01T09:00:00",
      "eventActual": "44.60",
      "eventCountry": "Italy",
      "eventExpectedVolatility": "Moderate",
      "eventName": "Italian Manufacturing PMI (Jun)",
      "eventTimeZone": "GMT",
      "eventPrevious": "",
      "eventCurrency": "EUR",
      "eventForecast": ""
    },
    {
      "eventDateTime": "2012-07-01T09:00:00",
      "eventActual": "0.21%",
      "eventCountry": "Italy",
      "eventExpectedVolatility": "Low",
      "eventName": "Italian Retail Sales (YoY) (Jun)",
      "eventTimeZone": "GMT",
      "eventPrevious": "-1.12%",
      "eventCurrency": "EUR",
      "eventForecast": ""
    },
    {
      "eventDateTime": "2012-07-01T09:00:00",
      "eventActual": "43.10",
      "eventCountry": "Italy",
      "eventExpectedVolatility": "Moderate",
      "eventName": "Italian Services PMI (Jun)",
      "eventTimeZone": "GMT",
      "eventPrevious": "",
      "eventCurrency": "EUR",
      "eventForecast": ""
    },
    {
      "eventDateTime": "2012-07-01T09:00:00",
      "eventActual": "1.14B",
      "eventCountry": "Italy",
      "eventExpectedVolatility": "Low",
      "eventName": "Italian Trade Balance EU (Jun)",
      "eventTimeZone": "GMT",
      "eventPrevious": "0.58B",
      "eventCurrency": "EUR",
      "eventForecast": ""
    },
    {
      "eventDateTime": "2012-07-01T09:00:00",
      "eventActual": "1.54B",
      "eventCountry": "Italy",
      "eventExpectedVolatility": "Low",
      "eventName": "Italian Trade Balance Non-EU (Jun)",
      "eventTimeZone": "GMT",
      "eventPrevious": "0.26B",
      "eventCurrency": "EUR",
      "eventForecast": ""
    },
    {
      "eventDateTime": "2012-07-01T09:00:00",
      "eventActual": "0.10%",
      "eventCountry": "Italy",
      "eventExpectedVolatility": "Low",
      "eventName": "Italian Wage Inflation (MoM) (Jun)",
      "eventTimeZone": "GMT",
      "eventPrevious": "0.00%",
      "eventCurrency": "EUR",
      "eventForecast": ""
    },
    {
      "eventDateTime": "2012-07-01T09:00:00",
      "eventActual": "1.50%",
      "eventCountry": "Italy",
      "eventExpectedVolatility": "Low",
      "eventName": "Italian Wage Inflation (YoY) (Jun)",
      "eventTimeZone": "GMT",
      "eventPrevious": "1.40%",
      "eventCurrency": "EUR",
      "eventForecast": ""
    },
    {
      "eventDateTime": "2012-07-01T09:00:00",
      "eventActual": "46.40",
      "eventCountry": "Euro Zone",
      "eventExpectedVolatility": "Moderate",
      "eventName": "Markit Composite PMI (Jun)",
      "eventTimeZone": "GMT",
      "eventPrevious": "",
      "eventCurrency": "EUR",
      "eventForecast": ""
    },
    {
      "eventDateTime": "2012-07-01T09:00:00",
      "eventActual": "3.10%",
      "eventCountry": "Euro Zone",
      "eventExpectedVolatility": "Low",
      "eventName": "Money-M3 3-Month-Moving Average (Jun)",
      "eventTimeZone": "GMT",
      "eventPrevious": "2.80%",
      "eventCurrency": "EUR",
      "eventForecast": ""
    },
    {
      "eventDateTime": "2012-07-01T09:00:00",
      "eventActual": "-58.30B",
      "eventCountry": "Euro Zone",
      "eventExpectedVolatility": "Low",
      "eventName": "Net Investment Flow (Jun)",
      "eventTimeZone": "GMT",
      "eventPrevious": "-80.80B",
      "eventCurrency": "EUR",
      "eventForecast": ""
    },
    {
      "eventDateTime": "2012-07-01T09:00:00",
      "eventActual": "2.10%",
      "eventCountry": "Euro Zone",
      "eventExpectedVolatility": "Low",
      "eventName": "PPI (YoY) (Jun)",
      "eventTimeZone": "GMT",
      "eventPrevious": "2.70%",
      "eventCurrency": "EUR",
      "eventForecast": ""
    },
    {
      "eventDateTime": "2012-07-01T09:00:00",
      "eventActual": "-0.90%",
      "eventCountry": "Euro Zone",
      "eventExpectedVolatility": "Low",
      "eventName": "Retail Sales (YoY) (Jun)",
      "eventTimeZone": "GMT",
      "eventPrevious": "-0.60%",
      "eventCurrency": "EUR",
      "eventForecast": ""
    },
    {
      "eventDateTime": "2012-07-01T09:00:00",
      "eventActual": "-1.20",
      "eventCountry": "Euro Zone",
      "eventExpectedVolatility": "Low",
      "eventName": "Selling Price Expectations (Jun)",
      "eventTimeZone": "GMT",
      "eventPrevious": "3.10",
      "eventCurrency": "EUR",
      "eventForecast": ""
    },
    {
      "eventDateTime": "2012-07-01T09:00:00",
      "eventActual": "-5.90",
      "eventCountry": "Euro Zone",
      "eventExpectedVolatility": "Low",
      "eventName": "Services Sentiment (Jun)",
      "eventTimeZone": "GMT",
      "eventPrevious": "-4.20",
      "eventCurrency": "EUR",
      "eventForecast": ""
    },
    {
      "eventDateTime": "2012-07-01T09:00:00",
      "eventActual": "1.90%",
      "eventCountry": "Spain",
      "eventExpectedVolatility": "Moderate",
      "eventName": "Spanish CPI (YoY) (Jun)",
      "eventTimeZone": "GMT",
      "eventPrevious": "1.90%",
      "eventCurrency": "EUR",
      "eventForecast": ""
    },
    {
      "eventDateTime": "2012-07-01T09:00:00",
      "eventActual": "-0.47B",
      "eventCountry": "Spain",
      "eventExpectedVolatility": "Low",
      "eventName": "Spanish Current account (Jun)",
      "eventTimeZone": "GMT",
      "eventPrevious": "-0.14B",
      "eventCurrency": "EUR",
      "eventForecast": ""
    },
    {
      "eventDateTime": "2012-07-01T09:00:00",
      "eventActual": "-0.20%",
      "eventCountry": "Spain",
      "eventExpectedVolatility": "Low",
      "eventName": "Spanish HICP (MoM) (Jun)",
      "eventTimeZone": "GMT",
      "eventPrevious": "-0.20%",
      "eventCurrency": "EUR",
      "eventForecast": ""
    },
    {
      "eventDateTime": "2012-07-01T09:00:00",
      "eventActual": "1.80%",
      "eventCountry": "Spain",
      "eventExpectedVolatility": "Moderate",
      "eventName": "Spanish HICP (YoY) (Jun)",
      "eventTimeZone": "GMT",
      "eventPrevious": "1.90%",
      "eventCurrency": "EUR",
      "eventForecast": ""
    }
  ]}}
