{"events": {"event": {
    "eventDateTime": "2012-08-15T11:00:00",
    "eventActual": "8.30%",
    "eventCountry": "South Africa",
    "eventExpectedVolatility": "Low",
    "eventName": "Retail Sales (YoY)",
    "eventTimeZone": "GMT",
    "eventPrevious": "7.10%",
    "eventCurrency": "ZAR",
    "eventForecast": "4.70%"
  }}}
