{"events": {"event": [
    {
      "eventDateTime": "2018-07-30T05:30:00",
      "eventActual": "49.4%",
      "eventCountry": "Switzerland",
      "eventExpectedVolatility": "Moderate",
      "eventName": "Investing.com USD/CHF Index",
      "eventTimeZone": "GMT",
      "eventPrevious": "51.8%",
      "eventCurrency": "CHF",
      "eventForecast": ""
    },
    {
      "eventDateTime": "2018-07-30T07:00:00",
      "eventActual": "101.1",
      "eventCountry": "Switzerland",
      "eventExpectedVolatility": "Moderate",
      "eventName": "KOF Leading Indicators (Jul)",
      "eventTimeZone": "GMT",
      "eventPrevious": "101.3",
      "eventCurrency": "CHF",
      "eventForecast": "101.6"
    }
  ]}}
