{"events": {"event": [
    {
      "eventDateTime": "2016-01-27T00:30:00",
      "eventActual": "0.4%",
      "eventCountry": "Australia",
      "eventExpectedVolatility": "High",
      "eventName": "CPI (QoQ) (Q4)",
      "eventTimeZone": "GMT",
      "eventPrevious": "0.5%",
      "eventCurrency": "AUD",
      "eventForecast": "0.3%"
    },
    {
      "eventDateTime": "2016-01-27T00:30:00",
      "eventActual": "1.7%",
      "eventCountry": "Australia",
      "eventExpectedVolatility": "Moderate",
      "eventName": "CPI (YoY) (Q4)",
      "eventTimeZone": "GMT",
      "eventPrevious": "1.5%",
      "eventCurrency": "AUD",
      "eventForecast": "1.6%"
    },
    {
      "eventDateTime": "2016-01-27T00:30:00",
      "eventActual": "108.40",
      "eventCountry": "Australia",
      "eventExpectedVolatility": "Low",
      "eventName": "CPI Index Number (Q4)",
      "eventTimeZone": "GMT",
      "eventPrevious": "108.00",
      "eventCurrency": "AUD",
      "eventForecast": ""
    },
    {
      "eventDateTime": "2016-01-27T00:30:00",
      "eventActual": "0.6%",
      "eventCountry": "Australia",
      "eventExpectedVolatility": "Moderate",
      "eventName": "Trimmed Mean CPI (QoQ) (Q4)",
      "eventTimeZone": "GMT",
      "eventPrevious": "0.3%",
      "eventCurrency": "AUD",
      "eventForecast": "0.5%"
    },
    {
      "eventDateTime": "2016-01-27T00:30:00",
      "eventActual": "2.1%",
      "eventCountry": "Australia",
      "eventExpectedVolatility": "Low",
      "eventName": "Trimmed Mean CPI (YoY) (Q4)",
      "eventTimeZone": "GMT",
      "eventPrevious": "2.1%",
      "eventCurrency": "AUD",
      "eventForecast": "2.1%"
    },
    {
      "eventDateTime": "2016-01-27T00:30:00",
      "eventActual": "0.5%",
      "eventCountry": "Australia",
      "eventExpectedVolatility": "Low",
      "eventName": "Weighted mean CPI (QoQ) (Q4)",
      "eventTimeZone": "GMT",
      "eventPrevious": "0.4%",
      "eventCurrency": "AUD",
      "eventForecast": "0.5%"
    },
    {
      "eventDateTime": "2016-01-27T00:30:00",
      "eventActual": "1.9%",
      "eventCountry": "Australia",
      "eventExpectedVolatility": "Low",
      "eventName": "Weighted mean CPI (YoY) (Q4)",
      "eventTimeZone": "GMT",
      "eventPrevious": "2.1%",
      "eventCurrency": "AUD",
      "eventForecast": "2.1%"
    }
  ]}}
