{"events": {"event": [
    {
      "eventDateTime": "2018-09-06T09:00:00",
      "eventActual": "-3.30%",
      "eventCountry": "South Africa",
      "eventExpectedVolatility": "Low",
      "eventName": "Current Account % of GDP (Q2)",
      "eventTimeZone": "GMT",
      "eventPrevious": "-4.60%",
      "eventCurrency": "ZAR",
      "eventForecast": "-3.40%"
    },
    {
      "eventDateTime": "2018-09-06T09:00:00",
      "eventActual": "-163.8B",
      "eventCountry": "South Africa",
      "eventExpectedVolatility": "Low",
      "eventName": "Current Account (Q2)",
      "eventTimeZone": "GMT",
      "eventPrevious": "-219.4B",
      "eventCurrency": "ZAR",
      "eventForecast": "-166.5B"
    }
  ]}}
