"Business Confidence (Dec)";"South Africa";"ZAR";"2005-01-01T09:00:00";"GMT";"116.10";"";"115.50";"Low"
"CPI (MoM) (Dec)";"South Africa";"ZAR";"2005-01-01T09:00:00";"GMT";"0.49%";"";"-0.16%";"Moderate"
"CPI (YoY) (Dec)";"South Africa";"ZAR";"2005-01-01T09:00:00";"GMT";"3.67%";"";"3.51%";"Low"
"Foreign Reserves (USD) (Dec)";"South Africa";"ZAR";"2005-01-01T09:00:00";"GMT";"14.43B";"";"14.90B";"Low"
"Gold Production (YoY) (Dec)";"South Africa";"ZAR";"2005-01-01T09:00:00";"GMT";"-10.60%";"";"-13.14%";"Low"
"Interest Rate Decision (Dec)";"South Africa";"ZAR";"2005-01-01T09:00:00";"GMT";"7.50%";"";"7.50%";"Moderate"
"M3 Money Supply (YoY) (Dec)";"South Africa";"ZAR";"2005-01-01T09:00:00";"GMT";"14.05%";"";"13.13%";"Low"
"Mining Production (Dec)";"South Africa";"ZAR";"2005-01-01T09:00:00";"GMT";"1.14%";"";"-0.18%";"Low"
"Net FX Reserves (USD) (Dec)";"South Africa";"ZAR";"2005-01-01T09:00:00";"GMT";"11.02B";"";"11.43B";"Low"
"Prime Rate (Dec)";"South Africa";"ZAR";"2005-01-01T09:00:00";"GMT";"11.00%";"";"11.00%";"Low"
"Private Sector Credit (Dec)";"South Africa";"ZAR";"2005-01-01T09:00:00";"GMT";"10.73%";"";"13.80%";"Low"
"Retail Sales (YoY) (Dec)";"South Africa";"ZAR";"2005-01-01T09:00:00";"GMT";"11.20%";"";"11.80%";"Low"
"Total Vehicle Sales (Dec)";"South Africa";"ZAR";"2005-01-01T09:00:00";"GMT";"41.66K";"";"35.97K";"Low"
"Total Vehicle Sales (YoY) (Dec)";"South Africa";"ZAR";"2005-01-01T09:00:00";"GMT";"32.00%";"";"37.90%";"Low"
