{"events": {"event": [
    {
      "eventDateTime": "2009-11-27T02:00:00",
      "eventActual": "2.6%",
      "eventCountry": "New Zealand",
      "eventExpectedVolatility": "Moderate",
      "eventName": "Inflation Expectations (QoQ)",
      "eventTimeZone": "GMT",
      "eventPrevious": "2.3%",
      "eventCurrency": "NZD",
      "eventForecast": ""
    },
    {
      "eventDateTime": "2009-11-27T20:30:00",
      "eventActual": "11.6K",
      "eventCountry": "New Zealand",
      "eventExpectedVolatility": "Low",
      "eventName": "CFTC NZD speculative net positions",
      "eventTimeZone": "GMT",
      "eventPrevious": "12.7K",
      "eventCurrency": "NZD",
      "eventForecast": ""
    }
  ]}}
