{"events": {"event": [
    {
      "eventDateTime": "2013-11-08T06:45:00",
      "eventActual": "3.1%",
      "eventCountry": "Switzerland",
      "eventExpectedVolatility": "Moderate",
      "eventName": "Unemployment Rate n.s.a.",
      "eventTimeZone": "GMT",
      "eventPrevious": "3.0%",
      "eventCurrency": "CHF",
      "eventForecast": "3.1%"
    },
    {
      "eventDateTime": "2013-11-08T06:45:00",
      "eventActual": "3.2%",
      "eventCountry": "Switzerland",
      "eventExpectedVolatility": "Moderate",
      "eventName": "Unemployment Rate s.a.",
      "eventTimeZone": "GMT",
      "eventPrevious": "3.2%",
      "eventCurrency": "CHF",
      "eventForecast": "3.2%"
    },
    {
      "eventDateTime": "2013-11-08T08:15:00",
      "eventActual": "1.0%",
      "eventCountry": "Switzerland",
      "eventExpectedVolatility": "Moderate",
      "eventName": "Retail Sales (YoY)",
      "eventTimeZone": "GMT",
      "eventPrevious": "2.5%",
      "eventCurrency": "CHF",
      "eventForecast": "2.5%"
    },
    {
      "eventDateTime": "2013-11-08T20:30:00",
      "eventActual": "8.1K",
      "eventCountry": "Switzerland",
      "eventExpectedVolatility": "Low",
      "eventName": "CFTC CHF speculative net positions",
      "eventTimeZone": "GMT",
      "eventPrevious": "11.5K",
      "eventCurrency": "CHF",
      "eventForecast": ""
    }
  ]}}
