{"events": {"event": [
    {
      "eventDateTime": "2010-07-22T12:30:00",
      "eventActual": "464K",
      "eventCountry": "United States",
      "eventExpectedVolatility": "Moderate",
      "eventName": "Initial Jobless Claims",
      "eventTimeZone": "GMT",
      "eventPrevious": "427K",
      "eventCurrency": "USD",
      "eventForecast": "445K"
    },
    {
      "eventDateTime": "2010-07-22T13:30:00",
      "eventActual": "",
      "eventCountry": "United States",
      "eventExpectedVolatility": "High",
      "eventName": "Fed Chairman Bernanke Testifies",
      "eventTimeZone": "GMT",
      "eventPrevious": "",
      "eventCurrency": "USD",
      "eventForecast": ""
    },
    {
      "eventDateTime": "2010-07-22T14:00:00",
      "eventActual": "5.37M",
      "eventCountry": "United States",
      "eventExpectedVolatility": "High",
      "eventName": "Existing Home Sales",
      "eventTimeZone": "GMT",
      "eventPrevious": "5.66M",
      "eventCurrency": "USD",
      "eventForecast": "5.04M"
    },
    {
      "eventDateTime": "2010-07-22T14:00:00",
      "eventActual": "0.5%",
      "eventCountry": "United States",
      "eventExpectedVolatility": "Low",
      "eventName": "House Price Index (MoM)",
      "eventTimeZone": "GMT",
      "eventPrevious": "0.9%",
      "eventCurrency": "USD",
      "eventForecast": "-0.3%"
    },
    {
      "eventDateTime": "2010-07-22T14:30:00",
      "eventActual": "51B",
      "eventCountry": "United States",
      "eventExpectedVolatility": "Low",
      "eventName": "Natural Gas Storage",
      "eventTimeZone": "GMT",
      "eventPrevious": "78B",
      "eventCurrency": "USD",
      "eventForecast": ""
    }
  ]}}
