{"events": {"event": {
    "eventDateTime": "2008-02-27T21:45:00",
    "eventActual": "-1.0%",
    "eventCountry": "Australia",
    "eventExpectedVolatility": "Moderate",
    "eventName": "Construction Work Done (QoQ)",
    "eventTimeZone": "GMT",
    "eventPrevious": "2.8%",
    "eventCurrency": "AUD",
    "eventForecast": "2.0%"
  }}}
