{"events": {"event": [
    {
      "eventDateTime": "2013-12-24T12:00:00",
      "eventActual": "4.64%",
      "eventCountry": "United States",
      "eventExpectedVolatility": "Low",
      "eventName": "MBA 30-Year Mortgage Rate",
      "eventTimeZone": "GMT",
      "eventPrevious": "4.62%",
      "eventCurrency": "USD",
      "eventForecast": ""
    },
    {
      "eventDateTime": "2013-12-24T12:00:00",
      "eventActual": "-6.3%",
      "eventCountry": "United States",
      "eventExpectedVolatility": "Low",
      "eventName": "MBA Mortgage Applications (WoW)",
      "eventTimeZone": "GMT",
      "eventPrevious": "-5.5%",
      "eventCurrency": "USD",
      "eventForecast": ""
    },
    {
      "eventDateTime": "2013-12-24T12:45:00",
      "eventActual": "1.4%",
      "eventCountry": "United States",
      "eventExpectedVolatility": "Low",
      "eventName": "Chain Store Sales (WoW)",
      "eventTimeZone": "GMT",
      "eventPrevious": "4.8%",
      "eventCurrency": "USD",
      "eventForecast": ""
    },
    {
      "eventDateTime": "2013-12-24T12:45:00",
      "eventActual": "2.7%",
      "eventCountry": "United States",
      "eventExpectedVolatility": "Low",
      "eventName": "Chain Store Sales (YoY)",
      "eventTimeZone": "GMT",
      "eventPrevious": "2.0%",
      "eventCurrency": "USD",
      "eventForecast": ""
    },
    {
      "eventDateTime": "2013-12-24T13:30:00",
      "eventActual": "1.2%",
      "eventCountry": "United States",
      "eventExpectedVolatility": "High",
      "eventName": "Core Durable Goods Orders (MoM)",
      "eventTimeZone": "GMT",
      "eventPrevious": "0.7%",
      "eventCurrency": "USD",
      "eventForecast": "0.6%"
    },
    {
      "eventDateTime": "2013-12-24T13:30:00",
      "eventActual": "3.5%",
      "eventCountry": "United States",
      "eventExpectedVolatility": "Moderate",
      "eventName": "Durable Goods Orders (MoM)",
      "eventTimeZone": "GMT",
      "eventPrevious": "-0.7%",
      "eventCurrency": "USD",
      "eventForecast": "2.0%"
    },
    {
      "eventDateTime": "2013-12-24T13:30:00",
      "eventActual": "4.5%",
      "eventCountry": "United States",
      "eventExpectedVolatility": "Low",
      "eventName": "Goods Orders Non Defense Ex Air (MoM)",
      "eventTimeZone": "GMT",
      "eventPrevious": "-0.7%",
      "eventCurrency": "USD",
      "eventForecast": "0.7%"
    },
    {
      "eventDateTime": "2013-12-24T13:55:00",
      "eventActual": "-1.0%",
      "eventCountry": "United States",
      "eventExpectedVolatility": "Low",
      "eventName": "Redbook (MoM)",
      "eventTimeZone": "GMT",
      "eventPrevious": "-1.4%",
      "eventCurrency": "USD",
      "eventForecast": ""
    },
    {
      "eventDateTime": "2013-12-24T13:55:00",
      "eventActual": "3.9%",
      "eventCountry": "United States",
      "eventExpectedVolatility": "Low",
      "eventName": "Redbook (YoY)",
      "eventTimeZone": "GMT",
      "eventPrevious": "2.9%",
      "eventCurrency": "USD",
      "eventForecast": ""
    },
    {
      "eventDateTime": "2013-12-24T14:00:00",
      "eventActual": "0.5%",
      "eventCountry": "United States",
      "eventExpectedVolatility": "Low",
      "eventName": "House Price Index (MoM)",
      "eventTimeZone": "GMT",
      "eventPrevious": "0.2%",
      "eventCurrency": "USD",
      "eventForecast": "0.5%"
    },
    {
      "eventDateTime": "2013-12-24T14:00:00",
      "eventActual": "8.2%",
      "eventCountry": "United States",
      "eventExpectedVolatility": "Low",
      "eventName": "House Price Index (YoY)",
      "eventTimeZone": "GMT",
      "eventPrevious": "8.5%",
      "eventCurrency": "USD",
      "eventForecast": "8.3%"
    },
    {
      "eventDateTime": "2013-12-24T15:00:00",
      "eventActual": "464K",
      "eventCountry": "United States",
      "eventExpectedVolatility": "High",
      "eventName": "New Home Sales",
      "eventTimeZone": "GMT",
      "eventPrevious": "474K",
      "eventCurrency": "USD",
      "eventForecast": "445K"
    },
    {
      "eventDateTime": "2013-12-24T15:00:00",
      "eventActual": "-2.1%",
      "eventCountry": "United States",
      "eventExpectedVolatility": "Moderate",
      "eventName": "New Home Sales (MoM)",
      "eventTimeZone": "GMT",
      "eventPrevious": "17.6%",
      "eventCurrency": "USD",
      "eventForecast": "-2.0%"
    },
    {
      "eventDateTime": "2013-12-24T15:00:00",
      "eventActual": "13",
      "eventCountry": "United States",
      "eventExpectedVolatility": "Low",
      "eventName": "Richmond Manufacturing Index",
      "eventTimeZone": "GMT",
      "eventPrevious": "13",
      "eventCurrency": "USD",
      "eventForecast": "15"
    },
    {
      "eventDateTime": "2013-12-24T21:30:00",
      "eventActual": "0.50M",
      "eventCountry": "United States",
      "eventExpectedVolatility": "Moderate",
      "eventName": "API Weekly Crude Oil Stock",
      "eventTimeZone": "GMT",
      "eventPrevious": "-2.50M",
      "eventCurrency": "USD",
      "eventForecast": ""
    },
    {
      "eventDateTime": "2013-12-24T21:30:00",
      "eventActual": "-0.700M",
      "eventCountry": "United States",
      "eventExpectedVolatility": "Low",
      "eventName": "API Weekly Distillates Stocks",
      "eventTimeZone": "GMT",
      "eventPrevious": "0.434M",
      "eventCurrency": "USD",
      "eventForecast": ""
    },
    {
      "eventDateTime": "2013-12-24T21:30:00",
      "eventActual": "-2.500M",
      "eventCountry": "United States",
      "eventExpectedVolatility": "Low",
      "eventName": "API Weekly Gasoline Stock",
      "eventTimeZone": "GMT",
      "eventPrevious": "0.481M",
      "eventCurrency": "USD",
      "eventForecast": ""
    }
  ]}}
