"ECB's Enria Speaks";"Euro Zone";"EUR";"2019-03-07T08:20:00";"GMT";" ";"";"";"Moderate"
"Italian Retail Sales (MoM) (Jan)";"Italy";"EUR";"2019-03-07T09:00:00";"GMT";"-0.6%";"0.3%";"0.5%";"Low"
"Italian Retail Sales (YoY) (Jan)";"Italy";"EUR";"2019-03-07T09:00:00";"GMT";"-0.8%";"";"1.3%";"Low"
"Employment Change (QoQ) (Q4)";"Euro Zone";"EUR";"2019-03-07T10:00:00";"GMT";"0.3%";"0.3%";"0.3%";"Low"
"Employment Change (YoY) (Q4)";"Euro Zone";"EUR";"2019-03-07T10:00:00";"GMT";"1.2%";"1.2%";"1.3%";"Low"
"French 10-Year OAT Auction";"France";"EUR";"2019-03-07T10:00:00";"GMT";"0.57%";"";"0.57%";"Low"
"GDP (QoQ) (Q4)";"Euro Zone";"EUR";"2019-03-07T10:00:00";"GMT";"0.2%";"0.2%";"0.2%";"Moderate"
"GDP (YoY) (Q4)";"Euro Zone";"EUR";"2019-03-07T10:00:00";"GMT";"1.2%";"1.2%";"1.1%";"Moderate"
"Spanish 10-Year Obligacion Auction";"Spain";"EUR";"2019-03-07T10:00:00";"GMT";"1.285%";"";"1.222%";"Moderate"
"Spanish 5-Year Bonos Auction";"Spain";"EUR";"2019-03-07T10:00:00";"GMT";"0.164%";"";"0.142%";"Low"
"Deposit Facility Rate";"Euro Zone";"EUR";"2019-03-07T12:45:00";"GMT";"-0.40%";"-0.40%";"-0.40%";"High"
"ECB Interest Rate Decision (Mar)";"Euro Zone";"EUR";"2019-03-07T12:45:00";"GMT";"0.00%";"0.00%";"0.00%";"High"
"ECB Marginal Lending Facility";"Euro Zone";"EUR";"2019-03-07T12:45:00";"GMT";"0.25%";"0.25%";"0.25%";"High"
"ECB Monetary Policy Statement";"Euro Zone";"EUR";"2019-03-07T12:45:00";"GMT";" ";"";"";"High"
"ECB Press Conference";"Euro Zone";"EUR";"2019-03-07T13:30:00";"GMT";" ";"";"";"High"
