"GDP (QoQ)";"Hong Kong";"HKD";"2019-07-31T08:30:00";"GMT";"1.3%";"";"-0.3%";"Low"
"GDP (YoY)";"Hong Kong";"HKD";"2019-07-31T08:30:00";"GMT";"0.6%";"";"0.6%";"Low"
"M3 Money Supply (Jun)";"Hong Kong";"HKD";"2019-07-31T08:30:00";"GMT";"2.8%";"";"3.5%";"Low"
