{"events": {"event": {
    "eventDateTime": "2014-03-19T09:30:00",
    "eventActual": "14.2%",
    "eventCountry": "India",
    "eventExpectedVolatility": "Low",
    "eventName": "M3 Money Supply",
    "eventTimeZone": "GMT",
    "eventPrevious": "14.5%",
    "eventCurrency": "INR",
    "eventForecast": ""
  }}}
