"ANZ Commodity Price Index (MoM)";"New Zealand";"NZD";"2011-11-01T00:00:00";"GMT";"-1.3%";"";"-3.5%";"Low"
"Electronic Card Retail Sales (MoM) (Oct)";"New Zealand";"NZD";"2011-11-01T09:00:00";"GMT";"0.90%";"";"1.40%";"Moderate"
"Electronic Card Retail Sales (YoY) (Oct)";"New Zealand";"NZD";"2011-11-01T09:00:00";"GMT";"7.20%";"";"7.40%";"Low"
"Exports (Oct)";"New Zealand";"NZD";"2011-11-01T09:00:00";"GMT";"3.44B";"";"3.89B";"Low"
"External Migration andamp; Visitors (Oct)";"New Zealand";"NZD";"2011-11-01T09:00:00";"GMT";"26.29%";"";"16.77%";"Low"
"Government Monthly Debt (Oct)";"New Zealand";"NZD";"2011-11-01T09:00:00";"GMT";"22.60%";"";"22.90%";"Low"
"Imports (Oct)";"New Zealand";"NZD";"2011-11-01T09:00:00";"GMT";"4.23B";"";"4.11B";"Low"
"NBNZ Own Activity (Oct)";"New Zealand";"NZD";"2011-11-01T09:00:00";"GMT";"35.40%";"";"26.10%";"Low"
"Permanent/Long-Term Migration (Oct)";"New Zealand";"NZD";"2011-11-01T09:00:00";"GMT";"-780.00";"";"-780.00";"Low"
"RBNZ Offshore Holdings (Oct)";"New Zealand";"NZD";"2011-11-01T09:00:00";"GMT";"59.60%";"";"57.50%";"Low"
"REINZ House Price Index (MoM) (Oct)";"New Zealand";"NZD";"2011-11-01T09:00:00";"GMT";"1.70%";"";"-0.30%";"Low"
"REINZ House Price Index (YoY) (Oct)";"New Zealand";"NZD";"2011-11-01T09:00:00";"GMT";"2.70%";"";"3.40%";"Low"
"Trade Balance (YoY) (Oct)";"New Zealand";"NZD";"2011-11-01T09:00:00";"GMT";"690.00M";"";"690.00M";"Moderate"
"GlobalDairyTrade Price Index";"New Zealand";"NZD";"2011-11-01T20:00:00";"GMT";"2.50%";"";"-1.80%";"Moderate"
