{"events": {"event": [
    {
      "eventDateTime": "2014-12-29T23:00:00",
      "eventActual": "9.73B",
      "eventCountry": "South Korea",
      "eventExpectedVolatility": "Low",
      "eventName": "Current Account (Nov)",
      "eventTimeZone": "GMT",
      "eventPrevious": "7.17B",
      "eventCurrency": "KRW",
      "eventForecast": ""
    },
    {
      "eventDateTime": "2014-12-29T23:00:00",
      "eventActual": "1.3%",
      "eventCountry": "South Korea",
      "eventExpectedVolatility": "Low",
      "eventName": "Industrial Production (MoM) (Nov)",
      "eventTimeZone": "GMT",
      "eventPrevious": "-1.7%",
      "eventCurrency": "KRW",
      "eventForecast": "0.6%"
    },
    {
      "eventDateTime": "2014-12-29T23:00:00",
      "eventActual": "-3.4%",
      "eventCountry": "South Korea",
      "eventExpectedVolatility": "Low",
      "eventName": "Industrial Production (YoY) (Nov)",
      "eventTimeZone": "GMT",
      "eventPrevious": "-3.2%",
      "eventCurrency": "KRW",
      "eventForecast": "-2.3%"
    },
    {
      "eventDateTime": "2014-12-29T23:00:00",
      "eventActual": "1.9%",
      "eventCountry": "South Korea",
      "eventExpectedVolatility": "Low",
      "eventName": "Retail Sales (MoM)",
      "eventTimeZone": "GMT",
      "eventPrevious": "-0.1%",
      "eventCurrency": "KRW",
      "eventForecast": ""
    },
    {
      "eventDateTime": "2014-12-29T23:00:00",
      "eventActual": "-0.3%",
      "eventCountry": "South Korea",
      "eventExpectedVolatility": "Low",
      "eventName": "Service Sector Output (MoM) (Nov)",
      "eventTimeZone": "GMT",
      "eventPrevious": "0.8%",
      "eventCurrency": "KRW",
      "eventForecast": ""
    }
  ]}}
