"Budget Balance % of GDP (Mar)";"Russia";"RUB";"2006-04-01T09:00:00";"GMT";"11.70%";"";"10.80%";"Low"
"CPI (MoM) (Mar)";"Russia";"RUB";"2006-04-01T09:00:00";"GMT";"1.70%";"";"0.80%";"Moderate"
"CPI (YoY) (Mar)";"Russia";"RUB";"2006-04-01T09:00:00";"GMT";"11.20%";"";"10.60%";"Moderate"
"Central Bank reserves (USD) (Mar)";"Russia";"RUB";"2006-04-01T09:00:00";"GMT";"197.90B";"";"205.90B";"Moderate"
"GDP Monthly (YoY) (Mar)";"Russia";"RUB";"2006-04-01T09:00:00";"GMT";"5.10%";"";"5.00%";"Moderate"
"Industrial Production (YoY) (Mar)";"Russia";"RUB";"2006-04-01T09:00:00";"GMT";"1.30%";"";"6.00%";"Low"
"Interest Rate Decision (Mar)";"Russia";"RUB";"2006-04-01T09:00:00";"GMT";"6.50%";"";"6.50%";"High"
"PPI (MoM) (Mar)";"Russia";"RUB";"2006-04-01T09:00:00";"GMT";"3.30%";"";"2.10%";"Low"
"PPI (YoY) (Mar)";"Russia";"RUB";"2006-04-01T09:00:00";"GMT";"16.70%";"";"15.60%";"Low"
"Trade Balance (Mar)";"Russia";"RUB";"2006-04-01T09:00:00";"GMT";"11.37B";"";"12.09B";"Low"
"Unemployment Rate (Mar)";"Russia";"RUB";"2006-04-01T09:00:00";"GMT";"7.90%";"";"7.70%";"Moderate"
