{"events": {"event": [
    {
      "eventDateTime": "2011-06-30T06:00:00",
      "eventActual": "-2.8%",
      "eventCountry": "Germany",
      "eventExpectedVolatility": "Moderate",
      "eventName": "German Retail Sales (MoM)",
      "eventTimeZone": "GMT",
      "eventPrevious": "0.0%",
      "eventCurrency": "EUR",
      "eventForecast": "0.7%"
    },
    {
      "eventDateTime": "2011-06-30T06:45:00",
      "eventActual": "-0.8%",
      "eventCountry": "France",
      "eventExpectedVolatility": "Moderate",
      "eventName": "French Consumer Spending (MoM)",
      "eventTimeZone": "GMT",
      "eventPrevious": "-1.4%",
      "eventCurrency": "EUR",
      "eventForecast": "1.0%"
    },
    {
      "eventDateTime": "2011-06-30T06:45:00",
      "eventActual": "-0.5%",
      "eventCountry": "France",
      "eventExpectedVolatility": "Low",
      "eventName": "French PPI (MoM)",
      "eventTimeZone": "GMT",
      "eventPrevious": "0.8%",
      "eventCurrency": "EUR",
      "eventForecast": "0.2%"
    },
    {
      "eventDateTime": "2011-06-30T07:00:00",
      "eventActual": "",
      "eventCountry": "Euro Zone",
      "eventExpectedVolatility": "High",
      "eventName": "ECB President Trichet Speaks",
      "eventTimeZone": "GMT",
      "eventPrevious": "",
      "eventCurrency": "EUR",
      "eventForecast": ""
    },
    {
      "eventDateTime": "2011-06-30T07:55:00",
      "eventActual": "-8K",
      "eventCountry": "Germany",
      "eventExpectedVolatility": "High",
      "eventName": "German Unemployment Change",
      "eventTimeZone": "GMT",
      "eventPrevious": "-8K",
      "eventCurrency": "EUR",
      "eventForecast": "-17K"
    },
    {
      "eventDateTime": "2011-06-30T07:55:00",
      "eventActual": "7.0%",
      "eventCountry": "Germany",
      "eventExpectedVolatility": "Moderate",
      "eventName": "German Unemployment Rate",
      "eventTimeZone": "GMT",
      "eventPrevious": "7.0%",
      "eventCurrency": "EUR",
      "eventForecast": "7.0%"
    },
    {
      "eventDateTime": "2011-06-30T08:00:00",
      "eventActual": "2.4%",
      "eventCountry": "Euro Zone",
      "eventExpectedVolatility": "Low",
      "eventName": "M3 Money Supply (YoY)",
      "eventTimeZone": "GMT",
      "eventPrevious": "2.0%",
      "eventCurrency": "EUR",
      "eventForecast": "2.1%"
    },
    {
      "eventDateTime": "2011-06-30T08:00:00",
      "eventActual": "2.7%",
      "eventCountry": "Euro Zone",
      "eventExpectedVolatility": "Low",
      "eventName": "Private Sector Loans (YoY)",
      "eventTimeZone": "GMT",
      "eventPrevious": "2.6%",
      "eventCurrency": "EUR",
      "eventForecast": "2.8%"
    },
    {
      "eventDateTime": "2011-06-30T09:00:00",
      "eventActual": "2.7%",
      "eventCountry": "Euro Zone",
      "eventExpectedVolatility": "High",
      "eventName": "CPI (YoY)",
      "eventTimeZone": "GMT",
      "eventPrevious": "2.7%",
      "eventCurrency": "EUR",
      "eventForecast": "2.8%"
    },
    {
      "eventDateTime": "2011-06-30T09:00:00",
      "eventActual": "0.1%",
      "eventCountry": "Italy",
      "eventExpectedVolatility": "Moderate",
      "eventName": "Italian CPI (MoM)",
      "eventTimeZone": "GMT",
      "eventPrevious": "0.1%",
      "eventCurrency": "EUR",
      "eventForecast": "0.2%"
    }
  ]}}
