{"events": {"event": {
    "eventDateTime": "2011-11-10T02:00:00",
    "eventActual": "17.00B",
    "eventCountry": "China",
    "eventExpectedVolatility": "Moderate",
    "eventName": "Trade Balance (USD)",
    "eventTimeZone": "GMT",
    "eventPrevious": "14.50B",
    "eventCurrency": "CNY",
    "eventForecast": "26.10B"
  }}}
