{"events": {"event": [
    {
      "eventDateTime": "2018-10-31T03:00:00",
      "eventActual": "-0.10%",
      "eventCountry": "Japan",
      "eventExpectedVolatility": "Moderate",
      "eventName": "BoJ Interest Rate Decision",
      "eventTimeZone": "GMT",
      "eventPrevious": "-0.10%",
      "eventCurrency": "JPY",
      "eventForecast": "-0.10%"
    },
    {
      "eventDateTime": "2018-10-31T03:00:00",
      "eventActual": "",
      "eventCountry": "Japan",
      "eventExpectedVolatility": "High",
      "eventName": "BoJ Monetary Policy Statement",
      "eventTimeZone": "GMT",
      "eventPrevious": "",
      "eventCurrency": "JPY",
      "eventForecast": ""
    },
    {
      "eventDateTime": "2018-10-31T05:00:00",
      "eventActual": "",
      "eventCountry": "Japan",
      "eventExpectedVolatility": "High",
      "eventName": "BoJ Outlook Report (YoY)",
      "eventTimeZone": "GMT",
      "eventPrevious": "",
      "eventCurrency": "JPY",
      "eventForecast": ""
    },
    {
      "eventDateTime": "2018-10-31T05:00:00",
      "eventActual": "1.0%",
      "eventCountry": "Japan",
      "eventExpectedVolatility": "Low",
      "eventName": "Construction Orders (YoY) (Sep)",
      "eventTimeZone": "GMT",
      "eventPrevious": "0.5%",
      "eventCurrency": "JPY",
      "eventForecast": ""
    },
    {
      "eventDateTime": "2018-10-31T05:00:00",
      "eventActual": "43.0",
      "eventCountry": "Japan",
      "eventExpectedVolatility": "Low",
      "eventName": "Household Confidence (Oct)",
      "eventTimeZone": "GMT",
      "eventPrevious": "43.4",
      "eventCurrency": "JPY",
      "eventForecast": "43.5"
    },
    {
      "eventDateTime": "2018-10-31T05:00:00",
      "eventActual": "-1.5%",
      "eventCountry": "Japan",
      "eventExpectedVolatility": "Low",
      "eventName": "Housing Starts (YoY) (Sep)",
      "eventTimeZone": "GMT",
      "eventPrevious": "1.6%",
      "eventCurrency": "JPY",
      "eventForecast": "-0.5%"
    },
    {
      "eventDateTime": "2018-10-31T06:30:00",
      "eventActual": "",
      "eventCountry": "Japan",
      "eventExpectedVolatility": "High",
      "eventName": "BoJ Press Conference",
      "eventTimeZone": "GMT",
      "eventPrevious": "",
      "eventCurrency": "JPY",
      "eventForecast": ""
    },
    {
      "eventDateTime": "2018-10-31T23:50:00",
      "eventActual": "-1,077.8B",
      "eventCountry": "Japan",
      "eventExpectedVolatility": "Low",
      "eventName": "Foreign Bonds Buying",
      "eventTimeZone": "GMT",
      "eventPrevious": "27.2B",
      "eventCurrency": "JPY",
      "eventForecast": ""
    },
    {
      "eventDateTime": "2018-10-31T23:50:00",
      "eventActual": "-349.0B",
      "eventCountry": "Japan",
      "eventExpectedVolatility": "Low",
      "eventName": "Foreign Investments in Japanese Stocks",
      "eventTimeZone": "GMT",
      "eventPrevious": "223.7B",
      "eventCurrency": "JPY",
      "eventForecast": ""
    }
  ]}}
