"Bank Lending (Feb)";"Singapore";"SGD";"2004-03-01T09:00:00";"GMT";"171.30B";"";"172.60B";"Low"
"CPI (YoY) (Feb)";"Singapore";"SGD";"2004-03-01T09:00:00";"GMT";"0.67%";"";"2.02%";"Moderate"
"Foreign Reserves USD (MoM) (Feb)";"Singapore";"SGD";"2004-03-01T09:00:00";"GMT";"98.40B";"";"101.00B";"Low"
"Industrial Production (MoM) (Feb)";"Singapore";"SGD";"2004-03-01T09:00:00";"GMT";"24.70%";"";"-15.20%";"Low"
"Industrial Production (YoY) (Feb)";"Singapore";"SGD";"2004-03-01T09:00:00";"GMT";"6.40%";"";"28.40%";"Low"
"Manufacturing PMI (Feb)";"Singapore";"SGD";"2004-03-01T09:00:00";"GMT";"53.80";"";"53.10";"Low"
"Non-Oil Exports (MoM) (Feb)";"Singapore";"SGD";"2004-03-01T09:00:00";"GMT";"2.70%";"";"0.00%";"Low"
"Non-Oil Exports (YoY) (Feb)";"Singapore";"SGD";"2004-03-01T09:00:00";"GMT";"0.30%";"";"22.90%";"Low"
"Retail Sales (MoM) (Feb)";"Singapore";"SGD";"2004-03-01T09:00:00";"GMT";"-2.80%";"";"8.10%";"Low"
"Retail Sales (YoY) (Feb)";"Singapore";"SGD";"2004-03-01T09:00:00";"GMT";"5.50%";"";"40.00%";"Low"
