{"events": {"event": [
    {
      "eventDateTime": "2012-05-31T01:30:00",
      "eventActual": "-8.7%",
      "eventCountry": "Australia",
      "eventExpectedVolatility": "Moderate",
      "eventName": "Building Approvals (MoM)",
      "eventTimeZone": "GMT",
      "eventPrevious": "6.0%",
      "eventCurrency": "AUD",
      "eventForecast": "0.7%"
    },
    {
      "eventDateTime": "2012-05-31T01:30:00",
      "eventActual": "6.1%",
      "eventCountry": "Australia",
      "eventExpectedVolatility": "Moderate",
      "eventName": "Private New Capital Expenditure (QoQ)",
      "eventTimeZone": "GMT",
      "eventPrevious": "-0.7%",
      "eventCurrency": "AUD",
      "eventForecast": "4.0%"
    },
    {
      "eventDateTime": "2012-05-31T01:30:00",
      "eventActual": "0.4%",
      "eventCountry": "Australia",
      "eventExpectedVolatility": "Moderate",
      "eventName": "Private Sector Credit (MoM)",
      "eventTimeZone": "GMT",
      "eventPrevious": "0.4%",
      "eventCurrency": "AUD",
      "eventForecast": "0.3%"
    },
    {
      "eventDateTime": "2012-05-31T23:30:00",
      "eventActual": "42.4",
      "eventCountry": "Australia",
      "eventExpectedVolatility": "Moderate",
      "eventName": "AIG Manufacturing Index",
      "eventTimeZone": "GMT",
      "eventPrevious": "43.9",
      "eventCurrency": "AUD",
      "eventForecast": ""
    }
  ]}}
