{"events": {"event": [
    {
      "eventDateTime": "2013-06-20T12:00:00",
      "eventActual": "2.9%",
      "eventCountry": "Russia",
      "eventExpectedVolatility": "Moderate",
      "eventName": "Retail Sales (YoY)",
      "eventTimeZone": "GMT",
      "eventPrevious": "4.1%",
      "eventCurrency": "RUB",
      "eventForecast": "3.6%"
    },
    {
      "eventDateTime": "2013-06-20T12:00:00",
      "eventActual": "5.2%",
      "eventCountry": "Russia",
      "eventExpectedVolatility": "Moderate",
      "eventName": "Unemployment Rate",
      "eventTimeZone": "GMT",
      "eventPrevious": "5.6%",
      "eventCurrency": "RUB",
      "eventForecast": "5.3%"
    }
  ]}}
