"NFIB Small Business Optimism";"United States";"USD";"2013-05-14T11:30:00";"GMT";"89.5";"89.8";"92.1";"Low"
"Import Price Index (MoM)";"United States";"USD";"2013-05-14T12:30:00";"GMT";"-0.2%";"-0.5%";"-0.5%";"Moderate"
"Redbook (MoM)";"United States";"USD";"2013-05-14T12:55:00";"GMT";"-2.50%";"";"0.70%";"Low"
"4-Week Bill Auction";"United States";"USD";"2013-05-14T15:30:00";"GMT";"0.000%";"";"0.010%";"Low"
"API Weekly Crude Oil Stock";"United States";"USD";"2013-05-14T20:30:00";"GMT";"0.68M";"0.20M";"1.11M";"Moderate"
"API Weekly Gasoline Stock";"United States";"USD";"2013-05-14T20:30:00";"GMT";"-0.19M";"-0.63M";"-0.48M";"Low"
