{"events": {"event": [
    {
      "eventDateTime": "2013-06-14T02:45:00",
      "eventActual": "0.361%",
      "eventCountry": "Japan",
      "eventExpectedVolatility": "Low",
      "eventName": "5-Year JGB Auction",
      "eventTimeZone": "GMT",
      "eventPrevious": "0.404%",
      "eventCurrency": "JPY",
      "eventForecast": ""
    },
    {
      "eventDateTime": "2013-06-14T19:30:00",
      "eventActual": "-72.9K",
      "eventCountry": "Japan",
      "eventExpectedVolatility": "Moderate",
      "eventName": "CFTC JPY speculative net positions",
      "eventTimeZone": "GMT",
      "eventPrevious": "-82.7K",
      "eventCurrency": "JPY",
      "eventForecast": ""
    }
  ]}}
