{"events": {"event": [
    {
      "eventDateTime": "2013-12-06T08:00:00",
      "eventActual": "1.1%",
      "eventCountry": "United Kingdom",
      "eventExpectedVolatility": "Moderate",
      "eventName": "Halifax House Price Index (MoM)",
      "eventTimeZone": "GMT",
      "eventPrevious": "1.3%",
      "eventCurrency": "GBP",
      "eventForecast": "0.6%"
    },
    {
      "eventDateTime": "2013-12-06T08:00:00",
      "eventActual": "7.7%",
      "eventCountry": "United Kingdom",
      "eventExpectedVolatility": "Moderate",
      "eventName": "Halifax House Price Index (YoY)",
      "eventTimeZone": "GMT",
      "eventPrevious": "6.9%",
      "eventCurrency": "GBP",
      "eventForecast": "7.2%"
    },
    {
      "eventDateTime": "2013-12-06T09:30:00",
      "eventActual": "3.6%",
      "eventCountry": "United Kingdom",
      "eventExpectedVolatility": "Low",
      "eventName": "Inflation Expectations",
      "eventTimeZone": "GMT",
      "eventPrevious": "3.2%",
      "eventCurrency": "GBP",
      "eventForecast": ""
    },
    {
      "eventDateTime": "2013-12-06T20:30:00",
      "eventActual": "18.4K",
      "eventCountry": "United Kingdom",
      "eventExpectedVolatility": "Moderate",
      "eventName": "CFTC GBP speculative net positions",
      "eventTimeZone": "GMT",
      "eventPrevious": "0.4K",
      "eventCurrency": "GBP",
      "eventForecast": ""
    }
  ]}}
