{"events": {"event": [
    {
      "eventDateTime": "2009-10-08T12:30:00",
      "eventActual": "521K",
      "eventCountry": "United States",
      "eventExpectedVolatility": "Moderate",
      "eventName": "Initial Jobless Claims",
      "eventTimeZone": "GMT",
      "eventPrevious": "554K",
      "eventCurrency": "USD",
      "eventForecast": "545K"
    },
    {
      "eventDateTime": "2009-10-08T14:00:00",
      "eventActual": "-1.3%",
      "eventCountry": "United States",
      "eventExpectedVolatility": "Low",
      "eventName": "Wholesale Inventories (MoM)",
      "eventTimeZone": "GMT",
      "eventPrevious": "-1.6%",
      "eventCurrency": "USD",
      "eventForecast": "-0.9%"
    },
    {
      "eventDateTime": "2009-10-08T14:30:00",
      "eventActual": "69B",
      "eventCountry": "United States",
      "eventExpectedVolatility": "Low",
      "eventName": "Natural Gas Storage",
      "eventTimeZone": "GMT",
      "eventPrevious": "64B",
      "eventCurrency": "USD",
      "eventForecast": ""
    },
    {
      "eventDateTime": "2009-10-08T23:00:00",
      "eventActual": "",
      "eventCountry": "United States",
      "eventExpectedVolatility": "High",
      "eventName": "Fed Chairman Bernanke Speaks",
      "eventTimeZone": "GMT",
      "eventPrevious": "",
      "eventCurrency": "USD",
      "eventForecast": ""
    }
  ]}}
