{"events": {"event": {
    "eventDateTime": "2013-07-23T22:45:00",
    "eventActual": "414M",
    "eventCountry": "New Zealand",
    "eventExpectedVolatility": "Moderate",
    "eventName": "Trade Balance (MoM)",
    "eventTimeZone": "GMT",
    "eventPrevious": "71M",
    "eventCurrency": "NZD",
    "eventForecast": "-100M"
  }}}
