{"events": {"event": {
    "eventDateTime": "2016-02-18T07:00:00",
    "eventActual": "3.513B",
    "eventCountry": "Switzerland",
    "eventExpectedVolatility": "Low",
    "eventName": "Trade Balance (Jan)",
    "eventTimeZone": "GMT",
    "eventPrevious": "2.589B",
    "eventCurrency": "CHF",
    "eventForecast": "2.670B"
  }}}
