"Current Account (Jan)";"Euro Zone";"EUR";"2017-03-22T09:00:00";"GMT";"30.8B";"29.3B";"24.1B";"Low"
"Current Account n.s.a. (Jan)";"Euro Zone";"EUR";"2017-03-22T09:00:00";"GMT";"46.9B";"";"2.5B";"Low"
"Net Investment Flow (Jan)";"Euro Zone";"EUR";"2017-03-22T09:00:00";"GMT";"121.9B";"";"";"Low"
"German 10-Year Bund Auction";"Germany";"EUR";"2017-03-22T10:35:00";"GMT";"0.250%";"";"0.410%";"Moderate"
"ECB's Lautenschlaeger Speaks";"Euro Zone";"EUR";"2017-03-22T11:30:00";"GMT";" ";"";"";"Moderate"
