{"events": {"event": [
    {
      "eventDateTime": "2017-12-12T13:00:00",
      "eventActual": "1.8%",
      "eventCountry": "Russia",
      "eventExpectedVolatility": "Moderate",
      "eventName": "GDP Quarterly (YoY) (Q3)",
      "eventTimeZone": "GMT",
      "eventPrevious": "1.8%",
      "eventCurrency": "RUB",
      "eventForecast": ""
    },
    {
      "eventDateTime": "2017-12-12T13:00:00",
      "eventActual": "9.83B",
      "eventCountry": "Russia",
      "eventExpectedVolatility": "Low",
      "eventName": "Trade Balance (Oct)",
      "eventTimeZone": "GMT",
      "eventPrevious": "10.22B",
      "eventCurrency": "RUB",
      "eventForecast": "9.98B"
    }
  ]}}
