{"events": {"event": [
    {
      "eventDateTime": "2018-02-13T07:45:00",
      "eventActual": "0.3%",
      "eventCountry": "France",
      "eventExpectedVolatility": "Moderate",
      "eventName": "French Non-Farm Payrolls (QoQ) (Q4)",
      "eventTimeZone": "GMT",
      "eventPrevious": "0.2%",
      "eventCurrency": "EUR",
      "eventForecast": "0.2%"
    },
    {
      "eventDateTime": "2018-02-13T09:50:00",
      "eventActual": "-0.419%",
      "eventCountry": "Spain",
      "eventExpectedVolatility": "Low",
      "eventName": "Spanish 12-Month Letras Auction",
      "eventTimeZone": "GMT",
      "eventPrevious": "-0.402%",
      "eventCurrency": "EUR",
      "eventForecast": ""
    },
    {
      "eventDateTime": "2018-02-13T09:50:00",
      "eventActual": "-0.472%",
      "eventCountry": "Spain",
      "eventExpectedVolatility": "Low",
      "eventName": "Spanish 6-Month Letras Auction",
      "eventTimeZone": "GMT",
      "eventPrevious": "-0.459%",
      "eventCurrency": "EUR",
      "eventForecast": ""
    },
    {
      "eventDateTime": "2018-02-13T10:45:00",
      "eventActual": "0.05%",
      "eventCountry": "Italy",
      "eventExpectedVolatility": "Low",
      "eventName": "Italian 3-Year BTP Auction",
      "eventTimeZone": "GMT",
      "eventPrevious": "0.04%",
      "eventCurrency": "EUR",
      "eventForecast": ""
    },
    {
      "eventDateTime": "2018-02-13T10:45:00",
      "eventActual": "3.160%",
      "eventCountry": "Italy",
      "eventExpectedVolatility": "Low",
      "eventName": "Italian 30-Year BTP Auction",
      "eventTimeZone": "GMT",
      "eventPrevious": "3.330%",
      "eventCurrency": "EUR",
      "eventForecast": ""
    },
    {
      "eventDateTime": "2018-02-13T10:45:00",
      "eventActual": "1.43%",
      "eventCountry": "Italy",
      "eventExpectedVolatility": "Low",
      "eventName": "Italian 7-Year BTP Auction",
      "eventTimeZone": "GMT",
      "eventPrevious": "1.35%",
      "eventCurrency": "EUR",
      "eventForecast": ""
    }
  ]}}
