"Core Retail Sales (MoM) (Jun)";"United Kingdom";"GBP";"2015-07-23T08:30:00";"GMT";"0.4%";"0.3%";"-0.2%";"Moderate"
"Core Retail Sales (YoY) (Jun)";"United Kingdom";"GBP";"2015-07-23T08:30:00";"GMT";"4.5%";"5.0%";"4.2%";"Moderate"
"Retail Sales (MoM) (Jun)";"United Kingdom";"GBP";"2015-07-23T08:30:00";"GMT";"0.3%";"0.3%";"-0.2%";"High"
"Retail Sales (YoY) (Jun)";"United Kingdom";"GBP";"2015-07-23T08:30:00";"GMT";"4.7%";"4.9%";"4.0%";"Moderate"
