"Exports (MoM) (Dec)";"Hong Kong";"HKD";"2020-01-30T08:30:00";"GMT";"-1.4%";"";"3.3%";"Low"
"Imports (MoM) (Dec)";"Hong Kong";"HKD";"2020-01-30T08:30:00";"GMT";"-5.8%";"";"-1.9%";"Low"
"Trade Balance";"Hong Kong";"HKD";"2020-01-30T08:30:00";"GMT";"-26.2B";"";"-32.5B";"Low"
