{"events": {"event": [
    {
      "eventDateTime": "2019-11-04T00:00:00",
      "eventActual": "0.1%",
      "eventCountry": "Australia",
      "eventExpectedVolatility": "Low",
      "eventName": "MI Inflation Gauge (MoM)",
      "eventTimeZone": "GMT",
      "eventPrevious": "0.1%",
      "eventCurrency": "AUD",
      "eventForecast": ""
    },
    {
      "eventDateTime": "2019-11-04T00:30:00",
      "eventActual": "-1.0%",
      "eventCountry": "Australia",
      "eventExpectedVolatility": "Low",
      "eventName": "ANZ Job Advertisements (MoM)",
      "eventTimeZone": "GMT",
      "eventPrevious": "0.3%",
      "eventCurrency": "AUD",
      "eventForecast": ""
    },
    {
      "eventDateTime": "2019-11-04T00:30:00",
      "eventActual": "0.2%",
      "eventCountry": "Australia",
      "eventExpectedVolatility": "High",
      "eventName": "Retail Sales (MoM) (Sep)",
      "eventTimeZone": "GMT",
      "eventPrevious": "0.4%",
      "eventCurrency": "AUD",
      "eventForecast": "0.5%"
    },
    {
      "eventDateTime": "2019-11-04T00:30:00",
      "eventActual": "-0.1%",
      "eventCountry": "Australia",
      "eventExpectedVolatility": "Low",
      "eventName": "Retail Sales (QoQ) (Q4)",
      "eventTimeZone": "GMT",
      "eventPrevious": "0.2%",
      "eventCurrency": "AUD",
      "eventForecast": "0.2%"
    },
    {
      "eventDateTime": "2019-11-04T05:30:00",
      "eventActual": "36.1%",
      "eventCountry": "Australia",
      "eventExpectedVolatility": "Moderate",
      "eventName": "Investing.com AUD/USD Index",
      "eventTimeZone": "GMT",
      "eventPrevious": "39.5%",
      "eventCurrency": "AUD",
      "eventForecast": ""
    },
    {
      "eventDateTime": "2019-11-04T21:30:00",
      "eventActual": "54.2",
      "eventCountry": "Australia",
      "eventExpectedVolatility": "Low",
      "eventName": "AIG Services Index (Oct)",
      "eventTimeZone": "GMT",
      "eventPrevious": "51.5",
      "eventCurrency": "AUD",
      "eventForecast": ""
    },
    {
      "eventDateTime": "2019-11-04T22:00:00",
      "eventActual": "50.1",
      "eventCountry": "Australia",
      "eventExpectedVolatility": "Low",
      "eventName": "Services PMI",
      "eventTimeZone": "GMT",
      "eventPrevious": "52.4",
      "eventCurrency": "AUD",
      "eventForecast": ""
    }
  ]}}
