{"events": {"event": {
    "eventDateTime": "2013-11-18T01:30:00",
    "eventActual": "9.60%",
    "eventCountry": "China",
    "eventExpectedVolatility": "Low",
    "eventName": "House Prices (YoY)",
    "eventTimeZone": "GMT",
    "eventPrevious": "9.10%",
    "eventCurrency": "CNY",
    "eventForecast": ""
  }}}
