{"events": {"event": {
    "eventDateTime": "2018-12-05T00:30:00",
    "eventActual": "47.1",
    "eventCountry": "Hong Kong",
    "eventExpectedVolatility": "Low",
    "eventName": "Manufacturing PMI (Nov)",
    "eventTimeZone": "GMT",
    "eventPrevious": "48.6",
    "eventCurrency": "HKD",
    "eventForecast": ""
  }}}
