{"events": {"event": [
    {
      "eventDateTime": "2016-06-08T07:15:00",
      "eventActual": "0.1%",
      "eventCountry": "Switzerland",
      "eventExpectedVolatility": "Moderate",
      "eventName": "CPI (MoM) (May)",
      "eventTimeZone": "GMT",
      "eventPrevious": "0.3%",
      "eventCurrency": "CHF",
      "eventForecast": "0.2%"
    },
    {
      "eventDateTime": "2016-06-08T07:15:00",
      "eventActual": "-0.4%",
      "eventCountry": "Switzerland",
      "eventExpectedVolatility": "Low",
      "eventName": "CPI (YoY) (May)",
      "eventTimeZone": "GMT",
      "eventPrevious": "-0.4%",
      "eventCurrency": "CHF",
      "eventForecast": "-0.4%"
    }
  ]}}
