{"events": {"event": [
    {
      "eventDateTime": "2015-01-27T09:45:00",
      "eventActual": "0.018%",
      "eventCountry": "Spain",
      "eventExpectedVolatility": "Low",
      "eventName": "Spanish 3-Month Letras Auction",
      "eventTimeZone": "GMT",
      "eventPrevious": "0.200%",
      "eventCurrency": "EUR",
      "eventForecast": ""
    },
    {
      "eventDateTime": "2015-01-27T10:25:00",
      "eventActual": "0.281%",
      "eventCountry": "Italy",
      "eventExpectedVolatility": "Low",
      "eventName": "Italian 2-Year CTZ Auction",
      "eventTimeZone": "GMT",
      "eventPrevious": "0.692%",
      "eventCurrency": "EUR",
      "eventForecast": ""
    },
    {
      "eventDateTime": "2015-01-27T17:00:00",
      "eventActual": "3,496.4K",
      "eventCountry": "France",
      "eventExpectedVolatility": "Moderate",
      "eventName": "France Jobseekers Total (Dec)",
      "eventTimeZone": "GMT",
      "eventPrevious": "3,488.3K",
      "eventCurrency": "EUR",
      "eventForecast": ""
    }
  ]}}
