{"events": {"event": {
    "eventDateTime": "2012-09-02T22:45:00",
    "eventActual": "-2.6%",
    "eventCountry": "New Zealand",
    "eventExpectedVolatility": "Low",
    "eventName": "Terms of Trade Index (QoQ)",
    "eventTimeZone": "GMT",
    "eventPrevious": "-2.3%",
    "eventCurrency": "NZD",
    "eventForecast": "-2.0%"
  }}}
