{"events": {"event": [
    {
      "eventDateTime": "2002-04-01T09:00:00",
      "eventActual": "2.00%",
      "eventCountry": "Canada",
      "eventExpectedVolatility": "High",
      "eventName": "BoC Interest Rate Decision (Mar)",
      "eventTimeZone": "GMT",
      "eventPrevious": "2.00%",
      "eventCurrency": "CAD",
      "eventForecast": ""
    },
    {
      "eventDateTime": "2002-04-01T09:00:00",
      "eventActual": "-4.80B",
      "eventCountry": "Canada",
      "eventExpectedVolatility": "Low",
      "eventName": "Budget Balance (Mar)",
      "eventTimeZone": "GMT",
      "eventPrevious": "4.23B",
      "eventCurrency": "CAD",
      "eventForecast": ""
    },
    {
      "eventDateTime": "2002-04-01T09:00:00",
      "eventActual": "6.10%",
      "eventCountry": "Canada",
      "eventExpectedVolatility": "Moderate",
      "eventName": "Building Permits (MoM) (Mar)",
      "eventTimeZone": "GMT",
      "eventPrevious": "2.90%",
      "eventCurrency": "CAD",
      "eventForecast": ""
    },
    {
      "eventDateTime": "2002-04-01T09:00:00",
      "eventActual": "0.70%",
      "eventCountry": "Canada",
      "eventExpectedVolatility": "Moderate",
      "eventName": "CPI (MoM) (Mar)",
      "eventTimeZone": "GMT",
      "eventPrevious": "0.60%",
      "eventCurrency": "CAD",
      "eventForecast": ""
    },
    {
      "eventDateTime": "2002-04-01T09:00:00",
      "eventActual": "1.90%",
      "eventCountry": "Canada",
      "eventExpectedVolatility": "Low",
      "eventName": "CPI (YoY) (Mar)",
      "eventTimeZone": "GMT",
      "eventPrevious": "1.40%",
      "eventCurrency": "CAD",
      "eventForecast": ""
    },
    {
      "eventDateTime": "2002-04-01T09:00:00",
      "eventActual": "0.40%",
      "eventCountry": "Canada",
      "eventExpectedVolatility": "High",
      "eventName": "Core CPI (MoM) (Mar)",
      "eventTimeZone": "GMT",
      "eventPrevious": "0.70%",
      "eventCurrency": "CAD",
      "eventForecast": ""
    },
    {
      "eventDateTime": "2002-04-01T09:00:00",
      "eventActual": "2.20%",
      "eventCountry": "Canada",
      "eventExpectedVolatility": "Moderate",
      "eventName": "Core CPI (YoY) (Mar)",
      "eventTimeZone": "GMT",
      "eventPrevious": "2.30%",
      "eventCurrency": "CAD",
      "eventForecast": ""
    },
    {
      "eventDateTime": "2002-04-01T09:00:00",
      "eventActual": "1.20%",
      "eventCountry": "Canada",
      "eventExpectedVolatility": "High",
      "eventName": "Core Retail Sales (MoM) (Mar)",
      "eventTimeZone": "GMT",
      "eventPrevious": "0.60%",
      "eventCurrency": "CAD",
      "eventForecast": ""
    },
    {
      "eventDateTime": "2002-04-01T09:00:00",
      "eventActual": "67.70K",
      "eventCountry": "Canada",
      "eventExpectedVolatility": "High",
      "eventName": "Employment Change (Mar)",
      "eventTimeZone": "GMT",
      "eventPrevious": "19.00K",
      "eventCurrency": "CAD",
      "eventForecast": ""
    },
    {
      "eventDateTime": "2002-04-01T09:00:00",
      "eventActual": "32.88B",
      "eventCountry": "Canada",
      "eventExpectedVolatility": "Low",
      "eventName": "Exports (Mar)",
      "eventTimeZone": "GMT",
      "eventPrevious": "34.20B",
      "eventCurrency": "CAD",
      "eventForecast": ""
    },
    {
      "eventDateTime": "2002-04-01T09:00:00",
      "eventActual": "0.22B",
      "eventCountry": "Canada",
      "eventExpectedVolatility": "Moderate",
      "eventName": "Foreign Securities Purchases (Mar)",
      "eventTimeZone": "GMT",
      "eventPrevious": "4.01B",
      "eventCurrency": "CAD",
      "eventForecast": ""
    },
    {
      "eventDateTime": "2002-04-01T09:00:00",
      "eventActual": "3.76B",
      "eventCountry": "Canada",
      "eventExpectedVolatility": "Low",
      "eventName": "Foreign Securities Purchases by Canadians (Mar)",
      "eventTimeZone": "GMT",
      "eventPrevious": "10.02B",
      "eventCurrency": "CAD",
      "eventForecast": ""
    },
    {
      "eventDateTime": "2002-04-01T09:00:00",
      "eventActual": "42.30K",
      "eventCountry": "Canada",
      "eventExpectedVolatility": "Low",
      "eventName": "Full Employment Change (Mar)",
      "eventTimeZone": "GMT",
      "eventPrevious": "34.40K",
      "eventCurrency": "CAD",
      "eventForecast": ""
    },
    {
      "eventDateTime": "2002-04-01T09:00:00",
      "eventActual": "-0.20%",
      "eventCountry": "Canada",
      "eventExpectedVolatility": "High",
      "eventName": "GDP (MoM) (Mar)",
      "eventTimeZone": "GMT",
      "eventPrevious": "0.50%",
      "eventCurrency": "CAD",
      "eventForecast": ""
    },
    {
      "eventDateTime": "2002-04-01T09:00:00",
      "eventActual": "203.60K",
      "eventCountry": "Canada",
      "eventExpectedVolatility": "Moderate",
      "eventName": "Housing Starts (Mar)",
      "eventTimeZone": "GMT",
      "eventPrevious": "182.70K",
      "eventCurrency": "CAD",
      "eventForecast": ""
    },
    {
      "eventDateTime": "2002-04-01T09:00:00",
      "eventActual": "0.70%",
      "eventCountry": "Canada",
      "eventExpectedVolatility": "Low",
      "eventName": "IPPI (MoM) (Mar)",
      "eventTimeZone": "GMT",
      "eventPrevious": "0.40%",
      "eventCurrency": "CAD",
      "eventForecast": ""
    },
    {
      "eventDateTime": "2002-04-01T09:00:00",
      "eventActual": "-1.00%",
      "eventCountry": "Canada",
      "eventExpectedVolatility": "Low",
      "eventName": "IPPI (YoY) (Mar)",
      "eventTimeZone": "GMT",
      "eventPrevious": "-1.10%",
      "eventCurrency": "CAD",
      "eventForecast": ""
    },
    {
      "eventDateTime": "2002-04-01T09:00:00",
      "eventActual": "28.47B",
      "eventCountry": "Canada",
      "eventExpectedVolatility": "Low",
      "eventName": "Imports (Mar)",
      "eventTimeZone": "GMT",
      "eventPrevious": "29.12B",
      "eventCurrency": "CAD",
      "eventForecast": ""
    },
    {
      "eventDateTime": "2002-04-01T09:00:00",
      "eventActual": "61.60",
      "eventCountry": "Canada",
      "eventExpectedVolatility": "Low",
      "eventName": "Ivey PMI n.s.a (Mar)",
      "eventTimeZone": "GMT",
      "eventPrevious": "54.30",
      "eventCurrency": "CAD",
      "eventForecast": ""
    },
    {
      "eventDateTime": "2002-04-01T09:00:00",
      "eventActual": "0.90%",
      "eventCountry": "Canada",
      "eventExpectedVolatility": "Moderate",
      "eventName": "Manufacturing Sales (MoM) (Mar)",
      "eventTimeZone": "GMT",
      "eventPrevious": "2.80%",
      "eventCurrency": "CAD",
      "eventForecast": ""
    },
    {
      "eventDateTime": "2002-04-01T09:00:00",
      "eventActual": "0.40%",
      "eventCountry": "Canada",
      "eventExpectedVolatility": "Moderate",
      "eventName": "New Housing Price Index (MoM) (Mar)",
      "eventTimeZone": "GMT",
      "eventPrevious": "0.60%",
      "eventCurrency": "CAD",
      "eventForecast": ""
    },
    {
      "eventDateTime": "2002-04-01T09:00:00",
      "eventActual": "25.30K",
      "eventCountry": "Canada",
      "eventExpectedVolatility": "Low",
      "eventName": "Part Time Employment Change (Mar)",
      "eventTimeZone": "GMT",
      "eventPrevious": "-15.40K",
      "eventCurrency": "CAD",
      "eventForecast": ""
    },
    {
      "eventDateTime": "2002-04-01T09:00:00",
      "eventActual": "66.50%",
      "eventCountry": "Canada",
      "eventExpectedVolatility": "Low",
      "eventName": "Participation Rate (Mar)",
      "eventTimeZone": "GMT",
      "eventPrevious": "66.30%",
      "eventCurrency": "CAD",
      "eventForecast": ""
    },
    {
      "eventDateTime": "2002-04-01T09:00:00",
      "eventActual": "5.40%",
      "eventCountry": "Canada",
      "eventExpectedVolatility": "Moderate",
      "eventName": "RMPI (MoM) (Mar)",
      "eventTimeZone": "GMT",
      "eventPrevious": "2.40%",
      "eventCurrency": "CAD",
      "eventForecast": ""
    },
    {
      "eventDateTime": "2002-04-01T09:00:00",
      "eventActual": "-7.10%",
      "eventCountry": "Canada",
      "eventExpectedVolatility": "Low",
      "eventName": "RMPI (YoY) (Mar)",
      "eventTimeZone": "GMT",
      "eventPrevious": "-12.20%",
      "eventCurrency": "CAD",
      "eventForecast": ""
    },
    {
      "eventDateTime": "2002-04-01T09:00:00",
      "eventActual": "-0.10%",
      "eventCountry": "Canada",
      "eventExpectedVolatility": "Moderate",
      "eventName": "Retail Sales (MoM) (Mar)",
      "eventTimeZone": "GMT",
      "eventPrevious": "-1.50%",
      "eventCurrency": "CAD",
      "eventForecast": ""
    },
    {
      "eventDateTime": "2002-04-01T09:00:00",
      "eventActual": "4.40B",
      "eventCountry": "Canada",
      "eventExpectedVolatility": "Moderate",
      "eventName": "Trade Balance (Mar)",
      "eventTimeZone": "GMT",
      "eventPrevious": "5.08B",
      "eventCurrency": "CAD",
      "eventForecast": ""
    },
    {
      "eventDateTime": "2002-04-01T09:00:00",
      "eventActual": "7.90%",
      "eventCountry": "Canada",
      "eventExpectedVolatility": "Moderate",
      "eventName": "Unemployment Rate (Mar)",
      "eventTimeZone": "GMT",
      "eventPrevious": "7.90%",
      "eventCurrency": "CAD",
      "eventForecast": ""
    },
    {
      "eventDateTime": "2002-04-01T09:00:00",
      "eventActual": "0.00%",
      "eventCountry": "Canada",
      "eventExpectedVolatility": "Moderate",
      "eventName": "Wholesale Sales (MoM) (Mar)",
      "eventTimeZone": "GMT",
      "eventPrevious": "0.90%",
      "eventCurrency": "CAD",
      "eventForecast": ""
    }
  ]}}
