{"events": {"event": [
    {
      "eventDateTime": "2012-09-21T08:00:00",
      "eventActual": "-1.70B",
      "eventCountry": "Spain",
      "eventExpectedVolatility": "Low",
      "eventName": "Spanish Trade Balance",
      "eventTimeZone": "GMT",
      "eventPrevious": "-2.70B",
      "eventCurrency": "EUR",
      "eventForecast": "-2.20B"
    },
    {
      "eventDateTime": "2012-09-21T19:30:00",
      "eventActual": "-73.5K",
      "eventCountry": "Euro Zone",
      "eventExpectedVolatility": "Moderate",
      "eventName": "CFTC EUR speculative net positions",
      "eventTimeZone": "GMT",
      "eventPrevious": "-93.7K",
      "eventCurrency": "EUR",
      "eventForecast": ""
    }
  ]}}
