"Chicago Fed President Evans Speaks";"United States";"USD";"2017-03-24T12:00:00";"GMT";" ";"";"";"Low"
"Core Durable Goods Orders (MoM) (Feb)";"United States";"USD";"2017-03-24T12:30:00";"GMT";"0.2%";"0.5%";"0.4%";"High"
"Durable Goods Orders (MoM) (Feb)";"United States";"USD";"2017-03-24T12:30:00";"GMT";"2.3%";"1.2%";"1.7%";"Moderate"
"Durables Excluding Defense (MoM) (Feb)";"United States";"USD";"2017-03-24T12:30:00";"GMT";"2.1%";"";"2.1%";"Low"
"Goods Orders Non Defense Ex Air (MoM) (Feb)";"United States";"USD";"2017-03-24T12:30:00";"GMT";"0.1%";"0.6%";"-0.1%";"Low"
"FOMC Member Bullard Speaks";"United States";"USD";"2017-03-24T13:05:00";"GMT";" ";"";"";"Moderate"
"Manufacturing PMI (Mar)";"United States";"USD";"2017-03-24T13:45:00";"GMT";"54.2";"54.8";"53.4";"Moderate"
"Services PMI (Mar)";"United States";"USD";"2017-03-24T13:45:00";"GMT";"53.8";"54.2";"52.9";"Moderate"
"FOMC Member Dudley Speaks";"United States";"USD";"2017-03-24T14:00:00";"GMT";" ";"";"";"Moderate"
"U.S. Baker Hughes Oil Rig Count";"United States";"USD";"2017-03-24T17:00:00";"GMT";"631";"";"652";"Moderate"
"CFTC Copper speculative net positions";"United States";"USD";"2017-03-24T20:30:00";"GMT";"22.4K";"";"21.7K";"Low"
"CFTC Crude Oil speculative net positions";"United States";"USD";"2017-03-24T20:30:00";"GMT";"433.8K";"";"418.5K";"Moderate"
"CFTC Gold speculative net positions";"United States";"USD";"2017-03-24T20:30:00";"GMT";"106.0K";"";"116.3K";"Moderate"
"CFTC Sandamp:P 500 speculative net positions";"United States";"USD";"2017-03-24T20:30:00";"GMT";"161.9K";"";"89.1K";"Moderate"
"CFTC Silver speculative net positions";"United States";"USD";"2017-03-24T20:30:00";"GMT";"82.9K";"";"79.1K";"Low"
