{"events": {"event": [
    {
      "eventDateTime": "2012-05-01T05:30:00",
      "eventActual": "-13.9B",
      "eventCountry": "India",
      "eventExpectedVolatility": "Low",
      "eventName": "Trade Balance",
      "eventTimeZone": "GMT",
      "eventPrevious": "-15.2B",
      "eventCurrency": "INR",
      "eventForecast": "-13.9B"
    },
    {
      "eventDateTime": "2012-05-01T09:00:00",
      "eventActual": "4.75%",
      "eventCountry": "India",
      "eventExpectedVolatility": "Low",
      "eventName": "Cash Reserve Ratio (Apr)",
      "eventTimeZone": "GMT",
      "eventPrevious": "4.99%",
      "eventCurrency": "INR",
      "eventForecast": ""
    },
    {
      "eventDateTime": "2012-05-01T09:00:00",
      "eventActual": "13.66%",
      "eventCountry": "India",
      "eventExpectedVolatility": "Low",
      "eventName": "Deposit Growth (Apr)",
      "eventTimeZone": "GMT",
      "eventPrevious": "13.94%",
      "eventCurrency": "INR",
      "eventForecast": ""
    },
    {
      "eventDateTime": "2012-05-01T09:00:00",
      "eventActual": "23.77B",
      "eventCountry": "India",
      "eventExpectedVolatility": "Low",
      "eventName": "Exports (USD) (Apr)",
      "eventTimeZone": "GMT",
      "eventPrevious": "28.84B",
      "eventCurrency": "INR",
      "eventForecast": ""
    },
    {
      "eventDateTime": "2012-05-01T09:00:00",
      "eventActual": "671.96B",
      "eventCountry": "India",
      "eventExpectedVolatility": "Low",
      "eventName": "Federal Fiscal Deficit (Apr)",
      "eventTimeZone": "GMT",
      "eventPrevious": "5,097.31B",
      "eventCurrency": "INR",
      "eventForecast": ""
    },
    {
      "eventDateTime": "2012-05-01T09:00:00",
      "eventActual": "37.81B",
      "eventCountry": "India",
      "eventExpectedVolatility": "Low",
      "eventName": "Imports (USD) (Apr)",
      "eventTimeZone": "GMT",
      "eventPrevious": "42.38B",
      "eventCurrency": "INR",
      "eventForecast": ""
    },
    {
      "eventDateTime": "2012-05-01T09:00:00",
      "eventActual": "5.74%",
      "eventCountry": "India",
      "eventExpectedVolatility": "Low",
      "eventName": "Infrastructure Output (YoY) (Apr)",
      "eventTimeZone": "GMT",
      "eventPrevious": "3.03%",
      "eventCurrency": "INR",
      "eventForecast": ""
    },
    {
      "eventDateTime": "2012-05-01T09:00:00",
      "eventActual": "13.63%",
      "eventCountry": "India",
      "eventExpectedVolatility": "Low",
      "eventName": "M3 Money Supply (Apr)",
      "eventTimeZone": "GMT",
      "eventPrevious": "13.57%",
      "eventCurrency": "INR",
      "eventForecast": ""
    },
    {
      "eventDateTime": "2012-05-01T09:00:00",
      "eventActual": "7.25%",
      "eventCountry": "India",
      "eventExpectedVolatility": "Low",
      "eventName": "Reverse REPO Rate (Apr)",
      "eventTimeZone": "GMT",
      "eventPrevious": "7.50%",
      "eventCurrency": "INR",
      "eventForecast": ""
    },
    {
      "eventDateTime": "2012-05-01T09:00:00",
      "eventActual": "10.90%",
      "eventCountry": "India",
      "eventExpectedVolatility": "Low",
      "eventName": "WPI Food (YoY) (Apr)",
      "eventTimeZone": "GMT",
      "eventPrevious": "10.10%",
      "eventCurrency": "INR",
      "eventForecast": ""
    },
    {
      "eventDateTime": "2012-05-01T09:00:00",
      "eventActual": "12.10%",
      "eventCountry": "India",
      "eventExpectedVolatility": "Low",
      "eventName": "WPI Fuel (YoY) (Apr)",
      "eventTimeZone": "GMT",
      "eventPrevious": "12.80%",
      "eventCurrency": "INR",
      "eventForecast": ""
    },
    {
      "eventDateTime": "2012-05-01T09:00:00",
      "eventActual": "5.27%",
      "eventCountry": "India",
      "eventExpectedVolatility": "Low",
      "eventName": "WPI Manufacturing Inflation (YoY) (Apr)",
      "eventTimeZone": "GMT",
      "eventPrevious": "5.16%",
      "eventCurrency": "INR",
      "eventForecast": ""
    }
  ]}}
