"Halifax House Price Index (MoM) (May)";"United Kingdom";"GBP";"2015-06-04T07:00:00";"GMT";"1.6%";"0.3%";"-0.1%";"Moderate"
"Halifax House Price Index (YoY) (May)";"United Kingdom";"GBP";"2015-06-04T07:00:00";"GMT";"8.5%";"8.5%";"8.6%";"Moderate"
"BoE Interest Rate Decision (Jun)";"United Kingdom";"GBP";"2015-06-04T11:00:00";"GMT";"0.50%";"0.50%";"0.50%";"High"
"BoE QE Total (Jun)";"United Kingdom";"GBP";"2015-06-04T11:00:00";"GMT";"375B";"375B";"375B";"Moderate"
