{"events": {"event": {
    "eventDateTime": "2008-06-03T00:50:00",
    "eventActual": "-0.9%",
    "eventCountry": "Japan",
    "eventExpectedVolatility": "Low",
    "eventName": "Monetary Base (YoY)",
    "eventTimeZone": "GMT",
    "eventPrevious": "-2.8%",
    "eventCurrency": "JPY",
    "eventForecast": "-0.9%"
  }}}
