"ANZ Business Confidence (Feb)";"New Zealand";"NZD";"2007-03-01T09:00:00";"GMT";"-7.70%";"";"-5.90%";"Moderate"
"Building Consents (MoM) (Feb)";"New Zealand";"NZD";"2007-03-01T09:00:00";"GMT";"4.10%";"";"1.90%";"Moderate"
"Electronic Card Retail Sales (MoM) (Feb)";"New Zealand";"NZD";"2007-03-01T09:00:00";"GMT";"0.70%";"";"1.10%";"Moderate"
"Electronic Card Retail Sales (YoY) (Feb)";"New Zealand";"NZD";"2007-03-01T09:00:00";"GMT";"9.20%";"";"10.00%";"Low"
"Exports (Feb)";"New Zealand";"NZD";"2007-03-01T09:00:00";"GMT";"2.48B";"";"2.85B";"Low"
"External Migration andamp; Visitors (Feb)";"New Zealand";"NZD";"2007-03-01T09:00:00";"GMT";"-1.52%";"";"6.00%";"Low"
"FPI (MoM) (Feb)";"New Zealand";"NZD";"2007-03-01T09:00:00";"GMT";"1.40%";"";"0.10%";"Low"
"Government Monthly Debt (Feb)";"New Zealand";"NZD";"2007-03-01T09:00:00";"GMT";"4.20%";"";"3.40%";"Low"
"Imports (Feb)";"New Zealand";"NZD";"2007-03-01T09:00:00";"GMT";"3.31B";"";"2.97B";"Low"
"NBNZ Own Activity (Feb)";"New Zealand";"NZD";"2007-03-01T09:00:00";"GMT";"24.00%";"";"25.70%";"Low"
"Permanent/Long-Term Migration (Feb)";"New Zealand";"NZD";"2007-03-01T09:00:00";"GMT";"640.00";"";"540.00";"Low"
"RBNZ Interest Rate Decision (Feb)";"New Zealand";"NZD";"2007-03-01T09:00:00";"GMT";"7.25%";"";"7.25%";"High"
"RBNZ Offshore Holdings (Feb)";"New Zealand";"NZD";"2007-03-01T09:00:00";"GMT";"64.20%";"";"60.50%";"Low"
"REINZ House Price Index (MoM) (Feb)";"New Zealand";"NZD";"2007-03-01T09:00:00";"GMT";"-1.10%";"";"3.30%";"Low"
"REINZ House Price Index (YoY) (Feb)";"New Zealand";"NZD";"2007-03-01T09:00:00";"GMT";"7.70%";"";"11.90%";"Low"
"Trade Balance (MoM) (Feb)";"New Zealand";"NZD";"2007-03-01T09:00:00";"GMT";"-824.90M";"";"-127.40M";"Moderate"
"Trade Balance (YoY) (Feb)";"New Zealand";"NZD";"2007-03-01T09:00:00";"GMT";"-6,010.00M";"";"-5,770.00M";"Moderate"
