"Cash Reserve Ratio";"India";"INR";"2017-06-07T09:00:00";"GMT";"4.00%";"4.00%";"4.00%";"Low"
"Interest Rate Decision";"India";"INR";"2017-06-07T09:00:00";"GMT";"6.25%";"6.25%";"6.25%";"High"
"Reverse REPO Rate";"India";"INR";"2017-06-07T09:00:00";"GMT";"6.00%";"6.00%";"6.00%";"Low"
"M3 Money Supply";"India";"INR";"2017-06-07T12:00:00";"GMT";"7.8%";"";"7.0%";"Low"
