{"events": {"event": [
    {
      "eventDateTime": "2019-05-14T06:30:00",
      "eventActual": "7.37%",
      "eventCountry": "India",
      "eventExpectedVolatility": "Low",
      "eventName": "WPI Food (YoY) (Apr)",
      "eventTimeZone": "GMT",
      "eventPrevious": "5.68%",
      "eventCurrency": "INR",
      "eventForecast": ""
    },
    {
      "eventDateTime": "2019-05-14T06:30:00",
      "eventActual": "3.84%",
      "eventCountry": "India",
      "eventExpectedVolatility": "Low",
      "eventName": "WPI Fuel (YoY) (Apr)",
      "eventTimeZone": "GMT",
      "eventPrevious": "5.41%",
      "eventCurrency": "INR",
      "eventForecast": ""
    },
    {
      "eventDateTime": "2019-05-14T06:30:00",
      "eventActual": "3.07%",
      "eventCountry": "India",
      "eventExpectedVolatility": "Moderate",
      "eventName": "WPI Inflation (YoY) (Apr)",
      "eventTimeZone": "GMT",
      "eventPrevious": "3.18%",
      "eventCurrency": "INR",
      "eventForecast": "3.07%"
    },
    {
      "eventDateTime": "2019-05-14T06:30:00",
      "eventActual": "1.72%",
      "eventCountry": "India",
      "eventExpectedVolatility": "Low",
      "eventName": "WPI Manufacturing Inflation (YoY) (Apr)",
      "eventTimeZone": "GMT",
      "eventPrevious": "2.16%",
      "eventCurrency": "INR",
      "eventForecast": ""
    }
  ]}}
