"Continuing Jobless Claims";"United States";"USD";"2017-06-29T12:30:00";"GMT";"1,942K";"1,940K";"1,948K";"Low"
"Core PCE Prices (Q1)";"United States";"USD";"2017-06-29T12:30:00";"GMT";"2.10%";"2.10%";"2.00%";"Low"
"Corporate Profits (QoQ) (Q1)";"United States";"USD";"2017-06-29T12:30:00";"GMT";"-2.5%";"";"-2.7%";"Low"
"GDP (QoQ) (Q1)";"United States";"USD";"2017-06-29T12:30:00";"GMT";"1.2%";"1.2%";"1.4%";"High"
"GDP Price Index (QoQ) (Q1)";"United States";"USD";"2017-06-29T12:30:00";"GMT";"2.2%";"2.2%";"1.9%";"Moderate"
"GDP Sales (Q1)";"United States";"USD";"2017-06-29T12:30:00";"GMT";"2.2%";"2.2%";"2.6%";"Low"
"Initial Jobless Claims";"United States";"USD";"2017-06-29T12:30:00";"GMT";"242K";"240K";"244K";"Moderate"
"Jobless Claims 4-Week Avg.";"United States";"USD";"2017-06-29T12:30:00";"GMT";"245.00K";"";"242.25K";"Low"
"PCE Prices (Q1)";"United States";"USD";"2017-06-29T12:30:00";"GMT";"2.4%";"2.4%";"2.4%";"Low"
"Real Consumer Spending (Q1)";"United States";"USD";"2017-06-29T12:30:00";"GMT";"0.6%";"0.6%";"1.1%";"Low"
"Bloomberg Consumer Confidence";"United States";"USD";"2017-06-29T13:45:00";"GMT";"49.4";"";"48.6";"Low"
"Natural Gas Storage";"United States";"USD";"2017-06-29T14:30:00";"GMT";"61B";"52B";"46B";"Low"
"FOMC Member Bullard Speaks";"United States";"USD";"2017-06-29T17:00:00";"GMT";" ";"";"";"Moderate"
