{"events": {"event": {
    "eventDateTime": "2010-02-04T07:15:00",
    "eventActual": "1.360B",
    "eventCountry": "Switzerland",
    "eventExpectedVolatility": "Low",
    "eventName": "Trade Balance",
    "eventTimeZone": "GMT",
    "eventPrevious": "1.980B",
    "eventCurrency": "CHF",
    "eventForecast": "2.300B"
  }}}
