{"events": {"event": [
    {
      "eventDateTime": "2012-07-20T14:00:00",
      "eventActual": "1.32K",
      "eventCountry": "United States",
      "eventExpectedVolatility": "Low",
      "eventName": "Mass Layoffs",
      "eventTimeZone": "GMT",
      "eventPrevious": "1.38K",
      "eventCurrency": "USD",
      "eventForecast": ""
    },
    {
      "eventDateTime": "2012-07-20T17:00:00",
      "eventActual": "1414",
      "eventCountry": "United States",
      "eventExpectedVolatility": "Moderate",
      "eventName": "U.S. Baker Hughes Oil Rig Count",
      "eventTimeZone": "GMT",
      "eventPrevious": "1427",
      "eventCurrency": "USD",
      "eventForecast": ""
    },
    {
      "eventDateTime": "2012-07-20T19:30:00",
      "eventActual": "129.0K",
      "eventCountry": "United States",
      "eventExpectedVolatility": "Moderate",
      "eventName": "CFTC Gold speculative net positions",
      "eventTimeZone": "GMT",
      "eventPrevious": "126.2K",
      "eventCurrency": "USD",
      "eventForecast": ""
    },
    {
      "eventDateTime": "2012-07-20T19:30:00",
      "eventActual": "7.7K",
      "eventCountry": "United States",
      "eventExpectedVolatility": "Low",
      "eventName": "CFTC Silver speculative net positions",
      "eventTimeZone": "GMT",
      "eventPrevious": "8.8K",
      "eventCurrency": "USD",
      "eventForecast": ""
    },
    {
      "eventDateTime": "2012-07-20T20:30:00",
      "eventActual": "172.8k",
      "eventCountry": "United States",
      "eventExpectedVolatility": "Moderate",
      "eventName": "CFTC Crude Oil speculative net positions",
      "eventTimeZone": "GMT",
      "eventPrevious": "138.6k",
      "eventCurrency": "USD",
      "eventForecast": ""
    }
  ]}}
