{"events": {"event": {
    "eventDateTime": "2003-11-26T17:00:00",
    "eventActual": "152",
    "eventCountry": "United States",
    "eventExpectedVolatility": "Moderate",
    "eventName": "U.S. Baker Hughes Oil Rig Count",
    "eventTimeZone": "GMT",
    "eventPrevious": "157",
    "eventCurrency": "USD",
    "eventForecast": ""
  }}}
