{"events": {"event": [
    {
      "eventDateTime": "2018-06-29T12:30:00",
      "eventActual": "0.2%",
      "eventCountry": "United States",
      "eventExpectedVolatility": "Moderate",
      "eventName": "Core PCE Price Index (MoM) (May)",
      "eventTimeZone": "GMT",
      "eventPrevious": "0.2%",
      "eventCurrency": "USD",
      "eventForecast": "0.2%"
    },
    {
      "eventDateTime": "2018-06-29T12:30:00",
      "eventActual": "2.0%",
      "eventCountry": "United States",
      "eventExpectedVolatility": "Moderate",
      "eventName": "Core PCE Price Index (YoY) (May)",
      "eventTimeZone": "GMT",
      "eventPrevious": "1.8%",
      "eventCurrency": "USD",
      "eventForecast": "1.9%"
    },
    {
      "eventDateTime": "2018-06-29T12:30:00",
      "eventActual": "0.2%",
      "eventCountry": "United States",
      "eventExpectedVolatility": "Moderate",
      "eventName": "PCE Deflator (MoM)",
      "eventTimeZone": "GMT",
      "eventPrevious": "0.2%",
      "eventCurrency": "USD",
      "eventForecast": ""
    },
    {
      "eventDateTime": "2018-06-29T12:30:00",
      "eventActual": "2.3%",
      "eventCountry": "United States",
      "eventExpectedVolatility": "Moderate",
      "eventName": "PCE Deflator (YoY)",
      "eventTimeZone": "GMT",
      "eventPrevious": "2.0%",
      "eventCurrency": "USD",
      "eventForecast": ""
    },
    {
      "eventDateTime": "2018-06-29T12:30:00",
      "eventActual": "0.4%",
      "eventCountry": "United States",
      "eventExpectedVolatility": "Low",
      "eventName": "Personal Income (MoM) (May)",
      "eventTimeZone": "GMT",
      "eventPrevious": "0.2%",
      "eventCurrency": "USD",
      "eventForecast": "0.4%"
    },
    {
      "eventDateTime": "2018-06-29T12:30:00",
      "eventActual": "0.2%",
      "eventCountry": "United States",
      "eventExpectedVolatility": "Moderate",
      "eventName": "Personal Spending (MoM) (May)",
      "eventTimeZone": "GMT",
      "eventPrevious": "0.5%",
      "eventCurrency": "USD",
      "eventForecast": "0.4%"
    },
    {
      "eventDateTime": "2018-06-29T12:30:00",
      "eventActual": "0.0%",
      "eventCountry": "United States",
      "eventExpectedVolatility": "Low",
      "eventName": "Real Personal Consumption (MoM) (May)",
      "eventTimeZone": "GMT",
      "eventPrevious": "0.3%",
      "eventCurrency": "USD",
      "eventForecast": ""
    },
    {
      "eventDateTime": "2018-06-29T13:45:00",
      "eventActual": "64.1",
      "eventCountry": "United States",
      "eventExpectedVolatility": "Moderate",
      "eventName": "Chicago PMI (Jun)",
      "eventTimeZone": "GMT",
      "eventPrevious": "62.7",
      "eventCurrency": "USD",
      "eventForecast": "60.0"
    },
    {
      "eventDateTime": "2018-06-29T14:00:00",
      "eventActual": "2.60%",
      "eventCountry": "United States",
      "eventExpectedVolatility": "Low",
      "eventName": "Michigan 5-Year Inflation Expectations (Jun)",
      "eventTimeZone": "GMT",
      "eventPrevious": "2.60%",
      "eventCurrency": "USD",
      "eventForecast": ""
    },
    {
      "eventDateTime": "2018-06-29T14:00:00",
      "eventActual": "86.3",
      "eventCountry": "United States",
      "eventExpectedVolatility": "Moderate",
      "eventName": "Michigan Consumer Expectations (Jun)",
      "eventTimeZone": "GMT",
      "eventPrevious": "87.4",
      "eventCurrency": "USD",
      "eventForecast": ""
    },
    {
      "eventDateTime": "2018-06-29T14:00:00",
      "eventActual": "98.2",
      "eventCountry": "United States",
      "eventExpectedVolatility": "Moderate",
      "eventName": "Michigan Consumer Sentiment (Jun)",
      "eventTimeZone": "GMT",
      "eventPrevious": "99.3",
      "eventCurrency": "USD",
      "eventForecast": "99.2"
    },
    {
      "eventDateTime": "2018-06-29T14:00:00",
      "eventActual": "116.5",
      "eventCountry": "United States",
      "eventExpectedVolatility": "Low",
      "eventName": "Michigan Current Conditions (Jun)",
      "eventTimeZone": "GMT",
      "eventPrevious": "117.9",
      "eventCurrency": "USD",
      "eventForecast": ""
    },
    {
      "eventDateTime": "2018-06-29T14:00:00",
      "eventActual": "3.0%",
      "eventCountry": "United States",
      "eventExpectedVolatility": "Low",
      "eventName": "Michigan Inflation Expectations (Jun)",
      "eventTimeZone": "GMT",
      "eventPrevious": "2.9%",
      "eventCurrency": "USD",
      "eventForecast": ""
    },
    {
      "eventDateTime": "2018-06-29T15:55:00",
      "eventActual": "2.30%",
      "eventCountry": "United States",
      "eventExpectedVolatility": "Low",
      "eventName": "Dallas Fed PCE (May)",
      "eventTimeZone": "GMT",
      "eventPrevious": "2.00%",
      "eventCurrency": "USD",
      "eventForecast": ""
    },
    {
      "eventDateTime": "2018-06-29T17:00:00",
      "eventActual": "858",
      "eventCountry": "United States",
      "eventExpectedVolatility": "Moderate",
      "eventName": "U.S. Baker Hughes Oil Rig Count",
      "eventTimeZone": "GMT",
      "eventPrevious": "862",
      "eventCurrency": "USD",
      "eventForecast": ""
    },
    {
      "eventDateTime": "2018-06-29T17:00:00",
      "eventActual": "1,047.0",
      "eventCountry": "United States",
      "eventExpectedVolatility": "Moderate",
      "eventName": "U.S. Baker Hughes Total Rig Count",
      "eventTimeZone": "GMT",
      "eventPrevious": "1,052.0",
      "eventCurrency": "USD",
      "eventForecast": ""
    },
    {
      "eventDateTime": "2018-06-29T19:30:00",
      "eventActual": "34.0K",
      "eventCountry": "United States",
      "eventExpectedVolatility": "Low",
      "eventName": "CFTC Copper speculative net positions",
      "eventTimeZone": "GMT",
      "eventPrevious": "56.3K",
      "eventCurrency": "USD",
      "eventForecast": ""
    },
    {
      "eventDateTime": "2018-06-29T19:30:00",
      "eventActual": "625.1K",
      "eventCountry": "United States",
      "eventExpectedVolatility": "Moderate",
      "eventName": "CFTC Crude Oil speculative net positions",
      "eventTimeZone": "GMT",
      "eventPrevious": "580.9K",
      "eventCurrency": "USD",
      "eventForecast": ""
    },
    {
      "eventDateTime": "2018-06-29T19:30:00",
      "eventActual": "76.7K",
      "eventCountry": "United States",
      "eventExpectedVolatility": "Moderate",
      "eventName": "CFTC Gold speculative net positions",
      "eventTimeZone": "GMT",
      "eventPrevious": "96.5K",
      "eventCurrency": "USD",
      "eventForecast": ""
    },
    {
      "eventDateTime": "2018-06-29T19:30:00",
      "eventActual": "197.2K",
      "eventCountry": "United States",
      "eventExpectedVolatility": "Moderate",
      "eventName": "CFTC Sandamp:P 500 speculative net positions",
      "eventTimeZone": "GMT",
      "eventPrevious": "189.2K",
      "eventCurrency": "USD",
      "eventForecast": ""
    },
    {
      "eventDateTime": "2018-06-29T19:30:00",
      "eventActual": "34.2K",
      "eventCountry": "United States",
      "eventExpectedVolatility": "Low",
      "eventName": "CFTC Silver speculative net positions",
      "eventTimeZone": "GMT",
      "eventPrevious": "40.9K",
      "eventCurrency": "USD",
      "eventForecast": ""
    }
  ]}}
