"Exports (YoY) (Feb)";"South Korea";"KRW";"2018-03-01T00:00:00";"GMT";"22.3%";"0.4%";"4.0%";"Low"
"Imports (YoY) (Feb)";"South Korea";"KRW";"2018-03-01T00:00:00";"GMT";"21.1%";"13.1%";"14.8%";"Low"
"Trade Balance (Feb)";"South Korea";"KRW";"2018-03-01T00:00:00";"GMT";"3.60B";"";"3.30B";"Low"
"Industrial Production (MoM) (Jan)";"South Korea";"KRW";"2018-03-01T23:00:00";"GMT";"-1.7%";"2.0%";"1.0%";"Low"
"Industrial Production (YoY) (Jan)";"South Korea";"KRW";"2018-03-01T23:00:00";"GMT";"-4.6%";"3.2%";"4.6%";"Low"
"Retail Sales (MoM)";"South Korea";"KRW";"2018-03-01T23:00:00";"GMT";"-2.6%";"";"1.7%";"Low"
