{"events": {"event": [
    {
      "eventDateTime": "2012-06-29T11:30:00",
      "eventActual": "17.80%",
      "eventCountry": "India",
      "eventExpectedVolatility": "Low",
      "eventName": "Bank Loan Growth",
      "eventTimeZone": "GMT",
      "eventPrevious": "18.30%",
      "eventCurrency": "INR",
      "eventForecast": ""
    },
    {
      "eventDateTime": "2012-06-29T11:30:00",
      "eventActual": "288.60B",
      "eventCountry": "India",
      "eventExpectedVolatility": "Low",
      "eventName": "FX Reserves, USD",
      "eventTimeZone": "GMT",
      "eventPrevious": "289.40B",
      "eventCurrency": "INR",
      "eventForecast": ""
    }
  ]}}
