{"events": {"event": {
    "eventDateTime": "2019-05-14T11:00:00",
    "eventActual": "",
    "eventCountry": "Brazil",
    "eventExpectedVolatility": "High",
    "eventName": "BCB Copom Meeting Minutes",
    "eventTimeZone": "GMT",
    "eventPrevious": "",
    "eventCurrency": "BRL",
    "eventForecast": ""
  }}}
