{"events": {"event": {
    "eventDateTime": "2018-09-27T13:00:00",
    "eventActual": "462.0B",
    "eventCountry": "Russia",
    "eventExpectedVolatility": "Moderate",
    "eventName": "Central Bank reserves (USD)",
    "eventTimeZone": "GMT",
    "eventPrevious": "460.9B",
    "eventCurrency": "RUB",
    "eventForecast": ""
  }}}
