"Investing.com EUR/USD Index";"Euro Zone";"EUR";"2015-01-26T06:30:00";"GMT";"28.9%";"";"23.9%";"Moderate"
"Spanish PPI (YoY)";"Spain";"EUR";"2015-01-26T08:00:00";"GMT";"-1.5%";"-1.2%";"-3.7%";"Low"
"German Business Expectations (Jan)";"Germany";"EUR";"2015-01-26T09:00:00";"GMT";"101.3";"102.5";"102.0";"Moderate"
"German Current Assessment (Jan)";"Germany";"EUR";"2015-01-26T09:00:00";"GMT";"110.0";"110.7";"111.7";"Moderate"
"German Ifo Business Climate Index (Jan)";"Germany";"EUR";"2015-01-26T09:00:00";"GMT";"95.8";"";"98.9";"High"
"German 12-Month Bubill Auction";"Germany";"EUR";"2015-01-26T10:35:00";"GMT";"-0.074%";"";"-0.172%";"Low"
"French 12-Month BTF Auction";"France";"EUR";"2015-01-26T14:00:00";"GMT";"-0.141%";"";"-0.120%";"Low"
"French 3-Month BTF Auction";"France";"EUR";"2015-01-26T14:00:00";"GMT";"-0.150%";"";"-0.122%";"Low"
"French 6-Month BTF Auction";"France";"EUR";"2015-01-26T14:00:00";"GMT";"-0.148%";"";"-0.120%";"Low"
