{"events": {"event": [
    {
      "eventDateTime": "2013-07-10T15:30:00",
      "eventActual": "-0.78B",
      "eventCountry": "Brazil",
      "eventExpectedVolatility": "Low",
      "eventName": "Foreign Exchange Flows",
      "eventTimeZone": "GMT",
      "eventPrevious": "-2.64B",
      "eventCurrency": "BRL",
      "eventForecast": ""
    },
    {
      "eventDateTime": "2013-07-10T21:45:00",
      "eventActual": "8.50%",
      "eventCountry": "Brazil",
      "eventExpectedVolatility": "Moderate",
      "eventName": "Interest Rate Decision",
      "eventTimeZone": "GMT",
      "eventPrevious": "8.00%",
      "eventCurrency": "BRL",
      "eventForecast": "8.50%"
    }
  ]}}
