{"events": {"event": {
    "eventDateTime": "2019-04-04T08:30:00",
    "eventActual": "-6.2B",
    "eventCountry": "United Kingdom",
    "eventExpectedVolatility": "Low",
    "eventName": "Housing Equity Withdrawal (QoQ)",
    "eventTimeZone": "GMT",
    "eventPrevious": "-7.3B",
    "eventCurrency": "GBP",
    "eventForecast": "-7.7B"
  }}}
