{"events": {"event": {
    "eventDateTime": "2016-07-25T11:00:00",
    "eventActual": "76.7",
    "eventCountry": "Brazil",
    "eventExpectedVolatility": "Low",
    "eventName": "FGV Consumer confidence (Jul)",
    "eventTimeZone": "GMT",
    "eventPrevious": "71.3",
    "eventCurrency": "BRL",
    "eventForecast": "71.0"
  }}}
