{"events": {"event": [
    {
      "eventDateTime": "2019-07-24T08:00:00",
      "eventActual": "0.4%",
      "eventCountry": "South Africa",
      "eventExpectedVolatility": "Moderate",
      "eventName": "CPI (MoM) (Jun)",
      "eventTimeZone": "GMT",
      "eventPrevious": "0.3%",
      "eventCurrency": "ZAR",
      "eventForecast": "0.3%"
    },
    {
      "eventDateTime": "2019-07-24T08:00:00",
      "eventActual": "4.5%",
      "eventCountry": "South Africa",
      "eventExpectedVolatility": "Low",
      "eventName": "CPI (YoY) (Jun)",
      "eventTimeZone": "GMT",
      "eventPrevious": "4.5%",
      "eventCurrency": "ZAR",
      "eventForecast": "4.4%"
    },
    {
      "eventDateTime": "2019-07-24T08:00:00",
      "eventActual": "0.4%",
      "eventCountry": "South Africa",
      "eventExpectedVolatility": "Moderate",
      "eventName": "Core CPI (MoM) (Jun)",
      "eventTimeZone": "GMT",
      "eventPrevious": "0.3%",
      "eventCurrency": "ZAR",
      "eventForecast": "0.3%"
    },
    {
      "eventDateTime": "2019-07-24T08:00:00",
      "eventActual": "4.3%",
      "eventCountry": "South Africa",
      "eventExpectedVolatility": "Low",
      "eventName": "Core CPI (YoY) (Jun)",
      "eventTimeZone": "GMT",
      "eventPrevious": "4.1%",
      "eventCurrency": "ZAR",
      "eventForecast": "4.3%"
    }
  ]}}
