"BCB Focus Market Readout";"Brazil";"BRL";"2019-03-11T11:30:00";"GMT";" ";"";"";"Moderate"
"Auto Production (MoM) (Feb)";"Brazil";"BRL";"2019-03-11T14:30:00";"GMT";"10.9%";"";"29.9%";"Low"
"Auto Sales (MoM) (Feb)";"Brazil";"BRL";"2019-03-11T14:30:00";"GMT";"-14.8%";"";"-0.6%";"Low"
