{"events": {"event": {
    "eventDateTime": "2009-01-23T20:30:00",
    "eventActual": "-6.4K",
    "eventCountry": "Switzerland",
    "eventExpectedVolatility": "Low",
    "eventName": "CFTC CHF speculative net positions",
    "eventTimeZone": "GMT",
    "eventPrevious": "-6.2K",
    "eventCurrency": "CHF",
    "eventForecast": ""
  }}}
