{"events": {"event": {
    "eventDateTime": "2001-12-24T20:30:00",
    "eventActual": "-71.7k",
    "eventCountry": "United States",
    "eventExpectedVolatility": "Moderate",
    "eventName": "CFTC Crude Oil speculative net positions",
    "eventTimeZone": "GMT",
    "eventPrevious": "-71.9k",
    "eventCurrency": "USD",
    "eventForecast": ""
  }}}
