"Core PCE Price Index (MoM) (Sep)";"United States";"USD";"2014-10-31T12:30:00";"GMT";"0.1%";"0.1%";"0.1%";"Moderate"
"Core PCE Price Index (YoY) (Sep)";"United States";"USD";"2014-10-31T12:30:00";"GMT";"1.5%";"";"1.5%";"Moderate"
"Employment Benefits (QoQ) (Q3)";"United States";"USD";"2014-10-31T12:30:00";"GMT";"1.00%";"";"0.60%";"Low"
"Employment Cost Index (QoQ) (Q3)";"United States";"USD";"2014-10-31T12:30:00";"GMT";"0.7%";"0.5%";"0.7%";"Moderate"
"Employment Wages (QoQ) (Q3)";"United States";"USD";"2014-10-31T12:30:00";"GMT";"0.60%";"";"0.80%";"Low"
"Personal Income (MoM) (Sep)";"United States";"USD";"2014-10-31T12:30:00";"GMT";"0.3%";"0.3%";"0.2%";"Low"
"Personal Spending (MoM) (Sep)";"United States";"USD";"2014-10-31T12:30:00";"GMT";"0.5%";"0.1%";"-0.2%";"Moderate"
"Real Personal Consumption (MoM) (Sep)";"United States";"USD";"2014-10-31T12:30:00";"GMT";"0.5%";"";"-0.2%";"Low"
"Chicago PMI (Oct)";"United States";"USD";"2014-10-31T13:45:00";"GMT";"60.5";"60.0";"66.2";"Moderate"
"Michigan Consumer Expectations (Oct)";"United States";"USD";"2014-10-31T13:55:00";"GMT";"78.4";"78.2";"79.6";"Moderate"
"Michigan Consumer Sentiment (Oct)";"United States";"USD";"2014-10-31T13:55:00";"GMT";"86.4";"86.4";"86.9";"Moderate"
"Michigan Current Conditions (Oct)";"United States";"USD";"2014-10-31T13:55:00";"GMT";"98.9";"98.9";"98.3";"Low"
"Michigan Inflation Expectations (Oct)";"United States";"USD";"2014-10-31T13:55:00";"GMT";"2.8%";"";"2.9%";"Low"
"Dallas Fed PCE (Sep)";"United States";"USD";"2014-10-31T15:03:00";"GMT";"1.40%";"";"1.40%";"Low"
"U.S. Baker Hughes Oil Rig Count";"United States";"USD";"2014-10-31T17:00:00";"GMT";"1595";"";"1582";"Moderate"
"CFTC Gold speculative net positions";"United States";"USD";"2014-10-31T19:30:00";"GMT";"108.0K";"";"100.7K";"Moderate"
"CFTC Silver speculative net positions";"United States";"USD";"2014-10-31T19:30:00";"GMT";"6.8K";"";"5.9K";"Low"
"CFTC Crude Oil speculative net positions";"United States";"USD";"2014-10-31T20:30:00";"GMT";"280.1k";"";"267.3k";"Moderate"
