{"events": {"event": [
    {
      "eventDateTime": "2015-09-15T08:30:00",
      "eventActual": "0.2%",
      "eventCountry": "United Kingdom",
      "eventExpectedVolatility": "Moderate",
      "eventName": "CPI (MoM) (Aug)",
      "eventTimeZone": "GMT",
      "eventPrevious": "-0.2%",
      "eventCurrency": "GBP",
      "eventForecast": "0.2%"
    },
    {
      "eventDateTime": "2015-09-15T08:30:00",
      "eventActual": "0.0%",
      "eventCountry": "United Kingdom",
      "eventExpectedVolatility": "High",
      "eventName": "CPI (YoY) (Aug)",
      "eventTimeZone": "GMT",
      "eventPrevious": "0.1%",
      "eventCurrency": "GBP",
      "eventForecast": "0.0%"
    },
    {
      "eventDateTime": "2015-09-15T08:30:00",
      "eventActual": "1.0%",
      "eventCountry": "United Kingdom",
      "eventExpectedVolatility": "Low",
      "eventName": "Core CPI (YoY)",
      "eventTimeZone": "GMT",
      "eventPrevious": "1.2%",
      "eventCurrency": "GBP",
      "eventForecast": "1.0%"
    },
    {
      "eventDateTime": "2015-09-15T08:30:00",
      "eventActual": "0.0%",
      "eventCountry": "United Kingdom",
      "eventExpectedVolatility": "Low",
      "eventName": "Core PPI Output (MoM) (Aug)",
      "eventTimeZone": "GMT",
      "eventPrevious": "0.1%",
      "eventCurrency": "GBP",
      "eventForecast": ""
    },
    {
      "eventDateTime": "2015-09-15T08:30:00",
      "eventActual": "0.1%",
      "eventCountry": "United Kingdom",
      "eventExpectedVolatility": "Low",
      "eventName": "Core PPI Output (YoY) (Aug)",
      "eventTimeZone": "GMT",
      "eventPrevious": "0.2%",
      "eventCurrency": "GBP",
      "eventForecast": "0.2%"
    },
    {
      "eventDateTime": "2015-09-15T08:30:00",
      "eventActual": "0.5%",
      "eventCountry": "United Kingdom",
      "eventExpectedVolatility": "Low",
      "eventName": "Core RPI (MoM) (Aug)",
      "eventTimeZone": "GMT",
      "eventPrevious": "-0.1%",
      "eventCurrency": "GBP",
      "eventForecast": "0.3%"
    },
    {
      "eventDateTime": "2015-09-15T08:30:00",
      "eventActual": "1.2%",
      "eventCountry": "United Kingdom",
      "eventExpectedVolatility": "Low",
      "eventName": "Core RPI (YoY) (Aug)",
      "eventTimeZone": "GMT",
      "eventPrevious": "1.1%",
      "eventCurrency": "GBP",
      "eventForecast": "0.9%"
    },
    {
      "eventDateTime": "2015-09-15T08:30:00",
      "eventActual": "5.2%",
      "eventCountry": "United Kingdom",
      "eventExpectedVolatility": "Low",
      "eventName": "House Price Index (YoY)",
      "eventTimeZone": "GMT",
      "eventPrevious": "5.7%",
      "eventCurrency": "GBP",
      "eventForecast": "6.2%"
    },
    {
      "eventDateTime": "2015-09-15T08:30:00",
      "eventActual": "-2.4%",
      "eventCountry": "United Kingdom",
      "eventExpectedVolatility": "Moderate",
      "eventName": "PPI Input (MoM) (Aug)",
      "eventTimeZone": "GMT",
      "eventPrevious": "-1.2%",
      "eventCurrency": "GBP",
      "eventForecast": "-2.4%"
    },
    {
      "eventDateTime": "2015-09-15T08:30:00",
      "eventActual": "-13.8%",
      "eventCountry": "United Kingdom",
      "eventExpectedVolatility": "Low",
      "eventName": "PPI Input (YoY) (Aug)",
      "eventTimeZone": "GMT",
      "eventPrevious": "-12.6%",
      "eventCurrency": "GBP",
      "eventForecast": "-13.7%"
    },
    {
      "eventDateTime": "2015-09-15T08:30:00",
      "eventActual": "-0.4%",
      "eventCountry": "United Kingdom",
      "eventExpectedVolatility": "Low",
      "eventName": "PPI Output (MoM) (Aug)",
      "eventTimeZone": "GMT",
      "eventPrevious": "-0.1%",
      "eventCurrency": "GBP",
      "eventForecast": "-0.2%"
    },
    {
      "eventDateTime": "2015-09-15T08:30:00",
      "eventActual": "-1.8%",
      "eventCountry": "United Kingdom",
      "eventExpectedVolatility": "Low",
      "eventName": "PPI Output (YoY) (Aug)",
      "eventTimeZone": "GMT",
      "eventPrevious": "-1.6%",
      "eventCurrency": "GBP",
      "eventForecast": "-1.7%"
    },
    {
      "eventDateTime": "2015-09-15T08:30:00",
      "eventActual": "0.5%",
      "eventCountry": "United Kingdom",
      "eventExpectedVolatility": "Low",
      "eventName": "RPI (MoM) (Aug)",
      "eventTimeZone": "GMT",
      "eventPrevious": "-0.1%",
      "eventCurrency": "GBP",
      "eventForecast": "0.3%"
    },
    {
      "eventDateTime": "2015-09-15T08:30:00",
      "eventActual": "1.1%",
      "eventCountry": "United Kingdom",
      "eventExpectedVolatility": "Low",
      "eventName": "RPI (YoY) (Aug)",
      "eventTimeZone": "GMT",
      "eventPrevious": "1.0%",
      "eventCurrency": "GBP",
      "eventForecast": "0.9%"
    }
  ]}}
