"Average Earnings ex Bonus (Nov)";"United Kingdom";"GBP";"2012-12-01T09:00:00";"GMT";"1.70%";"";"1.40%";"Low"
"Core PPI Output (MoM) (Nov)";"United Kingdom";"GBP";"2012-12-01T09:00:00";"GMT";"0.00%";"";"0.00%";"Low"
"Core PPI Output (YoY) (Nov)";"United Kingdom";"GBP";"2012-12-01T09:00:00";"GMT";"0.60%";"";"0.70%";"Low"
"Core RPI (MoM) (Nov)";"United Kingdom";"GBP";"2012-12-01T09:00:00";"GMT";"0.50%";"";"0.10%";"Low"
"Core RPI (YoY) (Nov)";"United Kingdom";"GBP";"2012-12-01T09:00:00";"GMT";"3.10%";"";"2.90%";"Low"
"Core Retail Sales (MoM) (Nov)";"United Kingdom";"GBP";"2012-12-01T09:00:00";"GMT";"-0.40%";"";"0.00%";"Moderate"
"Core Retail Sales (YoY) (Nov)";"United Kingdom";"GBP";"2012-12-01T09:00:00";"GMT";"0.70%";"";"1.30%";"Moderate"
"Halifax House Price Index (YoY) (Nov)";"United Kingdom";"GBP";"2012-12-01T09:00:00";"GMT";"-1.70%";"";"-1.30%";"Moderate"
"Manufacturing Production (YoY) (Nov)";"United Kingdom";"GBP";"2012-12-01T09:00:00";"GMT";"-1.70%";"";"-2.30%";"Low"
"Nationwide HPI (YoY) (Nov)";"United Kingdom";"GBP";"2012-12-01T09:00:00";"GMT";"-0.90%";"";"-1.20%";"Moderate"
"Public Sector Net Cash Requirement (Nov)";"United Kingdom";"GBP";"2012-12-01T09:00:00";"GMT";"0.99B";"";"8.95B";"Low"
"RPI (MoM) (Nov)";"United Kingdom";"GBP";"2012-12-01T09:00:00";"GMT";"0.60%";"";"0.00%";"Low"
"Trade Balance Non-EU (Nov)";"United Kingdom";"GBP";"2012-12-01T09:00:00";"GMT";"-3.94B";"";"-4.95B";"Moderate"
