"Global Semiconductor Sales (MoM)";"United States";"USD";"2011-01-03T12:00:00";"GMT";"-0.5%";"";"-0.9%";"Low"
"Construction Spending (MoM)";"United States";"USD";"2011-01-03T15:00:00";"GMT";"0.7%";"0.2%";"0.4%";"Low"
"ISM Manufacturing PMI";"United States";"USD";"2011-01-03T15:00:00";"GMT";"56.6";"57.3";"57.0";"High"
"ISM Manufacturing Prices";"United States";"USD";"2011-01-03T15:00:00";"GMT";"69.5";"71.9";"72.5";"Low"
