{"events": {"event": [
    {
      "eventDateTime": "2014-06-17T23:50:00",
      "eventActual": "-0.86T",
      "eventCountry": "Japan",
      "eventExpectedVolatility": "Moderate",
      "eventName": "Adjusted Trade Balance",
      "eventTimeZone": "GMT",
      "eventPrevious": "-0.88T",
      "eventCurrency": "JPY",
      "eventForecast": "-1.01T"
    },
    {
      "eventDateTime": "2014-06-17T23:50:00",
      "eventActual": "-2.7%",
      "eventCountry": "Japan",
      "eventExpectedVolatility": "Moderate",
      "eventName": "Exports (YoY)",
      "eventTimeZone": "GMT",
      "eventPrevious": "5.1%",
      "eventCurrency": "JPY",
      "eventForecast": "-1.2%"
    },
    {
      "eventDateTime": "2014-06-17T23:50:00",
      "eventActual": "-3.6%",
      "eventCountry": "Japan",
      "eventExpectedVolatility": "Low",
      "eventName": "Imports (YoY)",
      "eventTimeZone": "GMT",
      "eventPrevious": "3.4%",
      "eventCurrency": "JPY",
      "eventForecast": "1.7%"
    },
    {
      "eventDateTime": "2014-06-17T23:50:00",
      "eventActual": "",
      "eventCountry": "Japan",
      "eventExpectedVolatility": "Moderate",
      "eventName": "Monetary Policy Meeting Minutes",
      "eventTimeZone": "GMT",
      "eventPrevious": "",
      "eventCurrency": "JPY",
      "eventForecast": ""
    },
    {
      "eventDateTime": "2014-06-17T23:50:00",
      "eventActual": "-909B",
      "eventCountry": "Japan",
      "eventExpectedVolatility": "Moderate",
      "eventName": "Trade Balance",
      "eventTimeZone": "GMT",
      "eventPrevious": "-809B",
      "eventCurrency": "JPY",
      "eventForecast": "-1,173B"
    }
  ]}}
