"Adjusted Trade Balance";"Japan";"JPY";"2014-06-17T23:50:00";"GMT";"-0.88T";"-1.01T";"-0.86T";"Moderate"
"Exports (YoY)";"Japan";"JPY";"2014-06-17T23:50:00";"GMT";"5.1%";"-1.2%";"-2.7%";"Moderate"
"Imports (YoY)";"Japan";"JPY";"2014-06-17T23:50:00";"GMT";"3.4%";"1.7%";"-3.6%";"Low"
"Monetary Policy Meeting Minutes";"Japan";"JPY";"2014-06-17T23:50:00";"GMT";" ";"";"";"Moderate"
"Trade Balance";"Japan";"JPY";"2014-06-17T23:50:00";"GMT";"-809B";"-1,173B";"-909B";"Moderate"
