{"events": {"event": [
    {
      "eventDateTime": "2014-04-01T05:00:00",
      "eventActual": "51.30",
      "eventCountry": "India",
      "eventExpectedVolatility": "Low",
      "eventName": "Nikkei Markit Manufacturing PMI",
      "eventTimeZone": "GMT",
      "eventPrevious": "52.50",
      "eventCurrency": "INR",
      "eventForecast": ""
    },
    {
      "eventDateTime": "2014-04-01T05:30:00",
      "eventActual": "8.00%",
      "eventCountry": "India",
      "eventExpectedVolatility": "High",
      "eventName": "Interest Rate Decision",
      "eventTimeZone": "GMT",
      "eventPrevious": "8.00%",
      "eventCurrency": "INR",
      "eventForecast": "8.00%"
    },
    {
      "eventDateTime": "2014-04-01T09:00:00",
      "eventActual": "4.00%",
      "eventCountry": "India",
      "eventExpectedVolatility": "Low",
      "eventName": "Cash Reserve Ratio (Mar)",
      "eventTimeZone": "GMT",
      "eventPrevious": "4.00%",
      "eventCurrency": "INR",
      "eventForecast": ""
    },
    {
      "eventDateTime": "2014-04-01T09:00:00",
      "eventActual": "-0.10%",
      "eventCountry": "India",
      "eventExpectedVolatility": "Low",
      "eventName": "Cumulative Industrial Production (Mar)",
      "eventTimeZone": "GMT",
      "eventPrevious": "-0.10%",
      "eventCurrency": "INR",
      "eventForecast": ""
    },
    {
      "eventDateTime": "2014-04-01T09:00:00",
      "eventActual": "14.47%",
      "eventCountry": "India",
      "eventExpectedVolatility": "Low",
      "eventName": "Deposit Growth (Mar)",
      "eventTimeZone": "GMT",
      "eventPrevious": "15.29%",
      "eventCurrency": "INR",
      "eventForecast": ""
    },
    {
      "eventDateTime": "2014-04-01T09:00:00",
      "eventActual": "5,081.49B",
      "eventCountry": "India",
      "eventExpectedVolatility": "Low",
      "eventName": "Federal Fiscal Deficit (Mar)",
      "eventTimeZone": "GMT",
      "eventPrevious": "5,992.99B",
      "eventCurrency": "INR",
      "eventForecast": ""
    },
    {
      "eventDateTime": "2014-04-01T09:00:00",
      "eventActual": "7.00%",
      "eventCountry": "India",
      "eventExpectedVolatility": "Low",
      "eventName": "Reverse REPO Rate (Mar)",
      "eventTimeZone": "GMT",
      "eventPrevious": "7.00%",
      "eventCurrency": "INR",
      "eventForecast": ""
    },
    {
      "eventDateTime": "2014-04-01T09:00:00",
      "eventActual": "9.60%",
      "eventCountry": "India",
      "eventExpectedVolatility": "Low",
      "eventName": "WPI Food (YoY) (Mar)",
      "eventTimeZone": "GMT",
      "eventPrevious": "7.90%",
      "eventCurrency": "INR",
      "eventForecast": ""
    },
    {
      "eventDateTime": "2014-04-01T09:00:00",
      "eventActual": "11.80%",
      "eventCountry": "India",
      "eventExpectedVolatility": "Low",
      "eventName": "WPI Fuel (YoY) (Mar)",
      "eventTimeZone": "GMT",
      "eventPrevious": "8.70%",
      "eventCurrency": "INR",
      "eventForecast": ""
    },
    {
      "eventDateTime": "2014-04-01T09:00:00",
      "eventActual": "3.70%",
      "eventCountry": "India",
      "eventExpectedVolatility": "Low",
      "eventName": "WPI Manufacturing Inflation (YoY) (Mar)",
      "eventTimeZone": "GMT",
      "eventPrevious": "3.36%",
      "eventCurrency": "INR",
      "eventForecast": ""
    }
  ]}}
