"Core PCE Price Index (MoM)";"United States";"USD";"2010-03-29T12:30:00";"GMT";"0.0%";"0.1%";"0.0%";"Moderate"
"Personal Income (MoM)";"United States";"USD";"2010-03-29T12:30:00";"GMT";"0.3%";"0.1%";"0.0%";"Low"
"Personal Spending (MoM)";"United States";"USD";"2010-03-29T12:30:00";"GMT";"0.4%";"0.4%";"0.3%";"Moderate"
"Treasury Secretary Geithner Speaks";"United States";"USD";"2010-03-29T14:00:00";"GMT";" ";"";"";"Moderate"
