{"events": {"event": [
    {
      "eventDateTime": "2016-02-12T00:30:00",
      "eventActual": "2.6%",
      "eventCountry": "Australia",
      "eventExpectedVolatility": "Moderate",
      "eventName": "Home Loans (MoM) (Dec)",
      "eventTimeZone": "GMT",
      "eventPrevious": "1.9%",
      "eventCurrency": "AUD",
      "eventForecast": "3.0%"
    },
    {
      "eventDateTime": "2016-02-12T00:30:00",
      "eventActual": "0.6%",
      "eventCountry": "Australia",
      "eventExpectedVolatility": "Low",
      "eventName": "Invest Housing Finance (MoM) (Dec)",
      "eventTimeZone": "GMT",
      "eventPrevious": "0.7%",
      "eventCurrency": "AUD",
      "eventForecast": ""
    },
    {
      "eventDateTime": "2016-02-12T20:30:00",
      "eventActual": "-5.6K",
      "eventCountry": "Australia",
      "eventExpectedVolatility": "Moderate",
      "eventName": "CFTC AUD speculative net positions",
      "eventTimeZone": "GMT",
      "eventPrevious": "-26.2K",
      "eventCurrency": "AUD",
      "eventForecast": ""
    }
  ]}}
