"Manufacturing PMI (May)";"Japan";"JPY";"2017-06-01T00:30:00";"GMT";"52.0";"52.0";"53.1";"Low"
"10-Year JGB Auction";"Japan";"JPY";"2017-06-01T03:45:00";"GMT";"0.030%";"";"0.051%";"Moderate"
"Monetary Base (YoY)";"Japan";"JPY";"2017-06-01T23:50:00";"GMT";"19.8%";"19.6%";"19.4%";"Low"
