{"events": {"event": [
    {
      "eventDateTime": "2017-06-01T00:30:00",
      "eventActual": "53.1",
      "eventCountry": "Japan",
      "eventExpectedVolatility": "Low",
      "eventName": "Manufacturing PMI (May)",
      "eventTimeZone": "GMT",
      "eventPrevious": "52.0",
      "eventCurrency": "JPY",
      "eventForecast": "52.0"
    },
    {
      "eventDateTime": "2017-06-01T03:45:00",
      "eventActual": "0.051%",
      "eventCountry": "Japan",
      "eventExpectedVolatility": "Moderate",
      "eventName": "10-Year JGB Auction",
      "eventTimeZone": "GMT",
      "eventPrevious": "0.030%",
      "eventCurrency": "JPY",
      "eventForecast": ""
    },
    {
      "eventDateTime": "2017-06-01T23:50:00",
      "eventActual": "19.4%",
      "eventCountry": "Japan",
      "eventExpectedVolatility": "Low",
      "eventName": "Monetary Base (YoY)",
      "eventTimeZone": "GMT",
      "eventPrevious": "19.8%",
      "eventCurrency": "JPY",
      "eventForecast": "19.6%"
    }
  ]}}
