"ECB's De Guindos Speaks";"Euro Zone";"EUR";"2019-06-20T07:30:00";"GMT";" ";"";"";"Moderate"
"ECB Economic Bulletin";"Euro Zone";"EUR";"2019-06-20T08:00:00";"GMT";" ";"";"";"Moderate"
"French 3-Year BTAN Auction";"France";"EUR";"2019-06-20T09:00:00";"GMT";"-0.52%";"";"-0.65%";"Low"
"French 5-Year BTAN Auction";"France";"EUR";"2019-06-20T09:00:00";"GMT";"-0.19%";"";"-0.38%";"Low"
"Spanish 3-Year Bonos Auction";"Spain";"EUR";"2019-06-20T09:30:00";"GMT";"-0.361%";"";"-0.408%";"Low"
"Spanish 5-Year Bonos Auction";"Spain";"EUR";"2019-06-20T09:30:00";"GMT";"-0.096%";"";"-0.182%";"Low"
"Consumer Confidence (Jun)";"Euro Zone";"EUR";"2019-06-20T14:00:00";"GMT";"-6.5";"-6.5";"-7.2";"Low"
