{"events": {"event": [
    {
      "eventDateTime": "2011-08-01T09:00:00",
      "eventActual": "99.00",
      "eventCountry": "South Africa",
      "eventExpectedVolatility": "Low",
      "eventName": "Business Confidence (Jul)",
      "eventTimeZone": "GMT",
      "eventPrevious": "102.40",
      "eventCurrency": "ZAR",
      "eventForecast": ""
    },
    {
      "eventDateTime": "2011-08-01T09:00:00",
      "eventActual": "0.87%",
      "eventCountry": "South Africa",
      "eventExpectedVolatility": "Moderate",
      "eventName": "CPI (MoM) (Jul)",
      "eventTimeZone": "GMT",
      "eventPrevious": "0.43%",
      "eventCurrency": "ZAR",
      "eventForecast": ""
    },
    {
      "eventDateTime": "2011-08-01T09:00:00",
      "eventActual": "5.19%",
      "eventCountry": "South Africa",
      "eventExpectedVolatility": "Low",
      "eventName": "CPI (YoY) (Jul)",
      "eventTimeZone": "GMT",
      "eventPrevious": "5.00%",
      "eventCurrency": "ZAR",
      "eventForecast": ""
    },
    {
      "eventDateTime": "2011-08-01T09:00:00",
      "eventActual": "0.60%",
      "eventCountry": "South Africa",
      "eventExpectedVolatility": "Moderate",
      "eventName": "Core CPI (MoM) (Jul)",
      "eventTimeZone": "GMT",
      "eventPrevious": "0.40%",
      "eventCurrency": "ZAR",
      "eventForecast": ""
    },
    {
      "eventDateTime": "2011-08-01T09:00:00",
      "eventActual": "4.00%",
      "eventCountry": "South Africa",
      "eventExpectedVolatility": "Low",
      "eventName": "Core CPI (YoY) (Jul)",
      "eventTimeZone": "GMT",
      "eventPrevious": "3.40%",
      "eventCurrency": "ZAR",
      "eventForecast": ""
    },
    {
      "eventDateTime": "2011-08-01T09:00:00",
      "eventActual": "50.11B",
      "eventCountry": "South Africa",
      "eventExpectedVolatility": "Low",
      "eventName": "Foreign Reserves (USD) (Jul)",
      "eventTimeZone": "GMT",
      "eventPrevious": "50.04B",
      "eventCurrency": "ZAR",
      "eventForecast": ""
    },
    {
      "eventDateTime": "2011-08-01T09:00:00",
      "eventActual": "-3.87%",
      "eventCountry": "South Africa",
      "eventExpectedVolatility": "Low",
      "eventName": "Gold Production (YoY) (Jul)",
      "eventTimeZone": "GMT",
      "eventPrevious": "-5.88%",
      "eventCurrency": "ZAR",
      "eventForecast": ""
    },
    {
      "eventDateTime": "2011-08-01T09:00:00",
      "eventActual": "5.50%",
      "eventCountry": "South Africa",
      "eventExpectedVolatility": "Moderate",
      "eventName": "Interest Rate Decision (Jul)",
      "eventTimeZone": "GMT",
      "eventPrevious": "5.50%",
      "eventCurrency": "ZAR",
      "eventForecast": ""
    },
    {
      "eventDateTime": "2011-08-01T09:00:00",
      "eventActual": "5.60%",
      "eventCountry": "South Africa",
      "eventExpectedVolatility": "Low",
      "eventName": "M3 Money Supply (YoY) (Jul)",
      "eventTimeZone": "GMT",
      "eventPrevious": "6.03%",
      "eventCurrency": "ZAR",
      "eventForecast": ""
    },
    {
      "eventDateTime": "2011-08-01T09:00:00",
      "eventActual": "-5.32%",
      "eventCountry": "South Africa",
      "eventExpectedVolatility": "Low",
      "eventName": "Mining Production (Jul)",
      "eventTimeZone": "GMT",
      "eventPrevious": "-0.10%",
      "eventCurrency": "ZAR",
      "eventForecast": ""
    },
    {
      "eventDateTime": "2011-08-01T09:00:00",
      "eventActual": "47.87B",
      "eventCountry": "South Africa",
      "eventExpectedVolatility": "Low",
      "eventName": "Net FX Reserves (USD) (Jul)",
      "eventTimeZone": "GMT",
      "eventPrevious": "47.16B",
      "eventCurrency": "ZAR",
      "eventForecast": ""
    },
    {
      "eventDateTime": "2011-08-01T09:00:00",
      "eventActual": "9.00%",
      "eventCountry": "South Africa",
      "eventExpectedVolatility": "Low",
      "eventName": "Prime Rate (Jul)",
      "eventTimeZone": "GMT",
      "eventPrevious": "9.00%",
      "eventCurrency": "ZAR",
      "eventForecast": ""
    },
    {
      "eventDateTime": "2011-08-01T09:00:00",
      "eventActual": "5.66%",
      "eventCountry": "South Africa",
      "eventExpectedVolatility": "Low",
      "eventName": "Private Sector Credit (Jul)",
      "eventTimeZone": "GMT",
      "eventPrevious": "5.30%",
      "eventCurrency": "ZAR",
      "eventForecast": ""
    },
    {
      "eventDateTime": "2011-08-01T09:00:00",
      "eventActual": "2.90%",
      "eventCountry": "South Africa",
      "eventExpectedVolatility": "Low",
      "eventName": "Retail Sales (YoY) (Jul)",
      "eventTimeZone": "GMT",
      "eventPrevious": "2.40%",
      "eventCurrency": "ZAR",
      "eventForecast": ""
    },
    {
      "eventDateTime": "2011-08-01T09:00:00",
      "eventActual": "46.07K",
      "eventCountry": "South Africa",
      "eventExpectedVolatility": "Low",
      "eventName": "Total Vehicle Sales (Jul)",
      "eventTimeZone": "GMT",
      "eventPrevious": "44.84K",
      "eventCurrency": "ZAR",
      "eventForecast": ""
    },
    {
      "eventDateTime": "2011-08-01T09:00:00",
      "eventActual": "8.20%",
      "eventCountry": "South Africa",
      "eventExpectedVolatility": "Low",
      "eventName": "Total Vehicle Sales (YoY) (Jul)",
      "eventTimeZone": "GMT",
      "eventPrevious": "13.10%",
      "eventCurrency": "ZAR",
      "eventForecast": ""
    },
    {
      "eventDateTime": "2011-08-01T09:00:00",
      "eventActual": "2.86B",
      "eventCountry": "South Africa",
      "eventExpectedVolatility": "Low",
      "eventName": "Trade Balance (Jul)",
      "eventTimeZone": "GMT",
      "eventPrevious": "10.77B",
      "eventCurrency": "ZAR",
      "eventForecast": ""
    }
  ]}}
