{"events": {"event": {
    "eventDateTime": "2010-05-17T10:00:00",
    "eventActual": "-18",
    "eventCountry": "United Kingdom",
    "eventExpectedVolatility": "Moderate",
    "eventName": "CBI Industrial Trends Orders",
    "eventTimeZone": "GMT",
    "eventPrevious": "-36",
    "eventCurrency": "GBP",
    "eventForecast": "-33"
  }}}
