{"events": {"event": [
    {
      "eventDateTime": "2015-08-03T05:30:00",
      "eventActual": "48.6%",
      "eventCountry": "Switzerland",
      "eventExpectedVolatility": "Moderate",
      "eventName": "Investing.com USD/CHF Index",
      "eventTimeZone": "GMT",
      "eventPrevious": "50.4%",
      "eventCurrency": "CHF",
      "eventForecast": ""
    },
    {
      "eventDateTime": "2015-08-03T07:30:00",
      "eventActual": "48.7",
      "eventCountry": "Switzerland",
      "eventExpectedVolatility": "Moderate",
      "eventName": "procure.ch PMI (Jul)",
      "eventTimeZone": "GMT",
      "eventPrevious": "49.9",
      "eventCurrency": "CHF",
      "eventForecast": "50.7"
    }
  ]}}
