{"events": {"event": [
    {
      "eventDateTime": "2008-12-22T05:00:00",
      "eventActual": "",
      "eventCountry": "Japan",
      "eventExpectedVolatility": "Moderate",
      "eventName": "BoJ Governor Shirakawa Speaks",
      "eventTimeZone": "GMT",
      "eventPrevious": "",
      "eventCurrency": "JPY",
      "eventForecast": ""
    },
    {
      "eventDateTime": "2008-12-22T05:00:00",
      "eventActual": "",
      "eventCountry": "Japan",
      "eventExpectedVolatility": "Moderate",
      "eventName": "BoJ Monthly Report",
      "eventTimeZone": "GMT",
      "eventPrevious": "",
      "eventCurrency": "JPY",
      "eventForecast": ""
    }
  ]}}
