{"events": {"event": {
    "eventDateTime": "2017-08-07T09:00:00",
    "eventActual": "269.7B",
    "eventCountry": "Singapore",
    "eventExpectedVolatility": "Low",
    "eventName": "Foreign Reserves USD (MoM) (Jul)",
    "eventTimeZone": "GMT",
    "eventPrevious": "266.3B",
    "eventCurrency": "SGD",
    "eventForecast": ""
  }}}
