{"events": {"event": [
    {
      "eventDateTime": "2010-08-19T12:30:00",
      "eventActual": "500K",
      "eventCountry": "United States",
      "eventExpectedVolatility": "Moderate",
      "eventName": "Initial Jobless Claims",
      "eventTimeZone": "GMT",
      "eventPrevious": "488K",
      "eventCurrency": "USD",
      "eventForecast": "475K"
    },
    {
      "eventDateTime": "2010-08-19T14:00:00",
      "eventActual": "-7.7",
      "eventCountry": "United States",
      "eventExpectedVolatility": "High",
      "eventName": "Philadelphia Fed Manufacturing Index",
      "eventTimeZone": "GMT",
      "eventPrevious": "5.1",
      "eventCurrency": "USD",
      "eventForecast": "7.5"
    },
    {
      "eventDateTime": "2010-08-19T14:30:00",
      "eventActual": "27B",
      "eventCountry": "United States",
      "eventExpectedVolatility": "Low",
      "eventName": "Natural Gas Storage",
      "eventTimeZone": "GMT",
      "eventPrevious": "37B",
      "eventCurrency": "USD",
      "eventForecast": ""
    }
  ]}}
