"Monster Employment Index";"United States";"USD";"2011-08-05T05:05:00";"GMT";"146";"";"144";"Low"
"Bankruptcy Filings (YoY)";"United States";"USD";"2011-08-05T12:00:00";"GMT";"-5.30%";"";"-9.80%";"Low"
"Average Hourly Earnings (MoM)";"United States";"USD";"2011-08-05T12:30:00";"GMT";"0.0%";"0.2%";"0.4%";"Moderate"
"Average Weekly Hours";"United States";"USD";"2011-08-05T12:30:00";"GMT";"34.3";"34.3";"34.3";"Low"
"Nonfarm Payrolls";"United States";"USD";"2011-08-05T12:30:00";"GMT";"46K";"95K";"117K";"High"
"Private Nonfarm Payrolls";"United States";"USD";"2011-08-05T12:30:00";"GMT";"80K";"120K";"154K";"Moderate"
"U6 Unemployment Rate (Jul)";"United States";"USD";"2011-08-05T12:30:00";"GMT";"16.10%";"";"15.90%";"Low"
"Unemployment Rate";"United States";"USD";"2011-08-05T12:30:00";"GMT";"9.2%";"9.2%";"9.1%";"High"
"IBD/TIPP Economic Optimism";"United States";"USD";"2011-08-05T14:00:00";"GMT";"41.4";"43.1";"35.8";"Low"
"U.S. Baker Hughes Oil Rig Count";"United States";"USD";"2011-08-05T17:00:00";"GMT";"1025";"";"1031";"Moderate"
"Consumer Credit";"United States";"USD";"2011-08-05T19:00:00";"GMT";"5.10B";"5.00B";"15.50B";"Low"
"CFTC Gold speculative net positions";"United States";"USD";"2011-08-05T19:30:00";"GMT";"235.6K";"";"247.2K";"Moderate"
"CFTC Silver speculative net positions";"United States";"USD";"2011-08-05T19:30:00";"GMT";"23.9K";"";"24.9K";"Low"
"CFTC Crude Oil speculative net positions";"United States";"USD";"2011-08-05T20:30:00";"GMT";"158.8k";"";"147.4k";"Moderate"
