{"events": {"event": [
    {
      "eventDateTime": "2000-09-01T09:00:00",
      "eventActual": "0.40%",
      "eventCountry": "South Africa",
      "eventExpectedVolatility": "Moderate",
      "eventName": "CPI (MoM) (Aug)",
      "eventTimeZone": "GMT",
      "eventPrevious": "0.81%",
      "eventCurrency": "ZAR",
      "eventForecast": ""
    },
    {
      "eventDateTime": "2000-09-01T09:00:00",
      "eventActual": "6.81%",
      "eventCountry": "South Africa",
      "eventExpectedVolatility": "Low",
      "eventName": "CPI (YoY) (Aug)",
      "eventTimeZone": "GMT",
      "eventPrevious": "6.16%",
      "eventCurrency": "ZAR",
      "eventForecast": ""
    },
    {
      "eventDateTime": "2000-09-01T09:00:00",
      "eventActual": "7.65B",
      "eventCountry": "South Africa",
      "eventExpectedVolatility": "Low",
      "eventName": "Foreign Reserves (USD) (Aug)",
      "eventTimeZone": "GMT",
      "eventPrevious": "7.61B",
      "eventCurrency": "ZAR",
      "eventForecast": ""
    },
    {
      "eventDateTime": "2000-09-01T09:00:00",
      "eventActual": "2.79%",
      "eventCountry": "South Africa",
      "eventExpectedVolatility": "Low",
      "eventName": "Gold Production (YoY) (Aug)",
      "eventTimeZone": "GMT",
      "eventPrevious": "-5.58%",
      "eventCurrency": "ZAR",
      "eventForecast": ""
    },
    {
      "eventDateTime": "2000-09-01T09:00:00",
      "eventActual": "11.75%",
      "eventCountry": "South Africa",
      "eventExpectedVolatility": "Moderate",
      "eventName": "Interest Rate Decision (Aug)",
      "eventTimeZone": "GMT",
      "eventPrevious": "11.75%",
      "eventCurrency": "ZAR",
      "eventForecast": ""
    },
    {
      "eventDateTime": "2000-09-01T09:00:00",
      "eventActual": "8.46%",
      "eventCountry": "South Africa",
      "eventExpectedVolatility": "Low",
      "eventName": "M3 Money Supply (YoY) (Aug)",
      "eventTimeZone": "GMT",
      "eventPrevious": "6.39%",
      "eventCurrency": "ZAR",
      "eventForecast": ""
    },
    {
      "eventDateTime": "2000-09-01T09:00:00",
      "eventActual": "3.77%",
      "eventCountry": "South Africa",
      "eventExpectedVolatility": "Low",
      "eventName": "Mining Production (Aug)",
      "eventTimeZone": "GMT",
      "eventPrevious": "-4.74%",
      "eventCurrency": "ZAR",
      "eventForecast": ""
    },
    {
      "eventDateTime": "2000-09-01T09:00:00",
      "eventActual": "-9.70B",
      "eventCountry": "South Africa",
      "eventExpectedVolatility": "Low",
      "eventName": "Net FX Reserves (USD) (Aug)",
      "eventTimeZone": "GMT",
      "eventPrevious": "-9.93B",
      "eventCurrency": "ZAR",
      "eventForecast": ""
    },
    {
      "eventDateTime": "2000-09-01T09:00:00",
      "eventActual": "14.50%",
      "eventCountry": "South Africa",
      "eventExpectedVolatility": "Low",
      "eventName": "Prime Rate (Aug)",
      "eventTimeZone": "GMT",
      "eventPrevious": "14.50%",
      "eventCurrency": "ZAR",
      "eventForecast": ""
    },
    {
      "eventDateTime": "2000-09-01T09:00:00",
      "eventActual": "8.61%",
      "eventCountry": "South Africa",
      "eventExpectedVolatility": "Low",
      "eventName": "Private Sector Credit (Aug)",
      "eventTimeZone": "GMT",
      "eventPrevious": "8.93%",
      "eventCurrency": "ZAR",
      "eventForecast": ""
    },
    {
      "eventDateTime": "2000-09-01T09:00:00",
      "eventActual": "30.79K",
      "eventCountry": "South Africa",
      "eventExpectedVolatility": "Low",
      "eventName": "Total Vehicle Sales (Aug)",
      "eventTimeZone": "GMT",
      "eventPrevious": "28.73K",
      "eventCurrency": "ZAR",
      "eventForecast": ""
    },
    {
      "eventDateTime": "2000-09-01T09:00:00",
      "eventActual": "12.50%",
      "eventCountry": "South Africa",
      "eventExpectedVolatility": "Low",
      "eventName": "Total Vehicle Sales (YoY) (Aug)",
      "eventTimeZone": "GMT",
      "eventPrevious": "5.20%",
      "eventCurrency": "ZAR",
      "eventForecast": ""
    }
  ]}}
