"MI Inflation Gauge (MoM)";"Australia";"AUD";"2011-06-06T00:30:00";"GMT";"0.3%";"";"0.2%";"Low"
"ANZ Job Advertisements (MoM)";"Australia";"AUD";"2011-06-06T01:30:00";"GMT";"-0.40%";"";"-6.50%";"Low"
"AIG Construction Index";"Australia";"AUD";"2011-06-06T23:30:00";"GMT";"37.9";"";"39.6";"Low"
