"ECB's Praet Speaks";"Euro Zone";"EUR";"2018-10-17T07:30:00";"GMT";" ";"";"";"Moderate"
"CPI (MoM) (Sep)";"Euro Zone";"EUR";"2018-10-17T09:00:00";"GMT";"0.2%";"0.5%";"0.5%";"Moderate"
"CPI (YoY) (Sep)";"Euro Zone";"EUR";"2018-10-17T09:00:00";"GMT";"2.1%";"2.1%";"2.1%";"High"
"CPI ex Tobacco (MoM) (Sep)";"Euro Zone";"EUR";"2018-10-17T09:00:00";"GMT";"0.2%";"";"0.5%";"Low"
"CPI ex Tobacco (YoY) (Sep)";"Euro Zone";"EUR";"2018-10-17T09:00:00";"GMT";"1.9%";"";"2.0%";"Low"
"Core CPI (MoM) (Sep)";"Euro Zone";"EUR";"2018-10-17T09:00:00";"GMT";"0.4%";"0.4%";"0.4%";"Low"
"Core CPI (YoY) (Sep)";"Euro Zone";"EUR";"2018-10-17T09:00:00";"GMT";"0.9%";"0.9%";"0.9%";"Moderate"
"German 30-Year Bund Auction";"Germany";"EUR";"2018-10-17T09:35:00";"GMT";"1.100%";"";"1.040%";"Low"
"EU Economic Forecasts";"Euro Zone";"EUR";"2018-10-17T10:00:00";"GMT";" ";"";"";"Moderate"
"German Buba President Weidmann Speaks";"Germany";"EUR";"2018-10-17T16:30:00";"GMT";" ";"";"";"Moderate"
