"BoC Interest Rate Decision (Apr)";"Canada";"CAD";"2003-05-01T09:00:00";"GMT";"3.00%";"";"3.25%";"High"
"Budget Balance (Apr)";"Canada";"CAD";"2003-05-01T09:00:00";"GMT";"-0.99B";"";"0.99B";"Low"
"Building Permits (MoM) (Apr)";"Canada";"CAD";"2003-05-01T09:00:00";"GMT";"1.40%";"";"6.60%";"Moderate"
"CPI (MoM) (Apr)";"Canada";"CAD";"2003-05-01T09:00:00";"GMT";"0.30%";"";"-0.70%";"Moderate"
"CPI (YoY) (Apr)";"Canada";"CAD";"2003-05-01T09:00:00";"GMT";"4.20%";"";"2.90%";"Low"
"Core CPI (MoM) (Apr)";"Canada";"CAD";"2003-05-01T09:00:00";"GMT";"0.20%";"";"-0.30%";"High"
"Core CPI (YoY) (Apr)";"Canada";"CAD";"2003-05-01T09:00:00";"GMT";"2.80%";"";"2.10%";"Moderate"
"Core Retail Sales (MoM) (Apr)";"Canada";"CAD";"2003-05-01T09:00:00";"GMT";"-0.60%";"";"-0.20%";"High"
"Employment Change (Apr)";"Canada";"CAD";"2003-05-01T09:00:00";"GMT";"-1.20K";"";"-1.30K";"High"
"Exports (Apr)";"Canada";"CAD";"2003-05-01T09:00:00";"GMT";"35.44B";"";"33.04B";"Low"
"Foreign Securities Purchases (Apr)";"Canada";"CAD";"2003-05-01T09:00:00";"GMT";"6.19B";"";"4.34B";"Moderate"
"Foreign Securities Purchases by Canadians (Apr)";"Canada";"CAD";"2003-05-01T09:00:00";"GMT";"0.48B";"";"1.52B";"Low"
"Full Employment Change (Apr)";"Canada";"CAD";"2003-05-01T09:00:00";"GMT";"25.00K";"";"3.20K";"Low"
"GDP (MoM) (Apr)";"Canada";"CAD";"2003-05-01T09:00:00";"GMT";"-0.10%";"";"-0.30%";"High"
"Housing Starts (Apr)";"Canada";"CAD";"2003-05-01T09:00:00";"GMT";"196.90K";"";"210.40K";"Moderate"
"IPPI (MoM) (Apr)";"Canada";"CAD";"2003-05-01T09:00:00";"GMT";"-0.30%";"";"-1.80%";"Low"
"IPPI (YoY) (Apr)";"Canada";"CAD";"2003-05-01T09:00:00";"GMT";"1.90%";"";"-0.20%";"Low"
"Imports (Apr)";"Canada";"CAD";"2003-05-01T09:00:00";"GMT";"29.92B";"";"28.96B";"Low"
"Ivey PMI n.s.a (Apr)";"Canada";"CAD";"2003-05-01T09:00:00";"GMT";"65.90";"";"54.20";"Low"
"Manufacturing Sales (MoM) (Apr)";"Canada";"CAD";"2003-05-01T09:00:00";"GMT";"-0.40%";"";"-1.40%";"Moderate"
"New Housing Price Index (MoM) (Apr)";"Canada";"CAD";"2003-05-01T09:00:00";"GMT";"0.10%";"";"0.40%";"Moderate"
"Part Time Employment Change (Apr)";"Canada";"CAD";"2003-05-01T09:00:00";"GMT";"-26.20K";"";"-4.50K";"Low"
"Participation Rate (Apr)";"Canada";"CAD";"2003-05-01T09:00:00";"GMT";"67.40%";"";"67.50%";"Low"
"RMPI (MoM) (Apr)";"Canada";"CAD";"2003-05-01T09:00:00";"GMT";"-4.00%";"";"-6.80%";"Moderate"
"RMPI (YoY) (Apr)";"Canada";"CAD";"2003-05-01T09:00:00";"GMT";"12.30%";"";"3.60%";"Low"
"Retail Sales (MoM) (Apr)";"Canada";"CAD";"2003-05-01T09:00:00";"GMT";"-1.30%";"";"-0.40%";"Moderate"
"Trade Balance (Apr)";"Canada";"CAD";"2003-05-01T09:00:00";"GMT";"5.53B";"";"4.08B";"Moderate"
"Unemployment Rate (Apr)";"Canada";"CAD";"2003-05-01T09:00:00";"GMT";"7.40%";"";"7.60%";"Moderate"
"Wholesale Sales (MoM) (Apr)";"Canada";"CAD";"2003-05-01T09:00:00";"GMT";"-1.20%";"";"-2.20%";"Moderate"
