"Industrial Production (MoM)";"United Kingdom";"GBP";"2010-02-10T09:30:00";"GMT";"0.4%";"0.2%";"0.5%";"Moderate"
"Manufacturing Production (MoM)";"United Kingdom";"GBP";"2010-02-10T09:30:00";"GMT";"0.2%";"0.4%";"0.9%";"High"
"BoE Inflation Report";"United Kingdom";"GBP";"2010-02-10T10:30:00";"GMT";" ";"";"";"High"
"NIESR GDP Estimate";"United Kingdom";"GBP";"2010-02-10T15:00:00";"GMT";"0.3%";"";"0.4%";"Moderate"
