{"events": {"event": {
    "eventDateTime": "2018-01-31T12:00:00",
    "eventActual": "15.72B",
    "eventCountry": "South Africa",
    "eventExpectedVolatility": "Low",
    "eventName": "Trade Balance (Dec)",
    "eventTimeZone": "GMT",
    "eventPrevious": "13.05B",
    "eventCurrency": "ZAR",
    "eventForecast": "10.05B"
  }}}
