"FOMC Member Mester Speaks";"United States";"USD";"2019-02-19T13:50:00";"GMT";" ";"";"";"Moderate"
"NAHB Housing Market Index (Feb)";"United States";"USD";"2019-02-19T15:00:00";"GMT";"58";"59";"62";"Low"
"3-Month Bill Auction";"United States";"USD";"2019-02-19T16:30:00";"GMT";"2.400%";"";"2.395%";"Low"
"6-Month Bill Auction";"United States";"USD";"2019-02-19T16:30:00";"GMT";"2.450%";"";"2.455%";"Low"
