{"events": {"event": {
    "eventDateTime": "2013-09-04T15:30:00",
    "eventActual": "-5.85B",
    "eventCountry": "Brazil",
    "eventExpectedVolatility": "Low",
    "eventName": "Foreign Exchange Flows",
    "eventTimeZone": "GMT",
    "eventPrevious": "-2.75B",
    "eventCurrency": "BRL",
    "eventForecast": ""
  }}}
