{"events": {"event": [
    {
      "eventDateTime": "2013-10-23T11:00:00",
      "eventActual": "-0.6%",
      "eventCountry": "United States",
      "eventExpectedVolatility": "Low",
      "eventName": "MBA Mortgage Applications (WoW)",
      "eventTimeZone": "GMT",
      "eventPrevious": "0.3%",
      "eventCurrency": "USD",
      "eventForecast": ""
    },
    {
      "eventDateTime": "2013-10-23T12:30:00",
      "eventActual": "0.2%",
      "eventCountry": "United States",
      "eventExpectedVolatility": "Moderate",
      "eventName": "Import Price Index (MoM)",
      "eventTimeZone": "GMT",
      "eventPrevious": "0.2%",
      "eventCurrency": "USD",
      "eventForecast": "0.2%"
    },
    {
      "eventDateTime": "2013-10-23T13:00:00",
      "eventActual": "0.3%",
      "eventCountry": "United States",
      "eventExpectedVolatility": "Low",
      "eventName": "House Price Index (MoM)",
      "eventTimeZone": "GMT",
      "eventPrevious": "0.8%",
      "eventCurrency": "USD",
      "eventForecast": "0.8%"
    },
    {
      "eventDateTime": "2013-10-23T13:00:00",
      "eventActual": "8.5%",
      "eventCountry": "United States",
      "eventExpectedVolatility": "Low",
      "eventName": "House Price Index (YoY)",
      "eventTimeZone": "GMT",
      "eventPrevious": "8.8%",
      "eventCurrency": "USD",
      "eventForecast": "7.1%"
    },
    {
      "eventDateTime": "2013-10-23T14:00:00",
      "eventActual": "114.78",
      "eventCountry": "United States",
      "eventExpectedVolatility": "Low",
      "eventName": "CB Employment Trends Index",
      "eventTimeZone": "GMT",
      "eventPrevious": "113.98",
      "eventCurrency": "USD",
      "eventForecast": ""
    },
    {
      "eventDateTime": "2013-10-23T14:30:00",
      "eventActual": "5.246M",
      "eventCountry": "United States",
      "eventExpectedVolatility": "High",
      "eventName": "Crude Oil Inventories",
      "eventTimeZone": "GMT",
      "eventPrevious": "3.999M",
      "eventCurrency": "USD",
      "eventForecast": "2.938M"
    },
    {
      "eventDateTime": "2013-10-23T14:30:00",
      "eventActual": "1.537M",
      "eventCountry": "United States",
      "eventExpectedVolatility": "Low",
      "eventName": "EIA Weekly Distillates Stocks",
      "eventTimeZone": "GMT",
      "eventPrevious": "-1.801M",
      "eventCurrency": "USD",
      "eventForecast": "-1.775M"
    },
    {
      "eventDateTime": "2013-10-23T14:30:00",
      "eventActual": "-1.805M",
      "eventCountry": "United States",
      "eventExpectedVolatility": "Low",
      "eventName": "Gasoline Inventories",
      "eventTimeZone": "GMT",
      "eventPrevious": "-2.570M",
      "eventCurrency": "USD",
      "eventForecast": "-0.250M"
    }
  ]}}
