{"events": {"event": [
    {
      "eventDateTime": "2011-08-11T12:30:00",
      "eventActual": "0.3%",
      "eventCountry": "Canada",
      "eventExpectedVolatility": "Moderate",
      "eventName": "New Housing Price Index (MoM)",
      "eventTimeZone": "GMT",
      "eventPrevious": "0.4%",
      "eventCurrency": "CAD",
      "eventForecast": "0.3%"
    },
    {
      "eventDateTime": "2011-08-11T12:30:00",
      "eventActual": "-1.6B",
      "eventCountry": "Canada",
      "eventExpectedVolatility": "Moderate",
      "eventName": "Trade Balance",
      "eventTimeZone": "GMT",
      "eventPrevious": "-1.0B",
      "eventCurrency": "CAD",
      "eventForecast": "-0.9B"
    }
  ]}}
