"Chain Store Sales (WoW)";"United States";"USD";"2014-06-03T11:45:00";"GMT";"-1.2%";"";"2.9%";"Low"
"Chain Store Sales (YoY)";"United States";"USD";"2014-06-03T11:45:00";"GMT";"2.1%";"";"3.1%";"Low"
"Redbook (MoM)";"United States";"USD";"2014-06-03T12:55:00";"GMT";"0.7%";"";"0.7%";"Low"
"Redbook (YoY)";"United States";"USD";"2014-06-03T12:55:00";"GMT";"3.2%";"";"3.5%";"Low"
"ISM-New York Index";"United States";"USD";"2014-06-03T13:45:00";"GMT";"627.4";"";"630.1";"Low"
"Factory Orders (MoM)";"United States";"USD";"2014-06-03T14:00:00";"GMT";"1.5%";"0.5%";"0.7%";"Moderate"
"Factory orders ex transportation (MoM)";"United States";"USD";"2014-06-03T14:00:00";"GMT";"0.8%";"";"0.5%";"Low"
"IBD/TIPP Economic Optimism";"United States";"USD";"2014-06-03T14:00:00";"GMT";"45.8";"46.5";"47.7";"Low"
"4-Week Bill Auction";"United States";"USD";"2014-06-03T15:30:00";"GMT";"0.040%";"";"0.035%";"Low"
"All Car Sales";"United States";"USD";"2014-06-03T20:00:00";"GMT";"7.55M";"";"8.04M";"Low"
"Domestic Car Sales";"United States";"USD";"2014-06-03T20:00:00";"GMT";"5.33M";"5.30M";"5.67M";"Low"
"Total Vehicle Sales";"United States";"USD";"2014-06-03T20:00:00";"GMT";"16.04M";"16.10M";"16.77M";"Low"
"API Weekly Crude Oil Stock";"United States";"USD";"2014-06-03T20:30:00";"GMT";"3.490M";"-2.000M";"-1.400M";"Moderate"
"API Weekly Distillates Stocks";"United States";"USD";"2014-06-03T20:30:00";"GMT";"0.821M";"-1.000M";"-0.300M";"Low"
"API Weekly Gasoline Stock";"United States";"USD";"2014-06-03T20:30:00";"GMT";"-1.440M";"2.000M";"0.800M";"Low"
