{"events": {"event": [
    {
      "eventDateTime": "2016-04-07T00:30:00",
      "eventActual": "",
      "eventCountry": "Japan",
      "eventExpectedVolatility": "Moderate",
      "eventName": "BoJ Governor Kuroda Speaks",
      "eventTimeZone": "GMT",
      "eventPrevious": "",
      "eventCurrency": "JPY",
      "eventForecast": ""
    },
    {
      "eventDateTime": "2016-04-07T23:50:00",
      "eventActual": "1.73T",
      "eventCountry": "Japan",
      "eventExpectedVolatility": "Moderate",
      "eventName": "Adjusted Current Account",
      "eventTimeZone": "GMT",
      "eventPrevious": "1.49T",
      "eventCurrency": "JPY",
      "eventForecast": "1.57T"
    },
    {
      "eventDateTime": "2016-04-07T23:50:00",
      "eventActual": "2.435T",
      "eventCountry": "Japan",
      "eventExpectedVolatility": "Moderate",
      "eventName": "Current Account n.s.a. (Feb)",
      "eventTimeZone": "GMT",
      "eventPrevious": "0.521T",
      "eventCurrency": "JPY",
      "eventForecast": "2.006T"
    }
  ]}}
