{"events": {"event": [
    {
      "eventDateTime": "2016-04-29T10:30:00",
      "eventActual": "5,728.72B",
      "eventCountry": "India",
      "eventExpectedVolatility": "Low",
      "eventName": "Federal Fiscal Deficit (Mar)",
      "eventTimeZone": "GMT",
      "eventPrevious": "5,728.72B",
      "eventCurrency": "INR",
      "eventForecast": ""
    },
    {
      "eventDateTime": "2016-04-29T11:30:00",
      "eventActual": "10.4%",
      "eventCountry": "India",
      "eventExpectedVolatility": "Low",
      "eventName": "Bank Loan Growth (2wk)",
      "eventTimeZone": "GMT",
      "eventPrevious": "10.7%",
      "eventCurrency": "INR",
      "eventForecast": ""
    },
    {
      "eventDateTime": "2016-04-29T11:30:00",
      "eventActual": "10.1%",
      "eventCountry": "India",
      "eventExpectedVolatility": "Low",
      "eventName": "Deposit Growth (2wk)",
      "eventTimeZone": "GMT",
      "eventPrevious": "9.7%",
      "eventCurrency": "INR",
      "eventForecast": ""
    },
    {
      "eventDateTime": "2016-04-29T11:30:00",
      "eventActual": "361.60B",
      "eventCountry": "India",
      "eventExpectedVolatility": "Low",
      "eventName": "FX Reserves, USD",
      "eventTimeZone": "GMT",
      "eventPrevious": "360.25B",
      "eventCurrency": "INR",
      "eventForecast": ""
    },
    {
      "eventDateTime": "2016-04-29T11:30:00",
      "eventActual": "",
      "eventCountry": "India",
      "eventExpectedVolatility": "Low",
      "eventName": "Infrastructure Output (YoY)",
      "eventTimeZone": "GMT",
      "eventPrevious": "5.7%",
      "eventCurrency": "INR",
      "eventForecast": ""
    }
  ]}}
