"Spanish Unemployment Change";"Spain";"EUR";"2019-08-02T07:00:00";"GMT";"-63.8K";"-21.4K";"-4.3K";"Moderate"
"Italian Industrial Production (MoM) (Jun)";"Italy";"EUR";"2019-08-02T08:00:00";"GMT";"1.0%";"-0.3%";"-0.2%";"Low"
"Italian Industrial Production (YoY) (Jun)";"Italy";"EUR";"2019-08-02T08:00:00";"GMT";"-0.6%";"-2.1%";"-1.2%";"Low"
"Italian Retail Sales (MoM) (Jun)";"Italy";"EUR";"2019-08-02T09:00:00";"GMT";"-0.6%";"0.4%";"1.9%";"Low"
"Italian Retail Sales (YoY) (Jun)";"Italy";"EUR";"2019-08-02T09:00:00";"GMT";"-1.8%";"0.2%";"1.3%";"Low"
"PPI (MoM) (Jun)";"Euro Zone";"EUR";"2019-08-02T09:00:00";"GMT";"-0.1%";"-0.3%";"-0.6%";"Low"
"PPI (YoY) (Jun)";"Euro Zone";"EUR";"2019-08-02T09:00:00";"GMT";"1.6%";"0.8%";"0.7%";"Low"
"Retail Sales (MoM) (Jun)";"Euro Zone";"EUR";"2019-08-02T09:00:00";"GMT";"-0.6%";"0.2%";"1.1%";"Moderate"
"Retail Sales (YoY) (Jun)";"Euro Zone";"EUR";"2019-08-02T09:00:00";"GMT";"1.0%";"1.3%";"2.6%";"Low"
"CFTC EUR speculative net positions";"Euro Zone";"EUR";"2019-08-02T19:30:00";"GMT";"-39.0K";"";"-54.0K";"Moderate"
