{"events": {"event": [
    {
      "eventDateTime": "2016-06-30T05:00:00",
      "eventActual": "34.5%",
      "eventCountry": "Japan",
      "eventExpectedVolatility": "Low",
      "eventName": "Construction Orders (YoY) (May)",
      "eventTimeZone": "GMT",
      "eventPrevious": "-16.9%",
      "eventCurrency": "JPY",
      "eventForecast": ""
    },
    {
      "eventDateTime": "2016-06-30T05:00:00",
      "eventActual": "9.8%",
      "eventCountry": "Japan",
      "eventExpectedVolatility": "Low",
      "eventName": "Housing Starts (YoY) (May)",
      "eventTimeZone": "GMT",
      "eventPrevious": "9.0%",
      "eventCurrency": "JPY",
      "eventForecast": "4.8%"
    },
    {
      "eventDateTime": "2016-06-30T23:30:00",
      "eventActual": "-1.5%",
      "eventCountry": "Japan",
      "eventExpectedVolatility": "Moderate",
      "eventName": "Household Spending (MoM) (May)",
      "eventTimeZone": "GMT",
      "eventPrevious": "0.2%",
      "eventCurrency": "JPY",
      "eventForecast": "-0.2%"
    },
    {
      "eventDateTime": "2016-06-30T23:30:00",
      "eventActual": "-1.1%",
      "eventCountry": "Japan",
      "eventExpectedVolatility": "Moderate",
      "eventName": "Household Spending (YoY) (May)",
      "eventTimeZone": "GMT",
      "eventPrevious": "-0.4%",
      "eventCurrency": "JPY",
      "eventForecast": "-1.4%"
    },
    {
      "eventDateTime": "2016-06-30T23:30:00",
      "eventActual": "1.36",
      "eventCountry": "Japan",
      "eventExpectedVolatility": "Moderate",
      "eventName": "Jobs/applications ratio (May)",
      "eventTimeZone": "GMT",
      "eventPrevious": "1.34",
      "eventCurrency": "JPY",
      "eventForecast": "1.35"
    },
    {
      "eventDateTime": "2016-06-30T23:30:00",
      "eventActual": "-0.4%",
      "eventCountry": "Japan",
      "eventExpectedVolatility": "Low",
      "eventName": "National CPI (YoY) (May)",
      "eventTimeZone": "GMT",
      "eventPrevious": "-0.3%",
      "eventCurrency": "JPY",
      "eventForecast": ""
    },
    {
      "eventDateTime": "2016-06-30T23:30:00",
      "eventActual": "-0.4%",
      "eventCountry": "Japan",
      "eventExpectedVolatility": "Moderate",
      "eventName": "National Core CPI (YoY) (May)",
      "eventTimeZone": "GMT",
      "eventPrevious": "-0.3%",
      "eventCurrency": "JPY",
      "eventForecast": "-0.4%"
    },
    {
      "eventDateTime": "2016-06-30T23:30:00",
      "eventActual": "-0.5%",
      "eventCountry": "Japan",
      "eventExpectedVolatility": "Low",
      "eventName": "Tokyo CPI (YoY) (Jun)",
      "eventTimeZone": "GMT",
      "eventPrevious": "-0.5%",
      "eventCurrency": "JPY",
      "eventForecast": ""
    },
    {
      "eventDateTime": "2016-06-30T23:30:00",
      "eventActual": "-0.5%",
      "eventCountry": "Japan",
      "eventExpectedVolatility": "Moderate",
      "eventName": "Tokyo Core CPI (YoY) (Jun)",
      "eventTimeZone": "GMT",
      "eventPrevious": "-0.5%",
      "eventCurrency": "JPY",
      "eventForecast": "-0.5%"
    },
    {
      "eventDateTime": "2016-06-30T23:30:00",
      "eventActual": "3.2%",
      "eventCountry": "Japan",
      "eventExpectedVolatility": "Low",
      "eventName": "Unemployment Rate (May)",
      "eventTimeZone": "GMT",
      "eventPrevious": "3.2%",
      "eventCurrency": "JPY",
      "eventForecast": "3.2%"
    },
    {
      "eventDateTime": "2016-06-30T23:50:00",
      "eventActual": "6.2%",
      "eventCountry": "Japan",
      "eventExpectedVolatility": "Moderate",
      "eventName": "Tankan All Big Industry CAPEX (Q2)",
      "eventTimeZone": "GMT",
      "eventPrevious": "-0.9%",
      "eventCurrency": "JPY",
      "eventForecast": "5.9%"
    },
    {
      "eventDateTime": "2016-06-30T23:50:00",
      "eventActual": "-14.9%",
      "eventCountry": "Japan",
      "eventExpectedVolatility": "Low",
      "eventName": "Tankan All Small Industry CAPEX (Q2)",
      "eventTimeZone": "GMT",
      "eventPrevious": "-19.3%",
      "eventCurrency": "JPY",
      "eventForecast": "-15.0%"
    },
    {
      "eventDateTime": "2016-06-30T23:50:00",
      "eventActual": "6",
      "eventCountry": "Japan",
      "eventExpectedVolatility": "Moderate",
      "eventName": "Tankan Big Manufacturing Outlook Index (Q2)",
      "eventTimeZone": "GMT",
      "eventPrevious": "3",
      "eventCurrency": "JPY",
      "eventForecast": "3"
    },
    {
      "eventDateTime": "2016-06-30T23:50:00",
      "eventActual": "6",
      "eventCountry": "Japan",
      "eventExpectedVolatility": "High",
      "eventName": "Tankan Large Manufacturers Index (Q2)",
      "eventTimeZone": "GMT",
      "eventPrevious": "6",
      "eventCurrency": "JPY",
      "eventForecast": "4"
    },
    {
      "eventDateTime": "2016-06-30T23:50:00",
      "eventActual": "17",
      "eventCountry": "Japan",
      "eventExpectedVolatility": "Low",
      "eventName": "Tankan Large Non-Manufacturers Diffusion Index (Q2)",
      "eventTimeZone": "GMT",
      "eventPrevious": "17",
      "eventCurrency": "JPY",
      "eventForecast": "17"
    },
    {
      "eventDateTime": "2016-06-30T23:50:00",
      "eventActual": "19",
      "eventCountry": "Japan",
      "eventExpectedVolatility": "High",
      "eventName": "Tankan Large Non-Manufacturers Index (Q2)",
      "eventTimeZone": "GMT",
      "eventPrevious": "22",
      "eventCurrency": "JPY",
      "eventForecast": "19"
    },
    {
      "eventDateTime": "2016-06-30T23:50:00",
      "eventActual": "-7",
      "eventCountry": "Japan",
      "eventExpectedVolatility": "Low",
      "eventName": "Tankan Small Manufacturers Diffusion Index (Q2)",
      "eventTimeZone": "GMT",
      "eventPrevious": "-6",
      "eventCurrency": "JPY",
      "eventForecast": "-7"
    },
    {
      "eventDateTime": "2016-06-30T23:50:00",
      "eventActual": "-5",
      "eventCountry": "Japan",
      "eventExpectedVolatility": "Low",
      "eventName": "Tankan Small Manufacturing Index (Q2)",
      "eventTimeZone": "GMT",
      "eventPrevious": "-4",
      "eventCurrency": "JPY",
      "eventForecast": "-6"
    },
    {
      "eventDateTime": "2016-06-30T23:50:00",
      "eventActual": "-4",
      "eventCountry": "Japan",
      "eventExpectedVolatility": "Low",
      "eventName": "Tankan Small Non-Manufacturers Diffusion Index (Q2)",
      "eventTimeZone": "GMT",
      "eventPrevious": "-3",
      "eventCurrency": "JPY",
      "eventForecast": "-2"
    },
    {
      "eventDateTime": "2016-06-30T23:50:00",
      "eventActual": "0",
      "eventCountry": "Japan",
      "eventExpectedVolatility": "Low",
      "eventName": "Tankan Small Non-Manufacturing Index (Q2)",
      "eventTimeZone": "GMT",
      "eventPrevious": "4",
      "eventCurrency": "JPY",
      "eventForecast": "1"
    }
  ]}}
