{"events": {"event": {
    "eventDateTime": "2016-07-22T00:30:00",
    "eventActual": "-0.40%",
    "eventCountry": "Singapore",
    "eventExpectedVolatility": "Low",
    "eventName": "URA Property Index (QoQ) (Q2)",
    "eventTimeZone": "GMT",
    "eventPrevious": "-0.40%",
    "eventCurrency": "SGD",
    "eventForecast": ""
  }}}
