{"events": {"event": {
    "eventDateTime": "2017-10-10T11:00:00",
    "eventActual": "0.3%",
    "eventCountry": "South Africa",
    "eventExpectedVolatility": "Low",
    "eventName": "Manufacturing Production (MoM) (Aug)",
    "eventTimeZone": "GMT",
    "eventPrevious": "1.5%",
    "eventCurrency": "ZAR",
    "eventForecast": "-0.3%"
  }}}
