{"events": {"event": [
    {
      "eventDateTime": "2015-08-11T10:00:00",
      "eventActual": "95.4",
      "eventCountry": "United States",
      "eventExpectedVolatility": "Low",
      "eventName": "NFIB Small Business Optimism (Jul)",
      "eventTimeZone": "GMT",
      "eventPrevious": "94.1",
      "eventCurrency": "USD",
      "eventForecast": "95.4"
    },
    {
      "eventDateTime": "2015-08-11T12:30:00",
      "eventActual": "1.3%",
      "eventCountry": "United States",
      "eventExpectedVolatility": "Moderate",
      "eventName": "Nonfarm Productivity (QoQ) (Q2)",
      "eventTimeZone": "GMT",
      "eventPrevious": "-1.1%",
      "eventCurrency": "USD",
      "eventForecast": "1.6%"
    },
    {
      "eventDateTime": "2015-08-11T12:30:00",
      "eventActual": "0.5%",
      "eventCountry": "United States",
      "eventExpectedVolatility": "Moderate",
      "eventName": "Unit Labor Costs (QoQ) (Q2)",
      "eventTimeZone": "GMT",
      "eventPrevious": "2.3%",
      "eventCurrency": "USD",
      "eventForecast": "0.1%"
    },
    {
      "eventDateTime": "2015-08-11T12:55:00",
      "eventActual": "0.5%",
      "eventCountry": "United States",
      "eventExpectedVolatility": "Low",
      "eventName": "Redbook (MoM)",
      "eventTimeZone": "GMT",
      "eventPrevious": "0.2%",
      "eventCurrency": "USD",
      "eventForecast": ""
    },
    {
      "eventDateTime": "2015-08-11T12:55:00",
      "eventActual": "1.9%",
      "eventCountry": "United States",
      "eventExpectedVolatility": "Low",
      "eventName": "Redbook (YoY)",
      "eventTimeZone": "GMT",
      "eventPrevious": "1.7%",
      "eventCurrency": "USD",
      "eventForecast": ""
    },
    {
      "eventDateTime": "2015-08-11T14:00:00",
      "eventActual": "0.9%",
      "eventCountry": "United States",
      "eventExpectedVolatility": "Low",
      "eventName": "Wholesale Inventories (MoM) (Jun)",
      "eventTimeZone": "GMT",
      "eventPrevious": "0.6%",
      "eventCurrency": "USD",
      "eventForecast": "0.4%"
    },
    {
      "eventDateTime": "2015-08-11T15:30:00",
      "eventActual": "0.050%",
      "eventCountry": "United States",
      "eventExpectedVolatility": "Low",
      "eventName": "4-Week Bill Auction",
      "eventTimeZone": "GMT",
      "eventPrevious": "0.050%",
      "eventCurrency": "USD",
      "eventForecast": ""
    },
    {
      "eventDateTime": "2015-08-11T17:00:00",
      "eventActual": "1.013%",
      "eventCountry": "United States",
      "eventExpectedVolatility": "Low",
      "eventName": "3-Year Note Auction",
      "eventTimeZone": "GMT",
      "eventPrevious": "0.932%",
      "eventCurrency": "USD",
      "eventForecast": ""
    },
    {
      "eventDateTime": "2015-08-11T20:30:00",
      "eventActual": "-0.847M",
      "eventCountry": "United States",
      "eventExpectedVolatility": "Moderate",
      "eventName": "API Weekly Crude Oil Stock",
      "eventTimeZone": "GMT",
      "eventPrevious": "-2.400M",
      "eventCurrency": "USD",
      "eventForecast": "-1.800M"
    }
  ]}}
