{"events": {"event": [
    {
      "eventDateTime": "2014-10-03T12:00:00",
      "eventActual": "0.7%",
      "eventCountry": "Russia",
      "eventExpectedVolatility": "Moderate",
      "eventName": "CPI (MoM)",
      "eventTimeZone": "GMT",
      "eventPrevious": "0.2%",
      "eventCurrency": "RUB",
      "eventForecast": "0.6%"
    },
    {
      "eventDateTime": "2014-10-03T12:00:00",
      "eventActual": "8.0%",
      "eventCountry": "Russia",
      "eventExpectedVolatility": "Moderate",
      "eventName": "CPI (YoY)",
      "eventTimeZone": "GMT",
      "eventPrevious": "7.6%",
      "eventCurrency": "RUB",
      "eventForecast": "8.0%"
    },
    {
      "eventDateTime": "2014-10-03T20:30:00",
      "eventActual": "-2.7K",
      "eventCountry": "Russia",
      "eventExpectedVolatility": "Moderate",
      "eventName": "CFTC RUB speculative positions",
      "eventTimeZone": "GMT",
      "eventPrevious": "-1.5K",
      "eventCurrency": "RUB",
      "eventForecast": ""
    }
  ]}}
