{"events": {"event": {
    "eventDateTime": "2018-02-26T21:00:00",
    "eventActual": "108",
    "eventCountry": "South Korea",
    "eventExpectedVolatility": "Low",
    "eventName": "Consumer Confidence (Feb)",
    "eventTimeZone": "GMT",
    "eventPrevious": "110",
    "eventCurrency": "KRW",
    "eventForecast": ""
  }}}
