"Nationwide Consumer Confidence";"United Kingdom";"GBP";"2008-11-05T00:01:00";"GMT";"50";"47";"55";"Moderate"
"Industrial Production (MoM)";"United Kingdom";"GBP";"2008-11-05T09:30:00";"GMT";"-0.6%";"-0.3%";"-0.2%";"Moderate"
"Manufacturing Production (MoM)";"United Kingdom";"GBP";"2008-11-05T09:30:00";"GMT";"-0.4%";"-0.4%";"-0.8%";"High"
"Services PMI";"United Kingdom";"GBP";"2008-11-05T09:30:00";"GMT";"46.0";"44.5";"42.4";"High"
"BRC Shop Price Index (YoY)";"United Kingdom";"GBP";"2008-11-05T10:30:00";"GMT";"3.6%";"";"3.0%";"Low"
