"German WPI (MoM) (Oct)";"Germany";"EUR";"2014-11-12T07:00:00";"GMT";"0.1%";"0.2%";"-0.6%";"Low"
"German WPI (YoY) (Oct)";"Germany";"EUR";"2014-11-12T07:00:00";"GMT";"-0.9%";"";"-0.7%";"Low"
"Industrial Production (MoM) (Sep)";"Euro Zone";"EUR";"2014-11-12T10:00:00";"GMT";"-1.4%";"1.0%";"0.6%";"Moderate"
"Industrial Production (YoY) (Sep)";"Euro Zone";"EUR";"2014-11-12T10:00:00";"GMT";"-0.5%";"-0.2%";"0.6%";"Low"
"Italian 12-Month BOT Auction";"Italy";"EUR";"2014-11-12T10:10:00";"GMT";"0.301%";"";"0.335%";"Low"
"German 2-Year Schatz Auction";"Germany";"EUR";"2014-11-12T10:35:00";"GMT";"-0.060%";"";"-0.050%";"Low"
"ECB President Draghi Speaks";"Euro Zone";"EUR";"2014-11-12T14:00:00";"GMT";" ";"";"";"High"
