"10-Year Note Auction (Oct)";"United States";"USD";"2001-11-01T09:00:00";"GMT";"5.00%";"";"5.00%";"Moderate"
"All Car Sales (Oct)";"United States";"USD";"2001-11-01T09:00:00";"GMT";"7.74M";"";"10.38M";"Low"
"All Truck Sales (Oct)";"United States";"USD";"2001-11-01T09:00:00";"GMT";"8.32M";"";"11.33M";"Low"
"Business Inventories (MoM) (Oct)";"United States";"USD";"2001-11-01T09:00:00";"GMT";"-0.60%";"";"-1.60%";"Moderate"
"CB Consumer Confidence (Oct)";"United States";"USD";"2001-11-01T09:00:00";"GMT";"97.00";"";"85.30";"High"
"CB Employment Trends Index (Oct)";"United States";"USD";"2001-11-01T09:00:00";"GMT";"113.60";"";"111.70";"Low"
"CPI (MoM) (Oct)";"United States";"USD";"2001-11-01T09:00:00";"GMT";"0.40%";"";"-0.30%";"Moderate"
"CPI (YoY) (Oct)";"United States";"USD";"2001-11-01T09:00:00";"GMT";"2.60%";"";"2.10%";"Low"
"CPI Index, n.s.a. (Oct)";"United States";"USD";"2001-11-01T09:00:00";"GMT";"178.30";"";"177.70";"Low"
"Capacity Utilization Rate (Oct)";"United States";"USD";"2001-11-01T09:00:00";"GMT";"74.70%";"";"74.20%";"Low"
"Chain Store Sales (MoM) (Oct)";"United States";"USD";"2001-11-01T09:00:00";"GMT";"0.90%";"";"2.30%";"Low"
"Chain Store Sales (WoW) (Oct)";"United States";"USD";"2001-11-01T09:00:00";"GMT";"-0.63%";"";"-0.30%";"Low"
"Chain Store Sales (YoY) (Oct)";"United States";"USD";"2001-11-01T09:00:00";"GMT";"2.63%";"";"1.40%";"Low"
"Challenger Job Cuts (Oct)";"United States";"USD";"2001-11-01T09:00:00";"GMT";"248.33K";"";"242.19K";"Low"
"Chicago Fed National Activity (Oct)";"United States";"USD";"2001-11-01T09:00:00";"GMT";"-1.48";"";"-1.10";"Low"
"Chicago PMI (Oct)";"United States";"USD";"2001-11-01T09:00:00";"GMT";"46.80";"";"45.20";"Moderate"
"Cleveland CPI (MoM) (Oct)";"United States";"USD";"2001-11-01T09:00:00";"GMT";"0.20%";"";"0.30%";"Low"
"Construction Spending (MoM) (Oct)";"United States";"USD";"2001-11-01T09:00:00";"GMT";"-1.20%";"";"1.00%";"Low"
"Consumer Credit (Oct)";"United States";"USD";"2001-11-01T09:00:00";"GMT";"7.89B";"";"15.59B";"Low"
"Continuing Jobless Claims (Oct)";"United States";"USD";"2001-11-01T09:00:00";"GMT";"3,274.50K";"";"3,539.04K";"Low"
"Core CPI (MoM) (Oct)";"United States";"USD";"2001-11-01T09:00:00";"GMT";"0.20%";"";"0.20%";"High"
"Core CPI (YoY) (Oct)";"United States";"USD";"2001-11-01T09:00:00";"GMT";"2.60%";"";"2.60%";"Moderate"
"Core CPI Index (Oct)";"United States";"USD";"2001-11-01T09:00:00";"GMT";"187.10";"";"187.40";"Low"
"Core PCE Price Index (MoM) (Oct)";"United States";"USD";"2001-11-01T09:00:00";"GMT";"-0.50%";"";"0.70%";"Moderate"
"Core PCE Price Index (YoY) (Oct)";"United States";"USD";"2001-11-01T09:00:00";"GMT";"1.20%";"";"1.80%";"Moderate"
"Core Retail Sales (MoM) (Oct)";"United States";"USD";"2001-11-01T09:00:00";"GMT";"-1.40%";"";"0.90%";"High"
"Crude Oil Inventories (Oct)";"United States";"USD";"2001-11-01T09:00:00";"GMT";"1.24M";"";"0.65M";"High"
"Dallas Fed PCE (Oct)";"United States";"USD";"2001-11-01T09:00:00";"GMT";"1.70%";"";"2.10%";"Low"
"Domestic Truck Sales (Oct)";"United States";"USD";"2001-11-01T09:00:00";"GMT";"7.37M";"";"10.11M";"Low"
"Durables Excluding Defense (MoM) (Oct)";"United States";"USD";"2001-11-01T09:00:00";"GMT";"-5.60%";"";"-1.80%";"Low"
"EIA Weekly Distillates Stocks (Oct)";"United States";"USD";"2001-11-01T09:00:00";"GMT";"0.57M";"";"1.18M";"Low"
"Existing Home Sales (MoM) (Oct)";"United States";"USD";"2001-11-01T09:00:00";"GMT";"-4.60%";"";"0.40%";"Moderate"
"Existing Home Sales (Oct)";"United States";"USD";"2001-11-01T09:00:00";"GMT";"5.23M";"";"5.25M";"High"
"Export Price Index (MoM) (Oct)";"United States";"USD";"2001-11-01T09:00:00";"GMT";"0.20%";"";"-0.70%";"Moderate"
"Factory Orders (MoM) (Oct)";"United States";"USD";"2001-11-01T09:00:00";"GMT";"-3.10%";"";"2.20%";"Moderate"
"Factory orders ex transportation (MoM) (Oct)";"United States";"USD";"2001-11-01T09:00:00";"GMT";"-2.70%";"";"-1.50%";"Low"
"Federal Budget Balance (Oct)";"United States";"USD";"2001-11-01T09:00:00";"GMT";"35.50B";"";"-7.70B";"Moderate"
"Gasoline Inventories (Oct)";"United States";"USD";"2001-11-01T09:00:00";"GMT";"2.31M";"";"0.78M";"Low"
"Government Payrolls (Oct)";"United States";"USD";"2001-11-01T09:00:00";"GMT";"24.00K";"";"33.00K";"Low"
"House Price Index (MoM) (Oct)";"United States";"USD";"2001-11-01T09:00:00";"GMT";"0.50%";"";"0.60%";"Low"
"House Price Index (Oct)";"United States";"USD";"2001-11-01T09:00:00";"GMT";"153.20";"";"154.10";"Low"
"House Price Index (YoY) (Oct)";"United States";"USD";"2001-11-01T09:00:00";"GMT";"6.90%";"";"7.00%";"Low"
"Housing Starts (MoM) (Oct)";"United States";"USD";"2001-11-01T09:00:00";"GMT";"-0.30%";"";"-1.40%";"Moderate"
"Housing Starts (Oct)";"United States";"USD";"2001-11-01T09:00:00";"GMT";"1.56M";"";"1.54M";"Moderate"
"ISM Manufacturing Employment (Oct)";"United States";"USD";"2001-11-01T09:00:00";"GMT";"41.50";"";"35.60";"Moderate"
"ISM Manufacturing New Orders Index (Oct)";"United States";"USD";"2001-11-01T09:00:00";"GMT";"51.30";"";"38.90";"Low"
"ISM Manufacturing PMI (Oct)";"United States";"USD";"2001-11-01T09:00:00";"GMT";"46.20";"";"40.80";"High"
"ISM Manufacturing Prices (Oct)";"United States";"USD";"2001-11-01T09:00:00";"GMT";"36.60";"";"33.30";"Low"
"ISM Non-Manufacturing Business Activity (Oct)";"United States";"USD";"2001-11-01T09:00:00";"GMT";"49.70";"";"40.50";"Low"
"ISM Non-Manufacturing Employment (Oct)";"United States";"USD";"2001-11-01T09:00:00";"GMT";"46.40";"";"43.90";"Moderate"
"ISM Non-Manufacturing New Orders (Oct)";"United States";"USD";"2001-11-01T09:00:00";"GMT";"50.80";"";"41.30";"Low"
"ISM Non-Manufacturing PMI (Oct)";"United States";"USD";"2001-11-01T09:00:00";"GMT";"49.50";"";"44.80";"High"
"ISM Non-Manufacturing Prices (Oct)";"United States";"USD";"2001-11-01T09:00:00";"GMT";"50.20";"";"43.40";"Low"
"ISM-New York Index (Oct)";"United States";"USD";"2001-11-01T09:00:00";"GMT";"268.00";"";"254.70";"Low"
"Import Price Index (MoM) (Oct)";"United States";"USD";"2001-11-01T09:00:00";"GMT";"-0.10%";"";"-2.30%";"Moderate"
"Industrial Production (MoM) (Oct)";"United States";"USD";"2001-11-01T09:00:00";"GMT";"-0.40%";"";"-0.50%";"Moderate"
"Initial Jobless Claims (Oct)";"United States";"USD";"2001-11-01T09:00:00";"GMT";"443.25K";"";"475.43K";"Moderate"
"JOLTs Job Openings (Oct)";"United States";"USD";"2001-11-01T09:00:00";"GMT";"3.97M";"";"3.59M";"High"
"Jobless Claims 4-Week Avg. (Oct)";"United States";"USD";"2001-11-01T09:00:00";"GMT";"414.88K";"";"477.24K";"Low"
"KC Fed Composite Index (Oct)";"United States";"USD";"2001-11-01T09:00:00";"GMT";"-10.00";"";"-9.00";"Low"
"KC Fed Manufacturing Index (Oct)";"United States";"USD";"2001-11-01T09:00:00";"GMT";"-2.00";"";"-1.00";"Low"
"MBA 30-Year Mortgage Rate (Oct)";"United States";"USD";"2001-11-01T09:00:00";"GMT";"6.63%";"";"6.52%";"Low"
"MBA Purchase Index (Oct)";"United States";"USD";"2001-11-01T09:00:00";"GMT";"296.30";"";"278.07";"Low"
"Manufacturing Payrolls (Oct)";"United States";"USD";"2001-11-01T09:00:00";"GMT";"-115.00K";"";"-145.00K";"Low"
"Manufacturing Production (MoM) (Oct)";"United States";"USD";"2001-11-01T09:00:00";"GMT";"-0.20%";"";"-0.60%";"Low"
"Michigan 5-Year Inflation Expectations (Oct)";"United States";"USD";"2001-11-01T09:00:00";"GMT";"2.90%";"";"2.70%";"Low"
"Michigan Consumer Expectations (Oct)";"United States";"USD";"2001-11-01T09:00:00";"GMT";"73.50";"";"77.90";"Moderate"
"Michigan Consumer Sentiment (Oct)";"United States";"USD";"2001-11-01T09:00:00";"GMT";"83.60";"";"82.70";"Moderate"
"Michigan Current Conditions (Oct)";"United States";"USD";"2001-11-01T09:00:00";"GMT";"93.50";"";"94.00";"Low"
"Michigan Inflation Expectations (Oct)";"United States";"USD";"2001-11-01T09:00:00";"GMT";"2.80%";"";"1.00%";"Low"
"Midwest Manufacturing (Oct)";"United States";"USD";"2001-11-01T09:00:00";"GMT";"101.40";"";"97.90";"Low"
"Mortgage Market Index (Oct)";"United States";"USD";"2001-11-01T09:00:00";"GMT";"636.55";"";"921.53";"Low"
"Mortgage Refinance Index (Oct)";"United States";"USD";"2001-11-01T09:00:00";"GMT";"2,615.63";"";"4,664.35";"Low"
"NAHB Housing Market Index (Oct)";"United States";"USD";"2001-11-01T09:00:00";"GMT";"55.00";"";"46.00";"Low"
"NFIB Small Business Optimism (Oct)";"United States";"USD";"2001-11-01T09:00:00";"GMT";"96.30";"";"96.30";"Low"
"NY Empire State Manufacturing Index (Oct)";"United States";"USD";"2001-11-01T09:00:00";"GMT";"-12.48";"";"-14.73";"Moderate"
"Natural Gas Storage (Oct)";"United States";"USD";"2001-11-01T09:00:00";"GMT";"87.25B";"";"47.61B";"Low"
"New Home Sales (MoM) (Oct)";"United States";"USD";"2001-11-01T09:00:00";"GMT";"-1.50%";"";"2.10%";"Moderate"
"New Home Sales (Oct)";"United States";"USD";"2001-11-01T09:00:00";"GMT";"853.00K";"";"871.00K";"High"
"Overall Net Capital Flow (Oct)";"United States";"USD";"2001-11-01T09:00:00";"GMT";"-3.10B";"";"95.80B";"Low"
"Pending Home Sales (MoM) (Oct)";"United States";"USD";"2001-11-01T09:00:00";"GMT";"-7.90%";"";"9.10%";"High"
"Pending Home Sales Index (Oct)";"United States";"USD";"2001-11-01T09:00:00";"GMT";"89.80";"";"98.00";"Low"
"Personal Income (MoM) (Oct)";"United States";"USD";"2001-11-01T09:00:00";"GMT";"-0.20%";"";"0.30%";"Low"
"Personal Spending (MoM) (Oct)";"United States";"USD";"2001-11-01T09:00:00";"GMT";"-1.30%";"";"2.80%";"Moderate"
"Philadelphia Fed Manufacturing Index (Oct)";"United States";"USD";"2001-11-01T09:00:00";"GMT";"-8.20";"";"-23.50";"High"
"Philly Fed Business Conditions (Oct)";"United States";"USD";"2001-11-01T09:00:00";"GMT";"43.50";"";"47.30";"Low"
"Philly Fed CAPEX Index (Oct)";"United States";"USD";"2001-11-01T09:00:00";"GMT";"8.10";"";"6.40";"Low"
"Philly Fed Employment (Oct)";"United States";"USD";"2001-11-01T09:00:00";"GMT";"-17.50";"";"-25.10";"Moderate"
"Philly Fed New Orders (Oct)";"United States";"USD";"2001-11-01T09:00:00";"GMT";"-0.40";"";"-10.80";"Low"
"Philly Fed Prices Paid (Oct)";"United States";"USD";"2001-11-01T09:00:00";"GMT";"-14.10";"";"-16.50";"Low"
"Private Nonfarm Payrolls (Oct)";"United States";"USD";"2001-11-01T09:00:00";"GMT";"-265.00K";"";"-358.00K";"Moderate"
"Real Personal Consumption (MoM) (Oct)";"United States";"USD";"2001-11-01T09:00:00";"GMT";"-1.00%";"";"2.40%";"Low"
"Retail Control (MoM) (Oct)";"United States";"USD";"2001-11-01T09:00:00";"GMT";"-1.70%";"";"1.80%";"Low"
"Retail Sales (MoM) (Oct)";"United States";"USD";"2001-11-01T09:00:00";"GMT";"-1.90%";"";"6.70%";"High"
"Retail Sales Ex Gas/Autos (MoM) (Oct)";"United States";"USD";"2001-11-01T09:00:00";"GMT";"-1.70%";"";"1.70%";"Low"
"Richmond Manufacturing Index (Oct)";"United States";"USD";"2001-11-01T09:00:00";"GMT";"-11.00";"";"-16.00";"Low"
"Richmond Manufacturing Shipments (Oct)";"United States";"USD";"2001-11-01T09:00:00";"GMT";"-4.00";"";"-12.00";"Low"
"Richmond Services Index (Oct)";"United States";"USD";"2001-11-01T09:00:00";"GMT";"-20.00";"";"0.00";"Low"
"Sandamp;P/CS HPI Composite - 20 n.s.a. (MoM) (Oct)";"United States";"USD";"2001-11-01T09:00:00";"GMT";"0.60%";"";"0.40%";"Low"
"Sandamp;P/CS HPI Composite - 20 n.s.a. (YoY) (Oct)";"United States";"USD";"2001-11-01T09:00:00";"GMT";"9.60%";"";"9.30%";"Moderate"
"Sandamp;P/CS HPI Composite - 20 s.a. (MoM) (Oct)";"United States";"USD";"2001-11-01T09:00:00";"GMT";"0.70%";"";"0.60%";"Low"
"TIC Net Long-Term Transactions (Oct)";"United States";"USD";"2001-11-01T09:00:00";"GMT";"18.00B";"";"60.00B";"Moderate"
"TIC Net Long-Term Transactions including Swaps (Oct)";"United States";"USD";"2001-11-01T09:00:00";"GMT";"17.20B";"";"59.50B";"Low"
"Trade Balance (Oct)";"United States";"USD";"2001-11-01T09:00:00";"GMT";"-31.10B";"";"-30.80B";"Moderate"
"US Foreign Buying, T-bonds (Oct)";"United States";"USD";"2001-11-01T09:00:00";"GMT";"-1.10B";"";"15.70B";"Low"
"Wholesale Inventories (MoM) (Oct)";"United States";"USD";"2001-11-01T09:00:00";"GMT";"-0.20%";"";"-0.60%";"Low"
"ADP Nonfarm Employment Change (Oct)";"United States";"USD";"2001-11-01T12:15:00";"GMT";"-261K";"";"-380K";"High"
"U6 Unemployment Rate (Oct)";"United States";"USD";"2001-11-01T12:30:00";"GMT";"8.70%";"";"9.30%";"Low"
"Unemployment Rate (Oct)";"United States";"USD";"2001-11-01T12:30:00";"GMT";"5%";"";"5.3%";"High"
