"Bank Lending (YoY) (May)";"Japan";"JPY";"2004-06-01T09:00:00";"GMT";"-4.10%";"";"-3.70%";"Low"
"Capacity Utilization (MoM) (May)";"Japan";"JPY";"2004-06-01T09:00:00";"GMT";"1.30%";"";"0.00%";"Low"
"Coincident Indicator (MoM) (May)";"Japan";"JPY";"2004-06-01T09:00:00";"GMT";"1.00%";"";"0.60%";"Low"
"Construction Orders (YoY) (May)";"Japan";"JPY";"2004-06-01T09:00:00";"GMT";"9.90%";"";"-4.00%";"Low"
"Core Machinery Orders (MoM) (May)";"Japan";"JPY";"2004-06-01T09:00:00";"GMT";"10.90%";"";"3.20%";"Low"
"Core Machinery Orders (YoY) (May)";"Japan";"JPY";"2004-06-01T09:00:00";"GMT";"21.60%";"";"11.30%";"Low"
"Current Account n.s.a. (May)";"Japan";"JPY";"2004-06-01T09:00:00";"GMT";"1.65T";"";"1.82T";"Moderate"
"Economy Watchers Current Index (May)";"Japan";"JPY";"2004-06-01T09:00:00";"GMT";"55.70";"";"52.80";"Low"
"Exports (YoY) (May)";"Japan";"JPY";"2004-06-01T09:00:00";"GMT";"10.80%";"";"10.00%";"Moderate"
"Foreign Reserves (USD) (May)";"Japan";"JPY";"2004-06-01T09:00:00";"GMT";"814.97B";"";"816.85B";"Low"
"Household Confidence (May)";"Japan";"JPY";"2004-06-01T09:00:00";"GMT";"45.10";"";"47.30";"Low"
"Household Spending (MoM) (May)";"Japan";"JPY";"2004-06-01T09:00:00";"GMT";"1.50%";"";"-0.50%";"Moderate"
"Household Spending (YoY) (May)";"Japan";"JPY";"2004-06-01T09:00:00";"GMT";"3.90%";"";"5.00%";"Moderate"
"Housing Starts (YoY) (May)";"Japan";"JPY";"2004-06-01T09:00:00";"GMT";"-4.10%";"";"0.90%";"Low"
"Imports (YoY) (May)";"Japan";"JPY";"2004-06-01T09:00:00";"GMT";"6.60%";"";"5.00%";"Low"
"Industrial Production (MoM) (May)";"Japan";"JPY";"2004-06-01T09:00:00";"GMT";"1.70%";"";"0.00%";"Moderate"
"Jobs/applications ratio (May)";"Japan";"JPY";"2004-06-01T09:00:00";"GMT";"0.78";"";"0.80";"Moderate"
"Leading Index (MoM) (May)";"Japan";"JPY";"2004-06-01T09:00:00";"GMT";"0.60%";"";"1.00%";"Low"
"National CPI (YoY) (May)";"Japan";"JPY";"2004-06-01T09:00:00";"GMT";"-0.40%";"";"-0.50%";"Low"
"National Core CPI (YoY) (May)";"Japan";"JPY";"2004-06-01T09:00:00";"GMT";"-0.20%";"";"-0.30%";"Moderate"
"Overtime Pay (YoY) (May)";"Japan";"JPY";"2004-06-01T09:00:00";"GMT";"2.20%";"";"2.80%";"Low"
"PPI (MoM) (May)";"Japan";"JPY";"2004-06-01T09:00:00";"GMT";"0.30%";"";"0.00%";"Low"
"PPI (YoY) (May)";"Japan";"JPY";"2004-06-01T09:00:00";"GMT";"0.70%";"";"1.10%";"Low"
"Retail Sales (YoY) (May)";"Japan";"JPY";"2004-06-01T09:00:00";"GMT";"1.10%";"";"-0.40%";"Moderate"
"Reuters Tankan Index (May)";"Japan";"JPY";"2004-06-01T09:00:00";"GMT";"23.00";"";"31.00";"Low"
"Tokyo CPI (YoY) (May)";"Japan";"JPY";"2004-06-01T09:00:00";"GMT";"-0.30%";"";"-0.30%";"Low"
"Tokyo Core CPI (YoY) (May)";"Japan";"JPY";"2004-06-01T09:00:00";"GMT";"-0.10%";"";"-0.10%";"Moderate"
"Trade Balance (May)";"Japan";"JPY";"2004-06-01T09:00:00";"GMT";"1,074.70B";"";"936.10B";"Moderate"
"Unemployment Rate (May)";"Japan";"JPY";"2004-06-01T09:00:00";"GMT";"4.80%";"";"4.70%";"Low"
