"Core PCE Price Index (MoM)";"United States";"USD";"2010-05-03T12:30:00";"GMT";"0.0%";"0.0%";"0.1%";"Moderate"
"Personal Income (MoM)";"United States";"USD";"2010-05-03T12:30:00";"GMT";"0.1%";"0.3%";"0.3%";"Low"
"Personal Spending (MoM)";"United States";"USD";"2010-05-03T12:30:00";"GMT";"0.5%";"0.7%";"0.6%";"Moderate"
"Construction Spending (MoM)";"United States";"USD";"2010-05-03T14:00:00";"GMT";"-2.1%";"-0.4%";"0.2%";"Low"
"ISM Manufacturing PMI";"United States";"USD";"2010-05-03T14:00:00";"GMT";"59.6";"60.0";"60.4";"High"
"ISM Manufacturing Prices";"United States";"USD";"2010-05-03T14:00:00";"GMT";"75.0";"72.9";"78.0";"Low"
"Total Vehicle Sales";"United States";"USD";"2010-05-03T21:00:00";"GMT";"11.80M";"11.50M";"11.20M";"Low"
