{"events": {"event": {
    "eventDateTime": "2010-03-02T06:45:00",
    "eventActual": "0.7%",
    "eventCountry": "Switzerland",
    "eventExpectedVolatility": "Moderate",
    "eventName": "GDP (QoQ)",
    "eventTimeZone": "GMT",
    "eventPrevious": "0.5%",
    "eventCurrency": "CHF",
    "eventForecast": "0.4%"
  }}}
