"Building Permits (Aug)";"United States";"USD";"2017-09-19T12:30:00";"GMT";"1.230M";"1.220M";"1.300M";"High"
"Building Permits (MoM) (Aug)";"United States";"USD";"2017-09-19T12:30:00";"GMT";"-4.1%";"-0.8%";"5.7%";"Moderate"
"Current Account (Q2)";"United States";"USD";"2017-09-19T12:30:00";"GMT";"-113.5B";"-115.1B";"-123.1B";"Moderate"
"Export Price Index (MoM) (Aug)";"United States";"USD";"2017-09-19T12:30:00";"GMT";"0.5%";"0.2%";"0.6%";"Moderate"
"Housing Starts (Aug)";"United States";"USD";"2017-09-19T12:30:00";"GMT";"1.190M";"1.175M";"1.180M";"Moderate"
"Housing Starts (MoM) (Aug)";"United States";"USD";"2017-09-19T12:30:00";"GMT";"-2.2%";"1.7%";"-0.8%";"Moderate"
"Import Price Index (MoM) (Aug)";"United States";"USD";"2017-09-19T12:30:00";"GMT";"-0.1%";"0.4%";"0.6%";"Moderate"
"Redbook (MoM)";"United States";"USD";"2017-09-19T12:55:00";"GMT";"0.3%";"";"0.1%";"Low"
"Redbook (YoY)";"United States";"USD";"2017-09-19T12:55:00";"GMT";"4.5%";"";"3.6%";"Low"
"U.S. President Trump Speaks";"United States";"USD";"2017-09-19T14:00:00";"GMT";" ";"";"";"High"
"4-Week Bill Auction";"United States";"USD";"2017-09-19T15:30:00";"GMT";"0.970%";"";"0.960%";"Low"
"API Weekly Crude Oil Stock";"United States";"USD";"2017-09-19T20:35:00";"GMT";"6.181M";"3.500M";"1.443M";"Moderate"
