"Core Retail Sales (MoM) (Apr)";"Canada";"CAD";"2019-06-21T12:30:00";"GMT";"1.8%";"0.6%";"0.1%";"High"
"Retail Sales (MoM) (Apr)";"Canada";"CAD";"2019-06-21T12:30:00";"GMT";"1.3%";"0.3%";"0.1%";"Moderate"
"CFTC CAD speculative net positions";"Canada";"CAD";"2019-06-21T19:30:00";"GMT";"-32.8K";"";"-38.1K";"Low"
