{"events": {"event": {
    "eventDateTime": "2015-07-15T09:00:00",
    "eventActual": "-5.4",
    "eventCountry": "Switzerland",
    "eventExpectedVolatility": "Low",
    "eventName": "ZEW Expectations (Jul)",
    "eventTimeZone": "GMT",
    "eventPrevious": "0.1",
    "eventCurrency": "CHF",
    "eventForecast": ""
  }}}
