{"events": {"event": {
    "eventDateTime": "2018-07-10T23:00:00",
    "eventActual": "3.7%",
    "eventCountry": "South Korea",
    "eventExpectedVolatility": "Low",
    "eventName": "Unemployment Rate (Jun)",
    "eventTimeZone": "GMT",
    "eventPrevious": "4.0%",
    "eventCurrency": "KRW",
    "eventForecast": ""
  }}}
