{"events": {"event": {
    "eventDateTime": "2013-04-12T19:30:00",
    "eventActual": "25.2K",
    "eventCountry": "New Zealand",
    "eventExpectedVolatility": "Low",
    "eventName": "CFTC NZD speculative net positions",
    "eventTimeZone": "GMT",
    "eventPrevious": "18.4K",
    "eventCurrency": "NZD",
    "eventForecast": ""
  }}}
