"Italian Trade Balance (Mar)";"Italy";"EUR";"2018-05-17T08:00:00";"GMT";"3.098B";"3.740B";"4.531B";"Low"
"Italian Trade Balance EU (Mar)";"Italy";"EUR";"2018-05-17T08:00:00";"GMT";"1.12B";"";"0.70B";"Low"
"Spanish 10-Year Obligacion Auction";"Spain";"EUR";"2018-05-17T08:40:00";"GMT";"1.288%";"";"1.370%";"Moderate"
"Spanish 5-Year Bonos Auction";"Spain";"EUR";"2018-05-17T08:40:00";"GMT";"0.194%";"";"0.443%";"Low"
"French 3-Year BTAN Auction";"France";"EUR";"2018-05-17T09:00:00";"GMT";"-0.32%";"";"-0.30%";"Low"
"French 5-Year BTAN Auction";"France";"EUR";"2018-05-17T09:00:00";"GMT";"0.06%";"";"0.10%";"Low"
"ECB's Constancio Speaks";"Euro Zone";"EUR";"2018-05-17T10:30:00";"GMT";" ";"";"";"Moderate"
"ECB's Constancio Speaks";"Euro Zone";"EUR";"2018-05-17T12:00:00";"GMT";" ";"";"";"Moderate"
