"CPI (MoM) (Sep)";"Switzerland";"CHF";"2000-10-01T09:00:00";"GMT";"-0.30%";"";"0.50%";"Moderate"
"CPI (YoY) (Sep)";"Switzerland";"CHF";"2000-10-01T09:00:00";"GMT";"1.10%";"";"1.40%";"Low"
"Consumption Indicator (Sep)";"Switzerland";"CHF";"2000-10-01T09:00:00";"GMT";"2.14";"";"2.41";"Low"
"KOF Leading Indicators (Sep)";"Switzerland";"CHF";"2000-10-01T09:00:00";"GMT";"103.20";"";"103.30";"Moderate"
"PPI (MoM) (Sep)";"Switzerland";"CHF";"2000-10-01T09:00:00";"GMT";"0.00%";"";"0.70%";"Moderate"
"PPI (YoY) (Sep)";"Switzerland";"CHF";"2000-10-01T09:00:00";"GMT";"2.40%";"";"2.80%";"Low"
"Trade Balance (Sep)";"Switzerland";"CHF";"2000-10-01T09:00:00";"GMT";"-0.76B";"";"0.74B";"Low"
"Unemployment Rate n.s.a. (Sep)";"Switzerland";"CHF";"2000-10-01T09:00:00";"GMT";"1.60%";"";"1.60%";"Moderate"
"Unemployment Rate s.a. (Sep)";"Switzerland";"CHF";"2000-10-01T09:00:00";"GMT";"1.70%";"";"1.70%";"Moderate"
"procure.ch PMI (Sep)";"Switzerland";"CHF";"2000-10-01T09:00:00";"GMT";"61.70";"";"61.90";"Moderate"
