"MBA Mortgage Applications (WoW)";"United States";"USD";"2011-10-05T11:00:00";"GMT";"9.3%";"";"-4.3%";"Low"
"Challenger Job Cuts (YoY)";"United States";"USD";"2011-10-05T11:30:00";"GMT";"47.0%";"";"211.5%";"Low"
"ADP Nonfarm Employment Change";"United States";"USD";"2011-10-05T12:15:00";"GMT";"89K";"70K";"91K";"High"
"ISM Non-Manufacturing PMI";"United States";"USD";"2011-10-05T14:00:00";"GMT";"53.3";"53.0";"53.0";"High"
"Crude Oil Inventories";"United States";"USD";"2011-10-05T14:30:00";"GMT";"1.900M";"1.500M";"-4.700M";"High"
"Gasoline Inventories";"United States";"USD";"2011-10-05T14:30:00";"GMT";"0.800M";"1.200M";"-1.100M";"Low"
