{"events": {"event": {
    "eventDateTime": "2014-10-19T23:01:00",
    "eventActual": "2.6%",
    "eventCountry": "United Kingdom",
    "eventExpectedVolatility": "Low",
    "eventName": "Rightmove House Price Index (MoM)",
    "eventTimeZone": "GMT",
    "eventPrevious": "0.9%",
    "eventCurrency": "GBP",
    "eventForecast": ""
  }}}
