{"events": {"event": {
    "eventDateTime": "2008-11-25T02:00:00",
    "eventActual": "2.7%",
    "eventCountry": "New Zealand",
    "eventExpectedVolatility": "Moderate",
    "eventName": "Inflation Expectations (QoQ)",
    "eventTimeZone": "GMT",
    "eventPrevious": "3.0%",
    "eventCurrency": "NZD",
    "eventForecast": ""
  }}}
