{"events": {"event": {
    "eventDateTime": "2020-01-03T08:30:00",
    "eventActual": "-23.6%",
    "eventCountry": "Hong Kong",
    "eventExpectedVolatility": "Low",
    "eventName": "Retail Sales (YoY) (Nov)",
    "eventTimeZone": "GMT",
    "eventPrevious": "-24.3%",
    "eventCurrency": "HKD",
    "eventForecast": ""
  }}}
