"Tankan All Big Industry CAPEX (Q3)";"Japan";"JPY";"2018-09-30T23:50:00";"GMT";"13.6%";"14.2%";"13.4%";"Moderate"
"Tankan All Small Industry CAPEX (Q3)";"Japan";"JPY";"2018-09-30T23:50:00";"GMT";"-11.8%";"-5.1%";"-8.4%";"Low"
"Tankan Big Manufacturing Outlook Index (Q3)";"Japan";"JPY";"2018-09-30T23:50:00";"GMT";"21";"19";"19";"Moderate"
"Tankan Large Manufacturers Index (Q3)";"Japan";"JPY";"2018-09-30T23:50:00";"GMT";"21";"22";"19";"High"
"Tankan Large Non-Manufacturers Diffusion Index (Q3)";"Japan";"JPY";"2018-09-30T23:50:00";"GMT";"21";"20";"22";"Low"
"Tankan Large Non-Manufacturers Index (Q3)";"Japan";"JPY";"2018-09-30T23:50:00";"GMT";"24";"22";"22";"High"
"Tankan Small Manufacturers Diffusion Index (Q3)";"Japan";"JPY";"2018-09-30T23:50:00";"GMT";"12";"12";"11";"Low"
"Tankan Small Manufacturing Index (Q3)";"Japan";"JPY";"2018-09-30T23:50:00";"GMT";"14";"13";"14";"Low"
"Tankan Small Non-Manufacturers Diffusion Index (Q3)";"Japan";"JPY";"2018-09-30T23:50:00";"GMT";"5";"4";"5";"Low"
"Tankan Small Non-Manufacturing Index (Q3)";"Japan";"JPY";"2018-09-30T23:50:00";"GMT";"8";"6";"10";"Low"
