{"events": {"event": {
    "eventDateTime": "2010-11-21T21:45:00",
    "eventActual": "-2.0%",
    "eventCountry": "New Zealand",
    "eventExpectedVolatility": "Low",
    "eventName": "Visitor Arrivals (MoM)",
    "eventTimeZone": "GMT",
    "eventPrevious": "0.6%",
    "eventCurrency": "NZD",
    "eventForecast": ""
  }}}
