{"events": {"event": {
    "eventDateTime": "2010-04-21T12:30:00",
    "eventActual": "-1.2%",
    "eventCountry": "Canada",
    "eventExpectedVolatility": "Moderate",
    "eventName": "Wholesale Sales (MoM)",
    "eventTimeZone": "GMT",
    "eventPrevious": "2.4%",
    "eventCurrency": "CAD",
    "eventForecast": "1.3%"
  }}}
