{"events": {"event": [
    {
      "eventDateTime": "2017-05-31T01:00:00",
      "eventActual": "14.9",
      "eventCountry": "New Zealand",
      "eventExpectedVolatility": "Moderate",
      "eventName": "ANZ Business Confidence (May)",
      "eventTimeZone": "GMT",
      "eventPrevious": "11.0",
      "eventCurrency": "NZD",
      "eventForecast": ""
    },
    {
      "eventDateTime": "2017-05-31T01:00:00",
      "eventActual": "38.3%",
      "eventCountry": "New Zealand",
      "eventExpectedVolatility": "Low",
      "eventName": "NBNZ Own Activity (May)",
      "eventTimeZone": "GMT",
      "eventPrevious": "37.7%",
      "eventCurrency": "NZD",
      "eventForecast": ""
    },
    {
      "eventDateTime": "2017-05-31T01:10:00",
      "eventActual": "",
      "eventCountry": "New Zealand",
      "eventExpectedVolatility": "High",
      "eventName": "RBNZ Gov Wheeler Speaks",
      "eventTimeZone": "GMT",
      "eventPrevious": "",
      "eventCurrency": "NZD",
      "eventForecast": ""
    },
    {
      "eventDateTime": "2017-05-31T22:45:00",
      "eventActual": "8.0%",
      "eventCountry": "New Zealand",
      "eventExpectedVolatility": "Low",
      "eventName": "Terms of Trade - Exports Prices (Q1)",
      "eventTimeZone": "GMT",
      "eventPrevious": "4.8%",
      "eventCurrency": "NZD",
      "eventForecast": "4.7%"
    },
    {
      "eventDateTime": "2017-05-31T22:45:00",
      "eventActual": "-4.2%",
      "eventCountry": "New Zealand",
      "eventExpectedVolatility": "Low",
      "eventName": "Terms of Trade - Exports Volume (QoQ) (Q1)",
      "eventTimeZone": "GMT",
      "eventPrevious": "-5.8%",
      "eventCurrency": "NZD",
      "eventForecast": ""
    },
    {
      "eventDateTime": "2017-05-31T22:45:00",
      "eventActual": "2.7%",
      "eventCountry": "New Zealand",
      "eventExpectedVolatility": "Low",
      "eventName": "Terms of Trade - Imports Prices (Q1)",
      "eventTimeZone": "GMT",
      "eventPrevious": "-0.8%",
      "eventCurrency": "NZD",
      "eventForecast": "1.4%"
    },
    {
      "eventDateTime": "2017-05-31T22:45:00",
      "eventActual": "5.1%",
      "eventCountry": "New Zealand",
      "eventExpectedVolatility": "Low",
      "eventName": "Terms of Trade Index (QoQ) (Q1)",
      "eventTimeZone": "GMT",
      "eventPrevious": "5.7%",
      "eventCurrency": "NZD",
      "eventForecast": "3.9%"
    }
  ]}}
