{"events": {"event": [
    {
      "eventDateTime": "2019-10-01T00:30:00",
      "eventActual": "48.9",
      "eventCountry": "Japan",
      "eventExpectedVolatility": "Low",
      "eventName": "Manufacturing PMI (Sep)",
      "eventTimeZone": "GMT",
      "eventPrevious": "48.9",
      "eventCurrency": "JPY",
      "eventForecast": "49.3"
    },
    {
      "eventDateTime": "2019-10-01T03:35:00",
      "eventActual": "-0.160%",
      "eventCountry": "Japan",
      "eventExpectedVolatility": "Moderate",
      "eventName": "10-Year JGB Auction",
      "eventTimeZone": "GMT",
      "eventPrevious": "-0.270%",
      "eventCurrency": "JPY",
      "eventForecast": ""
    },
    {
      "eventDateTime": "2019-10-01T23:50:00",
      "eventActual": "3.0%",
      "eventCountry": "Japan",
      "eventExpectedVolatility": "Low",
      "eventName": "Monetary Base (YoY)",
      "eventTimeZone": "GMT",
      "eventPrevious": "2.8%",
      "eventCurrency": "JPY",
      "eventForecast": "3.1%"
    }
  ]}}
