"Capacity Utilization (MoM) (Jun)";"Japan";"JPY";"2010-07-01T09:00:00";"GMT";"0.40%";"";"-0.90%";"Low"
"Coincident Indicator (MoM) (Jun)";"Japan";"JPY";"2010-07-01T09:00:00";"GMT";"-0.60%";"";"0.80%";"Low"
"Construction Orders (YoY) (Jun)";"Japan";"JPY";"2010-07-01T09:00:00";"GMT";"9.20%";"";"-10.20%";"Low"
"Core Machinery Orders (YoY) (Jun)";"Japan";"JPY";"2010-07-01T09:00:00";"GMT";"8.30%";"";"3.90%";"Low"
"Current Account n.s.a. (Jun)";"Japan";"JPY";"2010-07-01T09:00:00";"GMT";"1.49T";"";"1.30T";"Moderate"
"Exports (YoY) (Jun)";"Japan";"JPY";"2010-07-01T09:00:00";"GMT";"32.10%";"";"27.70%";"Moderate"
"Foreign Bonds Buying (Jun)";"Japan";"JPY";"2010-07-01T09:00:00";"GMT";"7,541.40B";"";"17,494.70B";"Low"
"Foreign Investments in Japanese Stocks (Jun)";"Japan";"JPY";"2010-07-01T09:00:00";"GMT";"-4,708.20B";"";"-6,069.60B";"Low"
"Foreign Reserves (USD) (Jun)";"Japan";"JPY";"2010-07-01T09:00:00";"GMT";"1,041.32B";"";"1,050.24B";"Low"
"Household Spending (MoM) (Jun)";"Japan";"JPY";"2010-07-01T09:00:00";"GMT";"-0.20%";"";"3.00%";"Moderate"
"Imports (YoY) (Jun)";"Japan";"JPY";"2010-07-01T09:00:00";"GMT";"33.70%";"";"26.50%";"Low"
"Industrial Production forecast 1m ahead (MoM) (Jun)";"Japan";"JPY";"2010-07-01T09:00:00";"GMT";"1.50%";"";"-0.10%";"Low"
"Industrial Production forecast 2m ahead (MoM) (Jun)";"Japan";"JPY";"2010-07-01T09:00:00";"GMT";"-0.90%";"";"-2.80%";"Low"
"Jobs/applications ratio (Jun)";"Japan";"JPY";"2010-07-01T09:00:00";"GMT";"0.50";"";"0.51";"Moderate"
"Leading Index (MoM) (Jun)";"Japan";"JPY";"2010-07-01T09:00:00";"GMT";"-0.90%";"";"0.40%";"Low"
"National CPI (YoY) (Jun)";"Japan";"JPY";"2010-07-01T09:00:00";"GMT";"-0.90%";"";"-0.70%";"Low"
"Overtime Pay (YoY) (Jun)";"Japan";"JPY";"2010-07-01T09:00:00";"GMT";"11.30%";"";"12.20%";"Low"
"PPI (MoM) (Jun)";"Japan";"JPY";"2010-07-01T09:00:00";"GMT";"0.00%";"";"-0.30%";"Low"
"Reuters Tankan Index (Jun)";"Japan";"JPY";"2010-07-01T09:00:00";"GMT";"4.00";"";"9.00";"Low"
"Tokyo CPI (YoY) (Jun)";"Japan";"JPY";"2010-07-01T09:00:00";"GMT";"-1.20%";"";"-1.10%";"Low"
"Trade Balance (Jun)";"Japan";"JPY";"2010-07-01T09:00:00";"GMT";"309.10B";"";"670.50B";"Moderate"
"Monetary Base (YoY)";"Japan";"JPY";"2010-07-01T23:50:00";"GMT";"3.7%";"3.8%";"3.6%";"Low"
