"Business Climate (Sep)";"Euro Zone";"EUR";"2006-10-01T09:00:00";"GMT";"1.09";"";"1.20";"Low"
"Business and Consumer Survey (Sep)";"Euro Zone";"EUR";"2006-10-01T09:00:00";"GMT";"109.00";"";"109.90";"Low"
"CPI (MoM) (Sep)";"Euro Zone";"EUR";"2006-10-01T09:00:00";"GMT";"0.10%";"";"0.00%";"Moderate"
"CPI (YoY) (Sep)";"Euro Zone";"EUR";"2006-10-01T09:00:00";"GMT";"2.30%";"";"1.80%";"High"
"CPI ex Tobacco (MoM) (Sep)";"Euro Zone";"EUR";"2006-10-01T09:00:00";"GMT";"0.10%";"";"0.00%";"Low"
"CPI ex Tobacco (YoY) (Sep)";"Euro Zone";"EUR";"2006-10-01T09:00:00";"GMT";"2.24%";"";"1.75%";"Low"
"Consumer Confidence (Sep)";"Euro Zone";"EUR";"2006-10-01T09:00:00";"GMT";"-8.70";"";"-8.00";"Low"
"Consumer Inflation Expectation (Sep)";"Euro Zone";"EUR";"2006-10-01T09:00:00";"GMT";"26.00";"";"23.50";"Low"
"Core CPI (MoM) (Sep)";"Euro Zone";"EUR";"2006-10-01T09:00:00";"GMT";"0.10%";"";"0.40%";"Low"
"Core CPI (YoY) (Sep)";"Euro Zone";"EUR";"2006-10-01T09:00:00";"GMT";"1.40%";"";"1.50%";"Moderate"
"Current Account n.s.a. (Sep)";"Euro Zone";"EUR";"2006-10-01T09:00:00";"GMT";"-5.20B";"";"1.10B";"Low"
"ECB Interest Rate Decision (Sep)";"Euro Zone";"EUR";"2006-10-01T09:00:00";"GMT";"3.00%";"";"3.00%";"High"
"French Business Survey (Sep)";"France";"EUR";"2006-10-01T09:00:00";"GMT";"109.00";"";"108.00";"Low"
"French CPI (MoM) (Sep)";"France";"EUR";"2006-10-01T09:00:00";"GMT";"0.30%";"";"-0.20%";"Moderate"
"French Consumer Confidence (Sep)";"France";"EUR";"2006-10-01T09:00:00";"GMT";"98.00";"";"99.00";"Low"
"French Consumer Spending (MoM) (Sep)";"France";"EUR";"2006-10-01T09:00:00";"GMT";"0.40%";"";"-0.80%";"Moderate"
"French Exports (Sep)";"France";"EUR";"2006-10-01T09:00:00";"GMT";"32.99B";"";"32.91B";"Low"
"French Government Budget Balance (Sep)";"France";"EUR";"2006-10-01T09:00:00";"GMT";"-58.46B";"";"-46.60B";"Low"
"French HICP (MoM) (Sep)";"France";"EUR";"2006-10-01T09:00:00";"GMT";"0.30%";"";"-0.20%";"Moderate"
"French HICP (YoY) (Sep)";"France";"EUR";"2006-10-01T09:00:00";"GMT";"2.11%";"";"1.48%";"Low"
"French Imports (Sep)";"France";"EUR";"2006-10-01T09:00:00";"GMT";"36.40B";"";"35.06B";"Low"
"French Industrial Production (MoM) (Sep)";"France";"EUR";"2006-10-01T09:00:00";"GMT";"0.40%";"";"0.80%";"Low"
"French PPI (MoM) (Sep)";"France";"EUR";"2006-10-01T09:00:00";"GMT";"0.30%";"";"-0.60%";"Low"
"French Trade Balance (Sep)";"France";"EUR";"2006-10-01T09:00:00";"GMT";"-3.40B";"";"-2.20B";"Low"
"German Business Expectations (Sep)";"Germany";"EUR";"2006-10-01T09:00:00";"GMT";"104.90";"";"103.00";"Moderate"
"German CPI (MoM) (Sep)";"Germany";"EUR";"2006-10-01T09:00:00";"GMT";"-0.20%";"";"-0.30%";"Moderate"
"German CPI (YoY) (Sep)";"Germany";"EUR";"2006-10-01T09:00:00";"GMT";"1.50%";"";"1.10%";"Low"
"German Current Assessment (Sep)";"Germany";"EUR";"2006-10-01T09:00:00";"GMT";"114.60";"";"116.60";"Moderate"
"German Exports (MoM) (Sep)";"Germany";"EUR";"2006-10-01T09:00:00";"GMT";"-0.61%";"";"7.46%";"Low"
"German Factory Orders (MoM) (Sep)";"Germany";"EUR";"2006-10-01T09:00:00";"GMT";"3.30%";"";"-1.70%";"Moderate"
"German HICP (MoM) (Sep)";"Germany";"EUR";"2006-10-01T09:00:00";"GMT";"-0.10%";"";"-0.50%";"Low"
"German HICP (YoY) (Sep)";"Germany";"EUR";"2006-10-01T09:00:00";"GMT";"1.80%";"";"1.00%";"Low"
"German Import Price Index (MoM) (Sep)";"Germany";"EUR";"2006-10-01T09:00:00";"GMT";"0.00%";"";"-0.90%";"Low"
"German Import Price Index (YoY) (Sep)";"Germany";"EUR";"2006-10-01T09:00:00";"GMT";"4.80%";"";"3.50%";"Low"
"German Imports (MoM) (Sep)";"Germany";"EUR";"2006-10-01T09:00:00";"GMT";"-1.30%";"";"5.10%";"Low"
"German Industrial Production (MoM) (Sep)";"Germany";"EUR";"2006-10-01T09:00:00";"GMT";"0.50%";"";"-0.30%";"Moderate"
"German PPI (MoM) (Sep)";"Germany";"EUR";"2006-10-01T09:00:00";"GMT";"0.30%";"";"-0.40%";"Moderate"
"German PPI (YoY) (Sep)";"Germany";"EUR";"2006-10-01T09:00:00";"GMT";"5.90%";"";"5.10%";"Low"
"German Retail Sales (MoM) (Sep)";"Germany";"EUR";"2006-10-01T09:00:00";"GMT";"1.00%";"";"-1.70%";"Moderate"
"German Retail Sales (YoY) (Sep)";"Germany";"EUR";"2006-10-01T09:00:00";"GMT";"0.90%";"";"-1.10%";"Low"
"German Trade Balance (Sep)";"Germany";"EUR";"2006-10-01T09:00:00";"GMT";"12.70B";"";"15.00B";"Moderate"
"German Unemployment (Sep)";"Germany";"EUR";"2006-10-01T09:00:00";"GMT";"4.40M";"";"4.38M";"Low"
"German Unemployment Change (Sep)";"Germany";"EUR";"2006-10-01T09:00:00";"GMT";"-21.00K";"";"-19.00K";"High"
"German Unemployment Rate (Sep)";"Germany";"EUR";"2006-10-01T09:00:00";"GMT";"10.50%";"";"10.50%";"Moderate"
"German Unemployment n.s.a. (Sep)";"Germany";"EUR";"2006-10-01T09:00:00";"GMT";"4.40M";"";"4.20M";"Low"
"German WPI (MoM) (Sep)";"Germany";"EUR";"2006-10-01T09:00:00";"GMT";"0.70%";"";"-0.50%";"Low"
"German WPI (YoY) (Sep)";"Germany";"EUR";"2006-10-01T09:00:00";"GMT";"4.60%";"";"2.40%";"Low"
"German ZEW Current Conditions (Sep)";"Germany";"EUR";"2006-10-01T09:00:00";"GMT";"33.60";"";"38.90";"Moderate"
"German ZEW Economic Sentiment (Sep)";"Germany";"EUR";"2006-10-01T09:00:00";"GMT";"-5.60";"";"-22.20";"High"
"GfK German Consumer Climate (Sep)";"Germany";"EUR";"2006-10-01T09:00:00";"GMT";"8.50";"";"8.70";"Moderate"
"Industrial Production (MoM) (Sep)";"Euro Zone";"EUR";"2006-10-01T09:00:00";"GMT";"0.40%";"";"0.00%";"Moderate"
"Industrial Production (YoY) (Sep)";"Euro Zone";"EUR";"2006-10-01T09:00:00";"GMT";"6.40%";"";"4.30%";"Low"
"Industrial Sentiment (Sep)";"Euro Zone";"EUR";"2006-10-01T09:00:00";"GMT";"3.90";"";"5.50";"Low"
"Italian Business Confidence (Sep)";"Italy";"EUR";"2006-10-01T09:00:00";"GMT";"111.60";"";"111.50";"Low"
"Italian CPI (MoM) (Sep)";"Italy";"EUR";"2006-10-01T09:00:00";"GMT";"0.10%";"";"0.00%";"Moderate"
"Italian CPI (YoY) (Sep)";"Italy";"EUR";"2006-10-01T09:00:00";"GMT";"2.20%";"";"2.20%";"Low"
"Italian Consumer Confidence (Sep)";"Italy";"EUR";"2006-10-01T09:00:00";"GMT";"101.20";"";"102.40";"Low"
"Italian HICP (MoM) (Sep)";"Italy";"EUR";"2006-10-01T09:00:00";"GMT";"-0.20%";"";"0.70%";"Low"
"Italian HICP (YoY) (Sep)";"Italy";"EUR";"2006-10-01T09:00:00";"GMT";"2.30%";"";"2.40%";"Low"
"Italian Industrial New Orders (MoM) (Sep)";"Italy";"EUR";"2006-10-01T09:00:00";"GMT";"9.68%";"";"-6.08%";"Low"
"Italian Industrial New Orders (YoY) (Sep)";"Italy";"EUR";"2006-10-01T09:00:00";"GMT";"22.46%";"";"9.10%";"Low"
"Italian Industrial Production (MoM) (Sep)";"Italy";"EUR";"2006-10-01T09:00:00";"GMT";"0.60%";"";"0.20%";"Low"
"Italian Industrial Production (YoY) (Sep)";"Italy";"EUR";"2006-10-01T09:00:00";"GMT";"5.90%";"";"4.30%";"Low"
"Italian Industrial Sales (MoM) (Sep)";"Italy";"EUR";"2006-10-01T09:00:00";"GMT";"4.66%";"";"-2.32%";"Low"
"Italian Industrial Sales (YoY) (Sep)";"Italy";"EUR";"2006-10-01T09:00:00";"GMT";"11.13%";"";"4.62%";"Low"
"Italian Monthly Unemployment Rate (Sep)";"Italy";"EUR";"2006-10-01T09:00:00";"GMT";"6.60%";"";"6.60%";"Low"
"Italian PPI (MoM) (Sep)";"Italy";"EUR";"2006-10-01T09:00:00";"GMT";"0.00%";"";"-0.80%";"Low"
"Italian PPI (YoY) (Sep)";"Italy";"EUR";"2006-10-01T09:00:00";"GMT";"5.30%";"";"4.10%";"Low"
"Italian Retail Sales (MoM) (Sep)";"Italy";"EUR";"2006-10-01T09:00:00";"GMT";"-0.10%";"";"0.00%";"Low"
"Italian Retail Sales (YoY) (Sep)";"Italy";"EUR";"2006-10-01T09:00:00";"GMT";"2.43%";"";"1.73%";"Low"
"Italian Trade Balance (Sep)";"Italy";"EUR";"2006-10-01T09:00:00";"GMT";"-1.59B";"";"-2.75B";"Low"
"Italian Trade Balance EU (Sep)";"Italy";"EUR";"2006-10-01T09:00:00";"GMT";"0.57B";"";"0.17B";"Low"
"Italian Trade Balance Non-EU (Sep)";"Italy";"EUR";"2006-10-01T09:00:00";"GMT";"-2.15B";"";"-2.93B";"Low"
"Italian Wage Inflation (MoM) (Sep)";"Italy";"EUR";"2006-10-01T09:00:00";"GMT";"0.00%";"";"0.45%";"Low"
"Italian Wage Inflation (YoY) (Sep)";"Italy";"EUR";"2006-10-01T09:00:00";"GMT";"3.00%";"";"3.20%";"Low"
"M3 Money Supply (YoY) (Sep)";"Euro Zone";"EUR";"2006-10-01T09:00:00";"GMT";"8.10%";"";"8.40%";"Low"
"Money-M3 3-Month-Moving Average (Sep)";"Euro Zone";"EUR";"2006-10-01T09:00:00";"GMT";"8.10%";"";"8.30%";"Low"
"PPI (MoM) (Sep)";"Euro Zone";"EUR";"2006-10-01T09:00:00";"GMT";"0.10%";"";"-0.60%";"Low"
"PPI (YoY) (Sep)";"Euro Zone";"EUR";"2006-10-01T09:00:00";"GMT";"5.60%";"";"4.50%";"Low"
"Private Sector Loans (YoY) (Sep)";"Euro Zone";"EUR";"2006-10-01T09:00:00";"GMT";"11.20%";"";"11.40%";"Low"
"Retail Sales (MoM) (Sep)";"Euro Zone";"EUR";"2006-10-01T09:00:00";"GMT";"0.40%";"";"-0.30%";"Moderate"
"Retail Sales (YoY) (Sep)";"Euro Zone";"EUR";"2006-10-01T09:00:00";"GMT";"2.40%";"";"1.70%";"Low"
"Selling Price Expectations (Sep)";"Euro Zone";"EUR";"2006-10-01T09:00:00";"GMT";"12.30";"";"12.70";"Low"
"Sentix Investor Confidence (Sep)";"Euro Zone";"EUR";"2006-10-01T09:00:00";"GMT";"18.30";"";"20.10";"Low"
"Services Sentiment (Sep)";"Euro Zone";"EUR";"2006-10-01T09:00:00";"GMT";"16.70";"";"14.90";"Low"
"Spanish CPI (MoM) (Sep)";"Spain";"EUR";"2006-10-01T09:00:00";"GMT";"0.20%";"";"-0.20%";"Low"
"Spanish CPI (YoY) (Sep)";"Spain";"EUR";"2006-10-01T09:00:00";"GMT";"3.70%";"";"2.90%";"Moderate"
"Spanish Current account (Sep)";"Spain";"EUR";"2006-10-01T09:00:00";"GMT";"-6.61B";"";"-7.39B";"Low"
"Spanish HICP (MoM) (Sep)";"Spain";"EUR";"2006-10-01T09:00:00";"GMT";"0.20%";"";"-0.20%";"Low"
"Spanish HICP (YoY) (Sep)";"Spain";"EUR";"2006-10-01T09:00:00";"GMT";"3.80%";"";"2.90%";"Moderate"
"Spanish Industrial Production (YoY) (Sep)";"Spain";"EUR";"2006-10-01T09:00:00";"GMT";"3.00%";"";"3.70%";"Low"
"Spanish Retail Sales (YoY) (Sep)";"Spain";"EUR";"2006-10-01T09:00:00";"GMT";"2.60%";"";"3.50%";"Low"
"Trade Balance (Sep)";"Euro Zone";"EUR";"2006-10-01T09:00:00";"GMT";"-7.00B";"";"0.00B";"Moderate"
"Unemployment Rate (Sep)";"Euro Zone";"EUR";"2006-10-01T09:00:00";"GMT";"8.30%";"";"8.20%";"Moderate"
