{"events": {"event": [
    {
      "eventDateTime": "2014-11-20T12:00:00",
      "eventActual": "420.6B",
      "eventCountry": "Russia",
      "eventExpectedVolatility": "Moderate",
      "eventName": "Central Bank reserves (USD)",
      "eventTimeZone": "GMT",
      "eventPrevious": "421.4B",
      "eventCurrency": "RUB",
      "eventForecast": ""
    },
    {
      "eventDateTime": "2014-11-20T16:09:00",
      "eventActual": "0.3%",
      "eventCountry": "Russia",
      "eventExpectedVolatility": "Low",
      "eventName": "PPI (MoM) (Oct)",
      "eventTimeZone": "GMT",
      "eventPrevious": "-0.8%",
      "eventCurrency": "RUB",
      "eventForecast": "-0.7%"
    },
    {
      "eventDateTime": "2014-11-20T16:09:00",
      "eventActual": "5.1%",
      "eventCountry": "Russia",
      "eventExpectedVolatility": "Low",
      "eventName": "PPI (YoY) (Oct)",
      "eventTimeZone": "GMT",
      "eventPrevious": "3.5%",
      "eventCurrency": "RUB",
      "eventForecast": "3.7%"
    }
  ]}}
