"German Factory Orders (MoM) (May)";"Germany";"EUR";"2016-07-06T06:00:00";"GMT";"-1.9%";"1.0%";"0.0%";"Moderate"
"ECB President Draghi Speaks";"Euro Zone";"EUR";"2016-07-06T07:00:00";"GMT";" ";"";"";"High"
"Spanish Industrial Production (YoY) (May)";"Spain";"EUR";"2016-07-06T07:00:00";"GMT";"2.7%";"1.8%";"1.0%";"Low"
"Retail PMI";"Euro Zone";"EUR";"2016-07-06T08:10:00";"GMT";"50.6";"";"48.5";"Low"
"German 2-Year Schatz Auction";"Germany";"EUR";"2016-07-06T09:35:00";"GMT";"-0.550%";"";"-0.690%";"Low"
