{"events": {"event": [
    {
      "eventDateTime": "2010-10-15T12:30:00",
      "eventActual": "2.00%",
      "eventCountry": "Canada",
      "eventExpectedVolatility": "Moderate",
      "eventName": "Manufacturing Sales (MoM)",
      "eventTimeZone": "GMT",
      "eventPrevious": "-1.10%",
      "eventCurrency": "CAD",
      "eventForecast": "0.50%"
    },
    {
      "eventDateTime": "2010-10-15T12:30:00",
      "eventActual": "-4.8%",
      "eventCountry": "Canada",
      "eventExpectedVolatility": "Low",
      "eventName": "New Motor Vehicle Sales (MoM)",
      "eventTimeZone": "GMT",
      "eventPrevious": "2.2%",
      "eventCurrency": "CAD",
      "eventForecast": "1.3%"
    },
    {
      "eventDateTime": "2010-10-15T19:30:00",
      "eventActual": "43.8K",
      "eventCountry": "Canada",
      "eventExpectedVolatility": "Low",
      "eventName": "CFTC CAD speculative net positions",
      "eventTimeZone": "GMT",
      "eventPrevious": "42.7K",
      "eventCurrency": "CAD",
      "eventForecast": ""
    }
  ]}}
