"BoJ Monthly Report";"Japan";"JPY";"2015-09-16T05:00:00";"GMT";" ";"";"";"Moderate"
"Adjusted Trade Balance";"Japan";"JPY";"2015-09-16T23:50:00";"GMT";"-0.38T";"-0.35T";"-0.36T";"Moderate"
"Exports (YoY) (Aug)";"Japan";"JPY";"2015-09-16T23:50:00";"GMT";"7.6%";"4.0%";"3.1%";"Moderate"
"Foreign Bonds Buying";"Japan";"JPY";"2015-09-16T23:50:00";"GMT";"1,120.4B";"";"514.0B";"Low"
"Foreign Investments in Japanese Stocks";"Japan";"JPY";"2015-09-16T23:50:00";"GMT";"-986.0B";"";"-1,420.1B";"Low"
"Imports (YoY) (Aug)";"Japan";"JPY";"2015-09-16T23:50:00";"GMT";"-3.2%";"-2.2%";"-3.1%";"Low"
"Trade Balance (Aug)";"Japan";"JPY";"2015-09-16T23:50:00";"GMT";"-268B";"-541B";"-570B";"Moderate"
