{"events": {"event": [
    {
      "eventDateTime": "2015-09-16T05:00:00",
      "eventActual": "",
      "eventCountry": "Japan",
      "eventExpectedVolatility": "Moderate",
      "eventName": "BoJ Monthly Report",
      "eventTimeZone": "GMT",
      "eventPrevious": "",
      "eventCurrency": "JPY",
      "eventForecast": ""
    },
    {
      "eventDateTime": "2015-09-16T23:50:00",
      "eventActual": "-0.36T",
      "eventCountry": "Japan",
      "eventExpectedVolatility": "Moderate",
      "eventName": "Adjusted Trade Balance",
      "eventTimeZone": "GMT",
      "eventPrevious": "-0.38T",
      "eventCurrency": "JPY",
      "eventForecast": "-0.35T"
    },
    {
      "eventDateTime": "2015-09-16T23:50:00",
      "eventActual": "3.1%",
      "eventCountry": "Japan",
      "eventExpectedVolatility": "Moderate",
      "eventName": "Exports (YoY) (Aug)",
      "eventTimeZone": "GMT",
      "eventPrevious": "7.6%",
      "eventCurrency": "JPY",
      "eventForecast": "4.0%"
    },
    {
      "eventDateTime": "2015-09-16T23:50:00",
      "eventActual": "514.0B",
      "eventCountry": "Japan",
      "eventExpectedVolatility": "Low",
      "eventName": "Foreign Bonds Buying",
      "eventTimeZone": "GMT",
      "eventPrevious": "1,120.4B",
      "eventCurrency": "JPY",
      "eventForecast": ""
    },
    {
      "eventDateTime": "2015-09-16T23:50:00",
      "eventActual": "-1,420.1B",
      "eventCountry": "Japan",
      "eventExpectedVolatility": "Low",
      "eventName": "Foreign Investments in Japanese Stocks",
      "eventTimeZone": "GMT",
      "eventPrevious": "-986.0B",
      "eventCurrency": "JPY",
      "eventForecast": ""
    },
    {
      "eventDateTime": "2015-09-16T23:50:00",
      "eventActual": "-3.1%",
      "eventCountry": "Japan",
      "eventExpectedVolatility": "Low",
      "eventName": "Imports (YoY) (Aug)",
      "eventTimeZone": "GMT",
      "eventPrevious": "-3.2%",
      "eventCurrency": "JPY",
      "eventForecast": "-2.2%"
    },
    {
      "eventDateTime": "2015-09-16T23:50:00",
      "eventActual": "-570B",
      "eventCountry": "Japan",
      "eventExpectedVolatility": "Moderate",
      "eventName": "Trade Balance (Aug)",
      "eventTimeZone": "GMT",
      "eventPrevious": "-268B",
      "eventCurrency": "JPY",
      "eventForecast": "-541B"
    }
  ]}}
