{"events": {"event": [
    {
      "eventDateTime": "2014-07-25T05:00:00",
      "eventActual": "-0.1%",
      "eventCountry": "Singapore",
      "eventExpectedVolatility": "Low",
      "eventName": "Industrial Production (MoM)",
      "eventTimeZone": "GMT",
      "eventPrevious": "-5.6%",
      "eventCurrency": "SGD",
      "eventForecast": "0.5%"
    },
    {
      "eventDateTime": "2014-07-25T05:00:00",
      "eventActual": "0.4%",
      "eventCountry": "Singapore",
      "eventExpectedVolatility": "Low",
      "eventName": "Industrial Production (YoY)",
      "eventTimeZone": "GMT",
      "eventPrevious": "-1.9%",
      "eventCurrency": "SGD",
      "eventForecast": "1.3%"
    }
  ]}}
