{"events": {"event": [
    {
      "eventDateTime": "2019-10-09T12:00:00",
      "eventActual": "-0.04%",
      "eventCountry": "Brazil",
      "eventExpectedVolatility": "Moderate",
      "eventName": "Brazilian IPCA Inflation Index SA (MoM) (Sep)",
      "eventTimeZone": "GMT",
      "eventPrevious": "0.11%",
      "eventCurrency": "BRL",
      "eventForecast": ""
    },
    {
      "eventDateTime": "2019-10-09T12:00:00",
      "eventActual": "-0.04%",
      "eventCountry": "Brazil",
      "eventExpectedVolatility": "Moderate",
      "eventName": "CPI (MoM) (Sep)",
      "eventTimeZone": "GMT",
      "eventPrevious": "0.11%",
      "eventCurrency": "BRL",
      "eventForecast": "0.03%"
    },
    {
      "eventDateTime": "2019-10-09T12:00:00",
      "eventActual": "2.89%",
      "eventCountry": "Brazil",
      "eventExpectedVolatility": "Moderate",
      "eventName": "CPI (YoY) (Sep)",
      "eventTimeZone": "GMT",
      "eventPrevious": "3.43%",
      "eventCurrency": "BRL",
      "eventForecast": "2.97%"
    },
    {
      "eventDateTime": "2019-10-09T17:30:00",
      "eventActual": "-3.673B",
      "eventCountry": "Brazil",
      "eventExpectedVolatility": "Low",
      "eventName": "Foreign Exchange Flows",
      "eventTimeZone": "GMT",
      "eventPrevious": "-6.035B",
      "eventCurrency": "BRL",
      "eventForecast": ""
    }
  ]}}
