{"events": {"event": {
    "eventDateTime": "2015-01-07T09:00:00",
    "eventActual": "256.9B",
    "eventCountry": "Singapore",
    "eventExpectedVolatility": "Low",
    "eventName": "Foreign Reserves USD (MoM) (Dec)",
    "eventTimeZone": "GMT",
    "eventPrevious": "260.6B",
    "eventCurrency": "SGD",
    "eventForecast": ""
  }}}
