{"events": {"event": [
    {
      "eventDateTime": "2017-11-30T00:01:00",
      "eventActual": "-12",
      "eventCountry": "United Kingdom",
      "eventExpectedVolatility": "Low",
      "eventName": "GfK Consumer Confidence (Nov)",
      "eventTimeZone": "GMT",
      "eventPrevious": "-10",
      "eventCurrency": "GBP",
      "eventForecast": "-11"
    },
    {
      "eventDateTime": "2017-11-30T07:00:00",
      "eventActual": "0.1%",
      "eventCountry": "United Kingdom",
      "eventExpectedVolatility": "Moderate",
      "eventName": "Nationwide HPI (MoM) (Nov)",
      "eventTimeZone": "GMT",
      "eventPrevious": "0.2%",
      "eventCurrency": "GBP",
      "eventForecast": "0.2%"
    },
    {
      "eventDateTime": "2017-11-30T07:00:00",
      "eventActual": "2.5%",
      "eventCountry": "United Kingdom",
      "eventExpectedVolatility": "Moderate",
      "eventName": "Nationwide HPI (YoY) (Nov)",
      "eventTimeZone": "GMT",
      "eventPrevious": "2.5%",
      "eventCurrency": "GBP",
      "eventForecast": "2.7%"
    }
  ]}}
