{"events": {"event": [
    {
      "eventDateTime": "2013-06-20T08:30:00",
      "eventActual": "2.1%",
      "eventCountry": "United Kingdom",
      "eventExpectedVolatility": "Moderate",
      "eventName": "Core Retail Sales (MoM)",
      "eventTimeZone": "GMT",
      "eventPrevious": "-1.2%",
      "eventCurrency": "GBP",
      "eventForecast": "0.9%"
    },
    {
      "eventDateTime": "2013-06-20T08:30:00",
      "eventActual": "2.1%",
      "eventCountry": "United Kingdom",
      "eventExpectedVolatility": "Moderate",
      "eventName": "Core Retail Sales (YoY)",
      "eventTimeZone": "GMT",
      "eventPrevious": "0.6%",
      "eventCurrency": "GBP",
      "eventForecast": "0.5%"
    },
    {
      "eventDateTime": "2013-06-20T08:30:00",
      "eventActual": "2.1%",
      "eventCountry": "United Kingdom",
      "eventExpectedVolatility": "High",
      "eventName": "Retail Sales (MoM)",
      "eventTimeZone": "GMT",
      "eventPrevious": "-1.1%",
      "eventCurrency": "GBP",
      "eventForecast": "0.8%"
    },
    {
      "eventDateTime": "2013-06-20T08:30:00",
      "eventActual": "1.9%",
      "eventCountry": "United Kingdom",
      "eventExpectedVolatility": "Moderate",
      "eventName": "Retail Sales (YoY)",
      "eventTimeZone": "GMT",
      "eventPrevious": "0.8%",
      "eventCurrency": "GBP",
      "eventForecast": "0.2%"
    },
    {
      "eventDateTime": "2013-06-20T09:35:00",
      "eventActual": "1.422%",
      "eventCountry": "United Kingdom",
      "eventExpectedVolatility": "Low",
      "eventName": "5-Year Treasury Gilt Auction",
      "eventTimeZone": "GMT",
      "eventPrevious": "0.967%",
      "eventCurrency": "GBP",
      "eventForecast": ""
    },
    {
      "eventDateTime": "2013-06-20T10:00:00",
      "eventActual": "-18",
      "eventCountry": "United Kingdom",
      "eventExpectedVolatility": "Moderate",
      "eventName": "CBI Industrial Trends Orders",
      "eventTimeZone": "GMT",
      "eventPrevious": "-20",
      "eventCurrency": "GBP",
      "eventForecast": "-15"
    }
  ]}}
