"Core Retail Sales (MoM)";"United Kingdom";"GBP";"2013-06-20T08:30:00";"GMT";"-1.2%";"0.9%";"2.1%";"Moderate"
"Core Retail Sales (YoY)";"United Kingdom";"GBP";"2013-06-20T08:30:00";"GMT";"0.6%";"0.5%";"2.1%";"Moderate"
"Retail Sales (MoM)";"United Kingdom";"GBP";"2013-06-20T08:30:00";"GMT";"-1.1%";"0.8%";"2.1%";"High"
"Retail Sales (YoY)";"United Kingdom";"GBP";"2013-06-20T08:30:00";"GMT";"0.8%";"0.2%";"1.9%";"Moderate"
"5-Year Treasury Gilt Auction";"United Kingdom";"GBP";"2013-06-20T09:35:00";"GMT";"0.967%";"";"1.422%";"Low"
"CBI Industrial Trends Orders";"United Kingdom";"GBP";"2013-06-20T10:00:00";"GMT";"-20";"-15";"-18";"Moderate"
