"Nonfarm Payrolls (Feb)";"United States";"USD";"2002-03-08T12:30:00";"GMT";"-139K";"";"-134K";"High"
"U.S. Baker Hughes Oil Rig Count";"United States";"USD";"2002-03-08T17:00:00";"GMT";"142";"";"144";"Moderate"
"CFTC Crude Oil speculative net positions";"United States";"USD";"2002-03-08T20:30:00";"GMT";"-2.3k";"";"17.3k";"Moderate"
