{"events": {"event": [
    {
      "eventDateTime": "2008-07-23T11:00:00",
      "eventActual": "0.7%",
      "eventCountry": "Canada",
      "eventExpectedVolatility": "Moderate",
      "eventName": "CPI (MoM)",
      "eventTimeZone": "GMT",
      "eventPrevious": "1.0%",
      "eventCurrency": "CAD",
      "eventForecast": "0.5%"
    },
    {
      "eventDateTime": "2008-07-23T11:00:00",
      "eventActual": "0.1%",
      "eventCountry": "Canada",
      "eventExpectedVolatility": "High",
      "eventName": "Core CPI (MoM)",
      "eventTimeZone": "GMT",
      "eventPrevious": "0.3%",
      "eventCurrency": "CAD",
      "eventForecast": "0.2%"
    }
  ]}}
