"10-Year TIPS Auction (Mar)";"United States";"USD";"2012-04-01T09:00:00";"GMT";"0.13%";"";"0.13%";"Low"
"All Car Sales (Mar)";"United States";"USD";"2012-04-01T09:00:00";"GMT";"7.52M";"";"7.29M";"Low"
"All Truck Sales (Mar)";"United States";"USD";"2012-04-01T09:00:00";"GMT";"6.93M";"";"6.89M";"Low"
"Building Permits (MoM) (Mar)";"United States";"USD";"2012-04-01T09:00:00";"GMT";"5.10%";"";"4.50%";"Moderate"
"CPI (YoY) (Mar)";"United States";"USD";"2012-04-01T09:00:00";"GMT";"2.90%";"";"2.70%";"Low"
"CPI Index, n.s.a. (Mar)";"United States";"USD";"2012-04-01T09:00:00";"GMT";"227.66";"";"229.39";"Low"
"Chain Store Sales (MoM) (Mar)";"United States";"USD";"2012-04-01T09:00:00";"GMT";"4.10%";"";"4.10%";"Low"
"Chain Store Sales (WoW) (Mar)";"United States";"USD";"2012-04-01T09:00:00";"GMT";"0.44%";"";"1.23%";"Low"
"Chain Store Sales (YoY) (Mar)";"United States";"USD";"2012-04-01T09:00:00";"GMT";"2.81%";"";"3.00%";"Low"
"Challenger Job Cuts (Mar)";"United States";"USD";"2012-04-01T09:00:00";"GMT";"51.73K";"";"37.88K";"Low"
"Cleveland CPI (MoM) (Mar)";"United States";"USD";"2012-04-01T09:00:00";"GMT";"0.10%";"";"0.20%";"Low"
"Core CPI (YoY) (Mar)";"United States";"USD";"2012-04-01T09:00:00";"GMT";"2.20%";"";"2.30%";"Moderate"
"Core CPI Index (Mar)";"United States";"USD";"2012-04-01T09:00:00";"GMT";"228.01";"";"228.48";"Low"
"Core PCE Price Index (YoY) (Mar)";"United States";"USD";"2012-04-01T09:00:00";"GMT";"2.00%";"";"2.10%";"Moderate"
"Core PPI (YoY) (Mar)";"United States";"USD";"2012-04-01T09:00:00";"GMT";"2.60%";"";"2.30%";"Low"
"Dallas Fed PCE (Mar)";"United States";"USD";"2012-04-01T09:00:00";"GMT";"1.40%";"";"2.10%";"Low"
"Dallas Fed Services Revenues (Mar)";"United States";"USD";"2012-04-01T09:00:00";"GMT";"23.30";"";"15.90";"Low"
"Domestic Truck Sales (Mar)";"United States";"USD";"2012-04-01T09:00:00";"GMT";"5.88M";"";"5.84M";"Low"
"Durables Excluding Defense (MoM) (Mar)";"United States";"USD";"2012-04-01T09:00:00";"GMT";"-0.60%";"";"-4.60%";"Low"
"EIA Weekly Distillates Stocks (Mar)";"United States";"USD";"2012-04-01T09:00:00";"GMT";"-1.33M";"";"-1.00M";"Low"
"Existing Home Sales (MoM) (Mar)";"United States";"USD";"2012-04-01T09:00:00";"GMT";"2.20%";"";"-1.30%";"Moderate"
"Export Price Index (MoM) (Mar)";"United States";"USD";"2012-04-01T09:00:00";"GMT";"0.50%";"";"0.80%";"Moderate"
"Factory orders ex transportation (MoM) (Mar)";"United States";"USD";"2012-04-01T09:00:00";"GMT";"1.10%";"";"1.00%";"Low"
"Goods Orders Non Defense Ex Air (MoM) (Mar)";"United States";"USD";"2012-04-01T09:00:00";"GMT";"1.20%";"";"-0.80%";"Low"
"Government Payrolls (Mar)";"United States";"USD";"2012-04-01T09:00:00";"GMT";"-2.00K";"";"-2.00K";"Low"
"House Price Index (Mar)";"United States";"USD";"2012-04-01T09:00:00";"GMT";"182.40";"";"184.20";"Low"
"House Price Index (YoY) (Mar)";"United States";"USD";"2012-04-01T09:00:00";"GMT";"0.30%";"";"2.30%";"Low"
"Housing Starts (MoM) (Mar)";"United States";"USD";"2012-04-01T09:00:00";"GMT";"-2.60%";"";"-1.30%";"Moderate"
"ISM Manufacturing Employment (Mar)";"United States";"USD";"2012-04-01T09:00:00";"GMT";"53.90";"";"55.10";"Moderate"
"ISM Manufacturing New Orders Index (Mar)";"United States";"USD";"2012-04-01T09:00:00";"GMT";"55.90";"";"55.90";"Low"
"ISM Non-Manufacturing Business Activity (Mar)";"United States";"USD";"2012-04-01T09:00:00";"GMT";"60.40";"";"59.10";"Low"
"ISM Non-Manufacturing Employment (Mar)";"United States";"USD";"2012-04-01T09:00:00";"GMT";"53.80";"";"55.30";"Moderate"
"ISM Non-Manufacturing New Orders (Mar)";"United States";"USD";"2012-04-01T09:00:00";"GMT";"58.20";"";"58.10";"Low"
"ISM Non-Manufacturing Prices (Mar)";"United States";"USD";"2012-04-01T09:00:00";"GMT";"66.80";"";"64.80";"Low"
"JOLTs Job Openings (Mar)";"United States";"USD";"2012-04-01T09:00:00";"GMT";"3.52M";"";"3.84M";"High"
"Jobless Claims 4-Week Avg. (Mar)";"United States";"USD";"2012-04-01T09:00:00";"GMT";"368.68K";"";"368.78K";"Low"
"KC Fed Manufacturing Index (Mar)";"United States";"USD";"2012-04-01T09:00:00";"GMT";"22.00";"";"10.00";"Low"
"MBA 30-Year Mortgage Rate (Mar)";"United States";"USD";"2012-04-01T09:00:00";"GMT";"4.07%";"";"4.15%";"Low"
"MBA Purchase Index (Mar)";"United States";"USD";"2012-04-01T09:00:00";"GMT";"171.40";"";"190.36";"Low"
"Manufacturing Payrolls (Mar)";"United States";"USD";"2012-04-01T09:00:00";"GMT";"23.00K";"";"42.00K";"Low"
"Manufacturing Production (MoM) (Mar)";"United States";"USD";"2012-04-01T09:00:00";"GMT";"0.60%";"";"-0.30%";"Low"
"Michigan 5-Year Inflation Expectations (Mar)";"United States";"USD";"2012-04-01T09:00:00";"GMT";"2.90%";"";"3.00%";"Low"
"Michigan Consumer Expectations (Mar)";"United States";"USD";"2012-04-01T09:00:00";"GMT";"70.30";"";"68.00";"Moderate"
"Michigan Current Conditions (Mar)";"United States";"USD";"2012-04-01T09:00:00";"GMT";"79.60";"";"86.00";"Low"
"Midwest Manufacturing (Mar)";"United States";"USD";"2012-04-01T09:00:00";"GMT";"91.00";"";"90.60";"Low"
"Mortgage Market Index (Mar)";"United States";"USD";"2012-04-01T09:00:00";"GMT";"778.60";"";"699.90";"Low"
"Mortgage Refinance Index (Mar)";"United States";"USD";"2012-04-01T09:00:00";"GMT";"4,350.20";"";"3,692.43";"Low"
"New Home Sales (MoM) (Mar)";"United States";"USD";"2012-04-01T09:00:00";"GMT";"9.30%";"";"-3.30%";"Moderate"
"PPI (YoY) (Mar)";"United States";"USD";"2012-04-01T09:00:00";"GMT";"2.80%";"";"2.30%";"Low"
"Pending Home Sales Index (Mar)";"United States";"USD";"2012-04-01T09:00:00";"GMT";"97.40";"";"98.60";"Low"
"Philly Fed Business Conditions (Mar)";"United States";"USD";"2012-04-01T09:00:00";"GMT";"28.80";"";"28.30";"Low"
"Philly Fed CAPEX Index (Mar)";"United States";"USD";"2012-04-01T09:00:00";"GMT";"14.80";"";"14.00";"Low"
"Philly Fed Employment (Mar)";"United States";"USD";"2012-04-01T09:00:00";"GMT";"-1.90";"";"4.30";"Moderate"
"Philly Fed New Orders (Mar)";"United States";"USD";"2012-04-01T09:00:00";"GMT";"10.60";"";"-0.60";"Low"
"Philly Fed Prices Paid (Mar)";"United States";"USD";"2012-04-01T09:00:00";"GMT";"32.70";"";"16.60";"Low"
"Real Earnings (MoM) (Mar)";"United States";"USD";"2012-04-01T09:00:00";"GMT";"-0.10%";"";"-0.20%";"Low"
"Real Personal Consumption (MoM) (Mar)";"United States";"USD";"2012-04-01T09:00:00";"GMT";"0.50%";"";"-0.10%";"Low"
"Redbook (YoY) (Mar)";"United States";"USD";"2012-04-01T09:00:00";"GMT";"2.93%";"";"3.75%";"Low"
"Retail Control (MoM) (Mar)";"United States";"USD";"2012-04-01T09:00:00";"GMT";"0.70%";"";"0.30%";"Low"
"Retail Sales Ex Gas/Autos (MoM) (Mar)";"United States";"USD";"2012-04-01T09:00:00";"GMT";"0.70%";"";"0.60%";"Low"
"Richmond Manufacturing Shipments (Mar)";"United States";"USD";"2012-04-01T09:00:00";"GMT";"8.00";"";"2.00";"Low"
"Richmond Services Index (Mar)";"United States";"USD";"2012-04-01T09:00:00";"GMT";"8.00";"";"21.00";"Low"
"Sandamp;P/CS HPI Composite - 20 n.s.a. (MoM) (Mar)";"United States";"USD";"2012-04-01T09:00:00";"GMT";"-0.80%";"";"0.00%";"Low"
"Sandamp;P/CS HPI Composite - 20 s.a. (MoM) (Mar)";"United States";"USD";"2012-04-01T09:00:00";"GMT";"0.00%";"";"0.30%";"Low"
"TIC Net Long-Term Transactions including Swaps (Mar)";"United States";"USD";"2012-04-01T09:00:00";"GMT";"-6.00B";"";"18.60B";"Low"
"Texas Services Sector Outlook (Mar)";"United States";"USD";"2012-04-01T09:00:00";"GMT";"24.80";"";"17.00";"Low"
