"Nonfarm Payrolls (Feb)";"United States";"USD";"2000-03-03T12:30:00";"GMT";"231K";"";"130K";"High"
"U.S. Baker Hughes Oil Rig Count";"United States";"USD";"2000-03-03T17:00:00";"GMT";"156";"";"181";"Moderate"
"CFTC Crude Oil speculative net positions";"United States";"USD";"2000-03-03T20:30:00";"GMT";"47.2k";"";"44.5k";"Moderate"
