{"events": {"event": [
    {
      "eventDateTime": "2003-05-16T17:00:00",
      "eventActual": "168",
      "eventCountry": "United States",
      "eventExpectedVolatility": "Moderate",
      "eventName": "U.S. Baker Hughes Oil Rig Count",
      "eventTimeZone": "GMT",
      "eventPrevious": "170",
      "eventCurrency": "USD",
      "eventForecast": ""
    },
    {
      "eventDateTime": "2003-05-16T20:30:00",
      "eventActual": "-25.4k",
      "eventCountry": "United States",
      "eventExpectedVolatility": "Moderate",
      "eventName": "CFTC Crude Oil speculative net positions",
      "eventTimeZone": "GMT",
      "eventPrevious": "-45.2k",
      "eventCurrency": "USD",
      "eventForecast": ""
    }
  ]}}
