"MBA 30-Year Mortgage Rate";"United States";"USD";"2017-11-29T12:00:00";"GMT";"4.20%";"";"4.20%";"Low"
"MBA Mortgage Applications (WoW)";"United States";"USD";"2017-11-29T12:00:00";"GMT";"0.1%";"";"-3.1%";"Low"
"MBA Purchase Index";"United States";"USD";"2017-11-29T12:00:00";"GMT";"240.4";"";"244.7";"Low"
"Mortgage Market Index";"United States";"USD";"2017-11-29T12:00:00";"GMT";"402.3";"";"390.0";"Low"
"Mortgage Refinance Index";"United States";"USD";"2017-11-29T12:00:00";"GMT";"1,306.1";"";"1,205.1";"Low"
"Core PCE Prices";"United States";"USD";"2017-11-29T13:30:00";"GMT";"1.30%";"1.30%";"1.40%";"Low"
"Corporate Profits (QoQ) (Q3)";"United States";"USD";"2017-11-29T13:30:00";"GMT";"0.1%";"";"5.8%";"Low"
"FOMC Member Dudley Speaks";"United States";"USD";"2017-11-29T13:30:00";"GMT";" ";"";"";"Moderate"
"GDP (QoQ) (Q3)";"United States";"USD";"2017-11-29T13:30:00";"GMT";"3.0%";"3.2%";"3.3%";"High"
"GDP Price Index (QoQ) (Q3)";"United States";"USD";"2017-11-29T13:30:00";"GMT";"2.2%";"2.2%";"2.1%";"Moderate"
"Real Consumer Spending (Q3)";"United States";"USD";"2017-11-29T13:30:00";"GMT";"2.4%";"2.6%";"2.3%";"Low"
"Fed Chair Yellen Testifies";"United States";"USD";"2017-11-29T15:00:00";"GMT";" ";"";"";"High"
"Pending Home Sales (MoM) (Oct)";"United States";"USD";"2017-11-29T15:00:00";"GMT";"-0.4%";"1.0%";"3.5%";"High"
"Pending Home Sales Index (Oct)";"United States";"USD";"2017-11-29T15:00:00";"GMT";"105.6";"";"109.3";"Low"
"Crude Oil Imports";"United States";"USD";"2017-11-29T15:30:00";"GMT";"-0.487M";"";"-0.365M";"Low"
"Crude Oil Inventories";"United States";"USD";"2017-11-29T15:30:00";"GMT";"-1.855M";"-2.301M";"-3.429M";"High"
"Cushing Crude Oil Inventories";"United States";"USD";"2017-11-29T15:30:00";"GMT";"-1.827M";"";"-2.914M";"Moderate"
"Distillate Fuel Production";"United States";"USD";"2017-11-29T15:30:00";"GMT";"0.104M";"";"-0.051M";"Low"
"EIA Weekly Distillates Stocks";"United States";"USD";"2017-11-29T15:30:00";"GMT";"0.269M";"0.230M";"2.747M";"Low"
"Gasoline Inventories";"United States";"USD";"2017-11-29T15:30:00";"GMT";"0.044M";"1.199M";"3.627M";"Low"
"Gasoline Production";"United States";"USD";"2017-11-29T15:30:00";"GMT";"0.580M";"";"-0.210M";"Low"
"Heating Oil Stockpiles";"United States";"USD";"2017-11-29T15:30:00";"GMT";"-0.060M";"";"0.588M";"Low"
"FOMC Member Williams Speaks";"United States";"USD";"2017-11-29T17:45:00";"GMT";" ";"";"";"Moderate"
"Beige Book";"United States";"USD";"2017-11-29T19:00:00";"GMT";" ";"";"";"Moderate"
