{"events": {"event": [
    {
      "eventDateTime": "2008-01-01T09:00:00",
      "eventActual": "111.80",
      "eventCountry": "South Africa",
      "eventExpectedVolatility": "Low",
      "eventName": "Business Confidence (Dec)",
      "eventTimeZone": "GMT",
      "eventPrevious": "113.00",
      "eventCurrency": "ZAR",
      "eventForecast": ""
    },
    {
      "eventDateTime": "2008-01-01T09:00:00",
      "eventActual": "0.82%",
      "eventCountry": "South Africa",
      "eventExpectedVolatility": "Moderate",
      "eventName": "CPI (MoM) (Dec)",
      "eventTimeZone": "GMT",
      "eventPrevious": "0.41%",
      "eventCurrency": "ZAR",
      "eventForecast": ""
    },
    {
      "eventDateTime": "2008-01-01T09:00:00",
      "eventActual": "8.82%",
      "eventCountry": "South Africa",
      "eventExpectedVolatility": "Low",
      "eventName": "CPI (YoY) (Dec)",
      "eventTimeZone": "GMT",
      "eventPrevious": "8.58%",
      "eventCurrency": "ZAR",
      "eventForecast": ""
    },
    {
      "eventDateTime": "2008-01-01T09:00:00",
      "eventActual": "32.98B",
      "eventCountry": "South Africa",
      "eventExpectedVolatility": "Low",
      "eventName": "Foreign Reserves (USD) (Dec)",
      "eventTimeZone": "GMT",
      "eventPrevious": "32.35B",
      "eventCurrency": "ZAR",
      "eventForecast": ""
    },
    {
      "eventDateTime": "2008-01-01T09:00:00",
      "eventActual": "-3.72%",
      "eventCountry": "South Africa",
      "eventExpectedVolatility": "Low",
      "eventName": "Gold Production (YoY) (Dec)",
      "eventTimeZone": "GMT",
      "eventPrevious": "-12.31%",
      "eventCurrency": "ZAR",
      "eventForecast": ""
    },
    {
      "eventDateTime": "2008-01-01T09:00:00",
      "eventActual": "11.00%",
      "eventCountry": "South Africa",
      "eventExpectedVolatility": "Moderate",
      "eventName": "Interest Rate Decision (Dec)",
      "eventTimeZone": "GMT",
      "eventPrevious": "10.50%",
      "eventCurrency": "ZAR",
      "eventForecast": ""
    },
    {
      "eventDateTime": "2008-01-01T09:00:00",
      "eventActual": "23.59%",
      "eventCountry": "South Africa",
      "eventExpectedVolatility": "Low",
      "eventName": "M3 Money Supply (YoY) (Dec)",
      "eventTimeZone": "GMT",
      "eventPrevious": "23.13%",
      "eventCurrency": "ZAR",
      "eventForecast": ""
    },
    {
      "eventDateTime": "2008-01-01T09:00:00",
      "eventActual": "-2.40%",
      "eventCountry": "South Africa",
      "eventExpectedVolatility": "Low",
      "eventName": "Mining Production (Dec)",
      "eventTimeZone": "GMT",
      "eventPrevious": "-5.98%",
      "eventCurrency": "ZAR",
      "eventForecast": ""
    },
    {
      "eventDateTime": "2008-01-01T09:00:00",
      "eventActual": "31.30B",
      "eventCountry": "South Africa",
      "eventExpectedVolatility": "Low",
      "eventName": "Net FX Reserves (USD) (Dec)",
      "eventTimeZone": "GMT",
      "eventPrevious": "30.67B",
      "eventCurrency": "ZAR",
      "eventForecast": ""
    },
    {
      "eventDateTime": "2008-01-01T09:00:00",
      "eventActual": "14.50%",
      "eventCountry": "South Africa",
      "eventExpectedVolatility": "Low",
      "eventName": "Prime Rate (Dec)",
      "eventTimeZone": "GMT",
      "eventPrevious": "14.00%",
      "eventCurrency": "ZAR",
      "eventForecast": ""
    },
    {
      "eventDateTime": "2008-01-01T09:00:00",
      "eventActual": "21.53%",
      "eventCountry": "South Africa",
      "eventExpectedVolatility": "Low",
      "eventName": "Private Sector Credit (Dec)",
      "eventTimeZone": "GMT",
      "eventPrevious": "22.70%",
      "eventCurrency": "ZAR",
      "eventForecast": ""
    },
    {
      "eventDateTime": "2008-01-01T09:00:00",
      "eventActual": "2.10%",
      "eventCountry": "South Africa",
      "eventExpectedVolatility": "Low",
      "eventName": "Retail Sales (YoY) (Dec)",
      "eventTimeZone": "GMT",
      "eventPrevious": "1.60%",
      "eventCurrency": "ZAR",
      "eventForecast": ""
    },
    {
      "eventDateTime": "2008-01-01T09:00:00",
      "eventActual": "45.11K",
      "eventCountry": "South Africa",
      "eventExpectedVolatility": "Low",
      "eventName": "Total Vehicle Sales (Dec)",
      "eventTimeZone": "GMT",
      "eventPrevious": "52.27K",
      "eventCurrency": "ZAR",
      "eventForecast": ""
    },
    {
      "eventDateTime": "2008-01-01T09:00:00",
      "eventActual": "-15.20%",
      "eventCountry": "South Africa",
      "eventExpectedVolatility": "Low",
      "eventName": "Total Vehicle Sales (YoY) (Dec)",
      "eventTimeZone": "GMT",
      "eventPrevious": "-15.90%",
      "eventCurrency": "ZAR",
      "eventForecast": ""
    }
  ]}}
