"Challenger Job Cuts (YoY)";"United States";"USD";"2012-01-05T12:30:00";"GMT";"-12.8%";"";"30.6%";"Low"
"ADP Nonfarm Employment Change";"United States";"USD";"2012-01-05T13:15:00";"GMT";"204K";"175K";"325K";"High"
"Continuing Jobless Claims";"United States";"USD";"2012-01-05T13:30:00";"GMT";"3,617K";"3,573K";"3,595K";"Low"
"Initial Jobless Claims";"United States";"USD";"2012-01-05T13:30:00";"GMT";"387K";"375K";"372K";"Moderate"
"Bloomberg Consumer Confidence";"United States";"USD";"2012-01-05T14:45:00";"GMT";"26.25";"";"27.6";"Low"
"ISM Non-Manufacturing PMI";"United States";"USD";"2012-01-05T15:00:00";"GMT";"52.0";"53.0";"52.6";"High"
"Natural Gas Storage";"United States";"USD";"2012-01-05T15:30:00";"GMT";"-81B";"-78B";"-76B";"Low"
"Crude Oil Inventories";"United States";"USD";"2012-01-05T16:00:00";"GMT";"3.900M";"-1.200M";"2.200M";"High"
"Gasoline Inventories";"United States";"USD";"2012-01-05T16:00:00";"GMT";"-0.700M";"1.000M";"2.500M";"Low"
