"Budget Balance % of GDP (Nov)";"Russia";"RUB";"2013-12-01T09:00:00";"GMT";"1.10%";"";"1.00%";"Low"
"CPI (YoY) (Nov)";"Russia";"RUB";"2013-12-01T09:00:00";"GMT";"6.30%";"";"6.50%";"Moderate"
"Markit Manufacturing PMI (Nov)";"Russia";"RUB";"2013-12-01T09:00:00";"GMT";"51.80";"";"49.40";"Moderate"
"Markit Services PMI (Nov)";"Russia";"RUB";"2013-12-01T09:00:00";"GMT";"52.50";"";"52.90";"Moderate"
