"CPI (MoM)";"China";"CNY";"2012-08-09T01:30:00";"GMT";"-0.6%";"-0.1%";"0.1%";"Moderate"
"CPI (YoY)";"China";"CNY";"2012-08-09T01:30:00";"GMT";"2.2%";"1.7%";"1.8%";"Moderate"
"PPI (YoY)";"China";"CNY";"2012-08-09T01:30:00";"GMT";"-2.1%";"-2.5%";"-2.9%";"Moderate"
"Fixed Asset Investment (YoY)";"China";"CNY";"2012-08-09T05:30:00";"GMT";"20.4%";"20.5%";"20.4%";"Moderate"
"Industrial Production (YoY)";"China";"CNY";"2012-08-09T05:30:00";"GMT";"9.5%";"9.8%";"9.2%";"High"
"Retail Sales (YoY)";"China";"CNY";"2012-08-09T05:30:00";"GMT";"13.7%";"13.7%";"13.1%";"Low"
