{"events": {"event": [
    {
      "eventDateTime": "2015-04-15T06:30:00",
      "eventActual": "6.31%",
      "eventCountry": "India",
      "eventExpectedVolatility": "Low",
      "eventName": "WPI Food (YoY) (Mar)",
      "eventTimeZone": "GMT",
      "eventPrevious": "7.70%",
      "eventCurrency": "INR",
      "eventForecast": ""
    },
    {
      "eventDateTime": "2015-04-15T06:30:00",
      "eventActual": "-12.56%",
      "eventCountry": "India",
      "eventExpectedVolatility": "Low",
      "eventName": "WPI Fuel (YoY) (Mar)",
      "eventTimeZone": "GMT",
      "eventPrevious": "-14.70%",
      "eventCurrency": "INR",
      "eventForecast": ""
    },
    {
      "eventDateTime": "2015-04-15T06:30:00",
      "eventActual": "-2.33%",
      "eventCountry": "India",
      "eventExpectedVolatility": "Moderate",
      "eventName": "WPI Inflation (YoY) (Mar)",
      "eventTimeZone": "GMT",
      "eventPrevious": "-2.06%",
      "eventCurrency": "INR",
      "eventForecast": "-1.95%"
    },
    {
      "eventDateTime": "2015-04-15T06:30:00",
      "eventActual": "-0.19%",
      "eventCountry": "India",
      "eventExpectedVolatility": "Low",
      "eventName": "WPI Manufacturing Inflation (YoY) (Mar)",
      "eventTimeZone": "GMT",
      "eventPrevious": "0.33%",
      "eventCurrency": "INR",
      "eventForecast": ""
    },
    {
      "eventDateTime": "2015-04-15T11:30:00",
      "eventActual": "12.0%",
      "eventCountry": "India",
      "eventExpectedVolatility": "Low",
      "eventName": "M3 Money Supply (2wk)",
      "eventTimeZone": "GMT",
      "eventPrevious": "11.1%",
      "eventCurrency": "INR",
      "eventForecast": ""
    }
  ]}}
