{"events": {"event": [
    {
      "eventDateTime": "2018-04-10T08:00:00",
      "eventActual": "",
      "eventCountry": "South Africa",
      "eventExpectedVolatility": "Moderate",
      "eventName": "SARB Monetary Policy Review",
      "eventTimeZone": "GMT",
      "eventPrevious": "",
      "eventCurrency": "ZAR",
      "eventForecast": ""
    },
    {
      "eventDateTime": "2018-04-10T11:00:00",
      "eventActual": "-2.4%",
      "eventCountry": "South Africa",
      "eventExpectedVolatility": "Low",
      "eventName": "Manufacturing Production (MoM) (Feb)",
      "eventTimeZone": "GMT",
      "eventPrevious": "-1.6%",
      "eventCurrency": "ZAR",
      "eventForecast": "0.5%"
    }
  ]}}
