"Core PCE Price Index (MoM)";"United States";"USD";"2014-05-30T12:30:00";"GMT";"0.2%";"0.2%";"0.2%";"Moderate"
"FOMC Member Pianalto Speaks";"United States";"USD";"2014-05-30T12:30:00";"GMT";" ";"";"";"Moderate"
"Personal Income (MoM)";"United States";"USD";"2014-05-30T12:30:00";"GMT";"0.5%";"0.3%";"0.3%";"Low"
"Personal Spending (MoM)";"United States";"USD";"2014-05-30T12:30:00";"GMT";"1.0%";"0.2%";"-0.1%";"Moderate"
"Real Personal Consumption (MoM)";"United States";"USD";"2014-05-30T12:30:00";"GMT";"0.8%";"";"-0.3%";"Low"
"Chicago PMI";"United States";"USD";"2014-05-30T13:45:00";"GMT";"63.0";"61.0";"65.5";"Moderate"
"Michigan Consumer Expectations";"United States";"USD";"2014-05-30T13:55:00";"GMT";"73.2";"74.0";"73.7";"Moderate"
"Michigan Consumer Sentiment";"United States";"USD";"2014-05-30T13:55:00";"GMT";"81.8";"82.5";"81.9";"Moderate"
"Michigan Current Conditions";"United States";"USD";"2014-05-30T13:55:00";"GMT";"95.1";"95.8";"94.5";"Low"
"Michigan Inflation Expectations";"United States";"USD";"2014-05-30T13:55:00";"GMT";"3.2%";"";"3.3%";"Low"
"U.S. Baker Hughes Oil Rig Count";"United States";"USD";"2014-05-30T17:00:00";"GMT";"1528";"";"1536";"Moderate"
"CFTC Gold speculative net positions";"United States";"USD";"2014-05-30T19:30:00";"GMT";"96.5K";"";"73.4K";"Moderate"
"CFTC Silver speculative net positions";"United States";"USD";"2014-05-30T19:30:00";"GMT";"8.1K";"";"5.1K";"Low"
"CFTC Crude Oil speculative net positions";"United States";"USD";"2014-05-30T20:30:00";"GMT";"410.2k";"";"423.1k";"Moderate"
"FOMC Member Plosser Speaks";"United States";"USD";"2014-05-30T21:00:00";"GMT";" ";"";"";"Moderate"
