{"events": {"event": {
    "eventDateTime": "2020-01-14T10:45:00",
    "eventActual": "0.536%",
    "eventCountry": "United Kingdom",
    "eventExpectedVolatility": "Low",
    "eventName": "5-Year Treasury Gilt Auction",
    "eventTimeZone": "GMT",
    "eventPrevious": "0.561%",
    "eventCurrency": "GBP",
    "eventForecast": ""
  }}}
