"Investing.com Gold Index";"United States";"USD";"2014-10-27T06:00:00";"GMT";"66.3%";"";"68.1%";"Moderate"
"Investing.com Sandamp;P 500 Index";"United States";"USD";"2014-10-27T06:00:00";"GMT";"48.5%";"";"28.0%";"Moderate"
"Services PMI (Oct)";"United States";"USD";"2014-10-27T13:45:00";"GMT";"58.9";"58.0";"57.3";"Moderate"
"Pending Home Sales (MoM) (Sep)";"United States";"USD";"2014-10-27T14:00:00";"GMT";"-1.0%";"0.5%";"0.3%";"High"
"Pending Home Sales Index (Sep)";"United States";"USD";"2014-10-27T14:00:00";"GMT";"104.7";"";"105.0";"Low"
"Dallas Fed Mfg Business Index (Oct)";"United States";"USD";"2014-10-27T14:30:00";"GMT";"10.8";"11.0";"10.5";"Low"
"3-Month Bill Auction";"United States";"USD";"2014-10-27T15:30:00";"GMT";"0.020%";"";"0.020%";"Low"
"6-Month Bill Auction";"United States";"USD";"2014-10-27T15:30:00";"GMT";"0.050%";"";"0.055%";"Low"
