{"events": {"event": [
    {
      "eventDateTime": "2015-08-03T00:30:00",
      "eventActual": "0.2%",
      "eventCountry": "Australia",
      "eventExpectedVolatility": "Low",
      "eventName": "MI Inflation Gauge (MoM) (Jul)",
      "eventTimeZone": "GMT",
      "eventPrevious": "0.1%",
      "eventCurrency": "AUD",
      "eventForecast": ""
    },
    {
      "eventDateTime": "2015-08-03T01:00:00",
      "eventActual": "0.5%",
      "eventCountry": "Australia",
      "eventExpectedVolatility": "Moderate",
      "eventName": "HIA New Home Sales (MoM) (Jun)",
      "eventTimeZone": "GMT",
      "eventPrevious": "-2.3%",
      "eventCurrency": "AUD",
      "eventForecast": ""
    },
    {
      "eventDateTime": "2015-08-03T01:30:00",
      "eventActual": "-0.5%",
      "eventCountry": "Australia",
      "eventExpectedVolatility": "Low",
      "eventName": "ANZ Internet Job Ads (MoM) (Jul)",
      "eventTimeZone": "GMT",
      "eventPrevious": "1.4%",
      "eventCurrency": "AUD",
      "eventForecast": ""
    },
    {
      "eventDateTime": "2015-08-03T01:30:00",
      "eventActual": "-0.4%",
      "eventCountry": "Australia",
      "eventExpectedVolatility": "Low",
      "eventName": "ANZ Job Advertisements (MoM)",
      "eventTimeZone": "GMT",
      "eventPrevious": "1.2%",
      "eventCurrency": "AUD",
      "eventForecast": ""
    },
    {
      "eventDateTime": "2015-08-03T01:30:00",
      "eventActual": "2.2%",
      "eventCountry": "Australia",
      "eventExpectedVolatility": "Low",
      "eventName": "ANZ Newspaper Job Ads (MoM) (Jul)",
      "eventTimeZone": "GMT",
      "eventPrevious": "-1.3%",
      "eventCurrency": "AUD",
      "eventForecast": ""
    },
    {
      "eventDateTime": "2015-08-03T05:30:00",
      "eventActual": "36.8%",
      "eventCountry": "Australia",
      "eventExpectedVolatility": "Moderate",
      "eventName": "Investing.com AUD/USD Index",
      "eventTimeZone": "GMT",
      "eventPrevious": "36.6%",
      "eventCurrency": "AUD",
      "eventForecast": ""
    }
  ]}}
