"Spanish GDP (QoQ) (Q3)";"Spain";"EUR";"2015-11-26T08:00:00";"GMT";"0.8%";"0.8%";"0.8%";"Moderate"
"Spanish GDP (YoY) (Q3)";"Spain";"EUR";"2015-11-26T08:00:00";"GMT";"3.4%";"3.4%";"3.4%";"Low"
"M3 Money Supply (YoY) (Oct)";"Euro Zone";"EUR";"2015-11-26T09:00:00";"GMT";"4.9%";"4.9%";"5.3%";"Low"
"Money-M3 3-Month-Moving Average (Oct)";"Euro Zone";"EUR";"2015-11-26T09:00:00";"GMT";"5.0%";"";"5.1%";"Low"
"Private Sector Loans (YoY) (Oct)";"Euro Zone";"EUR";"2015-11-26T09:00:00";"GMT";"1.1%";"1.2%";"1.2%";"Low"
"Italian 6-Month BOT Auction";"Italy";"EUR";"2015-11-26T10:10:00";"GMT";"-0.055%";"";"-0.112%";"Low"
"France Jobseekers Total (Oct)";"France";"EUR";"2015-11-26T17:00:00";"GMT";"3,547.8K";"";"3,589.8K";"Moderate"
