"Exports (Jul)";"Canada";"CAD";"2015-09-03T12:30:00";"GMT";"44.45B";"";"45.46B";"Low"
"Imports (Jul)";"Canada";"CAD";"2015-09-03T12:30:00";"GMT";"45.26B";"";"46.05B";"Low"
"Trade Balance (Jul)";"Canada";"CAD";"2015-09-03T12:30:00";"GMT";"-0.81B";"-1.30B";"-0.59B";"Moderate"
