"German WPI (MoM)";"Germany";"EUR";"2012-08-13T06:00:00";"GMT";"-1.1%";"-0.2%";"0.3%";"Low"
"French Current Account";"France";"EUR";"2012-08-13T06:45:00";"GMT";"-4.00B";"";"-4.90B";"Low"
"Italian 12-Month BOT Auction";"Italy";"EUR";"2012-08-13T09:10:00";"GMT";"2.697%";"";"2.767%";"Low"
"German 6-Month Bubill Auction";"Germany";"EUR";"2012-08-13T09:30:00";"GMT";"-0.034%";"";"-0.050%";"Low"
"French 12-Month BTF Auction";"France";"EUR";"2012-08-13T13:00:00";"GMT";"-0.006%";"";"0.000%";"Low"
"French 3-Month BTF Auction";"France";"EUR";"2012-08-13T13:00:00";"GMT";"-0.010%";"";"-0.016%";"Low"
"French 6-Month BTF Auction";"France";"EUR";"2012-08-13T13:00:00";"GMT";"-0.010%";"";"-0.010%";"Low"
