"German PPI (MoM)";"Germany";"EUR";"2009-04-21T06:00:00";"GMT";"-0.5%";"-0.3%";"-0.7%";"Moderate"
"Italian Trade Balance";"Italy";"EUR";"2009-04-21T08:00:00";"GMT";"-3.59B";"-1.97B";"-0.84B";"Low"
"German ZEW Economic Sentiment";"Germany";"EUR";"2009-04-21T09:00:00";"GMT";"-3.5";"1.8";"13.0";"High"
"ZEW Economic Sentiment";"Euro Zone";"EUR";"2009-04-21T09:00:00";"GMT";"-6.5";"1.0";"11.8";"Moderate"
