{"events": {"event": {
    "eventDateTime": "2012-07-20T20:30:00",
    "eventActual": "0.6K",
    "eventCountry": "Russia",
    "eventExpectedVolatility": "Moderate",
    "eventName": "CFTC RUB speculative positions",
    "eventTimeZone": "GMT",
    "eventPrevious": "2.2K",
    "eventCurrency": "RUB",
    "eventForecast": ""
  }}}
