{"events": {"event": [
    {
      "eventDateTime": "2016-05-20T06:00:00",
      "eventActual": "0.1%",
      "eventCountry": "Germany",
      "eventExpectedVolatility": "Moderate",
      "eventName": "German PPI (MoM) (Apr)",
      "eventTimeZone": "GMT",
      "eventPrevious": "0.0%",
      "eventCurrency": "EUR",
      "eventForecast": "0.2%"
    },
    {
      "eventDateTime": "2016-05-20T06:00:00",
      "eventActual": "-3.1%",
      "eventCountry": "Germany",
      "eventExpectedVolatility": "Low",
      "eventName": "German PPI (YoY) (Apr)",
      "eventTimeZone": "GMT",
      "eventPrevious": "-3.1%",
      "eventCurrency": "EUR",
      "eventForecast": "-3.0%"
    },
    {
      "eventDateTime": "2016-05-20T08:00:00",
      "eventActual": "27.3B",
      "eventCountry": "Euro Zone",
      "eventExpectedVolatility": "Low",
      "eventName": "Current Account (Mar)",
      "eventTimeZone": "GMT",
      "eventPrevious": "19.2B",
      "eventCurrency": "EUR",
      "eventForecast": "19.6B"
    },
    {
      "eventDateTime": "2016-05-20T08:00:00",
      "eventActual": "32.3B",
      "eventCountry": "Euro Zone",
      "eventExpectedVolatility": "Low",
      "eventName": "Current Account n.s.a. (Mar)",
      "eventTimeZone": "GMT",
      "eventPrevious": "11.2B",
      "eventCurrency": "EUR",
      "eventForecast": ""
    },
    {
      "eventDateTime": "2016-05-20T08:00:00",
      "eventActual": "21.8B",
      "eventCountry": "Euro Zone",
      "eventExpectedVolatility": "Low",
      "eventName": "Net Investment Flow (Mar)",
      "eventTimeZone": "GMT",
      "eventPrevious": "110.6B",
      "eventCurrency": "EUR",
      "eventForecast": ""
    },
    {
      "eventDateTime": "2016-05-20T08:00:00",
      "eventActual": "-0.79B",
      "eventCountry": "Spain",
      "eventExpectedVolatility": "Low",
      "eventName": "Spanish Trade Balance",
      "eventTimeZone": "GMT",
      "eventPrevious": "-1.76B",
      "eventCurrency": "EUR",
      "eventForecast": "-1.90B"
    },
    {
      "eventDateTime": "2016-05-20T19:30:00",
      "eventActual": "-22.6K",
      "eventCountry": "Euro Zone",
      "eventExpectedVolatility": "Moderate",
      "eventName": "CFTC EUR speculative net positions",
      "eventTimeZone": "GMT",
      "eventPrevious": "-21.9K",
      "eventCurrency": "EUR",
      "eventForecast": ""
    }
  ]}}
