{"events": {"event": [
    {
      "eventDateTime": "2019-03-07T08:00:00",
      "eventActual": "0.54%",
      "eventCountry": "Brazil",
      "eventExpectedVolatility": "Moderate",
      "eventName": "IPC-Fipe Inflation Index (MoM) (Feb)",
      "eventTimeZone": "GMT",
      "eventPrevious": "0.58%",
      "eventCurrency": "BRL",
      "eventForecast": ""
    },
    {
      "eventDateTime": "2019-03-07T13:00:00",
      "eventActual": "52.6",
      "eventCountry": "Brazil",
      "eventExpectedVolatility": "Low",
      "eventName": "Markit Composite PMI (Feb)",
      "eventTimeZone": "GMT",
      "eventPrevious": "52.3",
      "eventCurrency": "BRL",
      "eventForecast": ""
    },
    {
      "eventDateTime": "2019-03-07T13:00:00",
      "eventActual": "52.2",
      "eventCountry": "Brazil",
      "eventExpectedVolatility": "Low",
      "eventName": "Markit Services PMI (Feb)",
      "eventTimeZone": "GMT",
      "eventPrevious": "52.0",
      "eventCurrency": "BRL",
      "eventForecast": ""
    },
    {
      "eventDateTime": "2019-03-07T15:30:00",
      "eventActual": "-0.726B",
      "eventCountry": "Brazil",
      "eventExpectedVolatility": "Low",
      "eventName": "Foreign Exchange Flows",
      "eventTimeZone": "GMT",
      "eventPrevious": "4.679B",
      "eventCurrency": "BRL",
      "eventForecast": ""
    }
  ]}}
