{"events": {"event": {
    "eventDateTime": "2019-08-23T19:30:00",
    "eventActual": "-62.8K",
    "eventCountry": "Australia",
    "eventExpectedVolatility": "Moderate",
    "eventName": "CFTC AUD speculative net positions",
    "eventTimeZone": "GMT",
    "eventPrevious": "-62.9K",
    "eventCurrency": "AUD",
    "eventForecast": ""
  }}}
