{"events": {"event": [
    {
      "eventDateTime": "2009-02-19T13:30:00",
      "eventActual": "0.4%",
      "eventCountry": "United States",
      "eventExpectedVolatility": "Moderate",
      "eventName": "Core PPI (MoM)",
      "eventTimeZone": "GMT",
      "eventPrevious": "0.2%",
      "eventCurrency": "USD",
      "eventForecast": "0.1%"
    },
    {
      "eventDateTime": "2009-02-19T13:30:00",
      "eventActual": "627K",
      "eventCountry": "United States",
      "eventExpectedVolatility": "Moderate",
      "eventName": "Initial Jobless Claims",
      "eventTimeZone": "GMT",
      "eventPrevious": "623K",
      "eventCurrency": "USD",
      "eventForecast": "615K"
    },
    {
      "eventDateTime": "2009-02-19T13:30:00",
      "eventActual": "0.8%",
      "eventCountry": "United States",
      "eventExpectedVolatility": "High",
      "eventName": "PPI (MoM)",
      "eventTimeZone": "GMT",
      "eventPrevious": "-1.9%",
      "eventCurrency": "USD",
      "eventForecast": "0.2%"
    },
    {
      "eventDateTime": "2009-02-19T15:00:00",
      "eventActual": "-41.3",
      "eventCountry": "United States",
      "eventExpectedVolatility": "High",
      "eventName": "Philadelphia Fed Manufacturing Index",
      "eventTimeZone": "GMT",
      "eventPrevious": "-24.3",
      "eventCurrency": "USD",
      "eventForecast": "-24.1"
    },
    {
      "eventDateTime": "2009-02-19T16:00:00",
      "eventActual": "-0.200M",
      "eventCountry": "United States",
      "eventExpectedVolatility": "High",
      "eventName": "Crude Oil Inventories",
      "eventTimeZone": "GMT",
      "eventPrevious": "4.700M",
      "eventCurrency": "USD",
      "eventForecast": ""
    }
  ]}}
