"Fed Chairman Bernanke Speaks";"United States";"USD";"2008-10-07T17:15:00";"GMT";" ";"";"";"High"
"FOMC Meeting Minutes";"United States";"USD";"2008-10-07T18:00:00";"GMT";" ";"";"";"High"
"Consumer Credit";"United States";"USD";"2008-10-07T19:00:00";"GMT";"4.60B";"5.60B";"-7.90B";"Low"
