"MI Inflation Expectations";"Australia";"AUD";"2008-10-09T00:00:00";"GMT";"4.4%";"";"4.4%";"Low"
"Employment Change";"Australia";"AUD";"2008-10-09T00:30:00";"GMT";"14.6K";"";"2.2K";"High"
"Unemployment Rate";"Australia";"AUD";"2008-10-09T00:30:00";"GMT";"4.1%";"4.3%";"4.3%";"Moderate"
