{"events": {"event": [
    {
      "eventDateTime": "2018-07-10T01:30:00",
      "eventActual": "6",
      "eventCountry": "Australia",
      "eventExpectedVolatility": "Moderate",
      "eventName": "NAB Business Confidence (Jun)",
      "eventTimeZone": "GMT",
      "eventPrevious": "7",
      "eventCurrency": "AUD",
      "eventForecast": "8"
    },
    {
      "eventDateTime": "2018-07-10T01:30:00",
      "eventActual": "15",
      "eventCountry": "Australia",
      "eventExpectedVolatility": "Low",
      "eventName": "NAB Business Survey (Jun)",
      "eventTimeZone": "GMT",
      "eventPrevious": "15",
      "eventCurrency": "AUD",
      "eventForecast": ""
    },
    {
      "eventDateTime": "2018-07-10T05:30:00",
      "eventActual": "57.2%",
      "eventCountry": "Australia",
      "eventExpectedVolatility": "Moderate",
      "eventName": "Investing.com AUD/USD Index",
      "eventTimeZone": "GMT",
      "eventPrevious": "59.3%",
      "eventCurrency": "AUD",
      "eventForecast": ""
    }
  ]}}
