"Markit Manufacturing PMI (Jun)";"Russia";"RUB";"2016-07-01T06:00:00";"GMT";"49.6";"";"51.5";"Moderate"
"GDP Quarterly (YoY) (Q1)";"Russia";"RUB";"2016-07-01T13:00:00";"GMT";"-1.2%";"-1.2%";"-1.2%";"Moderate"
"CFTC RUB speculative positions";"Russia";"RUB";"2016-07-01T19:30:00";"GMT";"5.4K";"";"5.9K";"Moderate"
