{"events": {"event": [
    {
      "eventDateTime": "2016-06-16T01:00:00",
      "eventActual": "3.5%",
      "eventCountry": "Australia",
      "eventExpectedVolatility": "Low",
      "eventName": "MI Inflation Expectations",
      "eventTimeZone": "GMT",
      "eventPrevious": "3.2%",
      "eventCurrency": "AUD",
      "eventForecast": ""
    },
    {
      "eventDateTime": "2016-06-16T01:30:00",
      "eventActual": "17.9K",
      "eventCountry": "Australia",
      "eventExpectedVolatility": "High",
      "eventName": "Employment Change (May)",
      "eventTimeZone": "GMT",
      "eventPrevious": "0.9K",
      "eventCurrency": "AUD",
      "eventForecast": "15.0K"
    },
    {
      "eventDateTime": "2016-06-16T01:30:00",
      "eventActual": "0.0K",
      "eventCountry": "Australia",
      "eventExpectedVolatility": "Moderate",
      "eventName": "Full Employment Change (May)",
      "eventTimeZone": "GMT",
      "eventPrevious": "-18.2K",
      "eventCurrency": "AUD",
      "eventForecast": ""
    },
    {
      "eventDateTime": "2016-06-16T01:30:00",
      "eventActual": "-1.1%",
      "eventCountry": "Australia",
      "eventExpectedVolatility": "Low",
      "eventName": "New Motor Vehicle Sales (MoM) (May)",
      "eventTimeZone": "GMT",
      "eventPrevious": "-1.9%",
      "eventCurrency": "AUD",
      "eventForecast": "-2.0%"
    },
    {
      "eventDateTime": "2016-06-16T01:30:00",
      "eventActual": "64.8%",
      "eventCountry": "Australia",
      "eventExpectedVolatility": "Low",
      "eventName": "Participation Rate (May)",
      "eventTimeZone": "GMT",
      "eventPrevious": "64.8%",
      "eventCurrency": "AUD",
      "eventForecast": "64.9%"
    },
    {
      "eventDateTime": "2016-06-16T01:30:00",
      "eventActual": "",
      "eventCountry": "Australia",
      "eventExpectedVolatility": "Low",
      "eventName": "RBA Bulletin",
      "eventTimeZone": "GMT",
      "eventPrevious": "",
      "eventCurrency": "AUD",
      "eventForecast": ""
    },
    {
      "eventDateTime": "2016-06-16T01:30:00",
      "eventActual": "5.7%",
      "eventCountry": "Australia",
      "eventExpectedVolatility": "Moderate",
      "eventName": "Unemployment Rate (May)",
      "eventTimeZone": "GMT",
      "eventPrevious": "5.7%",
      "eventCurrency": "AUD",
      "eventForecast": "5.7%"
    }
  ]}}
