"BoE Consumer Credit (May)";"United Kingdom";"GBP";"2017-06-29T08:30:00";"GMT";"1.483B";"1.400B";"1.732B";"Low"
"M4 Money Supply (MoM) (May)";"United Kingdom";"GBP";"2017-06-29T08:30:00";"GMT";"1.3%";"1.3%";"-0.1%";"Low"
"Mortgage Approvals (May)";"United Kingdom";"GBP";"2017-06-29T08:30:00";"GMT";"65.05K";"64.00K";"65.20K";"Low"
"Mortgage Lending (May)";"United Kingdom";"GBP";"2017-06-29T08:30:00";"GMT";"2.80B";"2.60B";"3.50B";"Low"
"Net Lending to Individuals";"United Kingdom";"GBP";"2017-06-29T08:30:00";"GMT";"4.2B";"4.0B";"5.3B";"Low"
"GfK Consumer Confidence (Jun)";"United Kingdom";"GBP";"2017-06-29T23:01:00";"GMT";"-5";"-7";"-10";"Low"
