{"events": {"event": {
    "eventDateTime": "2016-03-01T14:25:00",
    "eventActual": "1.4%",
    "eventCountry": "New Zealand",
    "eventExpectedVolatility": "Moderate",
    "eventName": "GlobalDairyTrade Price Index",
    "eventTimeZone": "GMT",
    "eventPrevious": "-2.8%",
    "eventCurrency": "NZD",
    "eventForecast": ""
  }}}
