{"events": {"event": {
    "eventDateTime": "2010-06-25T19:30:00",
    "eventActual": "26.4K",
    "eventCountry": "Canada",
    "eventExpectedVolatility": "Low",
    "eventName": "CFTC CAD speculative net positions",
    "eventTimeZone": "GMT",
    "eventPrevious": "27.4K",
    "eventCurrency": "CAD",
    "eventForecast": ""
  }}}
