{"events": {"event": {
    "eventDateTime": "2016-12-20T13:30:00",
    "eventActual": "1.1%",
    "eventCountry": "Canada",
    "eventExpectedVolatility": "Moderate",
    "eventName": "Wholesale Sales (MoM) (Oct)",
    "eventTimeZone": "GMT",
    "eventPrevious": "-1.5%",
    "eventCurrency": "CAD",
    "eventForecast": "0.6%"
  }}}
