{"events": {"event": [
    {
      "eventDateTime": "2006-04-01T09:00:00",
      "eventActual": "31.48%",
      "eventCountry": "India",
      "eventExpectedVolatility": "Low",
      "eventName": "Bank Loan Growth (Mar)",
      "eventTimeZone": "GMT",
      "eventPrevious": "32.01%",
      "eventCurrency": "INR",
      "eventForecast": ""
    },
    {
      "eventDateTime": "2006-04-01T09:00:00",
      "eventActual": "5.00%",
      "eventCountry": "India",
      "eventExpectedVolatility": "Low",
      "eventName": "Cash Reserve Ratio (Mar)",
      "eventTimeZone": "GMT",
      "eventPrevious": "5.00%",
      "eventCurrency": "INR",
      "eventForecast": ""
    },
    {
      "eventDateTime": "2006-04-01T09:00:00",
      "eventActual": "8.20%",
      "eventCountry": "India",
      "eventExpectedVolatility": "Low",
      "eventName": "Cumulative Industrial Production (Mar)",
      "eventTimeZone": "GMT",
      "eventPrevious": "8.10%",
      "eventCurrency": "INR",
      "eventForecast": ""
    },
    {
      "eventDateTime": "2006-04-01T09:00:00",
      "eventActual": "17.89%",
      "eventCountry": "India",
      "eventExpectedVolatility": "Low",
      "eventName": "Deposit Growth (Mar)",
      "eventTimeZone": "GMT",
      "eventPrevious": "17.08%",
      "eventCurrency": "INR",
      "eventForecast": ""
    },
    {
      "eventDateTime": "2006-04-01T09:00:00",
      "eventActual": "11.56B",
      "eventCountry": "India",
      "eventExpectedVolatility": "Low",
      "eventName": "Exports (USD) (Mar)",
      "eventTimeZone": "GMT",
      "eventPrevious": "9.06B",
      "eventCurrency": "INR",
      "eventForecast": ""
    },
    {
      "eventDateTime": "2006-04-01T09:00:00",
      "eventActual": "151.62B",
      "eventCountry": "India",
      "eventExpectedVolatility": "Low",
      "eventName": "FX Reserves, USD (Mar)",
      "eventTimeZone": "GMT",
      "eventPrevious": "143.15B",
      "eventCurrency": "INR",
      "eventForecast": ""
    },
    {
      "eventDateTime": "2006-04-01T09:00:00",
      "eventActual": "1,464.35B",
      "eventCountry": "India",
      "eventExpectedVolatility": "Low",
      "eventName": "Federal Fiscal Deficit (Mar)",
      "eventTimeZone": "GMT",
      "eventPrevious": "1,322.20B",
      "eventCurrency": "INR",
      "eventForecast": ""
    },
    {
      "eventDateTime": "2006-04-01T09:00:00",
      "eventActual": "14.31B",
      "eventCountry": "India",
      "eventExpectedVolatility": "Low",
      "eventName": "Imports (USD) (Mar)",
      "eventTimeZone": "GMT",
      "eventPrevious": "11.54B",
      "eventCurrency": "INR",
      "eventForecast": ""
    },
    {
      "eventDateTime": "2006-04-01T09:00:00",
      "eventActual": "5.43%",
      "eventCountry": "India",
      "eventExpectedVolatility": "Low",
      "eventName": "Infrastructure Output (YoY) (Mar)",
      "eventTimeZone": "GMT",
      "eventPrevious": "7.23%",
      "eventCurrency": "INR",
      "eventForecast": ""
    },
    {
      "eventDateTime": "2006-04-01T09:00:00",
      "eventActual": "6.50%",
      "eventCountry": "India",
      "eventExpectedVolatility": "High",
      "eventName": "Interest Rate Decision (Mar)",
      "eventTimeZone": "GMT",
      "eventPrevious": "6.50%",
      "eventCurrency": "INR",
      "eventForecast": ""
    },
    {
      "eventDateTime": "2006-04-01T09:00:00",
      "eventActual": "16.60%",
      "eventCountry": "India",
      "eventExpectedVolatility": "Low",
      "eventName": "M3 Money Supply (Mar)",
      "eventTimeZone": "GMT",
      "eventPrevious": "15.62%",
      "eventCurrency": "INR",
      "eventForecast": ""
    },
    {
      "eventDateTime": "2006-04-01T09:00:00",
      "eventActual": "5.50%",
      "eventCountry": "India",
      "eventExpectedVolatility": "Low",
      "eventName": "Reverse REPO Rate (Mar)",
      "eventTimeZone": "GMT",
      "eventPrevious": "5.50%",
      "eventCurrency": "INR",
      "eventForecast": ""
    },
    {
      "eventDateTime": "2006-04-01T09:00:00",
      "eventActual": "-2.75B",
      "eventCountry": "India",
      "eventExpectedVolatility": "Low",
      "eventName": "Trade Balance (Mar)",
      "eventTimeZone": "GMT",
      "eventPrevious": "-2.48B",
      "eventCurrency": "INR",
      "eventForecast": ""
    },
    {
      "eventDateTime": "2006-04-01T09:00:00",
      "eventActual": "7.30%",
      "eventCountry": "India",
      "eventExpectedVolatility": "Low",
      "eventName": "WPI Food (YoY) (Mar)",
      "eventTimeZone": "GMT",
      "eventPrevious": "8.70%",
      "eventCurrency": "INR",
      "eventForecast": ""
    },
    {
      "eventDateTime": "2006-04-01T09:00:00",
      "eventActual": "10.20%",
      "eventCountry": "India",
      "eventExpectedVolatility": "Low",
      "eventName": "WPI Fuel (YoY) (Mar)",
      "eventTimeZone": "GMT",
      "eventPrevious": "9.90%",
      "eventCurrency": "INR",
      "eventForecast": ""
    },
    {
      "eventDateTime": "2006-04-01T09:00:00",
      "eventActual": "4.24%",
      "eventCountry": "India",
      "eventExpectedVolatility": "Moderate",
      "eventName": "WPI Inflation (YoY) (Mar)",
      "eventTimeZone": "GMT",
      "eventPrevious": "4.45%",
      "eventCurrency": "INR",
      "eventForecast": ""
    },
    {
      "eventDateTime": "2006-04-01T09:00:00",
      "eventActual": "2.17%",
      "eventCountry": "India",
      "eventExpectedVolatility": "Low",
      "eventName": "WPI Manufacturing Inflation (YoY) (Mar)",
      "eventTimeZone": "GMT",
      "eventPrevious": "2.18%",
      "eventCurrency": "INR",
      "eventForecast": ""
    }
  ]}}
