"Bank Lending (Oct)";"Singapore";"SGD";"2007-11-01T09:00:00";"GMT";"218.70B";"";"224.10B";"Low"
"CPI (YoY) (Oct)";"Singapore";"SGD";"2007-11-01T09:00:00";"GMT";"3.01%";"";"4.06%";"Moderate"
"Foreign Reserves USD (MoM) (Oct)";"Singapore";"SGD";"2007-11-01T09:00:00";"GMT";"152.40B";"";"158.20B";"Low"
"Industrial Production (MoM) (Oct)";"Singapore";"SGD";"2007-11-01T09:00:00";"GMT";"-8.60%";"";"7.20%";"Low"
"Industrial Production (YoY) (Oct)";"Singapore";"SGD";"2007-11-01T09:00:00";"GMT";"-3.00%";"";"3.40%";"Low"
"Manufacturing PMI (Oct)";"Singapore";"SGD";"2007-11-01T09:00:00";"GMT";"53.90";"";"52.90";"Low"
"Non-Oil Exports (MoM) (Oct)";"Singapore";"SGD";"2007-11-01T09:00:00";"GMT";"-1.50%";"";"1.30%";"Low"
"Non-Oil Exports (YoY) (Oct)";"Singapore";"SGD";"2007-11-01T09:00:00";"GMT";"2.20%";"";"6.60%";"Low"
"Retail Sales (MoM) (Oct)";"Singapore";"SGD";"2007-11-01T09:00:00";"GMT";"1.70%";"";"0.00%";"Low"
"Retail Sales (YoY) (Oct)";"Singapore";"SGD";"2007-11-01T09:00:00";"GMT";"7.30%";"";"5.10%";"Low"
