"CPI (YoY) (Oct)";"Hong Kong";"HKD";"2002-11-01T09:00:00";"GMT";"-3.70%";"";"-3.60%";"Low"
"Exports (MoM) (Oct)";"Hong Kong";"HKD";"2002-11-01T09:00:00";"GMT";"9.90%";"";"12.70%";"Low"
"Foreign Reserves (USD) (Oct)";"Hong Kong";"HKD";"2002-11-01T09:00:00";"GMT";"111.22B";"";"110.60B";"Low"
"Imports (MoM) (Oct)";"Hong Kong";"HKD";"2002-11-01T09:00:00";"GMT";"6.20%";"";"13.40%";"Low"
"M3 Money Supply (Oct)";"Hong Kong";"HKD";"2002-11-01T09:00:00";"GMT";"-0.80%";"";"-0.26%";"Low"
"Retail Sales (YoY) (Oct)";"Hong Kong";"HKD";"2002-11-01T09:00:00";"GMT";"-4.60%";"";"-2.70%";"Low"
"Unemployment Rate (Oct)";"Hong Kong";"HKD";"2002-11-01T09:00:00";"GMT";"7.30%";"";"7.30%";"Low"
