{"events": {"event": [
    {
      "eventDateTime": "2019-07-25T08:30:00",
      "eventActual": "-9.0%",
      "eventCountry": "Hong Kong",
      "eventExpectedVolatility": "Low",
      "eventName": "Exports (MoM) (Jun)",
      "eventTimeZone": "GMT",
      "eventPrevious": "-2.4%",
      "eventCurrency": "HKD",
      "eventForecast": ""
    },
    {
      "eventDateTime": "2019-07-25T08:30:00",
      "eventActual": "-7.5%",
      "eventCountry": "Hong Kong",
      "eventExpectedVolatility": "Low",
      "eventName": "Imports (MoM) (Jun)",
      "eventTimeZone": "GMT",
      "eventPrevious": "-4.3%",
      "eventCurrency": "HKD",
      "eventForecast": ""
    },
    {
      "eventDateTime": "2019-07-25T08:30:00",
      "eventActual": "-55.2B",
      "eventCountry": "Hong Kong",
      "eventExpectedVolatility": "Low",
      "eventName": "Trade Balance",
      "eventTimeZone": "GMT",
      "eventPrevious": "-34.7B",
      "eventCurrency": "HKD",
      "eventForecast": ""
    }
  ]}}
