{"events": {"event": [
    {
      "eventDateTime": "2004-12-01T09:00:00",
      "eventActual": "116.10",
      "eventCountry": "South Africa",
      "eventExpectedVolatility": "Low",
      "eventName": "Business Confidence (Nov)",
      "eventTimeZone": "GMT",
      "eventPrevious": "117.40",
      "eventCurrency": "ZAR",
      "eventForecast": ""
    },
    {
      "eventDateTime": "2004-12-01T09:00:00",
      "eventActual": "0.49%",
      "eventCountry": "South Africa",
      "eventExpectedVolatility": "Moderate",
      "eventName": "CPI (MoM) (Nov)",
      "eventTimeZone": "GMT",
      "eventPrevious": "0.32%",
      "eventCurrency": "ZAR",
      "eventForecast": ""
    },
    {
      "eventDateTime": "2004-12-01T09:00:00",
      "eventActual": "3.67%",
      "eventCountry": "South Africa",
      "eventExpectedVolatility": "Low",
      "eventName": "CPI (YoY) (Nov)",
      "eventTimeZone": "GMT",
      "eventPrevious": "2.49%",
      "eventCurrency": "ZAR",
      "eventForecast": ""
    },
    {
      "eventDateTime": "2004-12-01T09:00:00",
      "eventActual": "14.43B",
      "eventCountry": "South Africa",
      "eventExpectedVolatility": "Low",
      "eventName": "Foreign Reserves (USD) (Nov)",
      "eventTimeZone": "GMT",
      "eventPrevious": "13.01B",
      "eventCurrency": "ZAR",
      "eventForecast": ""
    },
    {
      "eventDateTime": "2004-12-01T09:00:00",
      "eventActual": "-10.60%",
      "eventCountry": "South Africa",
      "eventExpectedVolatility": "Low",
      "eventName": "Gold Production (YoY) (Nov)",
      "eventTimeZone": "GMT",
      "eventPrevious": "-13.36%",
      "eventCurrency": "ZAR",
      "eventForecast": ""
    },
    {
      "eventDateTime": "2004-12-01T09:00:00",
      "eventActual": "7.50%",
      "eventCountry": "South Africa",
      "eventExpectedVolatility": "Moderate",
      "eventName": "Interest Rate Decision (Nov)",
      "eventTimeZone": "GMT",
      "eventPrevious": "7.50%",
      "eventCurrency": "ZAR",
      "eventForecast": ""
    },
    {
      "eventDateTime": "2004-12-01T09:00:00",
      "eventActual": "14.05%",
      "eventCountry": "South Africa",
      "eventExpectedVolatility": "Low",
      "eventName": "M3 Money Supply (YoY) (Nov)",
      "eventTimeZone": "GMT",
      "eventPrevious": "15.54%",
      "eventCurrency": "ZAR",
      "eventForecast": ""
    },
    {
      "eventDateTime": "2004-12-01T09:00:00",
      "eventActual": "1.14%",
      "eventCountry": "South Africa",
      "eventExpectedVolatility": "Low",
      "eventName": "Mining Production (Nov)",
      "eventTimeZone": "GMT",
      "eventPrevious": "-5.53%",
      "eventCurrency": "ZAR",
      "eventForecast": ""
    },
    {
      "eventDateTime": "2004-12-01T09:00:00",
      "eventActual": "11.02B",
      "eventCountry": "South Africa",
      "eventExpectedVolatility": "Low",
      "eventName": "Net FX Reserves (USD) (Nov)",
      "eventTimeZone": "GMT",
      "eventPrevious": "9.68B",
      "eventCurrency": "ZAR",
      "eventForecast": ""
    },
    {
      "eventDateTime": "2004-12-01T09:00:00",
      "eventActual": "11.00%",
      "eventCountry": "South Africa",
      "eventExpectedVolatility": "Low",
      "eventName": "Prime Rate (Nov)",
      "eventTimeZone": "GMT",
      "eventPrevious": "11.00%",
      "eventCurrency": "ZAR",
      "eventForecast": ""
    },
    {
      "eventDateTime": "2004-12-01T09:00:00",
      "eventActual": "10.73%",
      "eventCountry": "South Africa",
      "eventExpectedVolatility": "Low",
      "eventName": "Private Sector Credit (Nov)",
      "eventTimeZone": "GMT",
      "eventPrevious": "10.52%",
      "eventCurrency": "ZAR",
      "eventForecast": ""
    },
    {
      "eventDateTime": "2004-12-01T09:00:00",
      "eventActual": "11.20%",
      "eventCountry": "South Africa",
      "eventExpectedVolatility": "Low",
      "eventName": "Retail Sales (YoY) (Nov)",
      "eventTimeZone": "GMT",
      "eventPrevious": "14.30%",
      "eventCurrency": "ZAR",
      "eventForecast": ""
    },
    {
      "eventDateTime": "2004-12-01T09:00:00",
      "eventActual": "41.66K",
      "eventCountry": "South Africa",
      "eventExpectedVolatility": "Low",
      "eventName": "Total Vehicle Sales (Nov)",
      "eventTimeZone": "GMT",
      "eventPrevious": "42.44K",
      "eventCurrency": "ZAR",
      "eventForecast": ""
    },
    {
      "eventDateTime": "2004-12-01T09:00:00",
      "eventActual": "32.00%",
      "eventCountry": "South Africa",
      "eventExpectedVolatility": "Low",
      "eventName": "Total Vehicle Sales (YoY) (Nov)",
      "eventTimeZone": "GMT",
      "eventPrevious": "22.30%",
      "eventCurrency": "ZAR",
      "eventForecast": ""
    }
  ]}}
