{"events": {"event": {
    "eventDateTime": "2010-01-26T02:00:00",
    "eventActual": "1.8%",
    "eventCountry": "New Zealand",
    "eventExpectedVolatility": "Low",
    "eventName": "Credit Card Spending (YoY)",
    "eventTimeZone": "GMT",
    "eventPrevious": "1.5%",
    "eventCurrency": "NZD",
    "eventForecast": ""
  }}}
