{"events": {"event": [
    {
      "eventDateTime": "2018-06-05T06:45:00",
      "eventActual": "-54.3B",
      "eventCountry": "France",
      "eventExpectedVolatility": "Low",
      "eventName": "French Government Budget Balance (Apr)",
      "eventTimeZone": "GMT",
      "eventPrevious": "-33.1B",
      "eventCurrency": "EUR",
      "eventForecast": ""
    },
    {
      "eventDateTime": "2018-06-05T07:15:00",
      "eventActual": "56.4",
      "eventCountry": "Spain",
      "eventExpectedVolatility": "Moderate",
      "eventName": "Spanish Services PMI (May)",
      "eventTimeZone": "GMT",
      "eventPrevious": "55.6",
      "eventCurrency": "EUR",
      "eventForecast": "56.4"
    },
    {
      "eventDateTime": "2018-06-05T07:45:00",
      "eventActual": "53.1",
      "eventCountry": "Italy",
      "eventExpectedVolatility": "Moderate",
      "eventName": "Italian Services PMI (May)",
      "eventTimeZone": "GMT",
      "eventPrevious": "52.6",
      "eventCurrency": "EUR",
      "eventForecast": "52.9"
    },
    {
      "eventDateTime": "2018-06-05T07:50:00",
      "eventActual": "54.2",
      "eventCountry": "France",
      "eventExpectedVolatility": "Low",
      "eventName": "French Markit Composite PMI (May)",
      "eventTimeZone": "GMT",
      "eventPrevious": "54.5",
      "eventCurrency": "EUR",
      "eventForecast": "54.5"
    },
    {
      "eventDateTime": "2018-06-05T07:50:00",
      "eventActual": "54.3",
      "eventCountry": "France",
      "eventExpectedVolatility": "Moderate",
      "eventName": "French Services PMI (May)",
      "eventTimeZone": "GMT",
      "eventPrevious": "54.3",
      "eventCurrency": "EUR",
      "eventForecast": "54.3"
    },
    {
      "eventDateTime": "2018-06-05T07:55:00",
      "eventActual": "53.4",
      "eventCountry": "Germany",
      "eventExpectedVolatility": "Low",
      "eventName": "German Composite PMI (May)",
      "eventTimeZone": "GMT",
      "eventPrevious": "53.1",
      "eventCurrency": "EUR",
      "eventForecast": "53.1"
    },
    {
      "eventDateTime": "2018-06-05T07:55:00",
      "eventActual": "52.1",
      "eventCountry": "Germany",
      "eventExpectedVolatility": "Moderate",
      "eventName": "German Services PMI (May)",
      "eventTimeZone": "GMT",
      "eventPrevious": "52.1",
      "eventCurrency": "EUR",
      "eventForecast": "52.1"
    },
    {
      "eventDateTime": "2018-06-05T08:00:00",
      "eventActual": "54.1",
      "eventCountry": "Euro Zone",
      "eventExpectedVolatility": "Moderate",
      "eventName": "Markit Composite PMI (May)",
      "eventTimeZone": "GMT",
      "eventPrevious": "54.1",
      "eventCurrency": "EUR",
      "eventForecast": "54.1"
    },
    {
      "eventDateTime": "2018-06-05T08:00:00",
      "eventActual": "53.8",
      "eventCountry": "Euro Zone",
      "eventExpectedVolatility": "Moderate",
      "eventName": "Services PMI (May)",
      "eventTimeZone": "GMT",
      "eventPrevious": "53.9",
      "eventCurrency": "EUR",
      "eventForecast": "53.9"
    },
    {
      "eventDateTime": "2018-06-05T09:00:00",
      "eventActual": "0.1%",
      "eventCountry": "Euro Zone",
      "eventExpectedVolatility": "Moderate",
      "eventName": "Retail Sales (MoM) (Apr)",
      "eventTimeZone": "GMT",
      "eventPrevious": "0.4%",
      "eventCurrency": "EUR",
      "eventForecast": "0.5%"
    },
    {
      "eventDateTime": "2018-06-05T09:00:00",
      "eventActual": "1.7%",
      "eventCountry": "Euro Zone",
      "eventExpectedVolatility": "Low",
      "eventName": "Retail Sales (YoY) (Apr)",
      "eventTimeZone": "GMT",
      "eventPrevious": "1.5%",
      "eventCurrency": "EUR",
      "eventForecast": "1.7%"
    },
    {
      "eventDateTime": "2018-06-05T17:30:00",
      "eventActual": "",
      "eventCountry": "Germany",
      "eventExpectedVolatility": "Moderate",
      "eventName": "German Buba President Weidmann Speaks",
      "eventTimeZone": "GMT",
      "eventPrevious": "",
      "eventCurrency": "EUR",
      "eventForecast": ""
    }
  ]}}
