{"events": {"event": [
    {
      "eventDateTime": "2017-07-10T00:30:00",
      "eventActual": "",
      "eventCountry": "Japan",
      "eventExpectedVolatility": "Moderate",
      "eventName": "BoJ Governor Kuroda Speaks",
      "eventTimeZone": "GMT",
      "eventPrevious": "",
      "eventCurrency": "JPY",
      "eventForecast": ""
    },
    {
      "eventDateTime": "2017-07-10T05:00:00",
      "eventActual": "50.0",
      "eventCountry": "Japan",
      "eventExpectedVolatility": "Low",
      "eventName": "Economy Watchers Current Index (Jun)",
      "eventTimeZone": "GMT",
      "eventPrevious": "48.6",
      "eventCurrency": "JPY",
      "eventForecast": "49.0"
    },
    {
      "eventDateTime": "2017-07-10T05:30:00",
      "eventActual": "65.8%",
      "eventCountry": "Japan",
      "eventExpectedVolatility": "Moderate",
      "eventName": "Investing.com USD/JPY Index",
      "eventTimeZone": "GMT",
      "eventPrevious": "67.4%",
      "eventCurrency": "JPY",
      "eventForecast": ""
    },
    {
      "eventDateTime": "2017-07-10T23:50:00",
      "eventActual": "3.9%",
      "eventCountry": "Japan",
      "eventExpectedVolatility": "Low",
      "eventName": "M2 Money Stock (YoY)",
      "eventTimeZone": "GMT",
      "eventPrevious": "3.8%",
      "eventCurrency": "JPY",
      "eventForecast": "3.9%"
    }
  ]}}
