{"events": {"event": {
    "eventDateTime": "2018-05-25T19:30:00",
    "eventActual": "-1.4K",
    "eventCountry": "New Zealand",
    "eventExpectedVolatility": "Low",
    "eventName": "CFTC NZD speculative net positions",
    "eventTimeZone": "GMT",
    "eventPrevious": "2.0K",
    "eventCurrency": "NZD",
    "eventForecast": ""
  }}}
