"Investing.com EUR/USD Index";"Euro Zone";"EUR";"2018-10-01T05:30:00";"GMT";"43.8%";"";"52.0%";"Moderate"
"German Retail Sales (MoM) (Aug)";"Germany";"EUR";"2018-10-01T06:00:00";"GMT";"-1.1%";"0.4%";"-0.1%";"Moderate"
"German Retail Sales (YoY) (Aug)";"Germany";"EUR";"2018-10-01T06:00:00";"GMT";"0.9%";"1.5%";"1.6%";"Low"
"Spanish Retail Sales (YoY) (Aug)";"Spain";"EUR";"2018-10-01T07:00:00";"GMT";"-0.5%";"";"0.3%";"Low"
"Spanish Manufacturing PMI (Sep)";"Spain";"EUR";"2018-10-01T07:15:00";"GMT";"53.0";"52.7";"51.4";"Moderate"
"Italian Manufacturing PMI (Sep)";"Italy";"EUR";"2018-10-01T07:45:00";"GMT";"50.1";"50.3";"50.0";"Moderate"
"French Manufacturing PMI (Sep)";"France";"EUR";"2018-10-01T07:50:00";"GMT";"52.5";"52.5";"52.5";"Moderate"
"German Manufacturing PMI (Sep)";"Germany";"EUR";"2018-10-01T07:55:00";"GMT";"53.7";"53.7";"53.7";"High"
"Italian Monthly Unemployment Rate (Aug)";"Italy";"EUR";"2018-10-01T08:00:00";"GMT";"10.2%";"10.5%";"9.7%";"Low"
"Manufacturing PMI (Sep)";"Euro Zone";"EUR";"2018-10-01T08:00:00";"GMT";"53.3";"53.3";"53.2";"Moderate"
"Unemployment Rate (Aug)";"Euro Zone";"EUR";"2018-10-01T09:00:00";"GMT";"8.2%";"8.1%";"8.1%";"Moderate"
"Eurogroup Meetings";"Euro Zone";"EUR";"2018-10-01T10:00:00";"GMT";" ";"";"";"Moderate"
"French 12-Month BTF Auction";"France";"EUR";"2018-10-01T13:00:00";"GMT";"-0.554%";"";"-0.551%";"Low"
"French 3-Month BTF Auction";"France";"EUR";"2018-10-01T13:00:00";"GMT";"-0.561%";"";"-0.662%";"Low"
"French 6-Month BTF Auction";"France";"EUR";"2018-10-01T13:00:00";"GMT";"-0.583%";"";"-0.581%";"Low"
