"Capacity Utilization (MoM) (Sep)";"Japan";"JPY";"2012-10-01T09:00:00";"GMT";"-2.10%";"";"-4.00%";"Low"
"Coincident Indicator (MoM) (Sep)";"Japan";"JPY";"2012-10-01T09:00:00";"GMT";"-0.30%";"";"-1.50%";"Low"
"Construction Orders (YoY) (Sep)";"Japan";"JPY";"2012-10-01T09:00:00";"GMT";"8.70%";"";"3.60%";"Low"
"Core Machinery Orders (YoY) (Sep)";"Japan";"JPY";"2012-10-01T09:00:00";"GMT";"-6.10%";"";"-7.80%";"Low"
"Current Account n.s.a. (Sep)";"Japan";"JPY";"2012-10-01T09:00:00";"GMT";"0.41T";"";"0.52T";"Moderate"
"Exports (YoY) (Sep)";"Japan";"JPY";"2012-10-01T09:00:00";"GMT";"-5.80%";"";"-10.30%";"Moderate"
"Foreign Bonds Buying (Sep)";"Japan";"JPY";"2012-10-01T09:00:00";"GMT";"7,630.30B";"";"11,638.50B";"Low"
"Foreign Investments in Japanese Stocks (Sep)";"Japan";"JPY";"2012-10-01T09:00:00";"GMT";"-1,041.30B";"";"-1,078.00B";"Low"
"Foreign Reserves (USD) (Sep)";"Japan";"JPY";"2012-10-01T09:00:00";"GMT";"1,273.24B";"";"1,277.00B";"Low"
"Household Spending (MoM) (Sep)";"Japan";"JPY";"2012-10-01T09:00:00";"GMT";"1.30%";"";"-1.50%";"Moderate"
"Imports (YoY) (Sep)";"Japan";"JPY";"2012-10-01T09:00:00";"GMT";"-5.20%";"";"4.20%";"Low"
"Industrial Production forecast 1m ahead (MoM) (Sep)";"Japan";"JPY";"2012-10-01T09:00:00";"GMT";"0.70%";"";"-0.90%";"Low"
"Industrial Production forecast 2m ahead (MoM) (Sep)";"Japan";"JPY";"2012-10-01T09:00:00";"GMT";"1.00%";"";"-3.50%";"Low"
"Jobs/applications ratio (Sep)";"Japan";"JPY";"2012-10-01T09:00:00";"GMT";"0.82";"";"0.81";"Moderate"
"Leading Index (MoM) (Sep)";"Japan";"JPY";"2012-10-01T09:00:00";"GMT";"-0.30%";"";"-0.90%";"Low"
"National CPI (YoY) (Sep)";"Japan";"JPY";"2012-10-01T09:00:00";"GMT";"-0.40%";"";"-0.30%";"Low"
"Overtime Pay (YoY) (Sep)";"Japan";"JPY";"2012-10-01T09:00:00";"GMT";"2.40%";"";"-0.20%";"Low"
"PPI (MoM) (Sep)";"Japan";"JPY";"2012-10-01T09:00:00";"GMT";"0.10%";"";"0.30%";"Low"
"Reuters Tankan Index (Sep)";"Japan";"JPY";"2012-10-01T09:00:00";"GMT";"-4.00";"";"-5.00";"Low"
"Tokyo CPI (YoY) (Sep)";"Japan";"JPY";"2012-10-01T09:00:00";"GMT";"-0.70%";"";"-0.70%";"Low"
"Trade Balance (Sep)";"Japan";"JPY";"2012-10-01T09:00:00";"GMT";"-768.40B";"";"-568.20B";"Moderate"
"Monetary Base (YoY)";"Japan";"JPY";"2012-10-01T23:50:00";"GMT";"6.5%";"7.8%";"9.0%";"Low"
