{"events": {"event": [
    {
      "eventDateTime": "2016-06-17T12:30:00",
      "eventActual": "0.4%",
      "eventCountry": "Canada",
      "eventExpectedVolatility": "Moderate",
      "eventName": "CPI (MoM) (May)",
      "eventTimeZone": "GMT",
      "eventPrevious": "0.3%",
      "eventCurrency": "CAD",
      "eventForecast": "0.5%"
    },
    {
      "eventDateTime": "2016-06-17T12:30:00",
      "eventActual": "1.5%",
      "eventCountry": "Canada",
      "eventExpectedVolatility": "Low",
      "eventName": "CPI (YoY) (May)",
      "eventTimeZone": "GMT",
      "eventPrevious": "1.7%",
      "eventCurrency": "CAD",
      "eventForecast": "1.6%"
    },
    {
      "eventDateTime": "2016-06-17T12:30:00",
      "eventActual": "0.3%",
      "eventCountry": "Canada",
      "eventExpectedVolatility": "High",
      "eventName": "Core CPI (MoM) (May)",
      "eventTimeZone": "GMT",
      "eventPrevious": "0.2%",
      "eventCurrency": "CAD",
      "eventForecast": "0.3%"
    },
    {
      "eventDateTime": "2016-06-17T12:30:00",
      "eventActual": "2.1%",
      "eventCountry": "Canada",
      "eventExpectedVolatility": "Moderate",
      "eventName": "Core CPI (YoY) (May)",
      "eventTimeZone": "GMT",
      "eventPrevious": "2.2%",
      "eventCurrency": "CAD",
      "eventForecast": "2.1%"
    },
    {
      "eventDateTime": "2016-06-17T19:30:00",
      "eventActual": "18.4K",
      "eventCountry": "Canada",
      "eventExpectedVolatility": "Low",
      "eventName": "CFTC CAD speculative net positions",
      "eventTimeZone": "GMT",
      "eventPrevious": "21.5K",
      "eventCurrency": "CAD",
      "eventForecast": ""
    }
  ]}}
