{"events": {"event": [
    {
      "eventDateTime": "2015-03-06T06:00:00",
      "eventActual": "47.19B",
      "eventCountry": "South Africa",
      "eventExpectedVolatility": "Low",
      "eventName": "Foreign Reserves (USD) (Feb)",
      "eventTimeZone": "GMT",
      "eventPrevious": "47.61B",
      "eventCurrency": "ZAR",
      "eventForecast": "47.42B"
    },
    {
      "eventDateTime": "2015-03-06T06:00:00",
      "eventActual": "41.920B",
      "eventCountry": "South Africa",
      "eventExpectedVolatility": "Low",
      "eventName": "Net FX Reserves (USD) (Feb)",
      "eventTimeZone": "GMT",
      "eventPrevious": "42.145B",
      "eventCurrency": "ZAR",
      "eventForecast": "42.000B"
    }
  ]}}
