"RBNZ Offshore Holdings (Jul)";"New Zealand";"NZD";"2016-08-16T03:00:00";"GMT";"64.40%";"";"63.90%";"Low"
"GlobalDairyTrade Price Index";"New Zealand";"NZD";"2016-08-16T14:50:00";"GMT";"6.6%";"";"12.7%";"Moderate"
"Employment Change (QoQ) (Q2)";"New Zealand";"NZD";"2016-08-16T22:45:00";"GMT";"1.4%";"0.6%";"2.4%";"High"
"PPI Input (QoQ) (Q2)";"New Zealand";"NZD";"2016-08-16T22:45:00";"GMT";"-1.0%";"0.5%";"0.9%";"Moderate"
"PPI Output (QoQ) (Q2)";"New Zealand";"NZD";"2016-08-16T22:45:00";"GMT";"-0.2%";"0.2%";"0.2%";"Low"
"Participation Rate (Q2)";"New Zealand";"NZD";"2016-08-16T22:45:00";"GMT";"69.00%";"68.80%";"69.70%";"Low"
"Unemployment Rate (Q2)";"New Zealand";"NZD";"2016-08-16T22:45:00";"GMT";"5.2%";"5.3%";"5.1%";"Moderate"
