{"events": {"event": [
    {
      "eventDateTime": "2015-07-06T08:30:00",
      "eventActual": "-13.0B",
      "eventCountry": "United Kingdom",
      "eventExpectedVolatility": "Low",
      "eventName": "Housing Equity Withdrawal (QoQ)",
      "eventTimeZone": "GMT",
      "eventPrevious": "-12.6B",
      "eventCurrency": "GBP",
      "eventForecast": "-12.1B"
    },
    {
      "eventDateTime": "2015-07-06T19:30:00",
      "eventActual": "-12.8K",
      "eventCountry": "United Kingdom",
      "eventExpectedVolatility": "Moderate",
      "eventName": "CFTC GBP speculative net positions",
      "eventTimeZone": "GMT",
      "eventPrevious": "-22.2K",
      "eventCurrency": "GBP",
      "eventForecast": ""
    }
  ]}}
