{"events": {"event": [
    {
      "eventDateTime": "2008-01-01T09:00:00",
      "eventActual": "3.80%",
      "eventCountry": "Hong Kong",
      "eventExpectedVolatility": "Low",
      "eventName": "CPI (YoY) (Dec)",
      "eventTimeZone": "GMT",
      "eventPrevious": "3.50%",
      "eventCurrency": "HKD",
      "eventForecast": ""
    },
    {
      "eventDateTime": "2008-01-01T09:00:00",
      "eventActual": "8.10%",
      "eventCountry": "Hong Kong",
      "eventExpectedVolatility": "Low",
      "eventName": "Exports (MoM) (Dec)",
      "eventTimeZone": "GMT",
      "eventPrevious": "6.60%",
      "eventCurrency": "HKD",
      "eventForecast": ""
    },
    {
      "eventDateTime": "2008-01-01T09:00:00",
      "eventActual": "152.70B",
      "eventCountry": "Hong Kong",
      "eventExpectedVolatility": "Low",
      "eventName": "Foreign Reserves (USD) (Dec)",
      "eventTimeZone": "GMT",
      "eventPrevious": "150.38B",
      "eventCurrency": "HKD",
      "eventForecast": ""
    },
    {
      "eventDateTime": "2008-01-01T09:00:00",
      "eventActual": "10.30%",
      "eventCountry": "Hong Kong",
      "eventExpectedVolatility": "Low",
      "eventName": "Imports (MoM) (Dec)",
      "eventTimeZone": "GMT",
      "eventPrevious": "9.30%",
      "eventCurrency": "HKD",
      "eventForecast": ""
    },
    {
      "eventDateTime": "2008-01-01T09:00:00",
      "eventActual": "18.07%",
      "eventCountry": "Hong Kong",
      "eventExpectedVolatility": "Low",
      "eventName": "M3 Money Supply (Dec)",
      "eventTimeZone": "GMT",
      "eventPrevious": "22.00%",
      "eventCurrency": "HKD",
      "eventForecast": ""
    },
    {
      "eventDateTime": "2008-01-01T09:00:00",
      "eventActual": "16.90%",
      "eventCountry": "Hong Kong",
      "eventExpectedVolatility": "Low",
      "eventName": "Retail Sales (YoY) (Dec)",
      "eventTimeZone": "GMT",
      "eventPrevious": "19.40%",
      "eventCurrency": "HKD",
      "eventForecast": ""
    },
    {
      "eventDateTime": "2008-01-01T09:00:00",
      "eventActual": "3.40%",
      "eventCountry": "Hong Kong",
      "eventExpectedVolatility": "Low",
      "eventName": "Unemployment Rate (Dec)",
      "eventTimeZone": "GMT",
      "eventPrevious": "3.70%",
      "eventCurrency": "HKD",
      "eventForecast": ""
    }
  ]}}
