{"events": {"event": [
    {
      "eventDateTime": "2020-01-17T13:30:00",
      "eventActual": "-1.75B",
      "eventCountry": "Canada",
      "eventExpectedVolatility": "Moderate",
      "eventName": "Foreign Securities Purchases (Nov)",
      "eventTimeZone": "GMT",
      "eventPrevious": "11.31B",
      "eventCurrency": "CAD",
      "eventForecast": ""
    },
    {
      "eventDateTime": "2020-01-17T13:30:00",
      "eventActual": "5.55B",
      "eventCountry": "Canada",
      "eventExpectedVolatility": "Low",
      "eventName": "Foreign Securities Purchases by Canadians (Nov)",
      "eventTimeZone": "GMT",
      "eventPrevious": "2.03B",
      "eventCurrency": "CAD",
      "eventForecast": ""
    },
    {
      "eventDateTime": "2020-01-17T19:30:00",
      "eventActual": "32.9K",
      "eventCountry": "Canada",
      "eventExpectedVolatility": "Low",
      "eventName": "CFTC CAD speculative net positions",
      "eventTimeZone": "GMT",
      "eventPrevious": "26.4K",
      "eventCurrency": "CAD",
      "eventForecast": ""
    }
  ]}}
