{"events": {"event": [
    {
      "eventDateTime": "2007-09-01T09:00:00",
      "eventActual": "1.20%",
      "eventCountry": "China",
      "eventExpectedVolatility": "Moderate",
      "eventName": "CPI (MoM) (Aug)",
      "eventTimeZone": "GMT",
      "eventPrevious": "0.90%",
      "eventCurrency": "CNY",
      "eventForecast": ""
    },
    {
      "eventDateTime": "2007-09-01T09:00:00",
      "eventActual": "6.50%",
      "eventCountry": "China",
      "eventExpectedVolatility": "Moderate",
      "eventName": "CPI (YoY) (Aug)",
      "eventTimeZone": "GMT",
      "eventPrevious": "5.60%",
      "eventCurrency": "CNY",
      "eventForecast": ""
    },
    {
      "eventDateTime": "2007-09-01T09:00:00",
      "eventActual": "22.80%",
      "eventCountry": "China",
      "eventExpectedVolatility": "Moderate",
      "eventName": "Exports (YoY) (Aug)",
      "eventTimeZone": "GMT",
      "eventPrevious": "34.30%",
      "eventCurrency": "CNY",
      "eventForecast": ""
    },
    {
      "eventDateTime": "2007-09-01T09:00:00",
      "eventActual": "12.79%",
      "eventCountry": "China",
      "eventExpectedVolatility": "Low",
      "eventName": "FDI (Aug)",
      "eventTimeZone": "GMT",
      "eventPrevious": "12.92%",
      "eventCurrency": "CNY",
      "eventForecast": ""
    },
    {
      "eventDateTime": "2007-09-01T09:00:00",
      "eventActual": "26.70%",
      "eventCountry": "China",
      "eventExpectedVolatility": "Moderate",
      "eventName": "Fixed Asset Investment (YoY) (Aug)",
      "eventTimeZone": "GMT",
      "eventPrevious": "26.60%",
      "eventCurrency": "CNY",
      "eventForecast": ""
    },
    {
      "eventDateTime": "2007-09-01T09:00:00",
      "eventActual": "20.10%",
      "eventCountry": "China",
      "eventExpectedVolatility": "Moderate",
      "eventName": "Imports (YoY) (Aug)",
      "eventTimeZone": "GMT",
      "eventPrevious": "26.80%",
      "eventCurrency": "CNY",
      "eventForecast": ""
    },
    {
      "eventDateTime": "2007-09-01T09:00:00",
      "eventActual": "17.50%",
      "eventCountry": "China",
      "eventExpectedVolatility": "High",
      "eventName": "Industrial Production (YoY) (Aug)",
      "eventTimeZone": "GMT",
      "eventPrevious": "18.00%",
      "eventCurrency": "CNY",
      "eventForecast": ""
    },
    {
      "eventDateTime": "2007-09-01T09:00:00",
      "eventActual": "18.10%",
      "eventCountry": "China",
      "eventExpectedVolatility": "Low",
      "eventName": "M2 Money Stock (YoY) (Aug)",
      "eventTimeZone": "GMT",
      "eventPrevious": "18.50%",
      "eventCurrency": "CNY",
      "eventForecast": ""
    },
    {
      "eventDateTime": "2007-09-01T09:00:00",
      "eventActual": "54.00",
      "eventCountry": "China",
      "eventExpectedVolatility": "High",
      "eventName": "Manufacturing PMI (Aug)",
      "eventTimeZone": "GMT",
      "eventPrevious": "53.30",
      "eventCurrency": "CNY",
      "eventForecast": ""
    },
    {
      "eventDateTime": "2007-09-01T09:00:00",
      "eventActual": "302.90B",
      "eventCountry": "China",
      "eventExpectedVolatility": "Moderate",
      "eventName": "New Loans (Aug)",
      "eventTimeZone": "GMT",
      "eventPrevious": "231.40B",
      "eventCurrency": "CNY",
      "eventForecast": ""
    },
    {
      "eventDateTime": "2007-09-01T09:00:00",
      "eventActual": "61.70",
      "eventCountry": "China",
      "eventExpectedVolatility": "Moderate",
      "eventName": "Non-Manufacturing PMI (Aug)",
      "eventTimeZone": "GMT",
      "eventPrevious": "59.40",
      "eventCurrency": "CNY",
      "eventForecast": ""
    },
    {
      "eventDateTime": "2007-09-01T09:00:00",
      "eventActual": "17.00%",
      "eventCountry": "China",
      "eventExpectedVolatility": "Low",
      "eventName": "Outstanding Loan Growth (YoY) (Aug)",
      "eventTimeZone": "GMT",
      "eventPrevious": "16.60%",
      "eventCurrency": "CNY",
      "eventForecast": ""
    },
    {
      "eventDateTime": "2007-09-01T09:00:00",
      "eventActual": "3.42%",
      "eventCountry": "China",
      "eventExpectedVolatility": "Moderate",
      "eventName": "PBoC Deposit Rate (Aug)",
      "eventTimeZone": "GMT",
      "eventPrevious": "3.15%",
      "eventCurrency": "CNY",
      "eventForecast": ""
    },
    {
      "eventDateTime": "2007-09-01T09:00:00",
      "eventActual": "11.78%",
      "eventCountry": "China",
      "eventExpectedVolatility": "Moderate",
      "eventName": "PBoC Reserve Requirement Ratio (Aug)",
      "eventTimeZone": "GMT",
      "eventPrevious": "11.50%",
      "eventCurrency": "CNY",
      "eventForecast": ""
    },
    {
      "eventDateTime": "2007-09-01T09:00:00",
      "eventActual": "2.60%",
      "eventCountry": "China",
      "eventExpectedVolatility": "Moderate",
      "eventName": "PPI (YoY) (Aug)",
      "eventTimeZone": "GMT",
      "eventPrevious": "2.40%",
      "eventCurrency": "CNY",
      "eventForecast": ""
    },
    {
      "eventDateTime": "2007-09-01T09:00:00",
      "eventActual": "17.10%",
      "eventCountry": "China",
      "eventExpectedVolatility": "Low",
      "eventName": "Retail Sales (YoY) (Aug)",
      "eventTimeZone": "GMT",
      "eventPrevious": "16.40%",
      "eventCurrency": "CNY",
      "eventForecast": ""
    },
    {
      "eventDateTime": "2007-09-01T09:00:00",
      "eventActual": "25.20B",
      "eventCountry": "China",
      "eventExpectedVolatility": "Moderate",
      "eventName": "Trade Balance (USD) (Aug)",
      "eventTimeZone": "GMT",
      "eventPrevious": "24.48B",
      "eventCurrency": "CNY",
      "eventForecast": ""
    }
  ]}}
