"RBNZ Interest Rate Decision";"New Zealand";"NZD";"2019-06-26T02:00:00";"GMT";"1.50%";"1.50%";"1.50%";"High"
"RBNZ Rate Statement";"New Zealand";"NZD";"2019-06-26T02:00:00";"GMT";" ";"";"";"High"
"RBNZ Press Conference";"New Zealand";"NZD";"2019-06-26T03:00:00";"GMT";" ";"";"";"High"
