{"events": {"event": [
    {
      "eventDateTime": "2013-05-31T01:30:00",
      "eventActual": "0.3%",
      "eventCountry": "Australia",
      "eventExpectedVolatility": "Moderate",
      "eventName": "Private Sector Credit (MoM)",
      "eventTimeZone": "GMT",
      "eventPrevious": "0.2%",
      "eventCurrency": "AUD",
      "eventForecast": "0.3%"
    },
    {
      "eventDateTime": "2013-05-31T19:30:00",
      "eventActual": "-42.3K",
      "eventCountry": "Australia",
      "eventExpectedVolatility": "Moderate",
      "eventName": "CFTC AUD speculative net positions",
      "eventTimeZone": "GMT",
      "eventPrevious": "-32.4K",
      "eventCurrency": "AUD",
      "eventForecast": ""
    }
  ]}}
