{"events": {"event": {
    "eventDateTime": "2018-09-26T12:00:00",
    "eventActual": "10.0%",
    "eventCountry": "India",
    "eventExpectedVolatility": "Low",
    "eventName": "M3 Money Supply",
    "eventTimeZone": "GMT",
    "eventPrevious": "10.3%",
    "eventCurrency": "INR",
    "eventForecast": ""
  }}}
