"MBA 30-Year Mortgage Rate";"United States";"USD";"2017-05-03T11:00:00";"GMT";"4.20%";"";"4.23%";"Low"
"MBA Mortgage Applications (WoW)";"United States";"USD";"2017-05-03T11:00:00";"GMT";"2.7%";"";"-0.1%";"Low"
"MBA Purchase Index";"United States";"USD";"2017-05-03T11:00:00";"GMT";"236.0";"";"246.0";"Low"
"Mortgage Market Index";"United States";"USD";"2017-05-03T11:00:00";"GMT";"406.2";"";"405.8";"Low"
"Mortgage Refinance Index";"United States";"USD";"2017-05-03T11:00:00";"GMT";"1,365.8";"";"1,302.0";"Low"
"ADP Nonfarm Employment Change (Apr)";"United States";"USD";"2017-05-03T12:15:00";"GMT";"255K";"175K";"177K";"High"
"Markit Composite PMI (Apr)";"United States";"USD";"2017-05-03T13:45:00";"GMT";"52.7";"";"53.2";"Moderate"
"Services PMI (Apr)";"United States";"USD";"2017-05-03T13:45:00";"GMT";"52.5";"52.5";"53.1";"Moderate"
"ISM Non-Manufacturing Business Activity (Apr)";"United States";"USD";"2017-05-03T14:00:00";"GMT";"58.9";"58.4";"62.4";"Low"
"ISM Non-Manufacturing Employment (Apr)";"United States";"USD";"2017-05-03T14:00:00";"GMT";"51.6";"";"51.4";"Moderate"
"ISM Non-Manufacturing New Orders (Apr)";"United States";"USD";"2017-05-03T14:00:00";"GMT";"58.9";"";"63.2";"Low"
"ISM Non-Manufacturing PMI (Apr)";"United States";"USD";"2017-05-03T14:00:00";"GMT";"55.2";"55.8";"57.5";"High"
"ISM Non-Manufacturing Prices (Apr)";"United States";"USD";"2017-05-03T14:00:00";"GMT";"53.5";"";"57.6";"Low"
"Crude Oil Imports";"United States";"USD";"2017-05-03T14:30:00";"GMT";"0.515M";"";"-0.034M";"Low"
"Crude Oil Inventories";"United States";"USD";"2017-05-03T14:30:00";"GMT";"-3.641M";"-2.333M";"-0.930M";"High"
"Cushing Crude Oil Inventories";"United States";"USD";"2017-05-03T14:30:00";"GMT";"-1.203M";"";"-0.728M";"Moderate"
"Distillate Fuel Production";"United States";"USD";"2017-05-03T14:30:00";"GMT";"-0.087M";"";"0.038M";"Low"
"EIA Weekly Distillates Stocks";"United States";"USD";"2017-05-03T14:30:00";"GMT";"2.651M";"0.723M";"-0.562M";"Low"
"Gasoline Inventories";"United States";"USD";"2017-05-03T14:30:00";"GMT";"3.369M";"1.322M";"0.191M";"Low"
"Gasoline Production";"United States";"USD";"2017-05-03T14:30:00";"GMT";"-0.084M";"";"0.073M";"Low"
"Heating Oil Stockpiles";"United States";"USD";"2017-05-03T14:30:00";"GMT";"0.014M";"";"-0.265M";"Low"
"FOMC Statement";"United States";"USD";"2017-05-03T18:00:00";"GMT";" ";"";"";"High"
"Fed Interest Rate Decision";"United States";"USD";"2017-05-03T18:00:00";"GMT";"1.00%";"1.00%";"1.00%";"High"
