{"events": {"event": {
    "eventDateTime": "2014-03-05T01:45:00",
    "eventActual": "51.0",
    "eventCountry": "China",
    "eventExpectedVolatility": "Moderate",
    "eventName": "Caixin Services PMI",
    "eventTimeZone": "GMT",
    "eventPrevious": "50.7",
    "eventCurrency": "CNY",
    "eventForecast": ""
  }}}
