"FOMC Member Yellen Speaks";"United States";"USD";"2013-06-03T01:50:00";"GMT";" ";"";"";"Moderate"
"Manufacturing PMI";"United States";"USD";"2013-06-03T12:58:00";"GMT";"52.00";"52.00";"52.30";"Moderate"
"Construction Spending (MoM)";"United States";"USD";"2013-06-03T14:00:00";"GMT";"-0.8%";"0.8%";"0.4%";"Low"
"ISM Manufacturing PMI";"United States";"USD";"2013-06-03T14:00:00";"GMT";"50.7";"50.7";"49.0";"High"
"ISM Manufacturing Prices";"United States";"USD";"2013-06-03T14:00:00";"GMT";"50.0";"49.6";"49.5";"Low"
"3-Month Bill Auction";"United States";"USD";"2013-06-03T15:30:00";"GMT";"0.045%";"";"0.045%";"Low"
"6-Month Bill Auction";"United States";"USD";"2013-06-03T15:30:00";"GMT";"0.080%";"";"0.080%";"Low"
"Total Vehicle Sales";"United States";"USD";"2013-06-03T20:00:00";"GMT";"14.87M";"15.10M";"15.30M";"Low"
