{"events": {"event": {
    "eventDateTime": "2014-09-17T10:30:00",
    "eventActual": "13.2%",
    "eventCountry": "India",
    "eventExpectedVolatility": "Low",
    "eventName": "M3 Money Supply",
    "eventTimeZone": "GMT",
    "eventPrevious": "13.0%",
    "eventCurrency": "INR",
    "eventForecast": ""
  }}}
