"OPEC Monthly Report";"United States";"USD";"2020-01-15T11:00:00";"GMT";" ";"";"";"Moderate"
"MBA 30-Year Mortgage Rate";"United States";"USD";"2020-01-15T12:00:00";"GMT";"3.91%";"";"3.87%";"Low"
"MBA Mortgage Applications (WoW)";"United States";"USD";"2020-01-15T12:00:00";"GMT";"13.5%";"";"30.2%";"Low"
"MBA Purchase Index";"United States";"USD";"2020-01-15T12:00:00";"GMT";"263.2";"";"303.9";"Low"
"Mortgage Market Index";"United States";"USD";"2020-01-15T12:00:00";"GMT";"471.3";"";"613.6";"Low"
"Mortgage Refinance Index";"United States";"USD";"2020-01-15T12:00:00";"GMT";"1,713.7";"";"2,444.7";"Low"
"Core PPI (MoM) (Dec)";"United States";"USD";"2020-01-15T13:30:00";"GMT";"-0.2%";"0.2%";"0.1%";"Moderate"
"Core PPI (YoY) (Dec)";"United States";"USD";"2020-01-15T13:30:00";"GMT";"1.3%";"1.3%";"1.1%";"Low"
"NY Empire State Manufacturing Index (Jan)";"United States";"USD";"2020-01-15T13:30:00";"GMT";"3.50";"3.55";"4.80";"Moderate"
"PPI (MoM) (Dec)";"United States";"USD";"2020-01-15T13:30:00";"GMT";"0.0%";"0.2%";"0.1%";"High"
"PPI (YoY) (Dec)";"United States";"USD";"2020-01-15T13:30:00";"GMT";"1.1%";"1.3%";"1.3%";"Low"
"Crude Oil Imports";"United States";"USD";"2020-01-15T15:30:00";"GMT";"1.776M";"";"-0.595M";"Low"
"Crude Oil Inventories";"United States";"USD";"2020-01-15T15:30:00";"GMT";"1.164M";"-0.474M";"-2.549M";"High"
"Cushing Crude Oil Inventories";"United States";"USD";"2020-01-15T15:30:00";"GMT";"-0.821M";"";"0.342M";"Moderate"
"Distillate Fuel Production";"United States";"USD";"2020-01-15T15:30:00";"GMT";"-0.001M";"";"-0.105M";"Low"
"EIA Refinery Crude Runs (WoW)";"United States";"USD";"2020-01-15T15:30:00";"GMT";"-0.386M";"";"0.076M";"Low"
"EIA Weekly Distillates Stocks";"United States";"USD";"2020-01-15T15:30:00";"GMT";"5.330M";"1.214M";"8.171M";"Low"
"EIA Weekly Refinery Utilization Rates (WoW)";"United States";"USD";"2020-01-15T15:30:00";"GMT";"-1.5%";"-0.1%";"-0.8%";"Low"
"Gasoline Inventories";"United States";"USD";"2020-01-15T15:30:00";"GMT";"9.137M";"3.386M";"6.678M";"Low"
"Gasoline Production";"United States";"USD";"2020-01-15T15:30:00";"GMT";"-1.286M";"";"0.394M";"Low"
"Heating Oil Stockpiles";"United States";"USD";"2020-01-15T15:30:00";"GMT";"-0.084M";"";"-0.168M";"Low"
"FOMC Member Harker Speaks";"United States";"USD";"2020-01-15T16:00:00";"GMT";" ";"";"";"Moderate"
"FOMC Member Kaplan Speaks";"United States";"USD";"2020-01-15T17:00:00";"GMT";" ";"";"";"Moderate"
"Beige Book";"United States";"USD";"2020-01-15T19:00:00";"GMT";" ";"";"";"Moderate"
