"Investing.com USD/JPY Index";"Japan";"JPY";"2017-02-27T06:30:00";"GMT";"66.0%";"";"67.9%";"Moderate"
"Industrial Production (MoM) (Jan)";"Japan";"JPY";"2017-02-27T23:50:00";"GMT";"0.7%";"0.3%";"-0.8%";"Moderate"
"Industrial Production forecast 1m ahead (MoM) (Jan)";"Japan";"JPY";"2017-02-27T23:50:00";"GMT";"3.0%";"";"3.5%";"Low"
"Industrial Production forecast 2m ahead (MoM) (Jan)";"Japan";"JPY";"2017-02-27T23:50:00";"GMT";"0.8%";"";"-5.0%";"Low"
"Retail Sales (YoY) (Jan)";"Japan";"JPY";"2017-02-27T23:50:00";"GMT";"0.6%";"0.9%";"1.0%";"Moderate"
