{"events": {"event": [
    {
      "eventDateTime": "2015-09-25T05:00:00",
      "eventActual": "-3.7%",
      "eventCountry": "Singapore",
      "eventExpectedVolatility": "Low",
      "eventName": "Industrial Production (MoM) (Aug)",
      "eventTimeZone": "GMT",
      "eventPrevious": "0.7%",
      "eventCurrency": "SGD",
      "eventForecast": "-0.2%"
    },
    {
      "eventDateTime": "2015-09-25T05:00:00",
      "eventActual": "-7.0%",
      "eventCountry": "Singapore",
      "eventExpectedVolatility": "Low",
      "eventName": "Industrial Production (YoY) (Aug)",
      "eventTimeZone": "GMT",
      "eventPrevious": "-6.4%",
      "eventCurrency": "SGD",
      "eventForecast": "-5.0%"
    }
  ]}}
