"Nationwide HPI (MoM) (Aug)";"United Kingdom";"GBP";"2015-08-27T06:00:00";"GMT";"0.4%";"0.4%";"0.3%";"Moderate"
"Nationwide HPI (YoY) (Aug)";"United Kingdom";"GBP";"2015-08-27T06:00:00";"GMT";"3.5%";"3.1%";"3.2%";"Moderate"
"GfK Consumer Confidence (Aug)";"United Kingdom";"GBP";"2015-08-27T23:01:00";"GMT";"4";"4";"7";"Low"
