{"events": {"event": [
    {
      "eventDateTime": "2000-02-04T12:30:00",
      "eventActual": "231K",
      "eventCountry": "United States",
      "eventExpectedVolatility": "High",
      "eventName": "Nonfarm Payrolls (Jan)",
      "eventTimeZone": "GMT",
      "eventPrevious": "295K",
      "eventCurrency": "USD",
      "eventForecast": ""
    },
    {
      "eventDateTime": "2000-02-04T17:00:00",
      "eventActual": "133",
      "eventCountry": "United States",
      "eventExpectedVolatility": "Moderate",
      "eventName": "U.S. Baker Hughes Oil Rig Count",
      "eventTimeZone": "GMT",
      "eventPrevious": "131",
      "eventCurrency": "USD",
      "eventForecast": ""
    },
    {
      "eventDateTime": "2000-02-04T20:30:00",
      "eventActual": "45.2k",
      "eventCountry": "United States",
      "eventExpectedVolatility": "Moderate",
      "eventName": "CFTC Crude Oil speculative net positions",
      "eventTimeZone": "GMT",
      "eventPrevious": "37.4k",
      "eventCurrency": "USD",
      "eventForecast": ""
    }
  ]}}
