{"events": {"event": [
    {
      "eventDateTime": "2016-06-10T10:30:00",
      "eventActual": "10.50%",
      "eventCountry": "Russia",
      "eventExpectedVolatility": "High",
      "eventName": "Interest Rate Decision (Jun)",
      "eventTimeZone": "GMT",
      "eventPrevious": "11.00%",
      "eventCurrency": "RUB",
      "eventForecast": "10.50%"
    },
    {
      "eventDateTime": "2016-06-10T13:00:00",
      "eventActual": "6.75B",
      "eventCountry": "Russia",
      "eventExpectedVolatility": "Low",
      "eventName": "Trade Balance (Apr)",
      "eventTimeZone": "GMT",
      "eventPrevious": "7.70B",
      "eventCurrency": "RUB",
      "eventForecast": "8.80B"
    },
    {
      "eventDateTime": "2016-06-10T19:30:00",
      "eventActual": "4.2K",
      "eventCountry": "Russia",
      "eventExpectedVolatility": "Moderate",
      "eventName": "CFTC RUB speculative positions",
      "eventTimeZone": "GMT",
      "eventPrevious": "4.6K",
      "eventCurrency": "RUB",
      "eventForecast": ""
    }
  ]}}
