{"events": {"event": {
    "eventDateTime": "2017-02-01T14:30:00",
    "eventActual": "53.5",
    "eventCountry": "Canada",
    "eventExpectedVolatility": "Low",
    "eventName": "RBC Manufacturing PMI (Jan)",
    "eventTimeZone": "GMT",
    "eventPrevious": "51.8",
    "eventCurrency": "CAD",
    "eventForecast": ""
  }}}
