{"events": {"event": {
    "eventDateTime": "2012-01-02T22:30:00",
    "eventActual": "50.2",
    "eventCountry": "Australia",
    "eventExpectedVolatility": "Moderate",
    "eventName": "AIG Manufacturing Index",
    "eventTimeZone": "GMT",
    "eventPrevious": "47.8",
    "eventCurrency": "AUD",
    "eventForecast": ""
  }}}
