{"events": {"event": {
    "eventDateTime": "2019-07-02T21:00:00",
    "eventActual": "403.07B",
    "eventCountry": "South Korea",
    "eventExpectedVolatility": "Low",
    "eventName": "FX Reserves - USD (Jun)",
    "eventTimeZone": "GMT",
    "eventPrevious": "401.97B",
    "eventCurrency": "KRW",
    "eventForecast": "402.57B"
  }}}
