{"events": {"event": {
    "eventDateTime": "2014-09-12T19:30:00",
    "eventActual": "11.6K",
    "eventCountry": "Canada",
    "eventExpectedVolatility": "Low",
    "eventName": "CFTC CAD speculative net positions",
    "eventTimeZone": "GMT",
    "eventPrevious": "9.2K",
    "eventCurrency": "CAD",
    "eventForecast": ""
  }}}
