{"events": {"event": [
    {
      "eventDateTime": "2012-05-10T01:30:00",
      "eventActual": "15.5K",
      "eventCountry": "Australia",
      "eventExpectedVolatility": "High",
      "eventName": "Employment Change",
      "eventTimeZone": "GMT",
      "eventPrevious": "44.0K",
      "eventCurrency": "AUD",
      "eventForecast": "-5.5K"
    },
    {
      "eventDateTime": "2012-05-10T01:30:00",
      "eventActual": "4.9%",
      "eventCountry": "Australia",
      "eventExpectedVolatility": "Moderate",
      "eventName": "Unemployment Rate",
      "eventTimeZone": "GMT",
      "eventPrevious": "5.2%",
      "eventCurrency": "AUD",
      "eventForecast": "5.3%"
    }
  ]}}
