"Core Retail Sales (MoM) (Nov)";"United States";"USD";"2018-12-14T13:30:00";"GMT";"1.0%";"0.2%";"0.2%";"High"
"Retail Control (MoM) (Nov)";"United States";"USD";"2018-12-14T13:30:00";"GMT";"0.7%";"0.4%";"0.9%";"Low"
"Retail Sales (MoM) (Nov)";"United States";"USD";"2018-12-14T13:30:00";"GMT";"1.1%";"0.1%";"0.2%";"High"
"Retail Sales Ex Gas/Autos (MoM) (Nov)";"United States";"USD";"2018-12-14T13:30:00";"GMT";"0.7%";"";"0.5%";"Low"
"Capacity Utilization Rate (Nov)";"United States";"USD";"2018-12-14T14:15:00";"GMT";"78.1%";"78.6%";"78.5%";"Low"
"Industrial Production (MoM) (Nov)";"United States";"USD";"2018-12-14T14:15:00";"GMT";"-0.2%";"0.3%";"0.6%";"Moderate"
"Industrial Production (YoY)";"United States";"USD";"2018-12-14T14:15:00";"GMT";"4.1%";"";"3.9%";"Moderate"
"Manufacturing Production (MoM) (Nov)";"United States";"USD";"2018-12-14T14:15:00";"GMT";"-0.1%";"0.3%";"0.0%";"Low"
"Manufacturing PMI (Dec)";"United States";"USD";"2018-12-14T14:45:00";"GMT";"55.3";"55.1";"53.9";"Moderate"
"Services PMI (Dec)";"United States";"USD";"2018-12-14T14:45:00";"GMT";"54.7";"54.7";"53.4";"Moderate"
"Business Inventories (MoM) (Oct)";"United States";"USD";"2018-12-14T15:00:00";"GMT";"0.5%";"0.6%";"0.6%";"Moderate"
"U.S. Baker Hughes Oil Rig Count";"United States";"USD";"2018-12-14T18:00:00";"GMT";"877";"";"873";"Moderate"
"U.S. Baker Hughes Total Rig Count";"United States";"USD";"2018-12-14T18:00:00";"GMT";"1,075";"";"1,071";"Moderate"
"CFTC Copper speculative net positions";"United States";"USD";"2018-12-14T20:30:00";"GMT";"10.7K";"";"7.2K";"Low"
"CFTC Corn speculative net positions";"United States";"USD";"2018-12-14T20:30:00";"GMT";"123.7K";"";"171.7K";"Low"
"CFTC Crude Oil speculative net positions";"United States";"USD";"2018-12-14T20:30:00";"GMT";"330.1K";"";"309.5K";"Moderate"
"CFTC Gold speculative net positions";"United States";"USD";"2018-12-14T20:30:00";"GMT";"49.0K";"";"60.5K";"Moderate"
"CFTC Sandamp:P 500 speculative net positions";"United States";"USD";"2018-12-14T20:30:00";"GMT";"104.1K";"";"174.2K";"Moderate"
"CFTC Silver speculative net positions";"United States";"USD";"2018-12-14T20:30:00";"GMT";"-0.6K";"";"11.3K";"Low"
"CFTC Soybeans speculative net positions";"United States";"USD";"2018-12-14T20:30:00";"GMT";"9.0K";"";"5.9K";"Low"
"CFTC Wheat speculative net positions";"United States";"USD";"2018-12-14T20:30:00";"GMT";"-2.1K";"";"1.7K";"Low"
