{"events": {"event": [
    {
      "eventDateTime": "2008-04-01T09:00:00",
      "eventActual": "12.15%",
      "eventCountry": "Brazil",
      "eventExpectedVolatility": "Low",
      "eventName": "Auto Production (MoM) (Mar)",
      "eventTimeZone": "GMT",
      "eventPrevious": "-1.34%",
      "eventCurrency": "BRL",
      "eventForecast": ""
    },
    {
      "eventDateTime": "2008-04-01T09:00:00",
      "eventActual": "15.59%",
      "eventCountry": "Brazil",
      "eventExpectedVolatility": "Low",
      "eventName": "Auto Sales (MoM) (Mar)",
      "eventTimeZone": "GMT",
      "eventPrevious": "-6.57%",
      "eventCurrency": "BRL",
      "eventForecast": ""
    },
    {
      "eventDateTime": "2008-04-01T09:00:00",
      "eventActual": "3.53%",
      "eventCountry": "Brazil",
      "eventExpectedVolatility": "Low",
      "eventName": "Bank lending (MoM) (Mar)",
      "eventTimeZone": "GMT",
      "eventPrevious": "1.47%",
      "eventCurrency": "BRL",
      "eventForecast": ""
    },
    {
      "eventDateTime": "2008-04-01T09:00:00",
      "eventActual": "1.57B",
      "eventCountry": "Brazil",
      "eventExpectedVolatility": "Low",
      "eventName": "Budget Balance (Mar)",
      "eventTimeZone": "GMT",
      "eventPrevious": "-7.94B",
      "eventCurrency": "BRL",
      "eventForecast": ""
    },
    {
      "eventDateTime": "2008-04-01T09:00:00",
      "eventActual": "13.19B",
      "eventCountry": "Brazil",
      "eventExpectedVolatility": "Low",
      "eventName": "Budget Surplus (Mar)",
      "eventTimeZone": "GMT",
      "eventPrevious": "7.80B",
      "eventCurrency": "BRL",
      "eventForecast": ""
    },
    {
      "eventDateTime": "2008-04-01T09:00:00",
      "eventActual": "207.00K",
      "eventCountry": "Brazil",
      "eventExpectedVolatility": "Moderate",
      "eventName": "CAGED Net Payroll Jobs (Mar)",
      "eventTimeZone": "GMT",
      "eventPrevious": "205.00K",
      "eventCurrency": "BRL",
      "eventForecast": ""
    },
    {
      "eventDateTime": "2008-04-01T09:00:00",
      "eventActual": "83.80%",
      "eventCountry": "Brazil",
      "eventExpectedVolatility": "Low",
      "eventName": "CNI Factory Utilization (Mar)",
      "eventTimeZone": "GMT",
      "eventPrevious": "84.40%",
      "eventCurrency": "BRL",
      "eventForecast": ""
    },
    {
      "eventDateTime": "2008-04-01T09:00:00",
      "eventActual": "0.48%",
      "eventCountry": "Brazil",
      "eventExpectedVolatility": "Moderate",
      "eventName": "CPI (MoM) (Mar)",
      "eventTimeZone": "GMT",
      "eventPrevious": "0.49%",
      "eventCurrency": "BRL",
      "eventForecast": ""
    },
    {
      "eventDateTime": "2008-04-01T09:00:00",
      "eventActual": "4.73%",
      "eventCountry": "Brazil",
      "eventExpectedVolatility": "Moderate",
      "eventName": "CPI (YoY) (Mar)",
      "eventTimeZone": "GMT",
      "eventPrevious": "4.61%",
      "eventCurrency": "BRL",
      "eventForecast": ""
    },
    {
      "eventDateTime": "2008-04-01T09:00:00",
      "eventActual": "43.00%",
      "eventCountry": "Brazil",
      "eventExpectedVolatility": "Low",
      "eventName": "Debt-to-GDP ratio (Mar)",
      "eventTimeZone": "GMT",
      "eventPrevious": "43.90%",
      "eventCurrency": "BRL",
      "eventForecast": ""
    },
    {
      "eventDateTime": "2008-04-01T09:00:00",
      "eventActual": "120.10",
      "eventCountry": "Brazil",
      "eventExpectedVolatility": "Low",
      "eventName": "FGV Consumer confidence (Mar)",
      "eventTimeZone": "GMT",
      "eventPrevious": "116.20",
      "eventCurrency": "BRL",
      "eventForecast": ""
    },
    {
      "eventDateTime": "2008-04-01T09:00:00",
      "eventActual": "52.00B",
      "eventCountry": "Brazil",
      "eventExpectedVolatility": "Low",
      "eventName": "Federal Tax Revenue (Mar)",
      "eventTimeZone": "GMT",
      "eventPrevious": "49.00B",
      "eventCurrency": "BRL",
      "eventForecast": ""
    },
    {
      "eventDateTime": "2008-04-01T09:00:00",
      "eventActual": "3.08B",
      "eventCountry": "Brazil",
      "eventExpectedVolatility": "Low",
      "eventName": "Foreign direct investment (USD) (Mar)",
      "eventTimeZone": "GMT",
      "eventPrevious": "0.89B",
      "eventCurrency": "BRL",
      "eventForecast": ""
    },
    {
      "eventDateTime": "2008-04-01T09:00:00",
      "eventActual": "0.94%",
      "eventCountry": "Brazil",
      "eventExpectedVolatility": "Low",
      "eventName": "IBC-Br Economic Activity (Mar)",
      "eventTimeZone": "GMT",
      "eventPrevious": "-1.27%",
      "eventCurrency": "BRL",
      "eventForecast": ""
    },
    {
      "eventDateTime": "2008-04-01T09:00:00",
      "eventActual": "0.70%",
      "eventCountry": "Brazil",
      "eventExpectedVolatility": "Low",
      "eventName": "IGP-DI Inflation Index (MoM) (Mar)",
      "eventTimeZone": "GMT",
      "eventPrevious": "0.38%",
      "eventCurrency": "BRL",
      "eventForecast": ""
    },
    {
      "eventDateTime": "2008-04-01T09:00:00",
      "eventActual": "0.74%",
      "eventCountry": "Brazil",
      "eventExpectedVolatility": "Low",
      "eventName": "IGP-M Inflation Index (MoM) (Mar)",
      "eventTimeZone": "GMT",
      "eventPrevious": "0.53%",
      "eventCurrency": "BRL",
      "eventForecast": ""
    },
    {
      "eventDateTime": "2008-04-01T09:00:00",
      "eventActual": "0.31%",
      "eventCountry": "Brazil",
      "eventExpectedVolatility": "Moderate",
      "eventName": "IPC-Fipe Inflation Index (MoM) (Mar)",
      "eventTimeZone": "GMT",
      "eventPrevious": "0.19%",
      "eventCurrency": "BRL",
      "eventForecast": ""
    },
    {
      "eventDateTime": "2008-04-01T09:00:00",
      "eventActual": "0.50%",
      "eventCountry": "Brazil",
      "eventExpectedVolatility": "Low",
      "eventName": "Industrial Production (MoM) (Mar)",
      "eventTimeZone": "GMT",
      "eventPrevious": "-1.18%",
      "eventCurrency": "BRL",
      "eventForecast": ""
    },
    {
      "eventDateTime": "2008-04-01T09:00:00",
      "eventActual": "1.35%",
      "eventCountry": "Brazil",
      "eventExpectedVolatility": "Moderate",
      "eventName": "Industrial Production (YoY) (Mar)",
      "eventTimeZone": "GMT",
      "eventPrevious": "10.29%",
      "eventCurrency": "BRL",
      "eventForecast": ""
    },
    {
      "eventDateTime": "2008-04-01T09:00:00",
      "eventActual": "11.25%",
      "eventCountry": "Brazil",
      "eventExpectedVolatility": "Moderate",
      "eventName": "Interest Rate Decision (Mar)",
      "eventTimeZone": "GMT",
      "eventPrevious": "11.25%",
      "eventCurrency": "BRL",
      "eventForecast": ""
    },
    {
      "eventDateTime": "2008-04-01T09:00:00",
      "eventActual": "0.23%",
      "eventCountry": "Brazil",
      "eventExpectedVolatility": "Low",
      "eventName": "Mid-Month CPI (MoM) (Mar)",
      "eventTimeZone": "GMT",
      "eventPrevious": "0.64%",
      "eventCurrency": "BRL",
      "eventForecast": ""
    },
    {
      "eventDateTime": "2008-04-01T09:00:00",
      "eventActual": "4.55%",
      "eventCountry": "Brazil",
      "eventExpectedVolatility": "Low",
      "eventName": "Mid-Month CPI (YoY) (Mar)",
      "eventTimeZone": "GMT",
      "eventPrevious": "4.74%",
      "eventCurrency": "BRL",
      "eventForecast": ""
    },
    {
      "eventDateTime": "2008-04-01T09:00:00",
      "eventActual": "2.22%",
      "eventCountry": "Brazil",
      "eventExpectedVolatility": "Moderate",
      "eventName": "Retail Sales (MoM) (Mar)",
      "eventTimeZone": "GMT",
      "eventPrevious": "-1.42%",
      "eventCurrency": "BRL",
      "eventForecast": ""
    },
    {
      "eventDateTime": "2008-04-01T09:00:00",
      "eventActual": "11.11%",
      "eventCountry": "Brazil",
      "eventExpectedVolatility": "Moderate",
      "eventName": "Retail Sales (YoY) (Mar)",
      "eventTimeZone": "GMT",
      "eventPrevious": "12.85%",
      "eventCurrency": "BRL",
      "eventForecast": ""
    },
    {
      "eventDateTime": "2008-04-01T09:00:00",
      "eventActual": "0.99B",
      "eventCountry": "Brazil",
      "eventExpectedVolatility": "Low",
      "eventName": "Trade Balance (Mar)",
      "eventTimeZone": "GMT",
      "eventPrevious": "0.85B",
      "eventCurrency": "BRL",
      "eventForecast": ""
    },
    {
      "eventDateTime": "2008-04-01T09:00:00",
      "eventActual": "8.60%",
      "eventCountry": "Brazil",
      "eventExpectedVolatility": "Moderate",
      "eventName": "Unemployment Rate (Mar)",
      "eventTimeZone": "GMT",
      "eventPrevious": "8.70%",
      "eventCurrency": "BRL",
      "eventForecast": ""
    }
  ]}}
