"National CPI (YoY) (Jan)";"Japan";"JPY";"2016-02-25T23:30:00";"GMT";"0.2%";"0.0%";"0.0%";"Low"
"National Core CPI (YoY) (Jan)";"Japan";"JPY";"2016-02-25T23:30:00";"GMT";"0.1%";"-0.2%";"0.0%";"Moderate"
"Tokyo CPI (YoY) (Feb)";"Japan";"JPY";"2016-02-25T23:30:00";"GMT";"-0.3%";"-0.3%";"0.1%";"Low"
"Tokyo Core CPI (YoY) (Feb)";"Japan";"JPY";"2016-02-25T23:30:00";"GMT";"-0.1%";"-0.2%";"-0.1%";"Moderate"
