{"events": {"event": {
    "eventDateTime": "2019-06-05T06:00:00",
    "eventActual": "52.0",
    "eventCountry": "Russia",
    "eventExpectedVolatility": "Moderate",
    "eventName": "Markit Services PMI (May)",
    "eventTimeZone": "GMT",
    "eventPrevious": "52.6",
    "eventCurrency": "RUB",
    "eventForecast": ""
  }}}
