{"events": {"event": {
    "eventDateTime": "2008-10-08T00:30:00",
    "eventActual": "-2.2%",
    "eventCountry": "Australia",
    "eventExpectedVolatility": "Moderate",
    "eventName": "Home Loans (MoM)",
    "eventTimeZone": "GMT",
    "eventPrevious": "-0.2%",
    "eventCurrency": "AUD",
    "eventForecast": "-1.0%"
  }}}
