{"events": {"event": [
    {
      "eventDateTime": "2010-02-05T07:45:00",
      "eventActual": "-138.0B",
      "eventCountry": "France",
      "eventExpectedVolatility": "Low",
      "eventName": "French Government Budget Balance",
      "eventTimeZone": "GMT",
      "eventPrevious": "-143.3B",
      "eventCurrency": "EUR",
      "eventForecast": ""
    },
    {
      "eventDateTime": "2010-02-05T07:45:00",
      "eventActual": "-4.3B",
      "eventCountry": "France",
      "eventExpectedVolatility": "Low",
      "eventName": "French Trade Balance",
      "eventTimeZone": "GMT",
      "eventPrevious": "-5.0B",
      "eventCurrency": "EUR",
      "eventForecast": "-4.6B"
    },
    {
      "eventDateTime": "2010-02-05T10:00:00",
      "eventActual": "0.1%",
      "eventCountry": "Italy",
      "eventExpectedVolatility": "Moderate",
      "eventName": "Italian CPI (MoM)",
      "eventTimeZone": "GMT",
      "eventPrevious": "0.2%",
      "eventCurrency": "EUR",
      "eventForecast": "0.4%"
    },
    {
      "eventDateTime": "2010-02-05T11:00:00",
      "eventActual": "-2.6%",
      "eventCountry": "Germany",
      "eventExpectedVolatility": "Moderate",
      "eventName": "German Industrial Production (MoM)",
      "eventTimeZone": "GMT",
      "eventPrevious": "0.7%",
      "eventCurrency": "EUR",
      "eventForecast": "0.7%"
    },
    {
      "eventDateTime": "2010-02-05T20:30:00",
      "eventActual": "-43.7K",
      "eventCountry": "Euro Zone",
      "eventExpectedVolatility": "Moderate",
      "eventName": "CFTC EUR speculative net positions",
      "eventTimeZone": "GMT",
      "eventPrevious": "-39.5K",
      "eventCurrency": "EUR",
      "eventForecast": ""
    }
  ]}}
