{"events": {"event": [
    {
      "eventDateTime": "2011-11-07T09:30:00",
      "eventActual": "-21.2",
      "eventCountry": "Euro Zone",
      "eventExpectedVolatility": "Low",
      "eventName": "Sentix Investor Confidence",
      "eventTimeZone": "GMT",
      "eventPrevious": "-18.5",
      "eventCurrency": "EUR",
      "eventForecast": "-20.0"
    },
    {
      "eventDateTime": "2011-11-07T10:00:00",
      "eventActual": "-0.7%",
      "eventCountry": "Euro Zone",
      "eventExpectedVolatility": "Moderate",
      "eventName": "Retail Sales (MoM)",
      "eventTimeZone": "GMT",
      "eventPrevious": "0.1%",
      "eventCurrency": "EUR",
      "eventForecast": "-0.1%"
    },
    {
      "eventDateTime": "2011-11-07T11:00:00",
      "eventActual": "-2.7%",
      "eventCountry": "Germany",
      "eventExpectedVolatility": "Moderate",
      "eventName": "German Industrial Production (MoM)",
      "eventTimeZone": "GMT",
      "eventPrevious": "-0.4%",
      "eventCurrency": "EUR",
      "eventForecast": "-0.7%"
    }
  ]}}
