{"events": {"event": {
    "eventDateTime": "2017-02-03T20:30:00",
    "eventActual": "-17.1K",
    "eventCountry": "Switzerland",
    "eventExpectedVolatility": "Low",
    "eventName": "CFTC CHF speculative net positions",
    "eventTimeZone": "GMT",
    "eventPrevious": "-13.6K",
    "eventCurrency": "CHF",
    "eventForecast": ""
  }}}
