"BoJ Interest Rate Decision";"Japan";"JPY";"2012-04-27T03:30:00";"GMT";"0.10%";"0.10%";"0.10%";"Moderate"
"Housing Starts (YoY)";"Japan";"JPY";"2012-04-27T05:00:00";"GMT";"7.5%";"8.1%";"5.0%";"Low"
"BoJ Press Conference";"Japan";"JPY";"2012-04-27T07:35:00";"GMT";" ";"";"";"High"
"CFTC JPY speculative net positions";"Japan";"JPY";"2012-04-27T19:30:00";"GMT";"-57.8K";"";"-55.9K";"Moderate"
