{"events": {"event": {
    "eventDateTime": "2014-05-20T12:00:00",
    "eventActual": "2.4%",
    "eventCountry": "Russia",
    "eventExpectedVolatility": "Low",
    "eventName": "Industrial Production (YoY)",
    "eventTimeZone": "GMT",
    "eventPrevious": "1.4%",
    "eventCurrency": "RUB",
    "eventForecast": "0.9%"
  }}}
