{"events": {"event": [
    {
      "eventDateTime": "2016-05-17T04:30:00",
      "eventActual": "3.2%",
      "eventCountry": "Japan",
      "eventExpectedVolatility": "Low",
      "eventName": "Capacity Utilization (MoM) (Mar)",
      "eventTimeZone": "GMT",
      "eventPrevious": "-5.4%",
      "eventCurrency": "JPY",
      "eventForecast": ""
    },
    {
      "eventDateTime": "2016-05-17T04:30:00",
      "eventActual": "3.8%",
      "eventCountry": "Japan",
      "eventExpectedVolatility": "Moderate",
      "eventName": "Industrial Production (MoM) (Mar)",
      "eventTimeZone": "GMT",
      "eventPrevious": "3.6%",
      "eventCurrency": "JPY",
      "eventForecast": "3.6%"
    },
    {
      "eventDateTime": "2016-05-17T23:50:00",
      "eventActual": "0.4%",
      "eventCountry": "Japan",
      "eventExpectedVolatility": "High",
      "eventName": "GDP (QoQ) (Q1)",
      "eventTimeZone": "GMT",
      "eventPrevious": "-0.4%",
      "eventCurrency": "JPY",
      "eventForecast": "0.1%"
    },
    {
      "eventDateTime": "2016-05-17T23:50:00",
      "eventActual": "1.7%",
      "eventCountry": "Japan",
      "eventExpectedVolatility": "Moderate",
      "eventName": "GDP (YoY) (Q1)",
      "eventTimeZone": "GMT",
      "eventPrevious": "-1.7%",
      "eventCurrency": "JPY",
      "eventForecast": "0.2%"
    },
    {
      "eventDateTime": "2016-05-17T23:50:00",
      "eventActual": "-1.4%",
      "eventCountry": "Japan",
      "eventExpectedVolatility": "Low",
      "eventName": "GDP Capital Expenditure (QoQ) (Q1)",
      "eventTimeZone": "GMT",
      "eventPrevious": "1.2%",
      "eventCurrency": "JPY",
      "eventForecast": "-0.8%"
    },
    {
      "eventDateTime": "2016-05-17T23:50:00",
      "eventActual": "0.2%",
      "eventCountry": "Japan",
      "eventExpectedVolatility": "Low",
      "eventName": "GDP External Demand (QoQ) (Q1)",
      "eventTimeZone": "GMT",
      "eventPrevious": "0.1%",
      "eventCurrency": "JPY",
      "eventForecast": "0.1%"
    },
    {
      "eventDateTime": "2016-05-17T23:50:00",
      "eventActual": "0.9%",
      "eventCountry": "Japan",
      "eventExpectedVolatility": "Low",
      "eventName": "GDP Price Index (YoY)",
      "eventTimeZone": "GMT",
      "eventPrevious": "1.5%",
      "eventCurrency": "JPY",
      "eventForecast": "1.0%"
    },
    {
      "eventDateTime": "2016-05-17T23:50:00",
      "eventActual": "0.5%",
      "eventCountry": "Japan",
      "eventExpectedVolatility": "Low",
      "eventName": "GDP Private Consumption (QoQ) (Q1)",
      "eventTimeZone": "GMT",
      "eventPrevious": "-0.8%",
      "eventCurrency": "JPY",
      "eventForecast": "0.2%"
    }
  ]}}
