{"events": {"event": [
    {
      "eventDateTime": "2010-03-30T13:00:00",
      "eventActual": "-0.7%",
      "eventCountry": "United States",
      "eventExpectedVolatility": "Moderate",
      "eventName": "Sandamp;P/CS HPI Composite - 20 n.s.a. (YoY)",
      "eventTimeZone": "GMT",
      "eventPrevious": "-3.1%",
      "eventCurrency": "USD",
      "eventForecast": "-0.5%"
    },
    {
      "eventDateTime": "2010-03-30T14:00:00",
      "eventActual": "52.5",
      "eventCountry": "United States",
      "eventExpectedVolatility": "High",
      "eventName": "CB Consumer Confidence",
      "eventTimeZone": "GMT",
      "eventPrevious": "46.4",
      "eventCurrency": "USD",
      "eventForecast": "50.0"
    },
    {
      "eventDateTime": "2010-03-30T21:00:00",
      "eventActual": "27.5",
      "eventCountry": "United States",
      "eventExpectedVolatility": "Low",
      "eventName": "Bloomberg Consumer Confidence",
      "eventTimeZone": "GMT",
      "eventPrevious": "28",
      "eventCurrency": "USD",
      "eventForecast": ""
    }
  ]}}
