"BoJ Interest Rate Decision";"Japan";"JPY";"2016-12-20T02:55:00";"GMT";"-0.10%";"-0.10%";"-0.10%";"Moderate"
"BoJ Monetary Policy Statement";"Japan";"JPY";"2016-12-20T02:55:00";"GMT";" ";"";"";"High"
"BoJ Press Conference";"Japan";"JPY";"2016-12-20T06:30:00";"GMT";" ";"";"";"High"
