{"events": {"event": [
    {
      "eventDateTime": "2008-11-01T09:00:00",
      "eventActual": "-1.27",
      "eventCountry": "Euro Zone",
      "eventExpectedVolatility": "Low",
      "eventName": "Business Climate (Oct)",
      "eventTimeZone": "GMT",
      "eventPrevious": "-0.71",
      "eventCurrency": "EUR",
      "eventForecast": ""
    },
    {
      "eventDateTime": "2008-11-01T09:00:00",
      "eventActual": "85.30",
      "eventCountry": "Euro Zone",
      "eventExpectedVolatility": "Low",
      "eventName": "Business and Consumer Survey (Oct)",
      "eventTimeZone": "GMT",
      "eventPrevious": "91.60",
      "eventCurrency": "EUR",
      "eventForecast": ""
    },
    {
      "eventDateTime": "2008-11-01T09:00:00",
      "eventActual": "0.00%",
      "eventCountry": "Euro Zone",
      "eventExpectedVolatility": "Moderate",
      "eventName": "CPI (MoM) (Oct)",
      "eventTimeZone": "GMT",
      "eventPrevious": "0.20%",
      "eventCurrency": "EUR",
      "eventForecast": ""
    },
    {
      "eventDateTime": "2008-11-01T09:00:00",
      "eventActual": "0.03%",
      "eventCountry": "Euro Zone",
      "eventExpectedVolatility": "Low",
      "eventName": "CPI ex Tobacco (MoM) (Oct)",
      "eventTimeZone": "GMT",
      "eventPrevious": "0.18%",
      "eventCurrency": "EUR",
      "eventForecast": ""
    },
    {
      "eventDateTime": "2008-11-01T09:00:00",
      "eventActual": "3.17%",
      "eventCountry": "Euro Zone",
      "eventExpectedVolatility": "Low",
      "eventName": "CPI ex Tobacco (YoY) (Oct)",
      "eventTimeZone": "GMT",
      "eventPrevious": "3.66%",
      "eventCurrency": "EUR",
      "eventForecast": ""
    },
    {
      "eventDateTime": "2008-11-01T09:00:00",
      "eventActual": "19.20",
      "eventCountry": "Euro Zone",
      "eventExpectedVolatility": "Low",
      "eventName": "Consumer Inflation Expectation (Oct)",
      "eventTimeZone": "GMT",
      "eventPrevious": "17.10",
      "eventCurrency": "EUR",
      "eventForecast": ""
    },
    {
      "eventDateTime": "2008-11-01T09:00:00",
      "eventActual": "0.40%",
      "eventCountry": "Euro Zone",
      "eventExpectedVolatility": "Low",
      "eventName": "Core CPI (MoM) (Oct)",
      "eventTimeZone": "GMT",
      "eventPrevious": "0.30%",
      "eventCurrency": "EUR",
      "eventForecast": ""
    },
    {
      "eventDateTime": "2008-11-01T09:00:00",
      "eventActual": "-8.30B",
      "eventCountry": "Euro Zone",
      "eventExpectedVolatility": "Low",
      "eventName": "Current Account n.s.a. (Oct)",
      "eventTimeZone": "GMT",
      "eventPrevious": "-10.20B",
      "eventCurrency": "EUR",
      "eventForecast": ""
    },
    {
      "eventDateTime": "2008-11-01T09:00:00",
      "eventActual": "87.00",
      "eventCountry": "France",
      "eventExpectedVolatility": "Low",
      "eventName": "French Business Survey (Oct)",
      "eventTimeZone": "GMT",
      "eventPrevious": "92.00",
      "eventCurrency": "EUR",
      "eventForecast": ""
    },
    {
      "eventDateTime": "2008-11-01T09:00:00",
      "eventActual": "82.00",
      "eventCountry": "France",
      "eventExpectedVolatility": "Low",
      "eventName": "French Consumer Confidence (Oct)",
      "eventTimeZone": "GMT",
      "eventPrevious": "84.00",
      "eventCurrency": "EUR",
      "eventForecast": ""
    },
    {
      "eventDateTime": "2008-11-01T09:00:00",
      "eventActual": "-2.20B",
      "eventCountry": "France",
      "eventExpectedVolatility": "Low",
      "eventName": "French Current Account (Oct)",
      "eventTimeZone": "GMT",
      "eventPrevious": "-0.80B",
      "eventCurrency": "EUR",
      "eventForecast": ""
    },
    {
      "eventDateTime": "2008-11-01T09:00:00",
      "eventActual": "33.37B",
      "eventCountry": "France",
      "eventExpectedVolatility": "Low",
      "eventName": "French Exports (Oct)",
      "eventTimeZone": "GMT",
      "eventPrevious": "35.65B",
      "eventCurrency": "EUR",
      "eventForecast": ""
    },
    {
      "eventDateTime": "2008-11-01T09:00:00",
      "eventActual": "-0.10%",
      "eventCountry": "France",
      "eventExpectedVolatility": "Moderate",
      "eventName": "French HICP (MoM) (Oct)",
      "eventTimeZone": "GMT",
      "eventPrevious": "0.00%",
      "eventCurrency": "EUR",
      "eventForecast": ""
    },
    {
      "eventDateTime": "2008-11-01T09:00:00",
      "eventActual": "3.01%",
      "eventCountry": "France",
      "eventExpectedVolatility": "Low",
      "eventName": "French HICP (YoY) (Oct)",
      "eventTimeZone": "GMT",
      "eventPrevious": "3.36%",
      "eventCurrency": "EUR",
      "eventForecast": ""
    },
    {
      "eventDateTime": "2008-11-01T09:00:00",
      "eventActual": "39.43B",
      "eventCountry": "France",
      "eventExpectedVolatility": "Low",
      "eventName": "French Imports (Oct)",
      "eventTimeZone": "GMT",
      "eventPrevious": "41.08B",
      "eventCurrency": "EUR",
      "eventForecast": ""
    },
    {
      "eventDateTime": "2008-11-01T09:00:00",
      "eventActual": "-0.60%",
      "eventCountry": "France",
      "eventExpectedVolatility": "Low",
      "eventName": "French PPI (MoM) (Oct)",
      "eventTimeZone": "GMT",
      "eventPrevious": "-0.50%",
      "eventCurrency": "EUR",
      "eventForecast": ""
    },
    {
      "eventDateTime": "2008-11-01T09:00:00",
      "eventActual": "85.00",
      "eventCountry": "Germany",
      "eventExpectedVolatility": "Moderate",
      "eventName": "German Business Expectations (Oct)",
      "eventTimeZone": "GMT",
      "eventPrevious": "90.00",
      "eventCurrency": "EUR",
      "eventForecast": ""
    },
    {
      "eventDateTime": "2008-11-01T09:00:00",
      "eventActual": "2.40%",
      "eventCountry": "Germany",
      "eventExpectedVolatility": "Low",
      "eventName": "German CPI (YoY) (Oct)",
      "eventTimeZone": "GMT",
      "eventPrevious": "2.80%",
      "eventCurrency": "EUR",
      "eventForecast": ""
    },
    {
      "eventDateTime": "2008-11-01T09:00:00",
      "eventActual": "103.40",
      "eventCountry": "Germany",
      "eventExpectedVolatility": "Moderate",
      "eventName": "German Current Assessment (Oct)",
      "eventTimeZone": "GMT",
      "eventPrevious": "105.00",
      "eventCurrency": "EUR",
      "eventForecast": ""
    },
    {
      "eventDateTime": "2008-11-01T09:00:00",
      "eventActual": "-0.33%",
      "eventCountry": "Germany",
      "eventExpectedVolatility": "Low",
      "eventName": "German Exports (MoM) (Oct)",
      "eventTimeZone": "GMT",
      "eventPrevious": "-0.38%",
      "eventCurrency": "EUR",
      "eventForecast": ""
    },
    {
      "eventDateTime": "2008-11-01T09:00:00",
      "eventActual": "-0.30%",
      "eventCountry": "Germany",
      "eventExpectedVolatility": "Low",
      "eventName": "German HICP (MoM) (Oct)",
      "eventTimeZone": "GMT",
      "eventPrevious": "-0.10%",
      "eventCurrency": "EUR",
      "eventForecast": ""
    },
    {
      "eventDateTime": "2008-11-01T09:00:00",
      "eventActual": "2.50%",
      "eventCountry": "Germany",
      "eventExpectedVolatility": "Low",
      "eventName": "German HICP (YoY) (Oct)",
      "eventTimeZone": "GMT",
      "eventPrevious": "3.00%",
      "eventCurrency": "EUR",
      "eventForecast": ""
    },
    {
      "eventDateTime": "2008-11-01T09:00:00",
      "eventActual": "2.80%",
      "eventCountry": "Germany",
      "eventExpectedVolatility": "Low",
      "eventName": "German Import Price Index (YoY) (Oct)",
      "eventTimeZone": "GMT",
      "eventPrevious": "7.10%",
      "eventCurrency": "EUR",
      "eventForecast": ""
    },
    {
      "eventDateTime": "2008-11-01T09:00:00",
      "eventActual": "-3.20%",
      "eventCountry": "Germany",
      "eventExpectedVolatility": "Low",
      "eventName": "German Imports (MoM) (Oct)",
      "eventTimeZone": "GMT",
      "eventPrevious": "1.00%",
      "eventCurrency": "EUR",
      "eventForecast": ""
    },
    {
      "eventDateTime": "2008-11-01T09:00:00",
      "eventActual": "7.20%",
      "eventCountry": "Germany",
      "eventExpectedVolatility": "Low",
      "eventName": "German PPI (YoY) (Oct)",
      "eventTimeZone": "GMT",
      "eventPrevious": "7.90%",
      "eventCurrency": "EUR",
      "eventForecast": ""
    },
    {
      "eventDateTime": "2008-11-01T09:00:00",
      "eventActual": "0.10%",
      "eventCountry": "Germany",
      "eventExpectedVolatility": "Low",
      "eventName": "German Retail Sales (YoY) (Oct)",
      "eventTimeZone": "GMT",
      "eventPrevious": "3.70%",
      "eventCurrency": "EUR",
      "eventForecast": ""
    },
    {
      "eventDateTime": "2008-11-01T09:00:00",
      "eventActual": "3.18M",
      "eventCountry": "Germany",
      "eventExpectedVolatility": "Low",
      "eventName": "German Unemployment (Oct)",
      "eventTimeZone": "GMT",
      "eventPrevious": "3.19M",
      "eventCurrency": "EUR",
      "eventForecast": ""
    },
    {
      "eventDateTime": "2008-11-01T09:00:00",
      "eventActual": "3.00M",
      "eventCountry": "Germany",
      "eventExpectedVolatility": "Low",
      "eventName": "German Unemployment n.s.a. (Oct)",
      "eventTimeZone": "GMT",
      "eventPrevious": "3.10M",
      "eventCurrency": "EUR",
      "eventForecast": ""
    },
    {
      "eventDateTime": "2008-11-01T09:00:00",
      "eventActual": "2.90%",
      "eventCountry": "Germany",
      "eventExpectedVolatility": "Low",
      "eventName": "German WPI (YoY) (Oct)",
      "eventTimeZone": "GMT",
      "eventPrevious": "5.20%",
      "eventCurrency": "EUR",
      "eventForecast": ""
    },
    {
      "eventDateTime": "2008-11-01T09:00:00",
      "eventActual": "-35.90",
      "eventCountry": "Germany",
      "eventExpectedVolatility": "Moderate",
      "eventName": "German ZEW Current Conditions (Oct)",
      "eventTimeZone": "GMT",
      "eventPrevious": "-1.00",
      "eventCurrency": "EUR",
      "eventForecast": ""
    },
    {
      "eventDateTime": "2008-11-01T09:00:00",
      "eventActual": "-5.80%",
      "eventCountry": "Euro Zone",
      "eventExpectedVolatility": "Low",
      "eventName": "Industrial Production (YoY) (Oct)",
      "eventTimeZone": "GMT",
      "eventPrevious": "-2.90%",
      "eventCurrency": "EUR",
      "eventForecast": ""
    },
    {
      "eventDateTime": "2008-11-01T09:00:00",
      "eventActual": "-17.60",
      "eventCountry": "Euro Zone",
      "eventExpectedVolatility": "Low",
      "eventName": "Industrial Sentiment (Oct)",
      "eventTimeZone": "GMT",
      "eventPrevious": "-10.90",
      "eventCurrency": "EUR",
      "eventForecast": ""
    },
    {
      "eventDateTime": "2008-11-01T09:00:00",
      "eventActual": "92.10",
      "eventCountry": "Italy",
      "eventExpectedVolatility": "Low",
      "eventName": "Italian Business Confidence (Oct)",
      "eventTimeZone": "GMT",
      "eventPrevious": "96.70",
      "eventCurrency": "EUR",
      "eventForecast": ""
    },
    {
      "eventDateTime": "2008-11-01T09:00:00",
      "eventActual": "3.50%",
      "eventCountry": "Italy",
      "eventExpectedVolatility": "Low",
      "eventName": "Italian CPI (YoY) (Oct)",
      "eventTimeZone": "GMT",
      "eventPrevious": "3.80%",
      "eventCurrency": "EUR",
      "eventForecast": ""
    },
    {
      "eventDateTime": "2008-11-01T09:00:00",
      "eventActual": "94.60",
      "eventCountry": "Italy",
      "eventExpectedVolatility": "Low",
      "eventName": "Italian Consumer Confidence (Oct)",
      "eventTimeZone": "GMT",
      "eventPrevious": "95.20",
      "eventCurrency": "EUR",
      "eventForecast": ""
    },
    {
      "eventDateTime": "2008-11-01T09:00:00",
      "eventActual": "0.50%",
      "eventCountry": "Italy",
      "eventExpectedVolatility": "Low",
      "eventName": "Italian HICP (MoM) (Oct)",
      "eventTimeZone": "GMT",
      "eventPrevious": "0.30%",
      "eventCurrency": "EUR",
      "eventForecast": ""
    },
    {
      "eventDateTime": "2008-11-01T09:00:00",
      "eventActual": "3.60%",
      "eventCountry": "Italy",
      "eventExpectedVolatility": "Low",
      "eventName": "Italian HICP (YoY) (Oct)",
      "eventTimeZone": "GMT",
      "eventPrevious": "3.70%",
      "eventCurrency": "EUR",
      "eventForecast": ""
    },
    {
      "eventDateTime": "2008-11-01T09:00:00",
      "eventActual": "-5.05%",
      "eventCountry": "Italy",
      "eventExpectedVolatility": "Low",
      "eventName": "Italian Industrial New Orders (MoM) (Oct)",
      "eventTimeZone": "GMT",
      "eventPrevious": "-3.32%",
      "eventCurrency": "EUR",
      "eventForecast": ""
    },
    {
      "eventDateTime": "2008-11-01T09:00:00",
      "eventActual": "-13.98%",
      "eventCountry": "Italy",
      "eventExpectedVolatility": "Low",
      "eventName": "Italian Industrial New Orders (YoY) (Oct)",
      "eventTimeZone": "GMT",
      "eventPrevious": "-0.17%",
      "eventCurrency": "EUR",
      "eventForecast": ""
    },
    {
      "eventDateTime": "2008-11-01T09:00:00",
      "eventActual": "-7.50%",
      "eventCountry": "Italy",
      "eventExpectedVolatility": "Low",
      "eventName": "Italian Industrial Production (YoY) (Oct)",
      "eventTimeZone": "GMT",
      "eventPrevious": "-7.00%",
      "eventCurrency": "EUR",
      "eventForecast": ""
    },
    {
      "eventDateTime": "2008-11-01T09:00:00",
      "eventActual": "-3.77%",
      "eventCountry": "Italy",
      "eventExpectedVolatility": "Low",
      "eventName": "Italian Industrial Sales (MoM) (Oct)",
      "eventTimeZone": "GMT",
      "eventPrevious": "0.36%",
      "eventCurrency": "EUR",
      "eventForecast": ""
    },
    {
      "eventDateTime": "2008-11-01T09:00:00",
      "eventActual": "-4.77%",
      "eventCountry": "Italy",
      "eventExpectedVolatility": "Low",
      "eventName": "Italian Industrial Sales (YoY) (Oct)",
      "eventTimeZone": "GMT",
      "eventPrevious": "7.89%",
      "eventCurrency": "EUR",
      "eventForecast": ""
    },
    {
      "eventDateTime": "2008-11-01T09:00:00",
      "eventActual": "6.80%",
      "eventCountry": "Italy",
      "eventExpectedVolatility": "Low",
      "eventName": "Italian Monthly Unemployment Rate (Oct)",
      "eventTimeZone": "GMT",
      "eventPrevious": "6.90%",
      "eventCurrency": "EUR",
      "eventForecast": ""
    },
    {
      "eventDateTime": "2008-11-01T09:00:00",
      "eventActual": "-1.70%",
      "eventCountry": "Italy",
      "eventExpectedVolatility": "Low",
      "eventName": "Italian PPI (MoM) (Oct)",
      "eventTimeZone": "GMT",
      "eventPrevious": "-0.10%",
      "eventCurrency": "EUR",
      "eventForecast": ""
    },
    {
      "eventDateTime": "2008-11-01T09:00:00",
      "eventActual": "4.10%",
      "eventCountry": "Italy",
      "eventExpectedVolatility": "Low",
      "eventName": "Italian PPI (YoY) (Oct)",
      "eventTimeZone": "GMT",
      "eventPrevious": "6.30%",
      "eventCurrency": "EUR",
      "eventForecast": ""
    },
    {
      "eventDateTime": "2008-11-01T09:00:00",
      "eventActual": "-1.60%",
      "eventCountry": "Italy",
      "eventExpectedVolatility": "Low",
      "eventName": "Italian Retail Sales (YoY) (Oct)",
      "eventTimeZone": "GMT",
      "eventPrevious": "0.91%",
      "eventCurrency": "EUR",
      "eventForecast": ""
    },
    {
      "eventDateTime": "2008-11-01T09:00:00",
      "eventActual": "0.07B",
      "eventCountry": "Italy",
      "eventExpectedVolatility": "Low",
      "eventName": "Italian Trade Balance EU (Oct)",
      "eventTimeZone": "GMT",
      "eventPrevious": "0.86B",
      "eventCurrency": "EUR",
      "eventForecast": ""
    },
    {
      "eventDateTime": "2008-11-01T09:00:00",
      "eventActual": "-0.60B",
      "eventCountry": "Italy",
      "eventExpectedVolatility": "Low",
      "eventName": "Italian Trade Balance Non-EU (Oct)",
      "eventTimeZone": "GMT",
      "eventPrevious": "-3.50B",
      "eventCurrency": "EUR",
      "eventForecast": ""
    },
    {
      "eventDateTime": "2008-11-01T09:00:00",
      "eventActual": "0.11%",
      "eventCountry": "Italy",
      "eventExpectedVolatility": "Low",
      "eventName": "Italian Wage Inflation (MoM) (Oct)",
      "eventTimeZone": "GMT",
      "eventPrevious": "0.00%",
      "eventCurrency": "EUR",
      "eventForecast": ""
    },
    {
      "eventDateTime": "2008-11-01T09:00:00",
      "eventActual": "3.70%",
      "eventCountry": "Italy",
      "eventExpectedVolatility": "Low",
      "eventName": "Italian Wage Inflation (YoY) (Oct)",
      "eventTimeZone": "GMT",
      "eventPrevious": "4.00%",
      "eventCurrency": "EUR",
      "eventForecast": ""
    },
    {
      "eventDateTime": "2008-11-01T09:00:00",
      "eventActual": "8.30%",
      "eventCountry": "Euro Zone",
      "eventExpectedVolatility": "Low",
      "eventName": "Money-M3 3-Month-Moving Average (Oct)",
      "eventTimeZone": "GMT",
      "eventPrevious": "8.70%",
      "eventCurrency": "EUR",
      "eventForecast": ""
    },
    {
      "eventDateTime": "2008-11-01T09:00:00",
      "eventActual": "6.20%",
      "eventCountry": "Euro Zone",
      "eventExpectedVolatility": "Low",
      "eventName": "PPI (YoY) (Oct)",
      "eventTimeZone": "GMT",
      "eventPrevious": "7.70%",
      "eventCurrency": "EUR",
      "eventForecast": ""
    },
    {
      "eventDateTime": "2008-11-01T09:00:00",
      "eventActual": "7.70%",
      "eventCountry": "Euro Zone",
      "eventExpectedVolatility": "Low",
      "eventName": "Private Sector Loans (YoY) (Oct)",
      "eventTimeZone": "GMT",
      "eventPrevious": "8.40%",
      "eventCurrency": "EUR",
      "eventForecast": ""
    },
    {
      "eventDateTime": "2008-11-01T09:00:00",
      "eventActual": "-2.10%",
      "eventCountry": "Euro Zone",
      "eventExpectedVolatility": "Low",
      "eventName": "Retail Sales (YoY) (Oct)",
      "eventTimeZone": "GMT",
      "eventPrevious": "-0.40%",
      "eventCurrency": "EUR",
      "eventForecast": ""
    },
    {
      "eventDateTime": "2008-11-01T09:00:00",
      "eventActual": "5.70",
      "eventCountry": "Euro Zone",
      "eventExpectedVolatility": "Low",
      "eventName": "Selling Price Expectations (Oct)",
      "eventTimeZone": "GMT",
      "eventPrevious": "11.70",
      "eventCurrency": "EUR",
      "eventForecast": ""
    },
    {
      "eventDateTime": "2008-11-01T09:00:00",
      "eventActual": "-7.20",
      "eventCountry": "Euro Zone",
      "eventExpectedVolatility": "Low",
      "eventName": "Services Sentiment (Oct)",
      "eventTimeZone": "GMT",
      "eventPrevious": "-2.70",
      "eventCurrency": "EUR",
      "eventForecast": ""
    },
    {
      "eventDateTime": "2008-11-01T09:00:00",
      "eventActual": "0.30%",
      "eventCountry": "Spain",
      "eventExpectedVolatility": "Low",
      "eventName": "Spanish CPI (MoM) (Oct)",
      "eventTimeZone": "GMT",
      "eventPrevious": "0.00%",
      "eventCurrency": "EUR",
      "eventForecast": ""
    },
    {
      "eventDateTime": "2008-11-01T09:00:00",
      "eventActual": "3.60%",
      "eventCountry": "Spain",
      "eventExpectedVolatility": "Moderate",
      "eventName": "Spanish CPI (YoY) (Oct)",
      "eventTimeZone": "GMT",
      "eventPrevious": "4.50%",
      "eventCurrency": "EUR",
      "eventForecast": ""
    },
    {
      "eventDateTime": "2008-11-01T09:00:00",
      "eventActual": "-9.85B",
      "eventCountry": "Spain",
      "eventExpectedVolatility": "Low",
      "eventName": "Spanish Current account (Oct)",
      "eventTimeZone": "GMT",
      "eventPrevious": "-8.47B",
      "eventCurrency": "EUR",
      "eventForecast": ""
    },
    {
      "eventDateTime": "2008-11-01T09:00:00",
      "eventActual": "0.30%",
      "eventCountry": "Spain",
      "eventExpectedVolatility": "Low",
      "eventName": "Spanish HICP (MoM) (Oct)",
      "eventTimeZone": "GMT",
      "eventPrevious": "0.00%",
      "eventCurrency": "EUR",
      "eventForecast": ""
    },
    {
      "eventDateTime": "2008-11-01T09:00:00",
      "eventActual": "3.20%",
      "eventCountry": "Spain",
      "eventExpectedVolatility": "Moderate",
      "eventName": "Spanish HICP (YoY) (Oct)",
      "eventTimeZone": "GMT",
      "eventPrevious": "4.60%",
      "eventCurrency": "EUR",
      "eventForecast": ""
    },
    {
      "eventDateTime": "2008-11-01T09:00:00",
      "eventActual": "-13.70%",
      "eventCountry": "Spain",
      "eventExpectedVolatility": "Low",
      "eventName": "Spanish Industrial Production (YoY) (Oct)",
      "eventTimeZone": "GMT",
      "eventPrevious": "-9.20%",
      "eventCurrency": "EUR",
      "eventForecast": ""
    },
    {
      "eventDateTime": "2008-11-01T09:00:00",
      "eventActual": "-8.20%",
      "eventCountry": "Spain",
      "eventExpectedVolatility": "Low",
      "eventName": "Spanish Retail Sales (YoY) (Oct)",
      "eventTimeZone": "GMT",
      "eventPrevious": "-7.50%",
      "eventCurrency": "EUR",
      "eventForecast": ""
    }
  ]}}
