"Challenger Job Cuts (Jan)";"United States";"USD";"2020-02-06T12:30:00";"GMT";"32.843K";"";"67.735K";"Low"
"Challenger Job Cuts (YoY)";"United States";"USD";"2020-02-06T12:30:00";"GMT";"-25.2%";"";"27.8%";"Low"
"Continuing Jobless Claims";"United States";"USD";"2020-02-06T13:30:00";"GMT";"1,703K";"1,720K";"1,751K";"Low"
"Initial Jobless Claims";"United States";"USD";"2020-02-06T13:30:00";"GMT";"217K";"215K";"202K";"Moderate"
"Jobless Claims 4-Week Avg.";"United States";"USD";"2020-02-06T13:30:00";"GMT";"214.75K";"";"211.75K";"Low"
"Nonfarm Productivity (QoQ) (Q4)";"United States";"USD";"2020-02-06T13:30:00";"GMT";"-0.2%";"1.6%";"1.4%";"Moderate"
"Unit Labor Costs (QoQ) (Q4)";"United States";"USD";"2020-02-06T13:30:00";"GMT";"2.5%";"1.4%";"1.4%";"Moderate"
"FOMC Member Kaplan Speaks";"United States";"USD";"2020-02-06T14:15:00";"GMT";" ";"";"";"Moderate"
"Natural Gas Storage";"United States";"USD";"2020-02-06T15:30:00";"GMT";"-201B";"-129B";"-137B";"Low"
"4-Week Bill Auction";"United States";"USD";"2020-02-06T16:30:00";"GMT";"1.545%";"";"1.540%";"Low"
"8-Week Bill Auction";"United States";"USD";"2020-02-06T16:30:00";"GMT";"1.550%";"";"1.550%";"Low"
