{"events": {"event": {
    "eventDateTime": "2012-06-07T14:00:00",
    "eventActual": "60.5",
    "eventCountry": "Canada",
    "eventExpectedVolatility": "High",
    "eventName": "Ivey PMI",
    "eventTimeZone": "GMT",
    "eventPrevious": "52.7",
    "eventCurrency": "CAD",
    "eventForecast": "55.0"
  }}}
