"IPPI (MoM) (Oct)";"Canada";"CAD";"2015-11-27T13:30:00";"GMT";"-0.4%";"-0.1%";"-0.5%";"Low"
"IPPI (YoY) (Oct)";"Canada";"CAD";"2015-11-27T13:30:00";"GMT";"-0.4%";"";"-0.4%";"Low"
"RMPI (MoM) (Oct)";"Canada";"CAD";"2015-11-27T13:30:00";"GMT";"2.4%";"";"0.4%";"Moderate"
"RMPI (YoY) (Oct)";"Canada";"CAD";"2015-11-27T13:30:00";"GMT";"-21.3%";"";"-17.5%";"Low"
