"German Industrial Production (MoM) (Jan)";"Germany";"EUR";"2016-03-08T07:00:00";"GMT";"-0.3%";"0.5%";"3.3%";"Moderate"
"French Current Account (Jan)";"France";"EUR";"2016-03-08T07:45:00";"GMT";"0.40B";"-0.90B";"-1.40B";"Low"
"French Exports (Jan)";"France";"EUR";"2016-03-08T07:45:00";"GMT";"38.1B";"";"38.3B";"Low"
"French Government Budget Balance (Jan)";"France";"EUR";"2016-03-08T07:45:00";"GMT";"-70.5B";"";"-9.2B";"Low"
"French Imports (Jan)";"France";"EUR";"2016-03-08T07:45:00";"GMT";"41.8B";"";"42.0B";"Low"
"French Trade Balance (Jan)";"France";"EUR";"2016-03-08T07:45:00";"GMT";"-3.7B";"-4.1B";"-3.7B";"Low"
"Spanish Industrial Production (YoY) (Jan)";"Spain";"EUR";"2016-03-08T08:00:00";"GMT";"4.1%";"3.7%";"3.5%";"Low"
"Spanish 12-Month Letras Auction";"Spain";"EUR";"2016-03-08T09:45:00";"GMT";"0.000%";"";"-0.066%";"Low"
"Spanish 6-Month Letras Auction";"Spain";"EUR";"2016-03-08T09:45:00";"GMT";"-0.061%";"";"-0.114%";"Low"
"EU Finance Ministers Meeting";"Euro Zone";"EUR";"2016-03-08T10:00:00";"GMT";" ";"";"";"Moderate"
"GDP (QoQ) (Q4)";"Euro Zone";"EUR";"2016-03-08T10:00:00";"GMT";"0.3%";"0.3%";"0.3%";"Moderate"
"GDP (YoY) (Q4)";"Euro Zone";"EUR";"2016-03-08T10:00:00";"GMT";"1.5%";"1.5%";"1.6%";"Moderate"
