{"events": {"event": [
    {
      "eventDateTime": "2014-06-02T02:00:00",
      "eventActual": "44.1%",
      "eventCountry": "Euro Zone",
      "eventExpectedVolatility": "Moderate",
      "eventName": "Investing.com EUR/USD Index",
      "eventTimeZone": "GMT",
      "eventPrevious": "49.4%",
      "eventCurrency": "EUR",
      "eventForecast": ""
    },
    {
      "eventDateTime": "2014-06-02T07:15:00",
      "eventActual": "52.9",
      "eventCountry": "Spain",
      "eventExpectedVolatility": "Moderate",
      "eventName": "Spanish Manufacturing PMI",
      "eventTimeZone": "GMT",
      "eventPrevious": "52.7",
      "eventCurrency": "EUR",
      "eventForecast": "52.9"
    },
    {
      "eventDateTime": "2014-06-02T07:45:00",
      "eventActual": "53.2",
      "eventCountry": "Italy",
      "eventExpectedVolatility": "Moderate",
      "eventName": "Italian Manufacturing PMI",
      "eventTimeZone": "GMT",
      "eventPrevious": "54.0",
      "eventCurrency": "EUR",
      "eventForecast": "53.7"
    },
    {
      "eventDateTime": "2014-06-02T07:50:00",
      "eventActual": "49.6",
      "eventCountry": "France",
      "eventExpectedVolatility": "Moderate",
      "eventName": "French Manufacturing PMI",
      "eventTimeZone": "GMT",
      "eventPrevious": "49.3",
      "eventCurrency": "EUR",
      "eventForecast": "49.3"
    },
    {
      "eventDateTime": "2014-06-02T07:55:00",
      "eventActual": "52.3",
      "eventCountry": "Germany",
      "eventExpectedVolatility": "High",
      "eventName": "German Manufacturing PMI",
      "eventTimeZone": "GMT",
      "eventPrevious": "52.9",
      "eventCurrency": "EUR",
      "eventForecast": "52.9"
    },
    {
      "eventDateTime": "2014-06-02T08:00:00",
      "eventActual": "52.2",
      "eventCountry": "Euro Zone",
      "eventExpectedVolatility": "Moderate",
      "eventName": "Manufacturing PMI",
      "eventTimeZone": "GMT",
      "eventPrevious": "52.5",
      "eventCurrency": "EUR",
      "eventForecast": "52.5"
    },
    {
      "eventDateTime": "2014-06-02T12:00:00",
      "eventActual": "-0.1%",
      "eventCountry": "Germany",
      "eventExpectedVolatility": "Moderate",
      "eventName": "German CPI (MoM)",
      "eventTimeZone": "GMT",
      "eventPrevious": "-0.2%",
      "eventCurrency": "EUR",
      "eventForecast": "0.2%"
    },
    {
      "eventDateTime": "2014-06-02T12:00:00",
      "eventActual": "0.9%",
      "eventCountry": "Germany",
      "eventExpectedVolatility": "Low",
      "eventName": "German CPI (YoY)",
      "eventTimeZone": "GMT",
      "eventPrevious": "1.3%",
      "eventCurrency": "EUR",
      "eventForecast": "1.1%"
    },
    {
      "eventDateTime": "2014-06-02T13:00:00",
      "eventActual": "0.108%",
      "eventCountry": "France",
      "eventExpectedVolatility": "Low",
      "eventName": "French 12-Month BTF Auction",
      "eventTimeZone": "GMT",
      "eventPrevious": "0.107%",
      "eventCurrency": "EUR",
      "eventForecast": ""
    },
    {
      "eventDateTime": "2014-06-02T13:00:00",
      "eventActual": "0.116%",
      "eventCountry": "France",
      "eventExpectedVolatility": "Low",
      "eventName": "French 3-Month BTF Auction",
      "eventTimeZone": "GMT",
      "eventPrevious": "0.111%",
      "eventCurrency": "EUR",
      "eventForecast": ""
    },
    {
      "eventDateTime": "2014-06-02T13:00:00",
      "eventActual": "0.107%",
      "eventCountry": "France",
      "eventExpectedVolatility": "Low",
      "eventName": "French 6-Month BTF Auction",
      "eventTimeZone": "GMT",
      "eventPrevious": "0.105%",
      "eventCurrency": "EUR",
      "eventForecast": ""
    }
  ]}}
