{"events": {"event": [
    {
      "eventDateTime": "2011-01-12T05:00:00",
      "eventActual": "45.1",
      "eventCountry": "Japan",
      "eventExpectedVolatility": "Low",
      "eventName": "Economy Watchers Current Index",
      "eventTimeZone": "GMT",
      "eventPrevious": "43.6",
      "eventCurrency": "JPY",
      "eventForecast": "44.9"
    },
    {
      "eventDateTime": "2011-01-12T23:50:00",
      "eventActual": "-3.0%",
      "eventCountry": "Japan",
      "eventExpectedVolatility": "Low",
      "eventName": "Core Machinery Orders (MoM)",
      "eventTimeZone": "GMT",
      "eventPrevious": "-1.4%",
      "eventCurrency": "JPY",
      "eventForecast": "2.0%"
    }
  ]}}
