{"events": {"event": [
    {
      "eventDateTime": "2018-04-01T23:50:00",
      "eventActual": "2.3%",
      "eventCountry": "Japan",
      "eventExpectedVolatility": "Moderate",
      "eventName": "Tankan All Big Industry CAPEX (Q1)",
      "eventTimeZone": "GMT",
      "eventPrevious": "7.4%",
      "eventCurrency": "JPY",
      "eventForecast": "0.6%"
    },
    {
      "eventDateTime": "2018-04-01T23:50:00",
      "eventActual": "-16.8%",
      "eventCountry": "Japan",
      "eventExpectedVolatility": "Low",
      "eventName": "Tankan All Small Industry CAPEX (Q1)",
      "eventTimeZone": "GMT",
      "eventPrevious": "-6.4%",
      "eventCurrency": "JPY",
      "eventForecast": "-21.0%"
    },
    {
      "eventDateTime": "2018-04-01T23:50:00",
      "eventActual": "20",
      "eventCountry": "Japan",
      "eventExpectedVolatility": "Moderate",
      "eventName": "Tankan Big Manufacturing Outlook Index (Q1)",
      "eventTimeZone": "GMT",
      "eventPrevious": "19",
      "eventCurrency": "JPY",
      "eventForecast": "22"
    },
    {
      "eventDateTime": "2018-04-01T23:50:00",
      "eventActual": "24",
      "eventCountry": "Japan",
      "eventExpectedVolatility": "High",
      "eventName": "Tankan Large Manufacturers Index (Q1)",
      "eventTimeZone": "GMT",
      "eventPrevious": "25",
      "eventCurrency": "JPY",
      "eventForecast": "25"
    },
    {
      "eventDateTime": "2018-04-01T23:50:00",
      "eventActual": "20",
      "eventCountry": "Japan",
      "eventExpectedVolatility": "Low",
      "eventName": "Tankan Large Non-Manufacturers Diffusion Index (Q1)",
      "eventTimeZone": "GMT",
      "eventPrevious": "20",
      "eventCurrency": "JPY",
      "eventForecast": "21"
    },
    {
      "eventDateTime": "2018-04-01T23:50:00",
      "eventActual": "23",
      "eventCountry": "Japan",
      "eventExpectedVolatility": "High",
      "eventName": "Tankan Large Non-Manufacturers Index (Q1)",
      "eventTimeZone": "GMT",
      "eventPrevious": "23",
      "eventCurrency": "JPY",
      "eventForecast": "24"
    },
    {
      "eventDateTime": "2018-04-01T23:50:00",
      "eventActual": "12",
      "eventCountry": "Japan",
      "eventExpectedVolatility": "Low",
      "eventName": "Tankan Small Manufacturers Diffusion Index (Q1)",
      "eventTimeZone": "GMT",
      "eventPrevious": "11",
      "eventCurrency": "JPY",
      "eventForecast": "10"
    },
    {
      "eventDateTime": "2018-04-01T23:50:00",
      "eventActual": "15",
      "eventCountry": "Japan",
      "eventExpectedVolatility": "Low",
      "eventName": "Tankan Small Manufacturing Index (Q1)",
      "eventTimeZone": "GMT",
      "eventPrevious": "15",
      "eventCurrency": "JPY",
      "eventForecast": "14"
    },
    {
      "eventDateTime": "2018-04-01T23:50:00",
      "eventActual": "5",
      "eventCountry": "Japan",
      "eventExpectedVolatility": "Low",
      "eventName": "Tankan Small Non-Manufacturers Diffusion Index (Q1)",
      "eventTimeZone": "GMT",
      "eventPrevious": "5",
      "eventCurrency": "JPY",
      "eventForecast": "5"
    },
    {
      "eventDateTime": "2018-04-01T23:50:00",
      "eventActual": "10",
      "eventCountry": "Japan",
      "eventExpectedVolatility": "Low",
      "eventName": "Tankan Small Non-Manufacturing Index (Q1)",
      "eventTimeZone": "GMT",
      "eventPrevious": "9",
      "eventCurrency": "JPY",
      "eventForecast": "8"
    }
  ]}}
