"Investing.com Gold Index";"United States";"USD";"2017-05-08T05:30:00";"GMT";"67.6%";"";"69.4%";"Moderate"
"Investing.com Sandamp:P 500 Index";"United States";"USD";"2017-05-08T05:30:00";"GMT";"50.6%";"";"45.4%";"Moderate"
"FOMC Member Bullard Speaks";"United States";"USD";"2017-05-08T12:35:00";"GMT";" ";"";"";"Moderate"
"FOMC Member Mester Speaks";"United States";"USD";"2017-05-08T12:45:00";"GMT";" ";"";"";"Moderate"
"CB Employment Trends Index (Apr)";"United States";"USD";"2017-05-08T14:00:00";"GMT";"131.58";"";"132.64";"Low"
"Fed Labor Market Conditions Index";"United States";"USD";"2017-05-08T14:05:00";"GMT";"3.6";"";"3.5";"Low"
"3-Month Bill Auction";"United States";"USD";"2017-05-08T15:30:00";"GMT";"0.845%";"";"0.900%";"Low"
"6-Month Bill Auction";"United States";"USD";"2017-05-08T15:30:00";"GMT";"0.975%";"";"1.015%";"Low"
