{"events": {"event": [
    {
      "eventDateTime": "2018-07-11T04:30:00",
      "eventActual": "0.1%",
      "eventCountry": "Japan",
      "eventExpectedVolatility": "Moderate",
      "eventName": "Tertiary Industry Activity Index (MoM)",
      "eventTimeZone": "GMT",
      "eventPrevious": "1.0%",
      "eventCurrency": "JPY",
      "eventForecast": "-0.4%"
    },
    {
      "eventDateTime": "2018-07-11T23:50:00",
      "eventActual": "817.9B",
      "eventCountry": "Japan",
      "eventExpectedVolatility": "Low",
      "eventName": "Foreign Bonds Buying",
      "eventTimeZone": "GMT",
      "eventPrevious": "-293.4B",
      "eventCurrency": "JPY",
      "eventForecast": ""
    },
    {
      "eventDateTime": "2018-07-11T23:50:00",
      "eventActual": "74.3B",
      "eventCountry": "Japan",
      "eventExpectedVolatility": "Low",
      "eventName": "Foreign Investments in Japanese Stocks",
      "eventTimeZone": "GMT",
      "eventPrevious": "-299.8B",
      "eventCurrency": "JPY",
      "eventForecast": ""
    }
  ]}}
