{"events": {"event": {
    "eventDateTime": "2016-07-13T03:00:00",
    "eventActual": "7.10%",
    "eventCountry": "South Korea",
    "eventExpectedVolatility": "Low",
    "eventName": "M2 Money supply (May)",
    "eventTimeZone": "GMT",
    "eventPrevious": "7.60%",
    "eventCurrency": "KRW",
    "eventForecast": ""
  }}}
