{"events": {"event": [
    {
      "eventDateTime": "2009-12-15T08:15:00",
      "eventActual": "3.4%",
      "eventCountry": "Switzerland",
      "eventExpectedVolatility": "Moderate",
      "eventName": "Industrial Production (QoQ)",
      "eventTimeZone": "GMT",
      "eventPrevious": "3.4%",
      "eventCurrency": "CHF",
      "eventForecast": "0.5%"
    },
    {
      "eventDateTime": "2009-12-15T16:40:00",
      "eventActual": "",
      "eventCountry": "Switzerland",
      "eventExpectedVolatility": "Moderate",
      "eventName": "SNB Chairman Roth Speaks",
      "eventTimeZone": "GMT",
      "eventPrevious": "",
      "eventCurrency": "CHF",
      "eventForecast": ""
    }
  ]}}
