{"events": {"event": {
    "eventDateTime": "2019-07-29T21:00:00",
    "eventActual": "74",
    "eventCountry": "South Korea",
    "eventExpectedVolatility": "Low",
    "eventName": "Manufacturing BSI Index (Aug)",
    "eventTimeZone": "GMT",
    "eventPrevious": "76",
    "eventCurrency": "KRW",
    "eventForecast": ""
  }}}
