{"events": {"event": [
    {
      "eventDateTime": "2015-02-04T12:00:00",
      "eventActual": "3.79%",
      "eventCountry": "United States",
      "eventExpectedVolatility": "Low",
      "eventName": "MBA 30-Year Mortgage Rate",
      "eventTimeZone": "GMT",
      "eventPrevious": "3.83%",
      "eventCurrency": "USD",
      "eventForecast": ""
    },
    {
      "eventDateTime": "2015-02-04T12:00:00",
      "eventActual": "1.3%",
      "eventCountry": "United States",
      "eventExpectedVolatility": "Low",
      "eventName": "MBA Mortgage Applications (WoW)",
      "eventTimeZone": "GMT",
      "eventPrevious": "-3.2%",
      "eventCurrency": "USD",
      "eventForecast": ""
    },
    {
      "eventDateTime": "2015-02-04T12:00:00",
      "eventActual": "187.2",
      "eventCountry": "United States",
      "eventExpectedVolatility": "Low",
      "eventName": "MBA Purchase Index",
      "eventTimeZone": "GMT",
      "eventPrevious": "191.6",
      "eventCurrency": "USD",
      "eventForecast": ""
    },
    {
      "eventDateTime": "2015-02-04T12:00:00",
      "eventActual": "551.2",
      "eventCountry": "United States",
      "eventExpectedVolatility": "Low",
      "eventName": "Mortgage Market Index",
      "eventTimeZone": "GMT",
      "eventPrevious": "544.2",
      "eventCurrency": "USD",
      "eventForecast": ""
    },
    {
      "eventDateTime": "2015-02-04T12:00:00",
      "eventActual": "2,669.9",
      "eventCountry": "United States",
      "eventExpectedVolatility": "Low",
      "eventName": "Mortgage Refinance Index",
      "eventTimeZone": "GMT",
      "eventPrevious": "2,605.4",
      "eventCurrency": "USD",
      "eventForecast": ""
    },
    {
      "eventDateTime": "2015-02-04T13:15:00",
      "eventActual": "213K",
      "eventCountry": "United States",
      "eventExpectedVolatility": "High",
      "eventName": "ADP Nonfarm Employment Change (Jan)",
      "eventTimeZone": "GMT",
      "eventPrevious": "253K",
      "eventCurrency": "USD",
      "eventForecast": "225K"
    },
    {
      "eventDateTime": "2015-02-04T14:45:00",
      "eventActual": "54.4",
      "eventCountry": "United States",
      "eventExpectedVolatility": "Moderate",
      "eventName": "Markit Composite PMI (Jan)",
      "eventTimeZone": "GMT",
      "eventPrevious": "54.2",
      "eventCurrency": "USD",
      "eventForecast": ""
    },
    {
      "eventDateTime": "2015-02-04T14:45:00",
      "eventActual": "54.2",
      "eventCountry": "United States",
      "eventExpectedVolatility": "Moderate",
      "eventName": "Services PMI (Jan)",
      "eventTimeZone": "GMT",
      "eventPrevious": "54.0",
      "eventCurrency": "USD",
      "eventForecast": "54.3"
    },
    {
      "eventDateTime": "2015-02-04T15:00:00",
      "eventActual": "61.5",
      "eventCountry": "United States",
      "eventExpectedVolatility": "Low",
      "eventName": "ISM Non-Manufacturing Business Activity (Jan)",
      "eventTimeZone": "GMT",
      "eventPrevious": "57.2",
      "eventCurrency": "USD",
      "eventForecast": "57.6"
    },
    {
      "eventDateTime": "2015-02-04T15:00:00",
      "eventActual": "51.6",
      "eventCountry": "United States",
      "eventExpectedVolatility": "Moderate",
      "eventName": "ISM Non-Manufacturing Employment (Jan)",
      "eventTimeZone": "GMT",
      "eventPrevious": "56.0",
      "eventCurrency": "USD",
      "eventForecast": ""
    },
    {
      "eventDateTime": "2015-02-04T15:00:00",
      "eventActual": "59.5",
      "eventCountry": "United States",
      "eventExpectedVolatility": "Low",
      "eventName": "ISM Non-Manufacturing New Orders (Jan)",
      "eventTimeZone": "GMT",
      "eventPrevious": "58.9",
      "eventCurrency": "USD",
      "eventForecast": ""
    },
    {
      "eventDateTime": "2015-02-04T15:00:00",
      "eventActual": "56.7",
      "eventCountry": "United States",
      "eventExpectedVolatility": "High",
      "eventName": "ISM Non-Manufacturing PMI (Jan)",
      "eventTimeZone": "GMT",
      "eventPrevious": "56.2",
      "eventCurrency": "USD",
      "eventForecast": "56.3"
    },
    {
      "eventDateTime": "2015-02-04T15:00:00",
      "eventActual": "45.5",
      "eventCountry": "United States",
      "eventExpectedVolatility": "Low",
      "eventName": "ISM Non-Manufacturing Prices (Jan)",
      "eventTimeZone": "GMT",
      "eventPrevious": "49.5",
      "eventCurrency": "USD",
      "eventForecast": ""
    },
    {
      "eventDateTime": "2015-02-04T15:30:00",
      "eventActual": "6.333M",
      "eventCountry": "United States",
      "eventExpectedVolatility": "High",
      "eventName": "Crude Oil Inventories",
      "eventTimeZone": "GMT",
      "eventPrevious": "8.874M",
      "eventCurrency": "USD",
      "eventForecast": "3.467M"
    },
    {
      "eventDateTime": "2015-02-04T15:30:00",
      "eventActual": "1.788M",
      "eventCountry": "United States",
      "eventExpectedVolatility": "Low",
      "eventName": "EIA Weekly Distillates Stocks",
      "eventTimeZone": "GMT",
      "eventPrevious": "-3.892M",
      "eventCurrency": "USD",
      "eventForecast": "-1.833M"
    },
    {
      "eventDateTime": "2015-02-04T15:30:00",
      "eventActual": "2.335M",
      "eventCountry": "United States",
      "eventExpectedVolatility": "Low",
      "eventName": "Gasoline Inventories",
      "eventTimeZone": "GMT",
      "eventPrevious": "-2.587M",
      "eventCurrency": "USD",
      "eventForecast": "0.067M"
    },
    {
      "eventDateTime": "2015-02-04T17:45:00",
      "eventActual": "",
      "eventCountry": "United States",
      "eventExpectedVolatility": "Moderate",
      "eventName": "FOMC Member Mester Speaks",
      "eventTimeZone": "GMT",
      "eventPrevious": "",
      "eventCurrency": "USD",
      "eventForecast": ""
    }
  ]}}
