"Bank Lending (Jan)";"Singapore";"SGD";"2012-02-01T09:00:00";"GMT";"420.50B";"";"422.10B";"Low"
"CPI (YoY) (Jan)";"Singapore";"SGD";"2012-02-01T09:00:00";"GMT";"5.53%";"";"4.80%";"Moderate"
"Foreign Reserves USD (MoM) (Jan)";"Singapore";"SGD";"2012-02-01T09:00:00";"GMT";"237.70B";"";"245.50B";"Low"
"Industrial Production (MoM) (Jan)";"Singapore";"SGD";"2012-02-01T09:00:00";"GMT";"7.20%";"";"5.70%";"Low"
"Manufacturing PMI (Jan)";"Singapore";"SGD";"2012-02-01T09:00:00";"GMT";"49.50";"";"48.70";"Low"
"Non-Oil Exports (MoM) (Jan)";"Singapore";"SGD";"2012-02-01T09:00:00";"GMT";"13.50%";"";"-0.50%";"Low"
"Non-Oil Exports (YoY) (Jan)";"Singapore";"SGD";"2012-02-01T09:00:00";"GMT";"9.00%";"";"-3.40%";"Low"
"Retail Sales (MoM) (Jan)";"Singapore";"SGD";"2012-02-01T09:00:00";"GMT";"-1.20%";"";"0.80%";"Low"
