"ANZ Commodity Price Index (MoM)";"New Zealand";"NZD";"2014-02-04T00:00:00";"GMT";"1.0%";"";"1.2%";"Low"
"GlobalDairyTrade Price Index";"New Zealand";"NZD";"2014-02-04T20:00:00";"GMT";"1.40%";"";"0.50%";"Moderate"
"Employment Change (QoQ)";"New Zealand";"NZD";"2014-02-04T21:45:00";"GMT";"1.2%";"0.6%";"1.1%";"High"
"Labor Cost Index (QoQ)";"New Zealand";"NZD";"2014-02-04T21:45:00";"GMT";"0.4%";"0.6%";"0.6%";"Low"
"Unemployment Rate";"New Zealand";"NZD";"2014-02-04T21:45:00";"GMT";"6.2%";"6.0%";"6.0%";"Moderate"
