"German 5-Year Bobl Auction";"Germany";"EUR";"2013-10-09T09:35:00";"GMT";"1.000%";"";"0.810%";"Low"
"German Industrial Production (MoM)";"Germany";"EUR";"2013-10-09T10:00:00";"GMT";"-1.1%";"1.0%";"1.4%";"Moderate"
"ECB President Draghi Speaks";"Euro Zone";"EUR";"2013-10-09T22:00:00";"GMT";" ";"";"";"High"
