{"events": {"event": [
    {
      "eventDateTime": "2013-05-29T12:00:00",
      "eventActual": "0.6%",
      "eventCountry": "Brazil",
      "eventExpectedVolatility": "Moderate",
      "eventName": "GDP (QoQ)",
      "eventTimeZone": "GMT",
      "eventPrevious": "0.6%",
      "eventCurrency": "BRL",
      "eventForecast": "0.9%"
    },
    {
      "eventDateTime": "2013-05-29T12:00:00",
      "eventActual": "1.9%",
      "eventCountry": "Brazil",
      "eventExpectedVolatility": "Moderate",
      "eventName": "GDP (YoY)",
      "eventTimeZone": "GMT",
      "eventPrevious": "1.4%",
      "eventCurrency": "BRL",
      "eventForecast": "2.3%"
    },
    {
      "eventDateTime": "2013-05-29T15:30:00",
      "eventActual": "10.83B",
      "eventCountry": "Brazil",
      "eventExpectedVolatility": "Low",
      "eventName": "Foreign Exchange Flows",
      "eventTimeZone": "GMT",
      "eventPrevious": "7.36B",
      "eventCurrency": "BRL",
      "eventForecast": ""
    },
    {
      "eventDateTime": "2013-05-29T21:45:00",
      "eventActual": "8.00%",
      "eventCountry": "Brazil",
      "eventExpectedVolatility": "Moderate",
      "eventName": "Interest Rate Decision",
      "eventTimeZone": "GMT",
      "eventPrevious": "7.50%",
      "eventCurrency": "BRL",
      "eventForecast": "8.00%"
    }
  ]}}
