{"events": {"event": {
    "eventDateTime": "2012-06-22T19:30:00",
    "eventActual": "-17.2K",
    "eventCountry": "United Kingdom",
    "eventExpectedVolatility": "Moderate",
    "eventName": "CFTC GBP speculative net positions",
    "eventTimeZone": "GMT",
    "eventPrevious": "-23.1K",
    "eventCurrency": "GBP",
    "eventForecast": ""
  }}}
