{"events": {"event": [
    {
      "eventDateTime": "2011-05-10T05:45:00",
      "eventActual": "-1",
      "eventCountry": "Switzerland",
      "eventExpectedVolatility": "Moderate",
      "eventName": "SECO Consumer Climate",
      "eventTimeZone": "GMT",
      "eventPrevious": "10",
      "eventCurrency": "CHF",
      "eventForecast": "10"
    },
    {
      "eventDateTime": "2011-05-10T07:15:00",
      "eventActual": "0.1%",
      "eventCountry": "Switzerland",
      "eventExpectedVolatility": "Moderate",
      "eventName": "CPI (MoM)",
      "eventTimeZone": "GMT",
      "eventPrevious": "0.6%",
      "eventCurrency": "CHF",
      "eventForecast": "0.5%"
    }
  ]}}
