"IPC-Fipe Inflation Index (MoM) (May)";"Brazil";"BRL";"2019-06-04T08:00:00";"GMT";"0.29%";"";"-0.02%";"Moderate"
"Industrial Production (MoM) (Apr)";"Brazil";"BRL";"2019-06-04T12:00:00";"GMT";"-1.4%";"0.7%";"0.3%";"Low"
"Industrial Production (YoY) (Apr)";"Brazil";"BRL";"2019-06-04T12:00:00";"GMT";"-6.2%";"-2.8%";"-3.9%";"Moderate"
