"Fixed Asset Investment (YoY) (Jul)";"China";"CNY";"2015-08-12T05:30:00";"GMT";"11.4%";"11.5%";"11.2%";"Moderate"
"Industrial Production (YoY) (Jul)";"China";"CNY";"2015-08-12T05:30:00";"GMT";"6.8%";"6.6%";"6.0%";"High"
"Retail Sales (YoY) (Jul)";"China";"CNY";"2015-08-12T05:30:00";"GMT";"10.6%";"10.6%";"10.5%";"Low"
