{"events": {"event": {
    "eventDateTime": "2013-03-15T19:30:00",
    "eventActual": "23.3K",
    "eventCountry": "Australia",
    "eventExpectedVolatility": "Moderate",
    "eventName": "CFTC AUD speculative net positions",
    "eventTimeZone": "GMT",
    "eventPrevious": "7.1K",
    "eventCurrency": "AUD",
    "eventForecast": ""
  }}}
