{"events": {"event": [
    {
      "eventDateTime": "2009-10-28T11:00:00",
      "eventActual": "-12.3%",
      "eventCountry": "United States",
      "eventExpectedVolatility": "Low",
      "eventName": "MBA Mortgage Applications (WoW)",
      "eventTimeZone": "GMT",
      "eventPrevious": "-13.7%",
      "eventCurrency": "USD",
      "eventForecast": ""
    },
    {
      "eventDateTime": "2009-10-28T12:30:00",
      "eventActual": "0.9%",
      "eventCountry": "United States",
      "eventExpectedVolatility": "High",
      "eventName": "Core Durable Goods Orders (MoM)",
      "eventTimeZone": "GMT",
      "eventPrevious": "-0.4%",
      "eventCurrency": "USD",
      "eventForecast": "0.6%"
    },
    {
      "eventDateTime": "2009-10-28T12:30:00",
      "eventActual": "1.0%",
      "eventCountry": "United States",
      "eventExpectedVolatility": "Moderate",
      "eventName": "Durable Goods Orders (MoM)",
      "eventTimeZone": "GMT",
      "eventPrevious": "-2.6%",
      "eventCurrency": "USD",
      "eventForecast": "1.0%"
    },
    {
      "eventDateTime": "2009-10-28T14:00:00",
      "eventActual": "402K",
      "eventCountry": "United States",
      "eventExpectedVolatility": "High",
      "eventName": "New Home Sales",
      "eventTimeZone": "GMT",
      "eventPrevious": "417K",
      "eventCurrency": "USD",
      "eventForecast": "445K"
    },
    {
      "eventDateTime": "2009-10-28T14:30:00",
      "eventActual": "0.800M",
      "eventCountry": "United States",
      "eventExpectedVolatility": "High",
      "eventName": "Crude Oil Inventories",
      "eventTimeZone": "GMT",
      "eventPrevious": "1.300M",
      "eventCurrency": "USD",
      "eventForecast": ""
    }
  ]}}
