{"events": {"event": [
    {
      "eventDateTime": "2012-08-29T06:45:00",
      "eventActual": "90",
      "eventCountry": "France",
      "eventExpectedVolatility": "Low",
      "eventName": "French Business Survey",
      "eventTimeZone": "GMT",
      "eventPrevious": "89",
      "eventCurrency": "EUR",
      "eventForecast": "89"
    },
    {
      "eventDateTime": "2012-08-29T08:00:00",
      "eventActual": "0.4%",
      "eventCountry": "Italy",
      "eventExpectedVolatility": "Low",
      "eventName": "Italian Retail Sales (MoM)",
      "eventTimeZone": "GMT",
      "eventPrevious": "0.1%",
      "eventCurrency": "EUR",
      "eventForecast": "0.0%"
    },
    {
      "eventDateTime": "2012-08-29T09:00:00",
      "eventActual": "86.0",
      "eventCountry": "Italy",
      "eventExpectedVolatility": "Low",
      "eventName": "Italian Consumer Confidence",
      "eventTimeZone": "GMT",
      "eventPrevious": "86.5",
      "eventCurrency": "EUR",
      "eventForecast": "86.0"
    },
    {
      "eventDateTime": "2012-08-29T09:10:00",
      "eventActual": "1.585%",
      "eventCountry": "Italy",
      "eventExpectedVolatility": "Low",
      "eventName": "Italian 6-Month BOT Auction",
      "eventTimeZone": "GMT",
      "eventPrevious": "2.957%",
      "eventCurrency": "EUR",
      "eventForecast": ""
    },
    {
      "eventDateTime": "2012-08-29T12:00:00",
      "eventActual": "0.3%",
      "eventCountry": "Germany",
      "eventExpectedVolatility": "Moderate",
      "eventName": "German CPI (MoM)",
      "eventTimeZone": "GMT",
      "eventPrevious": "0.4%",
      "eventCurrency": "EUR",
      "eventForecast": "0.2%"
    },
    {
      "eventDateTime": "2012-08-29T12:00:00",
      "eventActual": "2.0%",
      "eventCountry": "Germany",
      "eventExpectedVolatility": "Low",
      "eventName": "German CPI (YoY)",
      "eventTimeZone": "GMT",
      "eventPrevious": "1.7%",
      "eventCurrency": "EUR",
      "eventForecast": "1.8%"
    }
  ]}}
