{"events": {"event": [
    {
      "eventDateTime": "2016-05-04T06:45:00",
      "eventActual": "-1.80B",
      "eventCountry": "France",
      "eventExpectedVolatility": "Low",
      "eventName": "French Current Account (Mar)",
      "eventTimeZone": "GMT",
      "eventPrevious": "-4.10B",
      "eventCurrency": "EUR",
      "eventForecast": ""
    },
    {
      "eventDateTime": "2016-05-04T06:45:00",
      "eventActual": "36.4B",
      "eventCountry": "France",
      "eventExpectedVolatility": "Low",
      "eventName": "French Exports (Mar)",
      "eventTimeZone": "GMT",
      "eventPrevious": "37.9B",
      "eventCurrency": "EUR",
      "eventForecast": ""
    },
    {
      "eventDateTime": "2016-05-04T06:45:00",
      "eventActual": "40.8B",
      "eventCountry": "France",
      "eventExpectedVolatility": "Low",
      "eventName": "French Imports (Mar)",
      "eventTimeZone": "GMT",
      "eventPrevious": "43.0B",
      "eventCurrency": "EUR",
      "eventForecast": ""
    },
    {
      "eventDateTime": "2016-05-04T06:45:00",
      "eventActual": "-4.4B",
      "eventCountry": "France",
      "eventExpectedVolatility": "Low",
      "eventName": "French Trade Balance (Mar)",
      "eventTimeZone": "GMT",
      "eventPrevious": "-5.1B",
      "eventCurrency": "EUR",
      "eventForecast": "-4.4B"
    },
    {
      "eventDateTime": "2016-05-04T07:00:00",
      "eventActual": "-83.6K",
      "eventCountry": "Spain",
      "eventExpectedVolatility": "Moderate",
      "eventName": "Spanish Unemployment Change",
      "eventTimeZone": "GMT",
      "eventPrevious": "-58.2K",
      "eventCurrency": "EUR",
      "eventForecast": "-86.6K"
    },
    {
      "eventDateTime": "2016-05-04T07:15:00",
      "eventActual": "55.1",
      "eventCountry": "Spain",
      "eventExpectedVolatility": "Moderate",
      "eventName": "Spanish Services PMI (Apr)",
      "eventTimeZone": "GMT",
      "eventPrevious": "55.3",
      "eventCurrency": "EUR",
      "eventForecast": "55.0"
    },
    {
      "eventDateTime": "2016-05-04T07:45:00",
      "eventActual": "52.1",
      "eventCountry": "Italy",
      "eventExpectedVolatility": "Moderate",
      "eventName": "Italian Services PMI (Apr)",
      "eventTimeZone": "GMT",
      "eventPrevious": "51.2",
      "eventCurrency": "EUR",
      "eventForecast": "51.7"
    },
    {
      "eventDateTime": "2016-05-04T07:50:00",
      "eventActual": "50.2",
      "eventCountry": "France",
      "eventExpectedVolatility": "Low",
      "eventName": "French Markit Composite PMI (Apr)",
      "eventTimeZone": "GMT",
      "eventPrevious": "50.5",
      "eventCurrency": "EUR",
      "eventForecast": "50.5"
    },
    {
      "eventDateTime": "2016-05-04T07:50:00",
      "eventActual": "50.6",
      "eventCountry": "France",
      "eventExpectedVolatility": "Moderate",
      "eventName": "French Services PMI (Apr)",
      "eventTimeZone": "GMT",
      "eventPrevious": "50.8",
      "eventCurrency": "EUR",
      "eventForecast": "50.8"
    },
    {
      "eventDateTime": "2016-05-04T07:55:00",
      "eventActual": "53.6",
      "eventCountry": "Germany",
      "eventExpectedVolatility": "Low",
      "eventName": "German Composite PMI (Apr)",
      "eventTimeZone": "GMT",
      "eventPrevious": "53.8",
      "eventCurrency": "EUR",
      "eventForecast": "53.8"
    },
    {
      "eventDateTime": "2016-05-04T07:55:00",
      "eventActual": "54.5",
      "eventCountry": "Germany",
      "eventExpectedVolatility": "Moderate",
      "eventName": "German Services PMI (Apr)",
      "eventTimeZone": "GMT",
      "eventPrevious": "54.6",
      "eventCurrency": "EUR",
      "eventForecast": "54.6"
    },
    {
      "eventDateTime": "2016-05-04T08:00:00",
      "eventActual": "53.0",
      "eventCountry": "Euro Zone",
      "eventExpectedVolatility": "Moderate",
      "eventName": "Markit Composite PMI (Apr)",
      "eventTimeZone": "GMT",
      "eventPrevious": "53.0",
      "eventCurrency": "EUR",
      "eventForecast": "53.0"
    },
    {
      "eventDateTime": "2016-05-04T08:00:00",
      "eventActual": "53.1",
      "eventCountry": "Euro Zone",
      "eventExpectedVolatility": "Moderate",
      "eventName": "Services PMI (Apr)",
      "eventTimeZone": "GMT",
      "eventPrevious": "53.2",
      "eventCurrency": "EUR",
      "eventForecast": "53.2"
    },
    {
      "eventDateTime": "2016-05-04T09:00:00",
      "eventActual": "0.57%",
      "eventCountry": "France",
      "eventExpectedVolatility": "Low",
      "eventName": "French 10-Year OAT Auction",
      "eventTimeZone": "GMT",
      "eventPrevious": "0.43%",
      "eventCurrency": "EUR",
      "eventForecast": ""
    },
    {
      "eventDateTime": "2016-05-04T09:00:00",
      "eventActual": "1.02%",
      "eventCountry": "France",
      "eventExpectedVolatility": "Low",
      "eventName": "French 15-Year OAT Auction",
      "eventTimeZone": "GMT",
      "eventPrevious": "0.87%",
      "eventCurrency": "EUR",
      "eventForecast": ""
    },
    {
      "eventDateTime": "2016-05-04T09:00:00",
      "eventActual": "0.39%",
      "eventCountry": "France",
      "eventExpectedVolatility": "Low",
      "eventName": "French 9-Year OAT Auction",
      "eventTimeZone": "GMT",
      "eventPrevious": "0.29%",
      "eventCurrency": "EUR",
      "eventForecast": ""
    },
    {
      "eventDateTime": "2016-05-04T09:00:00",
      "eventActual": "-0.5%",
      "eventCountry": "Euro Zone",
      "eventExpectedVolatility": "Moderate",
      "eventName": "Retail Sales (MoM) (Mar)",
      "eventTimeZone": "GMT",
      "eventPrevious": "0.3%",
      "eventCurrency": "EUR",
      "eventForecast": "-0.1%"
    },
    {
      "eventDateTime": "2016-05-04T09:00:00",
      "eventActual": "2.1%",
      "eventCountry": "Euro Zone",
      "eventExpectedVolatility": "Low",
      "eventName": "Retail Sales (YoY) (Mar)",
      "eventTimeZone": "GMT",
      "eventPrevious": "2.7%",
      "eventCurrency": "EUR",
      "eventForecast": "2.5%"
    },
    {
      "eventDateTime": "2016-05-04T09:35:00",
      "eventActual": "-0.330%",
      "eventCountry": "Germany",
      "eventExpectedVolatility": "Low",
      "eventName": "German 5-Year Bobl Auction",
      "eventTimeZone": "GMT",
      "eventPrevious": "-0.340%",
      "eventCurrency": "EUR",
      "eventForecast": ""
    },
    {
      "eventDateTime": "2016-05-04T10:15:00",
      "eventActual": "",
      "eventCountry": "Germany",
      "eventExpectedVolatility": "Moderate",
      "eventName": "German Buba President Weidmann Speaks",
      "eventTimeZone": "GMT",
      "eventPrevious": "",
      "eventCurrency": "EUR",
      "eventForecast": ""
    }
  ]}}
