{"events": {"event": {
    "eventDateTime": "2016-04-14T03:45:00",
    "eventActual": "0.388%",
    "eventCountry": "Japan",
    "eventExpectedVolatility": "Low",
    "eventName": "30-Year JGB Auction",
    "eventTimeZone": "GMT",
    "eventPrevious": "0.765%",
    "eventCurrency": "JPY",
    "eventForecast": ""
  }}}
