"URA Property Index (QoQ) (Q4)";"Singapore";"SGD";"2018-01-26T00:30:00";"GMT";"0.70%";"";"0.80%";"Low"
"Unemployment Rate (Q4)";"Singapore";"SGD";"2018-01-26T02:30:00";"GMT";"2.2%";"";"2.1%";"Low"
"Industrial Production (MoM) (Dec)";"Singapore";"SGD";"2018-01-26T05:00:00";"GMT";"-2.1%";"1.5%";"-2.0%";"Low"
"Industrial Production (YoY) (Dec)";"Singapore";"SGD";"2018-01-26T05:00:00";"GMT";"5.6%";"0.5%";"-3.9%";"Low"
