"Manufacturing BSI Index (Aug)";"South Korea";"KRW";"2015-07-30T21:00:00";"GMT";"67";"";"73";"Low"
"Industrial Production (MoM) (Jun)";"South Korea";"KRW";"2015-07-30T23:00:00";"GMT";"-1.6%";"0.1%";"2.3%";"Low"
"Industrial Production (YoY) (Jun)";"South Korea";"KRW";"2015-07-30T23:00:00";"GMT";"-3.0%";"-1.0%";"1.2%";"Low"
"Retail Sales (MoM)";"South Korea";"KRW";"2015-07-30T23:00:00";"GMT";"-0.1%";"-0.1%";"-3.7%";"Low"
"Service Sector Output (MoM) (Jun)";"South Korea";"KRW";"2015-07-30T23:00:00";"GMT";"-0.4%";"";"-1.7%";"Low"
