"German Retail Sales (MoM)";"Germany";"EUR";"2009-05-29T06:00:00";"GMT";"-0.4%";"0.5%";"0.5%";"Moderate"
"M3 Money Supply (YoY)";"Euro Zone";"EUR";"2009-05-29T08:00:00";"GMT";"5.1%";"4.6%";"4.9%";"Low"
"Private Sector Loans (YoY)";"Euro Zone";"EUR";"2009-05-29T08:00:00";"GMT";"3.2%";"2.9%";"2.4%";"Low"
"CPI (YoY)";"Euro Zone";"EUR";"2009-05-29T09:00:00";"GMT";"0.6%";"0.2%";"0.0%";"High"
"Italian CPI (MoM)";"Italy";"EUR";"2009-05-29T09:00:00";"GMT";"0.2%";"0.3%";"0.2%";"Moderate"
"ECB President Trichet Speaks";"Euro Zone";"EUR";"2009-05-29T09:15:00";"GMT";" ";"";"";"High"
"CFTC EUR speculative net positions";"Euro Zone";"EUR";"2009-05-29T19:30:00";"GMT";"12.3K";"";"15.6K";"Moderate"
