{"events": {"event": [
    {
      "eventDateTime": "2006-02-24T17:00:00",
      "eventActual": "219",
      "eventCountry": "United States",
      "eventExpectedVolatility": "Moderate",
      "eventName": "U.S. Baker Hughes Oil Rig Count",
      "eventTimeZone": "GMT",
      "eventPrevious": "215",
      "eventCurrency": "USD",
      "eventForecast": ""
    },
    {
      "eventDateTime": "2006-02-24T20:30:00",
      "eventActual": "-30.1k",
      "eventCountry": "United States",
      "eventExpectedVolatility": "Moderate",
      "eventName": "CFTC Crude Oil speculative net positions",
      "eventTimeZone": "GMT",
      "eventPrevious": "-18.5k",
      "eventCurrency": "USD",
      "eventForecast": ""
    }
  ]}}
