"3-Year Note Auction (Feb)";"United States";"USD";"2012-03-01T09:00:00";"GMT";"0.25%";"";"0.25%";"Low"
"30-Year TIPS Auction (Feb)";"United States";"USD";"2012-03-01T09:00:00";"GMT";"2.13%";"";"0.75%";"Low"
"52-Week Bill Auction (Feb)";"United States";"USD";"2012-03-01T09:00:00";"GMT";"0.11%";"";"0.14%";"Low"
"6-Month Bill Auction (Feb)";"United States";"USD";"2012-03-01T09:00:00";"GMT";"0.08%";"";"0.15%";"Low"
"7-Year Note Auction (Feb)";"United States";"USD";"2012-03-01T09:00:00";"GMT";"1.25%";"";"1.38%";"Low"
"All Car Sales (Feb)";"United States";"USD";"2012-03-01T09:00:00";"GMT";"6.96M";"";"7.52M";"Low"
"All Truck Sales (Feb)";"United States";"USD";"2012-03-01T09:00:00";"GMT";"6.98M";"";"6.93M";"Low"
"Building Permits (MoM) (Feb)";"United States";"USD";"2012-03-01T09:00:00";"GMT";"0.70%";"";"5.10%";"Moderate"
"CB Employment Trends Index (Feb)";"United States";"USD";"2012-03-01T09:00:00";"GMT";"110.50";"";"111.40";"Low"
"CPI (YoY) (Feb)";"United States";"USD";"2012-03-01T09:00:00";"GMT";"2.90%";"";"2.90%";"Low"
"CPI Index, n.s.a. (Feb)";"United States";"USD";"2012-03-01T09:00:00";"GMT";"226.66";"";"227.66";"Low"
"Chain Store Sales (MoM) (Feb)";"United States";"USD";"2012-03-01T09:00:00";"GMT";"2.70%";"";"4.10%";"Low"
"Chain Store Sales (WoW) (Feb)";"United States";"USD";"2012-03-01T09:00:00";"GMT";"-1.34%";"";"0.44%";"Low"
"Chain Store Sales (YoY) (Feb)";"United States";"USD";"2012-03-01T09:00:00";"GMT";"3.16%";"";"2.81%";"Low"
"Challenger Job Cuts (Feb)";"United States";"USD";"2012-03-01T09:00:00";"GMT";"53.49K";"";"51.73K";"Low"
"Cleveland CPI (MoM) (Feb)";"United States";"USD";"2012-03-01T09:00:00";"GMT";"0.30%";"";"0.10%";"Low"
"Core CPI (YoY) (Feb)";"United States";"USD";"2012-03-01T09:00:00";"GMT";"2.30%";"";"2.20%";"Moderate"
"Core CPI Index (Feb)";"United States";"USD";"2012-03-01T09:00:00";"GMT";"227.84";"";"228.01";"Low"
"Core PCE Price Index (YoY) (Feb)";"United States";"USD";"2012-03-01T09:00:00";"GMT";"2.10%";"";"2.00%";"Moderate"
"Core PPI (YoY) (Feb)";"United States";"USD";"2012-03-01T09:00:00";"GMT";"2.50%";"";"2.60%";"Low"
"Dallas Fed PCE (Feb)";"United States";"USD";"2012-03-01T09:00:00";"GMT";"2.10%";"";"1.40%";"Low"
"Dallas Fed Services Revenues (Feb)";"United States";"USD";"2012-03-01T09:00:00";"GMT";"16.00";"";"23.30";"Low"
"Domestic Truck Sales (Feb)";"United States";"USD";"2012-03-01T09:00:00";"GMT";"5.92M";"";"5.88M";"Low"
"Durables Excluding Defense (MoM) (Feb)";"United States";"USD";"2012-03-01T09:00:00";"GMT";"-1.00%";"";"1.70%";"Low"
"EIA Weekly Distillates Stocks (Feb)";"United States";"USD";"2012-03-01T09:00:00";"GMT";"0.52M";"";"-1.33M";"Low"
"Existing Home Sales (MoM) (Feb)";"United States";"USD";"2012-03-01T09:00:00";"GMT";"3.00%";"";"2.20%";"Moderate"
"Export Price Index (MoM) (Feb)";"United States";"USD";"2012-03-01T09:00:00";"GMT";"0.30%";"";"0.50%";"Moderate"
"Factory orders ex transportation (MoM) (Feb)";"United States";"USD";"2012-03-01T09:00:00";"GMT";"-0.90%";"";"1.10%";"Low"
"Goods Orders Non Defense Ex Air (MoM) (Feb)";"United States";"USD";"2012-03-01T09:00:00";"GMT";"-4.50%";"";"1.20%";"Low"
"Government Payrolls (Feb)";"United States";"USD";"2012-03-01T09:00:00";"GMT";"-1.00K";"";"-2.00K";"Low"
"House Price Index (Feb)";"United States";"USD";"2012-03-01T09:00:00";"GMT";"182.20";"";"182.40";"Low"
"House Price Index (YoY) (Feb)";"United States";"USD";"2012-03-01T09:00:00";"GMT";"-0.90%";"";"0.30%";"Low"
"Housing Starts (MoM) (Feb)";"United States";"USD";"2012-03-01T09:00:00";"GMT";"4.20%";"";"-2.60%";"Moderate"
"ISM Manufacturing Employment (Feb)";"United States";"USD";"2012-03-01T09:00:00";"GMT";"54.20";"";"53.90";"Moderate"
"ISM Manufacturing New Orders Index (Feb)";"United States";"USD";"2012-03-01T09:00:00";"GMT";"55.20";"";"55.90";"Low"
"ISM Non-Manufacturing Business Activity (Feb)";"United States";"USD";"2012-03-01T09:00:00";"GMT";"58.80";"";"60.40";"Low"
"ISM Non-Manufacturing Employment (Feb)";"United States";"USD";"2012-03-01T09:00:00";"GMT";"54.70";"";"53.80";"Moderate"
"ISM Non-Manufacturing New Orders (Feb)";"United States";"USD";"2012-03-01T09:00:00";"GMT";"58.50";"";"58.20";"Low"
"ISM Non-Manufacturing Prices (Feb)";"United States";"USD";"2012-03-01T09:00:00";"GMT";"61.50";"";"66.80";"Low"
"ISM-New York Index (Feb)";"United States";"USD";"2012-03-01T09:00:00";"GMT";"537.90";"";"542.40";"Low"
"JOLTs Job Openings (Feb)";"United States";"USD";"2012-03-01T09:00:00";"GMT";"3.65M";"";"3.52M";"High"
"Jobless Claims 4-Week Avg. (Feb)";"United States";"USD";"2012-03-01T09:00:00";"GMT";"378.84K";"";"368.68K";"Low"
"KC Fed Composite Index (Feb)";"United States";"USD";"2012-03-01T09:00:00";"GMT";"7.00";"";"13.00";"Low"
"KC Fed Manufacturing Index (Feb)";"United States";"USD";"2012-03-01T09:00:00";"GMT";"15.00";"";"22.00";"Low"
"MBA 30-Year Mortgage Rate (Feb)";"United States";"USD";"2012-03-01T09:00:00";"GMT";"4.09%";"";"4.07%";"Low"
"MBA Purchase Index (Feb)";"United States";"USD";"2012-03-01T09:00:00";"GMT";"184.49";"";"171.40";"Low"
"Manufacturing Payrolls (Feb)";"United States";"USD";"2012-03-01T09:00:00";"GMT";"35.00K";"";"23.00K";"Low"
"Manufacturing Production (MoM) (Feb)";"United States";"USD";"2012-03-01T09:00:00";"GMT";"1.00%";"";"0.60%";"Low"
"Michigan 5-Year Inflation Expectations (Feb)";"United States";"USD";"2012-03-01T09:00:00";"GMT";"2.80%";"";"2.90%";"Low"
"Michigan Consumer Expectations (Feb)";"United States";"USD";"2012-03-01T09:00:00";"GMT";"69.10";"";"68.00";"Moderate"
"Michigan Current Conditions (Feb)";"United States";"USD";"2012-03-01T09:00:00";"GMT";"82.60";"";"83.00";"Low"
"Midwest Manufacturing (Feb)";"United States";"USD";"2012-03-01T09:00:00";"GMT";"89.80";"";"91.00";"Low"
"Mortgage Market Index (Feb)";"United States";"USD";"2012-03-01T09:00:00";"GMT";"757.30";"";"778.60";"Low"
"Mortgage Refinance Index (Feb)";"United States";"USD";"2012-03-01T09:00:00";"GMT";"4,145.59";"";"4,350.20";"Low"
"New Home Sales (MoM) (Feb)";"United States";"USD";"2012-03-01T09:00:00";"GMT";"-1.80%";"";"9.30%";"Moderate"
"Overall Net Capital Flow (Feb)";"United States";"USD";"2012-03-01T09:00:00";"GMT";"-3.50B";"";"102.30B";"Low"
"PPI (YoY) (Feb)";"United States";"USD";"2012-03-01T09:00:00";"GMT";"3.10%";"";"2.80%";"Low"
"Pending Home Sales Index (Feb)";"United States";"USD";"2012-03-01T09:00:00";"GMT";"97.00";"";"97.40";"Low"
"Philly Fed Business Conditions (Feb)";"United States";"USD";"2012-03-01T09:00:00";"GMT";"43.60";"";"28.80";"Low"
"Philly Fed CAPEX Index (Feb)";"United States";"USD";"2012-03-01T09:00:00";"GMT";"21.90";"";"14.80";"Low"
"Philly Fed Employment (Feb)";"United States";"USD";"2012-03-01T09:00:00";"GMT";"8.60";"";"-1.90";"Moderate"
"Philly Fed New Orders (Feb)";"United States";"USD";"2012-03-01T09:00:00";"GMT";"10.20";"";"10.60";"Low"
"Philly Fed Prices Paid (Feb)";"United States";"USD";"2012-03-01T09:00:00";"GMT";"25.80";"";"32.70";"Low"
"Real Earnings (MoM) (Feb)";"United States";"USD";"2012-03-01T09:00:00";"GMT";"0.20%";"";"-0.10%";"Low"
"Real Personal Consumption (MoM) (Feb)";"United States";"USD";"2012-03-01T09:00:00";"GMT";"0.50%";"";"0.50%";"Low"
"Redbook (YoY) (Feb)";"United States";"USD";"2012-03-01T09:00:00";"GMT";"2.64%";"";"2.93%";"Low"
"Retail Control (MoM) (Feb)";"United States";"USD";"2012-03-01T09:00:00";"GMT";"1.20%";"";"0.70%";"Low"
"Retail Sales Ex Gas/Autos (MoM) (Feb)";"United States";"USD";"2012-03-01T09:00:00";"GMT";"1.20%";"";"0.70%";"Low"
"Richmond Manufacturing Shipments (Feb)";"United States";"USD";"2012-03-01T09:00:00";"GMT";"7.00";"";"8.00";"Low"
"Richmond Services Index (Feb)";"United States";"USD";"2012-03-01T09:00:00";"GMT";"12.00";"";"8.00";"Low"
"Sandamp;P/CS HPI Composite - 20 n.s.a. (MoM) (Feb)";"United States";"USD";"2012-03-01T09:00:00";"GMT";"-1.00%";"";"-0.80%";"Low"
"Sandamp;P/CS HPI Composite - 20 s.a. (MoM) (Feb)";"United States";"USD";"2012-03-01T09:00:00";"GMT";"-0.10%";"";"0.00%";"Low"
"TIC Net Long-Term Transactions including Swaps (Feb)";"United States";"USD";"2012-03-01T09:00:00";"GMT";"95.00B";"";"-6.00B";"Low"
"Texas Services Sector Outlook (Feb)";"United States";"USD";"2012-03-01T09:00:00";"GMT";"19.40";"";"24.80";"Low"
"US Foreign Buying, T-bonds (Feb)";"United States";"USD";"2012-03-01T09:00:00";"GMT";"87.70B";"";"13.20B";"Low"
"Continuing Jobless Claims";"United States";"USD";"2012-03-01T13:30:00";"GMT";"3,404K";"3,400K";"3,402K";"Low"
"Core PCE Price Index (MoM)";"United States";"USD";"2012-03-01T13:30:00";"GMT";"0.1%";"0.2%";"0.2%";"Moderate"
"Initial Jobless Claims";"United States";"USD";"2012-03-01T13:30:00";"GMT";"353K";"353K";"351K";"Moderate"
"Personal Income (MoM)";"United States";"USD";"2012-03-01T13:30:00";"GMT";"0.5%";"0.6%";"0.3%";"Low"
"Personal Spending (MoM)";"United States";"USD";"2012-03-01T13:30:00";"GMT";"0.0%";"0.4%";"0.2%";"Moderate"
"Bloomberg Consumer Confidence";"United States";"USD";"2012-03-01T14:45:00";"GMT";"30.8";"";"30.6";"Low"
"Construction Spending (MoM)";"United States";"USD";"2012-03-01T15:00:00";"GMT";"1.4%";"1.0%";"-0.1%";"Low"
"Fed Chairman Bernanke Testifies";"United States";"USD";"2012-03-01T15:00:00";"GMT";" ";"";"";"High"
"ISM Manufacturing PMI";"United States";"USD";"2012-03-01T15:00:00";"GMT";"54.1";"54.6";"52.4";"High"
"ISM Manufacturing Prices";"United States";"USD";"2012-03-01T15:00:00";"GMT";"55.5";"57.2";"61.5";"Low"
"Natural Gas Storage";"United States";"USD";"2012-03-01T15:30:00";"GMT";"-166B";"-90B";"-82B";"Low"
"Total Vehicle Sales";"United States";"USD";"2012-03-01T21:15:00";"GMT";"14.20M";"14.00M";"15.10M";"Low"
