{"events": {"event": {
    "eventDateTime": "2015-08-20T12:30:00",
    "eventActual": "1.3%",
    "eventCountry": "Canada",
    "eventExpectedVolatility": "Moderate",
    "eventName": "Wholesale Sales (MoM) (Jun)",
    "eventTimeZone": "GMT",
    "eventPrevious": "-0.9%",
    "eventCurrency": "CAD",
    "eventForecast": "1.0%"
  }}}
