{"events": {"event": {
    "eventDateTime": "2011-03-25T19:30:00",
    "eventActual": "-1.5K",
    "eventCountry": "New Zealand",
    "eventExpectedVolatility": "Low",
    "eventName": "CFTC NZD speculative net positions",
    "eventTimeZone": "GMT",
    "eventPrevious": "-2.8K",
    "eventCurrency": "NZD",
    "eventForecast": ""
  }}}
