{"events": {"event": {
    "eventDateTime": "2008-06-25T10:00:00",
    "eventActual": "-9",
    "eventCountry": "United Kingdom",
    "eventExpectedVolatility": "Low",
    "eventName": "CBI Distributive Trades Survey",
    "eventTimeZone": "GMT",
    "eventPrevious": "-14",
    "eventCurrency": "GBP",
    "eventForecast": "-17"
  }}}
