{"events": {"event": {
    "eventDateTime": "2008-09-05T19:30:00",
    "eventActual": "-13.3K",
    "eventCountry": "Switzerland",
    "eventExpectedVolatility": "Low",
    "eventName": "CFTC CHF speculative net positions",
    "eventTimeZone": "GMT",
    "eventPrevious": "-13.3K",
    "eventCurrency": "CHF",
    "eventForecast": ""
  }}}
