{"events": {"event": [
    {
      "eventDateTime": "2012-03-07T12:00:00",
      "eventActual": "-3.4%",
      "eventCountry": "Brazil",
      "eventExpectedVolatility": "Moderate",
      "eventName": "Industrial Production (YoY)",
      "eventTimeZone": "GMT",
      "eventPrevious": "-1.2%",
      "eventCurrency": "BRL",
      "eventForecast": "-1.5%"
    },
    {
      "eventDateTime": "2012-03-07T21:00:00",
      "eventActual": "9.75%",
      "eventCountry": "Brazil",
      "eventExpectedVolatility": "Moderate",
      "eventName": "Interest Rate Decision",
      "eventTimeZone": "GMT",
      "eventPrevious": "10.50%",
      "eventCurrency": "BRL",
      "eventForecast": "10.00%"
    }
  ]}}
