"French Consumer Spending (MoM) (Oct)";"France";"EUR";"2018-11-29T07:45:00";"GMT";"-1.7%";"0.5%";"0.8%";"Moderate"
"French GDP (QoQ) (Q3)";"France";"EUR";"2018-11-29T07:45:00";"GMT";"0.4%";"0.4%";"0.4%";"Moderate"
"French GDP (YoY)";"France";"EUR";"2018-11-29T07:45:00";"GMT";"1.5%";"";"1.4%";"Moderate"
"ECB President Draghi Speaks";"Euro Zone";"EUR";"2018-11-29T08:00:00";"GMT";" ";"";"";"High"
"Spanish CPI (MoM)";"Spain";"EUR";"2018-11-29T08:00:00";"GMT";"0.9%";"";"-0.1%";"Low"
"Spanish CPI (YoY)";"Spain";"EUR";"2018-11-29T08:00:00";"GMT";"2.3%";"2.0%";"1.7%";"Moderate"
"Spanish HICP (MoM)";"Spain";"EUR";"2018-11-29T08:00:00";"GMT";"0.7%";"";"-0.2%";"Low"
"Spanish HICP (YoY) (Nov)";"Spain";"EUR";"2018-11-29T08:00:00";"GMT";"2.3%";"2.0%";"1.7%";"Moderate"
"Spanish Retail Sales (YoY) (Oct)";"Spain";"EUR";"2018-11-29T08:00:00";"GMT";"-0.4%";"";"1.8%";"Low"
"German Unemployment (Nov)";"Germany";"EUR";"2018-11-29T08:55:00";"GMT";"2.292M";"";"2.276M";"Low"
"German Unemployment Change (Nov)";"Germany";"EUR";"2018-11-29T08:55:00";"GMT";"-12K";"-10K";"-16K";"High"
"German Unemployment Rate (Nov)";"Germany";"EUR";"2018-11-29T08:55:00";"GMT";"5.1%";"5.1%";"5.0%";"Moderate"
"German Unemployment n.s.a. (Nov)";"Germany";"EUR";"2018-11-29T08:55:00";"GMT";"2.204M";"";"2.186M";"Low"
"Business Climate (Nov)";"Euro Zone";"EUR";"2018-11-29T10:00:00";"GMT";"1.01";"0.96";"1.09";"Low"
"Business and Consumer Survey (Nov)";"Euro Zone";"EUR";"2018-11-29T10:00:00";"GMT";"109.7";"109.0";"109.5";"Low"
"Consumer Confidence (Nov)";"Euro Zone";"EUR";"2018-11-29T10:00:00";"GMT";"-3.9";"-3.9";"-3.9";"Low"
"Consumer Inflation Expectation (Nov)";"Euro Zone";"EUR";"2018-11-29T10:00:00";"GMT";"21.6";"";"21.1";"Low"
"Industrial Sentiment (Nov)";"Euro Zone";"EUR";"2018-11-29T10:00:00";"GMT";"3.0";"2.5";"3.4";"Low"
"Selling Price Expectations (Nov)";"Euro Zone";"EUR";"2018-11-29T10:00:00";"GMT";"9.7";"";"11.3";"Low"
"Services Sentiment (Nov)";"Euro Zone";"EUR";"2018-11-29T10:00:00";"GMT";"13.3";"13.1";"13.3";"Low"
"Italian 10-Year BTP Auction";"Italy";"EUR";"2018-11-29T10:45:00";"GMT";"3.36%";"";"3.24%";"Moderate"
"Italian 5-Year BTP Auction";"Italy";"EUR";"2018-11-29T10:45:00";"GMT";"2.58%";"";"2.35%";"Low"
"Spanish Business Confidence";"Spain";"EUR";"2018-11-29T11:00:00";"GMT";"-1.9";"";"-0.2";"Low"
"ECB Financial Stability Review";"Euro Zone";"EUR";"2018-11-29T11:30:00";"GMT";" ";"";"";"Moderate"
"German CPI (MoM) (Nov)";"Germany";"EUR";"2018-11-29T13:00:00";"GMT";"0.2%";"0.2%";"0.1%";"Moderate"
"German CPI (YoY) (Nov)";"Germany";"EUR";"2018-11-29T13:00:00";"GMT";"2.5%";"2.4%";"2.3%";"Low"
"German HICP (MoM) (Nov)";"Germany";"EUR";"2018-11-29T13:00:00";"GMT";"0.1%";"0.2%";"0.1%";"Low"
"German HICP (YoY) (Nov)";"Germany";"EUR";"2018-11-29T13:00:00";"GMT";"2.4%";"2.3%";"2.2%";"Low"
