{"events": {"event": [
    {
      "eventDateTime": "2020-01-13T05:30:00",
      "eventActual": "56.2%",
      "eventCountry": "United States",
      "eventExpectedVolatility": "Moderate",
      "eventName": "Investing.com Gold Index",
      "eventTimeZone": "GMT",
      "eventPrevious": "56.7%",
      "eventCurrency": "USD",
      "eventForecast": ""
    },
    {
      "eventDateTime": "2020-01-13T05:30:00",
      "eventActual": "39.9%",
      "eventCountry": "United States",
      "eventExpectedVolatility": "Moderate",
      "eventName": "Investing.com Sandamp:P 500 Index",
      "eventTimeZone": "GMT",
      "eventPrevious": "47.1%",
      "eventCurrency": "USD",
      "eventForecast": ""
    },
    {
      "eventDateTime": "2020-01-13T15:00:00",
      "eventActual": "109.70",
      "eventCountry": "United States",
      "eventExpectedVolatility": "Low",
      "eventName": "CB Employment Trends Index (Dec)",
      "eventTimeZone": "GMT",
      "eventPrevious": "110.50",
      "eventCurrency": "USD",
      "eventForecast": ""
    },
    {
      "eventDateTime": "2020-01-13T15:00:00",
      "eventActual": "",
      "eventCountry": "United States",
      "eventExpectedVolatility": "Moderate",
      "eventName": "FOMC Member Rosengren Speaks",
      "eventTimeZone": "GMT",
      "eventPrevious": "",
      "eventCurrency": "USD",
      "eventForecast": ""
    },
    {
      "eventDateTime": "2020-01-13T16:30:00",
      "eventActual": "1.530%",
      "eventCountry": "United States",
      "eventExpectedVolatility": "Low",
      "eventName": "3-Month Bill Auction",
      "eventTimeZone": "GMT",
      "eventPrevious": "1.520%",
      "eventCurrency": "USD",
      "eventForecast": ""
    },
    {
      "eventDateTime": "2020-01-13T16:30:00",
      "eventActual": "1.530%",
      "eventCountry": "United States",
      "eventExpectedVolatility": "Low",
      "eventName": "6-Month Bill Auction",
      "eventTimeZone": "GMT",
      "eventPrevious": "1.520%",
      "eventCurrency": "USD",
      "eventForecast": ""
    },
    {
      "eventDateTime": "2020-01-13T19:00:00",
      "eventActual": "-13.3B",
      "eventCountry": "United States",
      "eventExpectedVolatility": "Moderate",
      "eventName": "Federal Budget Balance (Dec)",
      "eventTimeZone": "GMT",
      "eventPrevious": "-209.0B",
      "eventCurrency": "USD",
      "eventForecast": "-196.5B"
    }
  ]}}
