"Non-Oil Exports (MoM) (Jul)";"Singapore";"SGD";"2016-08-17T00:30:00";"GMT";"-13.00%";"0.20%";"-1.80%";"Low"
"Non-Oil Exports (YoY) (Jul)";"Singapore";"SGD";"2016-08-17T00:30:00";"GMT";"-2.40%";"-2.50%";"-10.60%";"Low"
"Trade Balance";"Singapore";"SGD";"2016-08-17T00:30:00";"GMT";"5.200B";"";"6.500B";"Low"
