{"events": {"event": [
    {
      "eventDateTime": "2018-12-14T02:00:00",
      "eventActual": "4.8%",
      "eventCountry": "China",
      "eventExpectedVolatility": "Moderate",
      "eventName": "Chinese Unemployment Rate",
      "eventTimeZone": "GMT",
      "eventPrevious": "4.9%",
      "eventCurrency": "CNY",
      "eventForecast": ""
    },
    {
      "eventDateTime": "2018-12-14T02:00:00",
      "eventActual": "5.9%",
      "eventCountry": "China",
      "eventExpectedVolatility": "Moderate",
      "eventName": "Fixed Asset Investment (YoY) (Nov)",
      "eventTimeZone": "GMT",
      "eventPrevious": "5.7%",
      "eventCurrency": "CNY",
      "eventForecast": "5.9%"
    },
    {
      "eventDateTime": "2018-12-14T02:00:00",
      "eventActual": "5.4%",
      "eventCountry": "China",
      "eventExpectedVolatility": "High",
      "eventName": "Industrial Production (YoY) (Nov)",
      "eventTimeZone": "GMT",
      "eventPrevious": "5.9%",
      "eventCurrency": "CNY",
      "eventForecast": "5.9%"
    },
    {
      "eventDateTime": "2018-12-14T02:00:00",
      "eventActual": "8.1%",
      "eventCountry": "China",
      "eventExpectedVolatility": "Low",
      "eventName": "Retail Sales (YoY) (Nov)",
      "eventTimeZone": "GMT",
      "eventPrevious": "8.6%",
      "eventCurrency": "CNY",
      "eventForecast": "8.8%"
    }
  ]}}
