{"events": {"event": {
    "eventDateTime": "2014-05-14T09:00:00",
    "eventActual": "7.4",
    "eventCountry": "Switzerland",
    "eventExpectedVolatility": "Low",
    "eventName": "ZEW Expectations",
    "eventTimeZone": "GMT",
    "eventPrevious": "7.0",
    "eventCurrency": "CHF",
    "eventForecast": "10.0"
  }}}
