"BoJ Interest Rate Decision";"Japan";"JPY";"2009-10-14T04:15:00";"GMT";"0.10%";"0.10%";"0.10%";"Moderate"
"Household Confidence";"Japan";"JPY";"2009-10-14T05:00:00";"GMT";"40.1";"41.5";"40.5";"Low"
"BoJ Press Conference";"Japan";"JPY";"2009-10-14T07:15:00";"GMT";" ";"";"";"High"
