"CPI (YoY) (Jul)";"Hong Kong";"HKD";"2000-08-01T09:00:00";"GMT";"-4.60%";"";"-3.20%";"Low"
"Exports (MoM) (Jul)";"Hong Kong";"HKD";"2000-08-01T09:00:00";"GMT";"13.90%";"";"9.70%";"Low"
"Foreign Reserves (USD) (Jul)";"Hong Kong";"HKD";"2000-08-01T09:00:00";"GMT";"97.10B";"";"98.91B";"Low"
"Imports (MoM) (Jul)";"Hong Kong";"HKD";"2000-08-01T09:00:00";"GMT";"14.50%";"";"11.60%";"Low"
"M3 Money Supply (Jul)";"Hong Kong";"HKD";"2000-08-01T09:00:00";"GMT";"3.97%";"";"6.31%";"Low"
"Retail Sales (YoY) (Jul)";"Hong Kong";"HKD";"2000-08-01T09:00:00";"GMT";"2.50%";"";"-0.10%";"Low"
"Unemployment Rate (Jul)";"Hong Kong";"HKD";"2000-08-01T09:00:00";"GMT";"5.10%";"";"5.00%";"Low"
