"Average Earnings Index +Bonus (Jul)";"United Kingdom";"GBP";"2017-09-13T08:30:00";"GMT";"2.1%";"2.3%";"2.1%";"High"
"Average Earnings ex Bonus (Jul)";"United Kingdom";"GBP";"2017-09-13T08:30:00";"GMT";"2.1%";"2.2%";"2.1%";"Low"
"Claimant Count Change (Aug)";"United Kingdom";"GBP";"2017-09-13T08:30:00";"GMT";"-2.9K";"0.6K";"-2.8K";"High"
"Unemployment Rate (Jul)";"United Kingdom";"GBP";"2017-09-13T08:30:00";"GMT";"4.4%";"4.4%";"4.3%";"Moderate"
"10-Year Treasury Gilt Auction";"United Kingdom";"GBP";"2017-09-13T09:40:00";"GMT";"1.267%";"";"1.161%";"Low"
"RICS House Price Balance (Aug)";"United Kingdom";"GBP";"2017-09-13T23:01:00";"GMT";"1%";"-1%";"6%";"Moderate"
