{"events": {"event": [
    {
      "eventDateTime": "2016-08-08T06:30:00",
      "eventActual": "33.9%",
      "eventCountry": "United Kingdom",
      "eventExpectedVolatility": "Moderate",
      "eventName": "Investing.com GBP/USD Index",
      "eventTimeZone": "GMT",
      "eventPrevious": "30.1%",
      "eventCurrency": "GBP",
      "eventForecast": ""
    },
    {
      "eventDateTime": "2016-08-08T23:01:00",
      "eventActual": "1.1%",
      "eventCountry": "United Kingdom",
      "eventExpectedVolatility": "Moderate",
      "eventName": "BRC Retail Sales Monitor (YoY) (Jul)",
      "eventTimeZone": "GMT",
      "eventPrevious": "-0.5%",
      "eventCurrency": "GBP",
      "eventForecast": "-0.7%"
    }
  ]}}
