{"events": {"event": {
    "eventDateTime": "2018-10-17T03:00:00",
    "eventActual": "6.20%",
    "eventCountry": "South Korea",
    "eventExpectedVolatility": "Low",
    "eventName": "M2 Money supply (Aug)",
    "eventTimeZone": "GMT",
    "eventPrevious": "6.20%",
    "eventCurrency": "KRW",
    "eventForecast": ""
  }}}
