"Italian Industrial New Orders (MoM) (Feb)";"Italy";"EUR";"2018-04-18T08:00:00";"GMT";"-4.6%";"";"-0.6%";"Low"
"Italian Industrial New Orders (YoY) (Feb)";"Italy";"EUR";"2018-04-18T08:00:00";"GMT";"9.6%";"";"3.4%";"Low"
"Italian Industrial Sales (MoM) (Feb)";"Italy";"EUR";"2018-04-18T08:00:00";"GMT";"-2.90%";"";"0.50%";"Low"
"Italian Industrial Sales (YoY) (Feb)";"Italy";"EUR";"2018-04-18T08:00:00";"GMT";"5.30%";"";"3.40%";"Low"
"CPI (MoM) (Mar)";"Euro Zone";"EUR";"2018-04-18T09:00:00";"GMT";"0.2%";"1.0%";"1.0%";"Moderate"
"CPI (YoY) (Mar)";"Euro Zone";"EUR";"2018-04-18T09:00:00";"GMT";"1.4%";"1.4%";"1.3%";"High"
"CPI ex Tobacco (MoM) (Mar)";"Euro Zone";"EUR";"2018-04-18T09:00:00";"GMT";"0.2%";"";"1.0%";"Low"
"CPI ex Tobacco (YoY) (Mar)";"Euro Zone";"EUR";"2018-04-18T09:00:00";"GMT";"1.1%";"";"1.2%";"Low"
"Core CPI (MoM) (Mar)";"Euro Zone";"EUR";"2018-04-18T09:00:00";"GMT";"0.4%";"1.4%";"1.4%";"Low"
"Core CPI (YoY) (Mar)";"Euro Zone";"EUR";"2018-04-18T09:00:00";"GMT";"1.0%";"1.0%";"1.0%";"Moderate"
"German 10-Year Bund Auction";"Germany";"EUR";"2018-04-18T09:35:00";"GMT";"0.600%";"";"0.510%";"Moderate"
"Eurogroup Meetings";"Euro Zone";"EUR";"2018-04-18T10:00:00";"GMT";" ";"";"";"Moderate"
