{"events": {"event": {
    "eventDateTime": "2013-09-27T19:30:00",
    "eventActual": "5.7K",
    "eventCountry": "Switzerland",
    "eventExpectedVolatility": "Low",
    "eventName": "CFTC CHF speculative net positions",
    "eventTimeZone": "GMT",
    "eventPrevious": "0.6K",
    "eventCurrency": "CHF",
    "eventForecast": ""
  }}}
