{"events": {"event": [
    {
      "eventDateTime": "2019-03-28T08:00:00",
      "eventActual": "0.4%",
      "eventCountry": "Spain",
      "eventExpectedVolatility": "Low",
      "eventName": "Spanish CPI (MoM)",
      "eventTimeZone": "GMT",
      "eventPrevious": "0.2%",
      "eventCurrency": "EUR",
      "eventForecast": ""
    },
    {
      "eventDateTime": "2019-03-28T08:00:00",
      "eventActual": "1.3%",
      "eventCountry": "Spain",
      "eventExpectedVolatility": "Moderate",
      "eventName": "Spanish CPI (YoY)",
      "eventTimeZone": "GMT",
      "eventPrevious": "1.1%",
      "eventCurrency": "EUR",
      "eventForecast": "1.4%"
    },
    {
      "eventDateTime": "2019-03-28T08:00:00",
      "eventActual": "0.4%",
      "eventCountry": "Spain",
      "eventExpectedVolatility": "Low",
      "eventName": "Spanish HICP (MoM)",
      "eventTimeZone": "GMT",
      "eventPrevious": "0.2%",
      "eventCurrency": "EUR",
      "eventForecast": ""
    },
    {
      "eventDateTime": "2019-03-28T08:00:00",
      "eventActual": "1.3%",
      "eventCountry": "Spain",
      "eventExpectedVolatility": "Moderate",
      "eventName": "Spanish HICP (YoY) (Mar)",
      "eventTimeZone": "GMT",
      "eventPrevious": "1.1%",
      "eventCurrency": "EUR",
      "eventForecast": "1.5%"
    },
    {
      "eventDateTime": "2019-03-28T09:00:00",
      "eventActual": "4.3%",
      "eventCountry": "Euro Zone",
      "eventExpectedVolatility": "Low",
      "eventName": "M3 Money Supply (YoY) (Feb)",
      "eventTimeZone": "GMT",
      "eventPrevious": "3.8%",
      "eventCurrency": "EUR",
      "eventForecast": "3.9%"
    },
    {
      "eventDateTime": "2019-03-28T09:00:00",
      "eventActual": "3.3%",
      "eventCountry": "Euro Zone",
      "eventExpectedVolatility": "Low",
      "eventName": "Private Sector Loans (YoY)",
      "eventTimeZone": "GMT",
      "eventPrevious": "3.2%",
      "eventCurrency": "EUR",
      "eventForecast": "3.3%"
    },
    {
      "eventDateTime": "2019-03-28T09:10:00",
      "eventActual": "",
      "eventCountry": "Euro Zone",
      "eventExpectedVolatility": "Moderate",
      "eventName": "ECB's De Guindos Speaks",
      "eventTimeZone": "GMT",
      "eventPrevious": "",
      "eventCurrency": "EUR",
      "eventForecast": ""
    },
    {
      "eventDateTime": "2019-03-28T10:00:00",
      "eventActual": "0.53",
      "eventCountry": "Euro Zone",
      "eventExpectedVolatility": "Low",
      "eventName": "Business Climate (Mar)",
      "eventTimeZone": "GMT",
      "eventPrevious": "0.69",
      "eventCurrency": "EUR",
      "eventForecast": "0.66"
    },
    {
      "eventDateTime": "2019-03-28T10:00:00",
      "eventActual": "105.5",
      "eventCountry": "Euro Zone",
      "eventExpectedVolatility": "Low",
      "eventName": "Business and Consumer Survey (Mar)",
      "eventTimeZone": "GMT",
      "eventPrevious": "106.2",
      "eventCurrency": "EUR",
      "eventForecast": "105.9"
    },
    {
      "eventDateTime": "2019-03-28T10:00:00",
      "eventActual": "-7.2",
      "eventCountry": "Euro Zone",
      "eventExpectedVolatility": "Low",
      "eventName": "Consumer Confidence (Mar)",
      "eventTimeZone": "GMT",
      "eventPrevious": "-7.4",
      "eventCurrency": "EUR",
      "eventForecast": "-7.2"
    },
    {
      "eventDateTime": "2019-03-28T10:00:00",
      "eventActual": "17.0",
      "eventCountry": "Euro Zone",
      "eventExpectedVolatility": "Low",
      "eventName": "Consumer Inflation Expectation (Mar)",
      "eventTimeZone": "GMT",
      "eventPrevious": "18.0",
      "eventCurrency": "EUR",
      "eventForecast": ""
    },
    {
      "eventDateTime": "2019-03-28T10:00:00",
      "eventActual": "-1.7",
      "eventCountry": "Euro Zone",
      "eventExpectedVolatility": "Low",
      "eventName": "Industrial Sentiment (Mar)",
      "eventTimeZone": "GMT",
      "eventPrevious": "-0.4",
      "eventCurrency": "EUR",
      "eventForecast": "-0.8"
    },
    {
      "eventDateTime": "2019-03-28T10:00:00",
      "eventActual": "7.0",
      "eventCountry": "Euro Zone",
      "eventExpectedVolatility": "Low",
      "eventName": "Selling Price Expectations (Mar)",
      "eventTimeZone": "GMT",
      "eventPrevious": "9.0",
      "eventCurrency": "EUR",
      "eventForecast": ""
    },
    {
      "eventDateTime": "2019-03-28T10:00:00",
      "eventActual": "11.3",
      "eventCountry": "Euro Zone",
      "eventExpectedVolatility": "Low",
      "eventName": "Services Sentiment (Mar)",
      "eventTimeZone": "GMT",
      "eventPrevious": "12.1",
      "eventCurrency": "EUR",
      "eventForecast": "12.0"
    },
    {
      "eventDateTime": "2019-03-28T10:45:00",
      "eventActual": "2.61%",
      "eventCountry": "Italy",
      "eventExpectedVolatility": "Moderate",
      "eventName": "Italian 10-Year BTP Auction",
      "eventTimeZone": "GMT",
      "eventPrevious": "2.81%",
      "eventCurrency": "EUR",
      "eventForecast": ""
    },
    {
      "eventDateTime": "2019-03-28T10:45:00",
      "eventActual": "1.71%",
      "eventCountry": "Italy",
      "eventExpectedVolatility": "Low",
      "eventName": "Italian 5-Year BTP Auction",
      "eventTimeZone": "GMT",
      "eventPrevious": "1.59%",
      "eventCurrency": "EUR",
      "eventForecast": ""
    },
    {
      "eventDateTime": "2019-03-28T13:00:00",
      "eventActual": "0.4%",
      "eventCountry": "Germany",
      "eventExpectedVolatility": "Moderate",
      "eventName": "German CPI (MoM) (Mar)",
      "eventTimeZone": "GMT",
      "eventPrevious": "0.4%",
      "eventCurrency": "EUR",
      "eventForecast": "0.6%"
    },
    {
      "eventDateTime": "2019-03-28T13:00:00",
      "eventActual": "1.3%",
      "eventCountry": "Germany",
      "eventExpectedVolatility": "Low",
      "eventName": "German CPI (YoY) (Mar)",
      "eventTimeZone": "GMT",
      "eventPrevious": "1.3%",
      "eventCurrency": "EUR",
      "eventForecast": "1.6%"
    },
    {
      "eventDateTime": "2019-03-28T13:00:00",
      "eventActual": "0.5%",
      "eventCountry": "Germany",
      "eventExpectedVolatility": "Low",
      "eventName": "German HICP (MoM) (Mar)",
      "eventTimeZone": "GMT",
      "eventPrevious": "0.5%",
      "eventCurrency": "EUR",
      "eventForecast": "0.7%"
    },
    {
      "eventDateTime": "2019-03-28T13:00:00",
      "eventActual": "1.4%",
      "eventCountry": "Germany",
      "eventExpectedVolatility": "Low",
      "eventName": "German HICP (YoY) (Mar)",
      "eventTimeZone": "GMT",
      "eventPrevious": "1.4%",
      "eventCurrency": "EUR",
      "eventForecast": "1.6%"
    },
    {
      "eventDateTime": "2019-03-28T14:00:00",
      "eventActual": "-2.3",
      "eventCountry": "Spain",
      "eventExpectedVolatility": "Low",
      "eventName": "Spanish Business Confidence",
      "eventTimeZone": "GMT",
      "eventPrevious": "-4.7",
      "eventCurrency": "EUR",
      "eventForecast": ""
    }
  ]}}
