{"events": {"event": [
    {
      "eventDateTime": "2014-01-20T02:00:00",
      "eventActual": "19.6%",
      "eventCountry": "China",
      "eventExpectedVolatility": "Moderate",
      "eventName": "Fixed Asset Investment (YoY)",
      "eventTimeZone": "GMT",
      "eventPrevious": "19.9%",
      "eventCurrency": "CNY",
      "eventForecast": "19.8%"
    },
    {
      "eventDateTime": "2014-01-20T02:00:00",
      "eventActual": "1.8%",
      "eventCountry": "China",
      "eventExpectedVolatility": "Moderate",
      "eventName": "GDP (QoQ)",
      "eventTimeZone": "GMT",
      "eventPrevious": "2.2%",
      "eventCurrency": "CNY",
      "eventForecast": "2.0%"
    },
    {
      "eventDateTime": "2014-01-20T02:00:00",
      "eventActual": "7.7%",
      "eventCountry": "China",
      "eventExpectedVolatility": "High",
      "eventName": "GDP (YoY)",
      "eventTimeZone": "GMT",
      "eventPrevious": "7.8%",
      "eventCurrency": "CNY",
      "eventForecast": "7.6%"
    },
    {
      "eventDateTime": "2014-01-20T02:00:00",
      "eventActual": "9.7%",
      "eventCountry": "China",
      "eventExpectedVolatility": "High",
      "eventName": "Industrial Production (YoY)",
      "eventTimeZone": "GMT",
      "eventPrevious": "10.0%",
      "eventCurrency": "CNY",
      "eventForecast": "9.8%"
    },
    {
      "eventDateTime": "2014-01-20T02:00:00",
      "eventActual": "13.6%",
      "eventCountry": "China",
      "eventExpectedVolatility": "Low",
      "eventName": "Retail Sales (YoY)",
      "eventTimeZone": "GMT",
      "eventPrevious": "13.7%",
      "eventCurrency": "CNY",
      "eventForecast": "13.6%"
    }
  ]}}
