{"events": {"event": {
    "eventDateTime": "2008-05-27T09:30:00",
    "eventActual": "38.7K",
    "eventCountry": "United Kingdom",
    "eventExpectedVolatility": "Moderate",
    "eventName": "Gross Mortgage Approvals",
    "eventTimeZone": "GMT",
    "eventPrevious": "35.4K",
    "eventCurrency": "GBP",
    "eventForecast": ""
  }}}
