{"events": {"event": [
    {
      "eventDateTime": "2010-06-15T12:30:00",
      "eventActual": "-0.6%",
      "eventCountry": "United States",
      "eventExpectedVolatility": "Moderate",
      "eventName": "Import Price Index (MoM)",
      "eventTimeZone": "GMT",
      "eventPrevious": "1.1%",
      "eventCurrency": "USD",
      "eventForecast": "-1.1%"
    },
    {
      "eventDateTime": "2010-06-15T12:30:00",
      "eventActual": "19.6",
      "eventCountry": "United States",
      "eventExpectedVolatility": "Moderate",
      "eventName": "NY Empire State Manufacturing Index",
      "eventTimeZone": "GMT",
      "eventPrevious": "19.1",
      "eventCurrency": "USD",
      "eventForecast": "20.0"
    },
    {
      "eventDateTime": "2010-06-15T13:00:00",
      "eventActual": "83.0B",
      "eventCountry": "United States",
      "eventExpectedVolatility": "Moderate",
      "eventName": "TIC Net Long-Term Transactions",
      "eventTimeZone": "GMT",
      "eventPrevious": "140.5B",
      "eventCurrency": "USD",
      "eventForecast": "77.3B"
    },
    {
      "eventDateTime": "2010-06-15T14:00:00",
      "eventActual": "17",
      "eventCountry": "United States",
      "eventExpectedVolatility": "Low",
      "eventName": "NAHB Housing Market Index",
      "eventTimeZone": "GMT",
      "eventPrevious": "22",
      "eventCurrency": "USD",
      "eventForecast": "22"
    },
    {
      "eventDateTime": "2010-06-15T21:00:00",
      "eventActual": "27.5",
      "eventCountry": "United States",
      "eventExpectedVolatility": "Low",
      "eventName": "Bloomberg Consumer Confidence",
      "eventTimeZone": "GMT",
      "eventPrevious": "28.5",
      "eventCurrency": "USD",
      "eventForecast": ""
    }
  ]}}
