"Investing.com EUR/USD Index";"Euro Zone";"EUR";"2016-07-11T06:30:00";"GMT";"27.5%";"";"26.2%";"Moderate"
"Italian Industrial Production (MoM) (May)";"Italy";"EUR";"2016-07-11T08:00:00";"GMT";"0.4%";"-0.1%";"-0.6%";"Low"
"Italian Industrial Production (YoY) (May)";"Italy";"EUR";"2016-07-11T08:00:00";"GMT";"1.8%";"0.5%";"-0.6%";"Low"
"German 6-Month Bubill Auction";"Germany";"EUR";"2016-07-11T09:35:00";"GMT";"-0.533%";"";"-0.668%";"Low"
"Eurogroup Meetings";"Euro Zone";"EUR";"2016-07-11T13:00:00";"GMT";" ";"";"";"Moderate"
"French 12-Month BTF Auction";"France";"EUR";"2016-07-11T13:00:00";"GMT";"-0.563%";"";"-0.582%";"Low"
"French 3-Month BTF Auction";"France";"EUR";"2016-07-11T13:00:00";"GMT";"-0.572%";"";"-0.580%";"Low"
"French 6-Month BTF Auction";"France";"EUR";"2016-07-11T13:00:00";"GMT";"-0.572%";"";"-0.581%";"Low"
