{"events": {"event": [
    {
      "eventDateTime": "2017-12-14T00:00:00",
      "eventActual": "-2.650B",
      "eventCountry": "New Zealand",
      "eventExpectedVolatility": "Low",
      "eventName": "Budget Balance (Jul)",
      "eventTimeZone": "GMT",
      "eventPrevious": "1.500B",
      "eventCurrency": "NZD",
      "eventForecast": ""
    },
    {
      "eventDateTime": "2017-12-14T00:00:00",
      "eventActual": "2.540B",
      "eventCountry": "New Zealand",
      "eventExpectedVolatility": "Low",
      "eventName": "Economic Forecast (Jul)",
      "eventTimeZone": "GMT",
      "eventPrevious": "3.710B",
      "eventCurrency": "NZD",
      "eventForecast": ""
    },
    {
      "eventDateTime": "2017-12-14T00:00:00",
      "eventActual": "21.70%",
      "eventCountry": "New Zealand",
      "eventExpectedVolatility": "Low",
      "eventName": "Net Debt Forecast (Jul)",
      "eventTimeZone": "GMT",
      "eventPrevious": "22.50%",
      "eventCurrency": "NZD",
      "eventForecast": ""
    },
    {
      "eventDateTime": "2017-12-14T21:30:00",
      "eventActual": "57.7",
      "eventCountry": "New Zealand",
      "eventExpectedVolatility": "Moderate",
      "eventName": "Business NZ PMI (Nov)",
      "eventTimeZone": "GMT",
      "eventPrevious": "57.2",
      "eventCurrency": "NZD",
      "eventForecast": ""
    }
  ]}}
