{"events": {"event": {
    "eventDateTime": "2017-02-14T23:00:00",
    "eventActual": "3.6%",
    "eventCountry": "South Korea",
    "eventExpectedVolatility": "Low",
    "eventName": "Unemployment Rate (Jan)",
    "eventTimeZone": "GMT",
    "eventPrevious": "3.5%",
    "eventCurrency": "KRW",
    "eventForecast": "3.4%"
  }}}
