{"events": {"event": {
    "eventDateTime": "2012-09-14T19:30:00",
    "eventActual": "-9.0K",
    "eventCountry": "Switzerland",
    "eventExpectedVolatility": "Low",
    "eventName": "CFTC CHF speculative net positions",
    "eventTimeZone": "GMT",
    "eventPrevious": "-13.1K",
    "eventCurrency": "CHF",
    "eventForecast": ""
  }}}
