{"events": {"event": {
    "eventDateTime": "2018-03-07T09:00:00",
    "eventActual": "443.50B",
    "eventCountry": "Hong Kong",
    "eventExpectedVolatility": "Low",
    "eventName": "Foreign Reserves (USD) (Feb)",
    "eventTimeZone": "GMT",
    "eventPrevious": "441.50B",
    "eventCurrency": "HKD",
    "eventForecast": ""
  }}}
