"Investing.com Gold Index";"United States";"USD";"2015-03-23T06:30:00";"GMT";"51.7%";"";"45.9%";"Moderate"
"Investing.com Sandamp:P 500 Index";"United States";"USD";"2015-03-23T06:30:00";"GMT";"31.3%";"";"22.1%";"Moderate"
"FOMC Member Mester Speaks";"United States";"USD";"2015-03-23T08:40:00";"GMT";" ";"";"";"Moderate"
"Chicago Fed National Activity (Feb)";"United States";"USD";"2015-03-23T12:30:00";"GMT";"-0.10";"0.10";"-0.11";"Low"
"Existing Home Sales (Feb)";"United States";"USD";"2015-03-23T14:00:00";"GMT";"4.82M";"4.90M";"4.88M";"High"
"Existing Home Sales (MoM) (Feb)";"United States";"USD";"2015-03-23T14:00:00";"GMT";"-4.9%";"1.7%";"1.2%";"Moderate"
"3-Month Bill Auction";"United States";"USD";"2015-03-23T15:30:00";"GMT";"0.040%";"";"0.020%";"Low"
"6-Month Bill Auction";"United States";"USD";"2015-03-23T15:30:00";"GMT";"0.145%";"";"0.105%";"Low"
"FOMC Member Stanley Fischer Speaks";"United States";"USD";"2015-03-23T16:20:00";"GMT";" ";"";"";"Moderate"
