{"events": {"event": [
    {
      "eventDateTime": "2015-06-18T12:00:00",
      "eventActual": "360.6B",
      "eventCountry": "Russia",
      "eventExpectedVolatility": "Moderate",
      "eventName": "Central Bank reserves (USD)",
      "eventTimeZone": "GMT",
      "eventPrevious": "361.6B",
      "eventCurrency": "RUB",
      "eventForecast": ""
    },
    {
      "eventDateTime": "2015-06-18T13:00:00",
      "eventActual": "-9.2%",
      "eventCountry": "Russia",
      "eventExpectedVolatility": "Moderate",
      "eventName": "Retail Sales (YoY)",
      "eventTimeZone": "GMT",
      "eventPrevious": "-9.6%",
      "eventCurrency": "RUB",
      "eventForecast": "-10.0%"
    },
    {
      "eventDateTime": "2015-06-18T13:00:00",
      "eventActual": "5.6%",
      "eventCountry": "Russia",
      "eventExpectedVolatility": "Moderate",
      "eventName": "Unemployment Rate (May)",
      "eventTimeZone": "GMT",
      "eventPrevious": "5.8%",
      "eventCurrency": "RUB",
      "eventForecast": "5.8%"
    }
  ]}}
