"MBA 30-Year Mortgage Rate";"United States";"USD";"2017-05-31T11:00:00";"GMT";"4.17%";"";"4.17%";"Low"
"MBA Mortgage Applications (WoW)";"United States";"USD";"2017-05-31T11:00:00";"GMT";"4.4%";"";"-3.4%";"Low"
"MBA Purchase Index";"United States";"USD";"2017-05-31T11:00:00";"GMT";"241.6";"";"238.1";"Low"
"Mortgage Market Index";"United States";"USD";"2017-05-31T11:00:00";"GMT";"416.2";"";"402.2";"Low"
"Mortgage Refinance Index";"United States";"USD";"2017-05-31T11:00:00";"GMT";"1,402.0";"";"1,323.1";"Low"
"FOMC Member Kaplan Speaks";"United States";"USD";"2017-05-31T12:00:00";"GMT";" ";"";"";"Moderate"
"Redbook (MoM)";"United States";"USD";"2017-05-31T12:55:00";"GMT";"-1.1%";"";"-1.1%";"Low"
"Redbook (YoY)";"United States";"USD";"2017-05-31T12:55:00";"GMT";"2.0%";"";"1.8%";"Low"
"Chicago PMI (May)";"United States";"USD";"2017-05-31T13:45:00";"GMT";"58.3";"57.0";"59.4";"Moderate"
"Pending Home Sales (MoM) (Apr)";"United States";"USD";"2017-05-31T14:00:00";"GMT";"-0.9%";"0.5%";"-1.3%";"High"
"Pending Home Sales Index (Apr)";"United States";"USD";"2017-05-31T14:00:00";"GMT";"111.3";"";"109.8";"Low"
"Dallas Fed Services Revenues (May)";"United States";"USD";"2017-05-31T14:30:00";"GMT";"12.1";"";"15.9";"Low"
"Texas Services Sector Outlook (May)";"United States";"USD";"2017-05-31T14:30:00";"GMT";"9.0";"";"7.7";"Low"
"Beige Book";"United States";"USD";"2017-05-31T18:00:00";"GMT";" ";"";"";"Moderate"
"API Weekly Crude Oil Stock";"United States";"USD";"2017-05-31T20:35:00";"GMT";"-1.500M";"-2.500M";"-8.670M";"Moderate"
"FOMC Member Williams Speaks";"United States";"USD";"2017-05-31T23:30:00";"GMT";" ";"";"";"Moderate"
