{"events": {"event": [
    {
      "eventDateTime": "2019-10-08T10:00:00",
      "eventActual": "101.8",
      "eventCountry": "United States",
      "eventExpectedVolatility": "Low",
      "eventName": "NFIB Small Business Optimism (Sep)",
      "eventTimeZone": "GMT",
      "eventPrevious": "103.1",
      "eventCurrency": "USD",
      "eventForecast": "102.6"
    },
    {
      "eventDateTime": "2019-10-08T12:30:00",
      "eventActual": "-0.3%",
      "eventCountry": "United States",
      "eventExpectedVolatility": "Moderate",
      "eventName": "Core PPI (MoM) (Sep)",
      "eventTimeZone": "GMT",
      "eventPrevious": "0.3%",
      "eventCurrency": "USD",
      "eventForecast": "0.2%"
    },
    {
      "eventDateTime": "2019-10-08T12:30:00",
      "eventActual": "2.0%",
      "eventCountry": "United States",
      "eventExpectedVolatility": "Low",
      "eventName": "Core PPI (YoY) (Sep)",
      "eventTimeZone": "GMT",
      "eventPrevious": "2.3%",
      "eventCurrency": "USD",
      "eventForecast": "2.3%"
    },
    {
      "eventDateTime": "2019-10-08T12:30:00",
      "eventActual": "-0.3%",
      "eventCountry": "United States",
      "eventExpectedVolatility": "High",
      "eventName": "PPI (MoM) (Sep)",
      "eventTimeZone": "GMT",
      "eventPrevious": "0.1%",
      "eventCurrency": "USD",
      "eventForecast": "0.1%"
    },
    {
      "eventDateTime": "2019-10-08T12:30:00",
      "eventActual": "1.4%",
      "eventCountry": "United States",
      "eventExpectedVolatility": "Low",
      "eventName": "PPI (YoY) (Sep)",
      "eventTimeZone": "GMT",
      "eventPrevious": "1.8%",
      "eventCurrency": "USD",
      "eventForecast": "1.8%"
    },
    {
      "eventDateTime": "2019-10-08T12:55:00",
      "eventActual": "-1.1%",
      "eventCountry": "United States",
      "eventExpectedVolatility": "Low",
      "eventName": "Redbook (MoM)",
      "eventTimeZone": "GMT",
      "eventPrevious": "-1.1%",
      "eventCurrency": "USD",
      "eventForecast": ""
    },
    {
      "eventDateTime": "2019-10-08T12:55:00",
      "eventActual": "5.5%",
      "eventCountry": "United States",
      "eventExpectedVolatility": "Low",
      "eventName": "Redbook (YoY)",
      "eventTimeZone": "GMT",
      "eventPrevious": "5.8%",
      "eventCurrency": "USD",
      "eventForecast": ""
    },
    {
      "eventDateTime": "2019-10-08T14:00:00",
      "eventActual": "52.6",
      "eventCountry": "United States",
      "eventExpectedVolatility": "Low",
      "eventName": "IBD/TIPP Economic Optimism",
      "eventTimeZone": "GMT",
      "eventPrevious": "50.8",
      "eventCurrency": "USD",
      "eventForecast": "51.2"
    },
    {
      "eventDateTime": "2019-10-08T15:30:00",
      "eventActual": "1.600%",
      "eventCountry": "United States",
      "eventExpectedVolatility": "Low",
      "eventName": "52-Week Bill Auction",
      "eventTimeZone": "GMT",
      "eventPrevious": "1.740%",
      "eventCurrency": "USD",
      "eventForecast": ""
    },
    {
      "eventDateTime": "2019-10-08T17:00:00",
      "eventActual": "1.413%",
      "eventCountry": "United States",
      "eventExpectedVolatility": "Low",
      "eventName": "3-Year Note Auction",
      "eventTimeZone": "GMT",
      "eventPrevious": "1.573%",
      "eventCurrency": "USD",
      "eventForecast": ""
    },
    {
      "eventDateTime": "2019-10-08T17:35:00",
      "eventActual": "",
      "eventCountry": "United States",
      "eventExpectedVolatility": "Low",
      "eventName": "Chicago Fed President Evans Speaks",
      "eventTimeZone": "GMT",
      "eventPrevious": "",
      "eventCurrency": "USD",
      "eventForecast": ""
    },
    {
      "eventDateTime": "2019-10-08T17:50:00",
      "eventActual": "",
      "eventCountry": "United States",
      "eventExpectedVolatility": "High",
      "eventName": "Fed Chair Powell Speaks",
      "eventTimeZone": "GMT",
      "eventPrevious": "",
      "eventCurrency": "USD",
      "eventForecast": ""
    },
    {
      "eventDateTime": "2019-10-08T20:30:00",
      "eventActual": "4.100M",
      "eventCountry": "United States",
      "eventExpectedVolatility": "Moderate",
      "eventName": "API Weekly Crude Oil Stock",
      "eventTimeZone": "GMT",
      "eventPrevious": "-5.920M",
      "eventCurrency": "USD",
      "eventForecast": ""
    },
    {
      "eventDateTime": "2019-10-08T21:00:00",
      "eventActual": "",
      "eventCountry": "United States",
      "eventExpectedVolatility": "Moderate",
      "eventName": "FOMC Member Kashkari Speaks",
      "eventTimeZone": "GMT",
      "eventPrevious": "",
      "eventCurrency": "USD",
      "eventForecast": ""
    }
  ]}}
