{"events": {"event": {
    "eventDateTime": "2008-09-30T03:00:00",
    "eventActual": "1.60",
    "eventCountry": "New Zealand",
    "eventExpectedVolatility": "Moderate",
    "eventName": "ANZ Business Confidence",
    "eventTimeZone": "GMT",
    "eventPrevious": "-20.50",
    "eventCurrency": "NZD",
    "eventForecast": ""
  }}}
