"Bank Lending (YoY) (Aug)";"Japan";"JPY";"2006-09-01T09:00:00";"GMT";"2.00%";"";"1.80%";"Low"
"Capacity Utilization (MoM) (Aug)";"Japan";"JPY";"2006-09-01T09:00:00";"GMT";"-0.10%";"";"0.30%";"Low"
"Coincident Indicator (MoM) (Aug)";"Japan";"JPY";"2006-09-01T09:00:00";"GMT";"0.10%";"";"0.60%";"Low"
"Construction Orders (YoY) (Aug)";"Japan";"JPY";"2006-09-01T09:00:00";"GMT";"-20.10%";"";"10.30%";"Low"
"Core Machinery Orders (MoM) (Aug)";"Japan";"JPY";"2006-09-01T09:00:00";"GMT";"-11.30%";"";"0.10%";"Low"
"Core Machinery Orders (YoY) (Aug)";"Japan";"JPY";"2006-09-01T09:00:00";"GMT";"2.10%";"";"-1.00%";"Low"
"Current Account n.s.a. (Aug)";"Japan";"JPY";"2006-09-01T09:00:00";"GMT";"1.83T";"";"1.52T";"Moderate"
"Economy Watchers Current Index (Aug)";"Japan";"JPY";"2006-09-01T09:00:00";"GMT";"48.40";"";"50.20";"Low"
"Exports (YoY) (Aug)";"Japan";"JPY";"2006-09-01T09:00:00";"GMT";"14.20%";"";"17.60%";"Moderate"
"Foreign Bonds Buying (Aug)";"Japan";"JPY";"2006-09-01T09:00:00";"GMT";"4,075.40B";"";"9,621.90B";"Low"
"Foreign Investments in Japanese Stocks (Aug)";"Japan";"JPY";"2006-09-01T09:00:00";"GMT";"888.40B";"";"3,905.20B";"Low"
"Foreign Reserves (USD) (Aug)";"Japan";"JPY";"2006-09-01T09:00:00";"GMT";"871.94B";"";"878.75B";"Low"
"Household Confidence (Aug)";"Japan";"JPY";"2006-09-01T09:00:00";"GMT";"48.40";"";"47.50";"Low"
"Household Spending (MoM) (Aug)";"Japan";"JPY";"2006-09-01T09:00:00";"GMT";"-1.30%";"";"0.30%";"Moderate"
"Household Spending (YoY) (Aug)";"Japan";"JPY";"2006-09-01T09:00:00";"GMT";"-1.30%";"";"-4.30%";"Moderate"
"Housing Starts (YoY) (Aug)";"Japan";"JPY";"2006-09-01T09:00:00";"GMT";"-7.50%";"";"1.80%";"Low"
"Imports (YoY) (Aug)";"Japan";"JPY";"2006-09-01T09:00:00";"GMT";"17.00%";"";"16.20%";"Low"
"Industrial Production (MoM) (Aug)";"Japan";"JPY";"2006-09-01T09:00:00";"GMT";"0.40%";"";"0.40%";"Moderate"
"Jobs/applications ratio (Aug)";"Japan";"JPY";"2006-09-01T09:00:00";"GMT";"1.08";"";"1.07";"Moderate"
"Leading Index (MoM) (Aug)";"Japan";"JPY";"2006-09-01T09:00:00";"GMT";"-0.70%";"";"1.00%";"Low"
"National CPI (YoY) (Aug)";"Japan";"JPY";"2006-09-01T09:00:00";"GMT";"0.30%";"";"0.90%";"Low"
"National Core CPI (YoY) (Aug)";"Japan";"JPY";"2006-09-01T09:00:00";"GMT";"0.20%";"";"0.30%";"Moderate"
"Overtime Pay (YoY) (Aug)";"Japan";"JPY";"2006-09-01T09:00:00";"GMT";"2.30%";"";"2.50%";"Low"
"PPI (MoM) (Aug)";"Japan";"JPY";"2006-09-01T09:00:00";"GMT";"0.50%";"";"0.30%";"Low"
"PPI (YoY) (Aug)";"Japan";"JPY";"2006-09-01T09:00:00";"GMT";"2.50%";"";"2.60%";"Low"
"Retail Sales (YoY) (Aug)";"Japan";"JPY";"2006-09-01T09:00:00";"GMT";"-0.20%";"";"0.80%";"Moderate"
"Reuters Tankan Index (Aug)";"Japan";"JPY";"2006-09-01T09:00:00";"GMT";"35.00";"";"30.00";"Low"
"Tokyo CPI (YoY) (Aug)";"Japan";"JPY";"2006-09-01T09:00:00";"GMT";"0.20%";"";"0.80%";"Low"
"Tokyo Core CPI (YoY) (Aug)";"Japan";"JPY";"2006-09-01T09:00:00";"GMT";"0.00%";"";"0.00%";"Moderate"
"Trade Balance (Aug)";"Japan";"JPY";"2006-09-01T09:00:00";"GMT";"851.10B";"";"191.80B";"Moderate"
"Unemployment Rate (Aug)";"Japan";"JPY";"2006-09-01T09:00:00";"GMT";"4.10%";"";"4.10%";"Low"
