{"events": {"event": {
    "eventDateTime": "2004-06-25T09:00:00",
    "eventActual": "94.6",
    "eventCountry": "Germany",
    "eventExpectedVolatility": "High",
    "eventName": "German Ifo Business Climate Index",
    "eventTimeZone": "GMT",
    "eventPrevious": "96.1",
    "eventCurrency": "EUR",
    "eventForecast": "96.5"
  }}}
