{"events": {"event": {
    "eventDateTime": "2013-09-24T08:30:00",
    "eventActual": "38.2K",
    "eventCountry": "United Kingdom",
    "eventExpectedVolatility": "Moderate",
    "eventName": "Gross Mortgage Approvals",
    "eventTimeZone": "GMT",
    "eventPrevious": "37.4K",
    "eventCurrency": "GBP",
    "eventForecast": "38.6K"
  }}}
