{"events": {"event": [
    {
      "eventDateTime": "2008-07-17T12:30:00",
      "eventActual": "10.70B",
      "eventCountry": "Canada",
      "eventExpectedVolatility": "Moderate",
      "eventName": "Foreign Securities Purchases",
      "eventTimeZone": "GMT",
      "eventPrevious": "9.80B",
      "eventCurrency": "CAD",
      "eventForecast": "3.50B"
    },
    {
      "eventDateTime": "2008-07-17T14:30:00",
      "eventActual": "",
      "eventCountry": "Canada",
      "eventExpectedVolatility": "High",
      "eventName": "BoC Monetary Policy Report",
      "eventTimeZone": "GMT",
      "eventPrevious": "",
      "eventCurrency": "CAD",
      "eventForecast": ""
    }
  ]}}
