{"events": {"event": {
    "eventDateTime": "2013-10-25T11:30:00",
    "eventActual": "281.12B",
    "eventCountry": "India",
    "eventExpectedVolatility": "Low",
    "eventName": "FX Reserves, USD",
    "eventTimeZone": "GMT",
    "eventPrevious": "279.24B",
    "eventCurrency": "INR",
    "eventForecast": ""
  }}}
