{"events": {"event": [
    {
      "eventDateTime": "2012-07-25T08:00:00",
      "eventActual": "95.6",
      "eventCountry": "Germany",
      "eventExpectedVolatility": "Moderate",
      "eventName": "German Business Expectations",
      "eventTimeZone": "GMT",
      "eventPrevious": "97.2",
      "eventCurrency": "EUR",
      "eventForecast": "96.7"
    },
    {
      "eventDateTime": "2012-07-25T08:00:00",
      "eventActual": "111.6",
      "eventCountry": "Germany",
      "eventExpectedVolatility": "Moderate",
      "eventName": "German Current Assessment",
      "eventTimeZone": "GMT",
      "eventPrevious": "113.9",
      "eventCurrency": "EUR",
      "eventForecast": "113.0"
    },
    {
      "eventDateTime": "2012-07-25T08:00:00",
      "eventActual": "95.1",
      "eventCountry": "Germany",
      "eventExpectedVolatility": "High",
      "eventName": "German Ifo Business Climate Index",
      "eventTimeZone": "GMT",
      "eventPrevious": "96.6",
      "eventCurrency": "EUR",
      "eventForecast": ""
    },
    {
      "eventDateTime": "2012-07-25T08:30:00",
      "eventActual": "86.5",
      "eventCountry": "Italy",
      "eventExpectedVolatility": "Low",
      "eventName": "Italian Consumer Confidence",
      "eventTimeZone": "GMT",
      "eventPrevious": "85.4",
      "eventCurrency": "EUR",
      "eventForecast": "85.0"
    },
    {
      "eventDateTime": "2012-07-25T09:30:00",
      "eventActual": "2.170%",
      "eventCountry": "Germany",
      "eventExpectedVolatility": "Low",
      "eventName": "German 30-Year Bund Auction",
      "eventTimeZone": "GMT",
      "eventPrevious": "2.410%",
      "eventCurrency": "EUR",
      "eventForecast": ""
    }
  ]}}
