"German Business Expectations";"Germany";"EUR";"2012-07-25T08:00:00";"GMT";"97.2";"96.7";"95.6";"Moderate"
"German Current Assessment";"Germany";"EUR";"2012-07-25T08:00:00";"GMT";"113.9";"113.0";"111.6";"Moderate"
"German Ifo Business Climate Index";"Germany";"EUR";"2012-07-25T08:00:00";"GMT";"96.6";"";"95.1";"High"
"Italian Consumer Confidence";"Italy";"EUR";"2012-07-25T08:30:00";"GMT";"85.4";"85.0";"86.5";"Low"
"German 30-Year Bund Auction";"Germany";"EUR";"2012-07-25T09:30:00";"GMT";"2.410%";"";"2.170%";"Low"
