{"events": {"event": [
    {
      "eventDateTime": "2019-04-01T06:00:00",
      "eventActual": "52.8",
      "eventCountry": "Russia",
      "eventExpectedVolatility": "Moderate",
      "eventName": "Markit Manufacturing PMI (Mar)",
      "eventTimeZone": "GMT",
      "eventPrevious": "50.1",
      "eventCurrency": "RUB",
      "eventForecast": ""
    },
    {
      "eventDateTime": "2019-04-01T12:00:00",
      "eventActual": "",
      "eventCountry": "Russia",
      "eventExpectedVolatility": "Moderate",
      "eventName": "CBR Monetary Policy Meeting Minutes",
      "eventTimeZone": "GMT",
      "eventPrevious": "",
      "eventCurrency": "RUB",
      "eventForecast": ""
    }
  ]}}
