{"events": {"event": [
    {
      "eventDateTime": "2007-08-01T09:00:00",
      "eventActual": "0.90%",
      "eventCountry": "China",
      "eventExpectedVolatility": "Moderate",
      "eventName": "CPI (MoM) (Jul)",
      "eventTimeZone": "GMT",
      "eventPrevious": "0.40%",
      "eventCurrency": "CNY",
      "eventForecast": ""
    },
    {
      "eventDateTime": "2007-08-01T09:00:00",
      "eventActual": "5.60%",
      "eventCountry": "China",
      "eventExpectedVolatility": "Moderate",
      "eventName": "CPI (YoY) (Jul)",
      "eventTimeZone": "GMT",
      "eventPrevious": "4.40%",
      "eventCurrency": "CNY",
      "eventForecast": ""
    },
    {
      "eventDateTime": "2007-08-01T09:00:00",
      "eventActual": "34.30%",
      "eventCountry": "China",
      "eventExpectedVolatility": "Moderate",
      "eventName": "Exports (YoY) (Jul)",
      "eventTimeZone": "GMT",
      "eventPrevious": "27.20%",
      "eventCurrency": "CNY",
      "eventForecast": ""
    },
    {
      "eventDateTime": "2007-08-01T09:00:00",
      "eventActual": "12.92%",
      "eventCountry": "China",
      "eventExpectedVolatility": "Low",
      "eventName": "FDI (Jul)",
      "eventTimeZone": "GMT",
      "eventPrevious": "12.17%",
      "eventCurrency": "CNY",
      "eventForecast": ""
    },
    {
      "eventDateTime": "2007-08-01T09:00:00",
      "eventActual": "26.60%",
      "eventCountry": "China",
      "eventExpectedVolatility": "Moderate",
      "eventName": "Fixed Asset Investment (YoY) (Jul)",
      "eventTimeZone": "GMT",
      "eventPrevious": "26.70%",
      "eventCurrency": "CNY",
      "eventForecast": ""
    },
    {
      "eventDateTime": "2007-08-01T09:00:00",
      "eventActual": "26.80%",
      "eventCountry": "China",
      "eventExpectedVolatility": "Moderate",
      "eventName": "Imports (YoY) (Jul)",
      "eventTimeZone": "GMT",
      "eventPrevious": "14.20%",
      "eventCurrency": "CNY",
      "eventForecast": ""
    },
    {
      "eventDateTime": "2007-08-01T09:00:00",
      "eventActual": "18.00%",
      "eventCountry": "China",
      "eventExpectedVolatility": "High",
      "eventName": "Industrial Production (YoY) (Jul)",
      "eventTimeZone": "GMT",
      "eventPrevious": "19.40%",
      "eventCurrency": "CNY",
      "eventForecast": ""
    },
    {
      "eventDateTime": "2007-08-01T09:00:00",
      "eventActual": "18.50%",
      "eventCountry": "China",
      "eventExpectedVolatility": "Low",
      "eventName": "M2 Money Stock (YoY) (Jul)",
      "eventTimeZone": "GMT",
      "eventPrevious": "17.10%",
      "eventCurrency": "CNY",
      "eventForecast": ""
    },
    {
      "eventDateTime": "2007-08-01T09:00:00",
      "eventActual": "53.30",
      "eventCountry": "China",
      "eventExpectedVolatility": "High",
      "eventName": "Manufacturing PMI (Jul)",
      "eventTimeZone": "GMT",
      "eventPrevious": "54.50",
      "eventCurrency": "CNY",
      "eventForecast": ""
    },
    {
      "eventDateTime": "2007-08-01T09:00:00",
      "eventActual": "231.40B",
      "eventCountry": "China",
      "eventExpectedVolatility": "Moderate",
      "eventName": "New Loans (Jul)",
      "eventTimeZone": "GMT",
      "eventPrevious": "451.50B",
      "eventCurrency": "CNY",
      "eventForecast": ""
    },
    {
      "eventDateTime": "2007-08-01T09:00:00",
      "eventActual": "59.40",
      "eventCountry": "China",
      "eventExpectedVolatility": "Moderate",
      "eventName": "Non-Manufacturing PMI (Jul)",
      "eventTimeZone": "GMT",
      "eventPrevious": "60.00",
      "eventCurrency": "CNY",
      "eventForecast": ""
    },
    {
      "eventDateTime": "2007-08-01T09:00:00",
      "eventActual": "16.60%",
      "eventCountry": "China",
      "eventExpectedVolatility": "Low",
      "eventName": "Outstanding Loan Growth (YoY) (Jul)",
      "eventTimeZone": "GMT",
      "eventPrevious": "16.50%",
      "eventCurrency": "CNY",
      "eventForecast": ""
    },
    {
      "eventDateTime": "2007-08-01T09:00:00",
      "eventActual": "3.15%",
      "eventCountry": "China",
      "eventExpectedVolatility": "Moderate",
      "eventName": "PBoC Deposit Rate (Jul)",
      "eventTimeZone": "GMT",
      "eventPrevious": "3.06%",
      "eventCurrency": "CNY",
      "eventForecast": ""
    },
    {
      "eventDateTime": "2007-08-01T09:00:00",
      "eventActual": "11.50%",
      "eventCountry": "China",
      "eventExpectedVolatility": "Moderate",
      "eventName": "PBoC Reserve Requirement Ratio (Jul)",
      "eventTimeZone": "GMT",
      "eventPrevious": "11.45%",
      "eventCurrency": "CNY",
      "eventForecast": ""
    },
    {
      "eventDateTime": "2007-08-01T09:00:00",
      "eventActual": "2.40%",
      "eventCountry": "China",
      "eventExpectedVolatility": "Moderate",
      "eventName": "PPI (YoY) (Jul)",
      "eventTimeZone": "GMT",
      "eventPrevious": "2.50%",
      "eventCurrency": "CNY",
      "eventForecast": ""
    },
    {
      "eventDateTime": "2007-08-01T09:00:00",
      "eventActual": "16.40%",
      "eventCountry": "China",
      "eventExpectedVolatility": "Low",
      "eventName": "Retail Sales (YoY) (Jul)",
      "eventTimeZone": "GMT",
      "eventPrevious": "16.00%",
      "eventCurrency": "CNY",
      "eventForecast": ""
    },
    {
      "eventDateTime": "2007-08-01T09:00:00",
      "eventActual": "24.48B",
      "eventCountry": "China",
      "eventExpectedVolatility": "Moderate",
      "eventName": "Trade Balance (USD) (Jul)",
      "eventTimeZone": "GMT",
      "eventPrevious": "26.92B",
      "eventCurrency": "CNY",
      "eventForecast": ""
    }
  ]}}
