"CPI (MoM) (May)";"Switzerland";"CHF";"2001-06-01T09:00:00";"GMT";"0.30%";"";"0.50%";"Moderate"
"CPI (YoY) (May)";"Switzerland";"CHF";"2001-06-01T09:00:00";"GMT";"1.20%";"";"1.80%";"Low"
"Consumption Indicator (May)";"Switzerland";"CHF";"2001-06-01T09:00:00";"GMT";"2.81";"";"2.38";"Low"
"KOF Leading Indicators (May)";"Switzerland";"CHF";"2001-06-01T09:00:00";"GMT";"87.80";"";"85.00";"Moderate"
"PPI (MoM) (May)";"Switzerland";"CHF";"2001-06-01T09:00:00";"GMT";"0.50%";"";"-0.10%";"Moderate"
"PPI (YoY) (May)";"Switzerland";"CHF";"2001-06-01T09:00:00";"GMT";"0.90%";"";"0.40%";"Low"
"Retail Sales (YoY) (May)";"Switzerland";"CHF";"2001-06-01T09:00:00";"GMT";"-1.20%";"";"0.00%";"Moderate"
"Trade Balance (May)";"Switzerland";"CHF";"2001-06-01T09:00:00";"GMT";"-0.58B";"";"0.40B";"Low"
"Unemployment Rate n.s.a. (May)";"Switzerland";"CHF";"2001-06-01T09:00:00";"GMT";"1.60%";"";"1.50%";"Moderate"
"Unemployment Rate s.a. (May)";"Switzerland";"CHF";"2001-06-01T09:00:00";"GMT";"1.60%";"";"1.60%";"Moderate"
"procure.ch PMI (May)";"Switzerland";"CHF";"2001-06-01T09:00:00";"GMT";"46.70";"";"47.80";"Moderate"
