{"events": {"event": [
    {
      "eventDateTime": "2001-06-01T09:00:00",
      "eventActual": "0.50%",
      "eventCountry": "Switzerland",
      "eventExpectedVolatility": "Moderate",
      "eventName": "CPI (MoM) (May)",
      "eventTimeZone": "GMT",
      "eventPrevious": "0.30%",
      "eventCurrency": "CHF",
      "eventForecast": ""
    },
    {
      "eventDateTime": "2001-06-01T09:00:00",
      "eventActual": "1.80%",
      "eventCountry": "Switzerland",
      "eventExpectedVolatility": "Low",
      "eventName": "CPI (YoY) (May)",
      "eventTimeZone": "GMT",
      "eventPrevious": "1.20%",
      "eventCurrency": "CHF",
      "eventForecast": ""
    },
    {
      "eventDateTime": "2001-06-01T09:00:00",
      "eventActual": "2.38",
      "eventCountry": "Switzerland",
      "eventExpectedVolatility": "Low",
      "eventName": "Consumption Indicator (May)",
      "eventTimeZone": "GMT",
      "eventPrevious": "2.81",
      "eventCurrency": "CHF",
      "eventForecast": ""
    },
    {
      "eventDateTime": "2001-06-01T09:00:00",
      "eventActual": "85.00",
      "eventCountry": "Switzerland",
      "eventExpectedVolatility": "Moderate",
      "eventName": "KOF Leading Indicators (May)",
      "eventTimeZone": "GMT",
      "eventPrevious": "87.80",
      "eventCurrency": "CHF",
      "eventForecast": ""
    },
    {
      "eventDateTime": "2001-06-01T09:00:00",
      "eventActual": "-0.10%",
      "eventCountry": "Switzerland",
      "eventExpectedVolatility": "Moderate",
      "eventName": "PPI (MoM) (May)",
      "eventTimeZone": "GMT",
      "eventPrevious": "0.50%",
      "eventCurrency": "CHF",
      "eventForecast": ""
    },
    {
      "eventDateTime": "2001-06-01T09:00:00",
      "eventActual": "0.40%",
      "eventCountry": "Switzerland",
      "eventExpectedVolatility": "Low",
      "eventName": "PPI (YoY) (May)",
      "eventTimeZone": "GMT",
      "eventPrevious": "0.90%",
      "eventCurrency": "CHF",
      "eventForecast": ""
    },
    {
      "eventDateTime": "2001-06-01T09:00:00",
      "eventActual": "0.00%",
      "eventCountry": "Switzerland",
      "eventExpectedVolatility": "Moderate",
      "eventName": "Retail Sales (YoY) (May)",
      "eventTimeZone": "GMT",
      "eventPrevious": "-1.20%",
      "eventCurrency": "CHF",
      "eventForecast": ""
    },
    {
      "eventDateTime": "2001-06-01T09:00:00",
      "eventActual": "0.40B",
      "eventCountry": "Switzerland",
      "eventExpectedVolatility": "Low",
      "eventName": "Trade Balance (May)",
      "eventTimeZone": "GMT",
      "eventPrevious": "-0.58B",
      "eventCurrency": "CHF",
      "eventForecast": ""
    },
    {
      "eventDateTime": "2001-06-01T09:00:00",
      "eventActual": "1.50%",
      "eventCountry": "Switzerland",
      "eventExpectedVolatility": "Moderate",
      "eventName": "Unemployment Rate n.s.a. (May)",
      "eventTimeZone": "GMT",
      "eventPrevious": "1.60%",
      "eventCurrency": "CHF",
      "eventForecast": ""
    },
    {
      "eventDateTime": "2001-06-01T09:00:00",
      "eventActual": "1.60%",
      "eventCountry": "Switzerland",
      "eventExpectedVolatility": "Moderate",
      "eventName": "Unemployment Rate s.a. (May)",
      "eventTimeZone": "GMT",
      "eventPrevious": "1.60%",
      "eventCurrency": "CHF",
      "eventForecast": ""
    },
    {
      "eventDateTime": "2001-06-01T09:00:00",
      "eventActual": "47.80",
      "eventCountry": "Switzerland",
      "eventExpectedVolatility": "Moderate",
      "eventName": "procure.ch PMI (May)",
      "eventTimeZone": "GMT",
      "eventPrevious": "46.70",
      "eventCurrency": "CHF",
      "eventForecast": ""
    }
  ]}}
