{"events": {"event": [
    {
      "eventDateTime": "2016-08-22T06:30:00",
      "eventActual": "46.2%",
      "eventCountry": "Canada",
      "eventExpectedVolatility": "Moderate",
      "eventName": "Investing.com USD/CAD Index",
      "eventTimeZone": "GMT",
      "eventPrevious": "46.9%",
      "eventCurrency": "CAD",
      "eventForecast": ""
    },
    {
      "eventDateTime": "2016-08-22T12:30:00",
      "eventActual": "0.7%",
      "eventCountry": "Canada",
      "eventExpectedVolatility": "Moderate",
      "eventName": "Wholesale Sales (MoM) (Jun)",
      "eventTimeZone": "GMT",
      "eventPrevious": "1.9%",
      "eventCurrency": "CAD",
      "eventForecast": "0.5%"
    }
  ]}}
