{"events": {"event": [
    {
      "eventDateTime": "2014-04-17T12:00:00",
      "eventActual": "2.3%",
      "eventCountry": "Russia",
      "eventExpectedVolatility": "Low",
      "eventName": "PPI (MoM)",
      "eventTimeZone": "GMT",
      "eventPrevious": "-0.4%",
      "eventCurrency": "RUB",
      "eventForecast": ""
    },
    {
      "eventDateTime": "2014-04-17T12:00:00",
      "eventActual": "5.0%",
      "eventCountry": "Russia",
      "eventExpectedVolatility": "Low",
      "eventName": "PPI (YoY)",
      "eventTimeZone": "GMT",
      "eventPrevious": "3.2%",
      "eventCurrency": "RUB",
      "eventForecast": "3.5%"
    },
    {
      "eventDateTime": "2014-04-17T12:00:00",
      "eventActual": "4.0%",
      "eventCountry": "Russia",
      "eventExpectedVolatility": "Moderate",
      "eventName": "Retail Sales (YoY)",
      "eventTimeZone": "GMT",
      "eventPrevious": "4.1%",
      "eventCurrency": "RUB",
      "eventForecast": "2.0%"
    },
    {
      "eventDateTime": "2014-04-17T12:00:00",
      "eventActual": "5.4%",
      "eventCountry": "Russia",
      "eventExpectedVolatility": "Moderate",
      "eventName": "Unemployment Rate",
      "eventTimeZone": "GMT",
      "eventPrevious": "5.6%",
      "eventCurrency": "RUB",
      "eventForecast": "5.7%"
    },
    {
      "eventDateTime": "2014-04-17T12:30:00",
      "eventActual": "0.210T",
      "eventCountry": "Russia",
      "eventExpectedVolatility": "Low",
      "eventName": "Government Budget Balance",
      "eventTimeZone": "GMT",
      "eventPrevious": "0.750T",
      "eventCurrency": "RUB",
      "eventForecast": "0.900T"
    }
  ]}}
