"Employment Change";"Canada";"CAD";"2011-01-07T12:00:00";"GMT";"15.2K";"20.3K";"22.0K";"High"
"Unemployment Rate";"Canada";"CAD";"2011-01-07T12:00:00";"GMT";"7.6%";"7.7%";"7.6%";"Moderate"
"CFTC CAD speculative net positions";"Canada";"CAD";"2011-01-07T20:30:00";"GMT";"34.8K";"";"38.3K";"Low"
