{"events": {"event": {
    "eventDateTime": "2016-05-23T06:30:00",
    "eventActual": "43.2%",
    "eventCountry": "Switzerland",
    "eventExpectedVolatility": "Moderate",
    "eventName": "Investing.com USD/CHF Index",
    "eventTimeZone": "GMT",
    "eventPrevious": "47.3%",
    "eventCurrency": "CHF",
    "eventForecast": ""
  }}}
