"Spanish Unemployment Rate (Q3)";"Spain";"EUR";"2019-10-24T07:00:00";"GMT";"14.02%";"13.85%";"13.92%";"Low"
"French Manufacturing PMI (Oct)";"France";"EUR";"2019-10-24T07:15:00";"GMT";"50.1";"50.0";"50.5";"Moderate"
"French Markit Composite PMI (Oct)";"France";"EUR";"2019-10-24T07:15:00";"GMT";"50.8";"51.0";"52.6";"Low"
"French Services PMI (Oct)";"France";"EUR";"2019-10-24T07:15:00";"GMT";"51.1";"51.6";"52.9";"Moderate"
"German Composite PMI (Oct)";"Germany";"EUR";"2019-10-24T07:30:00";"GMT";"48.5";"48.8";"48.6";"Low"
"German Manufacturing PMI (Oct)";"Germany";"EUR";"2019-10-24T07:30:00";"GMT";"41.7";"42.0";"41.9";"High"
"German Services PMI (Oct)";"Germany";"EUR";"2019-10-24T07:30:00";"GMT";"51.4";"52.0";"51.2";"Moderate"
"Manufacturing PMI (Oct)";"Euro Zone";"EUR";"2019-10-24T08:00:00";"GMT";"45.7";"46.1";"45.7";"Moderate"
"Markit Composite PMI (Oct)";"Euro Zone";"EUR";"2019-10-24T08:00:00";"GMT";"50.1";"50.3";"50.2";"Moderate"
"Services PMI (Oct)";"Euro Zone";"EUR";"2019-10-24T08:00:00";"GMT";"51.6";"51.9";"51.8";"Moderate"
"Deposit Facility Rate (Oct)";"Euro Zone";"EUR";"2019-10-24T11:45:00";"GMT";"-0.50%";"-0.50%";"-0.50%";"High"
"ECB Interest Rate Decision (Oct)";"Euro Zone";"EUR";"2019-10-24T11:45:00";"GMT";"0.00%";"0.00%";"0.00%";"High"
"ECB Marginal Lending Facility";"Euro Zone";"EUR";"2019-10-24T11:45:00";"GMT";"0.25%";"";"0.25%";"High"
"ECB Monetary Policy Statement";"Euro Zone";"EUR";"2019-10-24T11:45:00";"GMT";" ";"";"";"High"
"ECB Press Conference";"Euro Zone";"EUR";"2019-10-24T12:30:00";"GMT";" ";"";"";"High"
