"MBA 30-Year Mortgage Rate";"United States";"USD";"2014-03-05T12:00:00";"GMT";"4.53%";"";"4.47%";"Low"
"MBA Mortgage Applications (WoW)";"United States";"USD";"2014-03-05T12:00:00";"GMT";"-8.5%";"";"9.4%";"Low"
"ADP Nonfarm Employment Change";"United States";"USD";"2014-03-05T13:15:00";"GMT";"127K";"160K";"139K";"High"
"Services PMI";"United States";"USD";"2014-03-05T13:58:00";"GMT";"52.7";"52.7";"53.3";"Moderate"
"ISM Non-Manufacturing Employment";"United States";"USD";"2014-03-05T15:00:00";"GMT";"56.4";"";"47.5";"Moderate"
"ISM Non-Manufacturing New Orders";"United States";"USD";"2014-03-05T15:00:00";"GMT";"50.9";"";"51.3";"Low"
"ISM Non-Manufacturing PMI";"United States";"USD";"2014-03-05T15:00:00";"GMT";"54.0";"53.5";"51.6";"High"
"ISM Non-Manufacturing Prices";"United States";"USD";"2014-03-05T15:00:00";"GMT";"57.1";"";"53.7";"Low"
"Crude Oil Inventories";"United States";"USD";"2014-03-05T15:30:00";"GMT";"0.068M";"1.333M";"1.429M";"High"
"EIA Weekly Distillates Stocks";"United States";"USD";"2014-03-05T15:30:00";"GMT";"0.338M";"-1.217M";"1.414M";"Low"
"Gasoline Inventories";"United States";"USD";"2014-03-05T15:30:00";"GMT";"-2.807M";"-1.183M";"-1.604M";"Low"
"Beige Book";"United States";"USD";"2014-03-05T19:00:00";"GMT";" ";"";"";"Moderate"
