{"events": {"event": [
    {
      "eventDateTime": "2016-01-05T03:45:00",
      "eventActual": "0.254%",
      "eventCountry": "Japan",
      "eventExpectedVolatility": "Moderate",
      "eventName": "10-Year JGB Auction",
      "eventTimeZone": "GMT",
      "eventPrevious": "0.320%",
      "eventCurrency": "JPY",
      "eventForecast": ""
    },
    {
      "eventDateTime": "2016-01-05T07:30:00",
      "eventActual": "50.0%",
      "eventCountry": "Japan",
      "eventExpectedVolatility": "Moderate",
      "eventName": "Investing.com USD/JPY Index",
      "eventTimeZone": "GMT",
      "eventPrevious": "57.3%",
      "eventCurrency": "JPY",
      "eventForecast": ""
    }
  ]}}
