{"events": {"event": [
    {
      "eventDateTime": "2017-09-25T05:30:00",
      "eventActual": "45.9%",
      "eventCountry": "New Zealand",
      "eventExpectedVolatility": "Moderate",
      "eventName": "Investing.com NZD/USD Index",
      "eventTimeZone": "GMT",
      "eventPrevious": "50.9%",
      "eventCurrency": "NZD",
      "eventForecast": ""
    },
    {
      "eventDateTime": "2017-09-25T21:45:00",
      "eventActual": "3.69B",
      "eventCountry": "New Zealand",
      "eventExpectedVolatility": "Low",
      "eventName": "Exports (Aug)",
      "eventTimeZone": "GMT",
      "eventPrevious": "4.63B",
      "eventCurrency": "NZD",
      "eventForecast": "4.05B"
    },
    {
      "eventDateTime": "2017-09-25T21:45:00",
      "eventActual": "4.92B",
      "eventCountry": "New Zealand",
      "eventExpectedVolatility": "Low",
      "eventName": "Imports (Aug)",
      "eventTimeZone": "GMT",
      "eventPrevious": "4.53B",
      "eventCurrency": "NZD",
      "eventForecast": "4.80B"
    },
    {
      "eventDateTime": "2017-09-25T21:45:00",
      "eventActual": "-1,235M",
      "eventCountry": "New Zealand",
      "eventExpectedVolatility": "Moderate",
      "eventName": "Trade Balance (MoM) (Aug)",
      "eventTimeZone": "GMT",
      "eventPrevious": "98M",
      "eventCurrency": "NZD",
      "eventForecast": "-825M"
    },
    {
      "eventDateTime": "2017-09-25T21:45:00",
      "eventActual": "-3,200M",
      "eventCountry": "New Zealand",
      "eventExpectedVolatility": "Moderate",
      "eventName": "Trade Balance (YoY) (Aug)",
      "eventTimeZone": "GMT",
      "eventPrevious": "-3,210M",
      "eventCurrency": "NZD",
      "eventForecast": "-2,910M"
    }
  ]}}
