{"events": {"event": [
    {
      "eventDateTime": "2015-11-17T08:00:00",
      "eventActual": "36.8%",
      "eventCountry": "United Kingdom",
      "eventExpectedVolatility": "Moderate",
      "eventName": "Investing.com GBP/USD Index",
      "eventTimeZone": "GMT",
      "eventPrevious": "49.8%",
      "eventCurrency": "GBP",
      "eventForecast": ""
    },
    {
      "eventDateTime": "2015-11-17T09:30:00",
      "eventActual": "0.1%",
      "eventCountry": "United Kingdom",
      "eventExpectedVolatility": "Moderate",
      "eventName": "CPI (MoM) (Oct)",
      "eventTimeZone": "GMT",
      "eventPrevious": "-0.1%",
      "eventCurrency": "GBP",
      "eventForecast": "0.1%"
    },
    {
      "eventDateTime": "2015-11-17T09:30:00",
      "eventActual": "-0.1%",
      "eventCountry": "United Kingdom",
      "eventExpectedVolatility": "High",
      "eventName": "CPI (YoY) (Oct)",
      "eventTimeZone": "GMT",
      "eventPrevious": "-0.1%",
      "eventCurrency": "GBP",
      "eventForecast": "-0.1%"
    },
    {
      "eventDateTime": "2015-11-17T09:30:00",
      "eventActual": "1.1%",
      "eventCountry": "United Kingdom",
      "eventExpectedVolatility": "Low",
      "eventName": "Core CPI (YoY)",
      "eventTimeZone": "GMT",
      "eventPrevious": "1.0%",
      "eventCurrency": "GBP",
      "eventForecast": "1.0%"
    },
    {
      "eventDateTime": "2015-11-17T09:30:00",
      "eventActual": "-0.1%",
      "eventCountry": "United Kingdom",
      "eventExpectedVolatility": "Low",
      "eventName": "Core PPI Output (MoM) (Oct)",
      "eventTimeZone": "GMT",
      "eventPrevious": "0.1%",
      "eventCurrency": "GBP",
      "eventForecast": "0.0%"
    },
    {
      "eventDateTime": "2015-11-17T09:30:00",
      "eventActual": "0.3%",
      "eventCountry": "United Kingdom",
      "eventExpectedVolatility": "Low",
      "eventName": "Core PPI Output (YoY) (Oct)",
      "eventTimeZone": "GMT",
      "eventPrevious": "0.2%",
      "eventCurrency": "GBP",
      "eventForecast": "0.4%"
    },
    {
      "eventDateTime": "2015-11-17T09:30:00",
      "eventActual": "0.0%",
      "eventCountry": "United Kingdom",
      "eventExpectedVolatility": "Low",
      "eventName": "Core RPI (MoM) (Oct)",
      "eventTimeZone": "GMT",
      "eventPrevious": "-0.1%",
      "eventCurrency": "GBP",
      "eventForecast": ""
    },
    {
      "eventDateTime": "2015-11-17T09:30:00",
      "eventActual": "0.8%",
      "eventCountry": "United Kingdom",
      "eventExpectedVolatility": "Low",
      "eventName": "Core RPI (YoY) (Oct)",
      "eventTimeZone": "GMT",
      "eventPrevious": "0.9%",
      "eventCurrency": "GBP",
      "eventForecast": ""
    },
    {
      "eventDateTime": "2015-11-17T09:30:00",
      "eventActual": "6.1%",
      "eventCountry": "United Kingdom",
      "eventExpectedVolatility": "Low",
      "eventName": "House Price Index (YoY)",
      "eventTimeZone": "GMT",
      "eventPrevious": "5.5%",
      "eventCurrency": "GBP",
      "eventForecast": "5.4%"
    },
    {
      "eventDateTime": "2015-11-17T09:30:00",
      "eventActual": "0.2%",
      "eventCountry": "United Kingdom",
      "eventExpectedVolatility": "Moderate",
      "eventName": "PPI Input (MoM) (Oct)",
      "eventTimeZone": "GMT",
      "eventPrevious": "0.5%",
      "eventCurrency": "GBP",
      "eventForecast": "0.2%"
    },
    {
      "eventDateTime": "2015-11-17T09:30:00",
      "eventActual": "-12.1%",
      "eventCountry": "United Kingdom",
      "eventExpectedVolatility": "Low",
      "eventName": "PPI Input (YoY) (Oct)",
      "eventTimeZone": "GMT",
      "eventPrevious": "-13.4%",
      "eventCurrency": "GBP",
      "eventForecast": "-12.0%"
    },
    {
      "eventDateTime": "2015-11-17T09:30:00",
      "eventActual": "0.0%",
      "eventCountry": "United Kingdom",
      "eventExpectedVolatility": "Low",
      "eventName": "PPI Output (MoM) (Oct)",
      "eventTimeZone": "GMT",
      "eventPrevious": "-0.1%",
      "eventCurrency": "GBP",
      "eventForecast": "-0.1%"
    },
    {
      "eventDateTime": "2015-11-17T09:30:00",
      "eventActual": "-1.3%",
      "eventCountry": "United Kingdom",
      "eventExpectedVolatility": "Low",
      "eventName": "PPI Output (YoY) (Oct)",
      "eventTimeZone": "GMT",
      "eventPrevious": "-1.8%",
      "eventCurrency": "GBP",
      "eventForecast": "-1.3%"
    },
    {
      "eventDateTime": "2015-11-17T09:30:00",
      "eventActual": "0.0%",
      "eventCountry": "United Kingdom",
      "eventExpectedVolatility": "Low",
      "eventName": "RPI (MoM) (Oct)",
      "eventTimeZone": "GMT",
      "eventPrevious": "-0.1%",
      "eventCurrency": "GBP",
      "eventForecast": "0.1%"
    },
    {
      "eventDateTime": "2015-11-17T09:30:00",
      "eventActual": "0.7%",
      "eventCountry": "United Kingdom",
      "eventExpectedVolatility": "Low",
      "eventName": "RPI (YoY) (Oct)",
      "eventTimeZone": "GMT",
      "eventPrevious": "0.8%",
      "eventCurrency": "GBP",
      "eventForecast": "0.9%"
    }
  ]}}
