{"events": {"event": [
    {
      "eventDateTime": "2019-05-03T08:30:00",
      "eventActual": "50.4",
      "eventCountry": "United Kingdom",
      "eventExpectedVolatility": "High",
      "eventName": "Services PMI (Apr)",
      "eventTimeZone": "GMT",
      "eventPrevious": "48.9",
      "eventCurrency": "GBP",
      "eventForecast": "50.4"
    },
    {
      "eventDateTime": "2019-05-03T19:30:00",
      "eventActual": "-4.7K",
      "eventCountry": "United Kingdom",
      "eventExpectedVolatility": "Moderate",
      "eventName": "CFTC GBP speculative net positions",
      "eventTimeZone": "GMT",
      "eventPrevious": "-1.8K",
      "eventCurrency": "GBP",
      "eventForecast": ""
    }
  ]}}
