"Cumulative Industrial Production (Dec)";"India";"INR";"2017-02-10T11:30:00";"GMT";"0.40%";"";"0.30%";"Low"
"FX Reserves, USD";"India";"INR";"2017-02-10T11:30:00";"GMT";"361.56B";"";"363.15B";"Low"
"Industrial Production (YoY) (Dec)";"India";"INR";"2017-02-10T11:30:00";"GMT";"5.7%";"1.1%";"-0.4%";"Low"
"Manufacturing Output (MoM) (Dec)";"India";"INR";"2017-02-10T11:30:00";"GMT";"5.5%";"";"-2.0%";"Low"
