{"events": {"event": [
    {
      "eventDateTime": "2017-02-10T11:30:00",
      "eventActual": "0.30%",
      "eventCountry": "India",
      "eventExpectedVolatility": "Low",
      "eventName": "Cumulative Industrial Production (Dec)",
      "eventTimeZone": "GMT",
      "eventPrevious": "0.40%",
      "eventCurrency": "INR",
      "eventForecast": ""
    },
    {
      "eventDateTime": "2017-02-10T11:30:00",
      "eventActual": "363.15B",
      "eventCountry": "India",
      "eventExpectedVolatility": "Low",
      "eventName": "FX Reserves, USD",
      "eventTimeZone": "GMT",
      "eventPrevious": "361.56B",
      "eventCurrency": "INR",
      "eventForecast": ""
    },
    {
      "eventDateTime": "2017-02-10T11:30:00",
      "eventActual": "-0.4%",
      "eventCountry": "India",
      "eventExpectedVolatility": "Low",
      "eventName": "Industrial Production (YoY) (Dec)",
      "eventTimeZone": "GMT",
      "eventPrevious": "5.7%",
      "eventCurrency": "INR",
      "eventForecast": "1.1%"
    },
    {
      "eventDateTime": "2017-02-10T11:30:00",
      "eventActual": "-2.0%",
      "eventCountry": "India",
      "eventExpectedVolatility": "Low",
      "eventName": "Manufacturing Output (MoM) (Dec)",
      "eventTimeZone": "GMT",
      "eventPrevious": "5.5%",
      "eventCurrency": "INR",
      "eventForecast": ""
    }
  ]}}
