{"events": {"event": {
    "eventDateTime": "2009-12-25T20:30:00",
    "eventActual": "9.7K",
    "eventCountry": "New Zealand",
    "eventExpectedVolatility": "Low",
    "eventName": "CFTC NZD speculative net positions",
    "eventTimeZone": "GMT",
    "eventPrevious": "9.5K",
    "eventCurrency": "NZD",
    "eventForecast": ""
  }}}
