"Manufacturing PMI (Nov)";"Japan";"JPY";"2018-12-03T00:30:00";"GMT";"51.8";"51.8";"52.2";"Low"
"Investing.com USD/JPY Index";"Japan";"JPY";"2018-12-03T06:30:00";"GMT";"57.9%";"";"59.9%";"Moderate"
"Monetary Base (YoY)";"Japan";"JPY";"2018-12-03T23:50:00";"GMT";"5.9%";"5.7%";"6.1%";"Low"
