{"events": {"event": [
    {
      "eventDateTime": "2010-12-31T07:00:00",
      "eventActual": "0.4%",
      "eventCountry": "United Kingdom",
      "eventExpectedVolatility": "Moderate",
      "eventName": "Nationwide HPI (MoM)",
      "eventTimeZone": "GMT",
      "eventPrevious": "-0.3%",
      "eventCurrency": "GBP",
      "eventForecast": "0.2%"
    },
    {
      "eventDateTime": "2010-12-31T20:30:00",
      "eventActual": "-13.1K",
      "eventCountry": "United Kingdom",
      "eventExpectedVolatility": "Moderate",
      "eventName": "CFTC GBP speculative net positions",
      "eventTimeZone": "GMT",
      "eventPrevious": "-7.4K",
      "eventCurrency": "GBP",
      "eventForecast": ""
    }
  ]}}
