{"events": {"event": [
    {
      "eventDateTime": "2019-02-28T07:00:00",
      "eventActual": "-0.2%",
      "eventCountry": "Germany",
      "eventExpectedVolatility": "Low",
      "eventName": "German Import Price Index (MoM) (Jan)",
      "eventTimeZone": "GMT",
      "eventPrevious": "-1.3%",
      "eventCurrency": "EUR",
      "eventForecast": "0.3%"
    },
    {
      "eventDateTime": "2019-02-28T07:00:00",
      "eventActual": "0.8%",
      "eventCountry": "Germany",
      "eventExpectedVolatility": "Low",
      "eventName": "German Import Price Index (YoY) (Jan)",
      "eventTimeZone": "GMT",
      "eventPrevious": "1.6%",
      "eventCurrency": "EUR",
      "eventForecast": "1.3%"
    },
    {
      "eventDateTime": "2019-02-28T07:45:00",
      "eventActual": "0.0%",
      "eventCountry": "France",
      "eventExpectedVolatility": "Moderate",
      "eventName": "French CPI (MoM) (Feb)",
      "eventTimeZone": "GMT",
      "eventPrevious": "-0.4%",
      "eventCurrency": "EUR",
      "eventForecast": "0.4%"
    },
    {
      "eventDateTime": "2019-02-28T07:45:00",
      "eventActual": "1.3%",
      "eventCountry": "France",
      "eventExpectedVolatility": "Low",
      "eventName": "French CPI (YoY)",
      "eventTimeZone": "GMT",
      "eventPrevious": "1.2%",
      "eventCurrency": "EUR",
      "eventForecast": ""
    },
    {
      "eventDateTime": "2019-02-28T07:45:00",
      "eventActual": "1.2%",
      "eventCountry": "France",
      "eventExpectedVolatility": "Moderate",
      "eventName": "French Consumer Spending (MoM) (Jan)",
      "eventTimeZone": "GMT",
      "eventPrevious": "-1.5%",
      "eventCurrency": "EUR",
      "eventForecast": "0.5%"
    },
    {
      "eventDateTime": "2019-02-28T07:45:00",
      "eventActual": "0.3%",
      "eventCountry": "France",
      "eventExpectedVolatility": "Moderate",
      "eventName": "French GDP (QoQ) (Q4)",
      "eventTimeZone": "GMT",
      "eventPrevious": "0.3%",
      "eventCurrency": "EUR",
      "eventForecast": "0.3%"
    },
    {
      "eventDateTime": "2019-02-28T07:45:00",
      "eventActual": "0.9%",
      "eventCountry": "France",
      "eventExpectedVolatility": "Moderate",
      "eventName": "French GDP (YoY)",
      "eventTimeZone": "GMT",
      "eventPrevious": "0.9%",
      "eventCurrency": "EUR",
      "eventForecast": "0.9%"
    },
    {
      "eventDateTime": "2019-02-28T07:45:00",
      "eventActual": "-0.6%",
      "eventCountry": "France",
      "eventExpectedVolatility": "Moderate",
      "eventName": "French HICP (MoM) (Feb)",
      "eventTimeZone": "GMT",
      "eventPrevious": "-0.6%",
      "eventCurrency": "EUR",
      "eventForecast": ""
    },
    {
      "eventDateTime": "2019-02-28T07:45:00",
      "eventActual": "1.5%",
      "eventCountry": "France",
      "eventExpectedVolatility": "Low",
      "eventName": "French HICP (YoY) (Feb)",
      "eventTimeZone": "GMT",
      "eventPrevious": "1.4%",
      "eventCurrency": "EUR",
      "eventForecast": ""
    },
    {
      "eventDateTime": "2019-02-28T07:45:00",
      "eventActual": "0.1%",
      "eventCountry": "France",
      "eventExpectedVolatility": "Low",
      "eventName": "French PPI (MoM) (Jan)",
      "eventTimeZone": "GMT",
      "eventPrevious": "-1.1%",
      "eventCurrency": "EUR",
      "eventForecast": ""
    },
    {
      "eventDateTime": "2019-02-28T08:00:00",
      "eventActual": "0.2%",
      "eventCountry": "Spain",
      "eventExpectedVolatility": "Low",
      "eventName": "Spanish CPI (MoM)",
      "eventTimeZone": "GMT",
      "eventPrevious": "-1.3%",
      "eventCurrency": "EUR",
      "eventForecast": ""
    },
    {
      "eventDateTime": "2019-02-28T08:00:00",
      "eventActual": "1.1%",
      "eventCountry": "Spain",
      "eventExpectedVolatility": "Moderate",
      "eventName": "Spanish CPI (YoY)",
      "eventTimeZone": "GMT",
      "eventPrevious": "1.0%",
      "eventCurrency": "EUR",
      "eventForecast": "1.1%"
    },
    {
      "eventDateTime": "2019-02-28T08:00:00",
      "eventActual": "0.2%",
      "eventCountry": "Spain",
      "eventExpectedVolatility": "Low",
      "eventName": "Spanish HICP (MoM)",
      "eventTimeZone": "GMT",
      "eventPrevious": "-1.7%",
      "eventCurrency": "EUR",
      "eventForecast": ""
    },
    {
      "eventDateTime": "2019-02-28T08:00:00",
      "eventActual": "1.1%",
      "eventCountry": "Spain",
      "eventExpectedVolatility": "Moderate",
      "eventName": "Spanish HICP (YoY) (Feb)",
      "eventTimeZone": "GMT",
      "eventPrevious": "1.0%",
      "eventCurrency": "EUR",
      "eventForecast": "1.0%"
    },
    {
      "eventDateTime": "2019-02-28T09:00:00",
      "eventActual": "4.67B",
      "eventCountry": "Spain",
      "eventExpectedVolatility": "Low",
      "eventName": "Spanish Current account (Dec)",
      "eventTimeZone": "GMT",
      "eventPrevious": "1.77B",
      "eventCurrency": "EUR",
      "eventForecast": ""
    },
    {
      "eventDateTime": "2019-02-28T10:00:00",
      "eventActual": "0.2%",
      "eventCountry": "Italy",
      "eventExpectedVolatility": "Moderate",
      "eventName": "Italian CPI (MoM) (Feb)",
      "eventTimeZone": "GMT",
      "eventPrevious": "0.1%",
      "eventCurrency": "EUR",
      "eventForecast": "0.2%"
    },
    {
      "eventDateTime": "2019-02-28T10:00:00",
      "eventActual": "1.1%",
      "eventCountry": "Italy",
      "eventExpectedVolatility": "Low",
      "eventName": "Italian CPI (YoY) (Feb)",
      "eventTimeZone": "GMT",
      "eventPrevious": "0.9%",
      "eventCurrency": "EUR",
      "eventForecast": "1.1%"
    },
    {
      "eventDateTime": "2019-02-28T10:00:00",
      "eventActual": "-0.2%",
      "eventCountry": "Italy",
      "eventExpectedVolatility": "Low",
      "eventName": "Italian HICP (MoM) (Feb)",
      "eventTimeZone": "GMT",
      "eventPrevious": "-1.7%",
      "eventCurrency": "EUR",
      "eventForecast": "-0.1%"
    },
    {
      "eventDateTime": "2019-02-28T10:00:00",
      "eventActual": "1.2%",
      "eventCountry": "Italy",
      "eventExpectedVolatility": "Low",
      "eventName": "Italian HICP (YoY) (Feb)",
      "eventTimeZone": "GMT",
      "eventPrevious": "0.9%",
      "eventCurrency": "EUR",
      "eventForecast": "1.2%"
    },
    {
      "eventDateTime": "2019-02-28T13:00:00",
      "eventActual": "0.5%",
      "eventCountry": "Germany",
      "eventExpectedVolatility": "Moderate",
      "eventName": "German CPI (MoM) (Feb)",
      "eventTimeZone": "GMT",
      "eventPrevious": "-0.8%",
      "eventCurrency": "EUR",
      "eventForecast": "0.5%"
    },
    {
      "eventDateTime": "2019-02-28T13:00:00",
      "eventActual": "1.6%",
      "eventCountry": "Germany",
      "eventExpectedVolatility": "Low",
      "eventName": "German CPI (YoY) (Feb)",
      "eventTimeZone": "GMT",
      "eventPrevious": "1.4%",
      "eventCurrency": "EUR",
      "eventForecast": "1.5%"
    },
    {
      "eventDateTime": "2019-02-28T13:00:00",
      "eventActual": "0.5%",
      "eventCountry": "Germany",
      "eventExpectedVolatility": "Low",
      "eventName": "German HICP (MoM) (Feb)",
      "eventTimeZone": "GMT",
      "eventPrevious": "-1.0%",
      "eventCurrency": "EUR",
      "eventForecast": "0.6%"
    },
    {
      "eventDateTime": "2019-02-28T13:00:00",
      "eventActual": "1.7%",
      "eventCountry": "Germany",
      "eventExpectedVolatility": "Low",
      "eventName": "German HICP (YoY) (Feb)",
      "eventTimeZone": "GMT",
      "eventPrevious": "1.7%",
      "eventCurrency": "EUR",
      "eventForecast": "1.7%"
    }
  ]}}
