{"events": {"event": [
    {
      "eventDateTime": "2019-07-03T07:15:00",
      "eventActual": "53.6",
      "eventCountry": "Spain",
      "eventExpectedVolatility": "Moderate",
      "eventName": "Spanish Services PMI (Jun)",
      "eventTimeZone": "GMT",
      "eventPrevious": "52.8",
      "eventCurrency": "EUR",
      "eventForecast": "52.7"
    },
    {
      "eventDateTime": "2019-07-03T07:45:00",
      "eventActual": "50.5",
      "eventCountry": "Italy",
      "eventExpectedVolatility": "Moderate",
      "eventName": "Italian Services PMI (Jun)",
      "eventTimeZone": "GMT",
      "eventPrevious": "50.0",
      "eventCurrency": "EUR",
      "eventForecast": "50.0"
    },
    {
      "eventDateTime": "2019-07-03T07:50:00",
      "eventActual": "52.7",
      "eventCountry": "France",
      "eventExpectedVolatility": "Low",
      "eventName": "French Markit Composite PMI (Jun)",
      "eventTimeZone": "GMT",
      "eventPrevious": "52.9",
      "eventCurrency": "EUR",
      "eventForecast": "52.9"
    },
    {
      "eventDateTime": "2019-07-03T07:50:00",
      "eventActual": "52.9",
      "eventCountry": "France",
      "eventExpectedVolatility": "Moderate",
      "eventName": "French Services PMI (Jun)",
      "eventTimeZone": "GMT",
      "eventPrevious": "53.1",
      "eventCurrency": "EUR",
      "eventForecast": "53.1"
    },
    {
      "eventDateTime": "2019-07-03T07:55:00",
      "eventActual": "52.6",
      "eventCountry": "Germany",
      "eventExpectedVolatility": "Low",
      "eventName": "German Composite PMI (Jun)",
      "eventTimeZone": "GMT",
      "eventPrevious": "52.6",
      "eventCurrency": "EUR",
      "eventForecast": "52.6"
    },
    {
      "eventDateTime": "2019-07-03T07:55:00",
      "eventActual": "55.8",
      "eventCountry": "Germany",
      "eventExpectedVolatility": "Moderate",
      "eventName": "German Services PMI (Jun)",
      "eventTimeZone": "GMT",
      "eventPrevious": "55.6",
      "eventCurrency": "EUR",
      "eventForecast": "55.6"
    },
    {
      "eventDateTime": "2019-07-03T08:00:00",
      "eventActual": "52.2",
      "eventCountry": "Euro Zone",
      "eventExpectedVolatility": "Moderate",
      "eventName": "Markit Composite PMI (Jun)",
      "eventTimeZone": "GMT",
      "eventPrevious": "52.1",
      "eventCurrency": "EUR",
      "eventForecast": "52.1"
    },
    {
      "eventDateTime": "2019-07-03T08:00:00",
      "eventActual": "53.6",
      "eventCountry": "Euro Zone",
      "eventExpectedVolatility": "Moderate",
      "eventName": "Services PMI (Jun)",
      "eventTimeZone": "GMT",
      "eventPrevious": "53.4",
      "eventCurrency": "EUR",
      "eventForecast": "53.4"
    },
    {
      "eventDateTime": "2019-07-03T09:40:00",
      "eventActual": "-0.660%",
      "eventCountry": "Germany",
      "eventExpectedVolatility": "Low",
      "eventName": "German 5-Year Bobl Auction",
      "eventTimeZone": "GMT",
      "eventPrevious": "-0.560%",
      "eventCurrency": "EUR",
      "eventForecast": ""
    }
  ]}}
