{"events": {"event": {
    "eventDateTime": "2012-06-20T22:45:00",
    "eventActual": "1.1%",
    "eventCountry": "New Zealand",
    "eventExpectedVolatility": "High",
    "eventName": "GDP (QoQ)",
    "eventTimeZone": "GMT",
    "eventPrevious": "0.4%",
    "eventCurrency": "NZD",
    "eventForecast": "0.5%"
  }}}
