{"events": {"event": {
    "eventDateTime": "2014-01-22T08:00:00",
    "eventActual": "0.30%",
    "eventCountry": "South Africa",
    "eventExpectedVolatility": "Moderate",
    "eventName": "CPI (MoM)",
    "eventTimeZone": "GMT",
    "eventPrevious": "0.10%",
    "eventCurrency": "ZAR",
    "eventForecast": "0.40%"
  }}}
