"Average Cash Earnings (YoY)";"Japan";"JPY";"2016-04-05T00:00:00";"GMT";"0.0%";"0.2%";"0.9%";"Low"
"Overtime Pay (YoY) (Feb)";"Japan";"JPY";"2016-04-05T00:00:00";"GMT";"-1.30%";"";"0.40%";"Low"
"BoJ Governor Kuroda Speaks";"Japan";"JPY";"2016-04-05T02:25:00";"GMT";" ";"";"";"Moderate"
"10-Year JGB Auction";"Japan";"JPY";"2016-04-05T03:45:00";"GMT";"-0.024%";"";"-0.069%";"Moderate"
