{"events": {"event": [
    {
      "eventDateTime": "2002-01-11T17:00:00",
      "eventActual": "136",
      "eventCountry": "United States",
      "eventExpectedVolatility": "Moderate",
      "eventName": "U.S. Baker Hughes Oil Rig Count",
      "eventTimeZone": "GMT",
      "eventPrevious": "138",
      "eventCurrency": "USD",
      "eventForecast": ""
    },
    {
      "eventDateTime": "2002-01-11T20:30:00",
      "eventActual": "-44.4k",
      "eventCountry": "United States",
      "eventExpectedVolatility": "Moderate",
      "eventName": "CFTC Crude Oil speculative net positions",
      "eventTimeZone": "GMT",
      "eventPrevious": "-63.5k",
      "eventCurrency": "USD",
      "eventForecast": ""
    }
  ]}}
