{"events": {"event": [
    {
      "eventDateTime": "2016-06-08T01:30:00",
      "eventActual": "1.7%",
      "eventCountry": "Australia",
      "eventExpectedVolatility": "Moderate",
      "eventName": "Home Loans (MoM) (Apr)",
      "eventTimeZone": "GMT",
      "eventPrevious": "-0.7%",
      "eventCurrency": "AUD",
      "eventForecast": "2.5%"
    },
    {
      "eventDateTime": "2016-06-08T01:30:00",
      "eventActual": "-5.0%",
      "eventCountry": "Australia",
      "eventExpectedVolatility": "Low",
      "eventName": "Invest Housing Finance (MoM) (Apr)",
      "eventTimeZone": "GMT",
      "eventPrevious": "1.5%",
      "eventCurrency": "AUD",
      "eventForecast": ""
    }
  ]}}
