{"events": {"event": {
    "eventDateTime": "2015-10-14T03:00:00",
    "eventActual": "8.90%",
    "eventCountry": "South Korea",
    "eventExpectedVolatility": "Low",
    "eventName": "M2 Money supply (Oct)",
    "eventTimeZone": "GMT",
    "eventPrevious": "9.00%",
    "eventCurrency": "KRW",
    "eventForecast": ""
  }}}
