"ANZ Commodity Price Index (MoM)";"New Zealand";"NZD";"2012-06-01T01:00:00";"GMT";"-4.5%";"";"-4.2%";"Low"
"Electronic Card Retail Sales (MoM) (May)";"New Zealand";"NZD";"2012-06-01T09:00:00";"GMT";"0.90%";"";"0.20%";"Moderate"
"Electronic Card Retail Sales (YoY) (May)";"New Zealand";"NZD";"2012-06-01T09:00:00";"GMT";"1.90%";"";"6.50%";"Low"
"Exports (May)";"New Zealand";"NZD";"2012-06-01T09:00:00";"GMT";"3.87B";"";"4.43B";"Low"
"External Migration andamp; Visitors (May)";"New Zealand";"NZD";"2012-06-01T09:00:00";"GMT";"-1.07%";"";"0.07%";"Low"
"Government Monthly Debt (May)";"New Zealand";"NZD";"2012-06-01T09:00:00";"GMT";"25.90%";"";"24.60%";"Low"
"Imports (May)";"New Zealand";"NZD";"2012-06-01T09:00:00";"GMT";"3.53B";"";"4.18B";"Low"
"NBNZ Own Activity (May)";"New Zealand";"NZD";"2012-06-01T09:00:00";"GMT";"36.10%";"";"34.90%";"Low"
"Permanent/Long-Term Migration (May)";"New Zealand";"NZD";"2012-06-01T09:00:00";"GMT";"-980.00";"";"70.00";"Low"
"RBNZ Offshore Holdings (May)";"New Zealand";"NZD";"2012-06-01T09:00:00";"GMT";"58.10%";"";"57.60%";"Low"
"REINZ House Price Index (MoM) (May)";"New Zealand";"NZD";"2012-06-01T09:00:00";"GMT";"-0.30%";"";"1.70%";"Low"
"REINZ House Price Index (YoY) (May)";"New Zealand";"NZD";"2012-06-01T09:00:00";"GMT";"2.70%";"";"6.40%";"Low"
"Trade Balance (YoY) (May)";"New Zealand";"NZD";"2012-06-01T09:00:00";"GMT";"-550.00M";"";"-850.00M";"Moderate"
"CFTC NZD speculative net positions";"New Zealand";"NZD";"2012-06-01T19:30:00";"GMT";"-1.5K";"";"-5.2K";"Low"
