{"events": {"event": {
    "eventDateTime": "2018-01-19T20:30:00",
    "eventActual": "10.1K",
    "eventCountry": "Australia",
    "eventExpectedVolatility": "Moderate",
    "eventName": "CFTC AUD speculative net positions",
    "eventTimeZone": "GMT",
    "eventPrevious": "5.5K",
    "eventCurrency": "AUD",
    "eventForecast": ""
  }}}
