{"events": {"event": [
    {
      "eventDateTime": "2017-07-13T02:10:00",
      "eventActual": "-0.10%",
      "eventCountry": "China",
      "eventExpectedVolatility": "Low",
      "eventName": "FDI",
      "eventTimeZone": "GMT",
      "eventPrevious": "-0.70%",
      "eventCurrency": "CNY",
      "eventForecast": ""
    },
    {
      "eventDateTime": "2017-07-13T03:20:00",
      "eventActual": "11.3%",
      "eventCountry": "China",
      "eventExpectedVolatility": "Moderate",
      "eventName": "Exports (YoY) (Jun)",
      "eventTimeZone": "GMT",
      "eventPrevious": "8.7%",
      "eventCurrency": "CNY",
      "eventForecast": "8.7%"
    },
    {
      "eventDateTime": "2017-07-13T03:20:00",
      "eventActual": "17.2%",
      "eventCountry": "China",
      "eventExpectedVolatility": "Moderate",
      "eventName": "Imports (YoY) (Jun)",
      "eventTimeZone": "GMT",
      "eventPrevious": "14.8%",
      "eventCurrency": "CNY",
      "eventForecast": "13.1%"
    },
    {
      "eventDateTime": "2017-07-13T03:20:00",
      "eventActual": "42.77B",
      "eventCountry": "China",
      "eventExpectedVolatility": "Moderate",
      "eventName": "Trade Balance (USD) (Jun)",
      "eventTimeZone": "GMT",
      "eventPrevious": "40.81B",
      "eventCurrency": "CNY",
      "eventForecast": "42.44B"
    }
  ]}}
