{"events": {"event": {
    "eventDateTime": "2010-08-06T11:00:00",
    "eventActual": "4.60%",
    "eventCountry": "Brazil",
    "eventExpectedVolatility": "Moderate",
    "eventName": "CPI (YoY)",
    "eventTimeZone": "GMT",
    "eventPrevious": "4.80%",
    "eventCurrency": "BRL",
    "eventForecast": "4.90%"
  }}}
