"HIA New Home Sales (MoM)";"Australia";"AUD";"2014-03-03T00:00:00";"GMT";"-0.4%";"";"0.5%";"Moderate"
"ANZ Job Advertisements (MoM)";"Australia";"AUD";"2014-03-03T00:30:00";"GMT";"0.0%";"";"5.1%";"Low"
"Business inventories (MoM)";"Australia";"AUD";"2014-03-03T00:30:00";"GMT";"-0.5%";"-0.2%";"-0.5%";"Low"
"Company Gross Operating Profits (QoQ)";"Australia";"AUD";"2014-03-03T00:30:00";"GMT";"4.3%";"2.0%";"1.7%";"Moderate"
"Commodity Prices (YoY)";"Australia";"AUD";"2014-03-03T05:30:00";"GMT";"-9.3%";"";"-12.1%";"Low"
