{"events": {"event": {
    "eventDateTime": "2019-03-26T23:00:00",
    "eventActual": "",
    "eventCountry": "Australia",
    "eventExpectedVolatility": "Moderate",
    "eventName": "RBA Assist Gov Kent Speaks",
    "eventTimeZone": "GMT",
    "eventPrevious": "",
    "eventCurrency": "AUD",
    "eventForecast": ""
  }}}
