{"events": {"event": {
    "eventDateTime": "2014-12-30T12:00:00",
    "eventActual": "-5.70B",
    "eventCountry": "South Africa",
    "eventExpectedVolatility": "Low",
    "eventName": "Trade Balance (Nov)",
    "eventTimeZone": "GMT",
    "eventPrevious": "21.63B",
    "eventCurrency": "ZAR",
    "eventForecast": "-8.01B"
  }}}
