{"events": {"event": {
    "eventDateTime": "2015-05-21T08:30:00",
    "eventActual": "2.80%",
    "eventCountry": "Hong Kong",
    "eventExpectedVolatility": "Low",
    "eventName": "CPI (YoY) (Apr)",
    "eventTimeZone": "GMT",
    "eventPrevious": "4.50%",
    "eventCurrency": "HKD",
    "eventForecast": "4.30%"
  }}}
