{"events": {"event": [
    {
      "eventDateTime": "2015-02-04T00:01:00",
      "eventActual": "-1.3%",
      "eventCountry": "United Kingdom",
      "eventExpectedVolatility": "Low",
      "eventName": "BRC Shop Price Index (YoY)",
      "eventTimeZone": "GMT",
      "eventPrevious": "-1.7%",
      "eventCurrency": "GBP",
      "eventForecast": "-1.6%"
    },
    {
      "eventDateTime": "2015-02-04T09:30:00",
      "eventActual": "57.2",
      "eventCountry": "United Kingdom",
      "eventExpectedVolatility": "High",
      "eventName": "Services PMI (Jan)",
      "eventTimeZone": "GMT",
      "eventPrevious": "55.8",
      "eventCurrency": "GBP",
      "eventForecast": "56.3"
    }
  ]}}
