{"events": {"event": [
    {
      "eventDateTime": "2004-07-16T17:00:00",
      "eventActual": "168",
      "eventCountry": "United States",
      "eventExpectedVolatility": "Moderate",
      "eventName": "U.S. Baker Hughes Oil Rig Count",
      "eventTimeZone": "GMT",
      "eventPrevious": "177",
      "eventCurrency": "USD",
      "eventForecast": ""
    },
    {
      "eventDateTime": "2004-07-16T20:30:00",
      "eventActual": "31.1k",
      "eventCountry": "United States",
      "eventExpectedVolatility": "Moderate",
      "eventName": "CFTC Crude Oil speculative net positions",
      "eventTimeZone": "GMT",
      "eventPrevious": "25.1k",
      "eventCurrency": "USD",
      "eventForecast": ""
    }
  ]}}
