{"events": {"event": [
    {
      "eventDateTime": "2018-12-03T00:00:00",
      "eventActual": "0.0%",
      "eventCountry": "Australia",
      "eventExpectedVolatility": "Low",
      "eventName": "MI Inflation Gauge (MoM)",
      "eventTimeZone": "GMT",
      "eventPrevious": "0.1%",
      "eventCurrency": "AUD",
      "eventForecast": ""
    },
    {
      "eventDateTime": "2018-12-03T00:30:00",
      "eventActual": "-0.3%",
      "eventCountry": "Australia",
      "eventExpectedVolatility": "Low",
      "eventName": "ANZ Job Advertisements (MoM)",
      "eventTimeZone": "GMT",
      "eventPrevious": "0.3%",
      "eventCurrency": "AUD",
      "eventForecast": ""
    },
    {
      "eventDateTime": "2018-12-03T00:30:00",
      "eventActual": "-1.5%",
      "eventCountry": "Australia",
      "eventExpectedVolatility": "Moderate",
      "eventName": "Building Approvals (MoM) (Oct)",
      "eventTimeZone": "GMT",
      "eventPrevious": "5.5%",
      "eventCurrency": "AUD",
      "eventForecast": "-1.4%"
    },
    {
      "eventDateTime": "2018-12-03T00:30:00",
      "eventActual": "0.0%",
      "eventCountry": "Australia",
      "eventExpectedVolatility": "Low",
      "eventName": "Business inventories (MoM) (Q3)",
      "eventTimeZone": "GMT",
      "eventPrevious": "0.7%",
      "eventCurrency": "AUD",
      "eventForecast": "0.4%"
    },
    {
      "eventDateTime": "2018-12-03T00:30:00",
      "eventActual": "1.9%",
      "eventCountry": "Australia",
      "eventExpectedVolatility": "Moderate",
      "eventName": "Company Gross Operating Profits (QoQ) (Q3)",
      "eventTimeZone": "GMT",
      "eventPrevious": "2.4%",
      "eventCurrency": "AUD",
      "eventForecast": "2.9%"
    },
    {
      "eventDateTime": "2018-12-03T00:30:00",
      "eventActual": "6.7%",
      "eventCountry": "Australia",
      "eventExpectedVolatility": "Low",
      "eventName": "Company Profits Pre-Tax (QoQ) (Q3)",
      "eventTimeZone": "GMT",
      "eventPrevious": "9.9%",
      "eventCurrency": "AUD",
      "eventForecast": ""
    },
    {
      "eventDateTime": "2018-12-03T00:30:00",
      "eventActual": "2.7%",
      "eventCountry": "Australia",
      "eventExpectedVolatility": "Moderate",
      "eventName": "Construction Work Done (QoQ) (Q3)",
      "eventTimeZone": "GMT",
      "eventPrevious": "1.8%",
      "eventCurrency": "AUD",
      "eventForecast": "1.0%"
    },
    {
      "eventDateTime": "2018-12-03T00:30:00",
      "eventActual": "-1.5%",
      "eventCountry": "Australia",
      "eventExpectedVolatility": "Low",
      "eventName": "Private House Approvals (Oct)",
      "eventTimeZone": "GMT",
      "eventPrevious": "-2.7%",
      "eventCurrency": "AUD",
      "eventForecast": ""
    },
    {
      "eventDateTime": "2018-12-03T05:30:00",
      "eventActual": "14.9%",
      "eventCountry": "Australia",
      "eventExpectedVolatility": "Low",
      "eventName": "Commodity Prices (YoY)",
      "eventTimeZone": "GMT",
      "eventPrevious": "14.9%",
      "eventCurrency": "AUD",
      "eventForecast": ""
    },
    {
      "eventDateTime": "2018-12-03T06:30:00",
      "eventActual": "40.0%",
      "eventCountry": "Australia",
      "eventExpectedVolatility": "Moderate",
      "eventName": "Investing.com AUD/USD Index",
      "eventTimeZone": "GMT",
      "eventPrevious": "43.9%",
      "eventCurrency": "AUD",
      "eventForecast": ""
    }
  ]}}
