{"events": {"event": [
    {
      "eventDateTime": "2011-02-01T05:30:00",
      "eventActual": "-2.6B",
      "eventCountry": "India",
      "eventExpectedVolatility": "Low",
      "eventName": "Trade Balance",
      "eventTimeZone": "GMT",
      "eventPrevious": "-8.9B",
      "eventCurrency": "INR",
      "eventForecast": "-9.0B"
    },
    {
      "eventDateTime": "2011-02-01T09:00:00",
      "eventActual": "23.46%",
      "eventCountry": "India",
      "eventExpectedVolatility": "Low",
      "eventName": "Bank Loan Growth (Jan)",
      "eventTimeZone": "GMT",
      "eventPrevious": "23.93%",
      "eventCurrency": "INR",
      "eventForecast": ""
    },
    {
      "eventDateTime": "2011-02-01T09:00:00",
      "eventActual": "6.00%",
      "eventCountry": "India",
      "eventExpectedVolatility": "Low",
      "eventName": "Cash Reserve Ratio (Jan)",
      "eventTimeZone": "GMT",
      "eventPrevious": "6.00%",
      "eventCurrency": "INR",
      "eventForecast": ""
    },
    {
      "eventDateTime": "2011-02-01T09:00:00",
      "eventActual": "8.30%",
      "eventCountry": "India",
      "eventExpectedVolatility": "Low",
      "eventName": "Cumulative Industrial Production (Jan)",
      "eventTimeZone": "GMT",
      "eventPrevious": "8.60%",
      "eventCurrency": "INR",
      "eventForecast": ""
    },
    {
      "eventDateTime": "2011-02-01T09:00:00",
      "eventActual": "16.24%",
      "eventCountry": "India",
      "eventExpectedVolatility": "Low",
      "eventName": "Deposit Growth (Jan)",
      "eventTimeZone": "GMT",
      "eventPrevious": "15.67%",
      "eventCurrency": "INR",
      "eventForecast": ""
    },
    {
      "eventDateTime": "2011-02-01T09:00:00",
      "eventActual": "22.69B",
      "eventCountry": "India",
      "eventExpectedVolatility": "Low",
      "eventName": "Exports (USD) (Jan)",
      "eventTimeZone": "GMT",
      "eventPrevious": "23.35B",
      "eventCurrency": "INR",
      "eventForecast": ""
    },
    {
      "eventDateTime": "2011-02-01T09:00:00",
      "eventActual": "299.42B",
      "eventCountry": "India",
      "eventExpectedVolatility": "Low",
      "eventName": "FX Reserves, USD (Jan)",
      "eventTimeZone": "GMT",
      "eventPrevious": "297.33B",
      "eventCurrency": "INR",
      "eventForecast": ""
    },
    {
      "eventDateTime": "2011-02-01T09:00:00",
      "eventActual": "2,222.22B",
      "eventCountry": "India",
      "eventExpectedVolatility": "Low",
      "eventName": "Federal Fiscal Deficit (Jan)",
      "eventTimeZone": "GMT",
      "eventPrevious": "1,712.49B",
      "eventCurrency": "INR",
      "eventForecast": ""
    },
    {
      "eventDateTime": "2011-02-01T09:00:00",
      "eventActual": "33.35B",
      "eventCountry": "India",
      "eventExpectedVolatility": "Low",
      "eventName": "Imports (USD) (Jan)",
      "eventTimeZone": "GMT",
      "eventPrevious": "31.51B",
      "eventCurrency": "INR",
      "eventForecast": ""
    },
    {
      "eventDateTime": "2011-02-01T09:00:00",
      "eventActual": "7.24%",
      "eventCountry": "India",
      "eventExpectedVolatility": "Low",
      "eventName": "Infrastructure Output (YoY) (Jan)",
      "eventTimeZone": "GMT",
      "eventPrevious": "6.86%",
      "eventCurrency": "INR",
      "eventForecast": ""
    },
    {
      "eventDateTime": "2011-02-01T09:00:00",
      "eventActual": "6.31%",
      "eventCountry": "India",
      "eventExpectedVolatility": "High",
      "eventName": "Interest Rate Decision (Jan)",
      "eventTimeZone": "GMT",
      "eventPrevious": "6.25%",
      "eventCurrency": "INR",
      "eventForecast": ""
    },
    {
      "eventDateTime": "2011-02-01T09:00:00",
      "eventActual": "16.63%",
      "eventCountry": "India",
      "eventExpectedVolatility": "Low",
      "eventName": "M3 Money Supply (Jan)",
      "eventTimeZone": "GMT",
      "eventPrevious": "16.05%",
      "eventCurrency": "INR",
      "eventForecast": ""
    },
    {
      "eventDateTime": "2011-02-01T09:00:00",
      "eventActual": "8.10%",
      "eventCountry": "India",
      "eventExpectedVolatility": "Low",
      "eventName": "Manufacturing Output (MoM) (Jan)",
      "eventTimeZone": "GMT",
      "eventPrevious": "8.70%",
      "eventCurrency": "INR",
      "eventForecast": ""
    },
    {
      "eventDateTime": "2011-02-01T09:00:00",
      "eventActual": "5.31%",
      "eventCountry": "India",
      "eventExpectedVolatility": "Low",
      "eventName": "Reverse REPO Rate (Jan)",
      "eventTimeZone": "GMT",
      "eventPrevious": "5.25%",
      "eventCurrency": "INR",
      "eventForecast": ""
    },
    {
      "eventDateTime": "2011-02-01T09:00:00",
      "eventActual": "16.70%",
      "eventCountry": "India",
      "eventExpectedVolatility": "Low",
      "eventName": "WPI Food (YoY) (Jan)",
      "eventTimeZone": "GMT",
      "eventPrevious": "15.10%",
      "eventCurrency": "INR",
      "eventForecast": ""
    },
    {
      "eventDateTime": "2011-02-01T09:00:00",
      "eventActual": "11.40%",
      "eventCountry": "India",
      "eventExpectedVolatility": "Low",
      "eventName": "WPI Fuel (YoY) (Jan)",
      "eventTimeZone": "GMT",
      "eventPrevious": "11.30%",
      "eventCurrency": "INR",
      "eventForecast": ""
    },
    {
      "eventDateTime": "2011-02-01T09:00:00",
      "eventActual": "9.47%",
      "eventCountry": "India",
      "eventExpectedVolatility": "Moderate",
      "eventName": "WPI Inflation (YoY) (Jan)",
      "eventTimeZone": "GMT",
      "eventPrevious": "9.45%",
      "eventCurrency": "INR",
      "eventForecast": ""
    },
    {
      "eventDateTime": "2011-02-01T09:00:00",
      "eventActual": "5.32%",
      "eventCountry": "India",
      "eventExpectedVolatility": "Low",
      "eventName": "WPI Manufacturing Inflation (YoY) (Jan)",
      "eventTimeZone": "GMT",
      "eventPrevious": "5.39%",
      "eventCurrency": "INR",
      "eventForecast": ""
    }
  ]}}
