{"events": {"event": [
    {
      "eventDateTime": "2017-08-23T11:00:00",
      "eventActual": "4.12%",
      "eventCountry": "United States",
      "eventExpectedVolatility": "Low",
      "eventName": "MBA 30-Year Mortgage Rate",
      "eventTimeZone": "GMT",
      "eventPrevious": "4.12%",
      "eventCurrency": "USD",
      "eventForecast": ""
    },
    {
      "eventDateTime": "2017-08-23T11:00:00",
      "eventActual": "-0.5%",
      "eventCountry": "United States",
      "eventExpectedVolatility": "Low",
      "eventName": "MBA Mortgage Applications (WoW)",
      "eventTimeZone": "GMT",
      "eventPrevious": "0.1%",
      "eventCurrency": "USD",
      "eventForecast": ""
    },
    {
      "eventDateTime": "2017-08-23T11:00:00",
      "eventActual": "230.4",
      "eventCountry": "United States",
      "eventExpectedVolatility": "Low",
      "eventName": "MBA Purchase Index",
      "eventTimeZone": "GMT",
      "eventPrevious": "233.8",
      "eventCurrency": "USD",
      "eventForecast": ""
    },
    {
      "eventDateTime": "2017-08-23T11:00:00",
      "eventActual": "416.8",
      "eventCountry": "United States",
      "eventExpectedVolatility": "Low",
      "eventName": "Mortgage Market Index",
      "eventTimeZone": "GMT",
      "eventPrevious": "419.1",
      "eventCurrency": "USD",
      "eventForecast": ""
    },
    {
      "eventDateTime": "2017-08-23T11:00:00",
      "eventActual": "1,459.9",
      "eventCountry": "United States",
      "eventExpectedVolatility": "Low",
      "eventName": "Mortgage Refinance Index",
      "eventTimeZone": "GMT",
      "eventPrevious": "1,455.9",
      "eventCurrency": "USD",
      "eventForecast": ""
    },
    {
      "eventDateTime": "2017-08-23T13:05:00",
      "eventActual": "",
      "eventCountry": "United States",
      "eventExpectedVolatility": "Moderate",
      "eventName": "FOMC Member Kaplan Speaks",
      "eventTimeZone": "GMT",
      "eventPrevious": "",
      "eventCurrency": "USD",
      "eventForecast": ""
    },
    {
      "eventDateTime": "2017-08-23T13:45:00",
      "eventActual": "52.5",
      "eventCountry": "United States",
      "eventExpectedVolatility": "Moderate",
      "eventName": "Manufacturing PMI (Aug)",
      "eventTimeZone": "GMT",
      "eventPrevious": "53.3",
      "eventCurrency": "USD",
      "eventForecast": "53.3"
    },
    {
      "eventDateTime": "2017-08-23T13:45:00",
      "eventActual": "56.9",
      "eventCountry": "United States",
      "eventExpectedVolatility": "Moderate",
      "eventName": "Services PMI (Aug)",
      "eventTimeZone": "GMT",
      "eventPrevious": "54.7",
      "eventCurrency": "USD",
      "eventForecast": "54.9"
    },
    {
      "eventDateTime": "2017-08-23T14:00:00",
      "eventActual": "571K",
      "eventCountry": "United States",
      "eventExpectedVolatility": "High",
      "eventName": "New Home Sales (Jul)",
      "eventTimeZone": "GMT",
      "eventPrevious": "630K",
      "eventCurrency": "USD",
      "eventForecast": "612K"
    },
    {
      "eventDateTime": "2017-08-23T14:00:00",
      "eventActual": "-9.4%",
      "eventCountry": "United States",
      "eventExpectedVolatility": "Moderate",
      "eventName": "New Home Sales (MoM) (Jul)",
      "eventTimeZone": "GMT",
      "eventPrevious": "1.9%",
      "eventCurrency": "USD",
      "eventForecast": "0.3%"
    },
    {
      "eventDateTime": "2017-08-23T14:30:00",
      "eventActual": "0.605M",
      "eventCountry": "United States",
      "eventExpectedVolatility": "Low",
      "eventName": "Crude Oil Imports",
      "eventTimeZone": "GMT",
      "eventPrevious": "0.194M",
      "eventCurrency": "USD",
      "eventForecast": ""
    },
    {
      "eventDateTime": "2017-08-23T14:30:00",
      "eventActual": "-3.327M",
      "eventCountry": "United States",
      "eventExpectedVolatility": "High",
      "eventName": "Crude Oil Inventories",
      "eventTimeZone": "GMT",
      "eventPrevious": "-8.945M",
      "eventCurrency": "USD",
      "eventForecast": "-3.450M"
    },
    {
      "eventDateTime": "2017-08-23T14:30:00",
      "eventActual": "-0.503M",
      "eventCountry": "United States",
      "eventExpectedVolatility": "Moderate",
      "eventName": "Cushing Crude Oil Inventories",
      "eventTimeZone": "GMT",
      "eventPrevious": "0.678M",
      "eventCurrency": "USD",
      "eventForecast": ""
    },
    {
      "eventDateTime": "2017-08-23T14:30:00",
      "eventActual": "-0.196M",
      "eventCountry": "United States",
      "eventExpectedVolatility": "Low",
      "eventName": "Distillate Fuel Production",
      "eventTimeZone": "GMT",
      "eventPrevious": "-0.018M",
      "eventCurrency": "USD",
      "eventForecast": ""
    },
    {
      "eventDateTime": "2017-08-23T14:30:00",
      "eventActual": "0.028M",
      "eventCountry": "United States",
      "eventExpectedVolatility": "Low",
      "eventName": "EIA Weekly Distillates Stocks",
      "eventTimeZone": "GMT",
      "eventPrevious": "0.702M",
      "eventCurrency": "USD",
      "eventForecast": "0.093M"
    },
    {
      "eventDateTime": "2017-08-23T14:30:00",
      "eventActual": "-1.223M",
      "eventCountry": "United States",
      "eventExpectedVolatility": "Low",
      "eventName": "Gasoline Inventories",
      "eventTimeZone": "GMT",
      "eventPrevious": "0.022M",
      "eventCurrency": "USD",
      "eventForecast": "-0.643M"
    },
    {
      "eventDateTime": "2017-08-23T14:30:00",
      "eventActual": "0.518M",
      "eventCountry": "United States",
      "eventExpectedVolatility": "Low",
      "eventName": "Gasoline Production",
      "eventTimeZone": "GMT",
      "eventPrevious": "-0.253M",
      "eventCurrency": "USD",
      "eventForecast": ""
    },
    {
      "eventDateTime": "2017-08-23T14:30:00",
      "eventActual": "0.450M",
      "eventCountry": "United States",
      "eventExpectedVolatility": "Low",
      "eventName": "Heating Oil Stockpiles",
      "eventTimeZone": "GMT",
      "eventPrevious": "0.555M",
      "eventCurrency": "USD",
      "eventForecast": ""
    }
  ]}}
