"MBA 30-Year Mortgage Rate";"United States";"USD";"2017-08-23T11:00:00";"GMT";"4.12%";"";"4.12%";"Low"
"MBA Mortgage Applications (WoW)";"United States";"USD";"2017-08-23T11:00:00";"GMT";"0.1%";"";"-0.5%";"Low"
"MBA Purchase Index";"United States";"USD";"2017-08-23T11:00:00";"GMT";"233.8";"";"230.4";"Low"
"Mortgage Market Index";"United States";"USD";"2017-08-23T11:00:00";"GMT";"419.1";"";"416.8";"Low"
"Mortgage Refinance Index";"United States";"USD";"2017-08-23T11:00:00";"GMT";"1,455.9";"";"1,459.9";"Low"
"FOMC Member Kaplan Speaks";"United States";"USD";"2017-08-23T13:05:00";"GMT";" ";"";"";"Moderate"
"Manufacturing PMI (Aug)";"United States";"USD";"2017-08-23T13:45:00";"GMT";"53.3";"53.3";"52.5";"Moderate"
"Services PMI (Aug)";"United States";"USD";"2017-08-23T13:45:00";"GMT";"54.7";"54.9";"56.9";"Moderate"
"New Home Sales (Jul)";"United States";"USD";"2017-08-23T14:00:00";"GMT";"630K";"612K";"571K";"High"
"New Home Sales (MoM) (Jul)";"United States";"USD";"2017-08-23T14:00:00";"GMT";"1.9%";"0.3%";"-9.4%";"Moderate"
"Crude Oil Imports";"United States";"USD";"2017-08-23T14:30:00";"GMT";"0.194M";"";"0.605M";"Low"
"Crude Oil Inventories";"United States";"USD";"2017-08-23T14:30:00";"GMT";"-8.945M";"-3.450M";"-3.327M";"High"
"Cushing Crude Oil Inventories";"United States";"USD";"2017-08-23T14:30:00";"GMT";"0.678M";"";"-0.503M";"Moderate"
"Distillate Fuel Production";"United States";"USD";"2017-08-23T14:30:00";"GMT";"-0.018M";"";"-0.196M";"Low"
"EIA Weekly Distillates Stocks";"United States";"USD";"2017-08-23T14:30:00";"GMT";"0.702M";"0.093M";"0.028M";"Low"
"Gasoline Inventories";"United States";"USD";"2017-08-23T14:30:00";"GMT";"0.022M";"-0.643M";"-1.223M";"Low"
"Gasoline Production";"United States";"USD";"2017-08-23T14:30:00";"GMT";"-0.253M";"";"0.518M";"Low"
"Heating Oil Stockpiles";"United States";"USD";"2017-08-23T14:30:00";"GMT";"0.555M";"";"0.450M";"Low"
