{"events": {"event": [
    {
      "eventDateTime": "2009-11-06T05:00:00",
      "eventActual": "86.4",
      "eventCountry": "Japan",
      "eventExpectedVolatility": "Low",
      "eventName": "Leading Index",
      "eventTimeZone": "GMT",
      "eventPrevious": "83.2",
      "eventCurrency": "JPY",
      "eventForecast": "86.4"
    },
    {
      "eventDateTime": "2009-11-06T20:30:00",
      "eventActual": "19.8K",
      "eventCountry": "Japan",
      "eventExpectedVolatility": "Moderate",
      "eventName": "CFTC JPY speculative net positions",
      "eventTimeZone": "GMT",
      "eventPrevious": "17.5K",
      "eventCurrency": "JPY",
      "eventForecast": ""
    }
  ]}}
