{"events": {"event": [
    {
      "eventDateTime": "2008-03-25T23:50:00",
      "eventActual": "0.97T",
      "eventCountry": "Japan",
      "eventExpectedVolatility": "Moderate",
      "eventName": "Adjusted Trade Balance",
      "eventTimeZone": "GMT",
      "eventPrevious": "0.86T",
      "eventCurrency": "JPY",
      "eventForecast": "0.77T"
    },
    {
      "eventDateTime": "2008-03-25T23:50:00",
      "eventActual": "0.7%",
      "eventCountry": "Japan",
      "eventExpectedVolatility": "Low",
      "eventName": "Corporate Services Price Index (CSPI) (YoY)",
      "eventTimeZone": "GMT",
      "eventPrevious": "0.8%",
      "eventCurrency": "JPY",
      "eventForecast": "0.7%"
    }
  ]}}
