"Industrial Production (MoM) (Sep)";"Brazil";"BRL";"2019-11-01T12:00:00";"GMT";"0.8%";"0.9%";"0.3%";"Low"
"Industrial Production (YoY) (Sep)";"Brazil";"BRL";"2019-11-01T12:00:00";"GMT";"-2.3%";"1.9%";"1.1%";"Moderate"
"Markit Manufacturing PMI (Oct)";"Brazil";"BRL";"2019-11-01T13:00:00";"GMT";"53.4";"51.9";"52.2";"Low"
"Trade Balance (Oct)";"Brazil";"BRL";"2019-11-01T19:00:00";"GMT";"2.25B";"1.25B";"1.21B";"Low"
"CFTC BRL speculative net positions";"Brazil";"BRL";"2019-11-01T19:30:00";"GMT";"-47.0K";"";"-43.7K";"Moderate"
