{"events": {"event": [
    {
      "eventDateTime": "2018-08-08T05:00:00",
      "eventActual": "46.6",
      "eventCountry": "Japan",
      "eventExpectedVolatility": "Low",
      "eventName": "Economy Watchers Current Index (Jul)",
      "eventTimeZone": "GMT",
      "eventPrevious": "48.1",
      "eventCurrency": "JPY",
      "eventForecast": "47.8"
    },
    {
      "eventDateTime": "2018-08-08T23:50:00",
      "eventActual": "-8.8%",
      "eventCountry": "Japan",
      "eventExpectedVolatility": "Low",
      "eventName": "Core Machinery Orders (MoM) (Jun)",
      "eventTimeZone": "GMT",
      "eventPrevious": "-3.7%",
      "eventCurrency": "JPY",
      "eventForecast": "-1.2%"
    },
    {
      "eventDateTime": "2018-08-08T23:50:00",
      "eventActual": "0.3%",
      "eventCountry": "Japan",
      "eventExpectedVolatility": "Low",
      "eventName": "Core Machinery Orders (YoY) (Jun)",
      "eventTimeZone": "GMT",
      "eventPrevious": "16.5%",
      "eventCurrency": "JPY",
      "eventForecast": "9.5%"
    },
    {
      "eventDateTime": "2018-08-08T23:50:00",
      "eventActual": "1,171.0B",
      "eventCountry": "Japan",
      "eventExpectedVolatility": "Low",
      "eventName": "Foreign Bonds Buying",
      "eventTimeZone": "GMT",
      "eventPrevious": "526.6B",
      "eventCurrency": "JPY",
      "eventForecast": ""
    },
    {
      "eventDateTime": "2018-08-08T23:50:00",
      "eventActual": "-225.2B",
      "eventCountry": "Japan",
      "eventExpectedVolatility": "Low",
      "eventName": "Foreign Investments in Japanese Stocks",
      "eventTimeZone": "GMT",
      "eventPrevious": "-62.5B",
      "eventCurrency": "JPY",
      "eventForecast": ""
    },
    {
      "eventDateTime": "2018-08-08T23:50:00",
      "eventActual": "3.0%",
      "eventCountry": "Japan",
      "eventExpectedVolatility": "Low",
      "eventName": "M2 Money Stock (YoY)",
      "eventTimeZone": "GMT",
      "eventPrevious": "3.2%",
      "eventCurrency": "JPY",
      "eventForecast": "3.1%"
    }
  ]}}
