"BoC Interest Rate Decision (Apr)";"Canada";"CAD";"2007-05-01T09:00:00";"GMT";"4.25%";"";"4.25%";"High"
"Budget Balance (Apr)";"Canada";"CAD";"2007-05-01T09:00:00";"GMT";"-2.43B";"";"2.02B";"Low"
"Budget Balance (YoY) (Apr)";"Canada";"CAD";"2007-05-01T09:00:00";"GMT";"12.86B";"";"2.02B";"Low"
"Building Permits (MoM) (Apr)";"Canada";"CAD";"2007-05-01T09:00:00";"GMT";"24.40%";"";"-7.30%";"Moderate"
"CPI (MoM) (Apr)";"Canada";"CAD";"2007-05-01T09:00:00";"GMT";"0.80%";"";"0.50%";"Moderate"
"CPI (YoY) (Apr)";"Canada";"CAD";"2007-05-01T09:00:00";"GMT";"2.30%";"";"2.20%";"Low"
"Core CPI (MoM) (Apr)";"Canada";"CAD";"2007-05-01T09:00:00";"GMT";"0.40%";"";"0.10%";"High"
"Core CPI (YoY) (Apr)";"Canada";"CAD";"2007-05-01T09:00:00";"GMT";"2.30%";"";"2.50%";"Moderate"
"Core Retail Sales (MoM) (Apr)";"Canada";"CAD";"2007-05-01T09:00:00";"GMT";"0.80%";"";"0.90%";"High"
"Employment Change (Apr)";"Canada";"CAD";"2007-05-01T09:00:00";"GMT";"48.10K";"";"-15.00K";"High"
"Exports (Apr)";"Canada";"CAD";"2007-05-01T09:00:00";"GMT";"40.41B";"";"40.63B";"Low"
"Foreign Securities Purchases (Apr)";"Canada";"CAD";"2007-05-01T09:00:00";"GMT";"5.20B";"";"2.62B";"Moderate"
"Foreign Securities Purchases by Canadians (Apr)";"Canada";"CAD";"2007-05-01T09:00:00";"GMT";"11.19B";"";"12.55B";"Low"
"Full Employment Change (Apr)";"Canada";"CAD";"2007-05-01T09:00:00";"GMT";"30.90K";"";"-22.80K";"Low"
"GDP (MoM) (Apr)";"Canada";"CAD";"2007-05-01T09:00:00";"GMT";"0.20%";"";"0.10%";"High"
"Housing Starts (Apr)";"Canada";"CAD";"2007-05-01T09:00:00";"GMT";"219.50K";"";"227.50K";"Moderate"
"IPPI (MoM) (Apr)";"Canada";"CAD";"2007-05-01T09:00:00";"GMT";"1.30%";"";"0.30%";"Low"
"IPPI (YoY) (Apr)";"Canada";"CAD";"2007-05-01T09:00:00";"GMT";"4.70%";"";"3.70%";"Low"
"Imports (Apr)";"Canada";"CAD";"2007-05-01T09:00:00";"GMT";"35.97B";"";"35.06B";"Low"
"Ivey PMI n.s.a (Apr)";"Canada";"CAD";"2007-05-01T09:00:00";"GMT";"67.30";"";"60.90";"Low"
"Manufacturing Sales (MoM) (Apr)";"Canada";"CAD";"2007-05-01T09:00:00";"GMT";"2.40%";"";"-0.40%";"Moderate"
"New Housing Price Index (MoM) (Apr)";"Canada";"CAD";"2007-05-01T09:00:00";"GMT";"0.40%";"";"0.80%";"Moderate"
"Part Time Employment Change (Apr)";"Canada";"CAD";"2007-05-01T09:00:00";"GMT";"17.20K";"";"7.80K";"Low"
"Participation Rate (Apr)";"Canada";"CAD";"2007-05-01T09:00:00";"GMT";"67.50%";"";"67.40%";"Low"
"RMPI (MoM) (Apr)";"Canada";"CAD";"2007-05-01T09:00:00";"GMT";"2.30%";"";"3.60%";"Moderate"
"RMPI (YoY) (Apr)";"Canada";"CAD";"2007-05-01T09:00:00";"GMT";"11.40%";"";"8.60%";"Low"
"Retail Sales (MoM) (Apr)";"Canada";"CAD";"2007-05-01T09:00:00";"GMT";"1.30%";"";"1.40%";"Moderate"
"Trade Balance (Apr)";"Canada";"CAD";"2007-05-01T09:00:00";"GMT";"4.44B";"";"5.57B";"Moderate"
"Unemployment Rate (Apr)";"Canada";"CAD";"2007-05-01T09:00:00";"GMT";"6.10%";"";"6.20%";"Moderate"
"Wholesale Sales (MoM) (Apr)";"Canada";"CAD";"2007-05-01T09:00:00";"GMT";"1.10%";"";"-1.30%";"Moderate"
