{"events": {"event": {
    "eventDateTime": "2010-04-27T06:00:00",
    "eventActual": "1.71",
    "eventCountry": "Switzerland",
    "eventExpectedVolatility": "Low",
    "eventName": "Consumption Indicator",
    "eventTimeZone": "GMT",
    "eventPrevious": "1.20",
    "eventCurrency": "CHF",
    "eventForecast": ""
  }}}
