"ANZ Commodity Price Index (MoM)";"New Zealand";"NZD";"2010-12-01T02:00:00";"GMT";"2.9%";"";"4.5%";"Low"
"Electronic Card Retail Sales (MoM) (Nov)";"New Zealand";"NZD";"2010-12-01T09:00:00";"GMT";"0.20%";"";"1.40%";"Moderate"
"Electronic Card Retail Sales (YoY) (Nov)";"New Zealand";"NZD";"2010-12-01T09:00:00";"GMT";"4.90%";"";"6.40%";"Low"
"Exports (Nov)";"New Zealand";"NZD";"2010-12-01T09:00:00";"GMT";"3.68B";"";"3.66B";"Low"
"External Migration andamp; Visitors (Nov)";"New Zealand";"NZD";"2010-12-01T09:00:00";"GMT";"-1.32%";"";"2.96%";"Low"
"Government Monthly Debt (Nov)";"New Zealand";"NZD";"2010-12-01T09:00:00";"GMT";"18.40%";"";"18.80%";"Low"
"Imports (Nov)";"New Zealand";"NZD";"2010-12-01T09:00:00";"GMT";"3.90B";"";"3.84B";"Low"
"NBNZ Own Activity (Nov)";"New Zealand";"NZD";"2010-12-01T09:00:00";"GMT";"30.50%";"";"35.30%";"Low"
"Permanent/Long-Term Migration (Nov)";"New Zealand";"NZD";"2010-12-01T09:00:00";"GMT";"280.00";"";"430.00";"Low"
"RBNZ Offshore Holdings (Nov)";"New Zealand";"NZD";"2010-12-01T09:00:00";"GMT";"52.90%";"";"51.90%";"Low"
"REINZ House Price Index (MoM) (Nov)";"New Zealand";"NZD";"2010-12-01T09:00:00";"GMT";"-0.90%";"";"1.90%";"Low"
"REINZ House Price Index (YoY) (Nov)";"New Zealand";"NZD";"2010-12-01T09:00:00";"GMT";"-3.50%";"";"-1.90%";"Low"
"Trade Balance (YoY) (Nov)";"New Zealand";"NZD";"2010-12-01T09:00:00";"GMT";"1,260.00M";"";"1,360.00M";"Moderate"
"GlobalDairyTrade Price Index";"New Zealand";"NZD";"2010-12-01T20:00:00";"GMT";"-0.80%";"";"1.90%";"Moderate"
