{"events": {"event": [
    {
      "eventDateTime": "2016-06-15T00:00:00",
      "eventActual": "-6.0%",
      "eventCountry": "South Korea",
      "eventExpectedVolatility": "Low",
      "eventName": "Exports (YoY) (May)",
      "eventTimeZone": "GMT",
      "eventPrevious": "-6.0%",
      "eventCurrency": "KRW",
      "eventForecast": "-6.0%"
    },
    {
      "eventDateTime": "2016-06-15T00:00:00",
      "eventActual": "-9.0%",
      "eventCountry": "South Korea",
      "eventExpectedVolatility": "Low",
      "eventName": "Imports (YoY) (May)",
      "eventTimeZone": "GMT",
      "eventPrevious": "-9.3%",
      "eventCurrency": "KRW",
      "eventForecast": "-9.3%"
    },
    {
      "eventDateTime": "2016-06-15T00:00:00",
      "eventActual": "7.00B",
      "eventCountry": "South Korea",
      "eventExpectedVolatility": "Low",
      "eventName": "Trade Balance (May)",
      "eventTimeZone": "GMT",
      "eventPrevious": "7.10B",
      "eventCurrency": "KRW",
      "eventForecast": "7.10B"
    }
  ]}}
