"FX Reserves, USD";"India";"INR";"2018-07-13T11:30:00";"GMT";"406.06B";"";"405.81B";"Low"
"Exports (USD) (Jun)";"India";"INR";"2018-07-13T12:35:00";"GMT";"28.86B";"";"27.70B";"Low"
"Imports (USD) (Jun)";"India";"INR";"2018-07-13T12:35:00";"GMT";"43.48B";"";"44.30B";"Low"
"Trade Balance (Jun)";"India";"INR";"2018-07-13T12:35:00";"GMT";"-14.62B";"-14.50B";"-16.60B";"Low"
