{"events": {"event": {
    "eventDateTime": "2012-07-23T08:30:00",
    "eventActual": "3.70%",
    "eventCountry": "Hong Kong",
    "eventExpectedVolatility": "Low",
    "eventName": "CPI (YoY)",
    "eventTimeZone": "GMT",
    "eventPrevious": "4.30%",
    "eventCurrency": "HKD",
    "eventForecast": "3.90%"
  }}}
