{"events": {"event": [
    {
      "eventDateTime": "2019-08-22T00:30:00",
      "eventActual": "49.5",
      "eventCountry": "Japan",
      "eventExpectedVolatility": "Low",
      "eventName": "Manufacturing PMI (Aug)",
      "eventTimeZone": "GMT",
      "eventPrevious": "49.4",
      "eventCurrency": "JPY",
      "eventForecast": "49.8"
    },
    {
      "eventDateTime": "2019-08-22T00:30:00",
      "eventActual": "53.4",
      "eventCountry": "Japan",
      "eventExpectedVolatility": "Moderate",
      "eventName": "Services PMI",
      "eventTimeZone": "GMT",
      "eventPrevious": "51.8",
      "eventCurrency": "JPY",
      "eventForecast": ""
    },
    {
      "eventDateTime": "2019-08-22T04:30:00",
      "eventActual": "-0.8%",
      "eventCountry": "Japan",
      "eventExpectedVolatility": "Low",
      "eventName": "All Industries Activity Index (MoM)",
      "eventTimeZone": "GMT",
      "eventPrevious": "0.5%",
      "eventCurrency": "JPY",
      "eventForecast": "-0.7%"
    },
    {
      "eventDateTime": "2019-08-22T06:00:00",
      "eventActual": "-33.0%",
      "eventCountry": "Japan",
      "eventExpectedVolatility": "Low",
      "eventName": "Machine Tool Orders (YoY)",
      "eventTimeZone": "GMT",
      "eventPrevious": "-33.0%",
      "eventCurrency": "JPY",
      "eventForecast": ""
    },
    {
      "eventDateTime": "2019-08-22T23:30:00",
      "eventActual": "0.0%",
      "eventCountry": "Japan",
      "eventExpectedVolatility": "Low",
      "eventName": "CPI, n.s.a (MoM) (Jul)",
      "eventTimeZone": "GMT",
      "eventPrevious": "-0.2%",
      "eventCurrency": "JPY",
      "eventForecast": ""
    },
    {
      "eventDateTime": "2019-08-22T23:30:00",
      "eventActual": "0.1%",
      "eventCountry": "Japan",
      "eventExpectedVolatility": "Moderate",
      "eventName": "National CPI (MoM)",
      "eventTimeZone": "GMT",
      "eventPrevious": "0.0%",
      "eventCurrency": "JPY",
      "eventForecast": ""
    },
    {
      "eventDateTime": "2019-08-22T23:30:00",
      "eventActual": "0.5%",
      "eventCountry": "Japan",
      "eventExpectedVolatility": "Low",
      "eventName": "National CPI (YoY) (Jul)",
      "eventTimeZone": "GMT",
      "eventPrevious": "0.7%",
      "eventCurrency": "JPY",
      "eventForecast": "0.5%"
    },
    {
      "eventDateTime": "2019-08-22T23:30:00",
      "eventActual": "0.6%",
      "eventCountry": "Japan",
      "eventExpectedVolatility": "Moderate",
      "eventName": "National Core CPI (YoY) (Jul)",
      "eventTimeZone": "GMT",
      "eventPrevious": "0.6%",
      "eventCurrency": "JPY",
      "eventForecast": "0.6%"
    }
  ]}}
