{"events": {"event": [
    {
      "eventDateTime": "2019-01-02T05:00:00",
      "eventActual": "53.2",
      "eventCountry": "India",
      "eventExpectedVolatility": "Low",
      "eventName": "Nikkei Markit Manufacturing PMI (Dec)",
      "eventTimeZone": "GMT",
      "eventPrevious": "54.0",
      "eventCurrency": "INR",
      "eventForecast": ""
    },
    {
      "eventDateTime": "2019-01-02T11:30:00",
      "eventActual": "10.2%",
      "eventCountry": "India",
      "eventExpectedVolatility": "Low",
      "eventName": "M3 Money Supply",
      "eventTimeZone": "GMT",
      "eventPrevious": "10.5%",
      "eventCurrency": "INR",
      "eventForecast": ""
    }
  ]}}
