{"events": {"event": [
    {
      "eventDateTime": "2006-12-01T09:00:00",
      "eventActual": "28.59%",
      "eventCountry": "India",
      "eventExpectedVolatility": "Low",
      "eventName": "Bank Loan Growth (Nov)",
      "eventTimeZone": "GMT",
      "eventPrevious": "28.66%",
      "eventCurrency": "INR",
      "eventForecast": ""
    },
    {
      "eventDateTime": "2006-12-01T09:00:00",
      "eventActual": "5.00%",
      "eventCountry": "India",
      "eventExpectedVolatility": "Low",
      "eventName": "Cash Reserve Ratio (Nov)",
      "eventTimeZone": "GMT",
      "eventPrevious": "5.00%",
      "eventCurrency": "INR",
      "eventForecast": ""
    },
    {
      "eventDateTime": "2006-12-01T09:00:00",
      "eventActual": "10.90%",
      "eventCountry": "India",
      "eventExpectedVolatility": "Low",
      "eventName": "Cumulative Industrial Production (Nov)",
      "eventTimeZone": "GMT",
      "eventPrevious": "10.10%",
      "eventCurrency": "INR",
      "eventForecast": ""
    },
    {
      "eventDateTime": "2006-12-01T09:00:00",
      "eventActual": "20.98%",
      "eventCountry": "India",
      "eventExpectedVolatility": "Low",
      "eventName": "Deposit Growth (Nov)",
      "eventTimeZone": "GMT",
      "eventPrevious": "19.97%",
      "eventCurrency": "INR",
      "eventForecast": ""
    },
    {
      "eventDateTime": "2006-12-01T09:00:00",
      "eventActual": "9.98B",
      "eventCountry": "India",
      "eventExpectedVolatility": "Low",
      "eventName": "Exports (USD) (Nov)",
      "eventTimeZone": "GMT",
      "eventPrevious": "9.93B",
      "eventCurrency": "INR",
      "eventForecast": ""
    },
    {
      "eventDateTime": "2006-12-01T09:00:00",
      "eventActual": "175.49B",
      "eventCountry": "India",
      "eventExpectedVolatility": "Low",
      "eventName": "FX Reserves, USD (Nov)",
      "eventTimeZone": "GMT",
      "eventPrevious": "167.12B",
      "eventCurrency": "INR",
      "eventForecast": ""
    },
    {
      "eventDateTime": "2006-12-01T09:00:00",
      "eventActual": "1,082.01B",
      "eventCountry": "India",
      "eventExpectedVolatility": "Low",
      "eventName": "Federal Fiscal Deficit (Nov)",
      "eventTimeZone": "GMT",
      "eventPrevious": "871.00B",
      "eventCurrency": "INR",
      "eventForecast": ""
    },
    {
      "eventDateTime": "2006-12-01T09:00:00",
      "eventActual": "16.38B",
      "eventCountry": "India",
      "eventExpectedVolatility": "Low",
      "eventName": "Imports (USD) (Nov)",
      "eventTimeZone": "GMT",
      "eventPrevious": "17.51B",
      "eventCurrency": "INR",
      "eventForecast": ""
    },
    {
      "eventDateTime": "2006-12-01T09:00:00",
      "eventActual": "20.00%",
      "eventCountry": "India",
      "eventExpectedVolatility": "Low",
      "eventName": "Industrial Production (YoY) (Nov)",
      "eventTimeZone": "GMT",
      "eventPrevious": "9.70%",
      "eventCurrency": "INR",
      "eventForecast": ""
    },
    {
      "eventDateTime": "2006-12-01T09:00:00",
      "eventActual": "9.41%",
      "eventCountry": "India",
      "eventExpectedVolatility": "Low",
      "eventName": "Infrastructure Output (YoY) (Nov)",
      "eventTimeZone": "GMT",
      "eventPrevious": "9.73%",
      "eventCurrency": "INR",
      "eventForecast": ""
    },
    {
      "eventDateTime": "2006-12-01T09:00:00",
      "eventActual": "7.25%",
      "eventCountry": "India",
      "eventExpectedVolatility": "High",
      "eventName": "Interest Rate Decision (Nov)",
      "eventTimeZone": "GMT",
      "eventPrevious": "7.01%",
      "eventCurrency": "INR",
      "eventForecast": ""
    },
    {
      "eventDateTime": "2006-12-01T09:00:00",
      "eventActual": "19.47%",
      "eventCountry": "India",
      "eventExpectedVolatility": "Low",
      "eventName": "M3 Money Supply (Nov)",
      "eventTimeZone": "GMT",
      "eventPrevious": "18.92%",
      "eventCurrency": "INR",
      "eventForecast": ""
    },
    {
      "eventDateTime": "2006-12-01T09:00:00",
      "eventActual": "23.70%",
      "eventCountry": "India",
      "eventExpectedVolatility": "Low",
      "eventName": "Manufacturing Output (MoM) (Nov)",
      "eventTimeZone": "GMT",
      "eventPrevious": "10.30%",
      "eventCurrency": "INR",
      "eventForecast": ""
    },
    {
      "eventDateTime": "2006-12-01T09:00:00",
      "eventActual": "6.00%",
      "eventCountry": "India",
      "eventExpectedVolatility": "Low",
      "eventName": "Reverse REPO Rate (Nov)",
      "eventTimeZone": "GMT",
      "eventPrevious": "6.00%",
      "eventCurrency": "INR",
      "eventForecast": ""
    },
    {
      "eventDateTime": "2006-12-01T09:00:00",
      "eventActual": "-6.40B",
      "eventCountry": "India",
      "eventExpectedVolatility": "Low",
      "eventName": "Trade Balance (Nov)",
      "eventTimeZone": "GMT",
      "eventPrevious": "-7.58B",
      "eventCurrency": "INR",
      "eventForecast": ""
    },
    {
      "eventDateTime": "2006-12-01T09:00:00",
      "eventActual": "9.10%",
      "eventCountry": "India",
      "eventExpectedVolatility": "Low",
      "eventName": "WPI Food (YoY) (Nov)",
      "eventTimeZone": "GMT",
      "eventPrevious": "9.90%",
      "eventCurrency": "INR",
      "eventForecast": ""
    },
    {
      "eventDateTime": "2006-12-01T09:00:00",
      "eventActual": "5.20%",
      "eventCountry": "India",
      "eventExpectedVolatility": "Low",
      "eventName": "WPI Fuel (YoY) (Nov)",
      "eventTimeZone": "GMT",
      "eventPrevious": "5.80%",
      "eventCurrency": "INR",
      "eventForecast": ""
    },
    {
      "eventDateTime": "2006-12-01T09:00:00",
      "eventActual": "6.73%",
      "eventCountry": "India",
      "eventExpectedVolatility": "Moderate",
      "eventName": "WPI Inflation (YoY) (Nov)",
      "eventTimeZone": "GMT",
      "eventPrevious": "6.93%",
      "eventCurrency": "INR",
      "eventForecast": ""
    },
    {
      "eventDateTime": "2006-12-01T09:00:00",
      "eventActual": "6.36%",
      "eventCountry": "India",
      "eventExpectedVolatility": "Low",
      "eventName": "WPI Manufacturing Inflation (YoY) (Nov)",
      "eventTimeZone": "GMT",
      "eventPrevious": "6.37%",
      "eventCurrency": "INR",
      "eventForecast": ""
    }
  ]}}
