{"events": {"event": {
    "eventDateTime": "2009-12-04T20:30:00",
    "eventActual": "22.2K",
    "eventCountry": "Euro Zone",
    "eventExpectedVolatility": "Moderate",
    "eventName": "CFTC EUR speculative net positions",
    "eventTimeZone": "GMT",
    "eventPrevious": "18.5K",
    "eventCurrency": "EUR",
    "eventForecast": ""
  }}}
