{"events": {"event": [
    {
      "eventDateTime": "2009-08-03T01:30:00",
      "eventActual": "-7.1%",
      "eventCountry": "Japan",
      "eventExpectedVolatility": "Low",
      "eventName": "Average Cash Earnings (YoY)",
      "eventTimeZone": "GMT",
      "eventPrevious": "-2.5%",
      "eventCurrency": "JPY",
      "eventForecast": "-3.5%"
    },
    {
      "eventDateTime": "2009-08-03T23:50:00",
      "eventActual": "6.1%",
      "eventCountry": "Japan",
      "eventExpectedVolatility": "Low",
      "eventName": "Monetary Base (YoY)",
      "eventTimeZone": "GMT",
      "eventPrevious": "6.4%",
      "eventCurrency": "JPY",
      "eventForecast": "6.8%"
    }
  ]}}
