{"events": {"event": [
    {
      "eventDateTime": "2014-05-20T00:00:00",
      "eventActual": "2.3%",
      "eventCountry": "Singapore",
      "eventExpectedVolatility": "Low",
      "eventName": "GDP (QoQ)",
      "eventTimeZone": "GMT",
      "eventPrevious": "0.1%",
      "eventCurrency": "SGD",
      "eventForecast": "1.0%"
    },
    {
      "eventDateTime": "2014-05-20T00:00:00",
      "eventActual": "4.9%",
      "eventCountry": "Singapore",
      "eventExpectedVolatility": "Low",
      "eventName": "GDP (YoY)",
      "eventTimeZone": "GMT",
      "eventPrevious": "5.1%",
      "eventCurrency": "SGD",
      "eventForecast": "5.5%"
    }
  ]}}
