{"events": {"event": {
    "eventDateTime": "2013-05-24T11:30:00",
    "eventActual": "291.97B",
    "eventCountry": "India",
    "eventExpectedVolatility": "Low",
    "eventName": "FX Reserves, USD",
    "eventTimeZone": "GMT",
    "eventPrevious": "293.69B",
    "eventCurrency": "INR",
    "eventForecast": ""
  }}}
