{"events": {"event": {
    "eventDateTime": "2016-12-26T06:30:00",
    "eventActual": "33.9%",
    "eventCountry": "Switzerland",
    "eventExpectedVolatility": "Moderate",
    "eventName": "Investing.com USD/CHF Index",
    "eventTimeZone": "GMT",
    "eventPrevious": "46.0%",
    "eventCurrency": "CHF",
    "eventForecast": ""
  }}}
