"Continuing Jobless Claims";"United States";"USD";"2019-08-15T12:30:00";"GMT";"1,687K";"1,690K";"1,726K";"Low"
"Core Retail Sales (MoM) (Jul)";"United States";"USD";"2019-08-15T12:30:00";"GMT";"0.3%";"0.4%";"1.0%";"High"
"Initial Jobless Claims";"United States";"USD";"2019-08-15T12:30:00";"GMT";"211K";"214K";"220K";"Moderate"
"Jobless Claims 4-Week Avg.";"United States";"USD";"2019-08-15T12:30:00";"GMT";"212.75K";"";"213.75K";"Low"
"NY Empire State Manufacturing Index (Aug)";"United States";"USD";"2019-08-15T12:30:00";"GMT";"4.30";"3.00";"4.80";"Moderate"
"Nonfarm Productivity (QoQ) (Q2)";"United States";"USD";"2019-08-15T12:30:00";"GMT";"3.5%";"1.5%";"2.3%";"Moderate"
"Philadelphia Fed Manufacturing Index (Aug)";"United States";"USD";"2019-08-15T12:30:00";"GMT";"21.8";"10.0";"16.8";"High"
"Philly Fed Business Conditions (Aug)";"United States";"USD";"2019-08-15T12:30:00";"GMT";"38.0";"";"32.6";"Low"
"Philly Fed CAPEX Index (Aug)";"United States";"USD";"2019-08-15T12:30:00";"GMT";"36.90";"";"22.60";"Low"
"Philly Fed Employment (Aug)";"United States";"USD";"2019-08-15T12:30:00";"GMT";"30.0";"";"3.6";"Moderate"
"Philly Fed New Orders (Aug)";"United States";"USD";"2019-08-15T12:30:00";"GMT";"18.9";"";"25.8";"Low"
"Philly Fed Prices Paid (Aug)";"United States";"USD";"2019-08-15T12:30:00";"GMT";"16.10";"";"12.80";"Low"
"Retail Control (MoM) (Jul)";"United States";"USD";"2019-08-15T12:30:00";"GMT";"0.7%";"0.3%";"1.0%";"Low"
"Retail Sales (MoM) (Jul)";"United States";"USD";"2019-08-15T12:30:00";"GMT";"0.3%";"0.3%";"0.7%";"High"
"Retail Sales (YoY) (Jul)";"United States";"USD";"2019-08-15T12:30:00";"GMT";"3.29%";"";"3.45%";"Low"
"Retail Sales Ex Gas/Autos (MoM) (Jul)";"United States";"USD";"2019-08-15T12:30:00";"GMT";"0.6%";"0.5%";"0.9%";"Low"
"Unit Labor Costs (QoQ) (Q2)";"United States";"USD";"2019-08-15T12:30:00";"GMT";"5.5%";"2.0%";"2.4%";"Moderate"
"Capacity Utilization Rate (Jul)";"United States";"USD";"2019-08-15T13:15:00";"GMT";"77.8%";"77.8%";"77.5%";"Low"
"Industrial Production (MoM) (Jul)";"United States";"USD";"2019-08-15T13:15:00";"GMT";"0.2%";"0.1%";"-0.2%";"Moderate"
"Industrial Production (YoY) (Jul)";"United States";"USD";"2019-08-15T13:15:00";"GMT";"1.15%";"";"0.48%";"Moderate"
"Manufacturing Production (MoM) (Jul)";"United States";"USD";"2019-08-15T13:15:00";"GMT";"0.6%";"-0.1%";"-0.4%";"Low"
"Business Inventories (MoM) (Jun)";"United States";"USD";"2019-08-15T14:00:00";"GMT";"0.3%";"0.1%";"0.0%";"Moderate"
"NAHB Housing Market Index (Aug)";"United States";"USD";"2019-08-15T14:00:00";"GMT";"65";"65";"66";"Low"
"Retail Inventories Ex Auto (Jun)";"United States";"USD";"2019-08-15T14:00:00";"GMT";"-0.1%";"";"-0.1%";"Moderate"
"Natural Gas Storage";"United States";"USD";"2019-08-15T14:30:00";"GMT";"55B";"58B";"49B";"Low"
"4-Week Bill Auction";"United States";"USD";"2019-08-15T15:30:00";"GMT";"2.065%";"";"2.040%";"Low"
"8-Week Bill Auction";"United States";"USD";"2019-08-15T15:30:00";"GMT";"2.050%";"";"1.950%";"Low"
"Overall Net Capital Flow (Jun)";"United States";"USD";"2019-08-15T20:00:00";"GMT";"37.60B";"";"1.70B";"Low"
"TIC Net Long-Term Transactions (Jun)";"United States";"USD";"2019-08-15T20:00:00";"GMT";"4.6B";"4.4B";"99.1B";"Moderate"
"TIC Net Long-Term Transactions including Swaps (Jun)";"United States";"USD";"2019-08-15T20:00:00";"GMT";"-13.60B";"";"79.90B";"Low"
"US Foreign Buying, T-bonds (Jun)";"United States";"USD";"2019-08-15T20:00:00";"GMT";"-32.80B";"";"-7.70B";"Low"
