"PPI (MoM) (Jul)";"South Africa";"ZAR";"2017-08-31T09:30:00";"GMT";"-0.3%";"0.2%";"0.5%";"Low"
"PPI (YoY) (Jul)";"South Africa";"ZAR";"2017-08-31T09:30:00";"GMT";"4.0%";"3.5%";"3.6%";"Low"
"Trade Balance (Jul)";"South Africa";"ZAR";"2017-08-31T12:00:00";"GMT";"10.56B";"5.80B";"8.99B";"Low"
