{"events": {"event": {
    "eventDateTime": "2008-09-08T05:45:00",
    "eventActual": "2.5%",
    "eventCountry": "Switzerland",
    "eventExpectedVolatility": "Moderate",
    "eventName": "Unemployment Rate s.a.",
    "eventTimeZone": "GMT",
    "eventPrevious": "2.5%",
    "eventCurrency": "CHF",
    "eventForecast": "2.5%"
  }}}
