{"events": {"event": [
    {
      "eventDateTime": "2018-08-09T05:45:00",
      "eventActual": "2.4%",
      "eventCountry": "Switzerland",
      "eventExpectedVolatility": "Moderate",
      "eventName": "Unemployment Rate n.s.a. (Jul)",
      "eventTimeZone": "GMT",
      "eventPrevious": "2.4%",
      "eventCurrency": "CHF",
      "eventForecast": "2.4%"
    },
    {
      "eventDateTime": "2018-08-09T05:45:00",
      "eventActual": "2.6%",
      "eventCountry": "Switzerland",
      "eventExpectedVolatility": "Moderate",
      "eventName": "Unemployment Rate s.a. (Jul)",
      "eventTimeZone": "GMT",
      "eventPrevious": "2.6%",
      "eventCurrency": "CHF",
      "eventForecast": "2.6%"
    }
  ]}}
