{"events": {"event": [
    {
      "eventDateTime": "2015-01-01T06:30:00",
      "eventActual": "62.5%",
      "eventCountry": "United States",
      "eventExpectedVolatility": "Moderate",
      "eventName": "Investing.com Gold Index",
      "eventTimeZone": "GMT",
      "eventPrevious": "63.3%",
      "eventCurrency": "USD",
      "eventForecast": ""
    },
    {
      "eventDateTime": "2015-01-01T06:30:00",
      "eventActual": "49.0%",
      "eventCountry": "United States",
      "eventExpectedVolatility": "Moderate",
      "eventName": "Investing.com Sandamp:P 500 Index",
      "eventTimeZone": "GMT",
      "eventPrevious": "53.5%",
      "eventCurrency": "USD",
      "eventForecast": ""
    }
  ]}}
