"French Business Survey";"France";"EUR";"2013-11-25T07:45:00";"GMT";"98";"97";"98";"Low"
"Spanish PPI (YoY)";"Spain";"EUR";"2013-11-25T08:00:00";"GMT";"0.1%";"0.1%";"-0.2%";"Low"
"Italian Trade Balance Non-EU";"Italy";"EUR";"2013-11-25T09:00:00";"GMT";"0.32B";"";"2.90B";"Low"
"German 12-Month Bubill Auction";"Germany";"EUR";"2013-11-25T10:30:00";"GMT";"0.108%";"";"0.091%";"Low"
"French 12-Month BTF Auction";"France";"EUR";"2013-11-25T14:00:00";"GMT";"0.136%";"";"0.139%";"Low"
"French 3-Month BTF Auction";"France";"EUR";"2013-11-25T14:00:00";"GMT";"0.065%";"";"0.090%";"Low"
"French 6-Month BTF Auction";"France";"EUR";"2013-11-25T14:00:00";"GMT";"0.088%";"";"0.109%";"Low"
"German Buba President Weidmann Speaks";"Germany";"EUR";"2013-11-25T21:15:00";"GMT";" ";"";"";"Moderate"
