{"events": {"event": [
    {
      "eventDateTime": "2018-01-30T09:30:00",
      "eventActual": "1.520B",
      "eventCountry": "United Kingdom",
      "eventExpectedVolatility": "Low",
      "eventName": "BoE Consumer Credit (Dec)",
      "eventTimeZone": "GMT",
      "eventPrevious": "1.497B",
      "eventCurrency": "GBP",
      "eventForecast": "1.300B"
    },
    {
      "eventDateTime": "2018-01-30T09:30:00",
      "eventActual": "-0.6%",
      "eventCountry": "United Kingdom",
      "eventExpectedVolatility": "Low",
      "eventName": "M4 Money Supply (MoM) (Dec)",
      "eventTimeZone": "GMT",
      "eventPrevious": "0.2%",
      "eventCurrency": "GBP",
      "eventForecast": "0.2%"
    },
    {
      "eventDateTime": "2018-01-30T09:30:00",
      "eventActual": "61.04K",
      "eventCountry": "United Kingdom",
      "eventExpectedVolatility": "Low",
      "eventName": "Mortgage Approvals (Dec)",
      "eventTimeZone": "GMT",
      "eventPrevious": "64.71K",
      "eventCurrency": "GBP",
      "eventForecast": "66.00K"
    },
    {
      "eventDateTime": "2018-01-30T09:30:00",
      "eventActual": "3.68B",
      "eventCountry": "United Kingdom",
      "eventExpectedVolatility": "Low",
      "eventName": "Mortgage Lending (Dec)",
      "eventTimeZone": "GMT",
      "eventPrevious": "3.74B",
      "eventCurrency": "GBP",
      "eventForecast": "3.45B"
    },
    {
      "eventDateTime": "2018-01-30T09:30:00",
      "eventActual": "5.2B",
      "eventCountry": "United Kingdom",
      "eventExpectedVolatility": "Low",
      "eventName": "Net Lending to Individuals",
      "eventTimeZone": "GMT",
      "eventPrevious": "5.2B",
      "eventCurrency": "GBP",
      "eventForecast": "4.8B"
    },
    {
      "eventDateTime": "2018-01-30T15:30:00",
      "eventActual": "",
      "eventCountry": "United Kingdom",
      "eventExpectedVolatility": "High",
      "eventName": "BoE Gov Carney Speaks",
      "eventTimeZone": "GMT",
      "eventPrevious": "",
      "eventCurrency": "GBP",
      "eventForecast": ""
    }
  ]}}
