"Investing.com EUR/USD Index";"Euro Zone";"EUR";"2017-11-28T06:30:00";"GMT";"53.7%";"";"55.9%";"Moderate"
"German Import Price Index (MoM) (Oct)";"Germany";"EUR";"2017-11-28T07:00:00";"GMT";"0.9%";"0.6%";"0.6%";"Low"
"German Import Price Index (YoY) (Oct)";"Germany";"EUR";"2017-11-28T07:00:00";"GMT";"3.0%";"2.6%";"2.6%";"Low"
"French Consumer Confidence (Nov)";"France";"EUR";"2017-11-28T07:45:00";"GMT";"100";"101";"102";"Low"
"Spanish Retail Sales (YoY) (Oct)";"Spain";"EUR";"2017-11-28T08:00:00";"GMT";"1.6%";"2.0%";"-0.1%";"Low"
"M3 Money Supply (YoY) (Oct)";"Euro Zone";"EUR";"2017-11-28T09:00:00";"GMT";"5.1%";"5.1%";"5.0%";"Low"
"Private Sector Loans (YoY)";"Euro Zone";"EUR";"2017-11-28T09:00:00";"GMT";"2.7%";"2.8%";"2.7%";"Low"
"Italian 6-Month BOT Auction";"Italy";"EUR";"2017-11-28T10:20:00";"GMT";"-0.400%";"";"-0.436%";"Low"
"GfK German Consumer Climate (Dec)";"Germany";"EUR";"2017-11-28T12:00:00";"GMT";"10.7";"10.8";"10.7";"Moderate"
