{"events": {"event": [
    {
      "eventDateTime": "2014-05-13T03:45:00",
      "eventActual": "1.708%",
      "eventCountry": "Japan",
      "eventExpectedVolatility": "Low",
      "eventName": "30-Year JGB Auction",
      "eventTimeZone": "GMT",
      "eventPrevious": "1.696%",
      "eventCurrency": "JPY",
      "eventForecast": ""
    },
    {
      "eventDateTime": "2014-05-13T23:50:00",
      "eventActual": "2.8%",
      "eventCountry": "Japan",
      "eventExpectedVolatility": "Low",
      "eventName": "PPI (MoM)",
      "eventTimeZone": "GMT",
      "eventPrevious": "0.0%",
      "eventCurrency": "JPY",
      "eventForecast": "2.8%"
    },
    {
      "eventDateTime": "2014-05-13T23:50:00",
      "eventActual": "4.1%",
      "eventCountry": "Japan",
      "eventExpectedVolatility": "Low",
      "eventName": "PPI (YoY)",
      "eventTimeZone": "GMT",
      "eventPrevious": "1.7%",
      "eventCurrency": "JPY",
      "eventForecast": "4.0%"
    }
  ]}}
