"30-Year JGB Auction";"Japan";"JPY";"2014-05-13T03:45:00";"GMT";"1.696%";"";"1.708%";"Low"
"PPI (MoM)";"Japan";"JPY";"2014-05-13T23:50:00";"GMT";"0.0%";"2.8%";"2.8%";"Low"
"PPI (YoY)";"Japan";"JPY";"2014-05-13T23:50:00";"GMT";"1.7%";"4.0%";"4.1%";"Low"
