{"events": {"event": {
    "eventDateTime": "2009-07-06T22:00:00",
    "eventActual": "-25",
    "eventCountry": "New Zealand",
    "eventExpectedVolatility": "Moderate",
    "eventName": "NZIER Business Confidence",
    "eventTimeZone": "GMT",
    "eventPrevious": "-65",
    "eventCurrency": "NZD",
    "eventForecast": ""
  }}}
