{"events": {"event": {
    "eventDateTime": "2019-11-11T05:30:00",
    "eventActual": "47.2%",
    "eventCountry": "Australia",
    "eventExpectedVolatility": "Moderate",
    "eventName": "Investing.com AUD/USD Index",
    "eventTimeZone": "GMT",
    "eventPrevious": "36.1%",
    "eventCurrency": "AUD",
    "eventForecast": ""
  }}}
