{"events": {"event": [
    {
      "eventDateTime": "2019-09-04T13:00:00",
      "eventActual": "51.9",
      "eventCountry": "Brazil",
      "eventExpectedVolatility": "Low",
      "eventName": "Markit Composite PMI (Aug)",
      "eventTimeZone": "GMT",
      "eventPrevious": "51.6",
      "eventCurrency": "BRL",
      "eventForecast": ""
    },
    {
      "eventDateTime": "2019-09-04T13:00:00",
      "eventActual": "51.4",
      "eventCountry": "Brazil",
      "eventExpectedVolatility": "Low",
      "eventName": "Markit Services PMI (Aug)",
      "eventTimeZone": "GMT",
      "eventPrevious": "52.2",
      "eventCurrency": "BRL",
      "eventForecast": ""
    },
    {
      "eventDateTime": "2019-09-04T15:30:00",
      "eventActual": "-4.317B",
      "eventCountry": "Brazil",
      "eventExpectedVolatility": "Low",
      "eventName": "Foreign Exchange Flows",
      "eventTimeZone": "GMT",
      "eventPrevious": "-3.396B",
      "eventCurrency": "BRL",
      "eventForecast": ""
    }
  ]}}
