"Bank Lending (Jan)";"Singapore";"SGD";"2005-02-01T09:00:00";"GMT";"179.10B";"";"178.60B";"Low"
"CPI (YoY) (Jan)";"Singapore";"SGD";"2005-02-01T09:00:00";"GMT";"1.31%";"";"0.39%";"Moderate"
"Foreign Reserves USD (MoM) (Jan)";"Singapore";"SGD";"2005-02-01T09:00:00";"GMT";"112.60B";"";"111.70B";"Low"
"Industrial Production (MoM) (Jan)";"Singapore";"SGD";"2005-02-01T09:00:00";"GMT";"19.80%";"";"-7.40%";"Low"
"Industrial Production (YoY) (Jan)";"Singapore";"SGD";"2005-02-01T09:00:00";"GMT";"32.20%";"";"10.70%";"Low"
"Manufacturing PMI (Jan)";"Singapore";"SGD";"2005-02-01T09:00:00";"GMT";"51.80";"";"52.40";"Low"
"Non-Oil Exports (MoM) (Jan)";"Singapore";"SGD";"2005-02-01T09:00:00";"GMT";"-2.40%";"";"-2.40%";"Low"
"Non-Oil Exports (YoY) (Jan)";"Singapore";"SGD";"2005-02-01T09:00:00";"GMT";"10.00%";"";"10.90%";"Low"
"Retail Sales (MoM) (Jan)";"Singapore";"SGD";"2005-02-01T09:00:00";"GMT";"-1.30%";"";"4.10%";"Low"
"Retail Sales (YoY) (Jan)";"Singapore";"SGD";"2005-02-01T09:00:00";"GMT";"2.60%";"";"11.60%";"Low"
