{"events": {"event": [
    {
      "eventDateTime": "2005-02-01T09:00:00",
      "eventActual": "178.60B",
      "eventCountry": "Singapore",
      "eventExpectedVolatility": "Low",
      "eventName": "Bank Lending (Jan)",
      "eventTimeZone": "GMT",
      "eventPrevious": "179.10B",
      "eventCurrency": "SGD",
      "eventForecast": ""
    },
    {
      "eventDateTime": "2005-02-01T09:00:00",
      "eventActual": "0.39%",
      "eventCountry": "Singapore",
      "eventExpectedVolatility": "Moderate",
      "eventName": "CPI (YoY) (Jan)",
      "eventTimeZone": "GMT",
      "eventPrevious": "1.31%",
      "eventCurrency": "SGD",
      "eventForecast": ""
    },
    {
      "eventDateTime": "2005-02-01T09:00:00",
      "eventActual": "111.70B",
      "eventCountry": "Singapore",
      "eventExpectedVolatility": "Low",
      "eventName": "Foreign Reserves USD (MoM) (Jan)",
      "eventTimeZone": "GMT",
      "eventPrevious": "112.60B",
      "eventCurrency": "SGD",
      "eventForecast": ""
    },
    {
      "eventDateTime": "2005-02-01T09:00:00",
      "eventActual": "-7.40%",
      "eventCountry": "Singapore",
      "eventExpectedVolatility": "Low",
      "eventName": "Industrial Production (MoM) (Jan)",
      "eventTimeZone": "GMT",
      "eventPrevious": "19.80%",
      "eventCurrency": "SGD",
      "eventForecast": ""
    },
    {
      "eventDateTime": "2005-02-01T09:00:00",
      "eventActual": "10.70%",
      "eventCountry": "Singapore",
      "eventExpectedVolatility": "Low",
      "eventName": "Industrial Production (YoY) (Jan)",
      "eventTimeZone": "GMT",
      "eventPrevious": "32.20%",
      "eventCurrency": "SGD",
      "eventForecast": ""
    },
    {
      "eventDateTime": "2005-02-01T09:00:00",
      "eventActual": "52.40",
      "eventCountry": "Singapore",
      "eventExpectedVolatility": "Low",
      "eventName": "Manufacturing PMI (Jan)",
      "eventTimeZone": "GMT",
      "eventPrevious": "51.80",
      "eventCurrency": "SGD",
      "eventForecast": ""
    },
    {
      "eventDateTime": "2005-02-01T09:00:00",
      "eventActual": "-2.40%",
      "eventCountry": "Singapore",
      "eventExpectedVolatility": "Low",
      "eventName": "Non-Oil Exports (MoM) (Jan)",
      "eventTimeZone": "GMT",
      "eventPrevious": "-2.40%",
      "eventCurrency": "SGD",
      "eventForecast": ""
    },
    {
      "eventDateTime": "2005-02-01T09:00:00",
      "eventActual": "10.90%",
      "eventCountry": "Singapore",
      "eventExpectedVolatility": "Low",
      "eventName": "Non-Oil Exports (YoY) (Jan)",
      "eventTimeZone": "GMT",
      "eventPrevious": "10.00%",
      "eventCurrency": "SGD",
      "eventForecast": ""
    },
    {
      "eventDateTime": "2005-02-01T09:00:00",
      "eventActual": "4.10%",
      "eventCountry": "Singapore",
      "eventExpectedVolatility": "Low",
      "eventName": "Retail Sales (MoM) (Jan)",
      "eventTimeZone": "GMT",
      "eventPrevious": "-1.30%",
      "eventCurrency": "SGD",
      "eventForecast": ""
    },
    {
      "eventDateTime": "2005-02-01T09:00:00",
      "eventActual": "11.60%",
      "eventCountry": "Singapore",
      "eventExpectedVolatility": "Low",
      "eventName": "Retail Sales (YoY) (Jan)",
      "eventTimeZone": "GMT",
      "eventPrevious": "2.60%",
      "eventCurrency": "SGD",
      "eventForecast": ""
    }
  ]}}
