{"events": {"event": {
    "eventDateTime": "2012-06-18T10:30:00",
    "eventActual": "3.70%",
    "eventCountry": "Russia",
    "eventExpectedVolatility": "Low",
    "eventName": "Industrial Production (YoY)",
    "eventTimeZone": "GMT",
    "eventPrevious": "1.30%",
    "eventCurrency": "RUB",
    "eventForecast": "1.90%"
  }}}
