{"events": {"event": [
    {
      "eventDateTime": "2019-06-03T11:30:00",
      "eventActual": "",
      "eventCountry": "Brazil",
      "eventExpectedVolatility": "Moderate",
      "eventName": "BCB Focus Market Readout",
      "eventTimeZone": "GMT",
      "eventPrevious": "",
      "eventCurrency": "BRL",
      "eventForecast": ""
    },
    {
      "eventDateTime": "2019-06-03T13:00:00",
      "eventActual": "50.2",
      "eventCountry": "Brazil",
      "eventExpectedVolatility": "Low",
      "eventName": "Markit Manufacturing PMI (May)",
      "eventTimeZone": "GMT",
      "eventPrevious": "51.5",
      "eventCurrency": "BRL",
      "eventForecast": ""
    },
    {
      "eventDateTime": "2019-06-03T19:00:00",
      "eventActual": "6.42B",
      "eventCountry": "Brazil",
      "eventExpectedVolatility": "Low",
      "eventName": "Trade Balance (May)",
      "eventTimeZone": "GMT",
      "eventPrevious": "6.06B",
      "eventCurrency": "BRL",
      "eventForecast": "6.70B"
    }
  ]}}
