{"events": {"event": [
    {
      "eventDateTime": "2015-12-21T07:30:00",
      "eventActual": "52.1%",
      "eventCountry": "United States",
      "eventExpectedVolatility": "Moderate",
      "eventName": "Investing.com Gold Index",
      "eventTimeZone": "GMT",
      "eventPrevious": "53.6%",
      "eventCurrency": "USD",
      "eventForecast": ""
    },
    {
      "eventDateTime": "2015-12-21T07:30:00",
      "eventActual": "43.0%",
      "eventCountry": "United States",
      "eventExpectedVolatility": "Moderate",
      "eventName": "Investing.com Sandamp:P 500 Index",
      "eventTimeZone": "GMT",
      "eventPrevious": "41.3%",
      "eventCurrency": "USD",
      "eventForecast": ""
    },
    {
      "eventDateTime": "2015-12-21T13:30:00",
      "eventActual": "-0.30",
      "eventCountry": "United States",
      "eventExpectedVolatility": "Low",
      "eventName": "Chicago Fed National Activity (Nov)",
      "eventTimeZone": "GMT",
      "eventPrevious": "-0.17",
      "eventCurrency": "USD",
      "eventForecast": "0.10"
    },
    {
      "eventDateTime": "2015-12-21T16:30:00",
      "eventActual": "0.250%",
      "eventCountry": "United States",
      "eventExpectedVolatility": "Low",
      "eventName": "3-Month Bill Auction",
      "eventTimeZone": "GMT",
      "eventPrevious": "0.280%",
      "eventCurrency": "USD",
      "eventForecast": ""
    },
    {
      "eventDateTime": "2015-12-21T16:30:00",
      "eventActual": "0.515%",
      "eventCountry": "United States",
      "eventExpectedVolatility": "Low",
      "eventName": "6-Month Bill Auction",
      "eventTimeZone": "GMT",
      "eventPrevious": "0.585%",
      "eventCurrency": "USD",
      "eventForecast": ""
    }
  ]}}
