{"events": {"event": [
    {
      "eventDateTime": "2009-10-15T00:00:00",
      "eventActual": "3.5%",
      "eventCountry": "Australia",
      "eventExpectedVolatility": "Low",
      "eventName": "MI Inflation Expectations",
      "eventTimeZone": "GMT",
      "eventPrevious": "3.5%",
      "eventCurrency": "AUD",
      "eventForecast": ""
    },
    {
      "eventDateTime": "2009-10-15T00:30:00",
      "eventActual": "",
      "eventCountry": "Australia",
      "eventExpectedVolatility": "Low",
      "eventName": "RBA Bulletin",
      "eventTimeZone": "GMT",
      "eventPrevious": "",
      "eventCurrency": "AUD",
      "eventForecast": ""
    }
  ]}}
