{"events": {"event": [
    {
      "eventDateTime": "2013-09-04T11:00:00",
      "eventActual": "1.3%",
      "eventCountry": "United States",
      "eventExpectedVolatility": "Low",
      "eventName": "MBA Mortgage Applications (WoW)",
      "eventTimeZone": "GMT",
      "eventPrevious": "-2.5%",
      "eventCurrency": "USD",
      "eventForecast": ""
    },
    {
      "eventDateTime": "2013-09-04T12:30:00",
      "eventActual": "-39.15B",
      "eventCountry": "United States",
      "eventExpectedVolatility": "Moderate",
      "eventName": "Trade Balance",
      "eventTimeZone": "GMT",
      "eventPrevious": "-34.54B",
      "eventCurrency": "USD",
      "eventForecast": "-38.70B"
    },
    {
      "eventDateTime": "2013-09-04T12:55:00",
      "eventActual": "0.60%",
      "eventCountry": "United States",
      "eventExpectedVolatility": "Low",
      "eventName": "Redbook (MoM)",
      "eventTimeZone": "GMT",
      "eventPrevious": "0.30%",
      "eventCurrency": "USD",
      "eventForecast": ""
    },
    {
      "eventDateTime": "2013-09-04T12:55:00",
      "eventActual": "4.7%",
      "eventCountry": "United States",
      "eventExpectedVolatility": "Low",
      "eventName": "Redbook (YoY)",
      "eventTimeZone": "GMT",
      "eventPrevious": "3.8%",
      "eventCurrency": "USD",
      "eventForecast": ""
    },
    {
      "eventDateTime": "2013-09-04T13:45:00",
      "eventActual": "592.30",
      "eventCountry": "United States",
      "eventExpectedVolatility": "Low",
      "eventName": "ISM-New York Index",
      "eventTimeZone": "GMT",
      "eventPrevious": "587.00",
      "eventCurrency": "USD",
      "eventForecast": ""
    },
    {
      "eventDateTime": "2013-09-04T14:00:00",
      "eventActual": "46.0",
      "eventCountry": "United States",
      "eventExpectedVolatility": "Low",
      "eventName": "IBD/TIPP Economic Optimism",
      "eventTimeZone": "GMT",
      "eventPrevious": "45.1",
      "eventCurrency": "USD",
      "eventForecast": "46.2"
    },
    {
      "eventDateTime": "2013-09-04T15:30:00",
      "eventActual": "0.020%",
      "eventCountry": "United States",
      "eventExpectedVolatility": "Low",
      "eventName": "4-Week Bill Auction",
      "eventTimeZone": "GMT",
      "eventPrevious": "0.040%",
      "eventCurrency": "USD",
      "eventForecast": ""
    },
    {
      "eventDateTime": "2013-09-04T18:00:00",
      "eventActual": "",
      "eventCountry": "United States",
      "eventExpectedVolatility": "Moderate",
      "eventName": "Beige Book",
      "eventTimeZone": "GMT",
      "eventPrevious": "",
      "eventCurrency": "USD",
      "eventForecast": ""
    },
    {
      "eventDateTime": "2013-09-04T21:00:00",
      "eventActual": "16.09M",
      "eventCountry": "United States",
      "eventExpectedVolatility": "Low",
      "eventName": "Total Vehicle Sales",
      "eventTimeZone": "GMT",
      "eventPrevious": "15.73M",
      "eventCurrency": "USD",
      "eventForecast": "15.80M"
    }
  ]}}
