{"events": {"event": [
    {
      "eventDateTime": "2016-02-08T00:30:00",
      "eventActual": "1.1%",
      "eventCountry": "Australia",
      "eventExpectedVolatility": "Low",
      "eventName": "ANZ Internet Job Ads (MoM) (Jan)",
      "eventTimeZone": "GMT",
      "eventPrevious": "-0.1%",
      "eventCurrency": "AUD",
      "eventForecast": ""
    },
    {
      "eventDateTime": "2016-02-08T00:30:00",
      "eventActual": "1.0%",
      "eventCountry": "Australia",
      "eventExpectedVolatility": "Low",
      "eventName": "ANZ Job Advertisements (MoM)",
      "eventTimeZone": "GMT",
      "eventPrevious": "-0.1%",
      "eventCurrency": "AUD",
      "eventForecast": ""
    },
    {
      "eventDateTime": "2016-02-08T00:30:00",
      "eventActual": "-3.2%",
      "eventCountry": "Australia",
      "eventExpectedVolatility": "Low",
      "eventName": "ANZ Newspaper Job Ads (MoM) (Jan)",
      "eventTimeZone": "GMT",
      "eventPrevious": "-1.2%",
      "eventCurrency": "AUD",
      "eventForecast": ""
    },
    {
      "eventDateTime": "2016-02-08T07:30:00",
      "eventActual": "40.9%",
      "eventCountry": "Australia",
      "eventExpectedVolatility": "Moderate",
      "eventName": "Investing.com AUD/USD Index",
      "eventTimeZone": "GMT",
      "eventPrevious": "36.5%",
      "eventCurrency": "AUD",
      "eventForecast": ""
    }
  ]}}
