"Bank Lending (YoY) (Jan)";"Japan";"JPY";"2004-02-01T09:00:00";"GMT";"-4.60%";"";"-4.60%";"Low"
"Capacity Utilization (MoM) (Jan)";"Japan";"JPY";"2004-02-01T09:00:00";"GMT";"0.60%";"";"1.40%";"Low"
"Coincident Indicator (MoM) (Jan)";"Japan";"JPY";"2004-02-01T09:00:00";"GMT";"1.40%";"";"1.40%";"Low"
"Construction Orders (YoY) (Jan)";"Japan";"JPY";"2004-02-01T09:00:00";"GMT";"8.80%";"";"4.10%";"Low"
"Core Machinery Orders (MoM) (Jan)";"Japan";"JPY";"2004-02-01T09:00:00";"GMT";"0.80%";"";"-1.50%";"Low"
"Core Machinery Orders (YoY) (Jan)";"Japan";"JPY";"2004-02-01T09:00:00";"GMT";"16.10%";"";"-4.00%";"Low"
"Current Account n.s.a. (Jan)";"Japan";"JPY";"2004-02-01T09:00:00";"GMT";"1.26T";"";"1.15T";"Moderate"
"Economy Watchers Current Index (Jan)";"Japan";"JPY";"2004-02-01T09:00:00";"GMT";"49.10";"";"48.60";"Low"
"Exports (YoY) (Jan)";"Japan";"JPY";"2004-02-01T09:00:00";"GMT";"8.50%";"";"11.30%";"Moderate"
"Foreign Reserves (USD) (Jan)";"Japan";"JPY";"2004-02-01T09:00:00";"GMT";"673.53B";"";"741.25B";"Low"
"Household Spending (MoM) (Jan)";"Japan";"JPY";"2004-02-01T09:00:00";"GMT";"0.60%";"";"-0.30%";"Moderate"
"Household Spending (YoY) (Jan)";"Japan";"JPY";"2004-02-01T09:00:00";"GMT";"0.00%";"";"1.20%";"Moderate"
"Housing Starts (YoY) (Jan)";"Japan";"JPY";"2004-02-01T09:00:00";"GMT";"9.40%";"";"7.30%";"Low"
"Imports (YoY) (Jan)";"Japan";"JPY";"2004-02-01T09:00:00";"GMT";"1.70%";"";"1.10%";"Low"
"Industrial Production (MoM) (Jan)";"Japan";"JPY";"2004-02-01T09:00:00";"GMT";"-0.10%";"";"1.60%";"Moderate"
"Jobs/applications ratio (Jan)";"Japan";"JPY";"2004-02-01T09:00:00";"GMT";"0.75";"";"0.76";"Moderate"
"Leading Index (MoM) (Jan)";"Japan";"JPY";"2004-02-01T09:00:00";"GMT";"1.10%";"";"1.40%";"Low"
"National CPI (YoY) (Jan)";"Japan";"JPY";"2004-02-01T09:00:00";"GMT";"-0.40%";"";"-0.30%";"Low"
"National Core CPI (YoY) (Jan)";"Japan";"JPY";"2004-02-01T09:00:00";"GMT";"0.00%";"";"-0.10%";"Moderate"
"Overtime Pay (YoY) (Jan)";"Japan";"JPY";"2004-02-01T09:00:00";"GMT";"3.10%";"";"3.00%";"Low"
"PPI (MoM) (Jan)";"Japan";"JPY";"2004-02-01T09:00:00";"GMT";"0.10%";"";"0.20%";"Low"
"PPI (YoY) (Jan)";"Japan";"JPY";"2004-02-01T09:00:00";"GMT";"-0.20%";"";"0.00%";"Low"
"Retail Sales (YoY) (Jan)";"Japan";"JPY";"2004-02-01T09:00:00";"GMT";"1.70%";"";"3.30%";"Moderate"
"Reuters Tankan Index (Jan)";"Japan";"JPY";"2004-02-01T09:00:00";"GMT";"3.00";"";"4.00";"Low"
"Tokyo CPI (YoY) (Jan)";"Japan";"JPY";"2004-02-01T09:00:00";"GMT";"-0.40%";"";"-0.50%";"Low"
"Tokyo Core CPI (YoY) (Jan)";"Japan";"JPY";"2004-02-01T09:00:00";"GMT";"-0.10%";"";"-0.30%";"Moderate"
"Trade Balance (Jan)";"Japan";"JPY";"2004-02-01T09:00:00";"GMT";"1,122.10B";"";"488.30B";"Moderate"
"Unemployment Rate (Jan)";"Japan";"JPY";"2004-02-01T09:00:00";"GMT";"4.90%";"";"4.90%";"Low"
