"CPI (MoM) (Oct)";"China";"CNY";"2002-11-01T09:00:00";"GMT";"1.00%";"";"0.20%";"Moderate"
"CPI (YoY) (Oct)";"China";"CNY";"2002-11-01T09:00:00";"GMT";"-0.70%";"";"-0.80%";"Moderate"
"Exports (YoY) (Oct)";"China";"CNY";"2002-11-01T09:00:00";"GMT";"33.20%";"";"31.40%";"Moderate"
"FDI (Oct)";"China";"CNY";"2002-11-01T09:00:00";"GMT";"22.55%";"";"20.05%";"Low"
"Fixed Asset Investment (YoY) (Oct)";"China";"CNY";"2002-11-01T09:00:00";"GMT";"24.30%";"";"24.10%";"Moderate"
"Imports (YoY) (Oct)";"China";"CNY";"2002-11-01T09:00:00";"GMT";"36.40%";"";"33.30%";"Moderate"
"Industrial Production (YoY) (Oct)";"China";"CNY";"2002-11-01T09:00:00";"GMT";"13.80%";"";"14.20%";"High"
"M2 Money Stock (YoY) (Oct)";"China";"CNY";"2002-11-01T09:00:00";"GMT";"16.50%";"";"17.00%";"Low"
"Outstanding Loan Growth (YoY) (Oct)";"China";"CNY";"2002-11-01T09:00:00";"GMT";"14.20%";"";"15.40%";"Low"
"PBoC Deposit Rate (Oct)";"China";"CNY";"2002-11-01T09:00:00";"GMT";"1.98%";"";"1.98%";"Moderate"
"PBoC Interest Rate (Oct)";"China";"CNY";"2002-11-01T09:00:00";"GMT";"5.31%";"";"5.31%";"High"
"PBoC Reserve Requirement Ratio (Oct)";"China";"CNY";"2002-11-01T09:00:00";"GMT";"6.00%";"";"6.00%";"Moderate"
"PPI (YoY) (Oct)";"China";"CNY";"2002-11-01T09:00:00";"GMT";"-1.40%";"";"-1.00%";"Moderate"
"Retail Sales (YoY) (Oct)";"China";"CNY";"2002-11-01T09:00:00";"GMT";"9.10%";"";"9.40%";"Low"
"Trade Balance (USD) (Oct)";"China";"CNY";"2002-11-01T09:00:00";"GMT";"2.16B";"";"4.75B";"Moderate"
