{"events": {"event": [
    {
      "eventDateTime": "2016-10-11T00:30:00",
      "eventActual": "-3.0%",
      "eventCountry": "Australia",
      "eventExpectedVolatility": "Moderate",
      "eventName": "Home Loans (MoM) (Aug)",
      "eventTimeZone": "GMT",
      "eventPrevious": "-4.5%",
      "eventCurrency": "AUD",
      "eventForecast": "-2.5%"
    },
    {
      "eventDateTime": "2016-10-11T00:30:00",
      "eventActual": "0.1%",
      "eventCountry": "Australia",
      "eventExpectedVolatility": "Low",
      "eventName": "Invest Housing Finance (MoM) (Aug)",
      "eventTimeZone": "GMT",
      "eventPrevious": "0.5%",
      "eventCurrency": "AUD",
      "eventForecast": ""
    },
    {
      "eventDateTime": "2016-10-11T00:30:00",
      "eventActual": "6",
      "eventCountry": "Australia",
      "eventExpectedVolatility": "Moderate",
      "eventName": "NAB Business Confidence (Sep)",
      "eventTimeZone": "GMT",
      "eventPrevious": "6",
      "eventCurrency": "AUD",
      "eventForecast": ""
    },
    {
      "eventDateTime": "2016-10-11T00:30:00",
      "eventActual": "8",
      "eventCountry": "Australia",
      "eventExpectedVolatility": "Low",
      "eventName": "NAB Business Survey (Sep)",
      "eventTimeZone": "GMT",
      "eventPrevious": "7",
      "eventCurrency": "AUD",
      "eventForecast": ""
    },
    {
      "eventDateTime": "2016-10-11T23:30:00",
      "eventActual": "1.1%",
      "eventCountry": "Australia",
      "eventExpectedVolatility": "Moderate",
      "eventName": "Westpac Consumer Sentiment (Oct)",
      "eventTimeZone": "GMT",
      "eventPrevious": "0.3%",
      "eventCurrency": "AUD",
      "eventForecast": ""
    }
  ]}}
