{"events": {"event": {
    "eventDateTime": "2010-12-12T23:15:00",
    "eventActual": "-3.0%",
    "eventCountry": "United Kingdom",
    "eventExpectedVolatility": "Low",
    "eventName": "Rightmove House Price Index (MoM)",
    "eventTimeZone": "GMT",
    "eventPrevious": "-3.2%",
    "eventCurrency": "GBP",
    "eventForecast": ""
  }}}
