{"events": {"event": [
    {
      "eventDateTime": "2015-05-18T05:30:00",
      "eventActual": "50.0%",
      "eventCountry": "Switzerland",
      "eventExpectedVolatility": "Moderate",
      "eventName": "Investing.com USD/CHF Index",
      "eventTimeZone": "GMT",
      "eventPrevious": "50.4%",
      "eventCurrency": "CHF",
      "eventForecast": ""
    },
    {
      "eventDateTime": "2015-05-18T07:15:00",
      "eventActual": "-2.8%",
      "eventCountry": "Switzerland",
      "eventExpectedVolatility": "Moderate",
      "eventName": "Retail Sales (YoY) (Mar)",
      "eventTimeZone": "GMT",
      "eventPrevious": "-3.1%",
      "eventCurrency": "CHF",
      "eventForecast": "-2.0%"
    }
  ]}}
