{"events": {"event": [
    {
      "eventDateTime": "2017-10-01T23:50:00",
      "eventActual": "7.7%",
      "eventCountry": "Japan",
      "eventExpectedVolatility": "Moderate",
      "eventName": "Tankan All Big Industry CAPEX (Q3)",
      "eventTimeZone": "GMT",
      "eventPrevious": "8.0%",
      "eventCurrency": "JPY",
      "eventForecast": "8.3%"
    },
    {
      "eventDateTime": "2017-10-01T23:50:00",
      "eventActual": "-14.1%",
      "eventCountry": "Japan",
      "eventExpectedVolatility": "Low",
      "eventName": "Tankan All Small Industry CAPEX (Q3)",
      "eventTimeZone": "GMT",
      "eventPrevious": "-20.6%",
      "eventCurrency": "JPY",
      "eventForecast": "-13.8%"
    },
    {
      "eventDateTime": "2017-10-01T23:50:00",
      "eventActual": "19",
      "eventCountry": "Japan",
      "eventExpectedVolatility": "Moderate",
      "eventName": "Tankan Big Manufacturing Outlook Index (Q3)",
      "eventTimeZone": "GMT",
      "eventPrevious": "15",
      "eventCurrency": "JPY",
      "eventForecast": "16"
    },
    {
      "eventDateTime": "2017-10-01T23:50:00",
      "eventActual": "22",
      "eventCountry": "Japan",
      "eventExpectedVolatility": "High",
      "eventName": "Tankan Large Manufacturers Index (Q3)",
      "eventTimeZone": "GMT",
      "eventPrevious": "17",
      "eventCurrency": "JPY",
      "eventForecast": "18"
    },
    {
      "eventDateTime": "2017-10-01T23:50:00",
      "eventActual": "19",
      "eventCountry": "Japan",
      "eventExpectedVolatility": "Low",
      "eventName": "Tankan Large Non-Manufacturers Diffusion Index (Q3)",
      "eventTimeZone": "GMT",
      "eventPrevious": "18",
      "eventCurrency": "JPY",
      "eventForecast": "20"
    },
    {
      "eventDateTime": "2017-10-01T23:50:00",
      "eventActual": "23",
      "eventCountry": "Japan",
      "eventExpectedVolatility": "High",
      "eventName": "Tankan Large Non-Manufacturers Index (Q3)",
      "eventTimeZone": "GMT",
      "eventPrevious": "23",
      "eventCurrency": "JPY",
      "eventForecast": "23"
    },
    {
      "eventDateTime": "2017-10-01T23:50:00",
      "eventActual": "8",
      "eventCountry": "Japan",
      "eventExpectedVolatility": "Low",
      "eventName": "Tankan Small Manufacturers Diffusion Index (Q3)",
      "eventTimeZone": "GMT",
      "eventPrevious": "6",
      "eventCurrency": "JPY",
      "eventForecast": "6"
    },
    {
      "eventDateTime": "2017-10-01T23:50:00",
      "eventActual": "10",
      "eventCountry": "Japan",
      "eventExpectedVolatility": "Low",
      "eventName": "Tankan Small Manufacturing Index (Q3)",
      "eventTimeZone": "GMT",
      "eventPrevious": "7",
      "eventCurrency": "JPY",
      "eventForecast": "8"
    },
    {
      "eventDateTime": "2017-10-01T23:50:00",
      "eventActual": "4",
      "eventCountry": "Japan",
      "eventExpectedVolatility": "Low",
      "eventName": "Tankan Small Non-Manufacturers Diffusion Index (Q3)",
      "eventTimeZone": "GMT",
      "eventPrevious": "2",
      "eventCurrency": "JPY",
      "eventForecast": "3"
    },
    {
      "eventDateTime": "2017-10-01T23:50:00",
      "eventActual": "8",
      "eventCountry": "Japan",
      "eventExpectedVolatility": "Low",
      "eventName": "Tankan Small Non-Manufacturing Index (Q3)",
      "eventTimeZone": "GMT",
      "eventPrevious": "7",
      "eventCurrency": "JPY",
      "eventForecast": "7"
    }
  ]}}
