{"events": {"event": [
    {
      "eventDateTime": "2014-02-13T07:00:00",
      "eventActual": "-0.6%",
      "eventCountry": "Germany",
      "eventExpectedVolatility": "Moderate",
      "eventName": "German CPI (MoM)",
      "eventTimeZone": "GMT",
      "eventPrevious": "-0.6%",
      "eventCurrency": "EUR",
      "eventForecast": "-0.6%"
    },
    {
      "eventDateTime": "2014-02-13T07:00:00",
      "eventActual": "1.3%",
      "eventCountry": "Germany",
      "eventExpectedVolatility": "Low",
      "eventName": "German CPI (YoY)",
      "eventTimeZone": "GMT",
      "eventPrevious": "1.3%",
      "eventCurrency": "EUR",
      "eventForecast": "1.3%"
    },
    {
      "eventDateTime": "2014-02-13T09:00:00",
      "eventActual": "",
      "eventCountry": "Euro Zone",
      "eventExpectedVolatility": "Moderate",
      "eventName": "ECB Economic Bulletin",
      "eventTimeZone": "GMT",
      "eventPrevious": "",
      "eventCurrency": "EUR",
      "eventForecast": ""
    },
    {
      "eventDateTime": "2014-02-13T10:20:00",
      "eventActual": "1.41%",
      "eventCountry": "Italy",
      "eventExpectedVolatility": "Low",
      "eventName": "Italian 3-Year BTP Auction",
      "eventTimeZone": "GMT",
      "eventPrevious": "1.51%",
      "eventCurrency": "EUR",
      "eventForecast": ""
    }
  ]}}
