{"events": {"event": {
    "eventDateTime": "2011-07-29T19:30:00",
    "eventActual": "7.9K",
    "eventCountry": "Switzerland",
    "eventExpectedVolatility": "Low",
    "eventName": "CFTC CHF speculative net positions",
    "eventTimeZone": "GMT",
    "eventPrevious": "11.5K",
    "eventCurrency": "CHF",
    "eventForecast": ""
  }}}
