"Nikkei Manufacturing PMI";"South Korea";"KRW";"2014-03-03T00:00:00";"GMT";"50.90";"";"49.80";"Low"
"CPI (MoM)";"South Korea";"KRW";"2014-03-03T23:00:00";"GMT";"0.5%";"0.4%";"0.3%";"Low"
"CPI (YoY)";"South Korea";"KRW";"2014-03-03T23:00:00";"GMT";"1.1%";"1.1%";"1.0%";"Moderate"
