{"events": {"event": {
    "eventDateTime": "2012-09-13T13:30:00",
    "eventActual": "8.25%",
    "eventCountry": "Russia",
    "eventExpectedVolatility": "High",
    "eventName": "Interest Rate Decision",
    "eventTimeZone": "GMT",
    "eventPrevious": "8.00%",
    "eventCurrency": "RUB",
    "eventForecast": "8.00%"
  }}}
