"Current Account";"South Korea";"KRW";"2013-07-29T23:00:00";"GMT";"7.82B";"";"4.79B";"Low"
"Industrial Production (MoM)";"South Korea";"KRW";"2013-07-29T23:00:00";"GMT";"-0.1%";"0.4%";"0.4%";"Low"
"Industrial Production (YoY)";"South Korea";"KRW";"2013-07-29T23:00:00";"GMT";"-1.3%";"-1.0%";"-2.6%";"Low"
"Service Sector Output (MoM)";"South Korea";"KRW";"2013-07-29T23:00:00";"GMT";"0.10%";"";"-0.10%";"Low"
