{"events": {"event": {
    "eventDateTime": "2006-04-13T17:00:00",
    "eventActual": "259",
    "eventCountry": "United States",
    "eventExpectedVolatility": "Moderate",
    "eventName": "U.S. Baker Hughes Oil Rig Count",
    "eventTimeZone": "GMT",
    "eventPrevious": "264",
    "eventCurrency": "USD",
    "eventForecast": ""
  }}}
