"MI Inflation Gauge (MoM)";"Australia";"AUD";"2019-04-01T00:00:00";"GMT";"0.1%";"";"0.4%";"Low"
"NAB Business Confidence (Mar)";"Australia";"AUD";"2019-04-01T01:30:00";"GMT";"2";"4";"0";"Moderate"
"NAB Business Survey (Mar)";"Australia";"AUD";"2019-04-01T01:30:00";"GMT";"4";"";"7";"Low"
"HIA New Home Sales (MoM) (Oct)";"Australia";"AUD";"2019-04-01T03:30:00";"GMT";"-1.8%";"";"1.0%";"Moderate"
"Commodity Prices (YoY)";"Australia";"AUD";"2019-04-01T05:30:00";"GMT";"9.7%";"";"11.0%";"Low"
"Investing.com AUD/USD Index";"Australia";"AUD";"2019-04-01T05:30:00";"GMT";"44.6%";"";"42.7%";"Moderate"
