"CPI (MoM) (Oct)";"China";"CNY";"2001-11-01T09:00:00";"GMT";"0.90%";"";"0.30%";"Moderate"
"CPI (YoY) (Oct)";"China";"CNY";"2001-11-01T09:00:00";"GMT";"-0.10%";"";"0.20%";"Moderate"
"Exports (YoY) (Oct)";"China";"CNY";"2001-11-01T09:00:00";"GMT";"4.40%";"";"0.00%";"Moderate"
"FDI (Oct)";"China";"CNY";"2001-11-01T09:00:00";"GMT";"20.97%";"";"18.63%";"Low"
"Fixed Asset Investment (YoY) (Oct)";"China";"CNY";"2001-11-01T09:00:00";"GMT";"18.20%";"";"17.40%";"Moderate"
"Imports (YoY) (Oct)";"China";"CNY";"2001-11-01T09:00:00";"GMT";"5.50%";"";"-0.20%";"Moderate"
"Industrial Production (YoY) (Oct)";"China";"CNY";"2001-11-01T09:00:00";"GMT";"9.50%";"";"8.80%";"High"
"M2 Money Stock (YoY) (Oct)";"China";"CNY";"2001-11-01T09:00:00";"GMT";"13.60%";"";"12.90%";"Low"
"Outstanding Loan Growth (YoY) (Oct)";"China";"CNY";"2001-11-01T09:00:00";"GMT";"12.30%";"";"12.70%";"Low"
"PBoC Deposit Rate (Oct)";"China";"CNY";"2001-11-01T09:00:00";"GMT";"2.25%";"";"2.25%";"Moderate"
"PBoC Interest Rate (Oct)";"China";"CNY";"2001-11-01T09:00:00";"GMT";"5.85%";"";"5.85%";"High"
"PBoC Reserve Requirement Ratio (Oct)";"China";"CNY";"2001-11-01T09:00:00";"GMT";"6.00%";"";"6.00%";"Moderate"
"PPI (YoY) (Oct)";"China";"CNY";"2001-11-01T09:00:00";"GMT";"-2.90%";"";"-3.10%";"Moderate"
"Retail Sales (YoY) (Oct)";"China";"CNY";"2001-11-01T09:00:00";"GMT";"9.90%";"";"10.50%";"Low"
"Trade Balance (USD) (Oct)";"China";"CNY";"2001-11-01T09:00:00";"GMT";"2.14B";"";"3.88B";"Moderate"
