"GDP (MoM)";"Canada";"CAD";"2013-06-28T12:30:00";"GMT";"0.2%";"0.0%";"0.1%";"High"
"IPPI (MoM)";"Canada";"CAD";"2013-06-28T12:30:00";"GMT";"-0.9%";"0.7%";"0.0%";"Low"
"IPPI (YoY)";"Canada";"CAD";"2013-06-28T12:30:00";"GMT";"-0.1%";"";"0.0%";"Low"
"RMPI (MoM)";"Canada";"CAD";"2013-06-28T12:30:00";"GMT";"-2.4%";"1.0%";"0.2%";"Moderate"
"RMPI (YoY)";"Canada";"CAD";"2013-06-28T12:30:00";"GMT";"-2.0%";"-1.0%";"-0.8%";"Low"
"CFTC CAD speculative net positions";"Canada";"CAD";"2013-06-28T19:30:00";"GMT";"-26.1K";"";"-10.6K";"Low"
