{"events": {"event": {
    "eventDateTime": "2015-01-23T20:30:00",
    "eventActual": "-46.6K",
    "eventCountry": "Australia",
    "eventExpectedVolatility": "Moderate",
    "eventName": "CFTC AUD speculative net positions",
    "eventTimeZone": "GMT",
    "eventPrevious": "-45.4K",
    "eventCurrency": "AUD",
    "eventForecast": ""
  }}}
