{"events": {"event": [
    {
      "eventDateTime": "2009-11-05T09:30:00",
      "eventActual": "1.6%",
      "eventCountry": "United Kingdom",
      "eventExpectedVolatility": "Moderate",
      "eventName": "Industrial Production (MoM)",
      "eventTimeZone": "GMT",
      "eventPrevious": "-2.6%",
      "eventCurrency": "GBP",
      "eventForecast": "1.1%"
    },
    {
      "eventDateTime": "2009-11-05T09:30:00",
      "eventActual": "1.7%",
      "eventCountry": "United Kingdom",
      "eventExpectedVolatility": "High",
      "eventName": "Manufacturing Production (MoM)",
      "eventTimeZone": "GMT",
      "eventPrevious": "-2.0%",
      "eventCurrency": "GBP",
      "eventForecast": "1.1%"
    },
    {
      "eventDateTime": "2009-11-05T12:00:00",
      "eventActual": "0.50%",
      "eventCountry": "United Kingdom",
      "eventExpectedVolatility": "High",
      "eventName": "BoE Interest Rate Decision",
      "eventTimeZone": "GMT",
      "eventPrevious": "0.50%",
      "eventCurrency": "GBP",
      "eventForecast": "0.50%"
    },
    {
      "eventDateTime": "2009-11-05T15:00:00",
      "eventActual": "-0.4%",
      "eventCountry": "United Kingdom",
      "eventExpectedVolatility": "Moderate",
      "eventName": "NIESR GDP Estimate",
      "eventTimeZone": "GMT",
      "eventPrevious": "-0.4%",
      "eventCurrency": "GBP",
      "eventForecast": ""
    }
  ]}}
