{"events": {"event": [
    {
      "eventDateTime": "2017-09-22T12:30:00",
      "eventActual": "0.1%",
      "eventCountry": "Canada",
      "eventExpectedVolatility": "Moderate",
      "eventName": "CPI (MoM) (Aug)",
      "eventTimeZone": "GMT",
      "eventPrevious": "0.0%",
      "eventCurrency": "CAD",
      "eventForecast": "0.2%"
    },
    {
      "eventDateTime": "2017-09-22T12:30:00",
      "eventActual": "1.4%",
      "eventCountry": "Canada",
      "eventExpectedVolatility": "Low",
      "eventName": "CPI (YoY) (Aug)",
      "eventTimeZone": "GMT",
      "eventPrevious": "1.2%",
      "eventCurrency": "CAD",
      "eventForecast": "1.5%"
    },
    {
      "eventDateTime": "2017-09-22T12:30:00",
      "eventActual": "1.5%",
      "eventCountry": "Canada",
      "eventExpectedVolatility": "Low",
      "eventName": "Common CPI (YoY)",
      "eventTimeZone": "GMT",
      "eventPrevious": "1.4%",
      "eventCurrency": "CAD",
      "eventForecast": ""
    },
    {
      "eventDateTime": "2017-09-22T12:30:00",
      "eventActual": "0.0%",
      "eventCountry": "Canada",
      "eventExpectedVolatility": "High",
      "eventName": "Core CPI (MoM) (Aug)",
      "eventTimeZone": "GMT",
      "eventPrevious": "-0.1%",
      "eventCurrency": "CAD",
      "eventForecast": ""
    },
    {
      "eventDateTime": "2017-09-22T12:30:00",
      "eventActual": "0.9%",
      "eventCountry": "Canada",
      "eventExpectedVolatility": "Moderate",
      "eventName": "Core CPI (YoY) (Aug)",
      "eventTimeZone": "GMT",
      "eventPrevious": "0.9%",
      "eventCurrency": "CAD",
      "eventForecast": ""
    },
    {
      "eventDateTime": "2017-09-22T12:30:00",
      "eventActual": "0.2%",
      "eventCountry": "Canada",
      "eventExpectedVolatility": "High",
      "eventName": "Core Retail Sales (MoM) (Jul)",
      "eventTimeZone": "GMT",
      "eventPrevious": "0.4%",
      "eventCurrency": "CAD",
      "eventForecast": "0.4%"
    },
    {
      "eventDateTime": "2017-09-22T12:30:00",
      "eventActual": "1.7%",
      "eventCountry": "Canada",
      "eventExpectedVolatility": "Low",
      "eventName": "Median CPI (YoY)",
      "eventTimeZone": "GMT",
      "eventPrevious": "1.7%",
      "eventCurrency": "CAD",
      "eventForecast": ""
    },
    {
      "eventDateTime": "2017-09-22T12:30:00",
      "eventActual": "0.4%",
      "eventCountry": "Canada",
      "eventExpectedVolatility": "Moderate",
      "eventName": "Retail Sales (MoM) (Jul)",
      "eventTimeZone": "GMT",
      "eventPrevious": "0.1%",
      "eventCurrency": "CAD",
      "eventForecast": "0.1%"
    },
    {
      "eventDateTime": "2017-09-22T12:30:00",
      "eventActual": "1.4%",
      "eventCountry": "Canada",
      "eventExpectedVolatility": "Low",
      "eventName": "Trimmed CPI (YoY)",
      "eventTimeZone": "GMT",
      "eventPrevious": "1.3%",
      "eventCurrency": "CAD",
      "eventForecast": ""
    },
    {
      "eventDateTime": "2017-09-22T19:30:00",
      "eventActual": "58.8K",
      "eventCountry": "Canada",
      "eventExpectedVolatility": "Low",
      "eventName": "CFTC CAD speculative net positions",
      "eventTimeZone": "GMT",
      "eventPrevious": "50.5K",
      "eventCurrency": "CAD",
      "eventForecast": ""
    }
  ]}}
