"5-Year Note Auction (Apr)";"United States";"USD";"2008-05-01T09:00:00";"GMT";"2.50%";"";"3.13%";"Low"
"All Car Sales (Apr)";"United States";"USD";"2008-05-01T09:00:00";"GMT";"7.28M";"";"7.33M";"Low"
"All Truck Sales (Apr)";"United States";"USD";"2008-05-01T09:00:00";"GMT";"7.51M";"";"6.94M";"Low"
"Average Weekly Hours (Apr)";"United States";"USD";"2008-05-01T09:00:00";"GMT";"34.60";"";"34.50";"Low"
"CB Employment Trends Index (Apr)";"United States";"USD";"2008-05-01T09:00:00";"GMT";"120.70";"";"119.80";"Low"
"CPI (YoY) (Apr)";"United States";"USD";"2008-05-01T09:00:00";"GMT";"4.00%";"";"3.90%";"Low"
"CPI Index, n.s.a. (Apr)";"United States";"USD";"2008-05-01T09:00:00";"GMT";"213.53";"";"214.82";"Low"
"Chain Store Sales (MoM) (Apr)";"United States";"USD";"2008-05-01T09:00:00";"GMT";"-0.50%";"";"3.50%";"Low"
"Chain Store Sales (WoW) (Apr)";"United States";"USD";"2008-05-01T09:00:00";"GMT";"0.06%";"";"0.35%";"Low"
"Chain Store Sales (YoY) (Apr)";"United States";"USD";"2008-05-01T09:00:00";"GMT";"1.13%";"";"1.53%";"Low"
"Challenger Job Cuts (Apr)";"United States";"USD";"2008-05-01T09:00:00";"GMT";"53.58K";"";"90.02K";"Low"
"Chicago Fed National Activity (Apr)";"United States";"USD";"2008-05-01T09:00:00";"GMT";"-1.28";"";"-1.11";"Low"
"Cleveland CPI (MoM) (Apr)";"United States";"USD";"2008-05-01T09:00:00";"GMT";"0.20%";"";"0.20%";"Low"
"Continuing Jobless Claims (Apr)";"United States";"USD";"2008-05-01T09:00:00";"GMT";"2,926.38K";"";"2,967.73K";"Low"
"Core CPI (YoY) (Apr)";"United States";"USD";"2008-05-01T09:00:00";"GMT";"2.40%";"";"2.30%";"Moderate"
"Core CPI Index (Apr)";"United States";"USD";"2008-05-01T09:00:00";"GMT";"214.42";"";"214.56";"Low"
"Core PCE Price Index (YoY) (Apr)";"United States";"USD";"2008-05-01T09:00:00";"GMT";"2.20%";"";"2.20%";"Moderate"
"Dallas Fed Mfg Business Index (Apr)";"United States";"USD";"2008-05-01T09:00:00";"GMT";"-30.10";"";"-31.10";"Low"
"Dallas Fed PCE (Apr)";"United States";"USD";"2008-05-01T09:00:00";"GMT";"2.90%";"";"2.30%";"Low"
"Dallas Fed Services Revenues (Apr)";"United States";"USD";"2008-05-01T09:00:00";"GMT";"1.90";"";"9.80";"Low"
"Domestic Truck Sales (Apr)";"United States";"USD";"2008-05-01T09:00:00";"GMT";"6.25M";"";"5.70M";"Low"
"Durables Excluding Defense (MoM) (Apr)";"United States";"USD";"2008-05-01T09:00:00";"GMT";"-1.30%";"";"0.20%";"Low"
"EIA Weekly Distillates Stocks (Apr)";"United States";"USD";"2008-05-01T09:00:00";"GMT";"-2.06M";"";"-0.73M";"Low"
"Existing Home Sales (MoM) (Apr)";"United States";"USD";"2008-05-01T09:00:00";"GMT";"1.00%";"";"-1.20%";"Moderate"
"Export Price Index (MoM) (Apr)";"United States";"USD";"2008-05-01T09:00:00";"GMT";"1.60%";"";"0.50%";"Moderate"
"Factory orders ex transportation (MoM) (Apr)";"United States";"USD";"2008-05-01T09:00:00";"GMT";"1.20%";"";"3.10%";"Low"
"Federal Budget Balance (Apr)";"United States";"USD";"2008-05-01T09:00:00";"GMT";"-48.20B";"";"159.30B";"Moderate"
"Gasoline Inventories (Apr)";"United States";"USD";"2008-05-01T09:00:00";"GMT";"-2.44M";"";"-2.83M";"Low"
"Government Payrolls (Apr)";"United States";"USD";"2008-05-01T09:00:00";"GMT";"26.00K";"";"7.00K";"Low"
"House Price Index (Apr)";"United States";"USD";"2008-05-01T09:00:00";"GMT";"213.00";"";"210.70";"Low"
"House Price Index (MoM) (Apr)";"United States";"USD";"2008-05-01T09:00:00";"GMT";"-0.90%";"";"-1.10%";"Low"
"House Price Index (YoY) (Apr)";"United States";"USD";"2008-05-01T09:00:00";"GMT";"-6.20%";"";"-7.20%";"Low"
"Housing Starts (MoM) (Apr)";"United States";"USD";"2008-05-01T09:00:00";"GMT";"-8.90%";"";"0.80%";"Moderate"
"ISM Manufacturing Employment (Apr)";"United States";"USD";"2008-05-01T09:00:00";"GMT";"48.20";"";"46.60";"Moderate"
"ISM Manufacturing New Orders Index (Apr)";"United States";"USD";"2008-05-01T09:00:00";"GMT";"45.60";"";"46.50";"Low"
"ISM Non-Manufacturing Business Activity (Apr)";"United States";"USD";"2008-05-01T09:00:00";"GMT";"51.70";"";"51.10";"Low"
"ISM Non-Manufacturing Employment (Apr)";"United States";"USD";"2008-05-01T09:00:00";"GMT";"47.40";"";"49.70";"Moderate"
"ISM Non-Manufacturing New Orders (Apr)";"United States";"USD";"2008-05-01T09:00:00";"GMT";"49.30";"";"50.30";"Low"
"ISM Non-Manufacturing Prices (Apr)";"United States";"USD";"2008-05-01T09:00:00";"GMT";"69.80";"";"70.80";"Low"
"ISM-New York Index (Apr)";"United States";"USD";"2008-05-01T09:00:00";"GMT";"422.90";"";"420.70";"Low"
"JOLTs Job Openings (Apr)";"United States";"USD";"2008-05-01T09:00:00";"GMT";"4.01M";"";"3.85M";"High"
"Jobless Claims 4-Week Avg. (Apr)";"United States";"USD";"2008-05-01T09:00:00";"GMT";"357.12K";"";"364.88K";"Low"
"KC Fed Composite Index (Apr)";"United States";"USD";"2008-05-01T09:00:00";"GMT";"-2.00";"";"1.00";"Low"
"KC Fed Manufacturing Index (Apr)";"United States";"USD";"2008-05-01T09:00:00";"GMT";"-3.00";"";"-2.00";"Low"
"MBA 30-Year Mortgage Rate (Apr)";"United States";"USD";"2008-05-01T09:00:00";"GMT";"5.95%";"";"5.90%";"Low"
"MBA Purchase Index (Apr)";"United States";"USD";"2008-05-01T09:00:00";"GMT";"373.91";"";"367.17";"Low"
"Manufacturing Payrolls (Apr)";"United States";"USD";"2008-05-01T09:00:00";"GMT";"-37.00K";"";"-60.00K";"Low"
"Manufacturing Production (MoM) (Apr)";"United States";"USD";"2008-05-01T09:00:00";"GMT";"-0.30%";"";"-1.10%";"Low"
"Michigan 5-Year Inflation Expectations (Apr)";"United States";"USD";"2008-05-01T09:00:00";"GMT";"2.90%";"";"3.20%";"Low"
"Michigan Consumer Expectations (Apr)";"United States";"USD";"2008-05-01T09:00:00";"GMT";"60.10";"";"53.40";"Moderate"
"Michigan Current Conditions (Apr)";"United States";"USD";"2008-05-01T09:00:00";"GMT";"84.60";"";"77.00";"Low"
"Michigan Inflation Expectations (Apr)";"United States";"USD";"2008-05-01T09:00:00";"GMT";"4.30%";"";"4.80%";"Low"
"Midwest Manufacturing (Apr)";"United States";"USD";"2008-05-01T09:00:00";"GMT";"99.80";"";"97.90";"Low"
"Mortgage Market Index (Apr)";"United States";"USD";"2008-05-01T09:00:00";"GMT";"743.58";"";"664.03";"Low"
"Mortgage Refinance Index (Apr)";"United States";"USD";"2008-05-01T09:00:00";"GMT";"2,909.41";"";"2,409.44";"Low"
"NFIB Small Business Optimism (Apr)";"United States";"USD";"2008-05-01T09:00:00";"GMT";"89.60";"";"91.50";"Low"
"Natural Gas Storage (Apr)";"United States";"USD";"2008-05-01T09:00:00";"GMT";"-56.86B";"";"37.45B";"Low"
"New Home Sales (MoM) (Apr)";"United States";"USD";"2008-05-01T09:00:00";"GMT";"-9.80%";"";"0.20%";"Moderate"
"Overall Net Capital Flow (Apr)";"United States";"USD";"2008-05-01T09:00:00";"GMT";"-52.20B";"";"70.60B";"Low"
"Pending Home Sales Index (Apr)";"United States";"USD";"2008-05-01T09:00:00";"GMT";"82.80";"";"88.40";"Low"
"Philly Fed Business Conditions (Apr)";"United States";"USD";"2008-05-01T09:00:00";"GMT";"5.00";"";"10.50";"Low"
"Philly Fed CAPEX Index (Apr)";"United States";"USD";"2008-05-01T09:00:00";"GMT";"3.70";"";"14.50";"Low"
"Philly Fed Employment (Apr)";"United States";"USD";"2008-05-01T09:00:00";"GMT";"-0.50";"";"-4.50";"Moderate"
"Philly Fed New Orders (Apr)";"United States";"USD";"2008-05-01T09:00:00";"GMT";"-6.60";"";"-15.50";"Low"
"Philly Fed Prices Paid (Apr)";"United States";"USD";"2008-05-01T09:00:00";"GMT";"52.10";"";"50.10";"Low"
"Private Nonfarm Payrolls (Apr)";"United States";"USD";"2008-05-01T09:00:00";"GMT";"-105.00K";"";"-220.00K";"Moderate"
"Real Earnings (MoM) (Apr)";"United States";"USD";"2008-05-01T09:00:00";"GMT";"0.40%";"";"-0.50%";"Low"
"Real Personal Consumption (MoM) (Apr)";"United States";"USD";"2008-05-01T09:00:00";"GMT";"0.20%";"";"0.20%";"Low"
"Redbook (MoM) (Apr)";"United States";"USD";"2008-05-01T09:00:00";"GMT";"1.70%";"";"-0.84%";"Low"
"Redbook (YoY) (Apr)";"United States";"USD";"2008-05-01T09:00:00";"GMT";"1.11%";"";"1.47%";"Low"
"Retail Control (MoM) (Apr)";"United States";"USD";"2008-05-01T09:00:00";"GMT";"0.30%";"";"1.20%";"Low"
"Retail Sales Ex Gas/Autos (MoM) (Apr)";"United States";"USD";"2008-05-01T09:00:00";"GMT";"0.20%";"";"1.10%";"Low"
"Richmond Manufacturing Shipments (Apr)";"United States";"USD";"2008-05-01T09:00:00";"GMT";"-6.00";"";"-12.00";"Low"
"Richmond Services Index (Apr)";"United States";"USD";"2008-05-01T09:00:00";"GMT";"-6.00";"";"-6.00";"Low"
"Sandamp;P/CS HPI Composite - 20 n.s.a. (MoM) (Apr)";"United States";"USD";"2008-05-01T09:00:00";"GMT";"-2.10%";"";"-1.30%";"Low"
"Sandamp;P/CS HPI Composite - 20 s.a. (MoM) (Apr)";"United States";"USD";"2008-05-01T09:00:00";"GMT";"-1.70%";"";"-1.80%";"Low"
"TIC Net Long-Term Transactions including Swaps (Apr)";"United States";"USD";"2008-05-01T09:00:00";"GMT";"49.50B";"";"88.40B";"Low"
"Texas Services Sector Outlook (Apr)";"United States";"USD";"2008-05-01T09:00:00";"GMT";"-29.20";"";"-21.80";"Low"
"US Foreign Buying, T-bonds (Apr)";"United States";"USD";"2008-05-01T09:00:00";"GMT";"51.00B";"";"76.60B";"Low"
"Core PCE Price Index (MoM)";"United States";"USD";"2008-05-01T12:30:00";"GMT";"0.1%";"0.1%";"0.2%";"Moderate"
"Initial Jobless Claims";"United States";"USD";"2008-05-01T12:30:00";"GMT";"342K";"363K";"380K";"Moderate"
"Personal Income (MoM)";"United States";"USD";"2008-05-01T12:30:00";"GMT";"0.5%";"0.4%";"0.3%";"Low"
"Personal Spending (MoM)";"United States";"USD";"2008-05-01T12:30:00";"GMT";"0.1%";"0.2%";"0.4%";"Moderate"
"U6 Unemployment Rate (Apr)";"United States";"USD";"2008-05-01T12:30:00";"GMT";"9.10%";"";"9.20%";"Low"
"Unemployment Rate (Apr)";"United States";"USD";"2008-05-01T12:30:00";"GMT";"5.1%";"";"5%";"High"
"Construction Spending (MoM)";"United States";"USD";"2008-05-01T14:00:00";"GMT";"-0.3%";"-0.8%";"-1.1%";"Low"
"ISM Manufacturing PMI";"United States";"USD";"2008-05-01T14:00:00";"GMT";"48.6";"48.0";"48.6";"High"
"ISM Manufacturing Prices";"United States";"USD";"2008-05-01T14:00:00";"GMT";"83.5";"83.5";"84.5";"Low"
"Total Vehicle Sales";"United States";"USD";"2008-05-01T18:00:00";"GMT";"11.10M";"11.40M";"0.00M";"Low"
