"10-Year Note Auction (Feb)";"United States";"USD";"2004-03-01T09:00:00";"GMT";"4.25%";"";"4.00%";"Moderate"
"5-Year Note Auction (Feb)";"United States";"USD";"2004-03-01T09:00:00";"GMT";"3.25%";"";"3.00%";"Low"
"All Car Sales (Feb)";"United States";"USD";"2004-03-01T09:00:00";"GMT";"7.05M";"";"7.57M";"Low"
"All Truck Sales (Feb)";"United States";"USD";"2004-03-01T09:00:00";"GMT";"9.26M";"";"9.06M";"Low"
"Business Inventories (MoM) (Feb)";"United States";"USD";"2004-03-01T09:00:00";"GMT";"0.10%";"";"0.90%";"Moderate"
"CB Consumer Confidence (Feb)";"United States";"USD";"2004-03-01T09:00:00";"GMT";"97.70";"";"88.50";"High"
"CB Employment Trends Index (Feb)";"United States";"USD";"2004-03-01T09:00:00";"GMT";"113.50";"";"114.50";"Low"
"CPI (MoM) (Feb)";"United States";"USD";"2004-03-01T09:00:00";"GMT";"0.40%";"";"0.20%";"Moderate"
"CPI (YoY) (Feb)";"United States";"USD";"2004-03-01T09:00:00";"GMT";"1.90%";"";"1.70%";"Low"
"CPI Index, n.s.a. (Feb)";"United States";"USD";"2004-03-01T09:00:00";"GMT";"185.20";"";"186.20";"Low"
"Capacity Utilization Rate (Feb)";"United States";"USD";"2004-03-01T09:00:00";"GMT";"77.00%";"";"77.40%";"Low"
"Chain Store Sales (MoM) (Feb)";"United States";"USD";"2004-03-01T09:00:00";"GMT";"6.00%";"";"6.70%";"Low"
"Chain Store Sales (WoW) (Feb)";"United States";"USD";"2004-03-01T09:00:00";"GMT";"-0.30%";"";"0.75%";"Low"
"Chain Store Sales (YoY) (Feb)";"United States";"USD";"2004-03-01T09:00:00";"GMT";"4.42%";"";"7.35%";"Low"
"Challenger Job Cuts (Feb)";"United States";"USD";"2004-03-01T09:00:00";"GMT";"117.56K";"";"77.25K";"Low"
"Chicago Fed National Activity (Feb)";"United States";"USD";"2004-03-01T09:00:00";"GMT";"0.12";"";"0.43";"Low"
"Chicago PMI (Feb)";"United States";"USD";"2004-03-01T09:00:00";"GMT";"64.70";"";"62.30";"Moderate"
"Cleveland CPI (MoM) (Feb)";"United States";"USD";"2004-03-01T09:00:00";"GMT";"0.20%";"";"0.20%";"Low"
"Construction Spending (MoM) (Feb)";"United States";"USD";"2004-03-01T09:00:00";"GMT";"-1.00%";"";"0.00%";"Low"
"Consumer Credit (Feb)";"United States";"USD";"2004-03-01T09:00:00";"GMT";"10.88B";"";"7.10B";"Low"
"Continuing Jobless Claims (Feb)";"United States";"USD";"2004-03-01T09:00:00";"GMT";"3,142.77K";"";"3,114.75K";"Low"
"Core CPI (MoM) (Feb)";"United States";"USD";"2004-03-01T09:00:00";"GMT";"0.20%";"";"0.20%";"High"
"Core CPI (YoY) (Feb)";"United States";"USD";"2004-03-01T09:00:00";"GMT";"1.10%";"";"1.20%";"Moderate"
"Core CPI Index (Feb)";"United States";"USD";"2004-03-01T09:00:00";"GMT";"194.60";"";"194.90";"Low"
"Core PCE Price Index (MoM) (Feb)";"United States";"USD";"2004-03-01T09:00:00";"GMT";"0.20%";"";"0.20%";"Moderate"
"Core PCE Price Index (YoY) (Feb)";"United States";"USD";"2004-03-01T09:00:00";"GMT";"1.60%";"";"1.70%";"Moderate"
"Core Retail Sales (MoM) (Feb)";"United States";"USD";"2004-03-01T09:00:00";"GMT";"1.10%";"";"0.20%";"High"
"Crude Oil Inventories (Feb)";"United States";"USD";"2004-03-01T09:00:00";"GMT";"0.44M";"";"1.05M";"High"
"Dallas Fed PCE (Feb)";"United States";"USD";"2004-03-01T09:00:00";"GMT";"2.60%";"";"2.60%";"Low"
"Domestic Truck Sales (Feb)";"United States";"USD";"2004-03-01T09:00:00";"GMT";"8.05M";"";"7.85M";"Low"
"Durables Excluding Defense (MoM) (Feb)";"United States";"USD";"2004-03-01T09:00:00";"GMT";"-1.10%";"";"1.90%";"Low"
"EIA Weekly Distillates Stocks (Feb)";"United States";"USD";"2004-03-01T09:00:00";"GMT";"-2.00M";"";"-3.21M";"Low"
"Existing Home Sales (Feb)";"United States";"USD";"2004-03-01T09:00:00";"GMT";"6.23M";"";"6.41M";"High"
"Existing Home Sales (MoM) (Feb)";"United States";"USD";"2004-03-01T09:00:00";"GMT";"-4.00%";"";"2.90%";"Moderate"
"Export Price Index (MoM) (Feb)";"United States";"USD";"2004-03-01T09:00:00";"GMT";"0.70%";"";"0.70%";"Moderate"
"Factory Orders (MoM) (Feb)";"United States";"USD";"2004-03-01T09:00:00";"GMT";"-0.80%";"";"0.50%";"Moderate"
"Factory orders ex transportation (MoM) (Feb)";"United States";"USD";"2004-03-01T09:00:00";"GMT";"-0.10%";"";"-0.30%";"Low"
"Federal Budget Balance (Feb)";"United States";"USD";"2004-03-01T09:00:00";"GMT";"-1.60B";"";"-96.70B";"Moderate"
"Gasoline Inventories (Feb)";"United States";"USD";"2004-03-01T09:00:00";"GMT";"0.08M";"";"-0.89M";"Low"
"Government Payrolls (Feb)";"United States";"USD";"2004-03-01T09:00:00";"GMT";"-8.00K";"";"12.00K";"Low"
"House Price Index (Feb)";"United States";"USD";"2004-03-01T09:00:00";"GMT";"182.40";"";"183.80";"Low"
"House Price Index (MoM) (Feb)";"United States";"USD";"2004-03-01T09:00:00";"GMT";"0.70%";"";"0.80%";"Low"
"House Price Index (YoY) (Feb)";"United States";"USD";"2004-03-01T09:00:00";"GMT";"8.10%";"";"8.30%";"Low"
"Housing Starts (Feb)";"United States";"USD";"2004-03-01T09:00:00";"GMT";"1.91M";"";"1.85M";"Moderate"
"Housing Starts (MoM) (Feb)";"United States";"USD";"2004-03-01T09:00:00";"GMT";"-7.10%";"";"-3.40%";"Moderate"
"ISM Manufacturing Employment (Feb)";"United States";"USD";"2004-03-01T09:00:00";"GMT";"54.70";"";"55.70";"Moderate"
"ISM Manufacturing New Orders Index (Feb)";"United States";"USD";"2004-03-01T09:00:00";"GMT";"70.60";"";"66.50";"Low"
"ISM Manufacturing PMI (Feb)";"United States";"USD";"2004-03-01T09:00:00";"GMT";"60.80";"";"59.90";"High"
"ISM Manufacturing Prices (Feb)";"United States";"USD";"2004-03-01T09:00:00";"GMT";"75.50";"";"81.50";"Low"
"ISM Non-Manufacturing Business Activity (Feb)";"United States";"USD";"2004-03-01T09:00:00";"GMT";"67.70";"";"62.50";"Low"
"ISM Non-Manufacturing Employment (Feb)";"United States";"USD";"2004-03-01T09:00:00";"GMT";"55.10";"";"52.90";"Moderate"
"ISM Non-Manufacturing New Orders (Feb)";"United States";"USD";"2004-03-01T09:00:00";"GMT";"65.40";"";"61.20";"Low"
"ISM Non-Manufacturing PMI (Feb)";"United States";"USD";"2004-03-01T09:00:00";"GMT";"61.20";"";"58.00";"High"
"ISM Non-Manufacturing Prices (Feb)";"United States";"USD";"2004-03-01T09:00:00";"GMT";"62.20";"";"59.50";"Low"
"ISM-New York Index (Feb)";"United States";"USD";"2004-03-01T09:00:00";"GMT";"242.00";"";"248.60";"Low"
"Import Price Index (MoM) (Feb)";"United States";"USD";"2004-03-01T09:00:00";"GMT";"1.50%";"";"0.40%";"Moderate"
"Industrial Production (MoM) (Feb)";"United States";"USD";"2004-03-01T09:00:00";"GMT";"0.30%";"";"0.50%";"Moderate"
"Initial Jobless Claims (Feb)";"United States";"USD";"2004-03-01T09:00:00";"GMT";"360.77K";"";"360.75K";"Moderate"
"JOLTs Job Openings (Feb)";"United States";"USD";"2004-03-01T09:00:00";"GMT";"3.39M";"";"3.44M";"High"
"Jobless Claims 4-Week Avg. (Feb)";"United States";"USD";"2004-03-01T09:00:00";"GMT";"356.41K";"";"365.63K";"Low"
"KC Fed Composite Index (Feb)";"United States";"USD";"2004-03-01T09:00:00";"GMT";"12.00";"";"10.00";"Low"
"KC Fed Manufacturing Index (Feb)";"United States";"USD";"2004-03-01T09:00:00";"GMT";"16.00";"";"16.00";"Low"
"MBA 30-Year Mortgage Rate (Feb)";"United States";"USD";"2004-03-01T09:00:00";"GMT";"5.60%";"";"5.51%";"Low"
"MBA Purchase Index (Feb)";"United States";"USD";"2004-03-01T09:00:00";"GMT";"455.37";"";"415.55";"Low"
"Manufacturing Payrolls (Feb)";"United States";"USD";"2004-03-01T09:00:00";"GMT";"-10.00K";"";"-11.00K";"Low"
"Manufacturing Production (MoM) (Feb)";"United States";"USD";"2004-03-01T09:00:00";"GMT";"0.00%";"";"0.60%";"Low"
"Michigan 5-Year Inflation Expectations (Feb)";"United States";"USD";"2004-03-01T09:00:00";"GMT";"2.80%";"";"2.90%";"Low"
"Michigan Consumer Expectations (Feb)";"United States";"USD";"2004-03-01T09:00:00";"GMT";"100.10";"";"88.40";"Moderate"
"Michigan Consumer Sentiment (Feb)";"United States";"USD";"2004-03-01T09:00:00";"GMT";"103.20";"";"94.40";"Moderate"
"Michigan Current Conditions (Feb)";"United States";"USD";"2004-03-01T09:00:00";"GMT";"108.90";"";"103.60";"Low"
"Michigan Inflation Expectations (Feb)";"United States";"USD";"2004-03-01T09:00:00";"GMT";"2.70%";"";"2.60%";"Low"
"Midwest Manufacturing (Feb)";"United States";"USD";"2004-03-01T09:00:00";"GMT";"97.70";"";"98.80";"Low"
"Mortgage Market Index (Feb)";"United States";"USD";"2004-03-01T09:00:00";"GMT";"814.38";"";"842.03";"Low"
"Mortgage Refinance Index (Feb)";"United States";"USD";"2004-03-01T09:00:00";"GMT";"2,902.83";"";"3,322.88";"Low"
"NAHB Housing Market Index (Feb)";"United States";"USD";"2004-03-01T09:00:00";"GMT";"68.00";"";"66.00";"Low"
"NFIB Small Business Optimism (Feb)";"United States";"USD";"2004-03-01T09:00:00";"GMT";"105.80";"";"102.60";"Low"
"NY Empire State Manufacturing Index (Feb)";"United States";"USD";"2004-03-01T09:00:00";"GMT";"32.47";"";"36.98";"Moderate"
"Natural Gas Storage (Feb)";"United States";"USD";"2004-03-01T09:00:00";"GMT";"-172.91B";"";"-164.00B";"Low"
"New Home Sales (Feb)";"United States";"USD";"2004-03-01T09:00:00";"GMT";"1,165.00K";"";"1,159.00K";"High"
"New Home Sales (MoM) (Feb)";"United States";"USD";"2004-03-01T09:00:00";"GMT";"3.20%";"";"-0.50%";"Moderate"
"Overall Net Capital Flow (Feb)";"United States";"USD";"2004-03-01T09:00:00";"GMT";"130.10B";"";"23.90B";"Low"
"Pending Home Sales (MoM) (Feb)";"United States";"USD";"2004-03-01T09:00:00";"GMT";"2.00%";"";"2.70%";"High"
"Pending Home Sales Index (Feb)";"United States";"USD";"2004-03-01T09:00:00";"GMT";"111.10";"";"114.10";"Low"
"Personal Income (MoM) (Feb)";"United States";"USD";"2004-03-01T09:00:00";"GMT";"0.30%";"";"0.40%";"Low"
"Personal Spending (MoM) (Feb)";"United States";"USD";"2004-03-01T09:00:00";"GMT";"0.80%";"";"0.40%";"Moderate"
"Philadelphia Fed Manufacturing Index (Feb)";"United States";"USD";"2004-03-01T09:00:00";"GMT";"36.60";"";"28.10";"High"
"Philly Fed Business Conditions (Feb)";"United States";"USD";"2004-03-01T09:00:00";"GMT";"56.10";"";"52.40";"Low"
"Philly Fed CAPEX Index (Feb)";"United States";"USD";"2004-03-01T09:00:00";"GMT";"23.70";"";"22.10";"Low"
"Philly Fed Employment (Feb)";"United States";"USD";"2004-03-01T09:00:00";"GMT";"15.90";"";"12.50";"Moderate"
"Philly Fed New Orders (Feb)";"United States";"USD";"2004-03-01T09:00:00";"GMT";"33.00";"";"27.20";"Low"
"Philly Fed Prices Paid (Feb)";"United States";"USD";"2004-03-01T09:00:00";"GMT";"33.20";"";"45.00";"Low"
"Private Nonfarm Payrolls (Feb)";"United States";"USD";"2004-03-01T09:00:00";"GMT";"168.00K";"";"34.00K";"Moderate"
"Real Personal Consumption (MoM) (Feb)";"United States";"USD";"2004-03-01T09:00:00";"GMT";"0.40%";"";"0.20%";"Low"
"Retail Control (MoM) (Feb)";"United States";"USD";"2004-03-01T09:00:00";"GMT";"0.80%";"";"-0.10%";"Low"
"Retail Sales (MoM) (Feb)";"United States";"USD";"2004-03-01T09:00:00";"GMT";"0.60%";"";"0.70%";"High"
"Retail Sales Ex Gas/Autos (MoM) (Feb)";"United States";"USD";"2004-03-01T09:00:00";"GMT";"0.80%";"";"0.00%";"Low"
"Richmond Manufacturing Index (Feb)";"United States";"USD";"2004-03-01T09:00:00";"GMT";"10.00";"";"12.00";"Low"
"Richmond Manufacturing Shipments (Feb)";"United States";"USD";"2004-03-01T09:00:00";"GMT";"21.00";"";"14.00";"Low"
"Richmond Services Index (Feb)";"United States";"USD";"2004-03-01T09:00:00";"GMT";"12.00";"";"11.00";"Low"
"Sandamp;P/CS HPI Composite - 20 n.s.a. (MoM) (Feb)";"United States";"USD";"2004-03-01T09:00:00";"GMT";"0.80%";"";"0.90%";"Low"
"Sandamp;P/CS HPI Composite - 20 n.s.a. (YoY) (Feb)";"United States";"USD";"2004-03-01T09:00:00";"GMT";"11.80%";"";"12.40%";"Moderate"
"Sandamp;P/CS HPI Composite - 20 s.a. (MoM) (Feb)";"United States";"USD";"2004-03-01T09:00:00";"GMT";"1.20%";"";"1.30%";"Low"
"TIC Net Long-Term Transactions (Feb)";"United States";"USD";"2004-03-01T09:00:00";"GMT";"80.50B";"";"54.40B";"Moderate"
"TIC Net Long-Term Transactions including Swaps (Feb)";"United States";"USD";"2004-03-01T09:00:00";"GMT";"72.80B";"";"51.80B";"Low"
"Trade Balance (Feb)";"United States";"USD";"2004-03-01T09:00:00";"GMT";"-44.40B";"";"-44.30B";"Moderate"
"US Foreign Buying, T-bonds (Feb)";"United States";"USD";"2004-03-01T09:00:00";"GMT";"46.00B";"";"26.20B";"Low"
"Wholesale Inventories (MoM) (Feb)";"United States";"USD";"2004-03-01T09:00:00";"GMT";"0.10%";"";"1.30%";"Low"
"ADP Nonfarm Employment Change (Feb)";"United States";"USD";"2004-03-01T12:15:00";"GMT";"111K";"";"140K";"High"
"U6 Unemployment Rate (Feb)";"United States";"USD";"2004-03-01T12:30:00";"GMT";"9.90%";"";"9.70%";"Low"
"Unemployment Rate (Feb)";"United States";"USD";"2004-03-01T12:30:00";"GMT";"5.7%";"";"5.6%";"High"
