"Manufacturing PMI";"United Kingdom";"GBP";"2012-06-01T08:30:00";"GMT";"50.2";"49.7";"45.9";"High"
"Average Earnings ex Bonus (May)";"United Kingdom";"GBP";"2012-06-01T09:00:00";"GMT";"1.80%";"";"1.80%";"Low"
"Core PPI Output (MoM) (May)";"United Kingdom";"GBP";"2012-06-01T09:00:00";"GMT";"0.20%";"";"0.00%";"Low"
"Core PPI Output (YoY) (May)";"United Kingdom";"GBP";"2012-06-01T09:00:00";"GMT";"1.40%";"";"1.30%";"Low"
"Core RPI (MoM) (May)";"United Kingdom";"GBP";"2012-06-01T09:00:00";"GMT";"0.70%";"";"0.00%";"Low"
"Core RPI (YoY) (May)";"United Kingdom";"GBP";"2012-06-01T09:00:00";"GMT";"3.50%";"";"3.10%";"Low"
"Core Retail Sales (MoM) (May)";"United Kingdom";"GBP";"2012-06-01T09:00:00";"GMT";"-1.20%";"";"0.90%";"Moderate"
"Core Retail Sales (YoY) (May)";"United Kingdom";"GBP";"2012-06-01T09:00:00";"GMT";"-1.50%";"";"1.70%";"Moderate"
"Halifax House Price Index (YoY) (May)";"United Kingdom";"GBP";"2012-06-01T09:00:00";"GMT";"-0.50%";"";"-0.10%";"Moderate"
"Manufacturing Production (YoY) (May)";"United Kingdom";"GBP";"2012-06-01T09:00:00";"GMT";"-1.30%";"";"-1.10%";"Low"
"Nationwide HPI (YoY) (May)";"United Kingdom";"GBP";"2012-06-01T09:00:00";"GMT";"-0.90%";"";"-0.70%";"Moderate"
"Public Sector Net Cash Requirement (May)";"United Kingdom";"GBP";"2012-06-01T09:00:00";"GMT";"-26.74B";"";"-7.19B";"Low"
"RPI (MoM) (May)";"United Kingdom";"GBP";"2012-06-01T09:00:00";"GMT";"0.70%";"";"0.00%";"Low"
"Trade Balance Non-EU (May)";"United Kingdom";"GBP";"2012-06-01T09:00:00";"GMT";"-4.88B";"";"-3.06B";"Moderate"
"CFTC GBP speculative net positions";"United Kingdom";"GBP";"2012-06-01T19:30:00";"GMT";"11.3K";"";"1.5K";"Moderate"
