{"events": {"event": [
    {
      "eventDateTime": "2013-11-27T09:30:00",
      "eventActual": "1.4%",
      "eventCountry": "United Kingdom",
      "eventExpectedVolatility": "Moderate",
      "eventName": "Business Investment (QoQ)",
      "eventTimeZone": "GMT",
      "eventPrevious": "-2.7%",
      "eventCurrency": "GBP",
      "eventForecast": "2.3%"
    },
    {
      "eventDateTime": "2013-11-27T09:30:00",
      "eventActual": "0.8%",
      "eventCountry": "United Kingdom",
      "eventExpectedVolatility": "High",
      "eventName": "GDP (QoQ)",
      "eventTimeZone": "GMT",
      "eventPrevious": "0.8%",
      "eventCurrency": "GBP",
      "eventForecast": "0.8%"
    },
    {
      "eventDateTime": "2013-11-27T09:30:00",
      "eventActual": "1.5%",
      "eventCountry": "United Kingdom",
      "eventExpectedVolatility": "High",
      "eventName": "GDP (YoY)",
      "eventTimeZone": "GMT",
      "eventPrevious": "1.5%",
      "eventCurrency": "GBP",
      "eventForecast": "1.5%"
    },
    {
      "eventDateTime": "2013-11-27T09:30:00",
      "eventActual": "0.7%",
      "eventCountry": "United Kingdom",
      "eventExpectedVolatility": "Low",
      "eventName": "Index of Services",
      "eventTimeZone": "GMT",
      "eventPrevious": "0.6%",
      "eventCurrency": "GBP",
      "eventForecast": "0.4%"
    },
    {
      "eventDateTime": "2013-11-27T11:00:00",
      "eventActual": "1",
      "eventCountry": "United Kingdom",
      "eventExpectedVolatility": "Low",
      "eventName": "CBI Distributive Trades Survey",
      "eventTimeZone": "GMT",
      "eventPrevious": "2",
      "eventCurrency": "GBP",
      "eventForecast": "8"
    }
  ]}}
