{"events": {"event": [
    {
      "eventDateTime": "2017-03-24T00:30:00",
      "eventActual": "52.6",
      "eventCountry": "Japan",
      "eventExpectedVolatility": "Low",
      "eventName": "Manufacturing PMI (Mar)",
      "eventTimeZone": "GMT",
      "eventPrevious": "53.3",
      "eventCurrency": "JPY",
      "eventForecast": "53.5"
    },
    {
      "eventDateTime": "2017-03-24T05:00:00",
      "eventActual": "104.9",
      "eventCountry": "Japan",
      "eventExpectedVolatility": "Low",
      "eventName": "Leading Index",
      "eventTimeZone": "GMT",
      "eventPrevious": "105.5",
      "eventCurrency": "JPY",
      "eventForecast": "105.5"
    },
    {
      "eventDateTime": "2017-03-24T20:30:00",
      "eventActual": "-67.0K",
      "eventCountry": "Japan",
      "eventExpectedVolatility": "Moderate",
      "eventName": "CFTC JPY speculative net positions",
      "eventTimeZone": "GMT",
      "eventPrevious": "-71.3K",
      "eventCurrency": "JPY",
      "eventForecast": ""
    }
  ]}}
