{"events": {"event": [
    {
      "eventDateTime": "2009-08-04T01:30:00",
      "eventActual": "4.20%",
      "eventCountry": "Australia",
      "eventExpectedVolatility": "Moderate",
      "eventName": "House Price Index (QoQ)",
      "eventTimeZone": "GMT",
      "eventPrevious": "-1.50%",
      "eventCurrency": "AUD",
      "eventForecast": "0.10%"
    },
    {
      "eventDateTime": "2009-08-04T01:30:00",
      "eventActual": "-1.4%",
      "eventCountry": "Australia",
      "eventExpectedVolatility": "High",
      "eventName": "Retail Sales (MoM)",
      "eventTimeZone": "GMT",
      "eventPrevious": "1.0%",
      "eventCurrency": "AUD",
      "eventForecast": "0.5%"
    },
    {
      "eventDateTime": "2009-08-04T04:30:00",
      "eventActual": "3.00%",
      "eventCountry": "Australia",
      "eventExpectedVolatility": "High",
      "eventName": "RBA Interest Rate Decision",
      "eventTimeZone": "GMT",
      "eventPrevious": "3.00%",
      "eventCurrency": "AUD",
      "eventForecast": "3.00%"
    },
    {
      "eventDateTime": "2009-08-04T06:30:00",
      "eventActual": "-31.8%",
      "eventCountry": "Australia",
      "eventExpectedVolatility": "Low",
      "eventName": "Commodity Prices (YoY)",
      "eventTimeZone": "GMT",
      "eventPrevious": "-28.3%",
      "eventCurrency": "AUD",
      "eventForecast": ""
    },
    {
      "eventDateTime": "2009-08-04T23:30:00",
      "eventActual": "44.1",
      "eventCountry": "Australia",
      "eventExpectedVolatility": "Low",
      "eventName": "AIG Services Index",
      "eventTimeZone": "GMT",
      "eventPrevious": "50.2",
      "eventCurrency": "AUD",
      "eventForecast": ""
    }
  ]}}
