{"events": {"event": {
    "eventDateTime": "2010-11-25T08:30:00",
    "eventActual": "-22.3B",
    "eventCountry": "Hong Kong",
    "eventExpectedVolatility": "Low",
    "eventName": "Trade Balance",
    "eventTimeZone": "GMT",
    "eventPrevious": "-24.4B",
    "eventCurrency": "HKD",
    "eventForecast": "-19.0B"
  }}}
