{"events": {"event": [
    {
      "eventDateTime": "2008-08-29T01:30:00",
      "eventActual": "0.5%",
      "eventCountry": "Australia",
      "eventExpectedVolatility": "Moderate",
      "eventName": "Private Sector Credit (MoM)",
      "eventTimeZone": "GMT",
      "eventPrevious": "0.4%",
      "eventCurrency": "AUD",
      "eventForecast": "0.5%"
    },
    {
      "eventDateTime": "2008-08-29T19:30:00",
      "eventActual": "1.4K",
      "eventCountry": "Australia",
      "eventExpectedVolatility": "Moderate",
      "eventName": "CFTC AUD speculative net positions",
      "eventTimeZone": "GMT",
      "eventPrevious": "6.0K",
      "eventCurrency": "AUD",
      "eventForecast": ""
    }
  ]}}
