{"events": {"event": {
    "eventDateTime": "2017-09-28T09:00:00",
    "eventActual": "",
    "eventCountry": "Australia",
    "eventExpectedVolatility": "Moderate",
    "eventName": "RBA Assist Gov Debelle Speaks",
    "eventTimeZone": "GMT",
    "eventPrevious": "",
    "eventCurrency": "AUD",
    "eventForecast": ""
  }}}
