{"events": {"event": [
    {
      "eventDateTime": "2018-10-16T12:55:00",
      "eventActual": "0.1%",
      "eventCountry": "United States",
      "eventExpectedVolatility": "Low",
      "eventName": "Redbook (MoM)",
      "eventTimeZone": "GMT",
      "eventPrevious": "0.4%",
      "eventCurrency": "USD",
      "eventForecast": ""
    },
    {
      "eventDateTime": "2018-10-16T12:55:00",
      "eventActual": "5.8%",
      "eventCountry": "United States",
      "eventExpectedVolatility": "Low",
      "eventName": "Redbook (YoY)",
      "eventTimeZone": "GMT",
      "eventPrevious": "6.5%",
      "eventCurrency": "USD",
      "eventForecast": ""
    },
    {
      "eventDateTime": "2018-10-16T13:15:00",
      "eventActual": "78.1%",
      "eventCountry": "United States",
      "eventExpectedVolatility": "Low",
      "eventName": "Capacity Utilization Rate (Sep)",
      "eventTimeZone": "GMT",
      "eventPrevious": "78.1%",
      "eventCurrency": "USD",
      "eventForecast": "78.2%"
    },
    {
      "eventDateTime": "2018-10-16T13:15:00",
      "eventActual": "0.3%",
      "eventCountry": "United States",
      "eventExpectedVolatility": "Moderate",
      "eventName": "Industrial Production (MoM) (Sep)",
      "eventTimeZone": "GMT",
      "eventPrevious": "0.4%",
      "eventCurrency": "USD",
      "eventForecast": "0.2%"
    },
    {
      "eventDateTime": "2018-10-16T13:15:00",
      "eventActual": "5.1%",
      "eventCountry": "United States",
      "eventExpectedVolatility": "Moderate",
      "eventName": "Industrial Production (YoY)",
      "eventTimeZone": "GMT",
      "eventPrevious": "4.9%",
      "eventCurrency": "USD",
      "eventForecast": ""
    },
    {
      "eventDateTime": "2018-10-16T13:15:00",
      "eventActual": "0.2%",
      "eventCountry": "United States",
      "eventExpectedVolatility": "Low",
      "eventName": "Manufacturing Production (MoM) (Sep)",
      "eventTimeZone": "GMT",
      "eventPrevious": "0.3%",
      "eventCurrency": "USD",
      "eventForecast": "0.2%"
    },
    {
      "eventDateTime": "2018-10-16T14:00:00",
      "eventActual": "7.136M",
      "eventCountry": "United States",
      "eventExpectedVolatility": "High",
      "eventName": "JOLTs Job Openings (Aug)",
      "eventTimeZone": "GMT",
      "eventPrevious": "7.077M",
      "eventCurrency": "USD",
      "eventForecast": "6.945M"
    },
    {
      "eventDateTime": "2018-10-16T14:00:00",
      "eventActual": "68",
      "eventCountry": "United States",
      "eventExpectedVolatility": "Low",
      "eventName": "NAHB Housing Market Index (Oct)",
      "eventTimeZone": "GMT",
      "eventPrevious": "67",
      "eventCurrency": "USD",
      "eventForecast": "68"
    },
    {
      "eventDateTime": "2018-10-16T15:30:00",
      "eventActual": "2.155%",
      "eventCountry": "United States",
      "eventExpectedVolatility": "Low",
      "eventName": "4-Week Bill Auction",
      "eventTimeZone": "GMT",
      "eventPrevious": "2.135%",
      "eventCurrency": "USD",
      "eventForecast": ""
    },
    {
      "eventDateTime": "2018-10-16T15:30:00",
      "eventActual": "2.2%",
      "eventCountry": "United States",
      "eventExpectedVolatility": "Low",
      "eventName": "8-Week Bill Auction",
      "eventTimeZone": "GMT",
      "eventPrevious": "",
      "eventCurrency": "USD",
      "eventForecast": ""
    },
    {
      "eventDateTime": "2018-10-16T20:00:00",
      "eventActual": "108.20B",
      "eventCountry": "United States",
      "eventExpectedVolatility": "Low",
      "eventName": "Overall Net Capital Flow (Aug)",
      "eventTimeZone": "GMT",
      "eventPrevious": "42.70B",
      "eventCurrency": "USD",
      "eventForecast": ""
    },
    {
      "eventDateTime": "2018-10-16T20:00:00",
      "eventActual": "131.8B",
      "eventCountry": "United States",
      "eventExpectedVolatility": "Moderate",
      "eventName": "TIC Net Long-Term Transactions (Aug)",
      "eventTimeZone": "GMT",
      "eventPrevious": "66.7B",
      "eventCurrency": "USD",
      "eventForecast": "50.3B"
    },
    {
      "eventDateTime": "2018-10-16T20:00:00",
      "eventActual": "111.50B",
      "eventCountry": "United States",
      "eventExpectedVolatility": "Low",
      "eventName": "TIC Net Long-Term Transactions including Swaps (Aug)",
      "eventTimeZone": "GMT",
      "eventPrevious": "48.50B",
      "eventCurrency": "USD",
      "eventForecast": ""
    },
    {
      "eventDateTime": "2018-10-16T20:00:00",
      "eventActual": "63.10B",
      "eventCountry": "United States",
      "eventExpectedVolatility": "Low",
      "eventName": "US Foreign Buying, T-bonds (Aug)",
      "eventTimeZone": "GMT",
      "eventPrevious": "18.90B",
      "eventCurrency": "USD",
      "eventForecast": ""
    },
    {
      "eventDateTime": "2018-10-16T20:15:00",
      "eventActual": "",
      "eventCountry": "United States",
      "eventExpectedVolatility": "Moderate",
      "eventName": "FOMC Member Daly Speaks",
      "eventTimeZone": "GMT",
      "eventPrevious": "",
      "eventCurrency": "USD",
      "eventForecast": ""
    },
    {
      "eventDateTime": "2018-10-16T20:30:00",
      "eventActual": "-2.100M",
      "eventCountry": "United States",
      "eventExpectedVolatility": "Moderate",
      "eventName": "API Weekly Crude Oil Stock",
      "eventTimeZone": "GMT",
      "eventPrevious": "9.750M",
      "eventCurrency": "USD",
      "eventForecast": ""
    }
  ]}}
