{"events": {"event": [
    {
      "eventDateTime": "2010-08-31T13:00:00",
      "eventActual": "4.2%",
      "eventCountry": "United States",
      "eventExpectedVolatility": "Moderate",
      "eventName": "Sandamp;P/CS HPI Composite - 20 n.s.a. (YoY)",
      "eventTimeZone": "GMT",
      "eventPrevious": "4.6%",
      "eventCurrency": "USD",
      "eventForecast": "3.5%"
    },
    {
      "eventDateTime": "2010-08-31T13:45:00",
      "eventActual": "56.7",
      "eventCountry": "United States",
      "eventExpectedVolatility": "Moderate",
      "eventName": "Chicago PMI",
      "eventTimeZone": "GMT",
      "eventPrevious": "62.3",
      "eventCurrency": "USD",
      "eventForecast": "57.5"
    },
    {
      "eventDateTime": "2010-08-31T14:00:00",
      "eventActual": "53.5",
      "eventCountry": "United States",
      "eventExpectedVolatility": "High",
      "eventName": "CB Consumer Confidence",
      "eventTimeZone": "GMT",
      "eventPrevious": "51.0",
      "eventCurrency": "USD",
      "eventForecast": "50.0"
    },
    {
      "eventDateTime": "2010-08-31T18:00:00",
      "eventActual": "",
      "eventCountry": "United States",
      "eventExpectedVolatility": "High",
      "eventName": "FOMC Meeting Minutes",
      "eventTimeZone": "GMT",
      "eventPrevious": "",
      "eventCurrency": "USD",
      "eventForecast": ""
    },
    {
      "eventDateTime": "2010-08-31T21:00:00",
      "eventActual": "27.5",
      "eventCountry": "United States",
      "eventExpectedVolatility": "Low",
      "eventName": "Bloomberg Consumer Confidence",
      "eventTimeZone": "GMT",
      "eventPrevious": "28",
      "eventCurrency": "USD",
      "eventForecast": ""
    }
  ]}}
