{"events": {"event": [
    {
      "eventDateTime": "2018-03-15T13:00:00",
      "eventActual": "455.2B",
      "eventCountry": "Russia",
      "eventExpectedVolatility": "Moderate",
      "eventName": "Central Bank reserves (USD)",
      "eventTimeZone": "GMT",
      "eventPrevious": "452.3B",
      "eventCurrency": "RUB",
      "eventForecast": ""
    },
    {
      "eventDateTime": "2018-03-15T13:45:00",
      "eventActual": "1.70%",
      "eventCountry": "Russia",
      "eventExpectedVolatility": "Low",
      "eventName": "Budget Balance % of GDP (Feb)",
      "eventTimeZone": "GMT",
      "eventPrevious": "3.50%",
      "eventCurrency": "RUB",
      "eventForecast": ""
    }
  ]}}
