{"events": {"event": {
    "eventDateTime": "2014-11-24T05:30:00",
    "eventActual": "52.4%",
    "eventCountry": "New Zealand",
    "eventExpectedVolatility": "Moderate",
    "eventName": "Investing.com NZD/USD Index",
    "eventTimeZone": "GMT",
    "eventPrevious": "51.4%",
    "eventCurrency": "NZD",
    "eventForecast": ""
  }}}
