"Italian Trade Balance (Aug)";"Italy";"EUR";"2014-10-16T08:00:00";"GMT";"6.920B";"3.240B";"2.060B";"Low"
"Italian Trade Balance EU (Aug)";"Italy";"EUR";"2014-10-16T08:00:00";"GMT";"3.38B";"";"0.34B";"Low"
"Spanish 10-Year Obligacion Auction";"Spain";"EUR";"2014-10-16T08:45:00";"GMT";"2.075%";"";"2.196%";"Moderate"
"CPI (MoM) (Sep)";"Euro Zone";"EUR";"2014-10-16T09:00:00";"GMT";"0.1%";"0.4%";"0.4%";"Moderate"
"CPI (YoY) (Sep)";"Euro Zone";"EUR";"2014-10-16T09:00:00";"GMT";"0.3%";"0.3%";"0.3%";"High"
"CPI ex Tobacco (MoM) (Sep)";"Euro Zone";"EUR";"2014-10-16T09:00:00";"GMT";"0.1%";"";"0.4%";"Low"
"CPI ex Tobacco (YoY) (Sep)";"Euro Zone";"EUR";"2014-10-16T09:00:00";"GMT";"0.3%";"";"0.3%";"Low"
"Core CPI (MoM) (Sep)";"Euro Zone";"EUR";"2014-10-16T09:00:00";"GMT";"0.3%";"";"0.5%";"Low"
"Core CPI (YoY) (Sep)";"Euro Zone";"EUR";"2014-10-16T09:00:00";"GMT";"0.9%";"0.7%";"0.8%";"Moderate"
"French 3-Year BTAN Auction";"France";"EUR";"2014-10-16T09:00:00";"GMT";"0.25%";"";"0.05%";"Low"
"French 4-Year BTAN Auction";"France";"EUR";"2014-10-16T09:00:00";"GMT";"0.22%";"";"0.17%";"Low"
"French 5-Year BTAN Auction";"France";"EUR";"2014-10-16T09:00:00";"GMT";"0.22%";"";"0.34%";"Low"
"Trade Balance";"Euro Zone";"EUR";"2014-10-16T09:00:00";"GMT";"12.7B";"13.5B";"15.8B";"Moderate"
