{"events": {"event": [
    {
      "eventDateTime": "2009-01-29T23:15:00",
      "eventActual": "29.6",
      "eventCountry": "Japan",
      "eventExpectedVolatility": "Low",
      "eventName": "Manufacturing PMI",
      "eventTimeZone": "GMT",
      "eventPrevious": "30.8",
      "eventCurrency": "JPY",
      "eventForecast": ""
    },
    {
      "eventDateTime": "2009-01-29T23:30:00",
      "eventActual": "-4.6%",
      "eventCountry": "Japan",
      "eventExpectedVolatility": "Moderate",
      "eventName": "Household Spending (YoY)",
      "eventTimeZone": "GMT",
      "eventPrevious": "-0.5%",
      "eventCurrency": "JPY",
      "eventForecast": "-3.6%"
    },
    {
      "eventDateTime": "2009-01-29T23:30:00",
      "eventActual": "0.2%",
      "eventCountry": "Japan",
      "eventExpectedVolatility": "Moderate",
      "eventName": "National Core CPI (YoY)",
      "eventTimeZone": "GMT",
      "eventPrevious": "1.0%",
      "eventCurrency": "JPY",
      "eventForecast": "0.3%"
    },
    {
      "eventDateTime": "2009-01-29T23:30:00",
      "eventActual": "4.4%",
      "eventCountry": "Japan",
      "eventExpectedVolatility": "Low",
      "eventName": "Unemployment Rate",
      "eventTimeZone": "GMT",
      "eventPrevious": "3.9%",
      "eventCurrency": "JPY",
      "eventForecast": "4.1%"
    },
    {
      "eventDateTime": "2009-01-29T23:50:00",
      "eventActual": "-9.6%",
      "eventCountry": "Japan",
      "eventExpectedVolatility": "Moderate",
      "eventName": "Industrial Production (MoM)",
      "eventTimeZone": "GMT",
      "eventPrevious": "-8.5%",
      "eventCurrency": "JPY",
      "eventForecast": "-8.9%"
    }
  ]}}
