{"events": {"event": {
    "eventDateTime": "2018-11-06T23:50:00",
    "eventActual": "1,252.9B",
    "eventCountry": "Japan",
    "eventExpectedVolatility": "Low",
    "eventName": "Foreign Reserves (USD) (Oct)",
    "eventTimeZone": "GMT",
    "eventPrevious": "1,259.7B",
    "eventCurrency": "JPY",
    "eventForecast": ""
  }}}
