"M3 Money Supply (YoY) (Dec)";"South Africa";"ZAR";"2017-01-31T06:00:00";"GMT";"4.76%";"4.80%";"6.06%";"Low"
"Private Sector Credit (Dec)";"South Africa";"ZAR";"2017-01-31T06:00:00";"GMT";"4.60%";"4.70%";"5.11%";"Low"
"Trade Balance (Dec)";"South Africa";"ZAR";"2017-01-31T12:00:00";"GMT";"-1.68B";"6.00B";"12.04B";"Low"
