{"events": {"event": {
    "eventDateTime": "2013-04-30T05:00:00",
    "eventActual": "7.3%",
    "eventCountry": "Japan",
    "eventExpectedVolatility": "Low",
    "eventName": "Housing Starts (YoY)",
    "eventTimeZone": "GMT",
    "eventPrevious": "3.0%",
    "eventCurrency": "JPY",
    "eventForecast": "5.5%"
  }}}
