{"events": {"event": [
    {
      "eventDateTime": "2019-06-19T12:30:00",
      "eventActual": "0.4%",
      "eventCountry": "Canada",
      "eventExpectedVolatility": "Moderate",
      "eventName": "CPI (MoM) (May)",
      "eventTimeZone": "GMT",
      "eventPrevious": "0.4%",
      "eventCurrency": "CAD",
      "eventForecast": "0.1%"
    },
    {
      "eventDateTime": "2019-06-19T12:30:00",
      "eventActual": "2.4%",
      "eventCountry": "Canada",
      "eventExpectedVolatility": "Low",
      "eventName": "CPI (YoY) (May)",
      "eventTimeZone": "GMT",
      "eventPrevious": "2.0%",
      "eventCurrency": "CAD",
      "eventForecast": "2.1%"
    },
    {
      "eventDateTime": "2019-06-19T12:30:00",
      "eventActual": "1.8%",
      "eventCountry": "Canada",
      "eventExpectedVolatility": "Low",
      "eventName": "Common CPI (YoY)",
      "eventTimeZone": "GMT",
      "eventPrevious": "1.8%",
      "eventCurrency": "CAD",
      "eventForecast": "1.9%"
    },
    {
      "eventDateTime": "2019-06-19T12:30:00",
      "eventActual": "0.4%",
      "eventCountry": "Canada",
      "eventExpectedVolatility": "High",
      "eventName": "Core CPI (MoM) (May)",
      "eventTimeZone": "GMT",
      "eventPrevious": "0.0%",
      "eventCurrency": "CAD",
      "eventForecast": ""
    },
    {
      "eventDateTime": "2019-06-19T12:30:00",
      "eventActual": "2.1%",
      "eventCountry": "Canada",
      "eventExpectedVolatility": "Moderate",
      "eventName": "Core CPI (YoY) (May)",
      "eventTimeZone": "GMT",
      "eventPrevious": "1.5%",
      "eventCurrency": "CAD",
      "eventForecast": "1.2%"
    },
    {
      "eventDateTime": "2019-06-19T12:30:00",
      "eventActual": "2.1%",
      "eventCountry": "Canada",
      "eventExpectedVolatility": "Low",
      "eventName": "Median CPI (YoY)",
      "eventTimeZone": "GMT",
      "eventPrevious": "1.9%",
      "eventCurrency": "CAD",
      "eventForecast": "1.9%"
    },
    {
      "eventDateTime": "2019-06-19T12:30:00",
      "eventActual": "2.3%",
      "eventCountry": "Canada",
      "eventExpectedVolatility": "Low",
      "eventName": "Trimmed CPI (YoY)",
      "eventTimeZone": "GMT",
      "eventPrevious": "2.0%",
      "eventCurrency": "CAD",
      "eventForecast": "2.0%"
    }
  ]}}
