{"events": {"event": [
    {
      "eventDateTime": "2004-10-22T17:00:00",
      "eventActual": "178",
      "eventCountry": "United States",
      "eventExpectedVolatility": "Moderate",
      "eventName": "U.S. Baker Hughes Oil Rig Count",
      "eventTimeZone": "GMT",
      "eventPrevious": "167",
      "eventCurrency": "USD",
      "eventForecast": ""
    },
    {
      "eventDateTime": "2004-10-22T20:30:00",
      "eventActual": "22.3k",
      "eventCountry": "United States",
      "eventExpectedVolatility": "Moderate",
      "eventName": "CFTC Crude Oil speculative net positions",
      "eventTimeZone": "GMT",
      "eventPrevious": "24.8k",
      "eventCurrency": "USD",
      "eventForecast": ""
    }
  ]}}
