"Investing.com GBP/USD Index";"United Kingdom";"GBP";"2015-10-26T05:30:00";"GMT";"44.5%";"";"51.6%";"Moderate"
"Gross Mortgage Approvals";"United Kingdom";"GBP";"2015-10-26T09:30:00";"GMT";"46.6K";"46.2K";"44.5K";"Moderate"
"CBI Industrial Trends Orders";"United Kingdom";"GBP";"2015-10-26T11:00:00";"GMT";"-7";"-8";"-18";"Moderate"
