"Leading Index";"Japan";"JPY";"2011-01-11T05:00:00";"GMT";"97.2";"100.9";"101.0";"Low"
"Adjusted Current Account";"Japan";"JPY";"2011-01-11T23:50:00";"GMT";"1.46T";"0.99T";"1.15T";"Moderate"
"Bank Lending (YoY)";"Japan";"JPY";"2011-01-11T23:50:00";"GMT";"-2.0%";"";"-1.9%";"Low"
"M2 Money Stock (YoY)";"Japan";"JPY";"2011-01-11T23:50:00";"GMT";"2.6%";"2.6%";"2.3%";"Low"
