{"events": {"event": [
    {
      "eventDateTime": "2017-12-11T00:01:00",
      "eventActual": "-2.6%",
      "eventCountry": "United Kingdom",
      "eventExpectedVolatility": "Low",
      "eventName": "Rightmove House Price Index (MoM)",
      "eventTimeZone": "GMT",
      "eventPrevious": "-0.8%",
      "eventCurrency": "GBP",
      "eventForecast": ""
    },
    {
      "eventDateTime": "2017-12-11T00:01:00",
      "eventActual": "0.7%",
      "eventCountry": "United Kingdom",
      "eventExpectedVolatility": "Low",
      "eventName": "Rightmove House Price Index (MoM)",
      "eventTimeZone": "GMT",
      "eventPrevious": "-2.6%",
      "eventCurrency": "GBP",
      "eventForecast": ""
    },
    {
      "eventDateTime": "2017-12-11T06:30:00",
      "eventActual": "47.9%",
      "eventCountry": "United Kingdom",
      "eventExpectedVolatility": "Moderate",
      "eventName": "Investing.com GBP/USD Index",
      "eventTimeZone": "GMT",
      "eventPrevious": "47.9%",
      "eventCurrency": "GBP",
      "eventForecast": ""
    }
  ]}}
