"Average Earnings ex Bonus (Mar)";"United Kingdom";"GBP";"2012-04-01T09:00:00";"GMT";"1.60%";"";"1.60%";"Low"
"Core PPI Output (MoM) (Mar)";"United Kingdom";"GBP";"2012-04-01T09:00:00";"GMT";"0.30%";"";"0.10%";"Low"
"Core PPI Output (YoY) (Mar)";"United Kingdom";"GBP";"2012-04-01T09:00:00";"GMT";"2.30%";"";"2.00%";"Low"
"Core RPI (MoM) (Mar)";"United Kingdom";"GBP";"2012-04-01T09:00:00";"GMT";"0.80%";"";"0.40%";"Low"
"Core RPI (YoY) (Mar)";"United Kingdom";"GBP";"2012-04-01T09:00:00";"GMT";"3.80%";"";"3.70%";"Low"
"Core Retail Sales (MoM) (Mar)";"United Kingdom";"GBP";"2012-04-01T09:00:00";"GMT";"-1.10%";"";"1.50%";"Moderate"
"Core Retail Sales (YoY) (Mar)";"United Kingdom";"GBP";"2012-04-01T09:00:00";"GMT";"0.00%";"";"1.80%";"Moderate"
"Halifax House Price Index (YoY) (Mar)";"United Kingdom";"GBP";"2012-04-01T09:00:00";"GMT";"-1.90%";"";"-0.60%";"Moderate"
"Industrial Production (YoY) (Mar)";"United Kingdom";"GBP";"2012-04-01T09:00:00";"GMT";"-2.30%";"";"-2.60%";"Low"
"Manufacturing Production (YoY) (Mar)";"United Kingdom";"GBP";"2012-04-01T09:00:00";"GMT";"-1.20%";"";"-0.80%";"Low"
"Nationwide HPI (YoY) (Mar)";"United Kingdom";"GBP";"2012-04-01T09:00:00";"GMT";"0.90%";"";"-0.90%";"Moderate"
"PPI Input (YoY) (Mar)";"United Kingdom";"GBP";"2012-04-01T09:00:00";"GMT";"7.50%";"";"5.70%";"Low"
"PPI Output (YoY) (Mar)";"United Kingdom";"GBP";"2012-04-01T09:00:00";"GMT";"3.40%";"";"2.90%";"Low"
"Public Sector Net Cash Requirement (Mar)";"United Kingdom";"GBP";"2012-04-01T09:00:00";"GMT";"-11.75B";"";"12.95B";"Low"
"RPI (MoM) (Mar)";"United Kingdom";"GBP";"2012-04-01T09:00:00";"GMT";"0.80%";"";"0.40%";"Low"
"Trade Balance Non-EU (Mar)";"United Kingdom";"GBP";"2012-04-01T09:00:00";"GMT";"-4.76B";"";"-4.94B";"Moderate"
