{"events": {"event": {
    "eventDateTime": "2016-01-26T10:00:00",
    "eventActual": "",
    "eventCountry": "United Kingdom",
    "eventExpectedVolatility": "High",
    "eventName": "BoE Gov Carney Speaks",
    "eventTimeZone": "GMT",
    "eventPrevious": "",
    "eventCurrency": "GBP",
    "eventForecast": ""
  }}}
