"CPI (YoY)";"India";"INR";"2013-11-12T12:00:00";"GMT";"9.8%";"9.9%";"10.1%";"Moderate"
"Industrial Production (YoY)";"India";"INR";"2013-11-12T12:00:00";"GMT";"0.6%";"3.5%";"2.0%";"Low"
"Manufacturing Output (MoM)";"India";"INR";"2013-11-12T12:00:00";"GMT";"-0.10%";"";"0.60%";"Low"
