{"events": {"event": {
    "eventDateTime": "2010-08-26T10:00:00",
    "eventActual": "35",
    "eventCountry": "United Kingdom",
    "eventExpectedVolatility": "Low",
    "eventName": "CBI Distributive Trades Survey",
    "eventTimeZone": "GMT",
    "eventPrevious": "33",
    "eventCurrency": "GBP",
    "eventForecast": "25"
  }}}
