{"events": {"event": [
    {
      "eventDateTime": "2009-12-07T23:50:00",
      "eventActual": "1.38T",
      "eventCountry": "Japan",
      "eventExpectedVolatility": "Moderate",
      "eventName": "Adjusted Current Account",
      "eventTimeZone": "GMT",
      "eventPrevious": "1.34T",
      "eventCurrency": "JPY",
      "eventForecast": "1.60T"
    },
    {
      "eventDateTime": "2009-12-07T23:50:00",
      "eventActual": "0.2%",
      "eventCountry": "Japan",
      "eventExpectedVolatility": "Low",
      "eventName": "Bank Lending (YoY)",
      "eventTimeZone": "GMT",
      "eventPrevious": "1.4%",
      "eventCurrency": "JPY",
      "eventForecast": ""
    },
    {
      "eventDateTime": "2009-12-07T23:50:00",
      "eventActual": "3.3%",
      "eventCountry": "Japan",
      "eventExpectedVolatility": "Low",
      "eventName": "M2 Money Stock (YoY)",
      "eventTimeZone": "GMT",
      "eventPrevious": "3.4%",
      "eventCurrency": "JPY",
      "eventForecast": "3.5%"
    }
  ]}}
