{"events": {"event": {
    "eventDateTime": "2017-05-21T23:01:00",
    "eventActual": "1.2%",
    "eventCountry": "United Kingdom",
    "eventExpectedVolatility": "Low",
    "eventName": "Rightmove House Price Index (MoM)",
    "eventTimeZone": "GMT",
    "eventPrevious": "1.1%",
    "eventCurrency": "GBP",
    "eventForecast": ""
  }}}
