{"events": {"event": [
    {
      "eventDateTime": "2015-04-16T07:15:00",
      "eventActual": "0.2%",
      "eventCountry": "Switzerland",
      "eventExpectedVolatility": "Moderate",
      "eventName": "PPI (MoM) (Mar)",
      "eventTimeZone": "GMT",
      "eventPrevious": "-1.4%",
      "eventCurrency": "CHF",
      "eventForecast": "0.1%"
    },
    {
      "eventDateTime": "2015-04-16T07:15:00",
      "eventActual": "-3.4%",
      "eventCountry": "Switzerland",
      "eventExpectedVolatility": "Low",
      "eventName": "PPI (YoY) (Mar)",
      "eventTimeZone": "GMT",
      "eventPrevious": "-3.6%",
      "eventCurrency": "CHF",
      "eventForecast": "-3.7%"
    }
  ]}}
