{"events": {"event": [
    {
      "eventDateTime": "2018-11-06T07:00:00",
      "eventActual": "0.3%",
      "eventCountry": "Germany",
      "eventExpectedVolatility": "Moderate",
      "eventName": "German Factory Orders (MoM) (Sep)",
      "eventTimeZone": "GMT",
      "eventPrevious": "2.5%",
      "eventCurrency": "EUR",
      "eventForecast": "-0.4%"
    },
    {
      "eventDateTime": "2018-11-06T08:15:00",
      "eventActual": "54.0",
      "eventCountry": "Spain",
      "eventExpectedVolatility": "Moderate",
      "eventName": "Spanish Services PMI (Oct)",
      "eventTimeZone": "GMT",
      "eventPrevious": "52.5",
      "eventCurrency": "EUR",
      "eventForecast": "51.9"
    },
    {
      "eventDateTime": "2018-11-06T08:45:00",
      "eventActual": "49.2",
      "eventCountry": "Italy",
      "eventExpectedVolatility": "Moderate",
      "eventName": "Italian Services PMI (Oct)",
      "eventTimeZone": "GMT",
      "eventPrevious": "53.3",
      "eventCurrency": "EUR",
      "eventForecast": "52.1"
    },
    {
      "eventDateTime": "2018-11-06T08:50:00",
      "eventActual": "54.1",
      "eventCountry": "France",
      "eventExpectedVolatility": "Low",
      "eventName": "French Markit Composite PMI (Oct)",
      "eventTimeZone": "GMT",
      "eventPrevious": "54.3",
      "eventCurrency": "EUR",
      "eventForecast": "54.3"
    },
    {
      "eventDateTime": "2018-11-06T08:50:00",
      "eventActual": "55.3",
      "eventCountry": "France",
      "eventExpectedVolatility": "Moderate",
      "eventName": "French Services PMI (Oct)",
      "eventTimeZone": "GMT",
      "eventPrevious": "55.6",
      "eventCurrency": "EUR",
      "eventForecast": "55.6"
    },
    {
      "eventDateTime": "2018-11-06T08:55:00",
      "eventActual": "53.4",
      "eventCountry": "Germany",
      "eventExpectedVolatility": "Low",
      "eventName": "German Composite PMI (Oct)",
      "eventTimeZone": "GMT",
      "eventPrevious": "52.7",
      "eventCurrency": "EUR",
      "eventForecast": "52.7"
    },
    {
      "eventDateTime": "2018-11-06T08:55:00",
      "eventActual": "54.7",
      "eventCountry": "Germany",
      "eventExpectedVolatility": "Moderate",
      "eventName": "German Services PMI (Oct)",
      "eventTimeZone": "GMT",
      "eventPrevious": "53.6",
      "eventCurrency": "EUR",
      "eventForecast": "53.6"
    },
    {
      "eventDateTime": "2018-11-06T09:00:00",
      "eventActual": "53.1",
      "eventCountry": "Euro Zone",
      "eventExpectedVolatility": "Moderate",
      "eventName": "Markit Composite PMI (Oct)",
      "eventTimeZone": "GMT",
      "eventPrevious": "52.7",
      "eventCurrency": "EUR",
      "eventForecast": "52.7"
    },
    {
      "eventDateTime": "2018-11-06T09:00:00",
      "eventActual": "53.7",
      "eventCountry": "Euro Zone",
      "eventExpectedVolatility": "Moderate",
      "eventName": "Services PMI (Oct)",
      "eventTimeZone": "GMT",
      "eventPrevious": "53.3",
      "eventCurrency": "EUR",
      "eventForecast": "53.3"
    },
    {
      "eventDateTime": "2018-11-06T10:00:00",
      "eventActual": "0.5%",
      "eventCountry": "Euro Zone",
      "eventExpectedVolatility": "Low",
      "eventName": "PPI (MoM) (Sep)",
      "eventTimeZone": "GMT",
      "eventPrevious": "0.4%",
      "eventCurrency": "EUR",
      "eventForecast": "0.4%"
    },
    {
      "eventDateTime": "2018-11-06T10:00:00",
      "eventActual": "4.5%",
      "eventCountry": "Euro Zone",
      "eventExpectedVolatility": "Low",
      "eventName": "PPI (YoY) (Sep)",
      "eventTimeZone": "GMT",
      "eventPrevious": "4.3%",
      "eventCurrency": "EUR",
      "eventForecast": "4.2%"
    }
  ]}}
