{"events": {"event": [
    {
      "eventDateTime": "2018-04-27T12:30:00",
      "eventActual": "2.50%",
      "eventCountry": "United States",
      "eventExpectedVolatility": "Low",
      "eventName": "Core PCE Prices",
      "eventTimeZone": "GMT",
      "eventPrevious": "1.90%",
      "eventCurrency": "USD",
      "eventForecast": "2.40%"
    },
    {
      "eventDateTime": "2018-04-27T12:30:00",
      "eventActual": "0.70%",
      "eventCountry": "United States",
      "eventExpectedVolatility": "Low",
      "eventName": "Employment Benefits (QoQ) (Q1)",
      "eventTimeZone": "GMT",
      "eventPrevious": "0.50%",
      "eventCurrency": "USD",
      "eventForecast": ""
    },
    {
      "eventDateTime": "2018-04-27T12:30:00",
      "eventActual": "0.8%",
      "eventCountry": "United States",
      "eventExpectedVolatility": "Moderate",
      "eventName": "Employment Cost Index (QoQ) (Q1)",
      "eventTimeZone": "GMT",
      "eventPrevious": "0.6%",
      "eventCurrency": "USD",
      "eventForecast": "0.7%"
    },
    {
      "eventDateTime": "2018-04-27T12:30:00",
      "eventActual": "0.90%",
      "eventCountry": "United States",
      "eventExpectedVolatility": "Low",
      "eventName": "Employment Wages (QoQ) (Q1)",
      "eventTimeZone": "GMT",
      "eventPrevious": "0.50%",
      "eventCurrency": "USD",
      "eventForecast": ""
    },
    {
      "eventDateTime": "2018-04-27T12:30:00",
      "eventActual": "2.3%",
      "eventCountry": "United States",
      "eventExpectedVolatility": "High",
      "eventName": "GDP (QoQ) (Q1)",
      "eventTimeZone": "GMT",
      "eventPrevious": "2.3%",
      "eventCurrency": "USD",
      "eventForecast": "2.0%"
    },
    {
      "eventDateTime": "2018-04-27T12:30:00",
      "eventActual": "2.0%",
      "eventCountry": "United States",
      "eventExpectedVolatility": "Moderate",
      "eventName": "GDP Price Index (QoQ) (Q1)",
      "eventTimeZone": "GMT",
      "eventPrevious": "2.3%",
      "eventCurrency": "USD",
      "eventForecast": "2.2%"
    },
    {
      "eventDateTime": "2018-04-27T12:30:00",
      "eventActual": "2.7%",
      "eventCountry": "United States",
      "eventExpectedVolatility": "Low",
      "eventName": "PCE Prices",
      "eventTimeZone": "GMT",
      "eventPrevious": "2.7%",
      "eventCurrency": "USD",
      "eventForecast": "2.6%"
    },
    {
      "eventDateTime": "2018-04-27T12:30:00",
      "eventActual": "1.1%",
      "eventCountry": "United States",
      "eventExpectedVolatility": "Low",
      "eventName": "Real Consumer Spending (Q1)",
      "eventTimeZone": "GMT",
      "eventPrevious": "4.0%",
      "eventCurrency": "USD",
      "eventForecast": "1.2%"
    },
    {
      "eventDateTime": "2018-04-27T14:00:00",
      "eventActual": "2.50%",
      "eventCountry": "United States",
      "eventExpectedVolatility": "Low",
      "eventName": "Michigan 5-Year Inflation Expectations (Apr)",
      "eventTimeZone": "GMT",
      "eventPrevious": "2.40%",
      "eventCurrency": "USD",
      "eventForecast": ""
    },
    {
      "eventDateTime": "2018-04-27T14:00:00",
      "eventActual": "88.4",
      "eventCountry": "United States",
      "eventExpectedVolatility": "Moderate",
      "eventName": "Michigan Consumer Expectations (Apr)",
      "eventTimeZone": "GMT",
      "eventPrevious": "86.8",
      "eventCurrency": "USD",
      "eventForecast": "86.9"
    },
    {
      "eventDateTime": "2018-04-27T14:00:00",
      "eventActual": "98.8",
      "eventCountry": "United States",
      "eventExpectedVolatility": "Moderate",
      "eventName": "Michigan Consumer Sentiment (Apr)",
      "eventTimeZone": "GMT",
      "eventPrevious": "97.8",
      "eventCurrency": "USD",
      "eventForecast": "98.0"
    },
    {
      "eventDateTime": "2018-04-27T14:00:00",
      "eventActual": "114.9",
      "eventCountry": "United States",
      "eventExpectedVolatility": "Low",
      "eventName": "Michigan Current Conditions (Apr)",
      "eventTimeZone": "GMT",
      "eventPrevious": "115.0",
      "eventCurrency": "USD",
      "eventForecast": "115.0"
    },
    {
      "eventDateTime": "2018-04-27T14:00:00",
      "eventActual": "2.7%",
      "eventCountry": "United States",
      "eventExpectedVolatility": "Low",
      "eventName": "Michigan Inflation Expectations (Apr)",
      "eventTimeZone": "GMT",
      "eventPrevious": "2.7%",
      "eventCurrency": "USD",
      "eventForecast": ""
    },
    {
      "eventDateTime": "2018-04-27T17:00:00",
      "eventActual": "825",
      "eventCountry": "United States",
      "eventExpectedVolatility": "Moderate",
      "eventName": "U.S. Baker Hughes Oil Rig Count",
      "eventTimeZone": "GMT",
      "eventPrevious": "820",
      "eventCurrency": "USD",
      "eventForecast": ""
    },
    {
      "eventDateTime": "2018-04-27T17:00:00",
      "eventActual": "1,021.0",
      "eventCountry": "United States",
      "eventExpectedVolatility": "Moderate",
      "eventName": "U.S. Baker Hughes Total Rig Count",
      "eventTimeZone": "GMT",
      "eventPrevious": "1,013.0",
      "eventCurrency": "USD",
      "eventForecast": ""
    },
    {
      "eventDateTime": "2018-04-27T19:30:00",
      "eventActual": "42.6K",
      "eventCountry": "United States",
      "eventExpectedVolatility": "Low",
      "eventName": "CFTC Copper speculative net positions",
      "eventTimeZone": "GMT",
      "eventPrevious": "30.7K",
      "eventCurrency": "USD",
      "eventForecast": ""
    },
    {
      "eventDateTime": "2018-04-27T19:30:00",
      "eventActual": "712.4K",
      "eventCountry": "United States",
      "eventExpectedVolatility": "Moderate",
      "eventName": "CFTC Crude Oil speculative net positions",
      "eventTimeZone": "GMT",
      "eventPrevious": "728.1K",
      "eventCurrency": "USD",
      "eventForecast": ""
    },
    {
      "eventDateTime": "2018-04-27T19:30:00",
      "eventActual": "136.6K",
      "eventCountry": "United States",
      "eventExpectedVolatility": "Moderate",
      "eventName": "CFTC Gold speculative net positions",
      "eventTimeZone": "GMT",
      "eventPrevious": "163.1K",
      "eventCurrency": "USD",
      "eventForecast": ""
    },
    {
      "eventDateTime": "2018-04-27T19:30:00",
      "eventActual": "211.0K",
      "eventCountry": "United States",
      "eventExpectedVolatility": "Moderate",
      "eventName": "CFTC Sandamp:P 500 speculative net positions",
      "eventTimeZone": "GMT",
      "eventPrevious": "212.3K",
      "eventCurrency": "USD",
      "eventForecast": ""
    },
    {
      "eventDateTime": "2018-04-27T19:30:00",
      "eventActual": "12.0K",
      "eventCountry": "United States",
      "eventExpectedVolatility": "Low",
      "eventName": "CFTC Silver speculative net positions",
      "eventTimeZone": "GMT",
      "eventPrevious": "-0.1K",
      "eventCurrency": "USD",
      "eventForecast": ""
    }
  ]}}
