{"events": {"event": [
    {
      "eventDateTime": "2015-06-04T05:30:00",
      "eventActual": "10.3%",
      "eventCountry": "France",
      "eventExpectedVolatility": "Low",
      "eventName": "French Unemployment Rate (Q1)",
      "eventTimeZone": "GMT",
      "eventPrevious": "10.4%",
      "eventCurrency": "EUR",
      "eventForecast": "10.4%"
    },
    {
      "eventDateTime": "2015-06-04T08:10:00",
      "eventActual": "51.4",
      "eventCountry": "Euro Zone",
      "eventExpectedVolatility": "Low",
      "eventName": "Retail PMI",
      "eventTimeZone": "GMT",
      "eventPrevious": "49.5",
      "eventCurrency": "EUR",
      "eventForecast": ""
    },
    {
      "eventDateTime": "2015-06-04T09:00:00",
      "eventActual": "1.28%",
      "eventCountry": "France",
      "eventExpectedVolatility": "Low",
      "eventName": "French 10-Year OAT Auction",
      "eventTimeZone": "GMT",
      "eventPrevious": "0.98%",
      "eventCurrency": "EUR",
      "eventForecast": ""
    },
    {
      "eventDateTime": "2015-06-04T09:00:00",
      "eventActual": "1.66%",
      "eventCountry": "France",
      "eventExpectedVolatility": "Low",
      "eventName": "French 15-Year OAT Auction",
      "eventTimeZone": "GMT",
      "eventPrevious": "0.93%",
      "eventCurrency": "EUR",
      "eventForecast": ""
    },
    {
      "eventDateTime": "2015-06-04T09:00:00",
      "eventActual": "0.95%",
      "eventCountry": "France",
      "eventExpectedVolatility": "Low",
      "eventName": "French 8-Year OAT Auction",
      "eventTimeZone": "GMT",
      "eventPrevious": "0.74%",
      "eventCurrency": "EUR",
      "eventForecast": ""
    }
  ]}}
