{"events": {"event": [
    {
      "eventDateTime": "2013-12-11T09:30:00",
      "eventActual": "1.50%",
      "eventCountry": "United Kingdom",
      "eventExpectedVolatility": "Low",
      "eventName": "Construction Output (MoM) (Oct)",
      "eventTimeZone": "GMT",
      "eventPrevious": "-0.70%",
      "eventCurrency": "GBP",
      "eventForecast": ""
    },
    {
      "eventDateTime": "2013-12-11T09:30:00",
      "eventActual": "6.90%",
      "eventCountry": "United Kingdom",
      "eventExpectedVolatility": "Low",
      "eventName": "U.K. Construction Output (YoY) (Oct)",
      "eventTimeZone": "GMT",
      "eventPrevious": "5.70%",
      "eventCurrency": "GBP",
      "eventForecast": ""
    }
  ]}}
