{"events": {"event": [
    {
      "eventDateTime": "2015-05-28T06:00:00",
      "eventActual": "2.856B",
      "eventCountry": "Switzerland",
      "eventExpectedVolatility": "Low",
      "eventName": "Trade Balance (Apr)",
      "eventTimeZone": "GMT",
      "eventPrevious": "2.497B",
      "eventCurrency": "CHF",
      "eventForecast": "2.770B"
    },
    {
      "eventDateTime": "2015-05-28T07:15:00",
      "eventActual": "-5.0%",
      "eventCountry": "Switzerland",
      "eventExpectedVolatility": "Low",
      "eventName": "Industrial orders (Q1)",
      "eventTimeZone": "GMT",
      "eventPrevious": "2.5%",
      "eventCurrency": "CHF",
      "eventForecast": ""
    }
  ]}}
