{"events": {"event": [
    {
      "eventDateTime": "2016-01-13T07:45:00",
      "eventActual": "0.2%",
      "eventCountry": "France",
      "eventExpectedVolatility": "Moderate",
      "eventName": "French CPI (MoM) (Dec)",
      "eventTimeZone": "GMT",
      "eventPrevious": "-0.2%",
      "eventCurrency": "EUR",
      "eventForecast": "0.1%"
    },
    {
      "eventDateTime": "2016-01-13T07:45:00",
      "eventActual": "-1.40B",
      "eventCountry": "France",
      "eventExpectedVolatility": "Low",
      "eventName": "French Current Account (Nov)",
      "eventTimeZone": "GMT",
      "eventPrevious": "-1.00B",
      "eventCurrency": "EUR",
      "eventForecast": ""
    },
    {
      "eventDateTime": "2016-01-13T07:45:00",
      "eventActual": "0.2%",
      "eventCountry": "France",
      "eventExpectedVolatility": "Moderate",
      "eventName": "French HICP (MoM) (Dec)",
      "eventTimeZone": "GMT",
      "eventPrevious": "-0.2%",
      "eventCurrency": "EUR",
      "eventForecast": "0.1%"
    },
    {
      "eventDateTime": "2016-01-13T07:45:00",
      "eventActual": "0.3%",
      "eventCountry": "France",
      "eventExpectedVolatility": "Low",
      "eventName": "French HICP (YoY) (Dec)",
      "eventTimeZone": "GMT",
      "eventPrevious": "0.1%",
      "eventCurrency": "EUR",
      "eventForecast": "0.2%"
    },
    {
      "eventDateTime": "2016-01-13T10:00:00",
      "eventActual": "-0.7%",
      "eventCountry": "Euro Zone",
      "eventExpectedVolatility": "Moderate",
      "eventName": "Industrial Production (MoM) (Nov)",
      "eventTimeZone": "GMT",
      "eventPrevious": "0.8%",
      "eventCurrency": "EUR",
      "eventForecast": "-0.3%"
    },
    {
      "eventDateTime": "2016-01-13T10:00:00",
      "eventActual": "1.1%",
      "eventCountry": "Euro Zone",
      "eventExpectedVolatility": "Low",
      "eventName": "Industrial Production (YoY) (Nov)",
      "eventTimeZone": "GMT",
      "eventPrevious": "2.0%",
      "eventCurrency": "EUR",
      "eventForecast": "1.3%"
    },
    {
      "eventDateTime": "2016-01-13T10:30:00",
      "eventActual": "0.02%",
      "eventCountry": "Italy",
      "eventExpectedVolatility": "Low",
      "eventName": "Italian 3-Year BTP Auction",
      "eventTimeZone": "GMT",
      "eventPrevious": "0.11%",
      "eventCurrency": "EUR",
      "eventForecast": ""
    },
    {
      "eventDateTime": "2016-01-13T10:30:00",
      "eventActual": "0.99%",
      "eventCountry": "Italy",
      "eventExpectedVolatility": "Low",
      "eventName": "Italian 7-Year BTP Auction",
      "eventTimeZone": "GMT",
      "eventPrevious": "0.98%",
      "eventCurrency": "EUR",
      "eventForecast": ""
    },
    {
      "eventDateTime": "2016-01-13T10:35:00",
      "eventActual": "0.590%",
      "eventCountry": "Germany",
      "eventExpectedVolatility": "Moderate",
      "eventName": "German 10-Year Bund Auction",
      "eventTimeZone": "GMT",
      "eventPrevious": "0.490%",
      "eventCurrency": "EUR",
      "eventForecast": ""
    }
  ]}}
