{"events": {"event": {
    "eventDateTime": "2016-02-03T07:15:00",
    "eventActual": "49.6",
    "eventCountry": "South Africa",
    "eventExpectedVolatility": "Low",
    "eventName": "South Africa Standard Bank PMI (Jan)",
    "eventTimeZone": "GMT",
    "eventPrevious": "49.1",
    "eventCurrency": "ZAR",
    "eventForecast": ""
  }}}
