"Bank Loan Growth (2wk)";"India";"INR";"2016-05-27T11:30:00";"GMT";"9.2%";"";"9.8%";"Low"
"Deposit Growth (2wk)";"India";"INR";"2016-05-27T11:30:00";"GMT";"9.3%";"";"9.8%";"Low"
"FX Reserves, USD";"India";"INR";"2016-05-27T11:30:00";"GMT";"361.03B";"";"360.91B";"Low"
