{"events": {"event": {
    "eventDateTime": "2010-10-15T19:30:00",
    "eventActual": "8.1K",
    "eventCountry": "United Kingdom",
    "eventExpectedVolatility": "Moderate",
    "eventName": "CFTC GBP speculative net positions",
    "eventTimeZone": "GMT",
    "eventPrevious": "9.4K",
    "eventCurrency": "GBP",
    "eventForecast": ""
  }}}
