{"events": {"event": {
    "eventDateTime": "2015-04-02T02:30:00",
    "eventActual": "49.6",
    "eventCountry": "Hong Kong",
    "eventExpectedVolatility": "Low",
    "eventName": "Manufacturing PMI (Mar)",
    "eventTimeZone": "GMT",
    "eventPrevious": "50.7",
    "eventCurrency": "HKD",
    "eventForecast": ""
  }}}
