{"events": {"event": {
    "eventDateTime": "2012-07-02T23:50:00",
    "eventActual": "5.9%",
    "eventCountry": "Japan",
    "eventExpectedVolatility": "Low",
    "eventName": "Monetary Base (YoY)",
    "eventTimeZone": "GMT",
    "eventPrevious": "2.4%",
    "eventCurrency": "JPY",
    "eventForecast": "3.6%"
  }}}
