{"events": {"event": {
    "eventDateTime": "2009-06-09T22:45:00",
    "eventActual": "-3.0%",
    "eventCountry": "New Zealand",
    "eventExpectedVolatility": "Low",
    "eventName": "Terms of Trade Index (QoQ)",
    "eventTimeZone": "GMT",
    "eventPrevious": "-1.0%",
    "eventCurrency": "NZD",
    "eventForecast": "-3.6%"
  }}}
