"Unemployment Rate n.s.a. (Dec)";"Switzerland";"CHF";"2020-01-10T06:45:00";"GMT";"2.3%";"2.4%";"2.5%";"Moderate"
"Unemployment Rate s.a. (Dec)";"Switzerland";"CHF";"2020-01-10T06:45:00";"GMT";"2.3%";"2.3%";"2.3%";"Moderate"
"CFTC CHF speculative net positions";"Switzerland";"CHF";"2020-01-10T19:30:00";"GMT";"-9.7K";"";"-4.5K";"Low"
