{"events": {"event": [
    {
      "eventDateTime": "2016-02-01T00:00:00",
      "eventActual": "-18.5%",
      "eventCountry": "South Korea",
      "eventExpectedVolatility": "Low",
      "eventName": "Exports (YoY) (Jan)",
      "eventTimeZone": "GMT",
      "eventPrevious": "-14.1%",
      "eventCurrency": "KRW",
      "eventForecast": "-10.8%"
    },
    {
      "eventDateTime": "2016-02-01T00:00:00",
      "eventActual": "-20.1%",
      "eventCountry": "South Korea",
      "eventExpectedVolatility": "Low",
      "eventName": "Imports (YoY) (Jan)",
      "eventTimeZone": "GMT",
      "eventPrevious": "-19.2%",
      "eventCurrency": "KRW",
      "eventForecast": "-15.1%"
    },
    {
      "eventDateTime": "2016-02-01T00:00:00",
      "eventActual": "5.30B",
      "eventCountry": "South Korea",
      "eventExpectedVolatility": "Low",
      "eventName": "Trade Balance (Jan)",
      "eventTimeZone": "GMT",
      "eventPrevious": "7.00B",
      "eventCurrency": "KRW",
      "eventForecast": "6.68B"
    },
    {
      "eventDateTime": "2016-02-01T01:30:00",
      "eventActual": "49.5",
      "eventCountry": "South Korea",
      "eventExpectedVolatility": "Low",
      "eventName": "Nikkei Manufacturing PMI (Jan)",
      "eventTimeZone": "GMT",
      "eventPrevious": "50.7",
      "eventCurrency": "KRW",
      "eventForecast": ""
    },
    {
      "eventDateTime": "2016-02-01T23:00:00",
      "eventActual": "0.0%",
      "eventCountry": "South Korea",
      "eventExpectedVolatility": "Low",
      "eventName": "CPI (MoM) (Jan)",
      "eventTimeZone": "GMT",
      "eventPrevious": "0.3%",
      "eventCurrency": "KRW",
      "eventForecast": "0.2%"
    },
    {
      "eventDateTime": "2016-02-01T23:00:00",
      "eventActual": "0.8%",
      "eventCountry": "South Korea",
      "eventExpectedVolatility": "Moderate",
      "eventName": "CPI (YoY) (Jan)",
      "eventTimeZone": "GMT",
      "eventPrevious": "1.3%",
      "eventCurrency": "KRW",
      "eventForecast": "0.9%"
    }
  ]}}
