"Home Loans (MoM) (Apr)";"Australia";"AUD";"2018-06-12T01:30:00";"GMT";"-2.3%";"-1.7%";"-1.4%";"Moderate"
"Invest Housing Finance (MoM) (Apr)";"Australia";"AUD";"2018-06-12T01:30:00";"GMT";"-9.0%";"";"-0.9%";"Low"
"NAB Business Confidence (May)";"Australia";"AUD";"2018-06-12T01:30:00";"GMT";"11";"9";"6";"Moderate"
"NAB Business Survey (May)";"Australia";"AUD";"2018-06-12T01:30:00";"GMT";"21";"";"15";"Low"
