{"events": {"event": {
    "eventDateTime": "2013-10-17T23:50:00",
    "eventActual": "380.7B",
    "eventCountry": "Japan",
    "eventExpectedVolatility": "Low",
    "eventName": "Foreign Bonds Buying",
    "eventTimeZone": "GMT",
    "eventPrevious": "-2,223.9B",
    "eventCurrency": "JPY",
    "eventForecast": ""
  }}}
