{"events": {"event": {
    "eventDateTime": "2013-11-19T02:00:00",
    "eventActual": "5.77%",
    "eventCountry": "China",
    "eventExpectedVolatility": "Low",
    "eventName": "FDI",
    "eventTimeZone": "GMT",
    "eventPrevious": "6.20%",
    "eventCurrency": "CNY",
    "eventForecast": ""
  }}}
