"Auto Production (MoM) (Jun)";"Brazil";"BRL";"2006-07-01T09:00:00";"GMT";"18.72%";"";"-6.35%";"Low"
"Auto Sales (MoM) (Jun)";"Brazil";"BRL";"2006-07-01T09:00:00";"GMT";"25.15%";"";"-9.59%";"Low"
"Bank lending (MoM) (Jun)";"Brazil";"BRL";"2006-07-01T09:00:00";"GMT";"2.62%";"";"0.67%";"Low"
"Budget Balance (Jun)";"Brazil";"BRL";"2006-07-01T09:00:00";"GMT";"-1.94B";"";"-8.43B";"Low"
"Budget Surplus (Jun)";"Brazil";"BRL";"2006-07-01T09:00:00";"GMT";"5.91B";"";"8.77B";"Low"
"CAGED Net Payroll Jobs (Jun)";"Brazil";"BRL";"2006-07-01T09:00:00";"GMT";"199.00K";"";"155.00K";"Moderate"
"CNI Factory Utilization (Jun)";"Brazil";"BRL";"2006-07-01T09:00:00";"GMT";"82.20%";"";"81.70%";"Low"
"CPI (MoM) (Jun)";"Brazil";"BRL";"2006-07-01T09:00:00";"GMT";"0.10%";"";"-0.21%";"Moderate"
"CPI (YoY) (Jun)";"Brazil";"BRL";"2006-07-01T09:00:00";"GMT";"4.23%";"";"4.03%";"Moderate"
"Debt-to-GDP ratio (Jun)";"Brazil";"BRL";"2006-07-01T09:00:00";"GMT";"47.10%";"";"46.90%";"Low"
"FGV Consumer confidence (Jun)";"Brazil";"BRL";"2006-07-01T09:00:00";"GMT";"102.60";"";"103.30";"Low"
"Federal Tax Revenue (Jun)";"Brazil";"BRL";"2006-07-01T09:00:00";"GMT";"40.00B";"";"45.00B";"Low"
"Foreign direct investment (USD) (Jun)";"Brazil";"BRL";"2006-07-01T09:00:00";"GMT";"1.58B";"";"1.03B";"Low"
"IBC-Br Economic Activity (Jun)";"Brazil";"BRL";"2006-07-01T09:00:00";"GMT";"1.67%";"";"-1.02%";"Low"
"IGP-DI Inflation Index (MoM) (Jun)";"Brazil";"BRL";"2006-07-01T09:00:00";"GMT";"0.38%";"";"0.67%";"Low"
"IGP-M Inflation Index (MoM) (Jun)";"Brazil";"BRL";"2006-07-01T09:00:00";"GMT";"0.38%";"";"0.75%";"Low"
"IPC-Fipe Inflation Index (MoM) (Jun)";"Brazil";"BRL";"2006-07-01T09:00:00";"GMT";"-0.22%";"";"-0.31%";"Moderate"
"Industrial Production (MoM) (Jun)";"Brazil";"BRL";"2006-07-01T09:00:00";"GMT";"0.44%";"";"-0.76%";"Low"
"Industrial Production (YoY) (Jun)";"Brazil";"BRL";"2006-07-01T09:00:00";"GMT";"4.72%";"";"-0.33%";"Moderate"
"Mid-Month CPI (MoM) (Jun)";"Brazil";"BRL";"2006-07-01T09:00:00";"GMT";"0.27%";"";"-0.15%";"Low"
"Mid-Month CPI (YoY) (Jun)";"Brazil";"BRL";"2006-07-01T09:00:00";"GMT";"4.31%";"";"4.03%";"Low"
"Retail Sales (MoM) (Jun)";"Brazil";"BRL";"2006-07-01T09:00:00";"GMT";"0.46%";"";"-0.15%";"Moderate"
"Retail Sales (YoY) (Jun)";"Brazil";"BRL";"2006-07-01T09:00:00";"GMT";"7.47%";"";"3.97%";"Moderate"
"Trade Balance (Jun)";"Brazil";"BRL";"2006-07-01T09:00:00";"GMT";"3.02B";"";"4.10B";"Low"
"Unemployment Rate (Jun)";"Brazil";"BRL";"2006-07-01T09:00:00";"GMT";"10.20%";"";"10.40%";"Moderate"
