{"events": {"event": {
    "eventDateTime": "2016-07-14T13:00:00",
    "eventActual": "394.7B",
    "eventCountry": "Russia",
    "eventExpectedVolatility": "Moderate",
    "eventName": "Central Bank reserves (USD)",
    "eventTimeZone": "GMT",
    "eventPrevious": "393.7B",
    "eventCurrency": "RUB",
    "eventForecast": ""
  }}}
