"GlobalDairyTrade Price Index";"New Zealand";"NZD";"2015-08-18T20:00:00";"GMT";"-9.30%";"";"14.80%";"Moderate"
"PPI Input (QoQ) (Q2)";"New Zealand";"NZD";"2015-08-18T22:45:00";"GMT";"-1.1%";"-0.5%";"-0.3%";"Moderate"
"PPI Output (QoQ) (Q2)";"New Zealand";"NZD";"2015-08-18T22:45:00";"GMT";"-0.9%";"-0.2%";"-0.2%";"Low"
