"BoJ Governor Kuroda Speaks";"Japan";"JPY";"2017-06-28T13:30:00";"GMT";" ";"";"";"Moderate"
"Foreign Bonds Buying";"Japan";"JPY";"2017-06-28T23:50:00";"GMT";"1,100.2B";"";"321.8B";"Low"
"Foreign Investments in Japanese Stocks";"Japan";"JPY";"2017-06-28T23:50:00";"GMT";"-317.6B";"";"-26.3B";"Low"
"Retail Sales (YoY) (May)";"Japan";"JPY";"2017-06-28T23:50:00";"GMT";"3.2%";"2.6%";"2.0%";"Moderate"
