{"events": {"event": [
    {
      "eventDateTime": "2010-05-13T22:45:00",
      "eventActual": "-0.5%",
      "eventCountry": "New Zealand",
      "eventExpectedVolatility": "Moderate",
      "eventName": "Core Retail Sales (QoQ)",
      "eventTimeZone": "GMT",
      "eventPrevious": "1.2%",
      "eventCurrency": "NZD",
      "eventForecast": ""
    },
    {
      "eventDateTime": "2010-05-13T22:45:00",
      "eventActual": "0.2%",
      "eventCountry": "New Zealand",
      "eventExpectedVolatility": "Moderate",
      "eventName": "Retail Sales (QoQ)",
      "eventTimeZone": "GMT",
      "eventPrevious": "0.9%",
      "eventCurrency": "NZD",
      "eventForecast": "0.3%"
    }
  ]}}
