{"events": {"event": {
    "eventDateTime": "2011-09-09T19:30:00",
    "eventActual": "17.7K",
    "eventCountry": "New Zealand",
    "eventExpectedVolatility": "Low",
    "eventName": "CFTC NZD speculative net positions",
    "eventTimeZone": "GMT",
    "eventPrevious": "16.6K",
    "eventCurrency": "NZD",
    "eventForecast": ""
  }}}
