{"events": {"event": [
    {
      "eventDateTime": "2019-06-12T23:50:00",
      "eventActual": "-10.4",
      "eventCountry": "Japan",
      "eventExpectedVolatility": "Moderate",
      "eventName": "BSI Large Manufacturing Conditions (Q2)",
      "eventTimeZone": "GMT",
      "eventPrevious": "-7.3",
      "eventCurrency": "JPY",
      "eventForecast": "4.5"
    },
    {
      "eventDateTime": "2019-06-12T23:50:00",
      "eventActual": "1,736.0B",
      "eventCountry": "Japan",
      "eventExpectedVolatility": "Low",
      "eventName": "Foreign Bonds Buying",
      "eventTimeZone": "GMT",
      "eventPrevious": "441.7B",
      "eventCurrency": "JPY",
      "eventForecast": ""
    },
    {
      "eventDateTime": "2019-06-12T23:50:00",
      "eventActual": "-148.0B",
      "eventCountry": "Japan",
      "eventExpectedVolatility": "Low",
      "eventName": "Foreign Investments in Japanese Stocks",
      "eventTimeZone": "GMT",
      "eventPrevious": "-285.9B",
      "eventCurrency": "JPY",
      "eventForecast": ""
    }
  ]}}
