{"events": {"event": [
    {
      "eventDateTime": "2017-09-21T08:00:00",
      "eventActual": "",
      "eventCountry": "Euro Zone",
      "eventExpectedVolatility": "Moderate",
      "eventName": "ECB Economic Bulletin",
      "eventTimeZone": "GMT",
      "eventPrevious": "",
      "eventCurrency": "EUR",
      "eventForecast": ""
    },
    {
      "eventDateTime": "2017-09-21T08:40:00",
      "eventActual": "1.360%",
      "eventCountry": "Spain",
      "eventExpectedVolatility": "Moderate",
      "eventName": "Spanish 10-Year Obligacion Auction",
      "eventTimeZone": "GMT",
      "eventPrevious": "1.540%",
      "eventCurrency": "EUR",
      "eventForecast": ""
    },
    {
      "eventDateTime": "2017-09-21T09:00:00",
      "eventActual": "-0.48%",
      "eventCountry": "France",
      "eventExpectedVolatility": "Low",
      "eventName": "French 3-Year BTAN Auction",
      "eventTimeZone": "GMT",
      "eventPrevious": "-0.41%",
      "eventCurrency": "EUR",
      "eventForecast": ""
    },
    {
      "eventDateTime": "2017-09-21T09:00:00",
      "eventActual": "0.00%",
      "eventCountry": "France",
      "eventExpectedVolatility": "Low",
      "eventName": "French 5-Year BTAN Auction",
      "eventTimeZone": "GMT",
      "eventPrevious": "-0.04%",
      "eventCurrency": "EUR",
      "eventForecast": ""
    },
    {
      "eventDateTime": "2017-09-21T09:30:00",
      "eventActual": "",
      "eventCountry": "Euro Zone",
      "eventExpectedVolatility": "Moderate",
      "eventName": "ECB's Praet Speaks",
      "eventTimeZone": "GMT",
      "eventPrevious": "",
      "eventCurrency": "EUR",
      "eventForecast": ""
    },
    {
      "eventDateTime": "2017-09-21T13:30:00",
      "eventActual": "",
      "eventCountry": "Euro Zone",
      "eventExpectedVolatility": "High",
      "eventName": "ECB President Draghi Speaks",
      "eventTimeZone": "GMT",
      "eventPrevious": "",
      "eventCurrency": "EUR",
      "eventForecast": ""
    },
    {
      "eventDateTime": "2017-09-21T14:00:00",
      "eventActual": "-1.2",
      "eventCountry": "Euro Zone",
      "eventExpectedVolatility": "Low",
      "eventName": "Consumer Confidence (Sep)",
      "eventTimeZone": "GMT",
      "eventPrevious": "-1.5",
      "eventCurrency": "EUR",
      "eventForecast": "-1.5"
    }
  ]}}
