{"events": {"event": {
    "eventDateTime": "2014-05-26T04:30:00",
    "eventActual": "63.1%",
    "eventCountry": "Canada",
    "eventExpectedVolatility": "Moderate",
    "eventName": "Investing.com USD/CAD Index",
    "eventTimeZone": "GMT",
    "eventPrevious": "58.3%",
    "eventCurrency": "CAD",
    "eventForecast": ""
  }}}
