"French Industrial Production (MoM)";"France";"EUR";"2008-07-10T06:45:00";"GMT";"1.4%";"-0.5%";"-2.6%";"Low"
"Italian Industrial Production (MoM)";"Italy";"EUR";"2008-07-10T08:00:00";"GMT";"0.7%";"-0.5%";"-1.4%";"Low"
"ECB Economic Bulletin";"Euro Zone";"EUR";"2008-07-10T09:00:00";"GMT";" ";"";"";"Moderate"
"ECB President Trichet Speaks";"Euro Zone";"EUR";"2008-07-10T17:45:00";"GMT";" ";"";"";"High"
