"Bank Lending";"Singapore";"SGD";"2012-07-31T02:00:00";"GMT";"445.00B";"";"452.57B";"Low"
"Unemployment Rate";"Singapore";"SGD";"2012-07-31T02:00:00";"GMT";"2.1%";"2.2%";"2.0%";"Low"
"Business Expectations";"Singapore";"SGD";"2012-07-31T05:00:00";"GMT";"15.00";"";"1.00";"Low"
