{"events": {"event": [
    {
      "eventDateTime": "2014-10-21T02:00:00",
      "eventActual": "16.1%",
      "eventCountry": "China",
      "eventExpectedVolatility": "Moderate",
      "eventName": "Fixed Asset Investment (YoY) (Sep)",
      "eventTimeZone": "GMT",
      "eventPrevious": "16.5%",
      "eventCurrency": "CNY",
      "eventForecast": "16.3%"
    },
    {
      "eventDateTime": "2014-10-21T02:00:00",
      "eventActual": "1.9%",
      "eventCountry": "China",
      "eventExpectedVolatility": "Moderate",
      "eventName": "GDP (QoQ) (Q3)",
      "eventTimeZone": "GMT",
      "eventPrevious": "2.0%",
      "eventCurrency": "CNY",
      "eventForecast": "1.8%"
    },
    {
      "eventDateTime": "2014-10-21T02:00:00",
      "eventActual": "7.3%",
      "eventCountry": "China",
      "eventExpectedVolatility": "High",
      "eventName": "GDP (YoY) (Q3)",
      "eventTimeZone": "GMT",
      "eventPrevious": "7.5%",
      "eventCurrency": "CNY",
      "eventForecast": "7.2%"
    },
    {
      "eventDateTime": "2014-10-21T02:00:00",
      "eventActual": "8.0%",
      "eventCountry": "China",
      "eventExpectedVolatility": "High",
      "eventName": "Industrial Production (YoY) (Sep)",
      "eventTimeZone": "GMT",
      "eventPrevious": "6.9%",
      "eventCurrency": "CNY",
      "eventForecast": "7.5%"
    },
    {
      "eventDateTime": "2014-10-21T02:00:00",
      "eventActual": "11.6%",
      "eventCountry": "China",
      "eventExpectedVolatility": "Low",
      "eventName": "Retail Sales (YoY) (Sep)",
      "eventTimeZone": "GMT",
      "eventPrevious": "11.9%",
      "eventCurrency": "CNY",
      "eventForecast": "11.8%"
    }
  ]}}
