"Exports (Feb)";"Canada";"CAD";"2015-04-02T12:30:00";"GMT";"43.35B";"";"43.52B";"Low"
"Imports (Feb)";"Canada";"CAD";"2015-04-02T12:30:00";"GMT";"44.82B";"";"44.51B";"Low"
"Trade Balance (Feb)";"Canada";"CAD";"2015-04-02T12:30:00";"GMT";"-1.48B";"-1.80B";"-0.98B";"Moderate"
