{"events": {"event": [
    {
      "eventDateTime": "2012-07-02T05:00:00",
      "eventActual": "55.00",
      "eventCountry": "India",
      "eventExpectedVolatility": "Low",
      "eventName": "Nikkei Markit Manufacturing PMI",
      "eventTimeZone": "GMT",
      "eventPrevious": "54.80",
      "eventCurrency": "INR",
      "eventForecast": "54.40"
    },
    {
      "eventDateTime": "2012-07-02T05:45:00",
      "eventActual": "-16.3B",
      "eventCountry": "India",
      "eventExpectedVolatility": "Low",
      "eventName": "Trade Balance",
      "eventTimeZone": "GMT",
      "eventPrevious": "-13.5B",
      "eventCurrency": "INR",
      "eventForecast": "-16.3B"
    }
  ]}}
