{"events": {"event": {
    "eventDateTime": "2017-12-29T11:00:00",
    "eventActual": "12.0%",
    "eventCountry": "Brazil",
    "eventExpectedVolatility": "Moderate",
    "eventName": "Unemployment Rate",
    "eventTimeZone": "GMT",
    "eventPrevious": "12.2%",
    "eventCurrency": "BRL",
    "eventForecast": ""
  }}}
