{"events": {"event": {
    "eventDateTime": "2015-05-06T21:00:00",
    "eventActual": "369.90B",
    "eventCountry": "South Korea",
    "eventExpectedVolatility": "Low",
    "eventName": "FX Reserves - USD (Apr)",
    "eventTimeZone": "GMT",
    "eventPrevious": "362.75B",
    "eventCurrency": "KRW",
    "eventForecast": ""
  }}}
