"HIA New Home Sales (MoM) (Mar)";"Australia";"AUD";"2016-05-05T01:00:00";"GMT";"-5.3%";"";"8.9%";"Moderate"
"Exports (MoM) (Mar)";"Australia";"AUD";"2016-05-05T01:30:00";"GMT";"-1%";"";"4%";"Low"
"Imports (MoM) (Mar)";"Australia";"AUD";"2016-05-05T01:30:00";"GMT";"0%";"";"1%";"Low"
"Retail Sales (MoM) (Mar)";"Australia";"AUD";"2016-05-05T01:30:00";"GMT";"0.1%";"0.3%";"0.4%";"High"
"Retail Sales (QoQ) (Q1)";"Australia";"AUD";"2016-05-05T01:30:00";"GMT";"0.6%";"0.7%";"0.5%";"Low"
"Trade Balance (Mar)";"Australia";"AUD";"2016-05-05T01:30:00";"GMT";"-3.044B";"-2.900B";"-2.163B";"Moderate"
"AIG Construction Index (Apr)";"Australia";"AUD";"2016-05-05T23:30:00";"GMT";"45.2";"";"50.8";"Low"
