"ANZ Business Confidence (Mar)";"New Zealand";"NZD";"2005-04-01T09:00:00";"GMT";"-12.60%";"";"-19.90%";"Moderate"
"Building Consents (MoM) (Mar)";"New Zealand";"NZD";"2005-04-01T09:00:00";"GMT";"-0.40%";"";"23.00%";"Moderate"
"Electronic Card Retail Sales (MoM) (Mar)";"New Zealand";"NZD";"2005-04-01T09:00:00";"GMT";"0.70%";"";"0.50%";"Moderate"
"Electronic Card Retail Sales (YoY) (Mar)";"New Zealand";"NZD";"2005-04-01T09:00:00";"GMT";"8.00%";"";"10.10%";"Low"
"Exports (Mar)";"New Zealand";"NZD";"2005-04-01T09:00:00";"GMT";"2.65B";"";"2.79B";"Low"
"External Migration andamp; Visitors (Mar)";"New Zealand";"NZD";"2005-04-01T09:00:00";"GMT";"5.06%";"";"10.56%";"Low"
"FPI (MoM) (Mar)";"New Zealand";"NZD";"2005-04-01T09:00:00";"GMT";"0.30%";"";"0.40%";"Low"
"Government Monthly Debt (Mar)";"New Zealand";"NZD";"2005-04-01T09:00:00";"GMT";"8.60%";"";"7.70%";"Low"
"Imports (Mar)";"New Zealand";"NZD";"2005-04-01T09:00:00";"GMT";"2.75B";"";"2.98B";"Low"
"NBNZ Own Activity (Mar)";"New Zealand";"NZD";"2005-04-01T09:00:00";"GMT";"30.90%";"";"29.90%";"Low"
"Permanent/Long-Term Migration (Mar)";"New Zealand";"NZD";"2005-04-01T09:00:00";"GMT";"380.00";"";"90.00";"Low"
"RBNZ Interest Rate Decision (Mar)";"New Zealand";"NZD";"2005-04-01T09:00:00";"GMT";"6.50%";"";"6.67%";"High"
"RBNZ Offshore Holdings (Mar)";"New Zealand";"NZD";"2005-04-01T09:00:00";"GMT";"50.00%";"";"51.40%";"Low"
"REINZ House Price Index (MoM) (Mar)";"New Zealand";"NZD";"2005-04-01T09:00:00";"GMT";"1.70%";"";"4.20%";"Low"
"REINZ House Price Index (YoY) (Mar)";"New Zealand";"NZD";"2005-04-01T09:00:00";"GMT";"13.90%";"";"16.80%";"Low"
"Trade Balance (MoM) (Mar)";"New Zealand";"NZD";"2005-04-01T09:00:00";"GMT";"-106.00M";"";"-189.50M";"Moderate"
"Trade Balance (YoY) (Mar)";"New Zealand";"NZD";"2005-04-01T09:00:00";"GMT";"-4,120.00M";"";"-4,360.00M";"Moderate"
