{"events": {"event": [
    {
      "eventDateTime": "2013-07-17T07:30:00",
      "eventActual": "-1.3%",
      "eventCountry": "Spain",
      "eventExpectedVolatility": "Low",
      "eventName": "Spanish industrial New Orders (YoY)",
      "eventTimeZone": "GMT",
      "eventPrevious": "5.3%",
      "eventCurrency": "EUR",
      "eventForecast": "1.0%"
    },
    {
      "eventDateTime": "2013-07-17T09:00:00",
      "eventActual": "0.5%",
      "eventCountry": "Germany",
      "eventExpectedVolatility": "Low",
      "eventName": "German House Price Index (MoM)",
      "eventTimeZone": "GMT",
      "eventPrevious": "0.0%",
      "eventCurrency": "EUR",
      "eventForecast": ""
    },
    {
      "eventDateTime": "2013-07-17T09:30:00",
      "eventActual": "1.570%",
      "eventCountry": "Germany",
      "eventExpectedVolatility": "Moderate",
      "eventName": "German 10-Year Bund Auction",
      "eventTimeZone": "GMT",
      "eventPrevious": "1.550%",
      "eventCurrency": "EUR",
      "eventForecast": ""
    }
  ]}}
