{"events": {"event": [
    {
      "eventDateTime": "2015-06-05T12:00:00",
      "eventActual": "",
      "eventCountry": "United States",
      "eventExpectedVolatility": "Moderate",
      "eventName": "OPEC Meeting",
      "eventTimeZone": "GMT",
      "eventPrevious": "",
      "eventCurrency": "USD",
      "eventForecast": ""
    },
    {
      "eventDateTime": "2015-06-05T12:30:00",
      "eventActual": "0.3%",
      "eventCountry": "United States",
      "eventExpectedVolatility": "Moderate",
      "eventName": "Average Hourly Earnings (MoM) (May)",
      "eventTimeZone": "GMT",
      "eventPrevious": "0.1%",
      "eventCurrency": "USD",
      "eventForecast": "0.2%"
    },
    {
      "eventDateTime": "2015-06-05T12:30:00",
      "eventActual": "34.5",
      "eventCountry": "United States",
      "eventExpectedVolatility": "Low",
      "eventName": "Average Weekly Hours (May)",
      "eventTimeZone": "GMT",
      "eventPrevious": "34.5",
      "eventCurrency": "USD",
      "eventForecast": "34.5"
    },
    {
      "eventDateTime": "2015-06-05T12:30:00",
      "eventActual": "18.0K",
      "eventCountry": "United States",
      "eventExpectedVolatility": "Low",
      "eventName": "Government Payrolls (May)",
      "eventTimeZone": "GMT",
      "eventPrevious": "15.0K",
      "eventCurrency": "USD",
      "eventForecast": ""
    },
    {
      "eventDateTime": "2015-06-05T12:30:00",
      "eventActual": "7.0K",
      "eventCountry": "United States",
      "eventExpectedVolatility": "Low",
      "eventName": "Manufacturing Payrolls (May)",
      "eventTimeZone": "GMT",
      "eventPrevious": "1.0K",
      "eventCurrency": "USD",
      "eventForecast": "5.0K"
    },
    {
      "eventDateTime": "2015-06-05T12:30:00",
      "eventActual": "280K",
      "eventCountry": "United States",
      "eventExpectedVolatility": "High",
      "eventName": "Nonfarm Payrolls (May)",
      "eventTimeZone": "GMT",
      "eventPrevious": "221K",
      "eventCurrency": "USD",
      "eventForecast": "225K"
    },
    {
      "eventDateTime": "2015-06-05T12:30:00",
      "eventActual": "62.9%",
      "eventCountry": "United States",
      "eventExpectedVolatility": "Moderate",
      "eventName": "Participation Rate (May)",
      "eventTimeZone": "GMT",
      "eventPrevious": "62.8%",
      "eventCurrency": "USD",
      "eventForecast": ""
    },
    {
      "eventDateTime": "2015-06-05T12:30:00",
      "eventActual": "262K",
      "eventCountry": "United States",
      "eventExpectedVolatility": "Moderate",
      "eventName": "Private Nonfarm Payrolls (May)",
      "eventTimeZone": "GMT",
      "eventPrevious": "206K",
      "eventCurrency": "USD",
      "eventForecast": "220K"
    },
    {
      "eventDateTime": "2015-06-05T12:30:00",
      "eventActual": "10.70%",
      "eventCountry": "United States",
      "eventExpectedVolatility": "Low",
      "eventName": "U6 Unemployment Rate (May)",
      "eventTimeZone": "GMT",
      "eventPrevious": "10.80%",
      "eventCurrency": "USD",
      "eventForecast": ""
    },
    {
      "eventDateTime": "2015-06-05T12:30:00",
      "eventActual": "5.5%",
      "eventCountry": "United States",
      "eventExpectedVolatility": "High",
      "eventName": "Unemployment Rate (May)",
      "eventTimeZone": "GMT",
      "eventPrevious": "5.4%",
      "eventCurrency": "USD",
      "eventForecast": "5.4%"
    },
    {
      "eventDateTime": "2015-06-05T16:30:00",
      "eventActual": "",
      "eventCountry": "United States",
      "eventExpectedVolatility": "Moderate",
      "eventName": "FOMC Member Dudley Speaks",
      "eventTimeZone": "GMT",
      "eventPrevious": "",
      "eventCurrency": "USD",
      "eventForecast": ""
    },
    {
      "eventDateTime": "2015-06-05T17:00:00",
      "eventActual": "642",
      "eventCountry": "United States",
      "eventExpectedVolatility": "Moderate",
      "eventName": "U.S. Baker Hughes Oil Rig Count",
      "eventTimeZone": "GMT",
      "eventPrevious": "646",
      "eventCurrency": "USD",
      "eventForecast": ""
    },
    {
      "eventDateTime": "2015-06-05T19:00:00",
      "eventActual": "20.54B",
      "eventCountry": "United States",
      "eventExpectedVolatility": "Low",
      "eventName": "Consumer Credit (Apr)",
      "eventTimeZone": "GMT",
      "eventPrevious": "21.35B",
      "eventCurrency": "USD",
      "eventForecast": "16.70B"
    },
    {
      "eventDateTime": "2015-06-05T19:30:00",
      "eventActual": "-8.7K",
      "eventCountry": "United States",
      "eventExpectedVolatility": "Low",
      "eventName": "CFTC Copper speculative net positions",
      "eventTimeZone": "GMT",
      "eventPrevious": "1.6K",
      "eventCurrency": "USD",
      "eventForecast": ""
    },
    {
      "eventDateTime": "2015-06-05T19:30:00",
      "eventActual": "104.4K",
      "eventCountry": "United States",
      "eventExpectedVolatility": "Moderate",
      "eventName": "CFTC Gold speculative net positions",
      "eventTimeZone": "GMT",
      "eventPrevious": "104.7K",
      "eventCurrency": "USD",
      "eventForecast": ""
    },
    {
      "eventDateTime": "2015-06-05T19:30:00",
      "eventActual": "-24.8K",
      "eventCountry": "United States",
      "eventExpectedVolatility": "Moderate",
      "eventName": "CFTC Sandamp:P 500 speculative net positions",
      "eventTimeZone": "GMT",
      "eventPrevious": "-69.2K",
      "eventCurrency": "USD",
      "eventForecast": ""
    },
    {
      "eventDateTime": "2015-06-05T19:30:00",
      "eventActual": "46.8K",
      "eventCountry": "United States",
      "eventExpectedVolatility": "Low",
      "eventName": "CFTC Silver speculative net positions",
      "eventTimeZone": "GMT",
      "eventPrevious": "51.0K",
      "eventCurrency": "USD",
      "eventForecast": ""
    },
    {
      "eventDateTime": "2015-06-05T20:30:00",
      "eventActual": "339.5k",
      "eventCountry": "United States",
      "eventExpectedVolatility": "Moderate",
      "eventName": "CFTC Crude Oil speculative net positions",
      "eventTimeZone": "GMT",
      "eventPrevious": "348.0k",
      "eventCurrency": "USD",
      "eventForecast": ""
    }
  ]}}
