{"events": {"event": [
    {
      "eventDateTime": "2004-11-05T12:30:00",
      "eventActual": "345K",
      "eventCountry": "United States",
      "eventExpectedVolatility": "High",
      "eventName": "Nonfarm Payrolls (Oct)",
      "eventTimeZone": "GMT",
      "eventPrevious": "162K",
      "eventCurrency": "USD",
      "eventForecast": ""
    },
    {
      "eventDateTime": "2004-11-05T17:00:00",
      "eventActual": "190",
      "eventCountry": "United States",
      "eventExpectedVolatility": "Moderate",
      "eventName": "U.S. Baker Hughes Oil Rig Count",
      "eventTimeZone": "GMT",
      "eventPrevious": "179",
      "eventCurrency": "USD",
      "eventForecast": ""
    },
    {
      "eventDateTime": "2004-11-05T20:30:00",
      "eventActual": "5.2k",
      "eventCountry": "United States",
      "eventExpectedVolatility": "Moderate",
      "eventName": "CFTC Crude Oil speculative net positions",
      "eventTimeZone": "GMT",
      "eventPrevious": "21.0k",
      "eventCurrency": "USD",
      "eventForecast": ""
    }
  ]}}
