{"events": {"event": [
    {
      "eventDateTime": "2008-04-23T12:30:00",
      "eventActual": "-0.3%",
      "eventCountry": "Canada",
      "eventExpectedVolatility": "High",
      "eventName": "Core Retail Sales (MoM)",
      "eventTimeZone": "GMT",
      "eventPrevious": "1.3%",
      "eventCurrency": "CAD",
      "eventForecast": "0.4%"
    },
    {
      "eventDateTime": "2008-04-23T12:30:00",
      "eventActual": "-0.7%",
      "eventCountry": "Canada",
      "eventExpectedVolatility": "Moderate",
      "eventName": "Retail Sales (MoM)",
      "eventTimeZone": "GMT",
      "eventPrevious": "1.5%",
      "eventCurrency": "CAD",
      "eventForecast": "0.1%"
    }
  ]}}
