{"events": {"event": [
    {
      "eventDateTime": "2017-04-12T14:00:00",
      "eventActual": "0.50%",
      "eventCountry": "Canada",
      "eventExpectedVolatility": "High",
      "eventName": "BoC Interest Rate Decision",
      "eventTimeZone": "GMT",
      "eventPrevious": "0.50%",
      "eventCurrency": "CAD",
      "eventForecast": "0.50%"
    },
    {
      "eventDateTime": "2017-04-12T14:00:00",
      "eventActual": "",
      "eventCountry": "Canada",
      "eventExpectedVolatility": "High",
      "eventName": "BoC Monetary Policy Report",
      "eventTimeZone": "GMT",
      "eventPrevious": "",
      "eventCurrency": "CAD",
      "eventForecast": ""
    },
    {
      "eventDateTime": "2017-04-12T15:15:00",
      "eventActual": "",
      "eventCountry": "Canada",
      "eventExpectedVolatility": "High",
      "eventName": "BoC Gov Poloz Speaks",
      "eventTimeZone": "GMT",
      "eventPrevious": "",
      "eventCurrency": "CAD",
      "eventForecast": ""
    }
  ]}}
