{"events": {"event": {
    "eventDateTime": "2017-06-30T02:00:00",
    "eventActual": "633.2B",
    "eventCountry": "Singapore",
    "eventExpectedVolatility": "Low",
    "eventName": "Bank Lending (May)",
    "eventTimeZone": "GMT",
    "eventPrevious": "631.2B",
    "eventCurrency": "SGD",
    "eventForecast": ""
  }}}
