"German CPI (MoM)";"Germany";"EUR";"2009-11-10T07:00:00";"GMT";"0.1%";"0.1%";"0.1%";"Moderate"
"German WPI (MoM)";"Germany";"EUR";"2009-11-10T07:00:00";"GMT";"-0.2%";"0.1%";"-0.4%";"Low"
"French Industrial Production (MoM)";"France";"EUR";"2009-11-10T07:45:00";"GMT";"2.8%";"1.0%";"-1.5%";"Low"
"Italian Industrial Production (MoM)";"Italy";"EUR";"2009-11-10T09:00:00";"GMT";"5.8%";"-4.0%";"-5.3%";"Low"
"German ZEW Economic Sentiment";"Germany";"EUR";"2009-11-10T10:00:00";"GMT";"56.0";"55.0";"51.1";"High"
"ZEW Economic Sentiment";"Euro Zone";"EUR";"2009-11-10T10:00:00";"GMT";"56.9";"59.0";"51.8";"Moderate"
