{"events": {"event": {
    "eventDateTime": "2013-10-11T19:30:00",
    "eventActual": "10.8K",
    "eventCountry": "New Zealand",
    "eventExpectedVolatility": "Low",
    "eventName": "CFTC NZD speculative net positions",
    "eventTimeZone": "GMT",
    "eventPrevious": "10.9K",
    "eventCurrency": "NZD",
    "eventForecast": ""
  }}}
