{"events": {"event": {
    "eventDateTime": "2015-05-25T08:00:00",
    "eventActual": "40.1%",
    "eventCountry": "Canada",
    "eventExpectedVolatility": "Moderate",
    "eventName": "Investing.com USD/CAD Index",
    "eventTimeZone": "GMT",
    "eventPrevious": "43.5%",
    "eventCurrency": "CAD",
    "eventForecast": ""
  }}}
