"Chinese Composite PMI (Sep)";"China";"CNY";"2019-09-30T01:00:00";"GMT";"53.0";"";"53.1";"Moderate"
"Manufacturing PMI (Sep)";"China";"CNY";"2019-09-30T01:00:00";"GMT";"49.5";"49.5";"49.8";"High"
"Non-Manufacturing PMI (Sep)";"China";"CNY";"2019-09-30T01:00:00";"GMT";"53.8";"54.2";"53.7";"Moderate"
"Caixin Manufacturing PMI (Sep)";"China";"CNY";"2019-09-30T01:45:00";"GMT";"50.4";"50.2";"51.4";"High"
