{"events": {"event": [
    {
      "eventDateTime": "2010-03-29T09:00:00",
      "eventActual": "-17.0",
      "eventCountry": "Euro Zone",
      "eventExpectedVolatility": "Low",
      "eventName": "Consumer Confidence",
      "eventTimeZone": "GMT",
      "eventPrevious": "-17.0",
      "eventCurrency": "EUR",
      "eventForecast": "-17.0"
    },
    {
      "eventDateTime": "2010-03-29T16:00:00",
      "eventActual": "0.5%",
      "eventCountry": "Germany",
      "eventExpectedVolatility": "Moderate",
      "eventName": "German CPI (MoM)",
      "eventTimeZone": "GMT",
      "eventPrevious": "0.4%",
      "eventCurrency": "EUR",
      "eventForecast": "0.3%"
    }
  ]}}
