{"events": {"event": [
    {
      "eventDateTime": "2015-12-04T12:00:00",
      "eventActual": "",
      "eventCountry": "United States",
      "eventExpectedVolatility": "Moderate",
      "eventName": "OPEC Meeting",
      "eventTimeZone": "GMT",
      "eventPrevious": "",
      "eventCurrency": "USD",
      "eventForecast": ""
    },
    {
      "eventDateTime": "2015-12-04T13:30:00",
      "eventActual": "0.2%",
      "eventCountry": "United States",
      "eventExpectedVolatility": "Moderate",
      "eventName": "Average Hourly Earnings (MoM) (Nov)",
      "eventTimeZone": "GMT",
      "eventPrevious": "0.4%",
      "eventCurrency": "USD",
      "eventForecast": "0.2%"
    },
    {
      "eventDateTime": "2015-12-04T13:30:00",
      "eventActual": "34.5",
      "eventCountry": "United States",
      "eventExpectedVolatility": "Low",
      "eventName": "Average Weekly Hours (Nov)",
      "eventTimeZone": "GMT",
      "eventPrevious": "34.6",
      "eventCurrency": "USD",
      "eventForecast": "34.5"
    },
    {
      "eventDateTime": "2015-12-04T13:30:00",
      "eventActual": "14.0K",
      "eventCountry": "United States",
      "eventExpectedVolatility": "Low",
      "eventName": "Government Payrolls (Nov)",
      "eventTimeZone": "GMT",
      "eventPrevious": "-6.0K",
      "eventCurrency": "USD",
      "eventForecast": ""
    },
    {
      "eventDateTime": "2015-12-04T13:30:00",
      "eventActual": "-1.0K",
      "eventCountry": "United States",
      "eventExpectedVolatility": "Low",
      "eventName": "Manufacturing Payrolls (Nov)",
      "eventTimeZone": "GMT",
      "eventPrevious": "1.0K",
      "eventCurrency": "USD",
      "eventForecast": "-1.0K"
    },
    {
      "eventDateTime": "2015-12-04T13:30:00",
      "eventActual": "211K",
      "eventCountry": "United States",
      "eventExpectedVolatility": "High",
      "eventName": "Nonfarm Payrolls (Nov)",
      "eventTimeZone": "GMT",
      "eventPrevious": "298K",
      "eventCurrency": "USD",
      "eventForecast": "200K"
    },
    {
      "eventDateTime": "2015-12-04T13:30:00",
      "eventActual": "62.5%",
      "eventCountry": "United States",
      "eventExpectedVolatility": "Moderate",
      "eventName": "Participation Rate (Nov)",
      "eventTimeZone": "GMT",
      "eventPrevious": "62.4%",
      "eventCurrency": "USD",
      "eventForecast": "62.4%"
    },
    {
      "eventDateTime": "2015-12-04T13:30:00",
      "eventActual": "197K",
      "eventCountry": "United States",
      "eventExpectedVolatility": "Moderate",
      "eventName": "Private Nonfarm Payrolls (Nov)",
      "eventTimeZone": "GMT",
      "eventPrevious": "304K",
      "eventCurrency": "USD",
      "eventForecast": "190K"
    },
    {
      "eventDateTime": "2015-12-04T13:30:00",
      "eventActual": "-43.89B",
      "eventCountry": "United States",
      "eventExpectedVolatility": "Moderate",
      "eventName": "Trade Balance (Oct)",
      "eventTimeZone": "GMT",
      "eventPrevious": "-42.46B",
      "eventCurrency": "USD",
      "eventForecast": "-40.50B"
    },
    {
      "eventDateTime": "2015-12-04T13:30:00",
      "eventActual": "9.90%",
      "eventCountry": "United States",
      "eventExpectedVolatility": "Low",
      "eventName": "U6 Unemployment Rate (Nov)",
      "eventTimeZone": "GMT",
      "eventPrevious": "9.80%",
      "eventCurrency": "USD",
      "eventForecast": ""
    },
    {
      "eventDateTime": "2015-12-04T13:30:00",
      "eventActual": "5.0%",
      "eventCountry": "United States",
      "eventExpectedVolatility": "High",
      "eventName": "Unemployment Rate (Nov)",
      "eventTimeZone": "GMT",
      "eventPrevious": "5.0%",
      "eventCurrency": "USD",
      "eventForecast": "5.0%"
    },
    {
      "eventDateTime": "2015-12-04T17:00:00",
      "eventActual": "",
      "eventCountry": "United States",
      "eventExpectedVolatility": "Moderate",
      "eventName": "FOMC Member Dudley Speaks",
      "eventTimeZone": "GMT",
      "eventPrevious": "",
      "eventCurrency": "USD",
      "eventForecast": ""
    },
    {
      "eventDateTime": "2015-12-04T18:00:00",
      "eventActual": "545",
      "eventCountry": "United States",
      "eventExpectedVolatility": "Moderate",
      "eventName": "U.S. Baker Hughes Oil Rig Count",
      "eventTimeZone": "GMT",
      "eventPrevious": "555",
      "eventCurrency": "USD",
      "eventForecast": ""
    },
    {
      "eventDateTime": "2015-12-04T20:30:00",
      "eventActual": "-34.3K",
      "eventCountry": "United States",
      "eventExpectedVolatility": "Low",
      "eventName": "CFTC Copper speculative net positions",
      "eventTimeZone": "GMT",
      "eventPrevious": "-33.8K",
      "eventCurrency": "USD",
      "eventForecast": ""
    },
    {
      "eventDateTime": "2015-12-04T20:30:00",
      "eventActual": "208.5K",
      "eventCountry": "United States",
      "eventExpectedVolatility": "Moderate",
      "eventName": "CFTC Crude Oil speculative net positions",
      "eventTimeZone": "GMT",
      "eventPrevious": "212.0K",
      "eventCurrency": "USD",
      "eventForecast": ""
    },
    {
      "eventDateTime": "2015-12-04T20:30:00",
      "eventActual": "9.8K",
      "eventCountry": "United States",
      "eventExpectedVolatility": "Moderate",
      "eventName": "CFTC Gold speculative net positions",
      "eventTimeZone": "GMT",
      "eventPrevious": "16.3K",
      "eventCurrency": "USD",
      "eventForecast": ""
    },
    {
      "eventDateTime": "2015-12-04T20:30:00",
      "eventActual": "-96.4K",
      "eventCountry": "United States",
      "eventExpectedVolatility": "Moderate",
      "eventName": "CFTC Sandamp:P 500 speculative net positions",
      "eventTimeZone": "GMT",
      "eventPrevious": "-98.1K",
      "eventCurrency": "USD",
      "eventForecast": ""
    },
    {
      "eventDateTime": "2015-12-04T20:30:00",
      "eventActual": "21.9K",
      "eventCountry": "United States",
      "eventExpectedVolatility": "Low",
      "eventName": "CFTC Silver speculative net positions",
      "eventTimeZone": "GMT",
      "eventPrevious": "19.4K",
      "eventCurrency": "USD",
      "eventForecast": ""
    }
  ]}}
