"Westpac Consumer Sentiment";"Australia";"AUD";"2009-09-09T01:00:00";"GMT";"3.70%";"";"5.20%";"Moderate"
"Home Loans (MoM)";"Australia";"AUD";"2009-09-09T01:30:00";"GMT";"0.4%";"-1.0%";"-2.0%";"Moderate"
"Retail Sales (MoM)";"Australia";"AUD";"2009-09-09T01:30:00";"GMT";"-0.8%";"0.6%";"-1.0%";"High"
