{"events": {"event": {
    "eventDateTime": "2016-10-25T06:30:00",
    "eventActual": "44.2%",
    "eventCountry": "New Zealand",
    "eventExpectedVolatility": "Moderate",
    "eventName": "Investing.com NZD/USD Index",
    "eventTimeZone": "GMT",
    "eventPrevious": "40.0%",
    "eventCurrency": "NZD",
    "eventForecast": ""
  }}}
