{"events": {"event": [
    {
      "eventDateTime": "2015-08-31T05:00:00",
      "eventActual": "-4.0%",
      "eventCountry": "Japan",
      "eventExpectedVolatility": "Low",
      "eventName": "Construction Orders (YoY) (Jul)",
      "eventTimeZone": "GMT",
      "eventPrevious": "15.4%",
      "eventCurrency": "JPY",
      "eventForecast": ""
    },
    {
      "eventDateTime": "2015-08-31T05:00:00",
      "eventActual": "7.4%",
      "eventCountry": "Japan",
      "eventExpectedVolatility": "Low",
      "eventName": "Housing Starts (YoY) (Jul)",
      "eventTimeZone": "GMT",
      "eventPrevious": "16.3%",
      "eventCurrency": "JPY",
      "eventForecast": "11.0%"
    },
    {
      "eventDateTime": "2015-08-31T05:30:00",
      "eventActual": "47.5%",
      "eventCountry": "Japan",
      "eventExpectedVolatility": "Moderate",
      "eventName": "Investing.com USD/JPY Index",
      "eventTimeZone": "GMT",
      "eventPrevious": "59.1%",
      "eventCurrency": "JPY",
      "eventForecast": ""
    },
    {
      "eventDateTime": "2015-08-31T23:50:00",
      "eventActual": "5.6%",
      "eventCountry": "Japan",
      "eventExpectedVolatility": "Moderate",
      "eventName": "Capital Spending (YoY) (Q2)",
      "eventTimeZone": "GMT",
      "eventPrevious": "7.3%",
      "eventCurrency": "JPY",
      "eventForecast": "9.0%"
    }
  ]}}
