"MI Inflation Gauge (MoM)";"Australia";"AUD";"2013-05-06T00:30:00";"GMT";"0.2%";"";"0.3%";"Low"
"ANZ Job Advertisements (MoM)";"Australia";"AUD";"2013-05-06T01:30:00";"GMT";"-0.50%";"";"-1.30%";"Low"
"Retail Sales (MoM)";"Australia";"AUD";"2013-05-06T01:30:00";"GMT";"1.3%";"0.2%";"-0.4%";"High"
"AIG Construction Index";"Australia";"AUD";"2013-05-06T23:30:00";"GMT";"39.0";"";"35.2";"Low"
