{"events": {"event": [
    {
      "eventDateTime": "2018-07-09T00:30:00",
      "eventActual": "",
      "eventCountry": "Japan",
      "eventExpectedVolatility": "Moderate",
      "eventName": "BoJ Governor Kuroda Speaks",
      "eventTimeZone": "GMT",
      "eventPrevious": "",
      "eventCurrency": "JPY",
      "eventForecast": ""
    },
    {
      "eventDateTime": "2018-07-09T05:00:00",
      "eventActual": "48.1",
      "eventCountry": "Japan",
      "eventExpectedVolatility": "Low",
      "eventName": "Economy Watchers Current Index (Jun)",
      "eventTimeZone": "GMT",
      "eventPrevious": "47.1",
      "eventCurrency": "JPY",
      "eventForecast": "48.2"
    },
    {
      "eventDateTime": "2018-07-09T19:30:00",
      "eventActual": "-38.7K",
      "eventCountry": "Japan",
      "eventExpectedVolatility": "Moderate",
      "eventName": "CFTC JPY speculative net positions",
      "eventTimeZone": "GMT",
      "eventPrevious": "-34.2K",
      "eventCurrency": "JPY",
      "eventForecast": ""
    },
    {
      "eventDateTime": "2018-07-09T23:50:00",
      "eventActual": "3.2%",
      "eventCountry": "Japan",
      "eventExpectedVolatility": "Low",
      "eventName": "M2 Money Stock (YoY)",
      "eventTimeZone": "GMT",
      "eventPrevious": "3.2%",
      "eventCurrency": "JPY",
      "eventForecast": "3.2%"
    }
  ]}}
