"BoJ Governor Kuroda Speaks";"Japan";"JPY";"2017-05-24T00:00:00";"GMT";" ";"";"";"Moderate"
"Leading Index";"Japan";"JPY";"2017-05-24T05:00:00";"GMT";"105.5";"105.5";"105.5";"Low"
"Foreign Bonds Buying";"Japan";"JPY";"2017-05-24T23:50:00";"GMT";"1,758.3B";"";"778.5B";"Low"
"Foreign Investments in Japanese Stocks";"Japan";"JPY";"2017-05-24T23:50:00";"GMT";"371.9B";"";"-26.4B";"Low"
