"FGV Consumer confidence";"Brazil";"BRL";"2014-07-25T11:00:00";"GMT";"103.80";"102.00";"106.90";"Low"
"Current Account (USD)";"Brazil";"BRL";"2014-07-25T14:00:00";"GMT";"-6.64B";"-3.90B";"-3.35B";"Low"
"Foreign direct investment (USD)";"Brazil";"BRL";"2014-07-25T14:00:00";"GMT";"5.96B";"3.92B";"3.92B";"Low"
