{"events": {"event": {
    "eventDateTime": "2016-01-15T20:30:00",
    "eventActual": "1.5K",
    "eventCountry": "New Zealand",
    "eventExpectedVolatility": "Low",
    "eventName": "CFTC NZD speculative net positions",
    "eventTimeZone": "GMT",
    "eventPrevious": "1.6K",
    "eventCurrency": "NZD",
    "eventForecast": ""
  }}}
