{"events": {"event": {
    "eventDateTime": "2013-09-26T05:00:00",
    "eventActual": "3.5%",
    "eventCountry": "Singapore",
    "eventExpectedVolatility": "Low",
    "eventName": "Industrial Production (YoY)",
    "eventTimeZone": "GMT",
    "eventPrevious": "3.0%",
    "eventCurrency": "SGD",
    "eventForecast": "4.9%"
  }}}
