{"events": {"event": [
    {
      "eventDateTime": "2014-09-05T05:00:00",
      "eventActual": "106.5",
      "eventCountry": "Japan",
      "eventExpectedVolatility": "Low",
      "eventName": "Leading Index",
      "eventTimeZone": "GMT",
      "eventPrevious": "105.9",
      "eventCurrency": "JPY",
      "eventForecast": "107.2"
    },
    {
      "eventDateTime": "2014-09-05T19:30:00",
      "eventActual": "-117.3K",
      "eventCountry": "Japan",
      "eventExpectedVolatility": "Moderate",
      "eventName": "CFTC JPY speculative net positions",
      "eventTimeZone": "GMT",
      "eventPrevious": "-102.9K",
      "eventCurrency": "JPY",
      "eventForecast": ""
    }
  ]}}
