{"events": {"event": [
    {
      "eventDateTime": "2014-10-31T12:30:00",
      "eventActual": "-0.1%",
      "eventCountry": "Canada",
      "eventExpectedVolatility": "High",
      "eventName": "GDP (MoM) (Aug)",
      "eventTimeZone": "GMT",
      "eventPrevious": "0.0%",
      "eventCurrency": "CAD",
      "eventForecast": "0.0%"
    },
    {
      "eventDateTime": "2014-10-31T15:05:00",
      "eventActual": "-0.32B",
      "eventCountry": "Canada",
      "eventExpectedVolatility": "Low",
      "eventName": "Budget Balance (Aug)",
      "eventTimeZone": "GMT",
      "eventPrevious": "-1.23B",
      "eventCurrency": "CAD",
      "eventForecast": ""
    },
    {
      "eventDateTime": "2014-10-31T15:05:00",
      "eventActual": "-1.12B",
      "eventCountry": "Canada",
      "eventExpectedVolatility": "Low",
      "eventName": "Budget Balance (YoY) (Aug)",
      "eventTimeZone": "GMT",
      "eventPrevious": "-0.81B",
      "eventCurrency": "CAD",
      "eventForecast": ""
    },
    {
      "eventDateTime": "2014-10-31T19:30:00",
      "eventActual": "-21.4K",
      "eventCountry": "Canada",
      "eventExpectedVolatility": "Low",
      "eventName": "CFTC CAD speculative net positions",
      "eventTimeZone": "GMT",
      "eventPrevious": "-21.5K",
      "eventCurrency": "CAD",
      "eventForecast": ""
    }
  ]}}
