{"events": {"event": [
    {
      "eventDateTime": "2008-07-02T12:15:00",
      "eventActual": "-79K",
      "eventCountry": "United States",
      "eventExpectedVolatility": "High",
      "eventName": "ADP Nonfarm Employment Change",
      "eventTimeZone": "GMT",
      "eventPrevious": "40K",
      "eventCurrency": "USD",
      "eventForecast": "-20K"
    },
    {
      "eventDateTime": "2008-07-02T14:00:00",
      "eventActual": "0.6%",
      "eventCountry": "United States",
      "eventExpectedVolatility": "Moderate",
      "eventName": "Factory Orders (MoM)",
      "eventTimeZone": "GMT",
      "eventPrevious": "1.1%",
      "eventCurrency": "USD",
      "eventForecast": "0.4%"
    },
    {
      "eventDateTime": "2008-07-02T14:30:00",
      "eventActual": "-2.000M",
      "eventCountry": "United States",
      "eventExpectedVolatility": "High",
      "eventName": "Crude Oil Inventories",
      "eventTimeZone": "GMT",
      "eventPrevious": "0.800M",
      "eventCurrency": "USD",
      "eventForecast": ""
    },
    {
      "eventDateTime": "2008-07-02T15:00:00",
      "eventActual": "",
      "eventCountry": "United States",
      "eventExpectedVolatility": "Low",
      "eventName": "Treasury Secretary Paulson Speaks",
      "eventTimeZone": "GMT",
      "eventPrevious": "",
      "eventCurrency": "USD",
      "eventForecast": ""
    }
  ]}}
