{"events": {"event": [
    {
      "eventDateTime": "2017-12-20T02:00:00",
      "eventActual": "9.1%",
      "eventCountry": "New Zealand",
      "eventExpectedVolatility": "Low",
      "eventName": "Credit Card Spending (YoY)",
      "eventTimeZone": "GMT",
      "eventPrevious": "3.0%",
      "eventCurrency": "NZD",
      "eventForecast": ""
    },
    {
      "eventDateTime": "2017-12-20T21:45:00",
      "eventActual": "0.6%",
      "eventCountry": "New Zealand",
      "eventExpectedVolatility": "High",
      "eventName": "GDP (QoQ) (Q3)",
      "eventTimeZone": "GMT",
      "eventPrevious": "1.0%",
      "eventCurrency": "NZD",
      "eventForecast": "0.5%"
    },
    {
      "eventDateTime": "2017-12-20T21:45:00",
      "eventActual": "2.7%",
      "eventCountry": "New Zealand",
      "eventExpectedVolatility": "Low",
      "eventName": "GDP (YoY) (Q3)",
      "eventTimeZone": "GMT",
      "eventPrevious": "2.8%",
      "eventCurrency": "NZD",
      "eventForecast": "2.3%"
    },
    {
      "eventDateTime": "2017-12-20T21:45:00",
      "eventActual": "3.0%",
      "eventCountry": "New Zealand",
      "eventExpectedVolatility": "Low",
      "eventName": "GDP Annual Average (Q3)",
      "eventTimeZone": "GMT",
      "eventPrevious": "3.3%",
      "eventCurrency": "NZD",
      "eventForecast": "2.5%"
    },
    {
      "eventDateTime": "2017-12-20T21:45:00",
      "eventActual": "0.9%",
      "eventCountry": "New Zealand",
      "eventExpectedVolatility": "Low",
      "eventName": "GDP Expenditure (QoQ) (Q3)",
      "eventTimeZone": "GMT",
      "eventPrevious": "1.4%",
      "eventCurrency": "NZD",
      "eventForecast": "0.6%"
    }
  ]}}
