"RBI Monetary and Credit Information Review";"India";"INR";"2019-11-29T04:30:00";"GMT";" ";"";"";"Moderate"
"Federal Fiscal Deficit (Oct)";"India";"INR";"2019-11-29T10:00:00";"GMT";"6,515.54B";"";"7,204.45B";"Low"
"FX Reserves, USD";"India";"INR";"2019-11-29T11:30:00";"GMT";"448.25B";"";"448.60B";"Low"
"Infrastructure Output (YoY) (Oct)";"India";"INR";"2019-11-29T11:30:00";"GMT";"-5.2%";"";"-5.8%";"Low"
"GDP Quarterly (YoY) (Q2)";"India";"INR";"2019-11-29T12:00:00";"GMT";"5.0%";"4.7%";"4.5%";"Moderate"
