{"events": {"event": {
    "eventDateTime": "2001-01-22T09:00:00",
    "eventActual": "96.5",
    "eventCountry": "Germany",
    "eventExpectedVolatility": "High",
    "eventName": "German Ifo Business Climate Index",
    "eventTimeZone": "GMT",
    "eventPrevious": "96.8",
    "eventCurrency": "EUR",
    "eventForecast": "96.8"
  }}}
