{"events": {"event": {
    "eventDateTime": "2013-08-13T23:00:00",
    "eventActual": "3.2%",
    "eventCountry": "South Korea",
    "eventExpectedVolatility": "Low",
    "eventName": "Unemployment Rate",
    "eventTimeZone": "GMT",
    "eventPrevious": "3.2%",
    "eventCurrency": "KRW",
    "eventForecast": "3.2%"
  }}}
