{"events": {"event": {
    "eventDateTime": "2013-06-20T08:30:00",
    "eventActual": "3.90%",
    "eventCountry": "Hong Kong",
    "eventExpectedVolatility": "Low",
    "eventName": "CPI (YoY)",
    "eventTimeZone": "GMT",
    "eventPrevious": "4.00%",
    "eventCurrency": "HKD",
    "eventForecast": "3.90%"
  }}}
