{"events": {"event": {
    "eventDateTime": "2018-07-08T08:30:00",
    "eventActual": "",
    "eventCountry": "Euro Zone",
    "eventExpectedVolatility": "Moderate",
    "eventName": "ECB's Coeure Speaks",
    "eventTimeZone": "GMT",
    "eventPrevious": "",
    "eventCurrency": "EUR",
    "eventForecast": ""
  }}}
