{"events": {"event": [
    {
      "eventDateTime": "2019-07-01T00:30:00",
      "eventActual": "49.3",
      "eventCountry": "Japan",
      "eventExpectedVolatility": "Low",
      "eventName": "Manufacturing PMI (Jun)",
      "eventTimeZone": "GMT",
      "eventPrevious": "49.5",
      "eventCurrency": "JPY",
      "eventForecast": "49.5"
    },
    {
      "eventDateTime": "2019-07-01T05:00:00",
      "eventActual": "38.7",
      "eventCountry": "Japan",
      "eventExpectedVolatility": "Low",
      "eventName": "Household Confidence (Jun)",
      "eventTimeZone": "GMT",
      "eventPrevious": "39.4",
      "eventCurrency": "JPY",
      "eventForecast": "39.2"
    },
    {
      "eventDateTime": "2019-07-01T05:30:00",
      "eventActual": "53.8%",
      "eventCountry": "Japan",
      "eventExpectedVolatility": "Moderate",
      "eventName": "Investing.com USD/JPY Index",
      "eventTimeZone": "GMT",
      "eventPrevious": "55.0%",
      "eventCurrency": "JPY",
      "eventForecast": ""
    },
    {
      "eventDateTime": "2019-07-01T23:50:00",
      "eventActual": "4.0%",
      "eventCountry": "Japan",
      "eventExpectedVolatility": "Low",
      "eventName": "Monetary Base (YoY)",
      "eventTimeZone": "GMT",
      "eventPrevious": "3.6%",
      "eventCurrency": "JPY",
      "eventForecast": "3.4%"
    }
  ]}}
