{"events": {"event": [
    {
      "eventDateTime": "2008-02-25T09:00:00",
      "eventActual": "0.1%",
      "eventCountry": "Italy",
      "eventExpectedVolatility": "Low",
      "eventName": "Italian Retail Sales (MoM)",
      "eventTimeZone": "GMT",
      "eventPrevious": "-0.3%",
      "eventCurrency": "EUR",
      "eventForecast": "-0.1%"
    },
    {
      "eventDateTime": "2008-02-25T18:50:00",
      "eventActual": "0.00",
      "eventCountry": "Euro Zone",
      "eventExpectedVolatility": "High",
      "eventName": "ECB President Trichet Speaks",
      "eventTimeZone": "GMT",
      "eventPrevious": "0.00",
      "eventCurrency": "EUR",
      "eventForecast": "0.00"
    }
  ]}}
