{"events": {"event": [
    {
      "eventDateTime": "2011-07-27T01:30:00",
      "eventActual": "0.9%",
      "eventCountry": "Australia",
      "eventExpectedVolatility": "High",
      "eventName": "CPI (QoQ)",
      "eventTimeZone": "GMT",
      "eventPrevious": "1.6%",
      "eventCurrency": "AUD",
      "eventForecast": "0.7%"
    },
    {
      "eventDateTime": "2011-07-27T01:30:00",
      "eventActual": "0.9%",
      "eventCountry": "Australia",
      "eventExpectedVolatility": "Moderate",
      "eventName": "Trimmed Mean CPI (QoQ)",
      "eventTimeZone": "GMT",
      "eventPrevious": "0.9%",
      "eventCurrency": "AUD",
      "eventForecast": "0.7%"
    }
  ]}}
