"BoE FPC Meeting Minutes";"United Kingdom";"GBP";"2017-07-04T08:30:00";"GMT";" ";"";"";"Low"
"Construction PMI (Jun)";"United Kingdom";"GBP";"2017-07-04T08:30:00";"GMT";"56.0";"55.0";"54.8";"High"
"BRC Shop Price Index (YoY)";"United Kingdom";"GBP";"2017-07-04T23:01:00";"GMT";"-0.4%";"";"-0.3%";"Low"
