"MBA 30-Year Mortgage Rate";"United States";"USD";"2015-05-13T11:00:00";"GMT";"3.93%";"";"4.00%";"Low"
"MBA Mortgage Applications (WoW)";"United States";"USD";"2015-05-13T11:00:00";"GMT";"-4.6%";"";"-3.5%";"Low"
"MBA Purchase Index";"United States";"USD";"2015-05-13T11:00:00";"GMT";"207.1";"";"206.7";"Low"
"Mortgage Market Index";"United States";"USD";"2015-05-13T11:00:00";"GMT";"427.3";"";"412.5";"Low"
"Mortgage Refinance Index";"United States";"USD";"2015-05-13T11:00:00";"GMT";"1,697.2";"";"1,596.5";"Low"
"Core Retail Sales (MoM) (Apr)";"United States";"USD";"2015-05-13T12:30:00";"GMT";"0.7%";"0.5%";"0.1%";"High"
"Export Price Index (MoM) (Apr)";"United States";"USD";"2015-05-13T12:30:00";"GMT";"0.1%";"0.1%";"-0.7%";"Moderate"
"Import Price Index (MoM) (Apr)";"United States";"USD";"2015-05-13T12:30:00";"GMT";"-0.2%";"0.3%";"-0.3%";"Moderate"
"Retail Control (MoM) (Apr)";"United States";"USD";"2015-05-13T12:30:00";"GMT";"0.5%";"0.5%";"0.0%";"Low"
"Retail Sales (MoM) (Apr)";"United States";"USD";"2015-05-13T12:30:00";"GMT";"1.1%";"0.2%";"0.0%";"High"
"Retail Sales Ex Gas/Autos (MoM) (Apr)";"United States";"USD";"2015-05-13T12:30:00";"GMT";"0.7%";"";"0.2%";"Low"
"Business Inventories (MoM) (Mar)";"United States";"USD";"2015-05-13T14:00:00";"GMT";"0.2%";"0.2%";"0.1%";"Moderate"
"Crude Oil Inventories";"United States";"USD";"2015-05-13T14:30:00";"GMT";"-3.882M";"0.386M";"-2.191M";"High"
"EIA Weekly Distillates Stocks";"United States";"USD";"2015-05-13T14:30:00";"GMT";"1.503M";"0.829M";"-2.503M";"Low"
"Gasoline Inventories";"United States";"USD";"2015-05-13T14:30:00";"GMT";"0.401M";"0.429M";"-1.142M";"Low"
"10-Year Note Auction";"United States";"USD";"2015-05-13T17:00:00";"GMT";"1.925%";"";"2.237%";"Moderate"
