{"events": {"event": [
    {
      "eventDateTime": "2013-07-05T12:30:00",
      "eventActual": "0.4%",
      "eventCountry": "United States",
      "eventExpectedVolatility": "Moderate",
      "eventName": "Average Hourly Earnings (MoM)",
      "eventTimeZone": "GMT",
      "eventPrevious": "0.1%",
      "eventCurrency": "USD",
      "eventForecast": "0.2%"
    },
    {
      "eventDateTime": "2013-07-05T12:30:00",
      "eventActual": "34.5",
      "eventCountry": "United States",
      "eventExpectedVolatility": "Low",
      "eventName": "Average Weekly Hours",
      "eventTimeZone": "GMT",
      "eventPrevious": "34.5",
      "eventCurrency": "USD",
      "eventForecast": "34.5"
    },
    {
      "eventDateTime": "2013-07-05T12:30:00",
      "eventActual": "195K",
      "eventCountry": "United States",
      "eventExpectedVolatility": "High",
      "eventName": "Nonfarm Payrolls",
      "eventTimeZone": "GMT",
      "eventPrevious": "195K",
      "eventCurrency": "USD",
      "eventForecast": "165K"
    },
    {
      "eventDateTime": "2013-07-05T12:30:00",
      "eventActual": "202K",
      "eventCountry": "United States",
      "eventExpectedVolatility": "Moderate",
      "eventName": "Private Nonfarm Payrolls",
      "eventTimeZone": "GMT",
      "eventPrevious": "207K",
      "eventCurrency": "USD",
      "eventForecast": "175K"
    },
    {
      "eventDateTime": "2013-07-05T12:30:00",
      "eventActual": "14.20%",
      "eventCountry": "United States",
      "eventExpectedVolatility": "Low",
      "eventName": "U6 Unemployment Rate (Jun)",
      "eventTimeZone": "GMT",
      "eventPrevious": "13.80%",
      "eventCurrency": "USD",
      "eventForecast": ""
    },
    {
      "eventDateTime": "2013-07-05T12:30:00",
      "eventActual": "7.6%",
      "eventCountry": "United States",
      "eventExpectedVolatility": "High",
      "eventName": "Unemployment Rate",
      "eventTimeZone": "GMT",
      "eventPrevious": "7.6%",
      "eventCurrency": "USD",
      "eventForecast": "7.5%"
    },
    {
      "eventDateTime": "2013-07-05T19:30:00",
      "eventActual": "20.8K",
      "eventCountry": "United States",
      "eventExpectedVolatility": "Moderate",
      "eventName": "CFTC Gold speculative net positions",
      "eventTimeZone": "GMT",
      "eventPrevious": "34.2K",
      "eventCurrency": "USD",
      "eventForecast": ""
    },
    {
      "eventDateTime": "2013-07-05T19:30:00",
      "eventActual": "4.6K",
      "eventCountry": "United States",
      "eventExpectedVolatility": "Low",
      "eventName": "CFTC Silver speculative net positions",
      "eventTimeZone": "GMT",
      "eventPrevious": "0.8K",
      "eventCurrency": "USD",
      "eventForecast": ""
    },
    {
      "eventDateTime": "2013-07-05T20:30:00",
      "eventActual": "289.6k",
      "eventCountry": "United States",
      "eventExpectedVolatility": "Moderate",
      "eventName": "CFTC Crude Oil speculative net positions",
      "eventTimeZone": "GMT",
      "eventPrevious": "274.5k",
      "eventCurrency": "USD",
      "eventForecast": ""
    }
  ]}}
