{"events": {"event": [
    {
      "eventDateTime": "2018-06-05T01:30:00",
      "eventActual": "-10.5B",
      "eventCountry": "Australia",
      "eventExpectedVolatility": "Moderate",
      "eventName": "Current Account (Q1)",
      "eventTimeZone": "GMT",
      "eventPrevious": "-14.7B",
      "eventCurrency": "AUD",
      "eventForecast": "-10.0B"
    },
    {
      "eventDateTime": "2018-06-05T01:30:00",
      "eventActual": "0.3%",
      "eventCountry": "Australia",
      "eventExpectedVolatility": "Low",
      "eventName": "Net Exports Contribution (Q1)",
      "eventTimeZone": "GMT",
      "eventPrevious": "-0.5%",
      "eventCurrency": "AUD",
      "eventForecast": "0.5%"
    },
    {
      "eventDateTime": "2018-06-05T04:30:00",
      "eventActual": "1.50%",
      "eventCountry": "Australia",
      "eventExpectedVolatility": "High",
      "eventName": "RBA Interest Rate Decision (Jun)",
      "eventTimeZone": "GMT",
      "eventPrevious": "1.50%",
      "eventCurrency": "AUD",
      "eventForecast": "1.50%"
    },
    {
      "eventDateTime": "2018-06-05T04:30:00",
      "eventActual": "",
      "eventCountry": "Australia",
      "eventExpectedVolatility": "High",
      "eventName": "RBA Rate Statement",
      "eventTimeZone": "GMT",
      "eventPrevious": "",
      "eventCurrency": "AUD",
      "eventForecast": ""
    },
    {
      "eventDateTime": "2018-06-05T23:00:00",
      "eventActual": "",
      "eventCountry": "Australia",
      "eventExpectedVolatility": "Moderate",
      "eventName": "RBA Assist Gov Bullock Speaks",
      "eventTimeZone": "GMT",
      "eventPrevious": "",
      "eventCurrency": "AUD",
      "eventForecast": ""
    }
  ]}}
