{"events": {"event": [
    {
      "eventDateTime": "2014-06-12T01:00:00",
      "eventActual": "4.0%",
      "eventCountry": "Australia",
      "eventExpectedVolatility": "Low",
      "eventName": "MI Inflation Expectations",
      "eventTimeZone": "GMT",
      "eventPrevious": "4.4%",
      "eventCurrency": "AUD",
      "eventForecast": ""
    },
    {
      "eventDateTime": "2014-06-12T01:30:00",
      "eventActual": "-4.8K",
      "eventCountry": "Australia",
      "eventExpectedVolatility": "High",
      "eventName": "Employment Change",
      "eventTimeZone": "GMT",
      "eventPrevious": "10.3K",
      "eventCurrency": "AUD",
      "eventForecast": "10.0K"
    },
    {
      "eventDateTime": "2014-06-12T01:30:00",
      "eventActual": "22.2K",
      "eventCountry": "Australia",
      "eventExpectedVolatility": "Moderate",
      "eventName": "Full Employment Change",
      "eventTimeZone": "GMT",
      "eventPrevious": "14.2K",
      "eventCurrency": "AUD",
      "eventForecast": ""
    },
    {
      "eventDateTime": "2014-06-12T01:30:00",
      "eventActual": "64.6%",
      "eventCountry": "Australia",
      "eventExpectedVolatility": "Low",
      "eventName": "Participation Rate",
      "eventTimeZone": "GMT",
      "eventPrevious": "64.7%",
      "eventCurrency": "AUD",
      "eventForecast": "64.7%"
    },
    {
      "eventDateTime": "2014-06-12T01:30:00",
      "eventActual": "5.8%",
      "eventCountry": "Australia",
      "eventExpectedVolatility": "Moderate",
      "eventName": "Unemployment Rate",
      "eventTimeZone": "GMT",
      "eventPrevious": "5.8%",
      "eventCurrency": "AUD",
      "eventForecast": "5.9%"
    }
  ]}}
