{"events": {"event": {
    "eventDateTime": "2010-06-11T19:30:00",
    "eventActual": "-12.5K",
    "eventCountry": "Japan",
    "eventExpectedVolatility": "Moderate",
    "eventName": "CFTC JPY speculative net positions",
    "eventTimeZone": "GMT",
    "eventPrevious": "-6.5K",
    "eventCurrency": "JPY",
    "eventForecast": ""
  }}}
