{"events": {"event": [
    {
      "eventDateTime": "2018-12-09T23:50:00",
      "eventActual": "1.21T",
      "eventCountry": "Japan",
      "eventExpectedVolatility": "Moderate",
      "eventName": "Adjusted Current Account",
      "eventTimeZone": "GMT",
      "eventPrevious": "1.33T",
      "eventCurrency": "JPY",
      "eventForecast": "1.29T"
    },
    {
      "eventDateTime": "2018-12-09T23:50:00",
      "eventActual": "2.1%",
      "eventCountry": "Japan",
      "eventExpectedVolatility": "Low",
      "eventName": "Bank Lending (YoY) (Nov)",
      "eventTimeZone": "GMT",
      "eventPrevious": "2.2%",
      "eventCurrency": "JPY",
      "eventForecast": "2.2%"
    },
    {
      "eventDateTime": "2018-12-09T23:50:00",
      "eventActual": "1.310T",
      "eventCountry": "Japan",
      "eventExpectedVolatility": "Moderate",
      "eventName": "Current Account n.s.a. (Oct)",
      "eventTimeZone": "GMT",
      "eventPrevious": "1.822T",
      "eventCurrency": "JPY",
      "eventForecast": "1.384T"
    },
    {
      "eventDateTime": "2018-12-09T23:50:00",
      "eventActual": "-0.6%",
      "eventCountry": "Japan",
      "eventExpectedVolatility": "High",
      "eventName": "GDP (QoQ) (Q3)",
      "eventTimeZone": "GMT",
      "eventPrevious": "-0.3%",
      "eventCurrency": "JPY",
      "eventForecast": "-0.5%"
    },
    {
      "eventDateTime": "2018-12-09T23:50:00",
      "eventActual": "-2.5%",
      "eventCountry": "Japan",
      "eventExpectedVolatility": "Moderate",
      "eventName": "GDP (YoY) (Q3)",
      "eventTimeZone": "GMT",
      "eventPrevious": "-1.2%",
      "eventCurrency": "JPY",
      "eventForecast": "-1.9%"
    },
    {
      "eventDateTime": "2018-12-09T23:50:00",
      "eventActual": "-2.8%",
      "eventCountry": "Japan",
      "eventExpectedVolatility": "Low",
      "eventName": "GDP Capital Expenditure (QoQ) (Q3)",
      "eventTimeZone": "GMT",
      "eventPrevious": "-0.2%",
      "eventCurrency": "JPY",
      "eventForecast": "-1.6%"
    },
    {
      "eventDateTime": "2018-12-09T23:50:00",
      "eventActual": "-0.1%",
      "eventCountry": "Japan",
      "eventExpectedVolatility": "Low",
      "eventName": "GDP External Demand (QoQ) (Q3)",
      "eventTimeZone": "GMT",
      "eventPrevious": "-0.1%",
      "eventCurrency": "JPY",
      "eventForecast": "-0.1%"
    },
    {
      "eventDateTime": "2018-12-09T23:50:00",
      "eventActual": "-0.3%",
      "eventCountry": "Japan",
      "eventExpectedVolatility": "Low",
      "eventName": "GDP Price Index (YoY)",
      "eventTimeZone": "GMT",
      "eventPrevious": "-0.3%",
      "eventCurrency": "JPY",
      "eventForecast": "-0.3%"
    },
    {
      "eventDateTime": "2018-12-09T23:50:00",
      "eventActual": "-0.2%",
      "eventCountry": "Japan",
      "eventExpectedVolatility": "Low",
      "eventName": "GDP Private Consumption (QoQ) (Q3)",
      "eventTimeZone": "GMT",
      "eventPrevious": "-0.1%",
      "eventCurrency": "JPY",
      "eventForecast": "-0.1%"
    }
  ]}}
