{"events": {"event": {
    "eventDateTime": "2014-06-16T04:30:00",
    "eventActual": "43.7%",
    "eventCountry": "New Zealand",
    "eventExpectedVolatility": "Moderate",
    "eventName": "Investing.com NZD/USD Index",
    "eventTimeZone": "GMT",
    "eventPrevious": "53.5%",
    "eventCurrency": "NZD",
    "eventForecast": ""
  }}}
