{"events": {"event": [
    {
      "eventDateTime": "2017-07-06T06:00:00",
      "eventActual": "1.0%",
      "eventCountry": "Germany",
      "eventExpectedVolatility": "Moderate",
      "eventName": "German Factory Orders (MoM) (May)",
      "eventTimeZone": "GMT",
      "eventPrevious": "-2.2%",
      "eventCurrency": "EUR",
      "eventForecast": "2.0%"
    },
    {
      "eventDateTime": "2017-07-06T08:10:00",
      "eventActual": "53.2",
      "eventCountry": "Euro Zone",
      "eventExpectedVolatility": "Low",
      "eventName": "Retail PMI",
      "eventTimeZone": "GMT",
      "eventPrevious": "52.0",
      "eventCurrency": "EUR",
      "eventForecast": ""
    },
    {
      "eventDateTime": "2017-07-06T08:50:00",
      "eventActual": "2.804%",
      "eventCountry": "Spain",
      "eventExpectedVolatility": "Low",
      "eventName": "Spanish 30-Year Obligacion Auction",
      "eventTimeZone": "GMT",
      "eventPrevious": "2.957%",
      "eventCurrency": "EUR",
      "eventForecast": ""
    },
    {
      "eventDateTime": "2017-07-06T08:50:00",
      "eventActual": "0.337%",
      "eventCountry": "Spain",
      "eventExpectedVolatility": "Low",
      "eventName": "Spanish 5-Year Bonos Auction",
      "eventTimeZone": "GMT",
      "eventPrevious": "0.215%",
      "eventCurrency": "EUR",
      "eventForecast": ""
    },
    {
      "eventDateTime": "2017-07-06T09:00:00",
      "eventActual": "0.82%",
      "eventCountry": "France",
      "eventExpectedVolatility": "Low",
      "eventName": "French 10-Year OAT Auction",
      "eventTimeZone": "GMT",
      "eventPrevious": "0.72%",
      "eventCurrency": "EUR",
      "eventForecast": ""
    },
    {
      "eventDateTime": "2017-07-06T10:00:00",
      "eventActual": "",
      "eventCountry": "Euro Zone",
      "eventExpectedVolatility": "Moderate",
      "eventName": "ECB's Praet Speaks",
      "eventTimeZone": "GMT",
      "eventPrevious": "",
      "eventCurrency": "EUR",
      "eventForecast": ""
    },
    {
      "eventDateTime": "2017-07-06T11:30:00",
      "eventActual": "",
      "eventCountry": "Euro Zone",
      "eventExpectedVolatility": "High",
      "eventName": "ECB Publishes Account of Monetary Policy Meeting",
      "eventTimeZone": "GMT",
      "eventPrevious": "",
      "eventCurrency": "EUR",
      "eventForecast": ""
    }
  ]}}
