"ANZ Business Confidence (Jul)";"New Zealand";"NZD";"2015-07-31T01:00:00";"GMT";"-2.3%";"";"-15.3%";"Moderate"
"NBNZ Own Activity (Jul)";"New Zealand";"NZD";"2015-07-31T01:00:00";"GMT";"23.6%";"";"19.0%";"Low"
"CFTC NZD speculative net positions";"New Zealand";"NZD";"2015-07-31T19:30:00";"GMT";"-16.0K";"";"-12.8K";"Low"
