"Auto Production (MoM) (Jan)";"Brazil";"BRL";"2005-02-01T09:00:00";"GMT";"-6.86%";"";"-13.84%";"Low"
"Auto Sales (MoM) (Jan)";"Brazil";"BRL";"2005-02-01T09:00:00";"GMT";"28.22%";"";"-40.08%";"Low"
"Bank lending (MoM) (Jan)";"Brazil";"BRL";"2005-02-01T09:00:00";"GMT";"1.10%";"";"1.40%";"Low"
"Budget Balance (Jan)";"Brazil";"BRL";"2005-02-01T09:00:00";"GMT";"-14.61B";"";"0.59B";"Low"
"Budget Surplus (Jan)";"Brazil";"BRL";"2005-02-01T09:00:00";"GMT";"-3.21B";"";"12.79B";"Low"
"CAGED Net Payroll Jobs (Jan)";"Brazil";"BRL";"2005-02-01T09:00:00";"GMT";"-352.00K";"";"116.00K";"Moderate"
"CNI Factory Utilization (Jan)";"Brazil";"BRL";"2005-02-01T09:00:00";"GMT";"82.60%";"";"82.60%";"Low"
"CPI (MoM) (Jan)";"Brazil";"BRL";"2005-02-01T09:00:00";"GMT";"0.86%";"";"0.58%";"Moderate"
"CPI (YoY) (Jan)";"Brazil";"BRL";"2005-02-01T09:00:00";"GMT";"7.60%";"";"7.41%";"Moderate"
"Debt-to-GDP ratio (Jan)";"Brazil";"BRL";"2005-02-01T09:00:00";"GMT";"50.20%";"";"49.50%";"Low"
"Federal Tax Revenue (Jan)";"Brazil";"BRL";"2005-02-01T09:00:00";"GMT";"46.00B";"";"40.00B";"Low"
"Foreign direct investment (USD) (Jan)";"Brazil";"BRL";"2005-02-01T09:00:00";"GMT";"3.15B";"";"1.20B";"Low"
"IBC-Br Economic Activity (Jan)";"Brazil";"BRL";"2005-02-01T09:00:00";"GMT";"0.14%";"";"0.34%";"Low"
"IGP-DI Inflation Index (MoM) (Jan)";"Brazil";"BRL";"2005-02-01T09:00:00";"GMT";"0.52%";"";"0.33%";"Low"
"IGP-M Inflation Index (MoM) (Jan)";"Brazil";"BRL";"2005-02-01T09:00:00";"GMT";"0.74%";"";"0.39%";"Low"
"IPC-Fipe Inflation Index (MoM) (Jan)";"Brazil";"BRL";"2005-02-01T09:00:00";"GMT";"0.67%";"";"0.56%";"Moderate"
"Industrial Production (MoM) (Jan)";"Brazil";"BRL";"2005-02-01T09:00:00";"GMT";"0.57%";"";"0.57%";"Low"
"Industrial Production (YoY) (Jan)";"Brazil";"BRL";"2005-02-01T09:00:00";"GMT";"8.73%";"";"5.47%";"Moderate"
"Mid-Month CPI (MoM) (Jan)";"Brazil";"BRL";"2005-02-01T09:00:00";"GMT";"0.84%";"";"0.68%";"Low"
"Mid-Month CPI (YoY) (Jan)";"Brazil";"BRL";"2005-02-01T09:00:00";"GMT";"7.54%";"";"7.54%";"Low"
"Retail Sales (MoM) (Jan)";"Brazil";"BRL";"2005-02-01T09:00:00";"GMT";"2.63%";"";"-1.92%";"Moderate"
"Retail Sales (YoY) (Jan)";"Brazil";"BRL";"2005-02-01T09:00:00";"GMT";"11.40%";"";"6.26%";"Moderate"
"Trade Balance (Jan)";"Brazil";"BRL";"2005-02-01T09:00:00";"GMT";"3.53B";"";"2.19B";"Low"
"Unemployment Rate (Jan)";"Brazil";"BRL";"2005-02-01T09:00:00";"GMT";"9.60%";"";"10.20%";"Moderate"
