{"events": {"event": [
    {
      "eventDateTime": "2012-07-30T07:00:00",
      "eventActual": "-0.4%",
      "eventCountry": "Spain",
      "eventExpectedVolatility": "Moderate",
      "eventName": "Spanish GDP (QoQ)",
      "eventTimeZone": "GMT",
      "eventPrevious": "-0.3%",
      "eventCurrency": "EUR",
      "eventForecast": "-0.4%"
    },
    {
      "eventDateTime": "2012-07-30T08:10:00",
      "eventActual": "46.40",
      "eventCountry": "Euro Zone",
      "eventExpectedVolatility": "Low",
      "eventName": "Retail PMI",
      "eventTimeZone": "GMT",
      "eventPrevious": "48.30",
      "eventCurrency": "EUR",
      "eventForecast": ""
    },
    {
      "eventDateTime": "2012-07-30T09:20:00",
      "eventActual": "5.96%",
      "eventCountry": "Italy",
      "eventExpectedVolatility": "Moderate",
      "eventName": "Italian 10-Year BTP Auction",
      "eventTimeZone": "GMT",
      "eventPrevious": "5.82%",
      "eventCurrency": "EUR",
      "eventForecast": ""
    },
    {
      "eventDateTime": "2012-07-30T09:20:00",
      "eventActual": "5.29%",
      "eventCountry": "Italy",
      "eventExpectedVolatility": "Low",
      "eventName": "Italian 5-Year BTP Auction",
      "eventTimeZone": "GMT",
      "eventPrevious": "5.84%",
      "eventCurrency": "EUR",
      "eventForecast": ""
    },
    {
      "eventDateTime": "2012-07-30T09:30:00",
      "eventActual": "87.9",
      "eventCountry": "Euro Zone",
      "eventExpectedVolatility": "Low",
      "eventName": "Business and Consumer Survey",
      "eventTimeZone": "GMT",
      "eventPrevious": "89.9",
      "eventCurrency": "EUR",
      "eventForecast": "88.7"
    },
    {
      "eventDateTime": "2012-07-30T09:30:00",
      "eventActual": "-22.0",
      "eventCountry": "Euro Zone",
      "eventExpectedVolatility": "Low",
      "eventName": "Consumer Confidence",
      "eventTimeZone": "GMT",
      "eventPrevious": "-21.6",
      "eventCurrency": "EUR",
      "eventForecast": "-22.0"
    }
  ]}}
