"Import Price Index (MoM)";"United States";"USD";"2009-09-11T12:30:00";"GMT";"-0.7%";"1.0%";"2.0%";"Moderate"
"Michigan Consumer Sentiment";"United States";"USD";"2009-09-11T13:55:00";"GMT";"65.7";"67.1";"70.2";"Moderate"
"Wholesale Inventories (MoM)";"United States";"USD";"2009-09-11T14:00:00";"GMT";"-2.1%";"-1.0%";"-1.4%";"Low"
"U.S. Baker Hughes Oil Rig Count";"United States";"USD";"2009-09-11T17:00:00";"GMT";"295";"";"288";"Moderate"
"Federal Budget Balance";"United States";"USD";"2009-09-11T18:00:00";"GMT";"-180.7B";"-156.0B";"-111.4B";"Moderate"
"CFTC Gold speculative net positions";"United States";"USD";"2009-09-11T19:30:00";"GMT";"184.5K";"";"224.7K";"Moderate"
"CFTC Silver speculative net positions";"United States";"USD";"2009-09-11T19:30:00";"GMT";"34.4K";"";"40.9K";"Low"
"CFTC Crude Oil speculative net positions";"United States";"USD";"2009-09-11T20:30:00";"GMT";"28.6k";"";"33.1k";"Moderate"
"Treasury Secretary Geithner Speaks";"United States";"USD";"2009-09-11T20:45:00";"GMT";" ";"";"";"Moderate"
