"Core PCE Price Index (MoM)";"United States";"USD";"2011-04-29T12:30:00";"GMT";"0.2%";"0.1%";"0.1%";"Moderate"
"Employment Cost Index (QoQ)";"United States";"USD";"2011-04-29T12:30:00";"GMT";"0.4%";"0.5%";"0.6%";"Moderate"
"Personal Income (MoM)";"United States";"USD";"2011-04-29T12:30:00";"GMT";"0.4%";"0.4%";"0.5%";"Low"
"Personal Spending (MoM)";"United States";"USD";"2011-04-29T12:30:00";"GMT";"0.9%";"0.5%";"0.6%";"Moderate"
"Chicago PMI";"United States";"USD";"2011-04-29T13:45:00";"GMT";"70.6";"67.1";"67.6";"Moderate"
"Michigan Consumer Sentiment";"United States";"USD";"2011-04-29T13:55:00";"GMT";"69.6";"70.0";"69.8";"Moderate"
"Michigan Inflation Expectations";"United States";"USD";"2011-04-29T13:55:00";"GMT";"4.6%";"";"4.6%";"Low"
"Fed Chairman Bernanke Speaks";"United States";"USD";"2011-04-29T16:30:00";"GMT";" ";"";"";"High"
"U.S. Baker Hughes Oil Rig Count";"United States";"USD";"2011-04-29T17:00:00";"GMT";"913";"";"926";"Moderate"
"CFTC Gold speculative net positions";"United States";"USD";"2011-04-29T19:30:00";"GMT";"214.9K";"";"201.3K";"Moderate"
"CFTC Silver speculative net positions";"United States";"USD";"2011-04-29T19:30:00";"GMT";"33.8K";"";"25.0K";"Low"
"CFTC Crude Oil speculative net positions";"United States";"USD";"2011-04-29T20:30:00";"GMT";"254.0k";"";"258.1k";"Moderate"
