{"events": {"event": [
    {
      "eventDateTime": "2017-12-01T08:30:00",
      "eventActual": "65.1",
      "eventCountry": "Switzerland",
      "eventExpectedVolatility": "Moderate",
      "eventName": "procure.ch PMI (Nov)",
      "eventTimeZone": "GMT",
      "eventPrevious": "61.9",
      "eventCurrency": "CHF",
      "eventForecast": "62.6"
    },
    {
      "eventDateTime": "2017-12-01T20:30:00",
      "eventActual": "-30.2K",
      "eventCountry": "Switzerland",
      "eventExpectedVolatility": "Low",
      "eventName": "CFTC CHF speculative net positions",
      "eventTimeZone": "GMT",
      "eventPrevious": "-29.7K",
      "eventCurrency": "CHF",
      "eventForecast": ""
    }
  ]}}
