{"events": {"event": {
    "eventDateTime": "2016-01-26T23:30:00",
    "eventActual": "-0.3%",
    "eventCountry": "Australia",
    "eventExpectedVolatility": "Low",
    "eventName": "MI Leading Index (MoM)",
    "eventTimeZone": "GMT",
    "eventPrevious": "-0.3%",
    "eventCurrency": "AUD",
    "eventForecast": ""
  }}}
