"German Exports (MoM) (Jul)";"Germany";"EUR";"2018-09-07T06:00:00";"GMT";"0.1%";"0.2%";"-0.9%";"Low"
"German Imports (MoM) (Jul)";"Germany";"EUR";"2018-09-07T06:00:00";"GMT";"1.3%";"0.2%";"2.8%";"Low"
"German Industrial Production (MoM) (Jul)";"Germany";"EUR";"2018-09-07T06:00:00";"GMT";"-0.7%";"0.2%";"-1.1%";"Moderate"
"German Trade Balance (Jul)";"Germany";"EUR";"2018-09-07T06:00:00";"GMT";"19.3B";"19.0B";"15.8B";"Moderate"
"French Current Account (Jul)";"France";"EUR";"2018-09-07T06:45:00";"GMT";"-2.30B";"";"0.50B";"Low"
"French Exports (Jul)";"France";"EUR";"2018-09-07T06:45:00";"GMT";"40.8B";"";"41.4B";"Low"
"French Government Budget Balance (Jul)";"France";"EUR";"2018-09-07T06:45:00";"GMT";"-58.9B";"";"-82.8B";"Low"
"French Imports (Jul)";"France";"EUR";"2018-09-07T06:45:00";"GMT";"46.9B";"";"44.8B";"Low"
"French Industrial Production (MoM) (Jul)";"France";"EUR";"2018-09-07T06:45:00";"GMT";"0.7%";"0.2%";"0.7%";"Low"
"French Trade Balance (Jul)";"France";"EUR";"2018-09-07T06:45:00";"GMT";"-6.1B";"-5.7B";"-3.5B";"Low"
"Spanish Industrial Production (YoY) (Jul)";"Spain";"EUR";"2018-09-07T07:00:00";"GMT";"0.5%";"1.6%";"0.5%";"Low"
"Italian Retail Sales (MoM) (Jul)";"Italy";"EUR";"2018-09-07T08:00:00";"GMT";"-0.1%";"0.2%";"-0.1%";"Low"
"Italian Retail Sales (YoY) (Jul)";"Italy";"EUR";"2018-09-07T08:00:00";"GMT";"1.4%";"";"-0.6%";"Low"
"GDP (QoQ) (Q2)";"Euro Zone";"EUR";"2018-09-07T09:00:00";"GMT";"0.4%";"0.4%";"0.4%";"Moderate"
"GDP (YoY) (Q2)";"Euro Zone";"EUR";"2018-09-07T09:00:00";"GMT";"2.2%";"2.2%";"2.1%";"Moderate"
"Eurogroup Meetings";"Euro Zone";"EUR";"2018-09-07T10:00:00";"GMT";" ";"";"";"Moderate"
"CFTC EUR speculative net positions";"Euro Zone";"EUR";"2018-09-07T19:30:00";"GMT";"-7.2K";"";"8.0K";"Moderate"
