{"events": {"event": [
    {
      "eventDateTime": "2017-03-16T08:30:00",
      "eventActual": "-0.75%",
      "eventCountry": "Switzerland",
      "eventExpectedVolatility": "High",
      "eventName": "SNB Interest Rate Decision",
      "eventTimeZone": "GMT",
      "eventPrevious": "-0.75%",
      "eventCurrency": "CHF",
      "eventForecast": "-0.75%"
    },
    {
      "eventDateTime": "2017-03-16T08:30:00",
      "eventActual": "",
      "eventCountry": "Switzerland",
      "eventExpectedVolatility": "High",
      "eventName": "SNB Monetary Policy Assessment",
      "eventTimeZone": "GMT",
      "eventPrevious": "",
      "eventCurrency": "CHF",
      "eventForecast": ""
    }
  ]}}
