{"events": {"event": [
    {
      "eventDateTime": "2015-09-10T07:00:00",
      "eventActual": "2.7%",
      "eventCountry": "United Kingdom",
      "eventExpectedVolatility": "Moderate",
      "eventName": "Halifax House Price Index (MoM) (Aug)",
      "eventTimeZone": "GMT",
      "eventPrevious": "-0.4%",
      "eventCurrency": "GBP",
      "eventForecast": "0.5%"
    },
    {
      "eventDateTime": "2015-09-10T07:00:00",
      "eventActual": "9.0%",
      "eventCountry": "United Kingdom",
      "eventExpectedVolatility": "Moderate",
      "eventName": "Halifax House Price Index (YoY) (Aug)",
      "eventTimeZone": "GMT",
      "eventPrevious": "7.8%",
      "eventCurrency": "GBP",
      "eventForecast": "7.9%"
    },
    {
      "eventDateTime": "2015-09-10T09:30:00",
      "eventActual": "0.80%",
      "eventCountry": "United Kingdom",
      "eventExpectedVolatility": "Low",
      "eventName": "Construction Output (MoM) (Jul)",
      "eventTimeZone": "GMT",
      "eventPrevious": "0.10%",
      "eventCurrency": "GBP",
      "eventForecast": ""
    },
    {
      "eventDateTime": "2015-09-10T09:30:00",
      "eventActual": "5.30%",
      "eventCountry": "United Kingdom",
      "eventExpectedVolatility": "Low",
      "eventName": "U.K. Construction Output (YoY) (Jul)",
      "eventTimeZone": "GMT",
      "eventPrevious": "6.30%",
      "eventCurrency": "GBP",
      "eventForecast": ""
    },
    {
      "eventDateTime": "2015-09-10T11:00:00",
      "eventActual": "0.50%",
      "eventCountry": "United Kingdom",
      "eventExpectedVolatility": "High",
      "eventName": "BoE Interest Rate Decision (Sep)",
      "eventTimeZone": "GMT",
      "eventPrevious": "0.50%",
      "eventCurrency": "GBP",
      "eventForecast": "0.50%"
    },
    {
      "eventDateTime": "2015-09-10T11:00:00",
      "eventActual": "",
      "eventCountry": "United Kingdom",
      "eventExpectedVolatility": "High",
      "eventName": "BoE MPC Meeting Minutes",
      "eventTimeZone": "GMT",
      "eventPrevious": "",
      "eventCurrency": "GBP",
      "eventForecast": ""
    },
    {
      "eventDateTime": "2015-09-10T11:00:00",
      "eventActual": "0",
      "eventCountry": "United Kingdom",
      "eventExpectedVolatility": "Moderate",
      "eventName": "BoE MPC vote cut (Sep)",
      "eventTimeZone": "GMT",
      "eventPrevious": "0",
      "eventCurrency": "GBP",
      "eventForecast": "0"
    },
    {
      "eventDateTime": "2015-09-10T11:00:00",
      "eventActual": "1",
      "eventCountry": "United Kingdom",
      "eventExpectedVolatility": "Moderate",
      "eventName": "BoE MPC vote hike (Sep)",
      "eventTimeZone": "GMT",
      "eventPrevious": "1",
      "eventCurrency": "GBP",
      "eventForecast": "1"
    },
    {
      "eventDateTime": "2015-09-10T11:00:00",
      "eventActual": "8",
      "eventCountry": "United Kingdom",
      "eventExpectedVolatility": "Moderate",
      "eventName": "BoE MPC vote unchanged (Sep)",
      "eventTimeZone": "GMT",
      "eventPrevious": "8",
      "eventCurrency": "GBP",
      "eventForecast": "8"
    },
    {
      "eventDateTime": "2015-09-10T11:00:00",
      "eventActual": "375B",
      "eventCountry": "United Kingdom",
      "eventExpectedVolatility": "Moderate",
      "eventName": "BoE QE Total (Sep)",
      "eventTimeZone": "GMT",
      "eventPrevious": "375B",
      "eventCurrency": "GBP",
      "eventForecast": "375B"
    }
  ]}}
