"Manufacturing BSI Index (Nov)";"South Korea";"KRW";"2015-10-29T21:00:00";"GMT";"70";"";"72";"Low"
"Industrial Production (MoM) (Sep)";"South Korea";"KRW";"2015-10-29T23:00:00";"GMT";"0.2%";"0.4%";"1.9%";"Low"
"Industrial Production (YoY) (Sep)";"South Korea";"KRW";"2015-10-29T23:00:00";"GMT";"0.1%";"0.6%";"2.4%";"Low"
"Retail Sales (MoM)";"South Korea";"KRW";"2015-10-29T23:00:00";"GMT";"2.1%";"";"0.5%";"Low"
"Service Sector Output (MoM) (Sep)";"South Korea";"KRW";"2015-10-29T23:00:00";"GMT";"0.4%";"";"1.2%";"Low"
