"Exports (YoY) (Jul)";"China";"CNY";"2016-08-08T03:05:00";"GMT";"-4.8%";"-3.0%";"-4.4%";"Moderate"
"Imports (YoY) (Jul)";"China";"CNY";"2016-08-08T03:05:00";"GMT";"-8.4%";"-7.0%";"-12.5%";"Moderate"
"Trade Balance (USD) (Jul)";"China";"CNY";"2016-08-08T03:05:00";"GMT";"48.11B";"47.60B";"52.31B";"Moderate"
