{"events": {"event": [
    {
      "eventDateTime": "2016-04-04T07:30:00",
      "eventActual": "38.0%",
      "eventCountry": "New Zealand",
      "eventExpectedVolatility": "Moderate",
      "eventName": "Investing.com NZD/USD Index",
      "eventTimeZone": "GMT",
      "eventPrevious": "42.2%",
      "eventCurrency": "NZD",
      "eventForecast": ""
    },
    {
      "eventDateTime": "2016-04-04T22:00:00",
      "eventActual": "2%",
      "eventCountry": "New Zealand",
      "eventExpectedVolatility": "Moderate",
      "eventName": "NZIER Business Confidence (Q1)",
      "eventTimeZone": "GMT",
      "eventPrevious": "15%",
      "eventCurrency": "NZD",
      "eventForecast": ""
    },
    {
      "eventDateTime": "2016-04-04T22:00:00",
      "eventActual": "93.2%",
      "eventCountry": "New Zealand",
      "eventExpectedVolatility": "Low",
      "eventName": "NZIER QSBO Capacity Utilization (Q1)",
      "eventTimeZone": "GMT",
      "eventPrevious": "93.2%",
      "eventCurrency": "NZD",
      "eventForecast": ""
    }
  ]}}
