"Business Confidence (Jun)";"South Africa";"ZAR";"2010-07-01T09:00:00";"GMT";"96.70";"";"100.00";"Low"
"CPI (MoM) (Jun)";"South Africa";"ZAR";"2010-07-01T09:00:00";"GMT";"0.23%";"";"0.00%";"Moderate"
"CPI (YoY) (Jun)";"South Africa";"ZAR";"2010-07-01T09:00:00";"GMT";"4.64%";"";"4.14%";"Low"
"Core CPI (MoM) (Jun)";"South Africa";"ZAR";"2010-07-01T09:00:00";"GMT";"0.00%";"";"0.30%";"Moderate"
"Core CPI (YoY) (Jun)";"South Africa";"ZAR";"2010-07-01T09:00:00";"GMT";"4.30%";"";"4.20%";"Low"
"Foreign Reserves (USD) (Jun)";"South Africa";"ZAR";"2010-07-01T09:00:00";"GMT";"41.60B";"";"42.20B";"Low"
"Gold Production (YoY) (Jun)";"South Africa";"ZAR";"2010-07-01T09:00:00";"GMT";"-2.52%";"";"0.20%";"Low"
"Interest Rate Decision (Jun)";"South Africa";"ZAR";"2010-07-01T09:00:00";"GMT";"6.50%";"";"6.50%";"Moderate"
"M3 Money Supply (YoY) (Jun)";"South Africa";"ZAR";"2010-07-01T09:00:00";"GMT";"1.35%";"";"2.47%";"Low"
"Mining Production (Jun)";"South Africa";"ZAR";"2010-07-01T09:00:00";"GMT";"-4.37%";"";"2.37%";"Low"
"Net FX Reserves (USD) (Jun)";"South Africa";"ZAR";"2010-07-01T09:00:00";"GMT";"37.93B";"";"38.19B";"Low"
"Prime Rate (Jun)";"South Africa";"ZAR";"2010-07-01T09:00:00";"GMT";"10.00%";"";"10.00%";"Low"
"Private Sector Credit (Jun)";"South Africa";"ZAR";"2010-07-01T09:00:00";"GMT";"0.73%";"";"0.96%";"Low"
"Retail Sales (YoY) (Jun)";"South Africa";"ZAR";"2010-07-01T09:00:00";"GMT";"4.60%";"";"8.10%";"Low"
"Total Vehicle Sales (Jun)";"South Africa";"ZAR";"2010-07-01T09:00:00";"GMT";"41.13K";"";"39.65K";"Low"
"Total Vehicle Sales (YoY) (Jun)";"South Africa";"ZAR";"2010-07-01T09:00:00";"GMT";"40.50%";"";"19.70%";"Low"
"Trade Balance (Jun)";"South Africa";"ZAR";"2010-07-01T09:00:00";"GMT";"3.92B";"";"9.90B";"Low"
