{"events": {"event": [
    {
      "eventDateTime": "2014-04-02T11:00:00",
      "eventActual": "4.56%",
      "eventCountry": "United States",
      "eventExpectedVolatility": "Low",
      "eventName": "MBA 30-Year Mortgage Rate",
      "eventTimeZone": "GMT",
      "eventPrevious": "4.56%",
      "eventCurrency": "USD",
      "eventForecast": ""
    },
    {
      "eventDateTime": "2014-04-02T11:00:00",
      "eventActual": "-1.2%",
      "eventCountry": "United States",
      "eventExpectedVolatility": "Low",
      "eventName": "MBA Mortgage Applications (WoW)",
      "eventTimeZone": "GMT",
      "eventPrevious": "-3.5%",
      "eventCurrency": "USD",
      "eventForecast": ""
    },
    {
      "eventDateTime": "2014-04-02T12:15:00",
      "eventActual": "191K",
      "eventCountry": "United States",
      "eventExpectedVolatility": "High",
      "eventName": "ADP Nonfarm Employment Change",
      "eventTimeZone": "GMT",
      "eventPrevious": "178K",
      "eventCurrency": "USD",
      "eventForecast": "195K"
    },
    {
      "eventDateTime": "2014-04-02T13:45:00",
      "eventActual": "627.1",
      "eventCountry": "United States",
      "eventExpectedVolatility": "Low",
      "eventName": "ISM-New York Index",
      "eventTimeZone": "GMT",
      "eventPrevious": "626.1",
      "eventCurrency": "USD",
      "eventForecast": ""
    },
    {
      "eventDateTime": "2014-04-02T14:00:00",
      "eventActual": "1.6%",
      "eventCountry": "United States",
      "eventExpectedVolatility": "Moderate",
      "eventName": "Factory Orders (MoM)",
      "eventTimeZone": "GMT",
      "eventPrevious": "-1.0%",
      "eventCurrency": "USD",
      "eventForecast": "1.2%"
    },
    {
      "eventDateTime": "2014-04-02T14:00:00",
      "eventActual": "0.7%",
      "eventCountry": "United States",
      "eventExpectedVolatility": "Low",
      "eventName": "Factory orders ex transportation (MoM)",
      "eventTimeZone": "GMT",
      "eventPrevious": "-0.1%",
      "eventCurrency": "USD",
      "eventForecast": ""
    },
    {
      "eventDateTime": "2014-04-02T14:30:00",
      "eventActual": "-2.379M",
      "eventCountry": "United States",
      "eventExpectedVolatility": "High",
      "eventName": "Crude Oil Inventories",
      "eventTimeZone": "GMT",
      "eventPrevious": "6.619M",
      "eventCurrency": "USD",
      "eventForecast": "1.086M"
    },
    {
      "eventDateTime": "2014-04-02T14:30:00",
      "eventActual": "0.554M",
      "eventCountry": "United States",
      "eventExpectedVolatility": "Low",
      "eventName": "EIA Weekly Distillates Stocks",
      "eventTimeZone": "GMT",
      "eventPrevious": "1.555M",
      "eventCurrency": "USD",
      "eventForecast": "-0.100M"
    },
    {
      "eventDateTime": "2014-04-02T14:30:00",
      "eventActual": "-1.574M",
      "eventCountry": "United States",
      "eventExpectedVolatility": "Low",
      "eventName": "Gasoline Inventories",
      "eventTimeZone": "GMT",
      "eventPrevious": "-5.101M",
      "eventCurrency": "USD",
      "eventForecast": "-1.086M"
    },
    {
      "eventDateTime": "2014-04-02T20:00:00",
      "eventActual": "",
      "eventCountry": "United States",
      "eventExpectedVolatility": "Moderate",
      "eventName": "FOMC Member Bullard Speaks",
      "eventTimeZone": "GMT",
      "eventPrevious": "",
      "eventCurrency": "USD",
      "eventForecast": ""
    }
  ]}}
