"Manufacturing BSI Index";"South Korea";"KRW";"2013-02-27T21:00:00";"GMT";"76.00";"";"75.00";"Low"
"Industrial Production (MoM)";"South Korea";"KRW";"2013-02-27T23:00:00";"GMT";"1.6%";"0.4%";"-1.5%";"Low"
"Industrial Production (YoY)";"South Korea";"KRW";"2013-02-27T23:00:00";"GMT";"-0.5%";"6.3%";"7.3%";"Low"
"Service Sector Output (MoM)";"South Korea";"KRW";"2013-02-27T23:00:00";"GMT";"0.50%";"";"-0.90%";"Low"
