{"events": {"event": [
    {
      "eventDateTime": "2007-08-01T09:00:00",
      "eventActual": "1.50%",
      "eventCountry": "Hong Kong",
      "eventExpectedVolatility": "Low",
      "eventName": "CPI (YoY) (Jul)",
      "eventTimeZone": "GMT",
      "eventPrevious": "1.40%",
      "eventCurrency": "HKD",
      "eventForecast": ""
    },
    {
      "eventDateTime": "2007-08-01T09:00:00",
      "eventActual": "8.60%",
      "eventCountry": "Hong Kong",
      "eventExpectedVolatility": "Low",
      "eventName": "Exports (MoM) (Jul)",
      "eventTimeZone": "GMT",
      "eventPrevious": "11.00%",
      "eventCurrency": "HKD",
      "eventForecast": ""
    },
    {
      "eventDateTime": "2007-08-01T09:00:00",
      "eventActual": "137.08B",
      "eventCountry": "Hong Kong",
      "eventExpectedVolatility": "Low",
      "eventName": "Foreign Reserves (USD) (Jul)",
      "eventTimeZone": "GMT",
      "eventPrevious": "136.31B",
      "eventCurrency": "HKD",
      "eventForecast": ""
    },
    {
      "eventDateTime": "2007-08-01T09:00:00",
      "eventActual": "9.80%",
      "eventCountry": "Hong Kong",
      "eventExpectedVolatility": "Low",
      "eventName": "Imports (MoM) (Jul)",
      "eventTimeZone": "GMT",
      "eventPrevious": "13.00%",
      "eventCurrency": "HKD",
      "eventForecast": ""
    },
    {
      "eventDateTime": "2007-08-01T09:00:00",
      "eventActual": "20.07%",
      "eventCountry": "Hong Kong",
      "eventExpectedVolatility": "Low",
      "eventName": "M3 Money Supply (Jul)",
      "eventTimeZone": "GMT",
      "eventPrevious": "27.28%",
      "eventCurrency": "HKD",
      "eventForecast": ""
    },
    {
      "eventDateTime": "2007-08-01T09:00:00",
      "eventActual": "14.30%",
      "eventCountry": "Hong Kong",
      "eventExpectedVolatility": "Low",
      "eventName": "Retail Sales (YoY) (Jul)",
      "eventTimeZone": "GMT",
      "eventPrevious": "14.10%",
      "eventCurrency": "HKD",
      "eventForecast": ""
    },
    {
      "eventDateTime": "2007-08-01T09:00:00",
      "eventActual": "4.10%",
      "eventCountry": "Hong Kong",
      "eventExpectedVolatility": "Low",
      "eventName": "Unemployment Rate (Jul)",
      "eventTimeZone": "GMT",
      "eventPrevious": "4.20%",
      "eventCurrency": "HKD",
      "eventForecast": ""
    }
  ]}}
