{"events": {"event": {
    "eventDateTime": "2016-04-06T01:45:00",
    "eventActual": "52.2",
    "eventCountry": "China",
    "eventExpectedVolatility": "Moderate",
    "eventName": "Caixin Services PMI (Mar)",
    "eventTimeZone": "GMT",
    "eventPrevious": "51.2",
    "eventCurrency": "CNY",
    "eventForecast": "51.4"
  }}}
