{"events": {"event": [
    {
      "eventDateTime": "2019-12-12T00:00:00",
      "eventActual": "4.0%",
      "eventCountry": "Australia",
      "eventExpectedVolatility": "Low",
      "eventName": "MI Inflation Expectations",
      "eventTimeZone": "GMT",
      "eventPrevious": "4.0%",
      "eventCurrency": "AUD",
      "eventForecast": ""
    },
    {
      "eventDateTime": "2019-12-12T00:30:00",
      "eventActual": "",
      "eventCountry": "Australia",
      "eventExpectedVolatility": "Low",
      "eventName": "RBA Bulletin",
      "eventTimeZone": "GMT",
      "eventPrevious": "",
      "eventCurrency": "AUD",
      "eventForecast": ""
    }
  ]}}
