{"events": {"event": [
    {
      "eventDateTime": "2004-06-25T17:00:00",
      "eventActual": "170",
      "eventCountry": "United States",
      "eventExpectedVolatility": "Moderate",
      "eventName": "U.S. Baker Hughes Oil Rig Count",
      "eventTimeZone": "GMT",
      "eventPrevious": "163",
      "eventCurrency": "USD",
      "eventForecast": ""
    },
    {
      "eventDateTime": "2004-06-25T20:30:00",
      "eventActual": "26.9k",
      "eventCountry": "United States",
      "eventExpectedVolatility": "Moderate",
      "eventName": "CFTC Crude Oil speculative net positions",
      "eventTimeZone": "GMT",
      "eventPrevious": "26.8k",
      "eventCurrency": "USD",
      "eventForecast": ""
    }
  ]}}
