{"events": {"event": [
    {
      "eventDateTime": "2019-11-01T12:30:00",
      "eventActual": "0.2%",
      "eventCountry": "United States",
      "eventExpectedVolatility": "Moderate",
      "eventName": "Average Hourly Earnings (MoM) (Oct)",
      "eventTimeZone": "GMT",
      "eventPrevious": "0.4%",
      "eventCurrency": "USD",
      "eventForecast": "0.3%"
    },
    {
      "eventDateTime": "2019-11-01T12:30:00",
      "eventActual": "3.0%",
      "eventCountry": "United States",
      "eventExpectedVolatility": "Moderate",
      "eventName": "Average Hourly Earnings (YoY) (YoY) (Oct)",
      "eventTimeZone": "GMT",
      "eventPrevious": "3.0%",
      "eventCurrency": "USD",
      "eventForecast": "3.0%"
    },
    {
      "eventDateTime": "2019-11-01T12:30:00",
      "eventActual": "34.4",
      "eventCountry": "United States",
      "eventExpectedVolatility": "Low",
      "eventName": "Average Weekly Hours (Oct)",
      "eventTimeZone": "GMT",
      "eventPrevious": "34.4",
      "eventCurrency": "USD",
      "eventForecast": "34.4"
    },
    {
      "eventDateTime": "2019-11-01T12:30:00",
      "eventActual": "-3.0K",
      "eventCountry": "United States",
      "eventExpectedVolatility": "Low",
      "eventName": "Government Payrolls (Oct)",
      "eventTimeZone": "GMT",
      "eventPrevious": "13.0K",
      "eventCurrency": "USD",
      "eventForecast": ""
    },
    {
      "eventDateTime": "2019-11-01T12:30:00",
      "eventActual": "-36K",
      "eventCountry": "United States",
      "eventExpectedVolatility": "Low",
      "eventName": "Manufacturing Payrolls (Oct)",
      "eventTimeZone": "GMT",
      "eventPrevious": "-5K",
      "eventCurrency": "USD",
      "eventForecast": "-50K"
    },
    {
      "eventDateTime": "2019-11-01T12:30:00",
      "eventActual": "128K",
      "eventCountry": "United States",
      "eventExpectedVolatility": "High",
      "eventName": "Nonfarm Payrolls (Oct)",
      "eventTimeZone": "GMT",
      "eventPrevious": "180K",
      "eventCurrency": "USD",
      "eventForecast": "89K"
    },
    {
      "eventDateTime": "2019-11-01T12:30:00",
      "eventActual": "63.3%",
      "eventCountry": "United States",
      "eventExpectedVolatility": "Moderate",
      "eventName": "Participation Rate (Oct)",
      "eventTimeZone": "GMT",
      "eventPrevious": "63.2%",
      "eventCurrency": "USD",
      "eventForecast": "63.2%"
    },
    {
      "eventDateTime": "2019-11-01T12:30:00",
      "eventActual": "131K",
      "eventCountry": "United States",
      "eventExpectedVolatility": "Moderate",
      "eventName": "Private Nonfarm Payrolls (Oct)",
      "eventTimeZone": "GMT",
      "eventPrevious": "167K",
      "eventCurrency": "USD",
      "eventForecast": "80K"
    },
    {
      "eventDateTime": "2019-11-01T12:30:00",
      "eventActual": "7.0%",
      "eventCountry": "United States",
      "eventExpectedVolatility": "Low",
      "eventName": "U6 Unemployment Rate (Oct)",
      "eventTimeZone": "GMT",
      "eventPrevious": "6.9%",
      "eventCurrency": "USD",
      "eventForecast": ""
    },
    {
      "eventDateTime": "2019-11-01T12:30:00",
      "eventActual": "3.6%",
      "eventCountry": "United States",
      "eventExpectedVolatility": "High",
      "eventName": "Unemployment Rate (Oct)",
      "eventTimeZone": "GMT",
      "eventPrevious": "3.5%",
      "eventCurrency": "USD",
      "eventForecast": "3.6%"
    },
    {
      "eventDateTime": "2019-11-01T13:45:00",
      "eventActual": "51.3",
      "eventCountry": "United States",
      "eventExpectedVolatility": "Moderate",
      "eventName": "Manufacturing PMI (Oct)",
      "eventTimeZone": "GMT",
      "eventPrevious": "51.1",
      "eventCurrency": "USD",
      "eventForecast": "51.5"
    },
    {
      "eventDateTime": "2019-11-01T14:00:00",
      "eventActual": "0.5%",
      "eventCountry": "United States",
      "eventExpectedVolatility": "Low",
      "eventName": "Construction Spending (MoM) (Sep)",
      "eventTimeZone": "GMT",
      "eventPrevious": "-0.3%",
      "eventCurrency": "USD",
      "eventForecast": "0.2%"
    },
    {
      "eventDateTime": "2019-11-01T14:00:00",
      "eventActual": "47.7",
      "eventCountry": "United States",
      "eventExpectedVolatility": "Moderate",
      "eventName": "ISM Manufacturing Employment (Oct)",
      "eventTimeZone": "GMT",
      "eventPrevious": "46.3",
      "eventCurrency": "USD",
      "eventForecast": "46.4"
    },
    {
      "eventDateTime": "2019-11-01T14:00:00",
      "eventActual": "49.1",
      "eventCountry": "United States",
      "eventExpectedVolatility": "Low",
      "eventName": "ISM Manufacturing New Orders Index (Oct)",
      "eventTimeZone": "GMT",
      "eventPrevious": "47.3",
      "eventCurrency": "USD",
      "eventForecast": ""
    },
    {
      "eventDateTime": "2019-11-01T14:00:00",
      "eventActual": "48.3",
      "eventCountry": "United States",
      "eventExpectedVolatility": "High",
      "eventName": "ISM Manufacturing PMI (Oct)",
      "eventTimeZone": "GMT",
      "eventPrevious": "47.8",
      "eventCurrency": "USD",
      "eventForecast": "48.9"
    },
    {
      "eventDateTime": "2019-11-01T14:00:00",
      "eventActual": "45.5",
      "eventCountry": "United States",
      "eventExpectedVolatility": "Low",
      "eventName": "ISM Manufacturing Prices (Oct)",
      "eventTimeZone": "GMT",
      "eventPrevious": "49.7",
      "eventCurrency": "USD",
      "eventForecast": "49.9"
    },
    {
      "eventDateTime": "2019-11-01T16:00:00",
      "eventActual": "",
      "eventCountry": "United States",
      "eventExpectedVolatility": "Moderate",
      "eventName": "FOMC Member Williams Speaks",
      "eventTimeZone": "GMT",
      "eventPrevious": "",
      "eventCurrency": "USD",
      "eventForecast": ""
    },
    {
      "eventDateTime": "2019-11-01T17:00:00",
      "eventActual": "",
      "eventCountry": "United States",
      "eventExpectedVolatility": "Moderate",
      "eventName": "FOMC Member Clarida Speaks",
      "eventTimeZone": "GMT",
      "eventPrevious": "",
      "eventCurrency": "USD",
      "eventForecast": ""
    },
    {
      "eventDateTime": "2019-11-01T17:00:00",
      "eventActual": "",
      "eventCountry": "United States",
      "eventExpectedVolatility": "Moderate",
      "eventName": "FOMC Member Quarles Speaks",
      "eventTimeZone": "GMT",
      "eventPrevious": "",
      "eventCurrency": "USD",
      "eventForecast": ""
    },
    {
      "eventDateTime": "2019-11-01T17:00:00",
      "eventActual": "691",
      "eventCountry": "United States",
      "eventExpectedVolatility": "Moderate",
      "eventName": "U.S. Baker Hughes Oil Rig Count",
      "eventTimeZone": "GMT",
      "eventPrevious": "696",
      "eventCurrency": "USD",
      "eventForecast": ""
    },
    {
      "eventDateTime": "2019-11-01T17:00:00",
      "eventActual": "822",
      "eventCountry": "United States",
      "eventExpectedVolatility": "Moderate",
      "eventName": "U.S. Baker Hughes Total Rig Count",
      "eventTimeZone": "GMT",
      "eventPrevious": "830",
      "eventCurrency": "USD",
      "eventForecast": ""
    },
    {
      "eventDateTime": "2019-11-01T18:30:00",
      "eventActual": "",
      "eventCountry": "United States",
      "eventExpectedVolatility": "Moderate",
      "eventName": "FOMC Member Williams Speaks",
      "eventTimeZone": "GMT",
      "eventPrevious": "",
      "eventCurrency": "USD",
      "eventForecast": ""
    },
    {
      "eventDateTime": "2019-11-01T19:30:00",
      "eventActual": "-53.4K",
      "eventCountry": "United States",
      "eventExpectedVolatility": "Low",
      "eventName": "CFTC Aluminium speculative net positions",
      "eventTimeZone": "GMT",
      "eventPrevious": "-51.0K",
      "eventCurrency": "USD",
      "eventForecast": ""
    },
    {
      "eventDateTime": "2019-11-01T19:30:00",
      "eventActual": "-25.2K",
      "eventCountry": "United States",
      "eventExpectedVolatility": "Low",
      "eventName": "CFTC Copper speculative net positions",
      "eventTimeZone": "GMT",
      "eventPrevious": "-41.6K",
      "eventCurrency": "USD",
      "eventForecast": ""
    },
    {
      "eventDateTime": "2019-11-01T19:30:00",
      "eventActual": "-8.1K",
      "eventCountry": "United States",
      "eventExpectedVolatility": "Low",
      "eventName": "CFTC Corn speculative net positions",
      "eventTimeZone": "GMT",
      "eventPrevious": "-11.4K",
      "eventCurrency": "USD",
      "eventForecast": ""
    },
    {
      "eventDateTime": "2019-11-01T19:30:00",
      "eventActual": "383.3K",
      "eventCountry": "United States",
      "eventExpectedVolatility": "Moderate",
      "eventName": "CFTC Crude Oil speculative net positions",
      "eventTimeZone": "GMT",
      "eventPrevious": "366.2K",
      "eventCurrency": "USD",
      "eventForecast": ""
    },
    {
      "eventDateTime": "2019-11-01T19:30:00",
      "eventActual": "276.5K",
      "eventCountry": "United States",
      "eventExpectedVolatility": "Moderate",
      "eventName": "CFTC Gold speculative net positions",
      "eventTimeZone": "GMT",
      "eventPrevious": "259.1K",
      "eventCurrency": "USD",
      "eventForecast": ""
    },
    {
      "eventDateTime": "2019-11-01T19:30:00",
      "eventActual": "40.4K",
      "eventCountry": "United States",
      "eventExpectedVolatility": "Moderate",
      "eventName": "CFTC Nasdaq 100 speculative positions",
      "eventTimeZone": "GMT",
      "eventPrevious": "31.1K",
      "eventCurrency": "USD",
      "eventForecast": ""
    },
    {
      "eventDateTime": "2019-11-01T19:30:00",
      "eventActual": "-185.6K",
      "eventCountry": "United States",
      "eventExpectedVolatility": "Low",
      "eventName": "CFTC Natural Gas speculative net positions",
      "eventTimeZone": "GMT",
      "eventPrevious": "-209.1K",
      "eventCurrency": "USD",
      "eventForecast": ""
    },
    {
      "eventDateTime": "2019-11-01T19:30:00",
      "eventActual": "33.5K",
      "eventCountry": "United States",
      "eventExpectedVolatility": "Moderate",
      "eventName": "CFTC Sandamp:P 500 speculative net positions",
      "eventTimeZone": "GMT",
      "eventPrevious": "23.3K",
      "eventCurrency": "USD",
      "eventForecast": ""
    },
    {
      "eventDateTime": "2019-11-01T19:30:00",
      "eventActual": "53.7K",
      "eventCountry": "United States",
      "eventExpectedVolatility": "Low",
      "eventName": "CFTC Silver speculative net positions",
      "eventTimeZone": "GMT",
      "eventPrevious": "46.7K",
      "eventCurrency": "USD",
      "eventForecast": ""
    },
    {
      "eventDateTime": "2019-11-01T19:30:00",
      "eventActual": "102.7K",
      "eventCountry": "United States",
      "eventExpectedVolatility": "Low",
      "eventName": "CFTC Soybeans speculative net positions",
      "eventTimeZone": "GMT",
      "eventPrevious": "91.5K",
      "eventCurrency": "USD",
      "eventForecast": ""
    },
    {
      "eventDateTime": "2019-11-01T19:30:00",
      "eventActual": "16.9K",
      "eventCountry": "United States",
      "eventExpectedVolatility": "Low",
      "eventName": "CFTC Wheat speculative net positions",
      "eventTimeZone": "GMT",
      "eventPrevious": "21.8K",
      "eventCurrency": "USD",
      "eventForecast": ""
    },
    {
      "eventDateTime": "2019-11-01T23:00:00",
      "eventActual": "16.60M",
      "eventCountry": "United States",
      "eventExpectedVolatility": "Low",
      "eventName": "Total Vehicle Sales",
      "eventTimeZone": "GMT",
      "eventPrevious": "17.20M",
      "eventCurrency": "USD",
      "eventForecast": ""
    }
  ]}}
