{"events": {"event": [
    {
      "eventDateTime": "2002-04-19T17:00:00",
      "eventActual": "134",
      "eventCountry": "United States",
      "eventExpectedVolatility": "Moderate",
      "eventName": "U.S. Baker Hughes Oil Rig Count",
      "eventTimeZone": "GMT",
      "eventPrevious": "135",
      "eventCurrency": "USD",
      "eventForecast": ""
    },
    {
      "eventDateTime": "2002-04-19T20:30:00",
      "eventActual": "46.0k",
      "eventCountry": "United States",
      "eventExpectedVolatility": "Moderate",
      "eventName": "CFTC Crude Oil speculative net positions",
      "eventTimeZone": "GMT",
      "eventPrevious": "51.4k",
      "eventCurrency": "USD",
      "eventForecast": ""
    }
  ]}}
