{"events": {"event": {
    "eventDateTime": "2019-07-23T05:00:00",
    "eventActual": "0.6%",
    "eventCountry": "Singapore",
    "eventExpectedVolatility": "Moderate",
    "eventName": "CPI (YoY) (Jun)",
    "eventTimeZone": "GMT",
    "eventPrevious": "0.9%",
    "eventCurrency": "SGD",
    "eventForecast": "0.7%"
  }}}
