{"events": {"event": {
    "eventDateTime": "2011-06-02T08:30:00",
    "eventActual": "54.0",
    "eventCountry": "United Kingdom",
    "eventExpectedVolatility": "High",
    "eventName": "Construction PMI",
    "eventTimeZone": "GMT",
    "eventPrevious": "53.3",
    "eventCurrency": "GBP",
    "eventForecast": "53.5"
  }}}
