"Average Hourly Earnings (MoM) (Dec)";"United States";"USD";"2018-01-05T13:30:00";"GMT";"0.1%";"0.3%";"0.3%";"Moderate"
"Average Weekly Hours (Dec)";"United States";"USD";"2018-01-05T13:30:00";"GMT";"34.5";"34.5";"34.5";"Low"
"Exports";"United States";"USD";"2018-01-05T13:30:00";"GMT";"195.78B";"";"200.22B";"Moderate"
"Government Payrolls (Dec)";"United States";"USD";"2018-01-05T13:30:00";"GMT";"13.0K";"5.0K";"2.0K";"Low"
"Imports";"United States";"USD";"2018-01-05T13:30:00";"GMT";"244.70B";"";"250.72B";"Moderate"
"Manufacturing Payrolls (Dec)";"United States";"USD";"2018-01-05T13:30:00";"GMT";"31.0K";"15.0K";"25.0K";"Low"
"Nonfarm Payrolls (Dec)";"United States";"USD";"2018-01-05T13:30:00";"GMT";"252K";"190K";"148K";"High"
"Participation Rate (Dec)";"United States";"USD";"2018-01-05T13:30:00";"GMT";"62.7%";"";"62.7%";"Moderate"
"Private Nonfarm Payrolls (Dec)";"United States";"USD";"2018-01-05T13:30:00";"GMT";"239K";"185K";"146K";"Moderate"
"Trade Balance (Nov)";"United States";"USD";"2018-01-05T13:30:00";"GMT";"-48.90B";"-49.50B";"-50.50B";"Moderate"
"U6 Unemployment Rate (Dec)";"United States";"USD";"2018-01-05T13:30:00";"GMT";"8.0%";"";"8.1%";"Low"
"Unemployment Rate (Dec)";"United States";"USD";"2018-01-05T13:30:00";"GMT";"4.1%";"4.1%";"4.1%";"High"
"Factory Orders (MoM) (Nov)";"United States";"USD";"2018-01-05T15:00:00";"GMT";"0.4%";"1.1%";"1.3%";"Moderate"
"Factory orders ex transportation (MoM) (Nov)";"United States";"USD";"2018-01-05T15:00:00";"GMT";"1.2%";"";"0.8%";"Low"
"ISM Non-Manufacturing Business Activity (Dec)";"United States";"USD";"2018-01-05T15:00:00";"GMT";"61.4";"61.0";"57.3";"Low"
"ISM Non-Manufacturing Employment (Dec)";"United States";"USD";"2018-01-05T15:00:00";"GMT";"55.3";"";"56.3";"Moderate"
"ISM Non-Manufacturing New Orders (Dec)";"United States";"USD";"2018-01-05T15:00:00";"GMT";"58.7";"";"54.3";"Low"
"ISM Non-Manufacturing PMI (Dec)";"United States";"USD";"2018-01-05T15:00:00";"GMT";"57.4";"57.8";"55.9";"High"
"ISM Non-Manufacturing Prices (Dec)";"United States";"USD";"2018-01-05T15:00:00";"GMT";"60.7";"";"60.8";"Low"
"FOMC Member Harker Speaks";"United States";"USD";"2018-01-05T15:15:00";"GMT";" ";"";"";"Moderate"
"FOMC Member Mester Speaks";"United States";"USD";"2018-01-05T17:30:00";"GMT";" ";"";"";"Moderate"
"U.S. Baker Hughes Oil Rig Count";"United States";"USD";"2018-01-05T18:00:00";"GMT";"747";"";"742";"Moderate"
"U.S. Baker Hughes Total Rig Count";"United States";"USD";"2018-01-05T18:00:00";"GMT";"929.0";"";"924.0";"Moderate"
"CFTC Copper speculative net positions";"United States";"USD";"2018-01-05T20:30:00";"GMT";"53.3K";"";"63.9K";"Low"
"CFTC Crude Oil speculative net positions";"United States";"USD";"2018-01-05T20:30:00";"GMT";"632.2K";"";"624.2K";"Moderate"
"CFTC Gold speculative net positions";"United States";"USD";"2018-01-05T20:30:00";"GMT";"135.9K";"";"163.3K";"Moderate"
"CFTC Sandamp:P 500 speculative net positions";"United States";"USD";"2018-01-05T20:30:00";"GMT";"104.7K";"";"172.6K";"Moderate"
"CFTC Silver speculative net positions";"United States";"USD";"2018-01-05T20:30:00";"GMT";"4.6K";"";"22.8K";"Low"
