{"events": {"event": [
    {
      "eventDateTime": "2013-02-08T11:30:00",
      "eventActual": "16.00%",
      "eventCountry": "India",
      "eventExpectedVolatility": "Low",
      "eventName": "Bank Loan Growth",
      "eventTimeZone": "GMT",
      "eventPrevious": "16.30%",
      "eventCurrency": "INR",
      "eventForecast": ""
    },
    {
      "eventDateTime": "2013-02-08T11:30:00",
      "eventActual": "295.16B",
      "eventCountry": "India",
      "eventExpectedVolatility": "Low",
      "eventName": "FX Reserves, USD",
      "eventTimeZone": "GMT",
      "eventPrevious": "295.75B",
      "eventCurrency": "INR",
      "eventForecast": ""
    }
  ]}}
