{"events": {"event": {
    "eventDateTime": "2013-04-17T10:00:00",
    "eventActual": "12.40%",
    "eventCountry": "India",
    "eventExpectedVolatility": "Low",
    "eventName": "M3 Money Supply",
    "eventTimeZone": "GMT",
    "eventPrevious": "13.60%",
    "eventCurrency": "INR",
    "eventForecast": ""
  }}}
