{"events": {"event": {
    "eventDateTime": "2018-08-31T08:30:00",
    "eventActual": "4.5%",
    "eventCountry": "Hong Kong",
    "eventExpectedVolatility": "Low",
    "eventName": "M3 Money Supply (Jul)",
    "eventTimeZone": "GMT",
    "eventPrevious": "6.3%",
    "eventCurrency": "HKD",
    "eventForecast": ""
  }}}
