"MBA Mortgage Applications (WoW)";"United States";"USD";"2010-06-16T11:00:00";"GMT";"-12.2%";"";"17.7%";"Low"
"Building Permits";"United States";"USD";"2010-06-16T12:30:00";"GMT";"0.610M";"0.630M";"0.570M";"High"
"Core PPI (MoM)";"United States";"USD";"2010-06-16T12:30:00";"GMT";"0.2%";"0.1%";"0.2%";"Moderate"
"Housing Starts";"United States";"USD";"2010-06-16T12:30:00";"GMT";"0.660M";"0.650M";"0.590M";"Moderate"
"PPI (MoM)";"United States";"USD";"2010-06-16T12:30:00";"GMT";"-0.1%";"-0.5%";"-0.3%";"High"
"Capacity Utilization Rate";"United States";"USD";"2010-06-16T13:15:00";"GMT";"73.7%";"74.4%";"74.7%";"Low"
"Industrial Production (MoM)";"United States";"USD";"2010-06-16T13:15:00";"GMT";"0.7%";"0.9%";"1.2%";"Moderate"
"Crude Oil Inventories";"United States";"USD";"2010-06-16T14:30:00";"GMT";"-1.800M";"";"1.700M";"High"
"Fed Chairman Bernanke Speaks";"United States";"USD";"2010-06-16T21:45:00";"GMT";" ";"";"";"High"
