{"events": {"event": {
    "eventDateTime": "2012-12-14T20:30:00",
    "eventActual": "24.6K",
    "eventCountry": "New Zealand",
    "eventExpectedVolatility": "Low",
    "eventName": "CFTC NZD speculative net positions",
    "eventTimeZone": "GMT",
    "eventPrevious": "21.1K",
    "eventCurrency": "NZD",
    "eventForecast": ""
  }}}
