{"events": {"event": [
    {
      "eventDateTime": "2009-10-28T23:50:00",
      "eventActual": "-3.2%",
      "eventCountry": "Japan",
      "eventExpectedVolatility": "Low",
      "eventName": "Corporate Services Price Index (CSPI) (YoY)",
      "eventTimeZone": "GMT",
      "eventPrevious": "-3.5%",
      "eventCurrency": "JPY",
      "eventForecast": "-3.3%"
    },
    {
      "eventDateTime": "2009-10-28T23:50:00",
      "eventActual": "1.4%",
      "eventCountry": "Japan",
      "eventExpectedVolatility": "Moderate",
      "eventName": "Industrial Production (MoM)",
      "eventTimeZone": "GMT",
      "eventPrevious": "1.6%",
      "eventCurrency": "JPY",
      "eventForecast": "1.1%"
    }
  ]}}
