"Goods Trade Balance (Nov)";"United States";"USD";"2019-12-30T13:30:00";"GMT";"-66.53B";"-68.75B";"-63.19B";"Moderate"
"Retail Inventories Ex Auto (Nov)";"United States";"USD";"2019-12-30T13:30:00";"GMT";"0.5%";"";"-0.2%";"Moderate"
"Wholesale Inventories (MoM)";"United States";"USD";"2019-12-30T13:30:00";"GMT";"0.1%";"";"0.0%";"Low"
"Chicago PMI (Dec)";"United States";"USD";"2019-12-30T14:45:00";"GMT";"46.3";"48.0";"48.9";"Moderate"
"Pending Home Sales (MoM) (Nov)";"United States";"USD";"2019-12-30T15:00:00";"GMT";"-1.3%";"1.2%";"1.2%";"High"
"Pending Home Sales Index (Nov)";"United States";"USD";"2019-12-30T15:00:00";"GMT";"107.2";"";"108.5";"Low"
"Dallas Fed Mfg Business Index (Dec)";"United States";"USD";"2019-12-30T15:30:00";"GMT";"-1.3";"";"-3.2";"Low"
"3-Month Bill Auction";"United States";"USD";"2019-12-30T16:30:00";"GMT";"1.555%";"";"1.520%";"Low"
"6-Month Bill Auction";"United States";"USD";"2019-12-30T16:30:00";"GMT";"1.570%";"";"1.560%";"Low"
"52-Week Bill Auction";"United States";"USD";"2019-12-30T18:00:00";"GMT";"1.525%";"";"1.550%";"Low"
"CFTC Aluminium speculative net positions";"United States";"USD";"2019-12-30T19:30:00";"GMT";"-67.6K";"";"-65.7K";"Low"
"CFTC Copper speculative net positions";"United States";"USD";"2019-12-30T19:30:00";"GMT";"0.2K";"";"0.2K";"Low"
"CFTC Corn speculative net positions";"United States";"USD";"2019-12-30T19:30:00";"GMT";"2.7K";"";"2.7K";"Low"
"CFTC Crude Oil speculative net positions";"United States";"USD";"2019-12-30T19:30:00";"GMT";"536.4K";"";"536.4K";"Moderate"
"CFTC Gold speculative net positions";"United States";"USD";"2019-12-30T19:30:00";"GMT";"286.3K";"";"286.3K";"Moderate"
"CFTC Nasdaq 100 speculative positions";"United States";"USD";"2019-12-30T19:30:00";"GMT";"12.2K";"";"7.9K";"Moderate"
"CFTC Natural Gas speculative net positions";"United States";"USD";"2019-12-30T19:30:00";"GMT";"-200.7K";"";"-200.7K";"Low"
"CFTC Sandamp:P 500 speculative net positions";"United States";"USD";"2019-12-30T19:30:00";"GMT";"-18.7K";"";"-13.5K";"Moderate"
"CFTC Silver speculative net positions";"United States";"USD";"2019-12-30T19:30:00";"GMT";"45.8K";"";"45.8K";"Low"
"CFTC Soybeans speculative net positions";"United States";"USD";"2019-12-30T19:30:00";"GMT";"-17.0K";"";"-17.0K";"Low"
"CFTC Wheat speculative net positions";"United States";"USD";"2019-12-30T19:30:00";"GMT";"40.1K";"";"40.1K";"Low"
