"Building Permits (MoM) (Nov)";"United States";"USD";"2017-12-19T13:30:00";"GMT";"7.4%";"-3.1%";"-1.4%";"Moderate"
"Building Permits (Nov)";"United States";"USD";"2017-12-19T13:30:00";"GMT";"1.316M";"1.273M";"1.298M";"High"
"Current Account (Q3)";"United States";"USD";"2017-12-19T13:30:00";"GMT";"-124.4B";"-116.8B";"-100.6B";"Moderate"
"Housing Starts (MoM) (Nov)";"United States";"USD";"2017-12-19T13:30:00";"GMT";"8.4%";"-3.2%";"3.3%";"Moderate"
"Housing Starts (Nov)";"United States";"USD";"2017-12-19T13:30:00";"GMT";"1.256M";"1.250M";"1.297M";"Moderate"
"Redbook (MoM)";"United States";"USD";"2017-12-19T13:55:00";"GMT";"-0.7%";"";"-0.4%";"Low"
"Redbook (YoY)";"United States";"USD";"2017-12-19T13:55:00";"GMT";"3.3%";"";"4.4%";"Low"
"FOMC Member Kashkari Speaks";"United States";"USD";"2017-12-19T16:00:00";"GMT";" ";"";"";"Moderate"
"4-Week Bill Auction";"United States";"USD";"2017-12-19T16:30:00";"GMT";"1.240%";"";"1.245%";"Low"
"API Weekly Crude Oil Stock";"United States";"USD";"2017-12-19T21:35:00";"GMT";"-7.382M";"-3.200M";"-5.222M";"Moderate"
