"Sandamp;P/CS HPI Composite - 20 n.s.a. (YoY)";"United States";"USD";"2010-04-27T13:00:00";"GMT";"-0.7%";"1.4%";"0.6%";"Moderate"
"CB Consumer Confidence";"United States";"USD";"2010-04-27T14:00:00";"GMT";"52.3";"53.7";"57.9";"High"
"Fed Chairman Bernanke Testifies";"United States";"USD";"2010-04-27T14:00:00";"GMT";" ";"";"";"High"
"Richmond Manufacturing Index";"United States";"USD";"2010-04-27T14:00:00";"GMT";"6";"7";"30";"Low"
"Treasury Secretary Geithner Speaks";"United States";"USD";"2010-04-27T16:30:00";"GMT";" ";"";"";"Moderate"
"Bloomberg Consumer Confidence";"United States";"USD";"2010-04-27T21:00:00";"GMT";"25";"";"25.5";"Low"
