{"events": {"event": [
    {
      "eventDateTime": "2018-06-27T06:00:00",
      "eventActual": "0.5%",
      "eventCountry": "United Kingdom",
      "eventExpectedVolatility": "Moderate",
      "eventName": "Nationwide HPI (MoM) (Jun)",
      "eventTimeZone": "GMT",
      "eventPrevious": "0.2%",
      "eventCurrency": "GBP",
      "eventForecast": "0.3%"
    },
    {
      "eventDateTime": "2018-06-27T06:00:00",
      "eventActual": "2.0%",
      "eventCountry": "United Kingdom",
      "eventExpectedVolatility": "Moderate",
      "eventName": "Nationwide HPI (YoY) (Jun)",
      "eventTimeZone": "GMT",
      "eventPrevious": "2.4%",
      "eventCurrency": "GBP",
      "eventForecast": "1.7%"
    },
    {
      "eventDateTime": "2018-06-27T09:30:00",
      "eventActual": "",
      "eventCountry": "United Kingdom",
      "eventExpectedVolatility": "Moderate",
      "eventName": "BoE Financial Stability Report",
      "eventTimeZone": "GMT",
      "eventPrevious": "",
      "eventCurrency": "GBP",
      "eventForecast": ""
    },
    {
      "eventDateTime": "2018-06-27T10:00:00",
      "eventActual": "",
      "eventCountry": "United Kingdom",
      "eventExpectedVolatility": "High",
      "eventName": "BoE Gov Carney Speaks",
      "eventTimeZone": "GMT",
      "eventPrevious": "",
      "eventCurrency": "GBP",
      "eventForecast": ""
    },
    {
      "eventDateTime": "2018-06-27T10:00:00",
      "eventActual": "32",
      "eventCountry": "United Kingdom",
      "eventExpectedVolatility": "Low",
      "eventName": "CBI Distributive Trades Survey (Jun)",
      "eventTimeZone": "GMT",
      "eventPrevious": "11",
      "eventCurrency": "GBP",
      "eventForecast": "10"
    }
  ]}}
