{"events": {"event": [
    {
      "eventDateTime": "2012-03-20T20:00:00",
      "eventActual": "-5.10%",
      "eventCountry": "New Zealand",
      "eventExpectedVolatility": "Moderate",
      "eventName": "GlobalDairyTrade Price Index",
      "eventTimeZone": "GMT",
      "eventPrevious": "-0.40%",
      "eventCurrency": "NZD",
      "eventForecast": ""
    },
    {
      "eventDateTime": "2012-03-20T21:45:00",
      "eventActual": "-2.76B",
      "eventCountry": "New Zealand",
      "eventExpectedVolatility": "Moderate",
      "eventName": "Current Account (QoQ)",
      "eventTimeZone": "GMT",
      "eventPrevious": "-4.75B",
      "eventCurrency": "NZD",
      "eventForecast": "-2.83B"
    },
    {
      "eventDateTime": "2012-03-20T21:45:00",
      "eventActual": "-4.9%",
      "eventCountry": "New Zealand",
      "eventExpectedVolatility": "Low",
      "eventName": "Visitor Arrivals (MoM)",
      "eventTimeZone": "GMT",
      "eventPrevious": "-3.3%",
      "eventCurrency": "NZD",
      "eventForecast": ""
    }
  ]}}
