{"events": {"event": [
    {
      "eventDateTime": "2017-07-01T00:00:00",
      "eventActual": "13.7%",
      "eventCountry": "South Korea",
      "eventExpectedVolatility": "Low",
      "eventName": "Exports (YoY) (Jun)",
      "eventTimeZone": "GMT",
      "eventPrevious": "13.3%",
      "eventCurrency": "KRW",
      "eventForecast": "17.1%"
    },
    {
      "eventDateTime": "2017-07-01T00:00:00",
      "eventActual": "18.0%",
      "eventCountry": "South Korea",
      "eventExpectedVolatility": "Low",
      "eventName": "Imports (YoY) (Jun)",
      "eventTimeZone": "GMT",
      "eventPrevious": "19.1%",
      "eventCurrency": "KRW",
      "eventForecast": "19.5%"
    },
    {
      "eventDateTime": "2017-07-01T00:00:00",
      "eventActual": "11.40B",
      "eventCountry": "South Korea",
      "eventExpectedVolatility": "Low",
      "eventName": "Trade Balance (Jun)",
      "eventTimeZone": "GMT",
      "eventPrevious": "5.68B",
      "eventCurrency": "KRW",
      "eventForecast": ""
    }
  ]}}
