"Spanish Manufacturing PMI (Dec)";"Spain";"EUR";"2020-01-02T08:15:00";"GMT";"47.5";"47.0";"47.4";"Moderate"
"Italian Manufacturing PMI (Dec)";"Italy";"EUR";"2020-01-02T08:45:00";"GMT";"47.6";"47.2";"46.2";"Moderate"
"French Manufacturing PMI (Dec)";"France";"EUR";"2020-01-02T08:50:00";"GMT";"50.3";"50.3";"50.4";"Moderate"
"German Manufacturing PMI (Dec)";"Germany";"EUR";"2020-01-02T08:55:00";"GMT";"43.4";"43.4";"43.7";"High"
"Manufacturing PMI (Dec)";"Euro Zone";"EUR";"2020-01-02T09:00:00";"GMT";"45.9";"45.9";"46.3";"Moderate"
