{"events": {"event": {
    "eventDateTime": "2014-09-19T19:30:00",
    "eventActual": "22.1K",
    "eventCountry": "Australia",
    "eventExpectedVolatility": "Moderate",
    "eventName": "CFTC AUD speculative net positions",
    "eventTimeZone": "GMT",
    "eventPrevious": "41.2K",
    "eventCurrency": "AUD",
    "eventForecast": ""
  }}}
