{"events": {"event": [
    {
      "eventDateTime": "2015-05-19T23:50:00",
      "eventActual": "0.6%",
      "eventCountry": "Japan",
      "eventExpectedVolatility": "High",
      "eventName": "GDP (QoQ) (Q1)",
      "eventTimeZone": "GMT",
      "eventPrevious": "0.3%",
      "eventCurrency": "JPY",
      "eventForecast": "0.4%"
    },
    {
      "eventDateTime": "2015-05-19T23:50:00",
      "eventActual": "2.4%",
      "eventCountry": "Japan",
      "eventExpectedVolatility": "Moderate",
      "eventName": "GDP (YoY) (Q1)",
      "eventTimeZone": "GMT",
      "eventPrevious": "1.1%",
      "eventCurrency": "JPY",
      "eventForecast": "1.5%"
    },
    {
      "eventDateTime": "2015-05-19T23:50:00",
      "eventActual": "0.40%",
      "eventCountry": "Japan",
      "eventExpectedVolatility": "Low",
      "eventName": "GDP Capital Expenditure (QoQ) (Q1)",
      "eventTimeZone": "GMT",
      "eventPrevious": "-0.10%",
      "eventCurrency": "JPY",
      "eventForecast": "0.80%"
    },
    {
      "eventDateTime": "2015-05-19T23:50:00",
      "eventActual": "-0.20%",
      "eventCountry": "Japan",
      "eventExpectedVolatility": "Low",
      "eventName": "GDP External Demand (QoQ) (Q1)",
      "eventTimeZone": "GMT",
      "eventPrevious": "0.20%",
      "eventCurrency": "JPY",
      "eventForecast": "-0.10%"
    },
    {
      "eventDateTime": "2015-05-19T23:50:00",
      "eventActual": "3.4%",
      "eventCountry": "Japan",
      "eventExpectedVolatility": "Low",
      "eventName": "GDP Price Index (YoY)",
      "eventTimeZone": "GMT",
      "eventPrevious": "2.4%",
      "eventCurrency": "JPY",
      "eventForecast": "3.6%"
    },
    {
      "eventDateTime": "2015-05-19T23:50:00",
      "eventActual": "0.40%",
      "eventCountry": "Japan",
      "eventExpectedVolatility": "Low",
      "eventName": "GDP Private Consumption (QoQ) (Q1)",
      "eventTimeZone": "GMT",
      "eventPrevious": "0.40%",
      "eventCurrency": "JPY",
      "eventForecast": "0.20%"
    }
  ]}}
