{"events": {"event": [
    {
      "eventDateTime": "2019-10-14T05:30:00",
      "eventActual": "55.2%",
      "eventCountry": "New Zealand",
      "eventExpectedVolatility": "Moderate",
      "eventName": "Investing.com NZD/USD Index",
      "eventTimeZone": "GMT",
      "eventPrevious": "47.9%",
      "eventCurrency": "NZD",
      "eventForecast": ""
    },
    {
      "eventDateTime": "2019-10-14T21:45:00",
      "eventActual": "1.80%",
      "eventCountry": "New Zealand",
      "eventExpectedVolatility": "Low",
      "eventName": "External Migration andamp: Visitors (Aug)",
      "eventTimeZone": "GMT",
      "eventPrevious": "2.00%",
      "eventCurrency": "NZD",
      "eventForecast": ""
    },
    {
      "eventDateTime": "2019-10-14T21:45:00",
      "eventActual": "3,530",
      "eventCountry": "New Zealand",
      "eventExpectedVolatility": "Low",
      "eventName": "Permanent/Long-Term Migration (Aug)",
      "eventTimeZone": "GMT",
      "eventPrevious": "4,640",
      "eventCurrency": "NZD",
      "eventForecast": ""
    },
    {
      "eventDateTime": "2019-10-14T21:45:00",
      "eventActual": "1.4%",
      "eventCountry": "New Zealand",
      "eventExpectedVolatility": "Low",
      "eventName": "Visitor Arrivals (MoM)",
      "eventTimeZone": "GMT",
      "eventPrevious": "1.4%",
      "eventCurrency": "NZD",
      "eventForecast": ""
    }
  ]}}
