{"events": {"event": [
    {
      "eventDateTime": "2019-02-26T13:30:00",
      "eventActual": "1.326M",
      "eventCountry": "United States",
      "eventExpectedVolatility": "High",
      "eventName": "Building Permits (Dec)",
      "eventTimeZone": "GMT",
      "eventPrevious": "1.322M",
      "eventCurrency": "USD",
      "eventForecast": "1.290M"
    },
    {
      "eventDateTime": "2019-02-26T13:30:00",
      "eventActual": "0.3%",
      "eventCountry": "United States",
      "eventExpectedVolatility": "Moderate",
      "eventName": "Building Permits (MoM) (Dec)",
      "eventTimeZone": "GMT",
      "eventPrevious": "5.0%",
      "eventCurrency": "USD",
      "eventForecast": "-2.8%"
    },
    {
      "eventDateTime": "2019-02-26T13:30:00",
      "eventActual": "1.078M",
      "eventCountry": "United States",
      "eventExpectedVolatility": "Moderate",
      "eventName": "Housing Starts (Dec)",
      "eventTimeZone": "GMT",
      "eventPrevious": "1.214M",
      "eventCurrency": "USD",
      "eventForecast": "1.250M"
    },
    {
      "eventDateTime": "2019-02-26T13:30:00",
      "eventActual": "-11.2%",
      "eventCountry": "United States",
      "eventExpectedVolatility": "Moderate",
      "eventName": "Housing Starts (MoM) (Dec)",
      "eventTimeZone": "GMT",
      "eventPrevious": "0.4%",
      "eventCurrency": "USD",
      "eventForecast": "-0.5%"
    },
    {
      "eventDateTime": "2019-02-26T13:55:00",
      "eventActual": "-1.4%",
      "eventCountry": "United States",
      "eventExpectedVolatility": "Low",
      "eventName": "Redbook (MoM)",
      "eventTimeZone": "GMT",
      "eventPrevious": "-1.5%",
      "eventCurrency": "USD",
      "eventForecast": ""
    },
    {
      "eventDateTime": "2019-02-26T13:55:00",
      "eventActual": "5.2%",
      "eventCountry": "United States",
      "eventExpectedVolatility": "Low",
      "eventName": "Redbook (YoY)",
      "eventTimeZone": "GMT",
      "eventPrevious": "5.4%",
      "eventCurrency": "USD",
      "eventForecast": ""
    },
    {
      "eventDateTime": "2019-02-26T14:00:00",
      "eventActual": "270.2",
      "eventCountry": "United States",
      "eventExpectedVolatility": "Low",
      "eventName": "House Price Index (Dec)",
      "eventTimeZone": "GMT",
      "eventPrevious": "269.4",
      "eventCurrency": "USD",
      "eventForecast": ""
    },
    {
      "eventDateTime": "2019-02-26T14:00:00",
      "eventActual": "0.3%",
      "eventCountry": "United States",
      "eventExpectedVolatility": "Low",
      "eventName": "House Price Index (MoM) (Dec)",
      "eventTimeZone": "GMT",
      "eventPrevious": "0.4%",
      "eventCurrency": "USD",
      "eventForecast": "0.3%"
    },
    {
      "eventDateTime": "2019-02-26T14:00:00",
      "eventActual": "5.6%",
      "eventCountry": "United States",
      "eventExpectedVolatility": "Low",
      "eventName": "House Price Index (YoY) (Dec)",
      "eventTimeZone": "GMT",
      "eventPrevious": "5.8%",
      "eventCurrency": "USD",
      "eventForecast": ""
    },
    {
      "eventDateTime": "2019-02-26T14:00:00",
      "eventActual": "-0.2%",
      "eventCountry": "United States",
      "eventExpectedVolatility": "Low",
      "eventName": "Sandamp:P/CS HPI Composite - 20 n.s.a. (MoM) (Dec)",
      "eventTimeZone": "GMT",
      "eventPrevious": "-0.1%",
      "eventCurrency": "USD",
      "eventForecast": ""
    },
    {
      "eventDateTime": "2019-02-26T14:00:00",
      "eventActual": "4.2%",
      "eventCountry": "United States",
      "eventExpectedVolatility": "Moderate",
      "eventName": "Sandamp:P/CS HPI Composite - 20 n.s.a. (YoY) (Dec)",
      "eventTimeZone": "GMT",
      "eventPrevious": "4.6%",
      "eventCurrency": "USD",
      "eventForecast": "4.9%"
    },
    {
      "eventDateTime": "2019-02-26T14:00:00",
      "eventActual": "0.2%",
      "eventCountry": "United States",
      "eventExpectedVolatility": "Low",
      "eventName": "Sandamp:P/CS HPI Composite - 20 s.a. (MoM) (Dec)",
      "eventTimeZone": "GMT",
      "eventPrevious": "0.3%",
      "eventCurrency": "USD",
      "eventForecast": "0.3%"
    },
    {
      "eventDateTime": "2019-02-26T15:00:00",
      "eventActual": "131.4",
      "eventCountry": "United States",
      "eventExpectedVolatility": "High",
      "eventName": "CB Consumer Confidence (Feb)",
      "eventTimeZone": "GMT",
      "eventPrevious": "121.7",
      "eventCurrency": "USD",
      "eventForecast": "124.7"
    },
    {
      "eventDateTime": "2019-02-26T15:00:00",
      "eventActual": "",
      "eventCountry": "United States",
      "eventExpectedVolatility": "High",
      "eventName": "Fed Chair Powell Testifies",
      "eventTimeZone": "GMT",
      "eventPrevious": "",
      "eventCurrency": "USD",
      "eventForecast": ""
    },
    {
      "eventDateTime": "2019-02-26T15:00:00",
      "eventActual": "16",
      "eventCountry": "United States",
      "eventExpectedVolatility": "Low",
      "eventName": "Richmond Manufacturing Index (Feb)",
      "eventTimeZone": "GMT",
      "eventPrevious": "-2",
      "eventCurrency": "USD",
      "eventForecast": "8"
    },
    {
      "eventDateTime": "2019-02-26T15:00:00",
      "eventActual": "12",
      "eventCountry": "United States",
      "eventExpectedVolatility": "Low",
      "eventName": "Richmond Manufacturing Shipments (Feb)",
      "eventTimeZone": "GMT",
      "eventPrevious": "-8",
      "eventCurrency": "USD",
      "eventForecast": ""
    },
    {
      "eventDateTime": "2019-02-26T15:00:00",
      "eventActual": "17",
      "eventCountry": "United States",
      "eventExpectedVolatility": "Low",
      "eventName": "Richmond Services Index (Feb)",
      "eventTimeZone": "GMT",
      "eventPrevious": "6",
      "eventCurrency": "USD",
      "eventForecast": ""
    },
    {
      "eventDateTime": "2019-02-26T15:30:00",
      "eventActual": "19.2",
      "eventCountry": "United States",
      "eventExpectedVolatility": "Low",
      "eventName": "Dallas Fed Services Revenues (Feb)",
      "eventTimeZone": "GMT",
      "eventPrevious": "14.9",
      "eventCurrency": "USD",
      "eventForecast": ""
    },
    {
      "eventDateTime": "2019-02-26T15:30:00",
      "eventActual": "2.0",
      "eventCountry": "United States",
      "eventExpectedVolatility": "Low",
      "eventName": "Texas Services Sector Outlook (Feb)",
      "eventTimeZone": "GMT",
      "eventPrevious": "-4.8",
      "eventCurrency": "USD",
      "eventForecast": ""
    },
    {
      "eventDateTime": "2019-02-26T16:30:00",
      "eventActual": "2.470%",
      "eventCountry": "United States",
      "eventExpectedVolatility": "Low",
      "eventName": "52-Week Bill Auction",
      "eventTimeZone": "GMT",
      "eventPrevious": "2.515%",
      "eventCurrency": "USD",
      "eventForecast": ""
    },
    {
      "eventDateTime": "2019-02-26T18:00:00",
      "eventActual": "2.538%",
      "eventCountry": "United States",
      "eventExpectedVolatility": "Low",
      "eventName": "7-Year Note Auction",
      "eventTimeZone": "GMT",
      "eventPrevious": "2.625%",
      "eventCurrency": "USD",
      "eventForecast": ""
    },
    {
      "eventDateTime": "2019-02-26T21:30:00",
      "eventActual": "-4.200M",
      "eventCountry": "United States",
      "eventExpectedVolatility": "Moderate",
      "eventName": "API Weekly Crude Oil Stock",
      "eventTimeZone": "GMT",
      "eventPrevious": "1.260M",
      "eventCurrency": "USD",
      "eventForecast": ""
    }
  ]}}
