{"events": {"event": {
    "eventDateTime": "2015-09-02T08:30:00",
    "eventActual": "57.3",
    "eventCountry": "United Kingdom",
    "eventExpectedVolatility": "High",
    "eventName": "Construction PMI (Aug)",
    "eventTimeZone": "GMT",
    "eventPrevious": "57.1",
    "eventCurrency": "GBP",
    "eventForecast": "57.5"
  }}}
