{"events": {"event": [
    {
      "eventDateTime": "2017-06-08T03:35:00",
      "eventActual": "8.7%",
      "eventCountry": "China",
      "eventExpectedVolatility": "Moderate",
      "eventName": "Exports (YoY) (May)",
      "eventTimeZone": "GMT",
      "eventPrevious": "8.0%",
      "eventCurrency": "CNY",
      "eventForecast": "7.0%"
    },
    {
      "eventDateTime": "2017-06-08T03:35:00",
      "eventActual": "14.8%",
      "eventCountry": "China",
      "eventExpectedVolatility": "Moderate",
      "eventName": "Imports (YoY) (May)",
      "eventTimeZone": "GMT",
      "eventPrevious": "11.9%",
      "eventCurrency": "CNY",
      "eventForecast": "8.5%"
    },
    {
      "eventDateTime": "2017-06-08T03:35:00",
      "eventActual": "40.81B",
      "eventCountry": "China",
      "eventExpectedVolatility": "Moderate",
      "eventName": "Trade Balance (USD) (May)",
      "eventTimeZone": "GMT",
      "eventPrevious": "38.05B",
      "eventCurrency": "CNY",
      "eventForecast": "46.32B"
    }
  ]}}
