{"events": {"event": {
    "eventDateTime": "2013-10-07T12:30:00",
    "eventActual": "-21.2%",
    "eventCountry": "Canada",
    "eventExpectedVolatility": "Moderate",
    "eventName": "Building Permits (MoM)",
    "eventTimeZone": "GMT",
    "eventPrevious": "21.4%",
    "eventCurrency": "CAD",
    "eventForecast": "-7.0%"
  }}}
