"Redbook (MoM)";"United States";"USD";"2012-04-24T12:55:00";"GMT";"0.20%";"";"-0.10%";"Low"
"Sandamp;P/CS HPI Composite - 20 n.s.a. (YoY)";"United States";"USD";"2012-04-24T13:00:00";"GMT";"-3.8%";"-3.4%";"-3.5%";"Moderate"
"CB Consumer Confidence";"United States";"USD";"2012-04-24T14:00:00";"GMT";"69.5";"69.7";"69.2";"High"
"House Price Index (MoM)";"United States";"USD";"2012-04-24T14:00:00";"GMT";"-0.5%";"0.1%";"0.3%";"Low"
"Mass Layoffs";"United States";"USD";"2012-04-24T14:00:00";"GMT";"1.29K";"";"1.27K";"Low"
"New Home Sales";"United States";"USD";"2012-04-24T14:00:00";"GMT";"353K";"320K";"328K";"High"
"Richmond Manufacturing Index";"United States";"USD";"2012-04-24T14:00:00";"GMT";"7";"6";"14";"Low"
"4-Week Bill Auction";"United States";"USD";"2012-04-24T15:30:00";"GMT";"0.065%";"";"0.075%";"Low"
"2-Year Note Auction";"United States";"USD";"2012-04-24T17:00:00";"GMT";"0.340%";"";"0.270%";"Low"
"API Weekly Crude Oil Stock";"United States";"USD";"2012-04-24T20:30:00";"GMT";"3.41M";"2.93M";"-0.99M";"Moderate"
"API Weekly Gasoline Stock";"United States";"USD";"2012-04-24T20:30:00";"GMT";"-2.60M";"-0.68M";"-3.64M";"Low"
