{"events": {"event": [
    {
      "eventDateTime": "2018-01-04T07:00:00",
      "eventActual": "0.6%",
      "eventCountry": "United Kingdom",
      "eventExpectedVolatility": "Moderate",
      "eventName": "Nationwide HPI (MoM) (Dec)",
      "eventTimeZone": "GMT",
      "eventPrevious": "0.1%",
      "eventCurrency": "GBP",
      "eventForecast": "0.1%"
    },
    {
      "eventDateTime": "2018-01-04T07:00:00",
      "eventActual": "2.6%",
      "eventCountry": "United Kingdom",
      "eventExpectedVolatility": "Moderate",
      "eventName": "Nationwide HPI (YoY) (Dec)",
      "eventTimeZone": "GMT",
      "eventPrevious": "2.5%",
      "eventCurrency": "GBP",
      "eventForecast": "2.0%"
    },
    {
      "eventDateTime": "2018-01-04T09:30:00",
      "eventActual": "1.400B",
      "eventCountry": "United Kingdom",
      "eventExpectedVolatility": "Low",
      "eventName": "BoE Consumer Credit (Nov)",
      "eventTimeZone": "GMT",
      "eventPrevious": "1.362B",
      "eventCurrency": "GBP",
      "eventForecast": "1.500B"
    },
    {
      "eventDateTime": "2018-01-04T09:30:00",
      "eventActual": "0.1%",
      "eventCountry": "United Kingdom",
      "eventExpectedVolatility": "Low",
      "eventName": "M4 Money Supply (MoM) (Nov)",
      "eventTimeZone": "GMT",
      "eventPrevious": "0.6%",
      "eventCurrency": "GBP",
      "eventForecast": "0.4%"
    },
    {
      "eventDateTime": "2018-01-04T09:30:00",
      "eventActual": "65.14K",
      "eventCountry": "United Kingdom",
      "eventExpectedVolatility": "Low",
      "eventName": "Mortgage Approvals (Nov)",
      "eventTimeZone": "GMT",
      "eventPrevious": "64.89K",
      "eventCurrency": "GBP",
      "eventForecast": "64.00K"
    },
    {
      "eventDateTime": "2018-01-04T09:30:00",
      "eventActual": "3.50B",
      "eventCountry": "United Kingdom",
      "eventExpectedVolatility": "Low",
      "eventName": "Mortgage Lending (Nov)",
      "eventTimeZone": "GMT",
      "eventPrevious": "3.35B",
      "eventCurrency": "GBP",
      "eventForecast": "3.40B"
    },
    {
      "eventDateTime": "2018-01-04T09:30:00",
      "eventActual": "4.9B",
      "eventCountry": "United Kingdom",
      "eventExpectedVolatility": "Low",
      "eventName": "Net Lending to Individuals",
      "eventTimeZone": "GMT",
      "eventPrevious": "4.7B",
      "eventCurrency": "GBP",
      "eventForecast": "4.9B"
    },
    {
      "eventDateTime": "2018-01-04T09:30:00",
      "eventActual": "54.2",
      "eventCountry": "United Kingdom",
      "eventExpectedVolatility": "High",
      "eventName": "Services PMI (Dec)",
      "eventTimeZone": "GMT",
      "eventPrevious": "53.8",
      "eventCurrency": "GBP",
      "eventForecast": "54.1"
    }
  ]}}
