"Corporate Profits (QoQ) (Q3)";"United States";"USD";"2015-11-24T13:30:00";"GMT";"2.6%";"";"-1.6%";"Low"
"GDP (QoQ) (Q3)";"United States";"USD";"2015-11-24T13:30:00";"GMT";"1.5%";"2.1%";"2.1%";"High"
"GDP Price Index (QoQ) (Q3)";"United States";"USD";"2015-11-24T13:30:00";"GMT";"1.2%";"1.2%";"1.3%";"Moderate"
"Goods Trade Balance (Oct)";"United States";"USD";"2015-11-24T13:30:00";"GMT";"-58.63B";"-61.80B";"-58.41B";"Moderate"
"Real Consumer Spending (Q3)";"United States";"USD";"2015-11-24T13:30:00";"GMT";"3.2%";"3.2%";"3.0%";"Low"
"Redbook (MoM)";"United States";"USD";"2015-11-24T13:55:00";"GMT";"0.8%";"";"0.9%";"Low"
"Redbook (YoY)";"United States";"USD";"2015-11-24T13:55:00";"GMT";"1.2%";"";"1.5%";"Low"
"Sandamp:P/CS HPI Composite - 20 n.s.a. (MoM) (Sep)";"United States";"USD";"2015-11-24T14:00:00";"GMT";"0.3%";"0.4%";"0.2%";"Low"
"Sandamp:P/CS HPI Composite - 20 n.s.a. (YoY) (Sep)";"United States";"USD";"2015-11-24T14:00:00";"GMT";"5.1%";"5.1%";"5.5%";"Moderate"
"Sandamp:P/CS HPI Composite - 20 s.a. (MoM) (Sep)";"United States";"USD";"2015-11-24T14:00:00";"GMT";"0.1%";"0.3%";"0.6%";"Low"
"CB Consumer Confidence (Nov)";"United States";"USD";"2015-11-24T15:00:00";"GMT";"99.1";"99.5";"90.4";"High"
"Richmond Manufacturing Index (Nov)";"United States";"USD";"2015-11-24T15:00:00";"GMT";"-1";"0";"-3";"Low"
"Richmond Manufacturing Shipments (Nov)";"United States";"USD";"2015-11-24T15:00:00";"GMT";"-4";"";"-2";"Low"
"Richmond Services Index (Nov)";"United States";"USD";"2015-11-24T15:00:00";"GMT";"18";"";"-1";"Low"
"4-Week Bill Auction";"United States";"USD";"2015-11-24T16:30:00";"GMT";"0.075%";"";"0.120%";"Low"
"5-Year Note Auction";"United States";"USD";"2015-11-24T18:00:00";"GMT";"1.415%";"";"1.670%";"Low"
"API Weekly Crude Oil Stock";"United States";"USD";"2015-11-24T21:35:00";"GMT";"-0.482M";"-0.200M";"2.600M";"Moderate"
