{"events": {"event": {
    "eventDateTime": "2010-06-11T19:30:00",
    "eventActual": "-0.9K",
    "eventCountry": "New Zealand",
    "eventExpectedVolatility": "Low",
    "eventName": "CFTC NZD speculative net positions",
    "eventTimeZone": "GMT",
    "eventPrevious": "2.2K",
    "eventCurrency": "NZD",
    "eventForecast": ""
  }}}
