{"events": {"event": [
    {
      "eventDateTime": "2012-07-01T09:00:00",
      "eventActual": "-1.10%",
      "eventCountry": "Switzerland",
      "eventExpectedVolatility": "Low",
      "eventName": "CPI (YoY) (Jun)",
      "eventTimeZone": "GMT",
      "eventPrevious": "-1.00%",
      "eventCurrency": "CHF",
      "eventForecast": ""
    },
    {
      "eventDateTime": "2012-07-01T09:00:00",
      "eventActual": "95.40",
      "eventCountry": "Switzerland",
      "eventExpectedVolatility": "Moderate",
      "eventName": "KOF Leading Indicators (Jun)",
      "eventTimeZone": "GMT",
      "eventPrevious": "97.10",
      "eventCurrency": "CHF",
      "eventForecast": ""
    },
    {
      "eventDateTime": "2012-07-01T09:00:00",
      "eventActual": "-2.20%",
      "eventCountry": "Switzerland",
      "eventExpectedVolatility": "Low",
      "eventName": "PPI (YoY) (Jun)",
      "eventTimeZone": "GMT",
      "eventPrevious": "-2.30%",
      "eventCurrency": "CHF",
      "eventForecast": ""
    },
    {
      "eventDateTime": "2012-07-01T09:00:00",
      "eventActual": "2.70%",
      "eventCountry": "Switzerland",
      "eventExpectedVolatility": "Moderate",
      "eventName": "Unemployment Rate n.s.a. (Jun)",
      "eventTimeZone": "GMT",
      "eventPrevious": "2.70%",
      "eventCurrency": "CHF",
      "eventForecast": ""
    }
  ]}}
