"Redbook (MoM)";"United States";"USD";"2018-11-06T13:55:00";"GMT";"0.1%";"";"0.1%";"Low"
"Redbook (YoY)";"United States";"USD";"2018-11-06T13:55:00";"GMT";"5.9%";"";"6.1%";"Low"
"IBD/TIPP Economic Optimism";"United States";"USD";"2018-11-06T15:00:00";"GMT";"57.8";"59.2";"56.4";"Low"
"JOLTs Job Openings (Sep)";"United States";"USD";"2018-11-06T15:00:00";"GMT";"7.293M";"7.100M";"7.009M";"High"
"4-Week Bill Auction";"United States";"USD";"2018-11-06T16:30:00";"GMT";"2.165%";"";"2.200%";"Low"
"52-Week Bill Auction";"United States";"USD";"2018-11-06T16:30:00";"GMT";"2.580%";"";"2.645%";"Low"
"8-Week Bill Auction";"United States";"USD";"2018-11-06T16:30:00";"GMT";"2.205%";"";"2.240%";"Low"
"10-Year Note Auction";"United States";"USD";"2018-11-06T18:00:00";"GMT";"3.225%";"";"3.209%";"Moderate"
"API Weekly Crude Oil Stock";"United States";"USD";"2018-11-06T21:30:00";"GMT";"5.700M";"";"7.830M";"Moderate"
