{"events": {"event": [
    {
      "eventDateTime": "2018-11-06T13:55:00",
      "eventActual": "0.1%",
      "eventCountry": "United States",
      "eventExpectedVolatility": "Low",
      "eventName": "Redbook (MoM)",
      "eventTimeZone": "GMT",
      "eventPrevious": "0.1%",
      "eventCurrency": "USD",
      "eventForecast": ""
    },
    {
      "eventDateTime": "2018-11-06T13:55:00",
      "eventActual": "6.1%",
      "eventCountry": "United States",
      "eventExpectedVolatility": "Low",
      "eventName": "Redbook (YoY)",
      "eventTimeZone": "GMT",
      "eventPrevious": "5.9%",
      "eventCurrency": "USD",
      "eventForecast": ""
    },
    {
      "eventDateTime": "2018-11-06T15:00:00",
      "eventActual": "56.4",
      "eventCountry": "United States",
      "eventExpectedVolatility": "Low",
      "eventName": "IBD/TIPP Economic Optimism",
      "eventTimeZone": "GMT",
      "eventPrevious": "57.8",
      "eventCurrency": "USD",
      "eventForecast": "59.2"
    },
    {
      "eventDateTime": "2018-11-06T15:00:00",
      "eventActual": "7.009M",
      "eventCountry": "United States",
      "eventExpectedVolatility": "High",
      "eventName": "JOLTs Job Openings (Sep)",
      "eventTimeZone": "GMT",
      "eventPrevious": "7.293M",
      "eventCurrency": "USD",
      "eventForecast": "7.100M"
    },
    {
      "eventDateTime": "2018-11-06T16:30:00",
      "eventActual": "2.200%",
      "eventCountry": "United States",
      "eventExpectedVolatility": "Low",
      "eventName": "4-Week Bill Auction",
      "eventTimeZone": "GMT",
      "eventPrevious": "2.165%",
      "eventCurrency": "USD",
      "eventForecast": ""
    },
    {
      "eventDateTime": "2018-11-06T16:30:00",
      "eventActual": "2.645%",
      "eventCountry": "United States",
      "eventExpectedVolatility": "Low",
      "eventName": "52-Week Bill Auction",
      "eventTimeZone": "GMT",
      "eventPrevious": "2.580%",
      "eventCurrency": "USD",
      "eventForecast": ""
    },
    {
      "eventDateTime": "2018-11-06T16:30:00",
      "eventActual": "2.240%",
      "eventCountry": "United States",
      "eventExpectedVolatility": "Low",
      "eventName": "8-Week Bill Auction",
      "eventTimeZone": "GMT",
      "eventPrevious": "2.205%",
      "eventCurrency": "USD",
      "eventForecast": ""
    },
    {
      "eventDateTime": "2018-11-06T18:00:00",
      "eventActual": "3.209%",
      "eventCountry": "United States",
      "eventExpectedVolatility": "Moderate",
      "eventName": "10-Year Note Auction",
      "eventTimeZone": "GMT",
      "eventPrevious": "3.225%",
      "eventCurrency": "USD",
      "eventForecast": ""
    },
    {
      "eventDateTime": "2018-11-06T21:30:00",
      "eventActual": "7.830M",
      "eventCountry": "United States",
      "eventExpectedVolatility": "Moderate",
      "eventName": "API Weekly Crude Oil Stock",
      "eventTimeZone": "GMT",
      "eventPrevious": "5.700M",
      "eventCurrency": "USD",
      "eventForecast": ""
    }
  ]}}
