{"events": {"event": [
    {
      "eventDateTime": "2019-01-30T05:00:00",
      "eventActual": "41.9",
      "eventCountry": "Japan",
      "eventExpectedVolatility": "Low",
      "eventName": "Household Confidence (Jan)",
      "eventTimeZone": "GMT",
      "eventPrevious": "42.7",
      "eventCurrency": "JPY",
      "eventForecast": "42.5"
    },
    {
      "eventDateTime": "2019-01-30T23:50:00",
      "eventActual": "",
      "eventCountry": "Japan",
      "eventExpectedVolatility": "Low",
      "eventName": "BoJ Summary of Opinions",
      "eventTimeZone": "GMT",
      "eventPrevious": "",
      "eventCurrency": "JPY",
      "eventForecast": ""
    },
    {
      "eventDateTime": "2019-01-30T23:50:00",
      "eventActual": "-102.6B",
      "eventCountry": "Japan",
      "eventExpectedVolatility": "Low",
      "eventName": "Foreign Bonds Buying",
      "eventTimeZone": "GMT",
      "eventPrevious": "823.0B",
      "eventCurrency": "JPY",
      "eventForecast": ""
    },
    {
      "eventDateTime": "2019-01-30T23:50:00",
      "eventActual": "166.6B",
      "eventCountry": "Japan",
      "eventExpectedVolatility": "Low",
      "eventName": "Foreign Investments in Japanese Stocks",
      "eventTimeZone": "GMT",
      "eventPrevious": "-67.4B",
      "eventCurrency": "JPY",
      "eventForecast": ""
    },
    {
      "eventDateTime": "2019-01-30T23:50:00",
      "eventActual": "-0.1%",
      "eventCountry": "Japan",
      "eventExpectedVolatility": "Moderate",
      "eventName": "Industrial Production (MoM) (Dec)",
      "eventTimeZone": "GMT",
      "eventPrevious": "-1.0%",
      "eventCurrency": "JPY",
      "eventForecast": "-0.5%"
    },
    {
      "eventDateTime": "2019-01-30T23:50:00",
      "eventActual": "-0.1%",
      "eventCountry": "Japan",
      "eventExpectedVolatility": "Low",
      "eventName": "Industrial Production forecast 1m ahead (MoM) (Jan)",
      "eventTimeZone": "GMT",
      "eventPrevious": "2.2%",
      "eventCurrency": "JPY",
      "eventForecast": ""
    },
    {
      "eventDateTime": "2019-01-30T23:50:00",
      "eventActual": "2.6%",
      "eventCountry": "Japan",
      "eventExpectedVolatility": "Low",
      "eventName": "Industrial Production forecast 2m ahead (MoM) (Feb)",
      "eventTimeZone": "GMT",
      "eventPrevious": "-0.8%",
      "eventCurrency": "JPY",
      "eventForecast": ""
    }
  ]}}
