"PPI (MoM) (Jun)";"Russia";"RUB";"2017-07-19T13:00:00";"GMT";"-0.5%";"";"-0.3%";"Low"
"PPI (YoY) (Jun)";"Russia";"RUB";"2017-07-19T13:00:00";"GMT";"5.9%";"";"2.9%";"Low"
"Retail Sales (YoY)";"Russia";"RUB";"2017-07-19T13:00:00";"GMT";"0.7%";"";"1.2%";"Moderate"
"Unemployment Rate (Jun)";"Russia";"RUB";"2017-07-19T13:00:00";"GMT";"5.2%";"5.2%";"5.1%";"Moderate"
