{"events": {"event": {
    "eventDateTime": "2016-09-23T19:30:00",
    "eventActual": "8.4K",
    "eventCountry": "Switzerland",
    "eventExpectedVolatility": "Low",
    "eventName": "CFTC CHF speculative net positions",
    "eventTimeZone": "GMT",
    "eventPrevious": "1.3K",
    "eventCurrency": "CHF",
    "eventForecast": ""
  }}}
