"French Manufacturing PMI";"France";"EUR";"2013-02-21T07:58:00";"GMT";"42.9";"43.8";"43.6";"Moderate"
"French Services PMI";"France";"EUR";"2013-02-21T07:58:00";"GMT";"43.6";"44.5";"42.7";"Moderate"
"German Manufacturing PMI";"Germany";"EUR";"2013-02-21T08:28:00";"GMT";"49.8";"50.5";"50.1";"High"
"German Services PMI";"Germany";"EUR";"2013-02-21T08:28:00";"GMT";"55.7";"55.5";"54.1";"Moderate"
"Manufacturing PMI";"Euro Zone";"EUR";"2013-02-21T09:00:00";"GMT";"47.9";"48.4";"47.8";"Moderate"
"Services PMI";"Euro Zone";"EUR";"2013-02-21T09:00:00";"GMT";"48.6";"49.2";"47.3";"Moderate"
"Spanish 10-Year Obligacion Auction";"Spain";"EUR";"2013-02-21T09:45:00";"GMT";"5.290%";"";"5.202%";"Moderate"
"Spanish 2-Year Bonos Auction";"Spain";"EUR";"2013-02-21T09:45:00";"GMT";"2.823%";"";"2.540%";"Low"
"Spanish 6-Year Obligacion Auction";"Spain";"EUR";"2013-02-21T09:45:00";"GMT";"6.701%";"";"4.275%";"Low"
"French 2-Year BTAN Auction";"France";"EUR";"2013-02-21T10:05:00";"GMT";"0.24%";"";"0.41%";"Low"
"French 4-Year BTAN Auction";"France";"EUR";"2013-02-21T10:05:00";"GMT";"0.74%";"";"0.95%";"Low"
"French 5-Year BTAN Auction";"France";"EUR";"2013-02-21T10:05:00";"GMT";"1.06%";"";"1.12%";"Low"
