{"events": {"event": [
    {
      "eventDateTime": "2011-04-01T09:00:00",
      "eventActual": "-21.70%",
      "eventCountry": "Japan",
      "eventExpectedVolatility": "Low",
      "eventName": "Capacity Utilization (MoM) (Mar)",
      "eventTimeZone": "GMT",
      "eventPrevious": "0.80%",
      "eventCurrency": "JPY",
      "eventForecast": ""
    },
    {
      "eventDateTime": "2011-04-01T09:00:00",
      "eventActual": "-6.70%",
      "eventCountry": "Japan",
      "eventExpectedVolatility": "Low",
      "eventName": "Coincident Indicator (MoM) (Mar)",
      "eventTimeZone": "GMT",
      "eventPrevious": "0.70%",
      "eventCurrency": "JPY",
      "eventForecast": ""
    },
    {
      "eventDateTime": "2011-04-01T09:00:00",
      "eventActual": "-11.00%",
      "eventCountry": "Japan",
      "eventExpectedVolatility": "Low",
      "eventName": "Construction Orders (YoY) (Mar)",
      "eventTimeZone": "GMT",
      "eventPrevious": "19.50%",
      "eventCurrency": "JPY",
      "eventForecast": ""
    },
    {
      "eventDateTime": "2011-04-01T09:00:00",
      "eventActual": "9.10%",
      "eventCountry": "Japan",
      "eventExpectedVolatility": "Low",
      "eventName": "Core Machinery Orders (YoY) (Mar)",
      "eventTimeZone": "GMT",
      "eventPrevious": "11.50%",
      "eventCurrency": "JPY",
      "eventForecast": ""
    },
    {
      "eventDateTime": "2011-04-01T09:00:00",
      "eventActual": "1.85T",
      "eventCountry": "Japan",
      "eventExpectedVolatility": "Moderate",
      "eventName": "Current Account n.s.a. (Mar)",
      "eventTimeZone": "GMT",
      "eventPrevious": "1.81T",
      "eventCurrency": "JPY",
      "eventForecast": ""
    },
    {
      "eventDateTime": "2011-04-01T09:00:00",
      "eventActual": "-2.40%",
      "eventCountry": "Japan",
      "eventExpectedVolatility": "Moderate",
      "eventName": "Exports (YoY) (Mar)",
      "eventTimeZone": "GMT",
      "eventPrevious": "9.00%",
      "eventCurrency": "JPY",
      "eventForecast": ""
    },
    {
      "eventDateTime": "2011-04-01T09:00:00",
      "eventActual": "4,914.30B",
      "eventCountry": "Japan",
      "eventExpectedVolatility": "Low",
      "eventName": "Foreign Bonds Buying (Mar)",
      "eventTimeZone": "GMT",
      "eventPrevious": "2,603.60B",
      "eventCurrency": "JPY",
      "eventForecast": ""
    },
    {
      "eventDateTime": "2011-04-01T09:00:00",
      "eventActual": "5,719.90B",
      "eventCountry": "Japan",
      "eventExpectedVolatility": "Low",
      "eventName": "Foreign Investments in Japanese Stocks (Mar)",
      "eventTimeZone": "GMT",
      "eventPrevious": "4,461.30B",
      "eventCurrency": "JPY",
      "eventForecast": ""
    },
    {
      "eventDateTime": "2011-04-01T09:00:00",
      "eventActual": "1,116.02B",
      "eventCountry": "Japan",
      "eventExpectedVolatility": "Low",
      "eventName": "Foreign Reserves (USD) (Mar)",
      "eventTimeZone": "GMT",
      "eventPrevious": "1,091.48B",
      "eventCurrency": "JPY",
      "eventForecast": ""
    },
    {
      "eventDateTime": "2011-04-01T09:00:00",
      "eventActual": "-3.30%",
      "eventCountry": "Japan",
      "eventExpectedVolatility": "Moderate",
      "eventName": "Household Spending (MoM) (Mar)",
      "eventTimeZone": "GMT",
      "eventPrevious": "-0.60%",
      "eventCurrency": "JPY",
      "eventForecast": ""
    },
    {
      "eventDateTime": "2011-04-01T09:00:00",
      "eventActual": "12.20%",
      "eventCountry": "Japan",
      "eventExpectedVolatility": "Low",
      "eventName": "Imports (YoY) (Mar)",
      "eventTimeZone": "GMT",
      "eventPrevious": "10.30%",
      "eventCurrency": "JPY",
      "eventForecast": ""
    },
    {
      "eventDateTime": "2011-04-01T09:00:00",
      "eventActual": "-0.40%",
      "eventCountry": "Japan",
      "eventExpectedVolatility": "Low",
      "eventName": "Industrial Production forecast 1m ahead (MoM) (Mar)",
      "eventTimeZone": "GMT",
      "eventPrevious": "2.90%",
      "eventCurrency": "JPY",
      "eventForecast": ""
    },
    {
      "eventDateTime": "2011-04-01T09:00:00",
      "eventActual": "-3.10%",
      "eventCountry": "Japan",
      "eventExpectedVolatility": "Low",
      "eventName": "Industrial Production forecast 2m ahead (MoM) (Mar)",
      "eventTimeZone": "GMT",
      "eventPrevious": "0.60%",
      "eventCurrency": "JPY",
      "eventForecast": ""
    },
    {
      "eventDateTime": "2011-04-01T09:00:00",
      "eventActual": "0.62",
      "eventCountry": "Japan",
      "eventExpectedVolatility": "Moderate",
      "eventName": "Jobs/applications ratio (Mar)",
      "eventTimeZone": "GMT",
      "eventPrevious": "0.62",
      "eventCurrency": "JPY",
      "eventForecast": ""
    },
    {
      "eventDateTime": "2011-04-01T09:00:00",
      "eventActual": "-2.70%",
      "eventCountry": "Japan",
      "eventExpectedVolatility": "Low",
      "eventName": "Leading Index (MoM) (Mar)",
      "eventTimeZone": "GMT",
      "eventPrevious": "0.80%",
      "eventCurrency": "JPY",
      "eventForecast": ""
    },
    {
      "eventDateTime": "2011-04-01T09:00:00",
      "eventActual": "-0.50%",
      "eventCountry": "Japan",
      "eventExpectedVolatility": "Low",
      "eventName": "National CPI (YoY) (Mar)",
      "eventTimeZone": "GMT",
      "eventPrevious": "-0.50%",
      "eventCurrency": "JPY",
      "eventForecast": ""
    },
    {
      "eventDateTime": "2011-04-01T09:00:00",
      "eventActual": "1.70%",
      "eventCountry": "Japan",
      "eventExpectedVolatility": "Low",
      "eventName": "Overtime Pay (YoY) (Mar)",
      "eventTimeZone": "GMT",
      "eventPrevious": "4.40%",
      "eventCurrency": "JPY",
      "eventForecast": ""
    },
    {
      "eventDateTime": "2011-04-01T09:00:00",
      "eventActual": "0.60%",
      "eventCountry": "Japan",
      "eventExpectedVolatility": "Low",
      "eventName": "PPI (MoM) (Mar)",
      "eventTimeZone": "GMT",
      "eventPrevious": "0.10%",
      "eventCurrency": "JPY",
      "eventForecast": ""
    },
    {
      "eventDateTime": "2011-04-01T09:00:00",
      "eventActual": "15.00",
      "eventCountry": "Japan",
      "eventExpectedVolatility": "Low",
      "eventName": "Reuters Tankan Index (Mar)",
      "eventTimeZone": "GMT",
      "eventPrevious": "14.00",
      "eventCurrency": "JPY",
      "eventForecast": ""
    },
    {
      "eventDateTime": "2011-04-01T09:00:00",
      "eventActual": "-0.70%",
      "eventCountry": "Japan",
      "eventExpectedVolatility": "Low",
      "eventName": "Tokyo CPI (YoY) (Mar)",
      "eventTimeZone": "GMT",
      "eventPrevious": "-0.50%",
      "eventCurrency": "JPY",
      "eventForecast": ""
    },
    {
      "eventDateTime": "2011-04-01T09:00:00",
      "eventActual": "170.90B",
      "eventCountry": "Japan",
      "eventExpectedVolatility": "Moderate",
      "eventName": "Trade Balance (Mar)",
      "eventTimeZone": "GMT",
      "eventPrevious": "637.00B",
      "eventCurrency": "JPY",
      "eventForecast": ""
    },
    {
      "eventDateTime": "2011-04-01T19:30:00",
      "eventActual": "7.1K",
      "eventCountry": "Japan",
      "eventExpectedVolatility": "Moderate",
      "eventName": "CFTC JPY speculative net positions",
      "eventTimeZone": "GMT",
      "eventPrevious": "34.5K",
      "eventCurrency": "JPY",
      "eventForecast": ""
    }
  ]}}
