{"events": {"event": {
    "eventDateTime": "2008-05-06T05:45:00",
    "eventActual": "0.8%",
    "eventCountry": "Switzerland",
    "eventExpectedVolatility": "Moderate",
    "eventName": "CPI (MoM)",
    "eventTimeZone": "GMT",
    "eventPrevious": "0.3%",
    "eventCurrency": "CHF",
    "eventForecast": "0.8%"
  }}}
