{"events": {"event": {
    "eventDateTime": "2010-09-20T22:45:00",
    "eventActual": "0.6%",
    "eventCountry": "New Zealand",
    "eventExpectedVolatility": "Low",
    "eventName": "Visitor Arrivals (MoM)",
    "eventTimeZone": "GMT",
    "eventPrevious": "0.8%",
    "eventCurrency": "NZD",
    "eventForecast": ""
  }}}
