"Bank Lending (May)";"Singapore";"SGD";"2008-06-01T09:00:00";"GMT";"250.90B";"";"256.80B";"Low"
"CPI (YoY) (May)";"Singapore";"SGD";"2008-06-01T09:00:00";"GMT";"7.57%";"";"7.53%";"Moderate"
"Foreign Reserves USD (MoM) (May)";"Singapore";"SGD";"2008-06-01T09:00:00";"GMT";"175.80B";"";"175.80B";"Low"
"Industrial Production (MoM) (May)";"Singapore";"SGD";"2008-06-01T09:00:00";"GMT";"-18.80%";"";"-4.40%";"Low"
"Industrial Production (YoY) (May)";"Singapore";"SGD";"2008-06-01T09:00:00";"GMT";"-5.30%";"";"-13.50%";"Low"
"Manufacturing PMI (May)";"Singapore";"SGD";"2008-06-01T09:00:00";"GMT";"49.30";"";"49.00";"Low"
"Non-Oil Exports (MoM) (May)";"Singapore";"SGD";"2008-06-01T09:00:00";"GMT";"0.40%";"";"-7.60%";"Low"
"Non-Oil Exports (YoY) (May)";"Singapore";"SGD";"2008-06-01T09:00:00";"GMT";"5.30%";"";"-10.50%";"Low"
"Retail Sales (MoM) (May)";"Singapore";"SGD";"2008-06-01T09:00:00";"GMT";"2.00%";"";"-0.30%";"Low"
"Retail Sales (YoY) (May)";"Singapore";"SGD";"2008-06-01T09:00:00";"GMT";"7.60%";"";"5.10%";"Low"
