{"events": {"event": [
    {
      "eventDateTime": "2014-09-30T12:30:00",
      "eventActual": "0.0%",
      "eventCountry": "Canada",
      "eventExpectedVolatility": "High",
      "eventName": "GDP (MoM) (Jul)",
      "eventTimeZone": "GMT",
      "eventPrevious": "0.3%",
      "eventCurrency": "CAD",
      "eventForecast": "0.2%"
    },
    {
      "eventDateTime": "2014-09-30T12:30:00",
      "eventActual": "0.2%",
      "eventCountry": "Canada",
      "eventExpectedVolatility": "Low",
      "eventName": "IPPI (MoM) (Aug)",
      "eventTimeZone": "GMT",
      "eventPrevious": "-0.3%",
      "eventCurrency": "CAD",
      "eventForecast": "-0.2%"
    },
    {
      "eventDateTime": "2014-09-30T12:30:00",
      "eventActual": "2.5%",
      "eventCountry": "Canada",
      "eventExpectedVolatility": "Low",
      "eventName": "IPPI (YoY) (Aug)",
      "eventTimeZone": "GMT",
      "eventPrevious": "2.8%",
      "eventCurrency": "CAD",
      "eventForecast": "2.0%"
    },
    {
      "eventDateTime": "2014-09-30T12:30:00",
      "eventActual": "-2.2%",
      "eventCountry": "Canada",
      "eventExpectedVolatility": "Moderate",
      "eventName": "RMPI (MoM) (Aug)",
      "eventTimeZone": "GMT",
      "eventPrevious": "-1.4%",
      "eventCurrency": "CAD",
      "eventForecast": "-1.7%"
    },
    {
      "eventDateTime": "2014-09-30T12:30:00",
      "eventActual": "-0.6%",
      "eventCountry": "Canada",
      "eventExpectedVolatility": "Low",
      "eventName": "RMPI (YoY) (Aug)",
      "eventTimeZone": "GMT",
      "eventPrevious": "2.5%",
      "eventCurrency": "CAD",
      "eventForecast": "1.0%"
    }
  ]}}
