"Public Sector Net Borrowing (Oct)";"United Kingdom";"GBP";"2016-11-22T09:30:00";"GMT";"9.24B";"5.90B";"4.30B";"Low"
"Public Sector Net Cash Requirement (Oct)";"United Kingdom";"GBP";"2016-11-22T09:30:00";"GMT";"18.929B";"";"-3.413B";"Low"
"10-Year Treasury Gilt Auction";"United Kingdom";"GBP";"2016-11-22T10:35:00";"GMT";"1.078%";"";"1.382%";"Low"
"CBI Industrial Trends Orders (Nov)";"United Kingdom";"GBP";"2016-11-22T11:00:00";"GMT";"-17";"-9";"-3";"Moderate"
