"Employment Change";"Canada";"CAD";"2011-05-06T11:00:00";"GMT";"-1.5K";"20.0K";"58.3K";"High"
"Unemployment Rate";"Canada";"CAD";"2011-05-06T11:00:00";"GMT";"7.7%";"7.7%";"7.6%";"Moderate"
"BoC Gov Carney Speaks";"Canada";"CAD";"2011-05-06T13:00:00";"GMT";" ";"";"";"Moderate"
"CFTC CAD speculative net positions";"Canada";"CAD";"2011-05-06T19:30:00";"GMT";"59.1K";"";"54.0K";"Low"
