"German Factory Orders (MoM) (Jan)";"Germany";"EUR";"2019-03-08T07:00:00";"GMT";"0.9%";"0.5%";"-2.6%";"Moderate"
"French Current Account (Jan)";"France";"EUR";"2019-03-08T07:45:00";"GMT";"-0.10B";"";"0.90B";"Low"
"French Exports (Jan)";"France";"EUR";"2019-03-08T07:45:00";"GMT";"42.9B";"";"42.5B";"Low"
"French Imports (Jan)";"France";"EUR";"2019-03-08T07:45:00";"GMT";"46.5B";"";"46.7B";"Low"
"French Industrial Production (MoM) (Jan)";"France";"EUR";"2019-03-08T07:45:00";"GMT";"0.8%";"0.1%";"1.3%";"Low"
"French Trade Balance (Jan)";"France";"EUR";"2019-03-08T07:45:00";"GMT";"-3.6B";"-4.9B";"-4.2B";"Low"
"Spanish Industrial Production (YoY) (Jan)";"Spain";"EUR";"2019-03-08T08:00:00";"GMT";"-5.9%";"-1.4%";"2.4%";"Low"
"Italian Industrial Production (MoM) (Jan)";"Italy";"EUR";"2019-03-08T09:00:00";"GMT";"-0.7%";"0.1%";"1.7%";"Low"
"Italian Industrial Production (YoY) (Jan)";"Italy";"EUR";"2019-03-08T09:00:00";"GMT";"-5.5%";"-3.0%";"-0.8%";"Low"
"Italian PPI (MoM) (Jan)";"Italy";"EUR";"2019-03-08T10:00:00";"GMT";"-0.5%";"";"0.0%";"Low"
"Italian PPI (YoY) (Jan)";"Italy";"EUR";"2019-03-08T10:00:00";"GMT";"4.1%";"";"3.4%";"Low"
"ECB's Mersch Speaks";"Euro Zone";"EUR";"2019-03-08T16:30:00";"GMT";" ";"";"";"Moderate"
"CFTC EUR speculative net positions";"Euro Zone";"EUR";"2019-03-08T20:30:00";"GMT";"-72.5K";"";"-78.2K";"Moderate"
