{"events": {"event": [
    {
      "eventDateTime": "2014-09-03T01:00:00",
      "eventActual": "54.4",
      "eventCountry": "China",
      "eventExpectedVolatility": "Moderate",
      "eventName": "Non-Manufacturing PMI",
      "eventTimeZone": "GMT",
      "eventPrevious": "54.2",
      "eventCurrency": "CNY",
      "eventForecast": ""
    },
    {
      "eventDateTime": "2014-09-03T01:45:00",
      "eventActual": "54.1",
      "eventCountry": "China",
      "eventExpectedVolatility": "Moderate",
      "eventName": "Caixin Services PMI",
      "eventTimeZone": "GMT",
      "eventPrevious": "50.0",
      "eventCurrency": "CNY",
      "eventForecast": ""
    }
  ]}}
