{"events": {"event": [
    {
      "eventDateTime": "2018-09-25T06:00:00",
      "eventActual": "0.3%",
      "eventCountry": "Germany",
      "eventExpectedVolatility": "Low",
      "eventName": "German WPI (MoM) (Aug)",
      "eventTimeZone": "GMT",
      "eventPrevious": "0.1%",
      "eventCurrency": "EUR",
      "eventForecast": "0.2%"
    },
    {
      "eventDateTime": "2018-09-25T06:00:00",
      "eventActual": "3.8%",
      "eventCountry": "Germany",
      "eventExpectedVolatility": "Low",
      "eventName": "German WPI (YoY) (Aug)",
      "eventTimeZone": "GMT",
      "eventPrevious": "3.6%",
      "eventCurrency": "EUR",
      "eventForecast": ""
    },
    {
      "eventDateTime": "2018-09-25T06:45:00",
      "eventActual": "107",
      "eventCountry": "France",
      "eventExpectedVolatility": "Low",
      "eventName": "French Business Survey (Sep)",
      "eventTimeZone": "GMT",
      "eventPrevious": "110",
      "eventCurrency": "EUR",
      "eventForecast": "109"
    },
    {
      "eventDateTime": "2018-09-25T07:00:00",
      "eventActual": "5.2%",
      "eventCountry": "Spain",
      "eventExpectedVolatility": "Low",
      "eventName": "Spanish PPI (YoY)",
      "eventTimeZone": "GMT",
      "eventPrevious": "4.6%",
      "eventCurrency": "EUR",
      "eventForecast": ""
    }
  ]}}
