{"events": {"event": {
    "eventDateTime": "2016-09-23T19:30:00",
    "eventActual": "6.8K",
    "eventCountry": "Australia",
    "eventExpectedVolatility": "Moderate",
    "eventName": "CFTC AUD speculative net positions",
    "eventTimeZone": "GMT",
    "eventPrevious": "36.5K",
    "eventCurrency": "AUD",
    "eventForecast": ""
  }}}
