{"events": {"event": [
    {
      "eventDateTime": "2009-06-10T00:30:00",
      "eventActual": "12.70%",
      "eventCountry": "Australia",
      "eventExpectedVolatility": "Moderate",
      "eventName": "Westpac Consumer Sentiment",
      "eventTimeZone": "GMT",
      "eventPrevious": "-4.30%",
      "eventCurrency": "AUD",
      "eventForecast": ""
    },
    {
      "eventDateTime": "2009-06-10T01:30:00",
      "eventActual": "0.9%",
      "eventCountry": "Australia",
      "eventExpectedVolatility": "Moderate",
      "eventName": "Home Loans (MoM)",
      "eventTimeZone": "GMT",
      "eventPrevious": "4.8%",
      "eventCurrency": "AUD",
      "eventForecast": "1.6%"
    }
  ]}}
