"CPI (MoM) (Nov)";"China";"CNY";"2014-12-10T01:30:00";"GMT";"0.0%";"0.1%";"-0.2%";"Moderate"
"CPI (YoY) (Nov)";"China";"CNY";"2014-12-10T01:30:00";"GMT";"1.6%";"1.6%";"1.4%";"Moderate"
"PPI (YoY) (Nov)";"China";"CNY";"2014-12-10T01:30:00";"GMT";"-2.2%";"-2.4%";"-2.7%";"Moderate"
