{"events": {"event": {
    "eventDateTime": "2017-02-03T20:30:00",
    "eventActual": "3.5K",
    "eventCountry": "Canada",
    "eventExpectedVolatility": "Low",
    "eventName": "CFTC CAD speculative net positions",
    "eventTimeZone": "GMT",
    "eventPrevious": "2.5K",
    "eventCurrency": "CAD",
    "eventForecast": ""
  }}}
