{"events": {"event": [
    {
      "eventDateTime": "2006-06-01T09:00:00",
      "eventActual": "119.60",
      "eventCountry": "South Africa",
      "eventExpectedVolatility": "Low",
      "eventName": "Business Confidence (May)",
      "eventTimeZone": "GMT",
      "eventPrevious": "121.60",
      "eventCurrency": "ZAR",
      "eventForecast": ""
    },
    {
      "eventDateTime": "2006-06-01T09:00:00",
      "eventActual": "0.46%",
      "eventCountry": "South Africa",
      "eventExpectedVolatility": "Moderate",
      "eventName": "CPI (MoM) (May)",
      "eventTimeZone": "GMT",
      "eventPrevious": "0.62%",
      "eventCurrency": "ZAR",
      "eventForecast": ""
    },
    {
      "eventDateTime": "2006-06-01T09:00:00",
      "eventActual": "3.96%",
      "eventCountry": "South Africa",
      "eventExpectedVolatility": "Low",
      "eventName": "CPI (YoY) (May)",
      "eventTimeZone": "GMT",
      "eventPrevious": "3.48%",
      "eventCurrency": "ZAR",
      "eventForecast": ""
    },
    {
      "eventDateTime": "2006-06-01T09:00:00",
      "eventActual": "24.10B",
      "eventCountry": "South Africa",
      "eventExpectedVolatility": "Low",
      "eventName": "Foreign Reserves (USD) (May)",
      "eventTimeZone": "GMT",
      "eventPrevious": "23.84B",
      "eventCurrency": "ZAR",
      "eventForecast": ""
    },
    {
      "eventDateTime": "2006-06-01T09:00:00",
      "eventActual": "-13.06%",
      "eventCountry": "South Africa",
      "eventExpectedVolatility": "Low",
      "eventName": "Gold Production (YoY) (May)",
      "eventTimeZone": "GMT",
      "eventPrevious": "3.11%",
      "eventCurrency": "ZAR",
      "eventForecast": ""
    },
    {
      "eventDateTime": "2006-06-01T09:00:00",
      "eventActual": "7.00%",
      "eventCountry": "South Africa",
      "eventExpectedVolatility": "Moderate",
      "eventName": "Interest Rate Decision (May)",
      "eventTimeZone": "GMT",
      "eventPrevious": "7.00%",
      "eventCurrency": "ZAR",
      "eventForecast": ""
    },
    {
      "eventDateTime": "2006-06-01T09:00:00",
      "eventActual": "24.51%",
      "eventCountry": "South Africa",
      "eventExpectedVolatility": "Low",
      "eventName": "M3 Money Supply (YoY) (May)",
      "eventTimeZone": "GMT",
      "eventPrevious": "23.46%",
      "eventCurrency": "ZAR",
      "eventForecast": ""
    },
    {
      "eventDateTime": "2006-06-01T09:00:00",
      "eventActual": "-3.85%",
      "eventCountry": "South Africa",
      "eventExpectedVolatility": "Low",
      "eventName": "Mining Production (May)",
      "eventTimeZone": "GMT",
      "eventPrevious": "-4.14%",
      "eventCurrency": "ZAR",
      "eventForecast": ""
    },
    {
      "eventDateTime": "2006-06-01T09:00:00",
      "eventActual": "20.36B",
      "eventCountry": "South Africa",
      "eventExpectedVolatility": "Low",
      "eventName": "Net FX Reserves (USD) (May)",
      "eventTimeZone": "GMT",
      "eventPrevious": "20.08B",
      "eventCurrency": "ZAR",
      "eventForecast": ""
    },
    {
      "eventDateTime": "2006-06-01T09:00:00",
      "eventActual": "10.50%",
      "eventCountry": "South Africa",
      "eventExpectedVolatility": "Low",
      "eventName": "Prime Rate (May)",
      "eventTimeZone": "GMT",
      "eventPrevious": "10.50%",
      "eventCurrency": "ZAR",
      "eventForecast": ""
    },
    {
      "eventDateTime": "2006-06-01T09:00:00",
      "eventActual": "22.39%",
      "eventCountry": "South Africa",
      "eventExpectedVolatility": "Low",
      "eventName": "Private Sector Credit (May)",
      "eventTimeZone": "GMT",
      "eventPrevious": "22.91%",
      "eventCurrency": "ZAR",
      "eventForecast": ""
    },
    {
      "eventDateTime": "2006-06-01T09:00:00",
      "eventActual": "12.60%",
      "eventCountry": "South Africa",
      "eventExpectedVolatility": "Low",
      "eventName": "Retail Sales (YoY) (May)",
      "eventTimeZone": "GMT",
      "eventPrevious": "12.40%",
      "eventCurrency": "ZAR",
      "eventForecast": ""
    },
    {
      "eventDateTime": "2006-06-01T09:00:00",
      "eventActual": "55.37K",
      "eventCountry": "South Africa",
      "eventExpectedVolatility": "Low",
      "eventName": "Total Vehicle Sales (May)",
      "eventTimeZone": "GMT",
      "eventPrevious": "49.08K",
      "eventCurrency": "ZAR",
      "eventForecast": ""
    },
    {
      "eventDateTime": "2006-06-01T09:00:00",
      "eventActual": "20.70%",
      "eventCountry": "South Africa",
      "eventExpectedVolatility": "Low",
      "eventName": "Total Vehicle Sales (YoY) (May)",
      "eventTimeZone": "GMT",
      "eventPrevious": "21.20%",
      "eventCurrency": "ZAR",
      "eventForecast": ""
    }
  ]}}
