"HIA New Home Sales (MoM)";"Australia";"AUD";"2013-08-01T01:00:00";"GMT";"1.6%";"";"3.4%";"Moderate"
"Export Price Index (QoQ)";"Australia";"AUD";"2013-08-01T01:30:00";"GMT";"2.8%";"0.4%";"-0.3%";"Low"
"Import Price Index (QoQ)";"Australia";"AUD";"2013-08-01T01:30:00";"GMT";"0.0%";"1.8%";"-0.3%";"Low"
"Commodity Prices (YoY)";"Australia";"AUD";"2013-08-01T06:30:00";"GMT";"-10.4%";"";"-11.8%";"Low"
"ANZ Internet Job Ads (MoM) (Jul)";"Australia";"AUD";"2013-08-01T09:00:00";"GMT";"-1.50%";"";"-0.60%";"Low"
"ANZ Newspaper Job Ads (MoM) (Jul)";"Australia";"AUD";"2013-08-01T09:00:00";"GMT";"2.70%";"";"-5.90%";"Low"
"Exports (MoM) (Jul)";"Australia";"AUD";"2013-08-01T09:00:00";"GMT";"-0.50%";"";"0.10%";"Low"
"Full Employment Change (Jul)";"Australia";"AUD";"2013-08-01T09:00:00";"GMT";"3.70K";"";"-7.90K";"Moderate"
"Housing Credit (Jul)";"Australia";"AUD";"2013-08-01T09:00:00";"GMT";"0.40%";"";"0.40%";"Low"
"Imports (MoM) (Jul)";"Australia";"AUD";"2013-08-01T09:00:00";"GMT";"-1.20%";"";"4.50%";"Low"
"Invest Housing Finance (MoM) (Jul)";"Australia";"AUD";"2013-08-01T09:00:00";"GMT";"0.70%";"";"1.20%";"Low"
"Participation Rate (Jul)";"Australia";"AUD";"2013-08-01T09:00:00";"GMT";"65.10%";"";"64.90%";"Low"
"Private House Approvals (Jul)";"Australia";"AUD";"2013-08-01T09:00:00";"GMT";"0.00%";"";"3.10%";"Low"
