{"events": {"event": [
    {
      "eventDateTime": "2019-04-29T11:00:00",
      "eventActual": "0.92%",
      "eventCountry": "Brazil",
      "eventExpectedVolatility": "Low",
      "eventName": "IGP-M Inflation Index (MoM) (Apr)",
      "eventTimeZone": "GMT",
      "eventPrevious": "1.26%",
      "eventCurrency": "BRL",
      "eventForecast": "1.27%"
    },
    {
      "eventDateTime": "2019-04-29T11:30:00",
      "eventActual": "",
      "eventCountry": "Brazil",
      "eventExpectedVolatility": "Moderate",
      "eventName": "BCB Focus Market Readout",
      "eventTimeZone": "GMT",
      "eventPrevious": "",
      "eventCurrency": "BRL",
      "eventForecast": ""
    }
  ]}}
