{"events": {"event": {
    "eventDateTime": "2016-09-01T05:00:00",
    "eventActual": "52.6",
    "eventCountry": "India",
    "eventExpectedVolatility": "Low",
    "eventName": "Nikkei Markit Manufacturing PMI (Aug)",
    "eventTimeZone": "GMT",
    "eventPrevious": "51.8",
    "eventCurrency": "INR",
    "eventForecast": "52.0"
  }}}
