{"events": {"event": {
    "eventDateTime": "2011-04-15T05:00:00",
    "eventActual": "-12.1%",
    "eventCountry": "Singapore",
    "eventExpectedVolatility": "Low",
    "eventName": "Retail Sales (YoY)",
    "eventTimeZone": "GMT",
    "eventPrevious": "3.2%",
    "eventCurrency": "SGD",
    "eventForecast": "3.2%"
  }}}
