"CPI (MoM) (Jun)";"China";"CNY";"2016-07-10T01:30:00";"GMT";"-0.5%";"-0.3%";"-0.1%";"Moderate"
"CPI (YoY) (Jun)";"China";"CNY";"2016-07-10T01:30:00";"GMT";"2.0%";"1.8%";"1.9%";"Moderate"
"PPI (YoY) (Jun)";"China";"CNY";"2016-07-10T01:30:00";"GMT";"-2.8%";"-2.5%";"-2.6%";"Moderate"
