{"events": {"event": {
    "eventDateTime": "2015-10-07T08:30:00",
    "eventActual": "345.80B",
    "eventCountry": "Hong Kong",
    "eventExpectedVolatility": "Low",
    "eventName": "Foreign Reserves (USD) (Sep)",
    "eventTimeZone": "GMT",
    "eventPrevious": "334.40B",
    "eventCurrency": "HKD",
    "eventForecast": ""
  }}}
