"CPI (MoM) (Jul)";"South Africa";"ZAR";"2002-08-01T09:00:00";"GMT";"0.71%";"";"1.58%";"Moderate"
"CPI (YoY) (Jul)";"South Africa";"ZAR";"2002-08-01T09:00:00";"GMT";"7.98%";"";"9.70%";"Low"
"Foreign Reserves (USD) (Jul)";"South Africa";"ZAR";"2002-08-01T09:00:00";"GMT";"7.73B";"";"7.71B";"Low"
"Gold Production (YoY) (Jul)";"South Africa";"ZAR";"2002-08-01T09:00:00";"GMT";"-1.66%";"";"-3.86%";"Low"
"Interest Rate Decision (Jul)";"South Africa";"ZAR";"2002-08-01T09:00:00";"GMT";"12.50%";"";"12.50%";"Moderate"
"M3 Money Supply (YoY) (Jul)";"South Africa";"ZAR";"2002-08-01T09:00:00";"GMT";"19.83%";"";"18.85%";"Low"
"Mining Production (Jul)";"South Africa";"ZAR";"2002-08-01T09:00:00";"GMT";"-4.15%";"";"6.07%";"Low"
"Net FX Reserves (USD) (Jul)";"South Africa";"ZAR";"2002-08-01T09:00:00";"GMT";"-1.78B";"";"-1.82B";"Low"
"Prime Rate (Jul)";"South Africa";"ZAR";"2002-08-01T09:00:00";"GMT";"16.00%";"";"16.00%";"Low"
"Private Sector Credit (Jul)";"South Africa";"ZAR";"2002-08-01T09:00:00";"GMT";"11.94%";"";"10.81%";"Low"
"Total Vehicle Sales (Jul)";"South Africa";"ZAR";"2002-08-01T09:00:00";"GMT";"28.35K";"";"31.66K";"Low"
"Total Vehicle Sales (YoY) (Jul)";"South Africa";"ZAR";"2002-08-01T09:00:00";"GMT";"-13.40%";"";"-2.10%";"Low"
