{"events": {"event": [
    {
      "eventDateTime": "2018-12-20T13:30:00",
      "eventActual": "39.1K",
      "eventCountry": "Canada",
      "eventExpectedVolatility": "Low",
      "eventName": "ADP Nonfarm Employment Change",
      "eventTimeZone": "GMT",
      "eventPrevious": "1.8K",
      "eventCurrency": "CAD",
      "eventForecast": ""
    },
    {
      "eventDateTime": "2018-12-20T13:30:00",
      "eventActual": "1.0%",
      "eventCountry": "Canada",
      "eventExpectedVolatility": "Moderate",
      "eventName": "Wholesale Sales (MoM) (Oct)",
      "eventTimeZone": "GMT",
      "eventPrevious": "-0.7%",
      "eventCurrency": "CAD",
      "eventForecast": "0.2%"
    }
  ]}}
