{"events": {"event": {
    "eventDateTime": "2017-06-05T07:15:00",
    "eventActual": "50.2",
    "eventCountry": "South Africa",
    "eventExpectedVolatility": "Low",
    "eventName": "South Africa Standard Bank PMI (May)",
    "eventTimeZone": "GMT",
    "eventPrevious": "50.3",
    "eventCurrency": "ZAR",
    "eventForecast": ""
  }}}
