{"events": {"event": {
    "eventDateTime": "2017-05-25T13:00:00",
    "eventActual": "405.0B",
    "eventCountry": "Russia",
    "eventExpectedVolatility": "Moderate",
    "eventName": "Central Bank reserves (USD)",
    "eventTimeZone": "GMT",
    "eventPrevious": "399.7B",
    "eventCurrency": "RUB",
    "eventForecast": ""
  }}}
