"Bank Lending (YoY) (Jul)";"Japan";"JPY";"2004-08-01T09:00:00";"GMT";"-3.80%";"";"-3.50%";"Low"
"Capacity Utilization (MoM) (Jul)";"Japan";"JPY";"2004-08-01T09:00:00";"GMT";"0.40%";"";"0.70%";"Low"
"Coincident Indicator (MoM) (Jul)";"Japan";"JPY";"2004-08-01T09:00:00";"GMT";"0.60%";"";"1.30%";"Low"
"Construction Orders (YoY) (Jul)";"Japan";"JPY";"2004-08-01T09:00:00";"GMT";"19.30%";"";"3.90%";"Low"
"Core Machinery Orders (MoM) (Jul)";"Japan";"JPY";"2004-08-01T09:00:00";"GMT";"-2.40%";"";"-6.00%";"Low"
"Core Machinery Orders (YoY) (Jul)";"Japan";"JPY";"2004-08-01T09:00:00";"GMT";"13.20%";"";"5.50%";"Low"
"Current Account n.s.a. (Jul)";"Japan";"JPY";"2004-08-01T09:00:00";"GMT";"1.37T";"";"1.73T";"Moderate"
"Economy Watchers Current Index (Jul)";"Japan";"JPY";"2004-08-01T09:00:00";"GMT";"51.40";"";"54.30";"Low"
"Exports (YoY) (Jul)";"Japan";"JPY";"2004-08-01T09:00:00";"GMT";"19.40%";"";"14.30%";"Moderate"
"Foreign Reserves (USD) (Jul)";"Japan";"JPY";"2004-08-01T09:00:00";"GMT";"817.95B";"";"819.20B";"Low"
"Household Confidence (Jul)";"Japan";"JPY";"2004-08-01T09:00:00";"GMT";"44.30";"";"48.70";"Low"
"Household Spending (MoM) (Jul)";"Japan";"JPY";"2004-08-01T09:00:00";"GMT";"-2.40%";"";"1.50%";"Moderate"
"Household Spending (YoY) (Jul)";"Japan";"JPY";"2004-08-01T09:00:00";"GMT";"-3.00%";"";"0.30%";"Moderate"
"Housing Starts (YoY) (Jul)";"Japan";"JPY";"2004-08-01T09:00:00";"GMT";"-7.40%";"";"7.80%";"Low"
"Imports (YoY) (Jul)";"Japan";"JPY";"2004-08-01T09:00:00";"GMT";"15.50%";"";"8.40%";"Low"
"Industrial Production (MoM) (Jul)";"Japan";"JPY";"2004-08-01T09:00:00";"GMT";"0.30%";"";"1.20%";"Moderate"
"Jobs/applications ratio (Jul)";"Japan";"JPY";"2004-08-01T09:00:00";"GMT";"0.82";"";"0.83";"Moderate"
"Leading Index (MoM) (Jul)";"Japan";"JPY";"2004-08-01T09:00:00";"GMT";"0.20%";"";"1.70%";"Low"
"National CPI (YoY) (Jul)";"Japan";"JPY";"2004-08-01T09:00:00";"GMT";"0.00%";"";"-0.10%";"Low"
"National Core CPI (YoY) (Jul)";"Japan";"JPY";"2004-08-01T09:00:00";"GMT";"-0.10%";"";"-0.20%";"Moderate"
"Overtime Pay (YoY) (Jul)";"Japan";"JPY";"2004-08-01T09:00:00";"GMT";"3.00%";"";"3.50%";"Low"
"PPI (MoM) (Jul)";"Japan";"JPY";"2004-08-01T09:00:00";"GMT";"0.30%";"";"0.50%";"Low"
"PPI (YoY) (Jul)";"Japan";"JPY";"2004-08-01T09:00:00";"GMT";"1.60%";"";"1.80%";"Low"
"Retail Sales (YoY) (Jul)";"Japan";"JPY";"2004-08-01T09:00:00";"GMT";"-0.90%";"";"2.60%";"Moderate"
"Reuters Tankan Index (Jul)";"Japan";"JPY";"2004-08-01T09:00:00";"GMT";"27.00";"";"28.00";"Low"
"Tokyo CPI (YoY) (Jul)";"Japan";"JPY";"2004-08-01T09:00:00";"GMT";"-0.10%";"";"-0.20%";"Low"
"Tokyo Core CPI (YoY) (Jul)";"Japan";"JPY";"2004-08-01T09:00:00";"GMT";"-0.10%";"";"-0.10%";"Moderate"
"Trade Balance (Jul)";"Japan";"JPY";"2004-08-01T09:00:00";"GMT";"1,140.60B";"";"1,128.60B";"Moderate"
"Unemployment Rate (Jul)";"Japan";"JPY";"2004-08-01T09:00:00";"GMT";"4.70%";"";"4.90%";"Low"
