{"events": {"event": [
    {
      "eventDateTime": "2015-07-24T13:45:00",
      "eventActual": "53.8",
      "eventCountry": "United States",
      "eventExpectedVolatility": "Moderate",
      "eventName": "Manufacturing PMI (Jul)",
      "eventTimeZone": "GMT",
      "eventPrevious": "53.6",
      "eventCurrency": "USD",
      "eventForecast": "53.6"
    },
    {
      "eventDateTime": "2015-07-24T14:00:00",
      "eventActual": "482K",
      "eventCountry": "United States",
      "eventExpectedVolatility": "High",
      "eventName": "New Home Sales (Jun)",
      "eventTimeZone": "GMT",
      "eventPrevious": "517K",
      "eventCurrency": "USD",
      "eventForecast": "546K"
    },
    {
      "eventDateTime": "2015-07-24T14:00:00",
      "eventActual": "-6.8%",
      "eventCountry": "United States",
      "eventExpectedVolatility": "Moderate",
      "eventName": "New Home Sales (MoM) (Jun)",
      "eventTimeZone": "GMT",
      "eventPrevious": "-1.1%",
      "eventCurrency": "USD",
      "eventForecast": "-0.1%"
    },
    {
      "eventDateTime": "2015-07-24T17:00:00",
      "eventActual": "659",
      "eventCountry": "United States",
      "eventExpectedVolatility": "Moderate",
      "eventName": "U.S. Baker Hughes Oil Rig Count",
      "eventTimeZone": "GMT",
      "eventPrevious": "638",
      "eventCurrency": "USD",
      "eventForecast": ""
    },
    {
      "eventDateTime": "2015-07-24T19:30:00",
      "eventActual": "-22.2K",
      "eventCountry": "United States",
      "eventExpectedVolatility": "Low",
      "eventName": "CFTC Copper speculative net positions",
      "eventTimeZone": "GMT",
      "eventPrevious": "-20.8K",
      "eventCurrency": "USD",
      "eventForecast": ""
    },
    {
      "eventDateTime": "2015-07-24T19:30:00",
      "eventActual": "28.3K",
      "eventCountry": "United States",
      "eventExpectedVolatility": "Moderate",
      "eventName": "CFTC Gold speculative net positions",
      "eventTimeZone": "GMT",
      "eventPrevious": "47.8K",
      "eventCurrency": "USD",
      "eventForecast": ""
    },
    {
      "eventDateTime": "2015-07-24T19:30:00",
      "eventActual": "-90.5K",
      "eventCountry": "United States",
      "eventExpectedVolatility": "Moderate",
      "eventName": "CFTC Sandamp:P 500 speculative net positions",
      "eventTimeZone": "GMT",
      "eventPrevious": "-135.1K",
      "eventCurrency": "USD",
      "eventForecast": ""
    },
    {
      "eventDateTime": "2015-07-24T19:30:00",
      "eventActual": "4.2K",
      "eventCountry": "United States",
      "eventExpectedVolatility": "Low",
      "eventName": "CFTC Silver speculative net positions",
      "eventTimeZone": "GMT",
      "eventPrevious": "9.6K",
      "eventCurrency": "USD",
      "eventForecast": ""
    },
    {
      "eventDateTime": "2015-07-24T20:30:00",
      "eventActual": "253.7k",
      "eventCountry": "United States",
      "eventExpectedVolatility": "Moderate",
      "eventName": "CFTC Crude Oil speculative net positions",
      "eventTimeZone": "GMT",
      "eventPrevious": "264.4k",
      "eventCurrency": "USD",
      "eventForecast": ""
    }
  ]}}
