{"events": {"event": {
    "eventDateTime": "2019-08-19T05:30:00",
    "eventActual": "45.9%",
    "eventCountry": "United Kingdom",
    "eventExpectedVolatility": "Moderate",
    "eventName": "Investing.com GBP/USD Index",
    "eventTimeZone": "GMT",
    "eventPrevious": "40.5%",
    "eventCurrency": "GBP",
    "eventForecast": ""
  }}}
