{"events": {"event": {
    "eventDateTime": "2013-05-22T10:00:00",
    "eventActual": "",
    "eventCountry": "Switzerland",
    "eventExpectedVolatility": "Moderate",
    "eventName": "SNB Chairman Thomas Jordan speaks",
    "eventTimeZone": "GMT",
    "eventPrevious": "",
    "eventCurrency": "CHF",
    "eventForecast": ""
  }}}
