{"events": {"event": [
    {
      "eventDateTime": "2011-10-20T08:30:00",
      "eventActual": "0.6%",
      "eventCountry": "United Kingdom",
      "eventExpectedVolatility": "High",
      "eventName": "Retail Sales (MoM)",
      "eventTimeZone": "GMT",
      "eventPrevious": "-0.4%",
      "eventCurrency": "GBP",
      "eventForecast": "0.1%"
    },
    {
      "eventDateTime": "2011-10-20T23:01:00",
      "eventActual": "45",
      "eventCountry": "United Kingdom",
      "eventExpectedVolatility": "Moderate",
      "eventName": "Nationwide Consumer Confidence",
      "eventTimeZone": "GMT",
      "eventPrevious": "48",
      "eventCurrency": "GBP",
      "eventForecast": "49"
    }
  ]}}
