{"events": {"event": {
    "eventDateTime": "2012-01-26T11:00:00",
    "eventActual": "4.7%",
    "eventCountry": "Brazil",
    "eventExpectedVolatility": "Moderate",
    "eventName": "Unemployment Rate",
    "eventTimeZone": "GMT",
    "eventPrevious": "5.2%",
    "eventCurrency": "BRL",
    "eventForecast": "4.8%"
  }}}
