"FX Reserves, USD";"India";"INR";"2015-04-10T11:30:00";"GMT";"341.38B";"";"343.01B";"Low"
"Cumulative Industrial Production (Feb)";"India";"INR";"2015-04-10T12:00:00";"GMT";"2.50%";"";"2.80%";"Low"
"Industrial Production (YoY) (Feb)";"India";"INR";"2015-04-10T12:00:00";"GMT";"2.6%";"2.4%";"5.0%";"Low"
"Manufacturing Output (MoM) (Feb)";"India";"INR";"2015-04-10T12:00:00";"GMT";"3.3%";"";"5.2%";"Low"
