"Investing.com USD/CAD Index";"Canada";"CAD";"2014-10-06T05:00:00";"GMT";"49.4%";"";"51.1%";"Moderate"
"Ivey PMI (Sep)";"Canada";"CAD";"2014-10-06T14:00:00";"GMT";"50.9";"53.0";"58.6";"High"
"Ivey PMI n.s.a";"Canada";"CAD";"2014-10-06T14:00:00";"GMT";"49.1";"";"65.2";"Low"
