"French Exports (Nov)";"France";"EUR";"2019-01-05T07:45:00";"GMT";"43.2B";"";"";"Low"
"French Imports (Nov)";"France";"EUR";"2019-01-05T07:45:00";"GMT";"47.3B";"";"";"Low"
"French Trade Balance (Nov)";"France";"EUR";"2019-01-05T07:45:00";"GMT";"-4.1B";"-6.0B";"";"Low"
