{"events": {"event": [
    {
      "eventDateTime": "2004-11-19T17:00:00",
      "eventActual": "186",
      "eventCountry": "United States",
      "eventExpectedVolatility": "Moderate",
      "eventName": "U.S. Baker Hughes Oil Rig Count",
      "eventTimeZone": "GMT",
      "eventPrevious": "179",
      "eventCurrency": "USD",
      "eventForecast": ""
    },
    {
      "eventDateTime": "2004-11-19T20:30:00",
      "eventActual": "0.7k",
      "eventCountry": "United States",
      "eventExpectedVolatility": "Moderate",
      "eventName": "CFTC Crude Oil speculative net positions",
      "eventTimeZone": "GMT",
      "eventPrevious": "3.7k",
      "eventCurrency": "USD",
      "eventForecast": ""
    }
  ]}}
