{"events": {"event": {
    "eventDateTime": "2019-05-03T11:30:00",
    "eventActual": "418.52B",
    "eventCountry": "India",
    "eventExpectedVolatility": "Low",
    "eventName": "FX Reserves, USD",
    "eventTimeZone": "GMT",
    "eventPrevious": "414.15B",
    "eventCurrency": "INR",
    "eventForecast": ""
  }}}
