{"events": {"event": [
    {
      "eventDateTime": "2017-03-08T13:15:00",
      "eventActual": "210.2K",
      "eventCountry": "Canada",
      "eventExpectedVolatility": "Moderate",
      "eventName": "Housing Starts (Feb)",
      "eventTimeZone": "GMT",
      "eventPrevious": "208.9K",
      "eventCurrency": "CAD",
      "eventForecast": "200.0K"
    },
    {
      "eventDateTime": "2017-03-08T13:30:00",
      "eventActual": "5.4%",
      "eventCountry": "Canada",
      "eventExpectedVolatility": "Moderate",
      "eventName": "Building Permits (MoM) (Jan)",
      "eventTimeZone": "GMT",
      "eventPrevious": "-4.4%",
      "eventCurrency": "CAD",
      "eventForecast": "5.0%"
    },
    {
      "eventDateTime": "2017-03-08T13:30:00",
      "eventActual": "0.4%",
      "eventCountry": "Canada",
      "eventExpectedVolatility": "Moderate",
      "eventName": "Labor Productivity (QoQ) (Q4)",
      "eventTimeZone": "GMT",
      "eventPrevious": "1.2%",
      "eventCurrency": "CAD",
      "eventForecast": ""
    }
  ]}}
