"CPI (MoM) (Mar)";"Brazil";"BRL";"2019-04-10T12:00:00";"GMT";"0.43%";"0.39%";"0.75%";"Moderate"
"CPI (YoY) (Mar)";"Brazil";"BRL";"2019-04-10T12:00:00";"GMT";"3.89%";"3.85%";"4.58%";"Moderate"
"Foreign Exchange Flows";"Brazil";"BRL";"2019-04-10T15:30:00";"GMT";"-4.237B";"";"-1.583B";"Low"
