{"events": {"event": {
    "eventDateTime": "2013-02-22T08:30:00",
    "eventActual": "3.00%",
    "eventCountry": "Hong Kong",
    "eventExpectedVolatility": "Low",
    "eventName": "CPI (YoY)",
    "eventTimeZone": "GMT",
    "eventPrevious": "3.70%",
    "eventCurrency": "HKD",
    "eventForecast": "3.20%"
  }}}
