{"events": {"event": [
    {
      "eventDateTime": "2013-05-17T12:30:00",
      "eventActual": "-0.2%",
      "eventCountry": "Canada",
      "eventExpectedVolatility": "Moderate",
      "eventName": "CPI (MoM)",
      "eventTimeZone": "GMT",
      "eventPrevious": "0.2%",
      "eventCurrency": "CAD",
      "eventForecast": "0.1%"
    },
    {
      "eventDateTime": "2013-05-17T12:30:00",
      "eventActual": "0.4%",
      "eventCountry": "Canada",
      "eventExpectedVolatility": "Low",
      "eventName": "CPI (YoY)",
      "eventTimeZone": "GMT",
      "eventPrevious": "1.0%",
      "eventCurrency": "CAD",
      "eventForecast": "1.0%"
    },
    {
      "eventDateTime": "2013-05-17T12:30:00",
      "eventActual": "0.1%",
      "eventCountry": "Canada",
      "eventExpectedVolatility": "High",
      "eventName": "Core CPI (MoM)",
      "eventTimeZone": "GMT",
      "eventPrevious": "0.2%",
      "eventCurrency": "CAD",
      "eventForecast": "0.2%"
    },
    {
      "eventDateTime": "2013-05-17T12:30:00",
      "eventActual": "0.3%",
      "eventCountry": "Canada",
      "eventExpectedVolatility": "Moderate",
      "eventName": "Wholesale Sales (MoM)",
      "eventTimeZone": "GMT",
      "eventPrevious": "0.1%",
      "eventCurrency": "CAD",
      "eventForecast": "0.4%"
    },
    {
      "eventDateTime": "2013-05-17T19:30:00",
      "eventActual": "-44.4K",
      "eventCountry": "Canada",
      "eventExpectedVolatility": "Low",
      "eventName": "CFTC CAD speculative net positions",
      "eventTimeZone": "GMT",
      "eventPrevious": "-51.9K",
      "eventCurrency": "CAD",
      "eventForecast": ""
    }
  ]}}
