"German CPI (MoM)";"Germany";"EUR";"2013-01-15T07:00:00";"GMT";"0.9%";"0.0%";"0.9%";"Moderate"
"German CPI (YoY)";"Germany";"EUR";"2013-01-15T07:00:00";"GMT";"2.1%";"0.0%";"2.1%";"Low"
"French Government Budget Balance";"France";"EUR";"2013-01-15T07:45:00";"GMT";"-94.6B";"-92.0B";"-103.4B";"Low"
"Spanish CPI (MoM)";"Spain";"EUR";"2013-01-15T08:00:00";"GMT";"-0.1%";"0.1%";"0.1%";"Low"
"Italian CPI (MoM)";"Italy";"EUR";"2013-01-15T09:00:00";"GMT";"0.3%";"0.3%";"0.2%";"Moderate"
"Italian CPI (YoY)";"Italy";"EUR";"2013-01-15T09:00:00";"GMT";"2.4%";"2.4%";"2.3%";"Low"
"Spanish 12-Month Letras Auction";"Spain";"EUR";"2013-01-15T09:40:00";"GMT";"2.556%";"";"1.472%";"Low"
"Trade Balance";"Euro Zone";"EUR";"2013-01-15T10:00:00";"GMT";"7.4B";"8.2B";"11.0B";"Moderate"
