{"events": {"event": [
    {
      "eventDateTime": "2015-06-04T11:30:00",
      "eventActual": "41.0K",
      "eventCountry": "United States",
      "eventExpectedVolatility": "Low",
      "eventName": "Challenger Job Cuts (May)",
      "eventTimeZone": "GMT",
      "eventPrevious": "61.6K",
      "eventCurrency": "USD",
      "eventForecast": ""
    },
    {
      "eventDateTime": "2015-06-04T11:30:00",
      "eventActual": "-22.5%",
      "eventCountry": "United States",
      "eventExpectedVolatility": "Low",
      "eventName": "Challenger Job Cuts (YoY)",
      "eventTimeZone": "GMT",
      "eventPrevious": "52.8%",
      "eventCurrency": "USD",
      "eventForecast": ""
    },
    {
      "eventDateTime": "2015-06-04T12:30:00",
      "eventActual": "2,196K",
      "eventCountry": "United States",
      "eventExpectedVolatility": "Low",
      "eventName": "Continuing Jobless Claims",
      "eventTimeZone": "GMT",
      "eventPrevious": "2,226K",
      "eventCurrency": "USD",
      "eventForecast": "2,208K"
    },
    {
      "eventDateTime": "2015-06-04T12:30:00",
      "eventActual": "276K",
      "eventCountry": "United States",
      "eventExpectedVolatility": "Moderate",
      "eventName": "Initial Jobless Claims",
      "eventTimeZone": "GMT",
      "eventPrevious": "284K",
      "eventCurrency": "USD",
      "eventForecast": "279K"
    },
    {
      "eventDateTime": "2015-06-04T12:30:00",
      "eventActual": "274.75K",
      "eventCountry": "United States",
      "eventExpectedVolatility": "Low",
      "eventName": "Jobless Claims 4-Week Avg.",
      "eventTimeZone": "GMT",
      "eventPrevious": "272.00K",
      "eventCurrency": "USD",
      "eventForecast": ""
    },
    {
      "eventDateTime": "2015-06-04T12:30:00",
      "eventActual": "-3.1%",
      "eventCountry": "United States",
      "eventExpectedVolatility": "Moderate",
      "eventName": "Nonfarm Productivity (QoQ) (Q1)",
      "eventTimeZone": "GMT",
      "eventPrevious": "-1.9%",
      "eventCurrency": "USD",
      "eventForecast": "-2.9%"
    },
    {
      "eventDateTime": "2015-06-04T12:30:00",
      "eventActual": "6.7%",
      "eventCountry": "United States",
      "eventExpectedVolatility": "Moderate",
      "eventName": "Unit Labor Costs (QoQ) (Q1)",
      "eventTimeZone": "GMT",
      "eventPrevious": "5.0%",
      "eventCurrency": "USD",
      "eventForecast": "5.9%"
    },
    {
      "eventDateTime": "2015-06-04T13:45:00",
      "eventActual": "40.5",
      "eventCountry": "United States",
      "eventExpectedVolatility": "Low",
      "eventName": "Bloomberg Consumer Confidence",
      "eventTimeZone": "GMT",
      "eventPrevious": "40.9",
      "eventCurrency": "USD",
      "eventForecast": ""
    },
    {
      "eventDateTime": "2015-06-04T14:30:00",
      "eventActual": "132B",
      "eventCountry": "United States",
      "eventExpectedVolatility": "Low",
      "eventName": "Natural Gas Storage",
      "eventTimeZone": "GMT",
      "eventPrevious": "112B",
      "eventCurrency": "USD",
      "eventForecast": "121B"
    },
    {
      "eventDateTime": "2015-06-04T16:00:00",
      "eventActual": "",
      "eventCountry": "United States",
      "eventExpectedVolatility": "Moderate",
      "eventName": "FOMC Member Tarullo Speaks",
      "eventTimeZone": "GMT",
      "eventPrevious": "",
      "eventCurrency": "USD",
      "eventForecast": ""
    }
  ]}}
