{"events": {"event": [
    {
      "eventDateTime": "2018-07-12T09:30:00",
      "eventActual": "-16.2%",
      "eventCountry": "South Africa",
      "eventExpectedVolatility": "Low",
      "eventName": "Gold Production (YoY) (May)",
      "eventTimeZone": "GMT",
      "eventPrevious": "-5.8%",
      "eventCurrency": "ZAR",
      "eventForecast": ""
    },
    {
      "eventDateTime": "2018-07-12T09:30:00",
      "eventActual": "-2.6%",
      "eventCountry": "South Africa",
      "eventExpectedVolatility": "Low",
      "eventName": "Mining Production (May)",
      "eventTimeZone": "GMT",
      "eventPrevious": "-4.4%",
      "eventCurrency": "ZAR",
      "eventForecast": "-3.4%"
    },
    {
      "eventDateTime": "2018-07-12T11:00:00",
      "eventActual": "1.5%",
      "eventCountry": "South Africa",
      "eventExpectedVolatility": "Low",
      "eventName": "Manufacturing Production (MoM) (May)",
      "eventTimeZone": "GMT",
      "eventPrevious": "-0.6%",
      "eventCurrency": "ZAR",
      "eventForecast": "0.2%"
    }
  ]}}
