"Gold Production (YoY) (May)";"South Africa";"ZAR";"2018-07-12T09:30:00";"GMT";"-5.8%";"";"-16.2%";"Low"
"Mining Production (May)";"South Africa";"ZAR";"2018-07-12T09:30:00";"GMT";"-4.4%";"-3.4%";"-2.6%";"Low"
"Manufacturing Production (MoM) (May)";"South Africa";"ZAR";"2018-07-12T11:00:00";"GMT";"-0.6%";"0.2%";"1.5%";"Low"
