{"events": {"event": {
    "eventDateTime": "2018-02-05T07:15:00",
    "eventActual": "49.0",
    "eventCountry": "South Africa",
    "eventExpectedVolatility": "Low",
    "eventName": "South Africa Standard Bank PMI (Jan)",
    "eventTimeZone": "GMT",
    "eventPrevious": "48.4",
    "eventCurrency": "ZAR",
    "eventForecast": ""
  }}}
