"Sandamp:P/CS HPI Composite - 20 n.s.a. (MoM) (Oct)";"United States";"USD";"2016-12-27T14:00:00";"GMT";"0.1%";"";"0.1%";"Low"
"Sandamp:P/CS HPI Composite - 20 n.s.a. (YoY) (Oct)";"United States";"USD";"2016-12-27T14:00:00";"GMT";"5.0%";"5.1%";"5.1%";"Moderate"
"Sandamp:P/CS HPI Composite - 20 s.a. (MoM) (Oct)";"United States";"USD";"2016-12-27T14:00:00";"GMT";"0.5%";"0.5%";"0.6%";"Low"
"CB Consumer Confidence (Dec)";"United States";"USD";"2016-12-27T15:00:00";"GMT";"109.4";"109.0";"113.7";"High"
"Richmond Manufacturing Index (Dec)";"United States";"USD";"2016-12-27T15:00:00";"GMT";"4";"5";"8";"Low"
"Richmond Manufacturing Shipments (Dec)";"United States";"USD";"2016-12-27T15:00:00";"GMT";"1";"";"12";"Low"
"Richmond Services Index (Dec)";"United States";"USD";"2016-12-27T15:00:00";"GMT";"3";"";"4";"Low"
"Dallas Fed Mfg Business Index (Dec)";"United States";"USD";"2016-12-27T15:30:00";"GMT";"10.2";"";"15.5";"Low"
"3-Month Bill Auction";"United States";"USD";"2016-12-27T16:30:00";"GMT";"0.515%";"";"0.555%";"Low"
"6-Month Bill Auction";"United States";"USD";"2016-12-27T16:30:00";"GMT";"0.645%";"";"0.660%";"Low"
"2-Year Note Auction";"United States";"USD";"2016-12-27T18:00:00";"GMT";"1.085%";"";"1.280%";"Low"
"4-Week Bill Auction";"United States";"USD";"2016-12-27T18:00:00";"GMT";"0.490%";"";"0.485%";"Low"
