"BoC Interest Rate Decision (Oct)";"Canada";"CAD";"2005-11-01T09:00:00";"GMT";"2.75%";"";"3.00%";"High"
"Budget Balance (Oct)";"Canada";"CAD";"2005-11-01T09:00:00";"GMT";"0.16B";"";"1.57B";"Low"
"Building Permits (MoM) (Oct)";"Canada";"CAD";"2005-11-01T09:00:00";"GMT";"-6.00%";"";"3.90%";"Moderate"
"CPI (MoM) (Oct)";"Canada";"CAD";"2005-11-01T09:00:00";"GMT";"0.80%";"";"-0.50%";"Moderate"
"CPI (YoY) (Oct)";"Canada";"CAD";"2005-11-01T09:00:00";"GMT";"3.20%";"";"2.60%";"Low"
"Core CPI (MoM) (Oct)";"Canada";"CAD";"2005-11-01T09:00:00";"GMT";"0.30%";"";"0.00%";"High"
"Core CPI (YoY) (Oct)";"Canada";"CAD";"2005-11-01T09:00:00";"GMT";"1.70%";"";"1.70%";"Moderate"
"Core Retail Sales (MoM) (Oct)";"Canada";"CAD";"2005-11-01T09:00:00";"GMT";"1.30%";"";"0.40%";"High"
"Employment Change (Oct)";"Canada";"CAD";"2005-11-01T09:00:00";"GMT";"-13.40K";"";"47.40K";"High"
"Exports (Oct)";"Canada";"CAD";"2005-11-01T09:00:00";"GMT";"38.85B";"";"40.19B";"Low"
"Foreign Securities Purchases (Oct)";"Canada";"CAD";"2005-11-01T09:00:00";"GMT";"5.27B";"";"2.77B";"Moderate"
"Foreign Securities Purchases by Canadians (Oct)";"Canada";"CAD";"2005-11-01T09:00:00";"GMT";"5.95B";"";"5.19B";"Low"
"Full Employment Change (Oct)";"Canada";"CAD";"2005-11-01T09:00:00";"GMT";"2.20K";"";"-12.60K";"Low"
"GDP (MoM) (Oct)";"Canada";"CAD";"2005-11-01T09:00:00";"GMT";"0.10%";"";"0.30%";"High"
"Housing Starts (Oct)";"Canada";"CAD";"2005-11-01T09:00:00";"GMT";"232.90K";"";"219.00K";"Moderate"
"IPPI (MoM) (Oct)";"Canada";"CAD";"2005-11-01T09:00:00";"GMT";"0.70%";"";"0.10%";"Low"
"IPPI (YoY) (Oct)";"Canada";"CAD";"2005-11-01T09:00:00";"GMT";"1.20%";"";"1.80%";"Low"
"Imports (Oct)";"Canada";"CAD";"2005-11-01T09:00:00";"GMT";"32.68B";"";"32.72B";"Low"
"Ivey PMI n.s.a (Oct)";"Canada";"CAD";"2005-11-01T09:00:00";"GMT";"67.30";"";"64.80";"Low"
"Manufacturing Sales (MoM) (Oct)";"Canada";"CAD";"2005-11-01T09:00:00";"GMT";"1.50%";"";"0.80%";"Moderate"
"New Housing Price Index (MoM) (Oct)";"Canada";"CAD";"2005-11-01T09:00:00";"GMT";"0.60%";"";"0.70%";"Moderate"
"Part Time Employment Change (Oct)";"Canada";"CAD";"2005-11-01T09:00:00";"GMT";"-15.60K";"";"60.00K";"Low"
"Participation Rate (Oct)";"Canada";"CAD";"2005-11-01T09:00:00";"GMT";"67.10%";"";"67.20%";"Low"
"RMPI (MoM) (Oct)";"Canada";"CAD";"2005-11-01T09:00:00";"GMT";"-0.30%";"";"-1.10%";"Moderate"
"RMPI (YoY) (Oct)";"Canada";"CAD";"2005-11-01T09:00:00";"GMT";"15.20%";"";"9.30%";"Low"
"Retail Sales (MoM) (Oct)";"Canada";"CAD";"2005-11-01T09:00:00";"GMT";"-0.20%";"";"0.90%";"Moderate"
"Trade Balance (Oct)";"Canada";"CAD";"2005-11-01T09:00:00";"GMT";"6.17B";"";"7.48B";"Moderate"
"Unemployment Rate (Oct)";"Canada";"CAD";"2005-11-01T09:00:00";"GMT";"6.70%";"";"6.70%";"Moderate"
"Wholesale Sales (MoM) (Oct)";"Canada";"CAD";"2005-11-01T09:00:00";"GMT";"1.80%";"";"1.90%";"Moderate"
