{"events": {"event": [
    {
      "eventDateTime": "2017-06-08T09:30:00",
      "eventActual": "-2.0%",
      "eventCountry": "South Africa",
      "eventExpectedVolatility": "Low",
      "eventName": "Gold Production (YoY) (Apr)",
      "eventTimeZone": "GMT",
      "eventPrevious": "-9.1%",
      "eventCurrency": "ZAR",
      "eventForecast": ""
    },
    {
      "eventDateTime": "2017-06-08T09:30:00",
      "eventActual": "1.7%",
      "eventCountry": "South Africa",
      "eventExpectedVolatility": "Low",
      "eventName": "Mining Production (Apr)",
      "eventTimeZone": "GMT",
      "eventPrevious": "15.4%",
      "eventCurrency": "ZAR",
      "eventForecast": "5.9%"
    },
    {
      "eventDateTime": "2017-06-08T11:00:00",
      "eventActual": "2.3%",
      "eventCountry": "South Africa",
      "eventExpectedVolatility": "Low",
      "eventName": "Manufacturing Production (MoM) (Apr)",
      "eventTimeZone": "GMT",
      "eventPrevious": "-0.6%",
      "eventCurrency": "ZAR",
      "eventForecast": "0.1%"
    }
  ]}}
