{"events": {"event": {
    "eventDateTime": "2012-07-26T09:30:00",
    "eventActual": "4.40%",
    "eventCountry": "South Africa",
    "eventExpectedVolatility": "Low",
    "eventName": "PPI (MoM)",
    "eventTimeZone": "GMT",
    "eventPrevious": "0.50%",
    "eventCurrency": "ZAR",
    "eventForecast": "3.30%"
  }}}
