{"events": {"event": {
    "eventDateTime": "2014-06-30T05:00:00",
    "eventActual": "62.8%",
    "eventCountry": "Switzerland",
    "eventExpectedVolatility": "Moderate",
    "eventName": "Investing.com USD/CHF Index",
    "eventTimeZone": "GMT",
    "eventPrevious": "49.8%",
    "eventCurrency": "CHF",
    "eventForecast": ""
  }}}
