"Budget Balance % of GDP (Nov)";"Russia";"RUB";"2007-12-01T09:00:00";"GMT";"8.20%";"";"6.10%";"Low"
"CPI (MoM) (Nov)";"Russia";"RUB";"2007-12-01T09:00:00";"GMT";"1.70%";"";"1.20%";"Moderate"
"CPI (YoY) (Nov)";"Russia";"RUB";"2007-12-01T09:00:00";"GMT";"10.80%";"";"11.50%";"Moderate"
"Central Bank reserves (USD) (Nov)";"Russia";"RUB";"2007-12-01T09:00:00";"GMT";"447.90B";"";"463.50B";"Moderate"
"GDP Monthly (YoY) (Nov)";"Russia";"RUB";"2007-12-01T09:00:00";"GMT";"7.80%";"";"7.90%";"Moderate"
"Industrial Production (YoY) (Nov)";"Russia";"RUB";"2007-12-01T09:00:00";"GMT";"5.70%";"";"6.10%";"Low"
"Interest Rate Decision (Nov)";"Russia";"RUB";"2007-12-01T09:00:00";"GMT";"6.50%";"";"6.50%";"High"
"PPI (MoM) (Nov)";"Russia";"RUB";"2007-12-01T09:00:00";"GMT";"-0.10%";"";"3.10%";"Low"
"PPI (YoY) (Nov)";"Russia";"RUB";"2007-12-01T09:00:00";"GMT";"14.20%";"";"22.20%";"Low"
"Trade Balance (Nov)";"Russia";"RUB";"2007-12-01T09:00:00";"GMT";"12.21B";"";"12.59B";"Low"
"Unemployment Rate (Nov)";"Russia";"RUB";"2007-12-01T09:00:00";"GMT";"5.60%";"";"5.70%";"Moderate"
