{"events": {"event": [
    {
      "eventDateTime": "2011-11-07T12:00:00",
      "eventActual": "-15.40%",
      "eventCountry": "United States",
      "eventExpectedVolatility": "Low",
      "eventName": "Bankruptcy Filings (YoY)",
      "eventTimeZone": "GMT",
      "eventPrevious": "-9.80%",
      "eventCurrency": "USD",
      "eventForecast": ""
    },
    {
      "eventDateTime": "2011-11-07T20:00:00",
      "eventActual": "7.40B",
      "eventCountry": "United States",
      "eventExpectedVolatility": "Low",
      "eventName": "Consumer Credit",
      "eventTimeZone": "GMT",
      "eventPrevious": "-9.70B",
      "eventCurrency": "USD",
      "eventForecast": "5.00B"
    }
  ]}}
