{"events": {"event": {
    "eventDateTime": "2012-05-03T12:00:00",
    "eventActual": "-2.1%",
    "eventCountry": "Brazil",
    "eventExpectedVolatility": "Moderate",
    "eventName": "Industrial Production (YoY)",
    "eventTimeZone": "GMT",
    "eventPrevious": "-4.0%",
    "eventCurrency": "BRL",
    "eventForecast": "1.5%"
  }}}
