{"events": {"event": {
    "eventDateTime": "2016-06-19T23:01:00",
    "eventActual": "0.8%",
    "eventCountry": "United Kingdom",
    "eventExpectedVolatility": "Low",
    "eventName": "Rightmove House Price Index (MoM)",
    "eventTimeZone": "GMT",
    "eventPrevious": "0.4%",
    "eventCurrency": "GBP",
    "eventForecast": ""
  }}}
