"Interest Rate Decision (Jun)";"Russia";"RUB";"2018-06-15T10:30:00";"GMT";"7.25%";"7.25%";"7.25%";"High"
"CBR Monetary Policy Meeting Minutes";"Russia";"RUB";"2018-06-15T12:00:00";"GMT";" ";"";"";"Moderate"
"CBR Press Conference";"Russia";"RUB";"2018-06-15T12:00:00";"GMT";" ";"";"";"Moderate"
"CFTC RUB speculative positions";"Russia";"RUB";"2018-06-15T19:30:00";"GMT";"11.6K";"";"12.1K";"Moderate"
