{"events": {"event": {
    "eventDateTime": "2010-10-27T23:50:00",
    "eventActual": "1.2%",
    "eventCountry": "Japan",
    "eventExpectedVolatility": "Moderate",
    "eventName": "Retail Sales (YoY)",
    "eventTimeZone": "GMT",
    "eventPrevious": "4.3%",
    "eventCurrency": "JPY",
    "eventForecast": "3.3%"
  }}}
