{"events": {"event": {
    "eventDateTime": "2012-07-02T18:00:00",
    "eventActual": "0.80B",
    "eventCountry": "Brazil",
    "eventExpectedVolatility": "Low",
    "eventName": "Trade Balance",
    "eventTimeZone": "GMT",
    "eventPrevious": "2.95B",
    "eventCurrency": "BRL",
    "eventForecast": "0.40B"
  }}}
