{"events": {"event": {
    "eventDateTime": "2008-10-06T08:30:00",
    "eventActual": "-27.8",
    "eventCountry": "Euro Zone",
    "eventExpectedVolatility": "Low",
    "eventName": "Sentix Investor Confidence",
    "eventTimeZone": "GMT",
    "eventPrevious": "-20.2",
    "eventCurrency": "EUR",
    "eventForecast": "-27.1"
  }}}
