{"events": {"event": [
    {
      "eventDateTime": "2015-04-01T09:00:00",
      "eventActual": "47.9",
      "eventCountry": "South Africa",
      "eventExpectedVolatility": "Low",
      "eventName": "Manufacturing PMI",
      "eventTimeZone": "GMT",
      "eventPrevious": "47.6",
      "eventCurrency": "ZAR",
      "eventForecast": "48.0"
    },
    {
      "eventDateTime": "2015-04-01T09:00:00",
      "eventActual": "55.45K",
      "eventCountry": "South Africa",
      "eventExpectedVolatility": "Low",
      "eventName": "Total Vehicle Sales (Mar)",
      "eventTimeZone": "GMT",
      "eventPrevious": "52.37K",
      "eventCurrency": "ZAR",
      "eventForecast": ""
    },
    {
      "eventDateTime": "2015-04-01T09:00:00",
      "eventActual": "0.00%",
      "eventCountry": "South Africa",
      "eventExpectedVolatility": "Low",
      "eventName": "Total Vehicle Sales (YoY) (Mar)",
      "eventTimeZone": "GMT",
      "eventPrevious": "1.10%",
      "eventCurrency": "ZAR",
      "eventForecast": ""
    }
  ]}}
