{"events": {"event": [
    {
      "eventDateTime": "2002-02-01T09:00:00",
      "eventActual": "7.65M",
      "eventCountry": "United States",
      "eventExpectedVolatility": "Low",
      "eventName": "All Car Sales (Jan)",
      "eventTimeZone": "GMT",
      "eventPrevious": "7.38M",
      "eventCurrency": "USD",
      "eventForecast": ""
    },
    {
      "eventDateTime": "2002-02-01T09:00:00",
      "eventActual": "8.57M",
      "eventCountry": "United States",
      "eventExpectedVolatility": "Low",
      "eventName": "All Truck Sales (Jan)",
      "eventTimeZone": "GMT",
      "eventPrevious": "8.76M",
      "eventCurrency": "USD",
      "eventForecast": ""
    },
    {
      "eventDateTime": "2002-02-01T09:00:00",
      "eventActual": "-0.10%",
      "eventCountry": "United States",
      "eventExpectedVolatility": "Moderate",
      "eventName": "Business Inventories (MoM) (Jan)",
      "eventTimeZone": "GMT",
      "eventPrevious": "-0.70%",
      "eventCurrency": "USD",
      "eventForecast": ""
    },
    {
      "eventDateTime": "2002-02-01T09:00:00",
      "eventActual": "97.80",
      "eventCountry": "United States",
      "eventExpectedVolatility": "High",
      "eventName": "CB Consumer Confidence (Jan)",
      "eventTimeZone": "GMT",
      "eventPrevious": "94.60",
      "eventCurrency": "USD",
      "eventForecast": ""
    },
    {
      "eventDateTime": "2002-02-01T09:00:00",
      "eventActual": "111.80",
      "eventCountry": "United States",
      "eventExpectedVolatility": "Low",
      "eventName": "CB Employment Trends Index (Jan)",
      "eventTimeZone": "GMT",
      "eventPrevious": "111.20",
      "eventCurrency": "USD",
      "eventForecast": ""
    },
    {
      "eventDateTime": "2002-02-01T09:00:00",
      "eventActual": "0.20%",
      "eventCountry": "United States",
      "eventExpectedVolatility": "Moderate",
      "eventName": "CPI (MoM) (Jan)",
      "eventTimeZone": "GMT",
      "eventPrevious": "-0.10%",
      "eventCurrency": "USD",
      "eventForecast": ""
    },
    {
      "eventDateTime": "2002-02-01T09:00:00",
      "eventActual": "1.10%",
      "eventCountry": "United States",
      "eventExpectedVolatility": "Low",
      "eventName": "CPI (YoY) (Jan)",
      "eventTimeZone": "GMT",
      "eventPrevious": "1.60%",
      "eventCurrency": "USD",
      "eventForecast": ""
    },
    {
      "eventDateTime": "2002-02-01T09:00:00",
      "eventActual": "177.10",
      "eventCountry": "United States",
      "eventExpectedVolatility": "Low",
      "eventName": "CPI Index, n.s.a. (Jan)",
      "eventTimeZone": "GMT",
      "eventPrevious": "176.70",
      "eventCurrency": "USD",
      "eventForecast": ""
    },
    {
      "eventDateTime": "2002-02-01T09:00:00",
      "eventActual": "73.90%",
      "eventCountry": "United States",
      "eventExpectedVolatility": "Low",
      "eventName": "Capacity Utilization Rate (Jan)",
      "eventTimeZone": "GMT",
      "eventPrevious": "73.50%",
      "eventCurrency": "USD",
      "eventForecast": ""
    },
    {
      "eventDateTime": "2002-02-01T09:00:00",
      "eventActual": "5.10%",
      "eventCountry": "United States",
      "eventExpectedVolatility": "Low",
      "eventName": "Chain Store Sales (MoM) (Jan)",
      "eventTimeZone": "GMT",
      "eventPrevious": "2.20%",
      "eventCurrency": "USD",
      "eventForecast": ""
    },
    {
      "eventDateTime": "2002-02-01T09:00:00",
      "eventActual": "0.10%",
      "eventCountry": "United States",
      "eventExpectedVolatility": "Low",
      "eventName": "Chain Store Sales (WoW) (Jan)",
      "eventTimeZone": "GMT",
      "eventPrevious": "0.66%",
      "eventCurrency": "USD",
      "eventForecast": ""
    },
    {
      "eventDateTime": "2002-02-01T09:00:00",
      "eventActual": "2.80%",
      "eventCountry": "United States",
      "eventExpectedVolatility": "Low",
      "eventName": "Chain Store Sales (YoY) (Jan)",
      "eventTimeZone": "GMT",
      "eventPrevious": "2.59%",
      "eventCurrency": "USD",
      "eventForecast": ""
    },
    {
      "eventDateTime": "2002-02-01T09:00:00",
      "eventActual": "248.48K",
      "eventCountry": "United States",
      "eventExpectedVolatility": "Low",
      "eventName": "Challenger Job Cuts (Jan)",
      "eventTimeZone": "GMT",
      "eventPrevious": "161.58K",
      "eventCurrency": "USD",
      "eventForecast": ""
    },
    {
      "eventDateTime": "2002-02-01T09:00:00",
      "eventActual": "-0.25",
      "eventCountry": "United States",
      "eventExpectedVolatility": "Low",
      "eventName": "Chicago Fed National Activity (Jan)",
      "eventTimeZone": "GMT",
      "eventPrevious": "-0.53",
      "eventCurrency": "USD",
      "eventForecast": ""
    },
    {
      "eventDateTime": "2002-02-01T09:00:00",
      "eventActual": "45.20",
      "eventCountry": "United States",
      "eventExpectedVolatility": "Moderate",
      "eventName": "Chicago PMI (Jan)",
      "eventTimeZone": "GMT",
      "eventPrevious": "42.00",
      "eventCurrency": "USD",
      "eventForecast": ""
    },
    {
      "eventDateTime": "2002-02-01T09:00:00",
      "eventActual": "0.20%",
      "eventCountry": "United States",
      "eventExpectedVolatility": "Low",
      "eventName": "Cleveland CPI (MoM) (Jan)",
      "eventTimeZone": "GMT",
      "eventPrevious": "0.20%",
      "eventCurrency": "USD",
      "eventForecast": ""
    },
    {
      "eventDateTime": "2002-02-01T09:00:00",
      "eventActual": "1.10%",
      "eventCountry": "United States",
      "eventExpectedVolatility": "Low",
      "eventName": "Construction Spending (MoM) (Jan)",
      "eventTimeZone": "GMT",
      "eventPrevious": "0.70%",
      "eventCurrency": "USD",
      "eventForecast": ""
    },
    {
      "eventDateTime": "2002-02-01T09:00:00",
      "eventActual": "-0.43B",
      "eventCountry": "United States",
      "eventExpectedVolatility": "Low",
      "eventName": "Consumer Credit (Jan)",
      "eventTimeZone": "GMT",
      "eventPrevious": "10.01B",
      "eventCurrency": "USD",
      "eventForecast": ""
    },
    {
      "eventDateTime": "2002-02-01T09:00:00",
      "eventActual": "3,546.57K",
      "eventCountry": "United States",
      "eventExpectedVolatility": "Low",
      "eventName": "Continuing Jobless Claims (Jan)",
      "eventTimeZone": "GMT",
      "eventPrevious": "3,582.24K",
      "eventCurrency": "USD",
      "eventForecast": ""
    },
    {
      "eventDateTime": "2002-02-01T09:00:00",
      "eventActual": "0.20%",
      "eventCountry": "United States",
      "eventExpectedVolatility": "High",
      "eventName": "Core CPI (MoM) (Jan)",
      "eventTimeZone": "GMT",
      "eventPrevious": "0.20%",
      "eventCurrency": "USD",
      "eventForecast": ""
    },
    {
      "eventDateTime": "2002-02-01T09:00:00",
      "eventActual": "2.60%",
      "eventCountry": "United States",
      "eventExpectedVolatility": "Moderate",
      "eventName": "Core CPI (YoY) (Jan)",
      "eventTimeZone": "GMT",
      "eventPrevious": "2.70%",
      "eventCurrency": "USD",
      "eventForecast": ""
    },
    {
      "eventDateTime": "2002-02-01T09:00:00",
      "eventActual": "188.70",
      "eventCountry": "United States",
      "eventExpectedVolatility": "Low",
      "eventName": "Core CPI Index (Jan)",
      "eventTimeZone": "GMT",
      "eventPrevious": "188.40",
      "eventCurrency": "USD",
      "eventForecast": ""
    },
    {
      "eventDateTime": "2002-02-01T09:00:00",
      "eventActual": "0.00%",
      "eventCountry": "United States",
      "eventExpectedVolatility": "Moderate",
      "eventName": "Core PCE Price Index (MoM) (Jan)",
      "eventTimeZone": "GMT",
      "eventPrevious": "0.00%",
      "eventCurrency": "USD",
      "eventForecast": ""
    },
    {
      "eventDateTime": "2002-02-01T09:00:00",
      "eventActual": "1.40%",
      "eventCountry": "United States",
      "eventExpectedVolatility": "Moderate",
      "eventName": "Core PCE Price Index (YoY) (Jan)",
      "eventTimeZone": "GMT",
      "eventPrevious": "1.70%",
      "eventCurrency": "USD",
      "eventForecast": ""
    },
    {
      "eventDateTime": "2002-02-01T09:00:00",
      "eventActual": "0.20%",
      "eventCountry": "United States",
      "eventExpectedVolatility": "High",
      "eventName": "Core Retail Sales (MoM) (Jan)",
      "eventTimeZone": "GMT",
      "eventPrevious": "0.40%",
      "eventCurrency": "USD",
      "eventForecast": ""
    },
    {
      "eventDateTime": "2002-02-01T09:00:00",
      "eventActual": "1.89M",
      "eventCountry": "United States",
      "eventExpectedVolatility": "High",
      "eventName": "Crude Oil Inventories (Jan)",
      "eventTimeZone": "GMT",
      "eventPrevious": "-0.33M",
      "eventCurrency": "USD",
      "eventForecast": ""
    },
    {
      "eventDateTime": "2002-02-01T09:00:00",
      "eventActual": "1.60%",
      "eventCountry": "United States",
      "eventExpectedVolatility": "Low",
      "eventName": "Dallas Fed PCE (Jan)",
      "eventTimeZone": "GMT",
      "eventPrevious": "1.20%",
      "eventCurrency": "USD",
      "eventForecast": ""
    },
    {
      "eventDateTime": "2002-02-01T09:00:00",
      "eventActual": "7.48M",
      "eventCountry": "United States",
      "eventExpectedVolatility": "Low",
      "eventName": "Domestic Truck Sales (Jan)",
      "eventTimeZone": "GMT",
      "eventPrevious": "7.72M",
      "eventCurrency": "USD",
      "eventForecast": ""
    },
    {
      "eventDateTime": "2002-02-01T09:00:00",
      "eventActual": "-0.70%",
      "eventCountry": "United States",
      "eventExpectedVolatility": "Low",
      "eventName": "Durables Excluding Defense (MoM) (Jan)",
      "eventTimeZone": "GMT",
      "eventPrevious": "0.50%",
      "eventCurrency": "USD",
      "eventForecast": ""
    },
    {
      "eventDateTime": "2002-02-01T09:00:00",
      "eventActual": "-0.20M",
      "eventCountry": "United States",
      "eventExpectedVolatility": "Low",
      "eventName": "EIA Weekly Distillates Stocks (Jan)",
      "eventTimeZone": "GMT",
      "eventPrevious": "0.14M",
      "eventCurrency": "USD",
      "eventForecast": ""
    },
    {
      "eventDateTime": "2002-02-01T09:00:00",
      "eventActual": "5.86M",
      "eventCountry": "United States",
      "eventExpectedVolatility": "High",
      "eventName": "Existing Home Sales (Jan)",
      "eventTimeZone": "GMT",
      "eventPrevious": "5.49M",
      "eventCurrency": "USD",
      "eventForecast": ""
    },
    {
      "eventDateTime": "2002-02-01T09:00:00",
      "eventActual": "6.70%",
      "eventCountry": "United States",
      "eventExpectedVolatility": "Moderate",
      "eventName": "Existing Home Sales (MoM) (Jan)",
      "eventTimeZone": "GMT",
      "eventPrevious": "4.80%",
      "eventCurrency": "USD",
      "eventForecast": ""
    },
    {
      "eventDateTime": "2002-02-01T09:00:00",
      "eventActual": "-0.10%",
      "eventCountry": "United States",
      "eventExpectedVolatility": "Moderate",
      "eventName": "Export Price Index (MoM) (Jan)",
      "eventTimeZone": "GMT",
      "eventPrevious": "-0.20%",
      "eventCurrency": "USD",
      "eventForecast": ""
    },
    {
      "eventDateTime": "2002-02-01T09:00:00",
      "eventActual": "-1.10%",
      "eventCountry": "United States",
      "eventExpectedVolatility": "Moderate",
      "eventName": "Factory Orders (MoM) (Jan)",
      "eventTimeZone": "GMT",
      "eventPrevious": "0.50%",
      "eventCurrency": "USD",
      "eventForecast": ""
    },
    {
      "eventDateTime": "2002-02-01T09:00:00",
      "eventActual": "-2.10%",
      "eventCountry": "United States",
      "eventExpectedVolatility": "Low",
      "eventName": "Factory orders ex transportation (MoM) (Jan)",
      "eventTimeZone": "GMT",
      "eventPrevious": "0.50%",
      "eventCurrency": "USD",
      "eventForecast": ""
    },
    {
      "eventDateTime": "2002-02-01T09:00:00",
      "eventActual": "43.70B",
      "eventCountry": "United States",
      "eventExpectedVolatility": "Moderate",
      "eventName": "Federal Budget Balance (Jan)",
      "eventTimeZone": "GMT",
      "eventPrevious": "26.60B",
      "eventCurrency": "USD",
      "eventForecast": ""
    },
    {
      "eventDateTime": "2002-02-01T09:00:00",
      "eventActual": "1.86M",
      "eventCountry": "United States",
      "eventExpectedVolatility": "Low",
      "eventName": "Gasoline Inventories (Jan)",
      "eventTimeZone": "GMT",
      "eventPrevious": "-1.01M",
      "eventCurrency": "USD",
      "eventForecast": ""
    },
    {
      "eventDateTime": "2002-02-01T09:00:00",
      "eventActual": "22.00K",
      "eventCountry": "United States",
      "eventExpectedVolatility": "Low",
      "eventName": "Government Payrolls (Jan)",
      "eventTimeZone": "GMT",
      "eventPrevious": "29.00K",
      "eventCurrency": "USD",
      "eventForecast": ""
    },
    {
      "eventDateTime": "2002-02-01T09:00:00",
      "eventActual": "156.50",
      "eventCountry": "United States",
      "eventExpectedVolatility": "Low",
      "eventName": "House Price Index (Jan)",
      "eventTimeZone": "GMT",
      "eventPrevious": "155.60",
      "eventCurrency": "USD",
      "eventForecast": ""
    },
    {
      "eventDateTime": "2002-02-01T09:00:00",
      "eventActual": "0.60%",
      "eventCountry": "United States",
      "eventExpectedVolatility": "Low",
      "eventName": "House Price Index (MoM) (Jan)",
      "eventTimeZone": "GMT",
      "eventPrevious": "0.60%",
      "eventCurrency": "USD",
      "eventForecast": ""
    },
    {
      "eventDateTime": "2002-02-01T09:00:00",
      "eventActual": "6.70%",
      "eventCountry": "United States",
      "eventExpectedVolatility": "Low",
      "eventName": "House Price Index (YoY) (Jan)",
      "eventTimeZone": "GMT",
      "eventPrevious": "6.70%",
      "eventCurrency": "USD",
      "eventForecast": ""
    },
    {
      "eventDateTime": "2002-02-01T09:00:00",
      "eventActual": "1.70M",
      "eventCountry": "United States",
      "eventExpectedVolatility": "Moderate",
      "eventName": "Housing Starts (Jan)",
      "eventTimeZone": "GMT",
      "eventPrevious": "1.57M",
      "eventCurrency": "USD",
      "eventForecast": ""
    },
    {
      "eventDateTime": "2002-02-01T09:00:00",
      "eventActual": "8.30%",
      "eventCountry": "United States",
      "eventExpectedVolatility": "Moderate",
      "eventName": "Housing Starts (MoM) (Jan)",
      "eventTimeZone": "GMT",
      "eventPrevious": "-2.10%",
      "eventCurrency": "USD",
      "eventForecast": ""
    },
    {
      "eventDateTime": "2002-02-01T09:00:00",
      "eventActual": "41.00",
      "eventCountry": "United States",
      "eventExpectedVolatility": "Moderate",
      "eventName": "ISM Manufacturing Employment (Jan)",
      "eventTimeZone": "GMT",
      "eventPrevious": "39.10",
      "eventCurrency": "USD",
      "eventForecast": ""
    },
    {
      "eventDateTime": "2002-02-01T09:00:00",
      "eventActual": "55.20",
      "eventCountry": "United States",
      "eventExpectedVolatility": "Low",
      "eventName": "ISM Manufacturing New Orders Index (Jan)",
      "eventTimeZone": "GMT",
      "eventPrevious": "51.40",
      "eventCurrency": "USD",
      "eventForecast": ""
    },
    {
      "eventDateTime": "2002-02-01T09:00:00",
      "eventActual": "47.50",
      "eventCountry": "United States",
      "eventExpectedVolatility": "High",
      "eventName": "ISM Manufacturing PMI (Jan)",
      "eventTimeZone": "GMT",
      "eventPrevious": "45.30",
      "eventCurrency": "USD",
      "eventForecast": ""
    },
    {
      "eventDateTime": "2002-02-01T09:00:00",
      "eventActual": "43.90",
      "eventCountry": "United States",
      "eventExpectedVolatility": "Low",
      "eventName": "ISM Manufacturing Prices (Jan)",
      "eventTimeZone": "GMT",
      "eventPrevious": "33.20",
      "eventCurrency": "USD",
      "eventForecast": ""
    },
    {
      "eventDateTime": "2002-02-01T09:00:00",
      "eventActual": "49.80",
      "eventCountry": "United States",
      "eventExpectedVolatility": "Low",
      "eventName": "ISM Non-Manufacturing Business Activity (Jan)",
      "eventTimeZone": "GMT",
      "eventPrevious": "50.70",
      "eventCurrency": "USD",
      "eventForecast": ""
    },
    {
      "eventDateTime": "2002-02-01T09:00:00",
      "eventActual": "44.30",
      "eventCountry": "United States",
      "eventExpectedVolatility": "Moderate",
      "eventName": "ISM Non-Manufacturing Employment (Jan)",
      "eventTimeZone": "GMT",
      "eventPrevious": "44.60",
      "eventCurrency": "USD",
      "eventForecast": ""
    },
    {
      "eventDateTime": "2002-02-01T09:00:00",
      "eventActual": "48.30",
      "eventCountry": "United States",
      "eventExpectedVolatility": "Low",
      "eventName": "ISM Non-Manufacturing New Orders (Jan)",
      "eventTimeZone": "GMT",
      "eventPrevious": "49.90",
      "eventCurrency": "USD",
      "eventForecast": ""
    },
    {
      "eventDateTime": "2002-02-01T09:00:00",
      "eventActual": "48.90",
      "eventCountry": "United States",
      "eventExpectedVolatility": "High",
      "eventName": "ISM Non-Manufacturing PMI (Jan)",
      "eventTimeZone": "GMT",
      "eventPrevious": "49.70",
      "eventCurrency": "USD",
      "eventForecast": ""
    },
    {
      "eventDateTime": "2002-02-01T09:00:00",
      "eventActual": "48.80",
      "eventCountry": "United States",
      "eventExpectedVolatility": "Low",
      "eventName": "ISM Non-Manufacturing Prices (Jan)",
      "eventTimeZone": "GMT",
      "eventPrevious": "42.30",
      "eventCurrency": "USD",
      "eventForecast": ""
    },
    {
      "eventDateTime": "2002-02-01T09:00:00",
      "eventActual": "245.60",
      "eventCountry": "United States",
      "eventExpectedVolatility": "Low",
      "eventName": "ISM-New York Index (Jan)",
      "eventTimeZone": "GMT",
      "eventPrevious": "255.20",
      "eventCurrency": "USD",
      "eventForecast": ""
    },
    {
      "eventDateTime": "2002-02-01T09:00:00",
      "eventActual": "0.20%",
      "eventCountry": "United States",
      "eventExpectedVolatility": "Moderate",
      "eventName": "Import Price Index (MoM) (Jan)",
      "eventTimeZone": "GMT",
      "eventPrevious": "-1.00%",
      "eventCurrency": "USD",
      "eventForecast": ""
    },
    {
      "eventDateTime": "2002-02-01T09:00:00",
      "eventActual": "0.60%",
      "eventCountry": "United States",
      "eventExpectedVolatility": "Moderate",
      "eventName": "Industrial Production (MoM) (Jan)",
      "eventTimeZone": "GMT",
      "eventPrevious": "0.00%",
      "eventCurrency": "USD",
      "eventForecast": ""
    },
    {
      "eventDateTime": "2002-02-01T09:00:00",
      "eventActual": "408.22K",
      "eventCountry": "United States",
      "eventExpectedVolatility": "Moderate",
      "eventName": "Initial Jobless Claims (Jan)",
      "eventTimeZone": "GMT",
      "eventPrevious": "404.38K",
      "eventCurrency": "USD",
      "eventForecast": ""
    },
    {
      "eventDateTime": "2002-02-01T09:00:00",
      "eventActual": "3.59M",
      "eventCountry": "United States",
      "eventExpectedVolatility": "High",
      "eventName": "JOLTs Job Openings (Jan)",
      "eventTimeZone": "GMT",
      "eventPrevious": "3.59M",
      "eventCurrency": "USD",
      "eventForecast": ""
    },
    {
      "eventDateTime": "2002-02-01T09:00:00",
      "eventActual": "409.68K",
      "eventCountry": "United States",
      "eventExpectedVolatility": "Low",
      "eventName": "Jobless Claims 4-Week Avg. (Jan)",
      "eventTimeZone": "GMT",
      "eventPrevious": "424.08K",
      "eventCurrency": "USD",
      "eventForecast": ""
    },
    {
      "eventDateTime": "2002-02-01T09:00:00",
      "eventActual": "2.00",
      "eventCountry": "United States",
      "eventExpectedVolatility": "Low",
      "eventName": "KC Fed Composite Index (Jan)",
      "eventTimeZone": "GMT",
      "eventPrevious": "-7.00",
      "eventCurrency": "USD",
      "eventForecast": ""
    },
    {
      "eventDateTime": "2002-02-01T09:00:00",
      "eventActual": "3.00",
      "eventCountry": "United States",
      "eventExpectedVolatility": "Low",
      "eventName": "KC Fed Manufacturing Index (Jan)",
      "eventTimeZone": "GMT",
      "eventPrevious": "1.00",
      "eventCurrency": "USD",
      "eventForecast": ""
    },
    {
      "eventDateTime": "2002-02-01T09:00:00",
      "eventActual": "6.90%",
      "eventCountry": "United States",
      "eventExpectedVolatility": "Low",
      "eventName": "MBA 30-Year Mortgage Rate (Jan)",
      "eventTimeZone": "GMT",
      "eventPrevious": "7.14%",
      "eventCurrency": "USD",
      "eventForecast": ""
    },
    {
      "eventDateTime": "2002-02-01T09:00:00",
      "eventActual": "352.68",
      "eventCountry": "United States",
      "eventExpectedVolatility": "Low",
      "eventName": "MBA Purchase Index (Jan)",
      "eventTimeZone": "GMT",
      "eventPrevious": "317.90",
      "eventCurrency": "USD",
      "eventForecast": ""
    },
    {
      "eventDateTime": "2002-02-01T09:00:00",
      "eventActual": "-124.00K",
      "eventCountry": "United States",
      "eventExpectedVolatility": "Low",
      "eventName": "Manufacturing Payrolls (Jan)",
      "eventTimeZone": "GMT",
      "eventPrevious": "-114.00K",
      "eventCurrency": "USD",
      "eventForecast": ""
    },
    {
      "eventDateTime": "2002-02-01T09:00:00",
      "eventActual": "0.50%",
      "eventCountry": "United States",
      "eventExpectedVolatility": "Low",
      "eventName": "Manufacturing Production (MoM) (Jan)",
      "eventTimeZone": "GMT",
      "eventPrevious": "0.30%",
      "eventCurrency": "USD",
      "eventForecast": ""
    },
    {
      "eventDateTime": "2002-02-01T09:00:00",
      "eventActual": "2.70%",
      "eventCountry": "United States",
      "eventExpectedVolatility": "Low",
      "eventName": "Michigan 5-Year Inflation Expectations (Jan)",
      "eventTimeZone": "GMT",
      "eventPrevious": "3.00%",
      "eventCurrency": "USD",
      "eventForecast": ""
    },
    {
      "eventDateTime": "2002-02-01T09:00:00",
      "eventActual": "91.70",
      "eventCountry": "United States",
      "eventExpectedVolatility": "Moderate",
      "eventName": "Michigan Consumer Expectations (Jan)",
      "eventTimeZone": "GMT",
      "eventPrevious": "82.30",
      "eventCurrency": "USD",
      "eventForecast": ""
    },
    {
      "eventDateTime": "2002-02-01T09:00:00",
      "eventActual": "93.00",
      "eventCountry": "United States",
      "eventExpectedVolatility": "Moderate",
      "eventName": "Michigan Consumer Sentiment (Jan)",
      "eventTimeZone": "GMT",
      "eventPrevious": "85.80",
      "eventCurrency": "USD",
      "eventForecast": ""
    },
    {
      "eventDateTime": "2002-02-01T09:00:00",
      "eventActual": "95.70",
      "eventCountry": "United States",
      "eventExpectedVolatility": "Low",
      "eventName": "Michigan Current Conditions (Jan)",
      "eventTimeZone": "GMT",
      "eventPrevious": "95.90",
      "eventCurrency": "USD",
      "eventForecast": ""
    },
    {
      "eventDateTime": "2002-02-01T09:00:00",
      "eventActual": "1.90%",
      "eventCountry": "United States",
      "eventExpectedVolatility": "Low",
      "eventName": "Michigan Inflation Expectations (Jan)",
      "eventTimeZone": "GMT",
      "eventPrevious": "1.80%",
      "eventCurrency": "USD",
      "eventForecast": ""
    },
    {
      "eventDateTime": "2002-02-01T09:00:00",
      "eventActual": "93.40",
      "eventCountry": "United States",
      "eventExpectedVolatility": "Low",
      "eventName": "Midwest Manufacturing (Jan)",
      "eventTimeZone": "GMT",
      "eventPrevious": "95.10",
      "eventCurrency": "USD",
      "eventForecast": ""
    },
    {
      "eventDateTime": "2002-02-01T09:00:00",
      "eventActual": "598.78",
      "eventCountry": "United States",
      "eventExpectedVolatility": "Low",
      "eventName": "Mortgage Market Index (Jan)",
      "eventTimeZone": "GMT",
      "eventPrevious": "558.13",
      "eventCurrency": "USD",
      "eventForecast": ""
    },
    {
      "eventDateTime": "2002-02-01T09:00:00",
      "eventActual": "2,030.24",
      "eventCountry": "United States",
      "eventExpectedVolatility": "Low",
      "eventName": "Mortgage Refinance Index (Jan)",
      "eventTimeZone": "GMT",
      "eventPrevious": "1,955.34",
      "eventCurrency": "USD",
      "eventForecast": ""
    },
    {
      "eventDateTime": "2002-02-01T09:00:00",
      "eventActual": "58.00",
      "eventCountry": "United States",
      "eventExpectedVolatility": "Low",
      "eventName": "NAHB Housing Market Index (Jan)",
      "eventTimeZone": "GMT",
      "eventPrevious": "55.00",
      "eventCurrency": "USD",
      "eventForecast": ""
    },
    {
      "eventDateTime": "2002-02-01T09:00:00",
      "eventActual": "100.80",
      "eventCountry": "United States",
      "eventExpectedVolatility": "Low",
      "eventName": "NFIB Small Business Optimism (Jan)",
      "eventTimeZone": "GMT",
      "eventPrevious": "100.40",
      "eventCurrency": "USD",
      "eventForecast": ""
    },
    {
      "eventDateTime": "2002-02-01T09:00:00",
      "eventActual": "1.41",
      "eventCountry": "United States",
      "eventExpectedVolatility": "Moderate",
      "eventName": "NY Empire State Manufacturing Index (Jan)",
      "eventTimeZone": "GMT",
      "eventPrevious": "-9.78",
      "eventCurrency": "USD",
      "eventForecast": ""
    },
    {
      "eventDateTime": "2002-02-01T09:00:00",
      "eventActual": "-130.78B",
      "eventCountry": "United States",
      "eventExpectedVolatility": "Low",
      "eventName": "Natural Gas Storage (Jan)",
      "eventTimeZone": "GMT",
      "eventPrevious": "-72.57B",
      "eventCurrency": "USD",
      "eventForecast": ""
    },
    {
      "eventDateTime": "2002-02-01T09:00:00",
      "eventActual": "880.00K",
      "eventCountry": "United States",
      "eventExpectedVolatility": "High",
      "eventName": "New Home Sales (Jan)",
      "eventTimeZone": "GMT",
      "eventPrevious": "979.00K",
      "eventCurrency": "USD",
      "eventForecast": ""
    },
    {
      "eventDateTime": "2002-02-01T09:00:00",
      "eventActual": "-10.10%",
      "eventCountry": "United States",
      "eventExpectedVolatility": "Moderate",
      "eventName": "New Home Sales (MoM) (Jan)",
      "eventTimeZone": "GMT",
      "eventPrevious": "6.00%",
      "eventCurrency": "USD",
      "eventForecast": ""
    },
    {
      "eventDateTime": "2002-02-01T09:00:00",
      "eventActual": "8.80B",
      "eventCountry": "United States",
      "eventExpectedVolatility": "Low",
      "eventName": "Overall Net Capital Flow (Jan)",
      "eventTimeZone": "GMT",
      "eventPrevious": "-12.30B",
      "eventCurrency": "USD",
      "eventForecast": ""
    },
    {
      "eventDateTime": "2002-02-01T09:00:00",
      "eventActual": "-2.10%",
      "eventCountry": "United States",
      "eventExpectedVolatility": "High",
      "eventName": "Pending Home Sales (MoM) (Jan)",
      "eventTimeZone": "GMT",
      "eventPrevious": "6.10%",
      "eventCurrency": "USD",
      "eventForecast": ""
    },
    {
      "eventDateTime": "2002-02-01T09:00:00",
      "eventActual": "106.30",
      "eventCountry": "United States",
      "eventExpectedVolatility": "Low",
      "eventName": "Pending Home Sales Index (Jan)",
      "eventTimeZone": "GMT",
      "eventPrevious": "108.60",
      "eventCurrency": "USD",
      "eventForecast": ""
    },
    {
      "eventDateTime": "2002-02-01T09:00:00",
      "eventActual": "0.30%",
      "eventCountry": "United States",
      "eventExpectedVolatility": "Low",
      "eventName": "Personal Income (MoM) (Jan)",
      "eventTimeZone": "GMT",
      "eventPrevious": "0.10%",
      "eventCurrency": "USD",
      "eventForecast": ""
    },
    {
      "eventDateTime": "2002-02-01T09:00:00",
      "eventActual": "0.40%",
      "eventCountry": "United States",
      "eventExpectedVolatility": "Moderate",
      "eventName": "Personal Spending (MoM) (Jan)",
      "eventTimeZone": "GMT",
      "eventPrevious": "-0.30%",
      "eventCurrency": "USD",
      "eventForecast": ""
    },
    {
      "eventDateTime": "2002-02-01T09:00:00",
      "eventActual": "11.10",
      "eventCountry": "United States",
      "eventExpectedVolatility": "High",
      "eventName": "Philadelphia Fed Manufacturing Index (Jan)",
      "eventTimeZone": "GMT",
      "eventPrevious": "-11.10",
      "eventCurrency": "USD",
      "eventForecast": ""
    },
    {
      "eventDateTime": "2002-02-01T09:00:00",
      "eventActual": "59.00",
      "eventCountry": "United States",
      "eventExpectedVolatility": "Low",
      "eventName": "Philly Fed Business Conditions (Jan)",
      "eventTimeZone": "GMT",
      "eventPrevious": "46.50",
      "eventCurrency": "USD",
      "eventForecast": ""
    },
    {
      "eventDateTime": "2002-02-01T09:00:00",
      "eventActual": "24.90",
      "eventCountry": "United States",
      "eventExpectedVolatility": "Low",
      "eventName": "Philly Fed CAPEX Index (Jan)",
      "eventTimeZone": "GMT",
      "eventPrevious": "10.40",
      "eventCurrency": "USD",
      "eventForecast": ""
    },
    {
      "eventDateTime": "2002-02-01T09:00:00",
      "eventActual": "-9.30",
      "eventCountry": "United States",
      "eventExpectedVolatility": "Moderate",
      "eventName": "Philly Fed Employment (Jan)",
      "eventTimeZone": "GMT",
      "eventPrevious": "-20.40",
      "eventCurrency": "USD",
      "eventForecast": ""
    },
    {
      "eventDateTime": "2002-02-01T09:00:00",
      "eventActual": "8.20",
      "eventCountry": "United States",
      "eventExpectedVolatility": "Low",
      "eventName": "Philly Fed New Orders (Jan)",
      "eventTimeZone": "GMT",
      "eventPrevious": "-6.40",
      "eventCurrency": "USD",
      "eventForecast": ""
    },
    {
      "eventDateTime": "2002-02-01T09:00:00",
      "eventActual": "-4.10",
      "eventCountry": "United States",
      "eventExpectedVolatility": "Low",
      "eventName": "Philly Fed Prices Paid (Jan)",
      "eventTimeZone": "GMT",
      "eventPrevious": "-9.50",
      "eventCurrency": "USD",
      "eventForecast": ""
    },
    {
      "eventDateTime": "2002-02-01T09:00:00",
      "eventActual": "-161.00K",
      "eventCountry": "United States",
      "eventExpectedVolatility": "Moderate",
      "eventName": "Private Nonfarm Payrolls (Jan)",
      "eventTimeZone": "GMT",
      "eventPrevious": "-200.00K",
      "eventCurrency": "USD",
      "eventForecast": ""
    },
    {
      "eventDateTime": "2002-02-01T09:00:00",
      "eventActual": "0.30%",
      "eventCountry": "United States",
      "eventExpectedVolatility": "Low",
      "eventName": "Real Personal Consumption (MoM) (Jan)",
      "eventTimeZone": "GMT",
      "eventPrevious": "-0.20%",
      "eventCurrency": "USD",
      "eventForecast": ""
    },
    {
      "eventDateTime": "2002-02-01T09:00:00",
      "eventActual": "0.00%",
      "eventCountry": "United States",
      "eventExpectedVolatility": "Low",
      "eventName": "Retail Control (MoM) (Jan)",
      "eventTimeZone": "GMT",
      "eventPrevious": "0.40%",
      "eventCurrency": "USD",
      "eventForecast": ""
    },
    {
      "eventDateTime": "2002-02-01T09:00:00",
      "eventActual": "0.00%",
      "eventCountry": "United States",
      "eventExpectedVolatility": "High",
      "eventName": "Retail Sales (MoM) (Jan)",
      "eventTimeZone": "GMT",
      "eventPrevious": "-1.10%",
      "eventCurrency": "USD",
      "eventForecast": ""
    },
    {
      "eventDateTime": "2002-02-01T09:00:00",
      "eventActual": "0.10%",
      "eventCountry": "United States",
      "eventExpectedVolatility": "Low",
      "eventName": "Retail Sales Ex Gas/Autos (MoM) (Jan)",
      "eventTimeZone": "GMT",
      "eventPrevious": "0.60%",
      "eventCurrency": "USD",
      "eventForecast": ""
    },
    {
      "eventDateTime": "2002-02-01T09:00:00",
      "eventActual": "3.00",
      "eventCountry": "United States",
      "eventExpectedVolatility": "Low",
      "eventName": "Richmond Manufacturing Index (Jan)",
      "eventTimeZone": "GMT",
      "eventPrevious": "-16.00",
      "eventCurrency": "USD",
      "eventForecast": ""
    },
    {
      "eventDateTime": "2002-02-01T09:00:00",
      "eventActual": "9.00",
      "eventCountry": "United States",
      "eventExpectedVolatility": "Low",
      "eventName": "Richmond Manufacturing Shipments (Jan)",
      "eventTimeZone": "GMT",
      "eventPrevious": "-18.00",
      "eventCurrency": "USD",
      "eventForecast": ""
    },
    {
      "eventDateTime": "2002-02-01T09:00:00",
      "eventActual": "-12.00",
      "eventCountry": "United States",
      "eventExpectedVolatility": "Low",
      "eventName": "Richmond Services Index (Jan)",
      "eventTimeZone": "GMT",
      "eventPrevious": "9.00",
      "eventCurrency": "USD",
      "eventForecast": ""
    },
    {
      "eventDateTime": "2002-02-01T09:00:00",
      "eventActual": "0.20%",
      "eventCountry": "United States",
      "eventExpectedVolatility": "Low",
      "eventName": "Sandamp;P/CS HPI Composite - 20 n.s.a. (MoM) (Jan)",
      "eventTimeZone": "GMT",
      "eventPrevious": "-0.10%",
      "eventCurrency": "USD",
      "eventForecast": ""
    },
    {
      "eventDateTime": "2002-02-01T09:00:00",
      "eventActual": "7.30%",
      "eventCountry": "United States",
      "eventExpectedVolatility": "Moderate",
      "eventName": "Sandamp;P/CS HPI Composite - 20 n.s.a. (YoY) (Jan)",
      "eventTimeZone": "GMT",
      "eventPrevious": "7.90%",
      "eventCurrency": "USD",
      "eventForecast": ""
    },
    {
      "eventDateTime": "2002-02-01T09:00:00",
      "eventActual": "0.60%",
      "eventCountry": "United States",
      "eventExpectedVolatility": "Low",
      "eventName": "Sandamp;P/CS HPI Composite - 20 s.a. (MoM) (Jan)",
      "eventTimeZone": "GMT",
      "eventPrevious": "0.30%",
      "eventCurrency": "USD",
      "eventForecast": ""
    },
    {
      "eventDateTime": "2002-02-01T09:00:00",
      "eventActual": "14.70B",
      "eventCountry": "United States",
      "eventExpectedVolatility": "Moderate",
      "eventName": "TIC Net Long-Term Transactions (Jan)",
      "eventTimeZone": "GMT",
      "eventPrevious": "34.50B",
      "eventCurrency": "USD",
      "eventForecast": ""
    },
    {
      "eventDateTime": "2002-02-01T09:00:00",
      "eventActual": "14.70B",
      "eventCountry": "United States",
      "eventExpectedVolatility": "Low",
      "eventName": "TIC Net Long-Term Transactions including Swaps (Jan)",
      "eventTimeZone": "GMT",
      "eventPrevious": "25.80B",
      "eventCurrency": "USD",
      "eventForecast": ""
    },
    {
      "eventDateTime": "2002-02-01T09:00:00",
      "eventActual": "-29.40B",
      "eventCountry": "United States",
      "eventExpectedVolatility": "Moderate",
      "eventName": "Trade Balance (Jan)",
      "eventTimeZone": "GMT",
      "eventPrevious": "-26.80B",
      "eventCurrency": "USD",
      "eventForecast": ""
    },
    {
      "eventDateTime": "2002-02-01T09:00:00",
      "eventActual": "-15.30B",
      "eventCountry": "United States",
      "eventExpectedVolatility": "Low",
      "eventName": "US Foreign Buying, T-bonds (Jan)",
      "eventTimeZone": "GMT",
      "eventPrevious": "8.80B",
      "eventCurrency": "USD",
      "eventForecast": ""
    },
    {
      "eventDateTime": "2002-02-01T09:00:00",
      "eventActual": "-0.30%",
      "eventCountry": "United States",
      "eventExpectedVolatility": "Low",
      "eventName": "Wholesale Inventories (MoM) (Jan)",
      "eventTimeZone": "GMT",
      "eventPrevious": "-0.60%",
      "eventCurrency": "USD",
      "eventForecast": ""
    },
    {
      "eventDateTime": "2002-02-01T12:15:00",
      "eventActual": "-69K",
      "eventCountry": "United States",
      "eventExpectedVolatility": "High",
      "eventName": "ADP Nonfarm Employment Change (Jan)",
      "eventTimeZone": "GMT",
      "eventPrevious": "-223K",
      "eventCurrency": "USD",
      "eventForecast": ""
    },
    {
      "eventDateTime": "2002-02-01T12:30:00",
      "eventActual": "-139K",
      "eventCountry": "United States",
      "eventExpectedVolatility": "High",
      "eventName": "Nonfarm Payrolls (Jan)",
      "eventTimeZone": "GMT",
      "eventPrevious": "-171K",
      "eventCurrency": "USD",
      "eventForecast": ""
    },
    {
      "eventDateTime": "2002-02-01T12:30:00",
      "eventActual": "9.50%",
      "eventCountry": "United States",
      "eventExpectedVolatility": "Low",
      "eventName": "U6 Unemployment Rate (Jan)",
      "eventTimeZone": "GMT",
      "eventPrevious": "9.60%",
      "eventCurrency": "USD",
      "eventForecast": ""
    },
    {
      "eventDateTime": "2002-02-01T12:30:00",
      "eventActual": "5.7%",
      "eventCountry": "United States",
      "eventExpectedVolatility": "High",
      "eventName": "Unemployment Rate (Jan)",
      "eventTimeZone": "GMT",
      "eventPrevious": "5.7%",
      "eventCurrency": "USD",
      "eventForecast": ""
    },
    {
      "eventDateTime": "2002-02-01T17:00:00",
      "eventActual": "143",
      "eventCountry": "United States",
      "eventExpectedVolatility": "Moderate",
      "eventName": "U.S. Baker Hughes Oil Rig Count",
      "eventTimeZone": "GMT",
      "eventPrevious": "144",
      "eventCurrency": "USD",
      "eventForecast": ""
    },
    {
      "eventDateTime": "2002-02-01T20:30:00",
      "eventActual": "-46.2k",
      "eventCountry": "United States",
      "eventExpectedVolatility": "Moderate",
      "eventName": "CFTC Crude Oil speculative net positions",
      "eventTimeZone": "GMT",
      "eventPrevious": "-41.2k",
      "eventCurrency": "USD",
      "eventForecast": ""
    }
  ]}}
