{"events": {"event": [
    {
      "eventDateTime": "2014-03-11T12:00:00",
      "eventActual": "-2.4%",
      "eventCountry": "Brazil",
      "eventExpectedVolatility": "Moderate",
      "eventName": "Industrial Production (YoY)",
      "eventTimeZone": "GMT",
      "eventPrevious": "-2.5%",
      "eventCurrency": "BRL",
      "eventForecast": "-3.4%"
    },
    {
      "eventDateTime": "2014-03-11T13:30:00",
      "eventActual": "-17.00%",
      "eventCountry": "Brazil",
      "eventExpectedVolatility": "Low",
      "eventName": "Auto Sales (MoM)",
      "eventTimeZone": "GMT",
      "eventPrevious": "-11.70%",
      "eventCurrency": "BRL",
      "eventForecast": ""
    }
  ]}}
