{"events": {"event": {
    "eventDateTime": "2015-04-20T05:30:00",
    "eventActual": "34.5%",
    "eventCountry": "New Zealand",
    "eventExpectedVolatility": "Moderate",
    "eventName": "Investing.com NZD/USD Index",
    "eventTimeZone": "GMT",
    "eventPrevious": "40.6%",
    "eventCurrency": "NZD",
    "eventForecast": ""
  }}}
