{"events": {"event": {
    "eventDateTime": "2009-06-22T03:00:00",
    "eventActual": "-2.4%",
    "eventCountry": "New Zealand",
    "eventExpectedVolatility": "Low",
    "eventName": "Credit Card Spending (YoY)",
    "eventTimeZone": "GMT",
    "eventPrevious": "-1.6%",
    "eventCurrency": "NZD",
    "eventForecast": ""
  }}}
