{"events": {"event": [
    {
      "eventDateTime": "2019-04-01T11:30:00",
      "eventActual": "",
      "eventCountry": "Brazil",
      "eventExpectedVolatility": "Moderate",
      "eventName": "BCB Focus Market Readout",
      "eventTimeZone": "GMT",
      "eventPrevious": "",
      "eventCurrency": "BRL",
      "eventForecast": ""
    },
    {
      "eventDateTime": "2019-04-01T13:00:00",
      "eventActual": "52.8",
      "eventCountry": "Brazil",
      "eventExpectedVolatility": "Low",
      "eventName": "Markit Manufacturing PMI (Mar)",
      "eventTimeZone": "GMT",
      "eventPrevious": "53.4",
      "eventCurrency": "BRL",
      "eventForecast": "53.5"
    },
    {
      "eventDateTime": "2019-04-01T19:00:00",
      "eventActual": "4.99B",
      "eventCountry": "Brazil",
      "eventExpectedVolatility": "Low",
      "eventName": "Trade Balance (Mar)",
      "eventTimeZone": "GMT",
      "eventPrevious": "3.67B",
      "eventCurrency": "BRL",
      "eventForecast": ""
    }
  ]}}
