"German CPI (MoM)";"Germany";"EUR";"2012-08-10T06:00:00";"GMT";"0.4%";"0.4%";"0.4%";"Moderate"
"German CPI (YoY)";"Germany";"EUR";"2012-08-10T06:00:00";"GMT";"1.7%";"1.7%";"1.7%";"Low"
"French Government Budget Balance";"France";"EUR";"2012-08-10T06:45:00";"GMT";"-69.6B";"";"-56.7B";"Low"
"French Industrial Production (MoM)";"France";"EUR";"2012-08-10T06:45:00";"GMT";"-2.1%";"0.4%";"0.0%";"Low"
"CFTC EUR speculative net positions";"Euro Zone";"EUR";"2012-08-10T19:30:00";"GMT";"-139.0K";"";"-131.7K";"Moderate"
