"GDP (QoQ) (Q4)";"Japan";"JPY";"2019-02-13T23:50:00";"GMT";"-0.7%";"0.4%";"0.3%";"High"
"GDP (YoY) (Q4)";"Japan";"JPY";"2019-02-13T23:50:00";"GMT";"-2.6%";"1.4%";"1.4%";"Moderate"
"GDP Capital Expenditure (QoQ) (Q4)";"Japan";"JPY";"2019-02-13T23:50:00";"GMT";"-2.7%";"1.8%";"2.4%";"Low"
"GDP External Demand (QoQ) (Q4)";"Japan";"JPY";"2019-02-13T23:50:00";"GMT";"-0.1%";"-0.4%";"-0.3%";"Low"
"GDP Price Index (YoY)";"Japan";"JPY";"2019-02-13T23:50:00";"GMT";"-0.3%";"-0.4%";"-0.3%";"Low"
"GDP Private Consumption (QoQ) (Q4)";"Japan";"JPY";"2019-02-13T23:50:00";"GMT";"-0.2%";"0.8%";"0.6%";"Low"
