{"events": {"event": [
    {
      "eventDateTime": "2016-09-22T10:00:00",
      "eventActual": "-5",
      "eventCountry": "United Kingdom",
      "eventExpectedVolatility": "Moderate",
      "eventName": "CBI Industrial Trends Orders (Sep)",
      "eventTimeZone": "GMT",
      "eventPrevious": "-5",
      "eventCurrency": "GBP",
      "eventForecast": "-5"
    },
    {
      "eventDateTime": "2016-09-22T13:30:00",
      "eventActual": "",
      "eventCountry": "United Kingdom",
      "eventExpectedVolatility": "Moderate",
      "eventName": "BoE MPC Member Cunliffe Speaks",
      "eventTimeZone": "GMT",
      "eventPrevious": "",
      "eventCurrency": "GBP",
      "eventForecast": ""
    },
    {
      "eventDateTime": "2016-09-22T17:00:00",
      "eventActual": "",
      "eventCountry": "United Kingdom",
      "eventExpectedVolatility": "High",
      "eventName": "BoE Gov Carney Speaks",
      "eventTimeZone": "GMT",
      "eventPrevious": "",
      "eventCurrency": "GBP",
      "eventForecast": ""
    }
  ]}}
