{"events": {"event": [
    {
      "eventDateTime": "2017-04-18T12:30:00",
      "eventActual": "1.260M",
      "eventCountry": "United States",
      "eventExpectedVolatility": "High",
      "eventName": "Building Permits (Mar)",
      "eventTimeZone": "GMT",
      "eventPrevious": "1.213M",
      "eventCurrency": "USD",
      "eventForecast": "1.250M"
    },
    {
      "eventDateTime": "2017-04-18T12:30:00",
      "eventActual": "3.6%",
      "eventCountry": "United States",
      "eventExpectedVolatility": "Moderate",
      "eventName": "Building Permits (MoM) (Mar)",
      "eventTimeZone": "GMT",
      "eventPrevious": "-6.2%",
      "eventCurrency": "USD",
      "eventForecast": "2.8%"
    },
    {
      "eventDateTime": "2017-04-18T12:30:00",
      "eventActual": "1.215M",
      "eventCountry": "United States",
      "eventExpectedVolatility": "Moderate",
      "eventName": "Housing Starts (Mar)",
      "eventTimeZone": "GMT",
      "eventPrevious": "1.303M",
      "eventCurrency": "USD",
      "eventForecast": "1.250M"
    },
    {
      "eventDateTime": "2017-04-18T12:30:00",
      "eventActual": "-6.8%",
      "eventCountry": "United States",
      "eventExpectedVolatility": "Moderate",
      "eventName": "Housing Starts (MoM) (Mar)",
      "eventTimeZone": "GMT",
      "eventPrevious": "5.0%",
      "eventCurrency": "USD",
      "eventForecast": "-3.0%"
    },
    {
      "eventDateTime": "2017-04-18T12:55:00",
      "eventActual": "1.2%",
      "eventCountry": "United States",
      "eventExpectedVolatility": "Low",
      "eventName": "Redbook (MoM)",
      "eventTimeZone": "GMT",
      "eventPrevious": "0.9%",
      "eventCurrency": "USD",
      "eventForecast": ""
    },
    {
      "eventDateTime": "2017-04-18T12:55:00",
      "eventActual": "2.3%",
      "eventCountry": "United States",
      "eventExpectedVolatility": "Low",
      "eventName": "Redbook (YoY)",
      "eventTimeZone": "GMT",
      "eventPrevious": "1.6%",
      "eventCurrency": "USD",
      "eventForecast": ""
    },
    {
      "eventDateTime": "2017-04-18T13:00:00",
      "eventActual": "",
      "eventCountry": "United States",
      "eventExpectedVolatility": "Moderate",
      "eventName": "FOMC Member George Speaks",
      "eventTimeZone": "GMT",
      "eventPrevious": "",
      "eventCurrency": "USD",
      "eventForecast": ""
    },
    {
      "eventDateTime": "2017-04-18T13:15:00",
      "eventActual": "76.1%",
      "eventCountry": "United States",
      "eventExpectedVolatility": "Low",
      "eventName": "Capacity Utilization Rate (Mar)",
      "eventTimeZone": "GMT",
      "eventPrevious": "75.7%",
      "eventCurrency": "USD",
      "eventForecast": "76.2%"
    },
    {
      "eventDateTime": "2017-04-18T13:15:00",
      "eventActual": "0.5%",
      "eventCountry": "United States",
      "eventExpectedVolatility": "Moderate",
      "eventName": "Industrial Production (MoM) (Mar)",
      "eventTimeZone": "GMT",
      "eventPrevious": "0.1%",
      "eventCurrency": "USD",
      "eventForecast": "0.5%"
    },
    {
      "eventDateTime": "2017-04-18T13:15:00",
      "eventActual": "-0.4%",
      "eventCountry": "United States",
      "eventExpectedVolatility": "Low",
      "eventName": "Manufacturing Production (MoM) (Mar)",
      "eventTimeZone": "GMT",
      "eventPrevious": "0.3%",
      "eventCurrency": "USD",
      "eventForecast": "0.1%"
    },
    {
      "eventDateTime": "2017-04-18T15:30:00",
      "eventActual": "0.750%",
      "eventCountry": "United States",
      "eventExpectedVolatility": "Low",
      "eventName": "4-Week Bill Auction",
      "eventTimeZone": "GMT",
      "eventPrevious": "0.760%",
      "eventCurrency": "USD",
      "eventForecast": ""
    },
    {
      "eventDateTime": "2017-04-18T20:35:00",
      "eventActual": "-0.840M",
      "eventCountry": "United States",
      "eventExpectedVolatility": "Moderate",
      "eventName": "API Weekly Crude Oil Stock",
      "eventTimeZone": "GMT",
      "eventPrevious": "-1.300M",
      "eventCurrency": "USD",
      "eventForecast": "-0.050M"
    }
  ]}}
