"Fed Governor Kohn Speaks";"United States";"USD";"2008-05-20T13:00:00";"GMT";" ";"";"";"Moderate"
"Core PPI (MoM)";"United States";"USD";"2008-05-20T13:30:00";"GMT";"0.2%";"0.2%";"0.4%";"Moderate"
"PPI (MoM)";"United States";"USD";"2008-05-20T13:30:00";"GMT";"1.1%";"0.4%";"0.2%";"High"
