{"events": {"event": [
    {
      "eventDateTime": "2015-08-18T08:00:00",
      "eventActual": "-2.05B",
      "eventCountry": "Spain",
      "eventExpectedVolatility": "Low",
      "eventName": "Spanish Trade Balance",
      "eventTimeZone": "GMT",
      "eventPrevious": "-1.66B",
      "eventCurrency": "EUR",
      "eventForecast": "-2.00B"
    },
    {
      "eventDateTime": "2015-08-18T08:45:00",
      "eventActual": "0.024%",
      "eventCountry": "Spain",
      "eventExpectedVolatility": "Low",
      "eventName": "Spanish 12-Month Letras Auction",
      "eventTimeZone": "GMT",
      "eventPrevious": "0.110%",
      "eventCurrency": "EUR",
      "eventForecast": ""
    },
    {
      "eventDateTime": "2015-08-18T08:45:00",
      "eventActual": "-0.014%",
      "eventCountry": "Spain",
      "eventExpectedVolatility": "Low",
      "eventName": "Spanish 6-Month Letras Auction",
      "eventTimeZone": "GMT",
      "eventPrevious": "0.021%",
      "eventCurrency": "EUR",
      "eventForecast": ""
    }
  ]}}
