{"events": {"event": [
    {
      "eventDateTime": "2012-01-24T12:00:00",
      "eventActual": "2.50%",
      "eventCountry": "Russia",
      "eventExpectedVolatility": "Low",
      "eventName": "Industrial Production (YoY)",
      "eventTimeZone": "GMT",
      "eventPrevious": "3.90%",
      "eventCurrency": "RUB",
      "eventForecast": "3.40%"
    },
    {
      "eventDateTime": "2012-01-24T12:00:00",
      "eventActual": "6.1%",
      "eventCountry": "Russia",
      "eventExpectedVolatility": "Moderate",
      "eventName": "Unemployment Rate",
      "eventTimeZone": "GMT",
      "eventPrevious": "6.3%",
      "eventCurrency": "RUB",
      "eventForecast": "6.6%"
    },
    {
      "eventDateTime": "2012-01-24T12:30:00",
      "eventActual": "2.60T",
      "eventCountry": "Russia",
      "eventExpectedVolatility": "Low",
      "eventName": "Government Budget Balance",
      "eventTimeZone": "GMT",
      "eventPrevious": "2.70T",
      "eventCurrency": "RUB",
      "eventForecast": "2.50T"
    }
  ]}}
