{"events": {"event": [
    {
      "eventDateTime": "2012-08-14T01:30:00",
      "eventActual": "4",
      "eventCountry": "Australia",
      "eventExpectedVolatility": "Moderate",
      "eventName": "NAB Business Confidence",
      "eventTimeZone": "GMT",
      "eventPrevious": "-3",
      "eventCurrency": "AUD",
      "eventForecast": ""
    },
    {
      "eventDateTime": "2012-08-14T01:30:00",
      "eventActual": "-0.8%",
      "eventCountry": "Australia",
      "eventExpectedVolatility": "Low",
      "eventName": "New Motor Vehicle Sales (MoM)",
      "eventTimeZone": "GMT",
      "eventPrevious": "-1.0%",
      "eventCurrency": "AUD",
      "eventForecast": ""
    }
  ]}}
