{"events": {"event": [
    {
      "eventDateTime": "2018-11-13T09:30:00",
      "eventActual": "3.0%",
      "eventCountry": "United Kingdom",
      "eventExpectedVolatility": "High",
      "eventName": "Average Earnings Index +Bonus (Sep)",
      "eventTimeZone": "GMT",
      "eventPrevious": "2.8%",
      "eventCurrency": "GBP",
      "eventForecast": "3.0%"
    },
    {
      "eventDateTime": "2018-11-13T09:30:00",
      "eventActual": "3.2%",
      "eventCountry": "United Kingdom",
      "eventExpectedVolatility": "Low",
      "eventName": "Average Earnings ex Bonus (Sep)",
      "eventTimeZone": "GMT",
      "eventPrevious": "3.1%",
      "eventCurrency": "GBP",
      "eventForecast": "3.1%"
    },
    {
      "eventDateTime": "2018-11-13T09:30:00",
      "eventActual": "20.2K",
      "eventCountry": "United Kingdom",
      "eventExpectedVolatility": "High",
      "eventName": "Claimant Count Change (Oct)",
      "eventTimeZone": "GMT",
      "eventPrevious": "23.2K",
      "eventCurrency": "GBP",
      "eventForecast": "4.3K"
    },
    {
      "eventDateTime": "2018-11-13T09:30:00",
      "eventActual": "23.0K",
      "eventCountry": "United Kingdom",
      "eventExpectedVolatility": "Moderate",
      "eventName": "Employment Change 3M/3M (MoM)",
      "eventTimeZone": "GMT",
      "eventPrevious": "-5.0K",
      "eventCurrency": "GBP",
      "eventForecast": "25.0K"
    },
    {
      "eventDateTime": "2018-11-13T09:30:00",
      "eventActual": "4.1%",
      "eventCountry": "United Kingdom",
      "eventExpectedVolatility": "Moderate",
      "eventName": "Unemployment Rate (Sep)",
      "eventTimeZone": "GMT",
      "eventPrevious": "4.0%",
      "eventCurrency": "GBP",
      "eventForecast": "4.0%"
    }
  ]}}
