{"events": {"event": {
    "eventDateTime": "2013-10-31T00:00:00",
    "eventActual": "53.2%",
    "eventCountry": "New Zealand",
    "eventExpectedVolatility": "Moderate",
    "eventName": "ANZ Business Confidence",
    "eventTimeZone": "GMT",
    "eventPrevious": "54.1%",
    "eventCurrency": "NZD",
    "eventForecast": ""
  }}}
