{"events": {"event": [
    {
      "eventDateTime": "2014-06-30T01:00:00",
      "eventActual": "42.8%",
      "eventCountry": "New Zealand",
      "eventExpectedVolatility": "Moderate",
      "eventName": "ANZ Business Confidence",
      "eventTimeZone": "GMT",
      "eventPrevious": "53.5%",
      "eventCurrency": "NZD",
      "eventForecast": ""
    },
    {
      "eventDateTime": "2014-06-30T05:00:00",
      "eventActual": "34.1%",
      "eventCountry": "New Zealand",
      "eventExpectedVolatility": "Moderate",
      "eventName": "Investing.com NZD/USD Index",
      "eventTimeZone": "GMT",
      "eventPrevious": "31.7%",
      "eventCurrency": "NZD",
      "eventForecast": ""
    }
  ]}}
