{"events": {"event": [
    {
      "eventDateTime": "2015-07-09T11:00:00",
      "eventActual": "0.50%",
      "eventCountry": "United Kingdom",
      "eventExpectedVolatility": "High",
      "eventName": "BoE Interest Rate Decision (Jul)",
      "eventTimeZone": "GMT",
      "eventPrevious": "0.50%",
      "eventCurrency": "GBP",
      "eventForecast": "0.50%"
    },
    {
      "eventDateTime": "2015-07-09T11:00:00",
      "eventActual": "375B",
      "eventCountry": "United Kingdom",
      "eventExpectedVolatility": "Moderate",
      "eventName": "BoE QE Total (Jul)",
      "eventTimeZone": "GMT",
      "eventPrevious": "375B",
      "eventCurrency": "GBP",
      "eventForecast": "375B"
    }
  ]}}
