{"events": {"event": [
    {
      "eventDateTime": "2009-01-01T09:00:00",
      "eventActual": "4.10%",
      "eventCountry": "Russia",
      "eventExpectedVolatility": "Low",
      "eventName": "Budget Balance % of GDP (Dec)",
      "eventTimeZone": "GMT",
      "eventPrevious": "6.50%",
      "eventCurrency": "RUB",
      "eventForecast": ""
    },
    {
      "eventDateTime": "2009-01-01T09:00:00",
      "eventActual": "0.70%",
      "eventCountry": "Russia",
      "eventExpectedVolatility": "Moderate",
      "eventName": "CPI (MoM) (Dec)",
      "eventTimeZone": "GMT",
      "eventPrevious": "0.80%",
      "eventCurrency": "RUB",
      "eventForecast": ""
    },
    {
      "eventDateTime": "2009-01-01T09:00:00",
      "eventActual": "13.30%",
      "eventCountry": "Russia",
      "eventExpectedVolatility": "Moderate",
      "eventName": "CPI (YoY) (Dec)",
      "eventTimeZone": "GMT",
      "eventPrevious": "13.80%",
      "eventCurrency": "RUB",
      "eventForecast": ""
    },
    {
      "eventDateTime": "2009-01-01T09:00:00",
      "eventActual": "426.00B",
      "eventCountry": "Russia",
      "eventExpectedVolatility": "Moderate",
      "eventName": "Central Bank reserves (USD) (Dec)",
      "eventTimeZone": "GMT",
      "eventPrevious": "454.90B",
      "eventCurrency": "RUB",
      "eventForecast": ""
    },
    {
      "eventDateTime": "2009-01-01T09:00:00",
      "eventActual": "-4.80%",
      "eventCountry": "Russia",
      "eventExpectedVolatility": "Moderate",
      "eventName": "GDP Monthly (YoY) (Dec)",
      "eventTimeZone": "GMT",
      "eventPrevious": "-2.00%",
      "eventCurrency": "RUB",
      "eventForecast": ""
    },
    {
      "eventDateTime": "2009-01-01T09:00:00",
      "eventActual": "-12.80%",
      "eventCountry": "Russia",
      "eventExpectedVolatility": "Low",
      "eventName": "Industrial Production (YoY) (Dec)",
      "eventTimeZone": "GMT",
      "eventPrevious": "-12.50%",
      "eventCurrency": "RUB",
      "eventForecast": ""
    },
    {
      "eventDateTime": "2009-01-01T09:00:00",
      "eventActual": "9.50%",
      "eventCountry": "Russia",
      "eventExpectedVolatility": "High",
      "eventName": "Interest Rate Decision (Dec)",
      "eventTimeZone": "GMT",
      "eventPrevious": "8.50%",
      "eventCurrency": "RUB",
      "eventForecast": ""
    },
    {
      "eventDateTime": "2009-01-01T09:00:00",
      "eventActual": "-7.60%",
      "eventCountry": "Russia",
      "eventExpectedVolatility": "Low",
      "eventName": "PPI (MoM) (Dec)",
      "eventTimeZone": "GMT",
      "eventPrevious": "-8.40%",
      "eventCurrency": "RUB",
      "eventForecast": ""
    },
    {
      "eventDateTime": "2009-01-01T09:00:00",
      "eventActual": "-7.00%",
      "eventCountry": "Russia",
      "eventExpectedVolatility": "Low",
      "eventName": "PPI (YoY) (Dec)",
      "eventTimeZone": "GMT",
      "eventPrevious": "4.20%",
      "eventCurrency": "RUB",
      "eventForecast": ""
    },
    {
      "eventDateTime": "2009-01-01T09:00:00",
      "eventActual": "6.43B",
      "eventCountry": "Russia",
      "eventExpectedVolatility": "Low",
      "eventName": "Trade Balance (Dec)",
      "eventTimeZone": "GMT",
      "eventPrevious": "8.28B",
      "eventCurrency": "RUB",
      "eventForecast": ""
    },
    {
      "eventDateTime": "2009-01-01T09:00:00",
      "eventActual": "7.60%",
      "eventCountry": "Russia",
      "eventExpectedVolatility": "Moderate",
      "eventName": "Unemployment Rate (Dec)",
      "eventTimeZone": "GMT",
      "eventPrevious": "6.80%",
      "eventCurrency": "RUB",
      "eventForecast": ""
    }
  ]}}
