"Core PPI (MoM) (Dec)";"United States";"USD";"2019-01-15T13:30:00";"GMT";"0.3%";"0.2%";"-0.1%";"Moderate"
"Core PPI (YoY) (Dec)";"United States";"USD";"2019-01-15T13:30:00";"GMT";"2.7%";"2.9%";"2.7%";"Low"
"NY Empire State Manufacturing Index (Jan)";"United States";"USD";"2019-01-15T13:30:00";"GMT";"11.50";"10.75";"3.90";"Moderate"
"PPI (MoM) (Dec)";"United States";"USD";"2019-01-15T13:30:00";"GMT";"0.1%";"-0.1%";"-0.2%";"High"
"PPI (YoY) (Dec)";"United States";"USD";"2019-01-15T13:30:00";"GMT";"2.5%";"2.5%";"2.5%";"Low"
"Redbook (MoM)";"United States";"USD";"2019-01-15T13:55:00";"GMT";"0.8%";"";"-1.7%";"Low"
"Redbook (YoY)";"United States";"USD";"2019-01-15T13:55:00";"GMT";"8.9%";"";"6.7%";"Low"
"IBD/TIPP Economic Optimism";"United States";"USD";"2019-01-15T15:00:00";"GMT";"52.6";"53.1";"52.3";"Low"
"FOMC Member Kashkari Speaks";"United States";"USD";"2019-01-15T16:30:00";"GMT";" ";"";"";"Moderate"
"FOMC Member George Speaks";"United States";"USD";"2019-01-15T18:00:00";"GMT";" ";"";"";"Moderate"
"FOMC Member Kaplan Speaks";"United States";"USD";"2019-01-15T18:00:00";"GMT";" ";"";"";"Moderate"
"API Weekly Crude Oil Stock";"United States";"USD";"2019-01-15T21:30:00";"GMT";"-6.270M";"";"-0.560M";"Moderate"
