{"events": {"event": [
    {
      "eventDateTime": "2012-05-28T23:30:00",
      "eventActual": "2.6%",
      "eventCountry": "Japan",
      "eventExpectedVolatility": "Moderate",
      "eventName": "Household Spending (YoY)",
      "eventTimeZone": "GMT",
      "eventPrevious": "3.4%",
      "eventCurrency": "JPY",
      "eventForecast": "2.4%"
    },
    {
      "eventDateTime": "2012-05-28T23:30:00",
      "eventActual": "4.6%",
      "eventCountry": "Japan",
      "eventExpectedVolatility": "Low",
      "eventName": "Unemployment Rate",
      "eventTimeZone": "GMT",
      "eventPrevious": "4.5%",
      "eventCurrency": "JPY",
      "eventForecast": "4.5%"
    },
    {
      "eventDateTime": "2012-05-28T23:50:00",
      "eventActual": "5.8%",
      "eventCountry": "Japan",
      "eventExpectedVolatility": "Moderate",
      "eventName": "Retail Sales (YoY)",
      "eventTimeZone": "GMT",
      "eventPrevious": "10.3%",
      "eventCurrency": "JPY",
      "eventForecast": "6.3%"
    }
  ]}}
