{"events": {"event": {
    "eventDateTime": "2009-01-02T20:30:00",
    "eventActual": "43.9K",
    "eventCountry": "Japan",
    "eventExpectedVolatility": "Moderate",
    "eventName": "CFTC JPY speculative net positions",
    "eventTimeZone": "GMT",
    "eventPrevious": "40.1K",
    "eventCurrency": "JPY",
    "eventForecast": ""
  }}}
