{"events": {"event": [
    {
      "eventDateTime": "2019-09-10T10:00:00",
      "eventActual": "103.1",
      "eventCountry": "United States",
      "eventExpectedVolatility": "Low",
      "eventName": "NFIB Small Business Optimism (Aug)",
      "eventTimeZone": "GMT",
      "eventPrevious": "104.7",
      "eventCurrency": "USD",
      "eventForecast": ""
    },
    {
      "eventDateTime": "2019-09-10T12:55:00",
      "eventActual": "-0.4%",
      "eventCountry": "United States",
      "eventExpectedVolatility": "Low",
      "eventName": "Redbook (MoM)",
      "eventTimeZone": "GMT",
      "eventPrevious": "-1.0%",
      "eventCurrency": "USD",
      "eventForecast": ""
    },
    {
      "eventDateTime": "2019-09-10T12:55:00",
      "eventActual": "6.4%",
      "eventCountry": "United States",
      "eventExpectedVolatility": "Low",
      "eventName": "Redbook (YoY)",
      "eventTimeZone": "GMT",
      "eventPrevious": "6.5%",
      "eventCurrency": "USD",
      "eventForecast": ""
    },
    {
      "eventDateTime": "2019-09-10T14:00:00",
      "eventActual": "7.217M",
      "eventCountry": "United States",
      "eventExpectedVolatility": "High",
      "eventName": "JOLTs Job Openings (Jul)",
      "eventTimeZone": "GMT",
      "eventPrevious": "7.248M",
      "eventCurrency": "USD",
      "eventForecast": "7.311M"
    },
    {
      "eventDateTime": "2019-09-10T15:30:00",
      "eventActual": "1.740%",
      "eventCountry": "United States",
      "eventExpectedVolatility": "Low",
      "eventName": "52-Week Bill Auction",
      "eventTimeZone": "GMT",
      "eventPrevious": "1.800%",
      "eventCurrency": "USD",
      "eventForecast": ""
    },
    {
      "eventDateTime": "2019-09-10T17:00:00",
      "eventActual": "1.573%",
      "eventCountry": "United States",
      "eventExpectedVolatility": "Low",
      "eventName": "3-Year Note Auction",
      "eventTimeZone": "GMT",
      "eventPrevious": "1.562%",
      "eventCurrency": "USD",
      "eventForecast": ""
    },
    {
      "eventDateTime": "2019-09-10T20:30:00",
      "eventActual": "-7.200M",
      "eventCountry": "United States",
      "eventExpectedVolatility": "Moderate",
      "eventName": "API Weekly Crude Oil Stock",
      "eventTimeZone": "GMT",
      "eventPrevious": "0.401M",
      "eventCurrency": "USD",
      "eventForecast": ""
    }
  ]}}
