{"events": {"event": {
    "eventDateTime": "2017-01-23T21:00:00",
    "eventActual": "93",
    "eventCountry": "South Korea",
    "eventExpectedVolatility": "Low",
    "eventName": "Consumer Confidence (Jan)",
    "eventTimeZone": "GMT",
    "eventPrevious": "94",
    "eventCurrency": "KRW",
    "eventForecast": ""
  }}}
