{"events": {"event": [
    {
      "eventDateTime": "2017-01-25T07:45:00",
      "eventActual": "106",
      "eventCountry": "France",
      "eventExpectedVolatility": "Low",
      "eventName": "French Business Survey (Jan)",
      "eventTimeZone": "GMT",
      "eventPrevious": "106",
      "eventCurrency": "EUR",
      "eventForecast": "106"
    },
    {
      "eventDateTime": "2017-01-25T08:00:00",
      "eventActual": "2.8%",
      "eventCountry": "Spain",
      "eventExpectedVolatility": "Low",
      "eventName": "Spanish PPI (YoY)",
      "eventTimeZone": "GMT",
      "eventPrevious": "0.6%",
      "eventCurrency": "EUR",
      "eventForecast": ""
    },
    {
      "eventDateTime": "2017-01-25T09:00:00",
      "eventActual": "103.2",
      "eventCountry": "Germany",
      "eventExpectedVolatility": "Moderate",
      "eventName": "German Business Expectations (Jan)",
      "eventTimeZone": "GMT",
      "eventPrevious": "105.5",
      "eventCurrency": "EUR",
      "eventForecast": "105.8"
    },
    {
      "eventDateTime": "2017-01-25T09:00:00",
      "eventActual": "116.9",
      "eventCountry": "Germany",
      "eventExpectedVolatility": "Moderate",
      "eventName": "German Current Assessment (Jan)",
      "eventTimeZone": "GMT",
      "eventPrevious": "116.7",
      "eventCurrency": "EUR",
      "eventForecast": "116.9"
    },
    {
      "eventDateTime": "2017-01-25T09:00:00",
      "eventActual": "101.3",
      "eventCountry": "Germany",
      "eventExpectedVolatility": "High",
      "eventName": "German Ifo Business Climate Index (Jan)",
      "eventTimeZone": "GMT",
      "eventPrevious": "101.3",
      "eventCurrency": "EUR",
      "eventForecast": ""
    },
    {
      "eventDateTime": "2017-01-25T09:00:00",
      "eventActual": "1.5%",
      "eventCountry": "Italy",
      "eventExpectedVolatility": "Low",
      "eventName": "Italian Industrial New Orders (MoM) (Nov)",
      "eventTimeZone": "GMT",
      "eventPrevious": "1.0%",
      "eventCurrency": "EUR",
      "eventForecast": ""
    },
    {
      "eventDateTime": "2017-01-25T09:00:00",
      "eventActual": "0.1%",
      "eventCountry": "Italy",
      "eventExpectedVolatility": "Low",
      "eventName": "Italian Industrial New Orders (YoY) (Nov)",
      "eventTimeZone": "GMT",
      "eventPrevious": "-3.2%",
      "eventCurrency": "EUR",
      "eventForecast": ""
    },
    {
      "eventDateTime": "2017-01-25T09:00:00",
      "eventActual": "2.40%",
      "eventCountry": "Italy",
      "eventExpectedVolatility": "Low",
      "eventName": "Italian Industrial Sales (MoM) (Nov)",
      "eventTimeZone": "GMT",
      "eventPrevious": "0.80%",
      "eventCurrency": "EUR",
      "eventForecast": ""
    },
    {
      "eventDateTime": "2017-01-25T09:00:00",
      "eventActual": "3.90%",
      "eventCountry": "Italy",
      "eventExpectedVolatility": "Low",
      "eventName": "Italian Industrial Sales (YoY) (Nov)",
      "eventTimeZone": "GMT",
      "eventPrevious": "-0.90%",
      "eventCurrency": "EUR",
      "eventForecast": ""
    },
    {
      "eventDateTime": "2017-01-25T10:00:00",
      "eventActual": "5.68B",
      "eventCountry": "Italy",
      "eventExpectedVolatility": "Low",
      "eventName": "Italian Trade Balance Non-EU (Dec)",
      "eventTimeZone": "GMT",
      "eventPrevious": "3.97B",
      "eventCurrency": "EUR",
      "eventForecast": ""
    },
    {
      "eventDateTime": "2017-01-25T10:35:00",
      "eventActual": "1.200%",
      "eventCountry": "Germany",
      "eventExpectedVolatility": "Low",
      "eventName": "German 30-Year Bund Auction",
      "eventTimeZone": "GMT",
      "eventPrevious": "0.640%",
      "eventCurrency": "EUR",
      "eventForecast": ""
    },
    {
      "eventDateTime": "2017-01-25T13:15:00",
      "eventActual": "",
      "eventCountry": "Germany",
      "eventExpectedVolatility": "Moderate",
      "eventName": "German Buba President Weidmann Speaks",
      "eventTimeZone": "GMT",
      "eventPrevious": "",
      "eventCurrency": "EUR",
      "eventForecast": ""
    }
  ]}}
