{"events": {"event": {
    "eventDateTime": "2009-03-11T12:30:00",
    "eventActual": "-0.6%",
    "eventCountry": "Canada",
    "eventExpectedVolatility": "Moderate",
    "eventName": "New Housing Price Index (MoM)",
    "eventTimeZone": "GMT",
    "eventPrevious": "-0.1%",
    "eventCurrency": "CAD",
    "eventForecast": "-0.3%"
  }}}
