{"events": {"event": [
    {
      "eventDateTime": "2011-11-17T13:30:00",
      "eventActual": "7.35B",
      "eventCountry": "Canada",
      "eventExpectedVolatility": "Moderate",
      "eventName": "Foreign Securities Purchases",
      "eventTimeZone": "GMT",
      "eventPrevious": "8.22B",
      "eventCurrency": "CAD",
      "eventForecast": "9.24B"
    },
    {
      "eventDateTime": "2011-11-17T15:30:00",
      "eventActual": "",
      "eventCountry": "Canada",
      "eventExpectedVolatility": "Low",
      "eventName": "BoC Review",
      "eventTimeZone": "GMT",
      "eventPrevious": "",
      "eventCurrency": "CAD",
      "eventForecast": ""
    }
  ]}}
