"Investing.com EUR/USD Index";"Euro Zone";"EUR";"2017-04-03T05:30:00";"GMT";"43.5%";"";"55.1%";"Moderate"
"ECB's Coeure Speaks";"Euro Zone";"EUR";"2017-04-03T06:30:00";"GMT";" ";"";"";"Moderate"
"Spanish Manufacturing PMI (Mar)";"Spain";"EUR";"2017-04-03T07:15:00";"GMT";"54.8";"54.7";"53.9";"Moderate"
"Italian Manufacturing PMI (Mar)";"Italy";"EUR";"2017-04-03T07:45:00";"GMT";"55.0";"54.9";"55.7";"Moderate"
"French Manufacturing PMI (Mar)";"France";"EUR";"2017-04-03T07:50:00";"GMT";"53.4";"53.4";"53.3";"Moderate"
"German Manufacturing PMI (Mar)";"Germany";"EUR";"2017-04-03T07:55:00";"GMT";"58.3";"58.3";"58.3";"High"
"Italian Monthly Unemployment Rate (Feb)";"Italy";"EUR";"2017-04-03T08:00:00";"GMT";"11.8%";"11.9%";"11.5%";"Low"
"Manufacturing PMI (Mar)";"Euro Zone";"EUR";"2017-04-03T08:00:00";"GMT";"56.2";"56.2";"56.2";"Moderate"
"PPI (MoM) (Feb)";"Euro Zone";"EUR";"2017-04-03T09:00:00";"GMT";"1.1%";"0.3%";"0.0%";"Low"
"PPI (YoY) (Feb)";"Euro Zone";"EUR";"2017-04-03T09:00:00";"GMT";"3.9%";"4.3%";"4.5%";"Low"
"Unemployment Rate (Feb)";"Euro Zone";"EUR";"2017-04-03T09:00:00";"GMT";"9.6%";"9.5%";"9.5%";"Moderate"
"French 12-Month BTF Auction";"France";"EUR";"2017-04-03T13:00:00";"GMT";"-0.520%";"";"-0.527%";"Low"
"French 3-Month BTF Auction";"France";"EUR";"2017-04-03T13:00:00";"GMT";"-0.616%";"";"-0.561%";"Low"
"French 6-Month BTF Auction";"France";"EUR";"2017-04-03T13:00:00";"GMT";"-0.598%";"";"-0.552%";"Low"
