"French Trade Balance";"France";"EUR";"2009-05-07T06:45:00";"GMT";"-4.1B";"-3.9B";"-4.9B";"Low"
"German Factory Orders (MoM)";"Germany";"EUR";"2009-05-07T10:00:00";"GMT";"-3.1%";"-0.9%";"3.3%";"Moderate"
"ECB Interest Rate Decision";"Euro Zone";"EUR";"2009-05-07T11:45:00";"GMT";"1.25%";"1.00%";"1.00%";"High"
"ECB President Trichet Speaks";"Euro Zone";"EUR";"2009-05-07T12:30:00";"GMT";" ";"";"";"High"
