{"events": {"event": [
    {
      "eventDateTime": "2010-01-21T13:30:00",
      "eventActual": "482K",
      "eventCountry": "United States",
      "eventExpectedVolatility": "Moderate",
      "eventName": "Initial Jobless Claims",
      "eventTimeZone": "GMT",
      "eventPrevious": "446K",
      "eventCurrency": "USD",
      "eventForecast": "440K"
    },
    {
      "eventDateTime": "2010-01-21T15:00:00",
      "eventActual": "15.2",
      "eventCountry": "United States",
      "eventExpectedVolatility": "High",
      "eventName": "Philadelphia Fed Manufacturing Index",
      "eventTimeZone": "GMT",
      "eventPrevious": "22.5",
      "eventCurrency": "USD",
      "eventForecast": "18.8"
    },
    {
      "eventDateTime": "2010-01-21T15:30:00",
      "eventActual": "-245B",
      "eventCountry": "United States",
      "eventExpectedVolatility": "Low",
      "eventName": "Natural Gas Storage",
      "eventTimeZone": "GMT",
      "eventPrevious": "-266B",
      "eventCurrency": "USD",
      "eventForecast": ""
    },
    {
      "eventDateTime": "2010-01-21T16:00:00",
      "eventActual": "-0.400M",
      "eventCountry": "United States",
      "eventExpectedVolatility": "High",
      "eventName": "Crude Oil Inventories",
      "eventTimeZone": "GMT",
      "eventPrevious": "3.700M",
      "eventCurrency": "USD",
      "eventForecast": ""
    }
  ]}}
