{"events": {"event": [
    {
      "eventDateTime": "2016-01-22T13:30:00",
      "eventActual": "-0.5%",
      "eventCountry": "Canada",
      "eventExpectedVolatility": "Moderate",
      "eventName": "CPI (MoM) (Dec)",
      "eventTimeZone": "GMT",
      "eventPrevious": "-0.1%",
      "eventCurrency": "CAD",
      "eventForecast": "-0.4%"
    },
    {
      "eventDateTime": "2016-01-22T13:30:00",
      "eventActual": "1.6%",
      "eventCountry": "Canada",
      "eventExpectedVolatility": "Low",
      "eventName": "CPI (YoY) (Dec)",
      "eventTimeZone": "GMT",
      "eventPrevious": "1.4%",
      "eventCurrency": "CAD",
      "eventForecast": "1.7%"
    },
    {
      "eventDateTime": "2016-01-22T13:30:00",
      "eventActual": "-0.4%",
      "eventCountry": "Canada",
      "eventExpectedVolatility": "High",
      "eventName": "Core CPI (MoM) (Dec)",
      "eventTimeZone": "GMT",
      "eventPrevious": "-0.3%",
      "eventCurrency": "CAD",
      "eventForecast": "-0.3%"
    },
    {
      "eventDateTime": "2016-01-22T13:30:00",
      "eventActual": "1.9%",
      "eventCountry": "Canada",
      "eventExpectedVolatility": "Moderate",
      "eventName": "Core CPI (YoY) (Dec)",
      "eventTimeZone": "GMT",
      "eventPrevious": "2.0%",
      "eventCurrency": "CAD",
      "eventForecast": "2.1%"
    },
    {
      "eventDateTime": "2016-01-22T13:30:00",
      "eventActual": "1.1%",
      "eventCountry": "Canada",
      "eventExpectedVolatility": "High",
      "eventName": "Core Retail Sales (MoM) (Nov)",
      "eventTimeZone": "GMT",
      "eventPrevious": "0.0%",
      "eventCurrency": "CAD",
      "eventForecast": "0.4%"
    },
    {
      "eventDateTime": "2016-01-22T13:30:00",
      "eventActual": "1.7%",
      "eventCountry": "Canada",
      "eventExpectedVolatility": "Moderate",
      "eventName": "Retail Sales (MoM) (Nov)",
      "eventTimeZone": "GMT",
      "eventPrevious": "0.1%",
      "eventCurrency": "CAD",
      "eventForecast": "0.2%"
    },
    {
      "eventDateTime": "2016-01-22T20:30:00",
      "eventActual": "-66.4K",
      "eventCountry": "Canada",
      "eventExpectedVolatility": "Low",
      "eventName": "CFTC CAD speculative net positions",
      "eventTimeZone": "GMT",
      "eventPrevious": "-59.2K",
      "eventCurrency": "CAD",
      "eventForecast": ""
    }
  ]}}
