"CPI (MoM) (Dec)";"Canada";"CAD";"2016-01-22T13:30:00";"GMT";"-0.1%";"-0.4%";"-0.5%";"Moderate"
"CPI (YoY) (Dec)";"Canada";"CAD";"2016-01-22T13:30:00";"GMT";"1.4%";"1.7%";"1.6%";"Low"
"Core CPI (MoM) (Dec)";"Canada";"CAD";"2016-01-22T13:30:00";"GMT";"-0.3%";"-0.3%";"-0.4%";"High"
"Core CPI (YoY) (Dec)";"Canada";"CAD";"2016-01-22T13:30:00";"GMT";"2.0%";"2.1%";"1.9%";"Moderate"
"Core Retail Sales (MoM) (Nov)";"Canada";"CAD";"2016-01-22T13:30:00";"GMT";"0.0%";"0.4%";"1.1%";"High"
"Retail Sales (MoM) (Nov)";"Canada";"CAD";"2016-01-22T13:30:00";"GMT";"0.1%";"0.2%";"1.7%";"Moderate"
"CFTC CAD speculative net positions";"Canada";"CAD";"2016-01-22T20:30:00";"GMT";"-59.2K";"";"-66.4K";"Low"
