{"events": {"event": [
    {
      "eventDateTime": "2015-08-12T08:30:00",
      "eventActual": "2.4%",
      "eventCountry": "United Kingdom",
      "eventExpectedVolatility": "High",
      "eventName": "Average Earnings Index +Bonus (Jun)",
      "eventTimeZone": "GMT",
      "eventPrevious": "3.2%",
      "eventCurrency": "GBP",
      "eventForecast": "2.8%"
    },
    {
      "eventDateTime": "2015-08-12T08:30:00",
      "eventActual": "2.8%",
      "eventCountry": "United Kingdom",
      "eventExpectedVolatility": "Low",
      "eventName": "Average Earnings ex Bonus (Jun)",
      "eventTimeZone": "GMT",
      "eventPrevious": "2.8%",
      "eventCurrency": "GBP",
      "eventForecast": "2.8%"
    },
    {
      "eventDateTime": "2015-08-12T08:30:00",
      "eventActual": "-4.9K",
      "eventCountry": "United Kingdom",
      "eventExpectedVolatility": "High",
      "eventName": "Claimant Count Change (Jul)",
      "eventTimeZone": "GMT",
      "eventPrevious": "0.2K",
      "eventCurrency": "GBP",
      "eventForecast": "1.5K"
    },
    {
      "eventDateTime": "2015-08-12T08:30:00",
      "eventActual": "5.6%",
      "eventCountry": "United Kingdom",
      "eventExpectedVolatility": "Moderate",
      "eventName": "Unemployment Rate (Jun)",
      "eventTimeZone": "GMT",
      "eventPrevious": "5.6%",
      "eventCurrency": "GBP",
      "eventForecast": "5.6%"
    },
    {
      "eventDateTime": "2015-08-12T23:01:00",
      "eventActual": "44%",
      "eventCountry": "United Kingdom",
      "eventExpectedVolatility": "Moderate",
      "eventName": "RICS House Price Balance (Jul)",
      "eventTimeZone": "GMT",
      "eventPrevious": "40%",
      "eventCurrency": "GBP",
      "eventForecast": "42%"
    }
  ]}}
