{"events": {"event": [
    {
      "eventDateTime": "2008-03-17T12:30:00",
      "eventActual": "1.30%",
      "eventCountry": "Canada",
      "eventExpectedVolatility": "Moderate",
      "eventName": "Manufacturing Sales (MoM)",
      "eventTimeZone": "GMT",
      "eventPrevious": "-3.40%",
      "eventCurrency": "CAD",
      "eventForecast": "1.00%"
    },
    {
      "eventDateTime": "2008-03-17T12:30:00",
      "eventActual": "8.2%",
      "eventCountry": "Canada",
      "eventExpectedVolatility": "Low",
      "eventName": "New Motor Vehicle Sales (MoM)",
      "eventTimeZone": "GMT",
      "eventPrevious": "4.8%",
      "eventCurrency": "CAD",
      "eventForecast": "6.2%"
    }
  ]}}
