{"events": {"event": [
    {
      "eventDateTime": "2017-02-21T09:30:00",
      "eventActual": "-9.82B",
      "eventCountry": "United Kingdom",
      "eventExpectedVolatility": "Low",
      "eventName": "Public Sector Net Borrowing (Jan)",
      "eventTimeZone": "GMT",
      "eventPrevious": "4.24B",
      "eventCurrency": "GBP",
      "eventForecast": "-14.00B"
    },
    {
      "eventDateTime": "2017-02-21T09:30:00",
      "eventActual": "-26.466B",
      "eventCountry": "United Kingdom",
      "eventExpectedVolatility": "Low",
      "eventName": "Public Sector Net Cash Requirement (Jan)",
      "eventTimeZone": "GMT",
      "eventPrevious": "36.344B",
      "eventCurrency": "GBP",
      "eventForecast": ""
    },
    {
      "eventDateTime": "2017-02-21T10:00:00",
      "eventActual": "",
      "eventCountry": "United Kingdom",
      "eventExpectedVolatility": "High",
      "eventName": "BoE Gov Carney Speaks",
      "eventTimeZone": "GMT",
      "eventPrevious": "",
      "eventCurrency": "GBP",
      "eventForecast": ""
    },
    {
      "eventDateTime": "2017-02-21T10:00:00",
      "eventActual": "",
      "eventCountry": "United Kingdom",
      "eventExpectedVolatility": "High",
      "eventName": "Inflation Report Hearings",
      "eventTimeZone": "GMT",
      "eventPrevious": "",
      "eventCurrency": "GBP",
      "eventForecast": ""
    }
  ]}}
