{"events": {"event": [
    {
      "eventDateTime": "2014-12-18T09:00:00",
      "eventActual": "101.1",
      "eventCountry": "Germany",
      "eventExpectedVolatility": "Moderate",
      "eventName": "German Business Expectations (Dec)",
      "eventTimeZone": "GMT",
      "eventPrevious": "99.7",
      "eventCurrency": "EUR",
      "eventForecast": "101.1"
    },
    {
      "eventDateTime": "2014-12-18T09:00:00",
      "eventActual": "110.0",
      "eventCountry": "Germany",
      "eventExpectedVolatility": "Moderate",
      "eventName": "German Current Assessment (Dec)",
      "eventTimeZone": "GMT",
      "eventPrevious": "110.0",
      "eventCurrency": "EUR",
      "eventForecast": "110.3"
    },
    {
      "eventDateTime": "2014-12-18T09:00:00",
      "eventActual": "98.5",
      "eventCountry": "Germany",
      "eventExpectedVolatility": "High",
      "eventName": "German Ifo Business Climate Index (Dec)",
      "eventTimeZone": "GMT",
      "eventPrevious": "96.3",
      "eventCurrency": "EUR",
      "eventForecast": ""
    },
    {
      "eventDateTime": "2014-12-18T09:45:00",
      "eventActual": "1.730%",
      "eventCountry": "Spain",
      "eventExpectedVolatility": "Moderate",
      "eventName": "Spanish 10-Year Obligacion Auction",
      "eventTimeZone": "GMT",
      "eventPrevious": "1.840%",
      "eventCurrency": "EUR",
      "eventForecast": ""
    }
  ]}}
