"Bank Loan Growth (Jan)";"India";"INR";"2000-02-01T09:00:00";"GMT";"18.78%";"";"18.58%";"Low"
"Cash Reserve Ratio (Jan)";"India";"INR";"2000-02-01T09:00:00";"GMT";"9.00%";"";"9.00%";"Low"
"Deposit Growth (Jan)";"India";"INR";"2000-02-01T09:00:00";"GMT";"15.20%";"";"15.96%";"Low"
"Exports (USD) (Jan)";"India";"INR";"2000-02-01T09:00:00";"GMT";"3.07B";"";"2.75B";"Low"
"FX Reserves, USD (Jan)";"India";"INR";"2000-02-01T09:00:00";"GMT";"34.94B";"";"34.98B";"Low"
"Federal Fiscal Deficit (Jan)";"India";"INR";"2000-02-01T09:00:00";"GMT";"670.82B";"";"823.82B";"Low"
"Imports (USD) (Jan)";"India";"INR";"2000-02-01T09:00:00";"GMT";"4.62B";"";"3.88B";"Low"
"M3 Money Supply (Jan)";"India";"INR";"2000-02-01T09:00:00";"GMT";"16.85%";"";"16.44%";"Low"
"Trade Balance (Jan)";"India";"INR";"2000-02-01T09:00:00";"GMT";"-1.55B";"";"-1.13B";"Low"
