"Michigan Consumer Sentiment";"United States";"USD";"2009-02-13T14:55:00";"GMT";"61.2";"60.6";"56.2";"Moderate"
"U.S. Baker Hughes Oil Rig Count";"United States";"USD";"2009-02-13T17:00:00";"GMT";"283";"";"273";"Moderate"
"CFTC Crude Oil speculative net positions";"United States";"USD";"2009-02-13T20:30:00";"GMT";"29.3k";"";"16.6k";"Moderate"
"CFTC Gold speculative net positions";"United States";"USD";"2009-02-13T20:30:00";"GMT";"155.3K";"";"163.6K";"Moderate"
"CFTC Silver speculative net positions";"United States";"USD";"2009-02-13T20:30:00";"GMT";"22.4K";"";"24.1K";"Low"
