"Investing.com EUR/USD Index";"Euro Zone";"EUR";"2016-02-22T07:30:00";"GMT";"33.3%";"";"34.8%";"Moderate"
"French Manufacturing PMI (Feb)";"France";"EUR";"2016-02-22T08:00:00";"GMT";"50.0";"49.9";"50.3";"Moderate"
"French Markit Composite PMI (Feb)";"France";"EUR";"2016-02-22T08:00:00";"GMT";"50.2";"50.3";"49.8";"Low"
"French Services PMI (Feb)";"France";"EUR";"2016-02-22T08:00:00";"GMT";"50.3";"50.3";"49.8";"Moderate"
"German Composite PMI (Feb)";"Germany";"EUR";"2016-02-22T08:30:00";"GMT";"54.5";"54.1";"53.8";"Low"
"German Manufacturing PMI (Feb)";"Germany";"EUR";"2016-02-22T08:30:00";"GMT";"52.3";"52.0";"50.2";"High"
"German Services PMI (Feb)";"Germany";"EUR";"2016-02-22T08:30:00";"GMT";"55.0";"54.7";"55.1";"Moderate"
"Italian CPI (MoM) (Jan)";"Italy";"EUR";"2016-02-22T09:00:00";"GMT";"-0.2%";"-0.2%";"-0.2%";"Moderate"
"Italian CPI (YoY) (Jan)";"Italy";"EUR";"2016-02-22T09:00:00";"GMT";"0.3%";"0.3%";"0.3%";"Low"
"Italian HICP (MoM) (Jan)";"Italy";"EUR";"2016-02-22T09:00:00";"GMT";"-2.2%";"-2.2%";"-2.2%";"Low"
"Italian HICP (YoY) (Jan)";"Italy";"EUR";"2016-02-22T09:00:00";"GMT";"0.4%";"0.4%";"0.4%";"Low"
"Manufacturing PMI (Feb)";"Euro Zone";"EUR";"2016-02-22T09:00:00";"GMT";"52.3";"52.0";"51.0";"Moderate"
"Markit Composite PMI (Feb)";"Euro Zone";"EUR";"2016-02-22T09:00:00";"GMT";"53.6";"53.3";"52.7";"Moderate"
"Services PMI (Feb)";"Euro Zone";"EUR";"2016-02-22T09:00:00";"GMT";"53.6";"53.3";"53.0";"Moderate"
"German 12-Month Bubill Auction";"Germany";"EUR";"2016-02-22T10:35:00";"GMT";"-0.432%";"";"-0.500%";"Low"
"French 12-Month BTF Auction";"France";"EUR";"2016-02-22T14:00:00";"GMT";"-0.401%";"";"-0.399%";"Low"
"French 3-Month BTF Auction";"France";"EUR";"2016-02-22T14:00:00";"GMT";"-0.371%";"";"-0.387%";"Low"
"French 6-Month BTF Auction";"France";"EUR";"2016-02-22T14:00:00";"GMT";"-0.375%";"";"-0.391%";"Low"
