"30-Year JGB Auction";"Japan";"JPY";"2019-02-07T03:35:00";"GMT";"0.720%";"";"0.590%";"Low"
"Coincident Indicator (MoM) (Dec)";"Japan";"JPY";"2019-02-07T05:00:00";"GMT";"-1.7%";"";"-0.6%";"Low"
"Leading Index";"Japan";"JPY";"2019-02-07T05:00:00";"GMT";"99.1";"97.9";"97.9";"Low"
"Leading Index (MoM) (Dec)";"Japan";"JPY";"2019-02-07T05:00:00";"GMT";"-0.7%";"";"-1.2%";"Low"
"Household Spending (MoM) (Dec)";"Japan";"JPY";"2019-02-07T23:30:00";"GMT";"1.1%";"-0.2%";"-0.1%";"Moderate"
"Household Spending (YoY) (Dec)";"Japan";"JPY";"2019-02-07T23:30:00";"GMT";"-0.6%";"0.8%";"0.1%";"Moderate"
"Overtime Pay (YoY) (Dec)";"Japan";"JPY";"2019-02-07T23:30:00";"GMT";"1.10%";"";"-1.00%";"Low"
"Adjusted Current Account";"Japan";"JPY";"2019-02-07T23:50:00";"GMT";"1.44T";"1.52T";"1.56T";"Moderate"
"Bank Lending (YoY) (Jan)";"Japan";"JPY";"2019-02-07T23:50:00";"GMT";"2.4%";"2.4%";"2.4%";"Low"
"Current Account n.s.a. (Dec)";"Japan";"JPY";"2019-02-07T23:50:00";"GMT";"0.757T";"0.568T";"0.453T";"Moderate"
