{"events": {"event": [
    {
      "eventDateTime": "2012-06-19T20:00:00",
      "eventActual": "-0.10%",
      "eventCountry": "New Zealand",
      "eventExpectedVolatility": "Moderate",
      "eventName": "GlobalDairyTrade Price Index",
      "eventTimeZone": "GMT",
      "eventPrevious": "13.30%",
      "eventCurrency": "NZD",
      "eventForecast": ""
    },
    {
      "eventDateTime": "2012-06-19T22:45:00",
      "eventActual": "-1.31B",
      "eventCountry": "New Zealand",
      "eventExpectedVolatility": "Moderate",
      "eventName": "Current Account (QoQ)",
      "eventTimeZone": "GMT",
      "eventPrevious": "-2.83B",
      "eventCurrency": "NZD",
      "eventForecast": "-1.11B"
    }
  ]}}
