"BoC Interest Rate Decision";"Canada";"CAD";"2017-01-18T15:00:00";"GMT";"0.50%";"0.50%";"0.50%";"High"
"BoC Monetary Policy Report";"Canada";"CAD";"2017-01-18T15:00:00";"GMT";" ";"";"";"High"
"BoC Gov Poloz Speaks";"Canada";"CAD";"2017-01-18T16:15:00";"GMT";" ";"";"";"High"
