{"events": {"event": [
    {
      "eventDateTime": "2017-10-13T11:30:00",
      "eventActual": "6.9%",
      "eventCountry": "India",
      "eventExpectedVolatility": "Low",
      "eventName": "Bank Loan Growth",
      "eventTimeZone": "GMT",
      "eventPrevious": "6.8%",
      "eventCurrency": "INR",
      "eventForecast": ""
    },
    {
      "eventDateTime": "2017-10-13T11:30:00",
      "eventActual": "8.7%",
      "eventCountry": "India",
      "eventExpectedVolatility": "Low",
      "eventName": "Deposit Growth",
      "eventTimeZone": "GMT",
      "eventPrevious": "10.0%",
      "eventCurrency": "INR",
      "eventForecast": ""
    },
    {
      "eventDateTime": "2017-10-13T11:30:00",
      "eventActual": "398.79B",
      "eventCountry": "India",
      "eventExpectedVolatility": "Low",
      "eventName": "FX Reserves, USD",
      "eventTimeZone": "GMT",
      "eventPrevious": "399.66B",
      "eventCurrency": "INR",
      "eventForecast": ""
    },
    {
      "eventDateTime": "2017-10-13T12:20:00",
      "eventActual": "28.61B",
      "eventCountry": "India",
      "eventExpectedVolatility": "Low",
      "eventName": "Exports (USD) (Sep)",
      "eventTimeZone": "GMT",
      "eventPrevious": "23.82B",
      "eventCurrency": "INR",
      "eventForecast": ""
    },
    {
      "eventDateTime": "2017-10-13T12:20:00",
      "eventActual": "37.60B",
      "eventCountry": "India",
      "eventExpectedVolatility": "Low",
      "eventName": "Imports (USD) (Sep)",
      "eventTimeZone": "GMT",
      "eventPrevious": "35.46B",
      "eventCurrency": "INR",
      "eventForecast": ""
    },
    {
      "eventDateTime": "2017-10-13T12:20:00",
      "eventActual": "-8.98B",
      "eventCountry": "India",
      "eventExpectedVolatility": "Low",
      "eventName": "Trade Balance (Sep)",
      "eventTimeZone": "GMT",
      "eventPrevious": "-11.64B",
      "eventCurrency": "INR",
      "eventForecast": "-11.35B"
    }
  ]}}
