"Business Confidence (Apr)";"South Africa";"ZAR";"2013-05-01T09:00:00";"GMT";"90.40";"";"92.30";"Low"
"CPI (YoY) (Apr)";"South Africa";"ZAR";"2013-05-01T09:00:00";"GMT";"5.89%";"";"5.86%";"Low"
"Core CPI (MoM) (Apr)";"South Africa";"ZAR";"2013-05-01T09:00:00";"GMT";"1.10%";"";"0.30%";"Moderate"
"Core CPI (YoY) (Apr)";"South Africa";"ZAR";"2013-05-01T09:00:00";"GMT";"5.10%";"";"5.20%";"Low"
"Foreign Reserves (USD) (Apr)";"South Africa";"ZAR";"2013-05-01T09:00:00";"GMT";"50.01B";"";"50.31B";"Low"
"Gold Production (YoY) (Apr)";"South Africa";"ZAR";"2013-05-01T09:00:00";"GMT";"-5.08%";"";"-0.99%";"Low"
"M3 Money Supply (YoY) (Apr)";"South Africa";"ZAR";"2013-05-01T09:00:00";"GMT";"8.07%";"";"9.98%";"Low"
"Mining Production (Apr)";"South Africa";"ZAR";"2013-05-01T09:00:00";"GMT";"-0.93%";"";"-1.15%";"Low"
"Net FX Reserves (USD) (Apr)";"South Africa";"ZAR";"2013-05-01T09:00:00";"GMT";"46.08B";"";"45.83B";"Low"
"PPI (YoY) (Apr)";"South Africa";"ZAR";"2013-05-01T09:00:00";"GMT";"5.68%";"";"5.44%";"Low"
"Prime Rate (Apr)";"South Africa";"ZAR";"2013-05-01T09:00:00";"GMT";"8.50%";"";"8.50%";"Low"
"Private Sector Credit (Apr)";"South Africa";"ZAR";"2013-05-01T09:00:00";"GMT";"7.85%";"";"9.13%";"Low"
"South Africa Standard Bank PMI (Apr)";"South Africa";"ZAR";"2013-05-01T09:00:00";"GMT";"49.90";"";"51.10";"Low"
"Total Vehicle Sales (Apr)";"South Africa";"ZAR";"2013-05-01T09:00:00";"GMT";"54.93K";"";"50.94K";"Low"
"Total Vehicle Sales (YoY) (Apr)";"South Africa";"ZAR";"2013-05-01T09:00:00";"GMT";"-0.10%";"";"22.40%";"Low"
