"BoE Consumer Credit (Jun)";"United Kingdom";"GBP";"2015-07-29T08:30:00";"GMT";"1.057B";"1.100B";"1.220B";"Low"
"M4 Money Supply (MoM) (Jun)";"United Kingdom";"GBP";"2015-07-29T08:30:00";"GMT";"0.5%";"0.4%";"-0.5%";"Low"
"Mortgage Approvals (Jun)";"United Kingdom";"GBP";"2015-07-29T08:30:00";"GMT";"64.83K";"66.00K";"66.58K";"Low"
"Mortgage Lending (Jun)";"United Kingdom";"GBP";"2015-07-29T08:30:00";"GMT";"2.40B";"2.00B";"2.60B";"Low"
"Net Lending to Individuals";"United Kingdom";"GBP";"2015-07-29T08:30:00";"GMT";"3.5B";"3.0B";"3.8B";"Low"
"CBI Distributive Trades Survey (Jul)";"United Kingdom";"GBP";"2015-07-29T10:00:00";"GMT";"29";"30";"21";"Low"
