"Employment Change (Aug)";"Canada";"CAD";"2015-09-04T12:30:00";"GMT";"6.6K";"-4.5K";"12.0K";"High"
"Full Employment Change (Aug)";"Canada";"CAD";"2015-09-04T12:30:00";"GMT";"-17.3K";"";"54.4K";"Low"
"Labor Productivity (QoQ) (Q2)";"Canada";"CAD";"2015-09-04T12:30:00";"GMT";"-0.5%";"-0.6%";"-0.6%";"Moderate"
"Part Time Employment Change (Aug)";"Canada";"CAD";"2015-09-04T12:30:00";"GMT";"23.9K";"";"-42.4K";"Low"
"Participation Rate (Aug)";"Canada";"CAD";"2015-09-04T12:30:00";"GMT";"65.7%";"";"65.9%";"Low"
"Unemployment Rate (Aug)";"Canada";"CAD";"2015-09-04T12:30:00";"GMT";"6.8%";"6.8%";"7.0%";"Moderate"
"Ivey PMI (Aug)";"Canada";"CAD";"2015-09-04T14:00:00";"GMT";"52.9";"52.0";"58.0";"High"
"Ivey PMI n.s.a (Aug)";"Canada";"CAD";"2015-09-04T14:00:00";"GMT";"50.0";"";"55.6";"Low"
"CFTC CAD speculative net positions";"Canada";"CAD";"2015-09-04T19:30:00";"GMT";"-59.7K";"";"-55.1K";"Low"
