{"events": {"event": {
    "eventDateTime": "2019-05-14T23:00:00",
    "eventActual": "4.1%",
    "eventCountry": "South Korea",
    "eventExpectedVolatility": "Low",
    "eventName": "Unemployment Rate (Apr)",
    "eventTimeZone": "GMT",
    "eventPrevious": "3.8%",
    "eventCurrency": "KRW",
    "eventForecast": "3.9%"
  }}}
