{"events": {"event": [
    {
      "eventDateTime": "2015-10-26T05:30:00",
      "eventActual": "36.4%",
      "eventCountry": "Euro Zone",
      "eventExpectedVolatility": "Moderate",
      "eventName": "Investing.com EUR/USD Index",
      "eventTimeZone": "GMT",
      "eventPrevious": "28.6%",
      "eventCurrency": "EUR",
      "eventForecast": ""
    },
    {
      "eventDateTime": "2015-10-26T08:00:00",
      "eventActual": "-3.6%",
      "eventCountry": "Spain",
      "eventExpectedVolatility": "Low",
      "eventName": "Spanish PPI (YoY)",
      "eventTimeZone": "GMT",
      "eventPrevious": "-2.2%",
      "eventCurrency": "EUR",
      "eventForecast": ""
    },
    {
      "eventDateTime": "2015-10-26T09:00:00",
      "eventActual": "103.8",
      "eventCountry": "Germany",
      "eventExpectedVolatility": "Moderate",
      "eventName": "German Business Expectations (Oct)",
      "eventTimeZone": "GMT",
      "eventPrevious": "103.3",
      "eventCurrency": "EUR",
      "eventForecast": "102.4"
    },
    {
      "eventDateTime": "2015-10-26T09:00:00",
      "eventActual": "112.6",
      "eventCountry": "Germany",
      "eventExpectedVolatility": "Moderate",
      "eventName": "German Current Assessment (Oct)",
      "eventTimeZone": "GMT",
      "eventPrevious": "114.0",
      "eventCurrency": "EUR",
      "eventForecast": "113.5"
    },
    {
      "eventDateTime": "2015-10-26T09:00:00",
      "eventActual": "101.0",
      "eventCountry": "Germany",
      "eventExpectedVolatility": "High",
      "eventName": "German Ifo Business Climate Index (Oct)",
      "eventTimeZone": "GMT",
      "eventPrevious": "100.6",
      "eventCurrency": "EUR",
      "eventForecast": ""
    },
    {
      "eventDateTime": "2015-10-26T14:00:00",
      "eventActual": "-0.257%",
      "eventCountry": "France",
      "eventExpectedVolatility": "Low",
      "eventName": "French 12-Month BTF Auction",
      "eventTimeZone": "GMT",
      "eventPrevious": "-0.209%",
      "eventCurrency": "EUR",
      "eventForecast": ""
    },
    {
      "eventDateTime": "2015-10-26T14:00:00",
      "eventActual": "-0.254%",
      "eventCountry": "France",
      "eventExpectedVolatility": "Low",
      "eventName": "French 3-Month BTF Auction",
      "eventTimeZone": "GMT",
      "eventPrevious": "-0.208%",
      "eventCurrency": "EUR",
      "eventForecast": ""
    },
    {
      "eventDateTime": "2015-10-26T14:00:00",
      "eventActual": "-0.252%",
      "eventCountry": "France",
      "eventExpectedVolatility": "Low",
      "eventName": "French 6-Month BTF Auction",
      "eventTimeZone": "GMT",
      "eventPrevious": "-0.207%",
      "eventCurrency": "EUR",
      "eventForecast": ""
    },
    {
      "eventDateTime": "2015-10-26T16:00:00",
      "eventActual": "3,547.8K",
      "eventCountry": "France",
      "eventExpectedVolatility": "Moderate",
      "eventName": "France Jobseekers Total (Sep)",
      "eventTimeZone": "GMT",
      "eventPrevious": "3,571.6K",
      "eventCurrency": "EUR",
      "eventForecast": ""
    }
  ]}}
