{"events": {"event": [
    {
      "eventDateTime": "2015-09-11T12:30:00",
      "eventActual": "0.3%",
      "eventCountry": "United States",
      "eventExpectedVolatility": "Moderate",
      "eventName": "Core PPI (MoM) (Aug)",
      "eventTimeZone": "GMT",
      "eventPrevious": "0.3%",
      "eventCurrency": "USD",
      "eventForecast": "0.1%"
    },
    {
      "eventDateTime": "2015-09-11T12:30:00",
      "eventActual": "0.9%",
      "eventCountry": "United States",
      "eventExpectedVolatility": "Low",
      "eventName": "Core PPI (YoY) (Aug)",
      "eventTimeZone": "GMT",
      "eventPrevious": "0.6%",
      "eventCurrency": "USD",
      "eventForecast": "0.7%"
    },
    {
      "eventDateTime": "2015-09-11T12:30:00",
      "eventActual": "0.0%",
      "eventCountry": "United States",
      "eventExpectedVolatility": "High",
      "eventName": "PPI (MoM) (Aug)",
      "eventTimeZone": "GMT",
      "eventPrevious": "0.2%",
      "eventCurrency": "USD",
      "eventForecast": "-0.1%"
    },
    {
      "eventDateTime": "2015-09-11T12:30:00",
      "eventActual": "-0.8%",
      "eventCountry": "United States",
      "eventExpectedVolatility": "Low",
      "eventName": "PPI (YoY) (Aug)",
      "eventTimeZone": "GMT",
      "eventPrevious": "-0.8%",
      "eventCurrency": "USD",
      "eventForecast": "-0.9%"
    },
    {
      "eventDateTime": "2015-09-11T14:00:00",
      "eventActual": "2.80%",
      "eventCountry": "United States",
      "eventExpectedVolatility": "Low",
      "eventName": "Michigan 5-Year Inflation Expectations (Sep)",
      "eventTimeZone": "GMT",
      "eventPrevious": "2.70%",
      "eventCurrency": "USD",
      "eventForecast": ""
    },
    {
      "eventDateTime": "2015-09-11T14:00:00",
      "eventActual": "76.4",
      "eventCountry": "United States",
      "eventExpectedVolatility": "Moderate",
      "eventName": "Michigan Consumer Expectations (Sep)",
      "eventTimeZone": "GMT",
      "eventPrevious": "83.4",
      "eventCurrency": "USD",
      "eventForecast": "82.8"
    },
    {
      "eventDateTime": "2015-09-11T14:00:00",
      "eventActual": "85.7",
      "eventCountry": "United States",
      "eventExpectedVolatility": "Moderate",
      "eventName": "Michigan Consumer Sentiment (Sep)",
      "eventTimeZone": "GMT",
      "eventPrevious": "91.9",
      "eventCurrency": "USD",
      "eventForecast": "91.2"
    },
    {
      "eventDateTime": "2015-09-11T14:00:00",
      "eventActual": "100.3",
      "eventCountry": "United States",
      "eventExpectedVolatility": "Low",
      "eventName": "Michigan Current Conditions (Sep)",
      "eventTimeZone": "GMT",
      "eventPrevious": "105.1",
      "eventCurrency": "USD",
      "eventForecast": "103.6"
    },
    {
      "eventDateTime": "2015-09-11T14:00:00",
      "eventActual": "2.9%",
      "eventCountry": "United States",
      "eventExpectedVolatility": "Low",
      "eventName": "Michigan Inflation Expectations (Sep)",
      "eventTimeZone": "GMT",
      "eventPrevious": "2.8%",
      "eventCurrency": "USD",
      "eventForecast": ""
    },
    {
      "eventDateTime": "2015-09-11T17:00:00",
      "eventActual": "652",
      "eventCountry": "United States",
      "eventExpectedVolatility": "Moderate",
      "eventName": "U.S. Baker Hughes Oil Rig Count",
      "eventTimeZone": "GMT",
      "eventPrevious": "662",
      "eventCurrency": "USD",
      "eventForecast": ""
    },
    {
      "eventDateTime": "2015-09-11T18:00:00",
      "eventActual": "-64.4B",
      "eventCountry": "United States",
      "eventExpectedVolatility": "Moderate",
      "eventName": "Federal Budget Balance (Aug)",
      "eventTimeZone": "GMT",
      "eventPrevious": "-149.2B",
      "eventCurrency": "USD",
      "eventForecast": "-81.5B"
    },
    {
      "eventDateTime": "2015-09-11T19:30:00",
      "eventActual": "-13.3K",
      "eventCountry": "United States",
      "eventExpectedVolatility": "Low",
      "eventName": "CFTC Copper speculative net positions",
      "eventTimeZone": "GMT",
      "eventPrevious": "-20.4K",
      "eventCurrency": "USD",
      "eventForecast": ""
    },
    {
      "eventDateTime": "2015-09-11T19:30:00",
      "eventActual": "59.3K",
      "eventCountry": "United States",
      "eventExpectedVolatility": "Moderate",
      "eventName": "CFTC Gold speculative net positions",
      "eventTimeZone": "GMT",
      "eventPrevious": "72.7K",
      "eventCurrency": "USD",
      "eventForecast": ""
    },
    {
      "eventDateTime": "2015-09-11T19:30:00",
      "eventActual": "-226.9K",
      "eventCountry": "United States",
      "eventExpectedVolatility": "Moderate",
      "eventName": "CFTC Sandamp:P 500 speculative net positions",
      "eventTimeZone": "GMT",
      "eventPrevious": "-180.5K",
      "eventCurrency": "USD",
      "eventForecast": ""
    },
    {
      "eventDateTime": "2015-09-11T19:30:00",
      "eventActual": "18.7K",
      "eventCountry": "United States",
      "eventExpectedVolatility": "Low",
      "eventName": "CFTC Silver speculative net positions",
      "eventTimeZone": "GMT",
      "eventPrevious": "17.5K",
      "eventCurrency": "USD",
      "eventForecast": ""
    },
    {
      "eventDateTime": "2015-09-11T20:30:00",
      "eventActual": "231.4k",
      "eventCountry": "United States",
      "eventExpectedVolatility": "Moderate",
      "eventName": "CFTC Crude Oil speculative net positions",
      "eventTimeZone": "GMT",
      "eventPrevious": "220.3k",
      "eventCurrency": "USD",
      "eventForecast": ""
    }
  ]}}
