"Nonfarm Payrolls (Jun)";"United States";"USD";"2007-07-06T12:30:00";"GMT";"145K";"";"71K";"High"
"U.S. Baker Hughes Oil Rig Count";"United States";"USD";"2007-07-06T17:00:00";"GMT";"281";"";"274";"Moderate"
"CFTC Crude Oil speculative net positions";"United States";"USD";"2007-07-06T20:30:00";"GMT";"67.2k";"";"97.4k";"Moderate"
