"RBNZ Interest Rate Decision";"New Zealand";"NZD";"2020-02-12T01:00:00";"GMT";"1.00%";"1.00%";"1.00%";"High"
"RBNZ Monetary Policy Statement";"New Zealand";"NZD";"2020-02-12T01:00:00";"GMT";" ";"";"";"Moderate"
"RBNZ Rate Statement";"New Zealand";"NZD";"2020-02-12T01:00:00";"GMT";" ";"";"";"High"
"RBNZ Press Conference";"New Zealand";"NZD";"2020-02-12T02:00:00";"GMT";" ";"";"";"High"
"RBNZ Gov Orr Speaks";"New Zealand";"NZD";"2020-02-12T19:10:00";"GMT";" ";"";"";"High"
