"NFIB Small Business Optimism (Jul)";"United States";"USD";"2016-08-09T10:00:00";"GMT";"94.5";"94.7";"94.6";"Low"
"Nonfarm Productivity (QoQ) (Q2)";"United States";"USD";"2016-08-09T12:30:00";"GMT";"-0.6%";"0.4%";"-0.5%";"Moderate"
"Unit Labor Costs (QoQ) (Q2)";"United States";"USD";"2016-08-09T12:30:00";"GMT";"-0.2%";"1.8%";"2.0%";"Moderate"
"Redbook (MoM)";"United States";"USD";"2016-08-09T12:55:00";"GMT";"-0.6%";"";"-0.2%";"Low"
"Redbook (YoY)";"United States";"USD";"2016-08-09T12:55:00";"GMT";"0.3%";"";"0.5%";"Low"
"IBD/TIPP Economic Optimism";"United States";"USD";"2016-08-09T14:00:00";"GMT";"45.5";"46.2";"48.4";"Low"
"Wholesale Inventories (MoM) (Jun)";"United States";"USD";"2016-08-09T14:00:00";"GMT";"0.2%";"0.1%";"0.3%";"Low"
"4-Week Bill Auction";"United States";"USD";"2016-08-09T15:30:00";"GMT";"0.260%";"";"0.270%";"Low"
"3-Year Note Auction";"United States";"USD";"2016-08-09T17:00:00";"GMT";"0.765%";"";"0.850%";"Low"
"API Weekly Crude Oil Stock";"United States";"USD";"2016-08-09T20:35:00";"GMT";"-1.300M";"-1.000M";"2.090M";"Moderate"
