{"events": {"event": [
    {
      "eventDateTime": "2019-09-18T22:45:00",
      "eventActual": "0.5%",
      "eventCountry": "New Zealand",
      "eventExpectedVolatility": "High",
      "eventName": "GDP (QoQ) (Q2)",
      "eventTimeZone": "GMT",
      "eventPrevious": "0.6%",
      "eventCurrency": "NZD",
      "eventForecast": "0.4%"
    },
    {
      "eventDateTime": "2019-09-18T22:45:00",
      "eventActual": "2.1%",
      "eventCountry": "New Zealand",
      "eventExpectedVolatility": "Low",
      "eventName": "GDP (YoY) (Q2)",
      "eventTimeZone": "GMT",
      "eventPrevious": "2.5%",
      "eventCurrency": "NZD",
      "eventForecast": "2.0%"
    },
    {
      "eventDateTime": "2019-09-18T22:45:00",
      "eventActual": "2.4%",
      "eventCountry": "New Zealand",
      "eventExpectedVolatility": "Low",
      "eventName": "GDP Annual Average (Q2)",
      "eventTimeZone": "GMT",
      "eventPrevious": "2.7%",
      "eventCurrency": "NZD",
      "eventForecast": "2.4%"
    },
    {
      "eventDateTime": "2019-09-18T22:45:00",
      "eventActual": "0.7%",
      "eventCountry": "New Zealand",
      "eventExpectedVolatility": "Low",
      "eventName": "GDP Expenditure (QoQ) (Q2)",
      "eventTimeZone": "GMT",
      "eventPrevious": "0.9%",
      "eventCurrency": "NZD",
      "eventForecast": "0.5%"
    }
  ]}}
