"Bank Lending (Feb)";"Singapore";"SGD";"2001-03-01T09:00:00";"GMT";"158.60B";"";"157.70B";"Low"
"CPI (YoY) (Feb)";"Singapore";"SGD";"2001-03-01T09:00:00";"GMT";"1.99%";"";"1.31%";"Moderate"
"Foreign Reserves USD (MoM) (Feb)";"Singapore";"SGD";"2001-03-01T09:00:00";"GMT";"80.20B";"";"80.20B";"Low"
"Industrial Production (MoM) (Feb)";"Singapore";"SGD";"2001-03-01T09:00:00";"GMT";"-7.10%";"";"-2.90%";"Low"
"Industrial Production (YoY) (Feb)";"Singapore";"SGD";"2001-03-01T09:00:00";"GMT";"-10.60%";"";"13.60%";"Low"
"Manufacturing PMI (Feb)";"Singapore";"SGD";"2001-03-01T09:00:00";"GMT";"50.90";"";"48.60";"Low"
"Non-Oil Exports (YoY) (Feb)";"Singapore";"SGD";"2001-03-01T09:00:00";"GMT";"9.00%";"";"5.40%";"Low"
"Retail Sales (MoM) (Feb)";"Singapore";"SGD";"2001-03-01T09:00:00";"GMT";"0.60%";"";"-0.20%";"Low"
"Retail Sales (YoY) (Feb)";"Singapore";"SGD";"2001-03-01T09:00:00";"GMT";"6.20%";"";"22.50%";"Low"
