"French CPI (MoM)";"France";"EUR";"2018-05-31T06:45:00";"GMT";"0.2%";"0.2%";"0.4%";"Moderate"
"French CPI (YoY)";"France";"EUR";"2018-05-31T06:45:00";"GMT";"1.6%";"";"2.0%";"Low"
"French HICP (MoM)";"France";"EUR";"2018-05-31T06:45:00";"GMT";"0.2%";"";"0.4%";"Moderate"
"French HICP (YoY)";"France";"EUR";"2018-05-31T06:45:00";"GMT";"1.8%";"2.0%";"2.3%";"Low"
"French PPI (MoM) (Apr)";"France";"EUR";"2018-05-31T06:45:00";"GMT";"0.4%";"";"-0.6%";"Low"
"Spanish GDP (QoQ) (Q1)";"Spain";"EUR";"2018-05-31T07:00:00";"GMT";"0.7%";"0.7%";"0.7%";"Moderate"
"Spanish GDP (YoY) (Q1)";"Spain";"EUR";"2018-05-31T07:00:00";"GMT";"3.1%";"2.9%";"3.0%";"Low"
"Italian Monthly Unemployment Rate (Apr)";"Italy";"EUR";"2018-05-31T08:00:00";"GMT";"11.1%";"10.9%";"11.2%";"Low"
"Spanish Current account (Mar)";"Spain";"EUR";"2018-05-31T08:00:00";"GMT";"-0.45B";"";"0.90B";"Low"
"CPI (YoY) (May)";"Euro Zone";"EUR";"2018-05-31T09:00:00";"GMT";"1.2%";"1.6%";"1.9%";"High"
"Core CPI (YoY)";"Euro Zone";"EUR";"2018-05-31T09:00:00";"GMT";"0.7%";"1.0%";"1.1%";"Moderate"
"Italian CPI (MoM) (May)";"Italy";"EUR";"2018-05-31T09:00:00";"GMT";"0.3%";"0.2%";"0.4%";"Moderate"
"Italian CPI (YoY) (May)";"Italy";"EUR";"2018-05-31T09:00:00";"GMT";"0.5%";"0.8%";"1.1%";"Low"
"Italian HICP (MoM) (May)";"Italy";"EUR";"2018-05-31T09:00:00";"GMT";"0.5%";"0.3%";"0.4%";"Low"
"Italian HICP (YoY) (May)";"Italy";"EUR";"2018-05-31T09:00:00";"GMT";"0.9%";"1.0%";"1.1%";"Low"
"Unemployment Rate (Apr)";"Euro Zone";"EUR";"2018-05-31T09:00:00";"GMT";"8.6%";"8.4%";"8.5%";"Moderate"
