{"events": {"event": {
    "eventDateTime": "2012-05-18T19:30:00",
    "eventActual": "4.7K",
    "eventCountry": "Australia",
    "eventExpectedVolatility": "Moderate",
    "eventName": "CFTC AUD speculative net positions",
    "eventTimeZone": "GMT",
    "eventPrevious": "25.1K",
    "eventCurrency": "AUD",
    "eventForecast": ""
  }}}
