{"events": {"event": [
    {
      "eventDateTime": "2015-09-08T10:00:00",
      "eventActual": "95.9",
      "eventCountry": "United States",
      "eventExpectedVolatility": "Low",
      "eventName": "NFIB Small Business Optimism (Aug)",
      "eventTimeZone": "GMT",
      "eventPrevious": "95.4",
      "eventCurrency": "USD",
      "eventForecast": "96.0"
    },
    {
      "eventDateTime": "2015-09-08T14:00:00",
      "eventActual": "128.82",
      "eventCountry": "United States",
      "eventExpectedVolatility": "Low",
      "eventName": "CB Employment Trends Index (Sep)",
      "eventTimeZone": "GMT",
      "eventPrevious": "127.64",
      "eventCurrency": "USD",
      "eventForecast": ""
    },
    {
      "eventDateTime": "2015-09-08T14:00:00",
      "eventActual": "2.1",
      "eventCountry": "United States",
      "eventExpectedVolatility": "Low",
      "eventName": "Fed Labor Market Conditions Index",
      "eventTimeZone": "GMT",
      "eventPrevious": "1.8",
      "eventCurrency": "USD",
      "eventForecast": "1.5"
    },
    {
      "eventDateTime": "2015-09-08T15:30:00",
      "eventActual": "0.075%",
      "eventCountry": "United States",
      "eventExpectedVolatility": "Low",
      "eventName": "3-Month Bill Auction",
      "eventTimeZone": "GMT",
      "eventPrevious": "0.095%",
      "eventCurrency": "USD",
      "eventForecast": ""
    },
    {
      "eventDateTime": "2015-09-08T15:30:00",
      "eventActual": "0.275%",
      "eventCountry": "United States",
      "eventExpectedVolatility": "Low",
      "eventName": "6-Month Bill Auction",
      "eventTimeZone": "GMT",
      "eventPrevious": "0.270%",
      "eventCurrency": "USD",
      "eventForecast": ""
    },
    {
      "eventDateTime": "2015-09-08T17:00:00",
      "eventActual": "1.056%",
      "eventCountry": "United States",
      "eventExpectedVolatility": "Low",
      "eventName": "3-Year Note Auction",
      "eventTimeZone": "GMT",
      "eventPrevious": "1.013%",
      "eventCurrency": "USD",
      "eventForecast": ""
    },
    {
      "eventDateTime": "2015-09-08T19:00:00",
      "eventActual": "19.10B",
      "eventCountry": "United States",
      "eventExpectedVolatility": "Low",
      "eventName": "Consumer Credit (Jul)",
      "eventTimeZone": "GMT",
      "eventPrevious": "27.02B",
      "eventCurrency": "USD",
      "eventForecast": "18.50B"
    },
    {
      "eventDateTime": "2015-09-08T21:15:00",
      "eventActual": "",
      "eventCountry": "United States",
      "eventExpectedVolatility": "Moderate",
      "eventName": "FOMC Member Kocherlakota Speaks",
      "eventTimeZone": "GMT",
      "eventPrevious": "",
      "eventCurrency": "USD",
      "eventForecast": ""
    }
  ]}}
