"NFIB Small Business Optimism (Aug)";"United States";"USD";"2015-09-08T10:00:00";"GMT";"95.4";"96.0";"95.9";"Low"
"CB Employment Trends Index (Sep)";"United States";"USD";"2015-09-08T14:00:00";"GMT";"127.64";"";"128.82";"Low"
"Fed Labor Market Conditions Index";"United States";"USD";"2015-09-08T14:00:00";"GMT";"1.8";"1.5";"2.1";"Low"
"3-Month Bill Auction";"United States";"USD";"2015-09-08T15:30:00";"GMT";"0.095%";"";"0.075%";"Low"
"6-Month Bill Auction";"United States";"USD";"2015-09-08T15:30:00";"GMT";"0.270%";"";"0.275%";"Low"
"3-Year Note Auction";"United States";"USD";"2015-09-08T17:00:00";"GMT";"1.013%";"";"1.056%";"Low"
"Consumer Credit (Jul)";"United States";"USD";"2015-09-08T19:00:00";"GMT";"27.02B";"18.50B";"19.10B";"Low"
"FOMC Member Kocherlakota Speaks";"United States";"USD";"2015-09-08T21:15:00";"GMT";" ";"";"";"Moderate"
