{"events": {"event": {
    "eventDateTime": "2009-04-03T19:30:00",
    "eventActual": "11.3K",
    "eventCountry": "Australia",
    "eventExpectedVolatility": "Moderate",
    "eventName": "CFTC AUD speculative net positions",
    "eventTimeZone": "GMT",
    "eventPrevious": "8.4K",
    "eventCurrency": "AUD",
    "eventForecast": ""
  }}}
