{"events": {"event": {
    "eventDateTime": "2015-01-12T06:30:00",
    "eventActual": "46.4%",
    "eventCountry": "New Zealand",
    "eventExpectedVolatility": "Moderate",
    "eventName": "Investing.com NZD/USD Index",
    "eventTimeZone": "GMT",
    "eventPrevious": "50.8%",
    "eventCurrency": "NZD",
    "eventForecast": ""
  }}}
