"Exports (MoM) (Jun)";"Hong Kong";"HKD";"2012-07-01T09:00:00";"GMT";"5.20%";"";"-4.80%";"Low"
"Foreign Reserves (USD) (Jun)";"Hong Kong";"HKD";"2012-07-01T09:00:00";"GMT";"291.88B";"";"294.96B";"Low"
"Imports (MoM) (Jun)";"Hong Kong";"HKD";"2012-07-01T09:00:00";"GMT";"4.60%";"";"-2.90%";"Low"
"M3 Money Supply (Jun)";"Hong Kong";"HKD";"2012-07-01T09:00:00";"GMT";"4.50%";"";"6.13%";"Low"
"Manufacturing PMI (Jun)";"Hong Kong";"HKD";"2012-07-01T09:00:00";"GMT";" ";"";"49.80";"Low"
