{"events": {"event": [
    {
      "eventDateTime": "2014-01-29T23:50:00",
      "eventActual": "-357.0B",
      "eventCountry": "Japan",
      "eventExpectedVolatility": "Low",
      "eventName": "Foreign Bonds Buying",
      "eventTimeZone": "GMT",
      "eventPrevious": "-289.5B",
      "eventCurrency": "JPY",
      "eventForecast": ""
    },
    {
      "eventDateTime": "2014-01-29T23:50:00",
      "eventActual": "2.6%",
      "eventCountry": "Japan",
      "eventExpectedVolatility": "Moderate",
      "eventName": "Retail Sales (YoY)",
      "eventTimeZone": "GMT",
      "eventPrevious": "4.1%",
      "eventCurrency": "JPY",
      "eventForecast": "3.8%"
    }
  ]}}
