{"events": {"event": [
    {
      "eventDateTime": "2015-03-30T06:30:00",
      "eventActual": "50.0%",
      "eventCountry": "Canada",
      "eventExpectedVolatility": "Moderate",
      "eventName": "Investing.com USD/CAD Index",
      "eventTimeZone": "GMT",
      "eventPrevious": "51.6%",
      "eventCurrency": "CAD",
      "eventForecast": ""
    },
    {
      "eventDateTime": "2015-03-30T12:30:00",
      "eventActual": "1.8%",
      "eventCountry": "Canada",
      "eventExpectedVolatility": "Low",
      "eventName": "IPPI (MoM) (Feb)",
      "eventTimeZone": "GMT",
      "eventPrevious": "-0.3%",
      "eventCurrency": "CAD",
      "eventForecast": "0.6%"
    },
    {
      "eventDateTime": "2015-03-30T12:30:00",
      "eventActual": "-1.6%",
      "eventCountry": "Canada",
      "eventExpectedVolatility": "Low",
      "eventName": "IPPI (YoY) (Feb)",
      "eventTimeZone": "GMT",
      "eventPrevious": "-2.1%",
      "eventCurrency": "CAD",
      "eventForecast": ""
    },
    {
      "eventDateTime": "2015-03-30T12:30:00",
      "eventActual": "6.1%",
      "eventCountry": "Canada",
      "eventExpectedVolatility": "Moderate",
      "eventName": "RMPI (MoM) (Feb)",
      "eventTimeZone": "GMT",
      "eventPrevious": "-7.8%",
      "eventCurrency": "CAD",
      "eventForecast": "5.1%"
    },
    {
      "eventDateTime": "2015-03-30T12:30:00",
      "eventActual": "-21.8%",
      "eventCountry": "Canada",
      "eventExpectedVolatility": "Low",
      "eventName": "RMPI (YoY) (Feb)",
      "eventTimeZone": "GMT",
      "eventPrevious": "-21.9%",
      "eventCurrency": "CAD",
      "eventForecast": ""
    }
  ]}}
