"Business Climate (Oct)";"Euro Zone";"EUR";"2012-11-01T09:00:00";"GMT";"-1.25";"";"-1.58";"Low"
"CPI (MoM) (Oct)";"Euro Zone";"EUR";"2012-11-01T09:00:00";"GMT";"0.70%";"";"0.20%";"Moderate"
"CPI ex Tobacco (MoM) (Oct)";"Euro Zone";"EUR";"2012-11-01T09:00:00";"GMT";"0.74%";"";"0.22%";"Low"
"CPI ex Tobacco (YoY) (Oct)";"Euro Zone";"EUR";"2012-11-01T09:00:00";"GMT";"2.56%";"";"2.44%";"Low"
"Consumer Inflation Expectation (Oct)";"Euro Zone";"EUR";"2012-11-01T09:00:00";"GMT";"28.30";"";"27.20";"Low"
"Core CPI (MoM) (Oct)";"Euro Zone";"EUR";"2012-11-01T09:00:00";"GMT";"0.80%";"";"0.20%";"Low"
"Current Account n.s.a. (Oct)";"Euro Zone";"EUR";"2012-11-01T09:00:00";"GMT";"14.00B";"";"12.90B";"Low"
"French Exports (Oct)";"France";"EUR";"2012-11-01T09:00:00";"GMT";"37.12B";"";"37.20B";"Low"
"French HICP (MoM) (Oct)";"France";"EUR";"2012-11-01T09:00:00";"GMT";"-0.30%";"";"0.20%";"Moderate"
"French HICP (YoY) (Oct)";"France";"EUR";"2012-11-01T09:00:00";"GMT";"2.15%";"";"2.09%";"Low"
"French Imports (Oct)";"France";"EUR";"2012-11-01T09:00:00";"GMT";"42.16B";"";"42.44B";"Low"
"German Composite PMI (Oct)";"Germany";"EUR";"2012-11-01T09:00:00";"GMT";"49.20";"";"47.70";"Low"
"German Exports (MoM) (Oct)";"Germany";"EUR";"2012-11-01T09:00:00";"GMT";"-3.21%";"";"0.42%";"Low"
"German HICP (MoM) (Oct)";"Germany";"EUR";"2012-11-01T09:00:00";"GMT";"0.00%";"";"0.10%";"Low"
"German HICP (YoY) (Oct)";"Germany";"EUR";"2012-11-01T09:00:00";"GMT";"2.10%";"";"2.10%";"Low"
"German Import Price Index (YoY) (Oct)";"Germany";"EUR";"2012-11-01T09:00:00";"GMT";"2.00%";"";"1.60%";"Low"
"German Imports (MoM) (Oct)";"Germany";"EUR";"2012-11-01T09:00:00";"GMT";"-0.90%";"";"2.50%";"Low"
"German Unemployment (Oct)";"Germany";"EUR";"2012-11-01T09:00:00";"GMT";"2.90M";"";"2.92M";"Low"
"German Unemployment n.s.a. (Oct)";"Germany";"EUR";"2012-11-01T09:00:00";"GMT";"2.80M";"";"2.80M";"Low"
"German WPI (YoY) (Oct)";"Germany";"EUR";"2012-11-01T09:00:00";"GMT";"3.00%";"";"3.10%";"Low"
"German ZEW Current Conditions (Oct)";"Germany";"EUR";"2012-11-01T09:00:00";"GMT";"12.60";"";"10.00";"Moderate"
"Industrial Production (YoY) (Oct)";"Euro Zone";"EUR";"2012-11-01T09:00:00";"GMT";"-2.50%";"";"-3.00%";"Low"
"Industrial Sentiment (Oct)";"Euro Zone";"EUR";"2012-11-01T09:00:00";"GMT";"-15.40";"";"-17.90";"Low"
"Italian HICP (MoM) (Oct)";"Italy";"EUR";"2012-11-01T09:00:00";"GMT";"2.10%";"";"0.30%";"Low"
"Italian HICP (YoY) (Oct)";"Italy";"EUR";"2012-11-01T09:00:00";"GMT";"3.40%";"";"2.80%";"Low"
"Italian Industrial New Orders (YoY) (Oct)";"Italy";"EUR";"2012-11-01T09:00:00";"GMT";"-11.21%";"";"0.82%";"Low"
"Italian Industrial Production (YoY) (Oct)";"Italy";"EUR";"2012-11-01T09:00:00";"GMT";"-4.40%";"";"-5.60%";"Low"
"Italian Industrial Sales (YoY) (Oct)";"Italy";"EUR";"2012-11-01T09:00:00";"GMT";"-9.69%";"";"2.08%";"Low"
"Italian Retail Sales (YoY) (Oct)";"Italy";"EUR";"2012-11-01T09:00:00";"GMT";"-1.04%";"";"-3.44%";"Low"
"Italian Trade Balance EU (Oct)";"Italy";"EUR";"2012-11-01T09:00:00";"GMT";"0.94B";"";"0.91B";"Low"
"Italian Trade Balance Non-EU (Oct)";"Italy";"EUR";"2012-11-01T09:00:00";"GMT";"-0.80B";"";"1.43B";"Low"
"Italian Wage Inflation (MoM) (Oct)";"Italy";"EUR";"2012-11-01T09:00:00";"GMT";"0.10%";"";"0.19%";"Low"
"Italian Wage Inflation (YoY) (Oct)";"Italy";"EUR";"2012-11-01T09:00:00";"GMT";"1.40%";"";"1.60%";"Low"
"Markit Composite PMI (Oct)";"Euro Zone";"EUR";"2012-11-01T09:00:00";"GMT";"46.10";"";"45.70";"Moderate"
"Money-M3 3-Month-Moving Average (Oct)";"Euro Zone";"EUR";"2012-11-01T09:00:00";"GMT";"3.10%";"";"3.50%";"Low"
"Net Investment Flow (Oct)";"Euro Zone";"EUR";"2012-11-01T09:00:00";"GMT";"26.10B";"";"-11.10B";"Low"
"PPI (YoY) (Oct)";"Euro Zone";"EUR";"2012-11-01T09:00:00";"GMT";"2.80%";"";"2.60%";"Low"
"Retail Sales (YoY) (Oct)";"Euro Zone";"EUR";"2012-11-01T09:00:00";"GMT";"-1.90%";"";"-3.00%";"Low"
"Selling Price Expectations (Oct)";"Euro Zone";"EUR";"2012-11-01T09:00:00";"GMT";"0.30";"";"1.00";"Low"
"Services Sentiment (Oct)";"Euro Zone";"EUR";"2012-11-01T09:00:00";"GMT";"-12.20";"";"-11.50";"Low"
"Spanish CPI (YoY) (Oct)";"Spain";"EUR";"2012-11-01T09:00:00";"GMT";"3.40%";"";"3.50%";"Moderate"
"Spanish Current account (Oct)";"Spain";"EUR";"2012-11-01T09:00:00";"GMT";"0.62B";"";"1.12B";"Low"
"Spanish HICP (MoM) (Oct)";"Spain";"EUR";"2012-11-01T09:00:00";"GMT";"1.90%";"";"0.50%";"Low"
"Spanish HICP (YoY) (Oct)";"Spain";"EUR";"2012-11-01T09:00:00";"GMT";"3.50%";"";"3.50%";"Moderate"
