{"events": {"event": {
    "eventDateTime": "2011-02-24T00:30:00",
    "eventActual": "1.3%",
    "eventCountry": "Australia",
    "eventExpectedVolatility": "Moderate",
    "eventName": "Private New Capital Expenditure (QoQ)",
    "eventTimeZone": "GMT",
    "eventPrevious": "6.9%",
    "eventCurrency": "AUD",
    "eventForecast": "2.2%"
  }}}
