{"events": {"event": [
    {
      "eventDateTime": "2012-12-14T13:30:00",
      "eventActual": "-0.3%",
      "eventCountry": "United States",
      "eventExpectedVolatility": "Moderate",
      "eventName": "CPI (MoM)",
      "eventTimeZone": "GMT",
      "eventPrevious": "0.1%",
      "eventCurrency": "USD",
      "eventForecast": "-0.2%"
    },
    {
      "eventDateTime": "2012-12-14T13:30:00",
      "eventActual": "1.8%",
      "eventCountry": "United States",
      "eventExpectedVolatility": "Low",
      "eventName": "CPI (YoY)",
      "eventTimeZone": "GMT",
      "eventPrevious": "2.2%",
      "eventCurrency": "USD",
      "eventForecast": "1.9%"
    },
    {
      "eventDateTime": "2012-12-14T13:30:00",
      "eventActual": "0.1%",
      "eventCountry": "United States",
      "eventExpectedVolatility": "High",
      "eventName": "Core CPI (MoM)",
      "eventTimeZone": "GMT",
      "eventPrevious": "0.2%",
      "eventCurrency": "USD",
      "eventForecast": "0.2%"
    },
    {
      "eventDateTime": "2012-12-14T13:30:00",
      "eventActual": "1.9%",
      "eventCountry": "United States",
      "eventExpectedVolatility": "Moderate",
      "eventName": "Core CPI (YoY)",
      "eventTimeZone": "GMT",
      "eventPrevious": "2.0%",
      "eventCurrency": "USD",
      "eventForecast": "2.0%"
    },
    {
      "eventDateTime": "2012-12-14T14:00:00",
      "eventActual": "54.20",
      "eventCountry": "United States",
      "eventExpectedVolatility": "Moderate",
      "eventName": "Manufacturing PMI",
      "eventTimeZone": "GMT",
      "eventPrevious": "52.80",
      "eventCurrency": "USD",
      "eventForecast": "52.60"
    },
    {
      "eventDateTime": "2012-12-14T14:15:00",
      "eventActual": "78.4%",
      "eventCountry": "United States",
      "eventExpectedVolatility": "Low",
      "eventName": "Capacity Utilization Rate",
      "eventTimeZone": "GMT",
      "eventPrevious": "77.7%",
      "eventCurrency": "USD",
      "eventForecast": "78.0%"
    },
    {
      "eventDateTime": "2012-12-14T14:15:00",
      "eventActual": "1.1%",
      "eventCountry": "United States",
      "eventExpectedVolatility": "Moderate",
      "eventName": "Industrial Production (MoM)",
      "eventTimeZone": "GMT",
      "eventPrevious": "-0.7%",
      "eventCurrency": "USD",
      "eventForecast": "0.3%"
    },
    {
      "eventDateTime": "2012-12-14T17:00:00",
      "eventActual": "1381",
      "eventCountry": "United States",
      "eventExpectedVolatility": "Moderate",
      "eventName": "U.S. Baker Hughes Oil Rig Count",
      "eventTimeZone": "GMT",
      "eventPrevious": "1382",
      "eventCurrency": "USD",
      "eventForecast": ""
    },
    {
      "eventDateTime": "2012-12-14T20:30:00",
      "eventActual": "166.3k",
      "eventCountry": "United States",
      "eventExpectedVolatility": "Moderate",
      "eventName": "CFTC Crude Oil speculative net positions",
      "eventTimeZone": "GMT",
      "eventPrevious": "193.8k",
      "eventCurrency": "USD",
      "eventForecast": ""
    },
    {
      "eventDateTime": "2012-12-14T20:30:00",
      "eventActual": "163.7K",
      "eventCountry": "United States",
      "eventExpectedVolatility": "Moderate",
      "eventName": "CFTC Gold speculative net positions",
      "eventTimeZone": "GMT",
      "eventPrevious": "165.7K",
      "eventCurrency": "USD",
      "eventForecast": ""
    },
    {
      "eventDateTime": "2012-12-14T20:30:00",
      "eventActual": "39.5K",
      "eventCountry": "United States",
      "eventExpectedVolatility": "Low",
      "eventName": "CFTC Silver speculative net positions",
      "eventTimeZone": "GMT",
      "eventPrevious": "41.3K",
      "eventCurrency": "USD",
      "eventForecast": ""
    }
  ]}}
