"Italian Business Confidence";"Italy";"EUR";"2011-11-28T09:00:00";"GMT";"94.2";"93.4";"94.4";"Low"
"M3 Money Supply (YoY)";"Euro Zone";"EUR";"2011-11-28T09:00:00";"GMT";"3.0%";"3.4%";"2.6%";"Low"
"Private Sector Loans (YoY)";"Euro Zone";"EUR";"2011-11-28T09:00:00";"GMT";"2.5%";"2.7%";"2.7%";"Low"
"GfK German Consumer Climate";"Germany";"EUR";"2011-11-28T12:00:00";"GMT";"5.4";"5.1";"5.6";"Moderate"
"German CPI (MoM)";"Germany";"EUR";"2011-11-28T13:00:00";"GMT";"0.0%";"0.1%";"0.0%";"Moderate"
