"CPI (QoQ) (Q4)";"Australia";"AUD";"2019-01-30T00:30:00";"GMT";"0.4%";"0.4%";"0.5%";"High"
"CPI (YoY) (Q4)";"Australia";"AUD";"2019-01-30T00:30:00";"GMT";"1.9%";"1.7%";"1.8%";"Moderate"
"CPI Index Number (Q4)";"Australia";"AUD";"2019-01-30T00:30:00";"GMT";"113.50";"";"114.10";"Low"
"Trimmed Mean CPI (QoQ) (Q4)";"Australia";"AUD";"2019-01-30T00:30:00";"GMT";"0.4%";"0.4%";"0.4%";"Moderate"
"Trimmed Mean CPI (YoY) (Q4)";"Australia";"AUD";"2019-01-30T00:30:00";"GMT";"1.8%";"1.8%";"1.8%";"Low"
"Weighted mean CPI (QoQ) (Q4)";"Australia";"AUD";"2019-01-30T00:30:00";"GMT";"0.3%";"0.5%";"0.4%";"Low"
"Weighted mean CPI (YoY) (Q4)";"Australia";"AUD";"2019-01-30T00:30:00";"GMT";"1.7%";"1.7%";"1.7%";"Low"
