"CPI (MoM) (Jan)";"Switzerland";"CHF";"2000-02-01T09:00:00";"GMT";"0.30%";"";"0.10%";"Moderate"
"CPI (YoY) (Jan)";"Switzerland";"CHF";"2000-02-01T09:00:00";"GMT";"1.70%";"";"1.60%";"Low"
"Consumption Indicator (Jan)";"Switzerland";"CHF";"2000-02-01T09:00:00";"GMT";"2.39";"";"2.45";"Low"
"KOF Leading Indicators (Jan)";"Switzerland";"CHF";"2000-02-01T09:00:00";"GMT";"112.70";"";"106.00";"Moderate"
"PPI (MoM) (Jan)";"Switzerland";"CHF";"2000-02-01T09:00:00";"GMT";"0.60%";"";"0.20%";"Moderate"
"PPI (YoY) (Jan)";"Switzerland";"CHF";"2000-02-01T09:00:00";"GMT";"1.50%";"";"1.80%";"Low"
"Trade Balance (Jan)";"Switzerland";"CHF";"2000-02-01T09:00:00";"GMT";"-0.40B";"";"-0.18B";"Low"
"Unemployment Rate n.s.a. (Jan)";"Switzerland";"CHF";"2000-02-01T09:00:00";"GMT";"2.50%";"";"2.30%";"Moderate"
"Unemployment Rate s.a. (Jan)";"Switzerland";"CHF";"2000-02-01T09:00:00";"GMT";"2.30%";"";"2.10%";"Moderate"
"procure.ch PMI (Jan)";"Switzerland";"CHF";"2000-02-01T09:00:00";"GMT";"60.50";"";"58.90";"Moderate"
