{"events": {"event": {
    "eventDateTime": "2017-11-09T13:00:00",
    "eventActual": "426.3B",
    "eventCountry": "Russia",
    "eventExpectedVolatility": "Moderate",
    "eventName": "Central Bank reserves (USD)",
    "eventTimeZone": "GMT",
    "eventPrevious": "425.5B",
    "eventCurrency": "RUB",
    "eventForecast": ""
  }}}
