{"events": {"event": [
    {
      "eventDateTime": "2017-11-23T07:00:00",
      "eventActual": "0.8%",
      "eventCountry": "Germany",
      "eventExpectedVolatility": "High",
      "eventName": "German GDP (QoQ) (Q3)",
      "eventTimeZone": "GMT",
      "eventPrevious": "0.8%",
      "eventCurrency": "EUR",
      "eventForecast": "0.8%"
    },
    {
      "eventDateTime": "2017-11-23T07:00:00",
      "eventActual": "2.3%",
      "eventCountry": "Germany",
      "eventExpectedVolatility": "Moderate",
      "eventName": "German GDP (YoY) (Q3)",
      "eventTimeZone": "GMT",
      "eventPrevious": "2.3%",
      "eventCurrency": "EUR",
      "eventForecast": "2.6%"
    },
    {
      "eventDateTime": "2017-11-23T07:45:00",
      "eventActual": "112",
      "eventCountry": "France",
      "eventExpectedVolatility": "Low",
      "eventName": "French Business Survey (Nov)",
      "eventTimeZone": "GMT",
      "eventPrevious": "111",
      "eventCurrency": "EUR",
      "eventForecast": "111"
    },
    {
      "eventDateTime": "2017-11-23T08:00:00",
      "eventActual": "57.5",
      "eventCountry": "France",
      "eventExpectedVolatility": "Moderate",
      "eventName": "French Manufacturing PMI (Nov)",
      "eventTimeZone": "GMT",
      "eventPrevious": "56.1",
      "eventCurrency": "EUR",
      "eventForecast": "55.9"
    },
    {
      "eventDateTime": "2017-11-23T08:00:00",
      "eventActual": "60.1",
      "eventCountry": "France",
      "eventExpectedVolatility": "Low",
      "eventName": "French Markit Composite PMI (Nov)",
      "eventTimeZone": "GMT",
      "eventPrevious": "57.4",
      "eventCurrency": "EUR",
      "eventForecast": "57.2"
    },
    {
      "eventDateTime": "2017-11-23T08:00:00",
      "eventActual": "60.2",
      "eventCountry": "France",
      "eventExpectedVolatility": "Moderate",
      "eventName": "French Services PMI (Nov)",
      "eventTimeZone": "GMT",
      "eventPrevious": "57.3",
      "eventCurrency": "EUR",
      "eventForecast": "57.0"
    },
    {
      "eventDateTime": "2017-11-23T08:30:00",
      "eventActual": "57.6",
      "eventCountry": "Germany",
      "eventExpectedVolatility": "Low",
      "eventName": "German Composite PMI (Nov)",
      "eventTimeZone": "GMT",
      "eventPrevious": "56.6",
      "eventCurrency": "EUR",
      "eventForecast": "56.7"
    },
    {
      "eventDateTime": "2017-11-23T08:30:00",
      "eventActual": "62.5",
      "eventCountry": "Germany",
      "eventExpectedVolatility": "High",
      "eventName": "German Manufacturing PMI (Nov)",
      "eventTimeZone": "GMT",
      "eventPrevious": "60.6",
      "eventCurrency": "EUR",
      "eventForecast": "60.4"
    },
    {
      "eventDateTime": "2017-11-23T08:30:00",
      "eventActual": "54.9",
      "eventCountry": "Germany",
      "eventExpectedVolatility": "Moderate",
      "eventName": "German Services PMI (Nov)",
      "eventTimeZone": "GMT",
      "eventPrevious": "54.7",
      "eventCurrency": "EUR",
      "eventForecast": "55.0"
    },
    {
      "eventDateTime": "2017-11-23T08:35:00",
      "eventActual": "",
      "eventCountry": "Euro Zone",
      "eventExpectedVolatility": "Moderate",
      "eventName": "ECB's Praet Speaks",
      "eventTimeZone": "GMT",
      "eventPrevious": "",
      "eventCurrency": "EUR",
      "eventForecast": ""
    },
    {
      "eventDateTime": "2017-11-23T09:00:00",
      "eventActual": "4.55B",
      "eventCountry": "Italy",
      "eventExpectedVolatility": "Low",
      "eventName": "Italian Trade Balance Non-EU (Oct)",
      "eventTimeZone": "GMT",
      "eventPrevious": "3.54B",
      "eventCurrency": "EUR",
      "eventForecast": ""
    },
    {
      "eventDateTime": "2017-11-23T09:00:00",
      "eventActual": "60.0",
      "eventCountry": "Euro Zone",
      "eventExpectedVolatility": "Moderate",
      "eventName": "Manufacturing PMI (Nov)",
      "eventTimeZone": "GMT",
      "eventPrevious": "58.5",
      "eventCurrency": "EUR",
      "eventForecast": "58.3"
    },
    {
      "eventDateTime": "2017-11-23T09:00:00",
      "eventActual": "57.5",
      "eventCountry": "Euro Zone",
      "eventExpectedVolatility": "Moderate",
      "eventName": "Markit Composite PMI (Nov)",
      "eventTimeZone": "GMT",
      "eventPrevious": "56.0",
      "eventCurrency": "EUR",
      "eventForecast": "56.0"
    },
    {
      "eventDateTime": "2017-11-23T09:00:00",
      "eventActual": "56.2",
      "eventCountry": "Euro Zone",
      "eventExpectedVolatility": "Moderate",
      "eventName": "Services PMI (Nov)",
      "eventTimeZone": "GMT",
      "eventPrevious": "55.0",
      "eventCurrency": "EUR",
      "eventForecast": "55.1"
    },
    {
      "eventDateTime": "2017-11-23T12:30:00",
      "eventActual": "",
      "eventCountry": "Euro Zone",
      "eventExpectedVolatility": "High",
      "eventName": "ECB Publishes Account of Monetary Policy Meeting",
      "eventTimeZone": "GMT",
      "eventPrevious": "",
      "eventCurrency": "EUR",
      "eventForecast": ""
    },
    {
      "eventDateTime": "2017-11-23T18:15:00",
      "eventActual": "",
      "eventCountry": "Euro Zone",
      "eventExpectedVolatility": "Moderate",
      "eventName": "ECB's Coeure Speaks",
      "eventTimeZone": "GMT",
      "eventPrevious": "",
      "eventCurrency": "EUR",
      "eventForecast": ""
    }
  ]}}
