{"events": {"event": [
    {
      "eventDateTime": "2003-05-01T09:00:00",
      "eventActual": "-1.70%",
      "eventCountry": "Hong Kong",
      "eventExpectedVolatility": "Low",
      "eventName": "CPI (YoY) (Apr)",
      "eventTimeZone": "GMT",
      "eventPrevious": "-2.00%",
      "eventCurrency": "HKD",
      "eventForecast": ""
    },
    {
      "eventDateTime": "2003-05-01T09:00:00",
      "eventActual": "8.90%",
      "eventCountry": "Hong Kong",
      "eventExpectedVolatility": "Low",
      "eventName": "Exports (MoM) (Apr)",
      "eventTimeZone": "GMT",
      "eventPrevious": "15.30%",
      "eventCurrency": "HKD",
      "eventForecast": ""
    },
    {
      "eventDateTime": "2003-05-01T09:00:00",
      "eventActual": "114.24B",
      "eventCountry": "Hong Kong",
      "eventExpectedVolatility": "Low",
      "eventName": "Foreign Reserves (USD) (Apr)",
      "eventTimeZone": "GMT",
      "eventPrevious": "113.56B",
      "eventCurrency": "HKD",
      "eventForecast": ""
    },
    {
      "eventDateTime": "2003-05-01T09:00:00",
      "eventActual": "8.40%",
      "eventCountry": "Hong Kong",
      "eventExpectedVolatility": "Low",
      "eventName": "Imports (MoM) (Apr)",
      "eventTimeZone": "GMT",
      "eventPrevious": "14.60%",
      "eventCurrency": "HKD",
      "eventForecast": ""
    },
    {
      "eventDateTime": "2003-05-01T09:00:00",
      "eventActual": "-0.93%",
      "eventCountry": "Hong Kong",
      "eventExpectedVolatility": "Low",
      "eventName": "M3 Money Supply (Apr)",
      "eventTimeZone": "GMT",
      "eventPrevious": "-0.37%",
      "eventCurrency": "HKD",
      "eventForecast": ""
    },
    {
      "eventDateTime": "2003-05-01T09:00:00",
      "eventActual": "-15.20%",
      "eventCountry": "Hong Kong",
      "eventExpectedVolatility": "Low",
      "eventName": "Retail Sales (YoY) (Apr)",
      "eventTimeZone": "GMT",
      "eventPrevious": "-6.00%",
      "eventCurrency": "HKD",
      "eventForecast": ""
    },
    {
      "eventDateTime": "2003-05-01T09:00:00",
      "eventActual": "7.80%",
      "eventCountry": "Hong Kong",
      "eventExpectedVolatility": "Low",
      "eventName": "Unemployment Rate (Apr)",
      "eventTimeZone": "GMT",
      "eventPrevious": "7.50%",
      "eventCurrency": "HKD",
      "eventForecast": ""
    }
  ]}}
