{"events": {"event": [
    {
      "eventDateTime": "2008-04-10T12:30:00",
      "eventActual": "357K",
      "eventCountry": "United States",
      "eventExpectedVolatility": "Moderate",
      "eventName": "Initial Jobless Claims",
      "eventTimeZone": "GMT",
      "eventPrevious": "407K",
      "eventCurrency": "USD",
      "eventForecast": "365K"
    },
    {
      "eventDateTime": "2008-04-10T12:30:00",
      "eventActual": "-62.3B",
      "eventCountry": "United States",
      "eventExpectedVolatility": "Moderate",
      "eventName": "Trade Balance",
      "eventTimeZone": "GMT",
      "eventPrevious": "-58.2B",
      "eventCurrency": "USD",
      "eventForecast": "-57.7B"
    },
    {
      "eventDateTime": "2008-04-10T17:00:00",
      "eventActual": "0.00",
      "eventCountry": "United States",
      "eventExpectedVolatility": "High",
      "eventName": "Fed Chairman Bernanke Speaks",
      "eventTimeZone": "GMT",
      "eventPrevious": "0.00",
      "eventCurrency": "USD",
      "eventForecast": "0.00"
    }
  ]}}
