"German CPI (MoM) (Sep)";"Germany";"EUR";"2017-10-13T06:00:00";"GMT";"0.1%";"0.1%";"0.1%";"Moderate"
"German CPI (YoY) (Sep)";"Germany";"EUR";"2017-10-13T06:00:00";"GMT";"1.8%";"1.8%";"1.8%";"Low"
"German HICP (MoM) (Sep)";"Germany";"EUR";"2017-10-13T06:00:00";"GMT";"0.2%";"0.2%";"0.0%";"Low"
"German HICP (YoY) (Sep)";"Germany";"EUR";"2017-10-13T06:00:00";"GMT";"1.8%";"1.8%";"1.8%";"Low"
"Italian CPI (MoM) (Sep)";"Italy";"EUR";"2017-10-13T08:00:00";"GMT";"-0.3%";"-0.3%";"-0.3%";"Moderate"
"Italian CPI (YoY) (Sep)";"Italy";"EUR";"2017-10-13T08:00:00";"GMT";"1.1%";"1.1%";"1.1%";"Low"
"Italian HICP (MoM) (Sep)";"Italy";"EUR";"2017-10-13T08:00:00";"GMT";"1.8%";"1.8%";"1.8%";"Low"
"Italian HICP (YoY) (Sep)";"Italy";"EUR";"2017-10-13T08:00:00";"GMT";"1.3%";"1.3%";"1.3%";"Low"
"ECB's Constancio Speaks";"Euro Zone";"EUR";"2017-10-13T14:15:00";"GMT";" ";"";"";"Moderate"
"CFTC EUR speculative net positions";"Euro Zone";"EUR";"2017-10-13T19:30:00";"GMT";"90.8K";"";"98.1K";"Moderate"
