{"events": {"event": {
    "eventDateTime": "2018-06-13T11:00:00",
    "eventActual": "0.5%",
    "eventCountry": "South Africa",
    "eventExpectedVolatility": "Low",
    "eventName": "Retail Sales (YoY) (Apr)",
    "eventTimeZone": "GMT",
    "eventPrevious": "4.6%",
    "eventCurrency": "ZAR",
    "eventForecast": "4.1%"
  }}}
