"SECO Consumer Climate (Q4)";"Switzerland";"CHF";"2015-11-05T06:45:00";"GMT";"-19";"-14";"-18";"Moderate"
"CPI (MoM) (Oct)";"Switzerland";"CHF";"2015-11-05T08:15:00";"GMT";"0.1%";"0.0%";"0.1%";"Moderate"
"CPI (YoY) (Oct)";"Switzerland";"CHF";"2015-11-05T08:15:00";"GMT";"-1.4%";"-1.4%";"-1.4%";"Low"
