{"events": {"event": [
    {
      "eventDateTime": "2015-11-05T06:45:00",
      "eventActual": "-18",
      "eventCountry": "Switzerland",
      "eventExpectedVolatility": "Moderate",
      "eventName": "SECO Consumer Climate (Q4)",
      "eventTimeZone": "GMT",
      "eventPrevious": "-19",
      "eventCurrency": "CHF",
      "eventForecast": "-14"
    },
    {
      "eventDateTime": "2015-11-05T08:15:00",
      "eventActual": "0.1%",
      "eventCountry": "Switzerland",
      "eventExpectedVolatility": "Moderate",
      "eventName": "CPI (MoM) (Oct)",
      "eventTimeZone": "GMT",
      "eventPrevious": "0.1%",
      "eventCurrency": "CHF",
      "eventForecast": "0.0%"
    },
    {
      "eventDateTime": "2015-11-05T08:15:00",
      "eventActual": "-1.4%",
      "eventCountry": "Switzerland",
      "eventExpectedVolatility": "Low",
      "eventName": "CPI (YoY) (Oct)",
      "eventTimeZone": "GMT",
      "eventPrevious": "-1.4%",
      "eventCurrency": "CHF",
      "eventForecast": "-1.4%"
    }
  ]}}
