{"events": {"event": {
    "eventDateTime": "2020-01-02T14:30:00",
    "eventActual": "50.4",
    "eventCountry": "Canada",
    "eventExpectedVolatility": "Low",
    "eventName": "RBC Manufacturing PMI (Dec)",
    "eventTimeZone": "GMT",
    "eventPrevious": "51.4",
    "eventCurrency": "CAD",
    "eventForecast": "51.9"
  }}}
