{"events": {"event": {
    "eventDateTime": "2015-05-14T03:00:00",
    "eventActual": "63.90%",
    "eventCountry": "New Zealand",
    "eventExpectedVolatility": "Low",
    "eventName": "RBNZ Offshore Holdings (Apr)",
    "eventTimeZone": "GMT",
    "eventPrevious": "62.60%",
    "eventCurrency": "NZD",
    "eventForecast": ""
  }}}
