"Nikkei Manufacturing PMI (Feb)";"South Korea";"KRW";"2015-03-02T00:00:00";"GMT";"51.10";"51.00";"51.10";"Low"
"CPI (MoM) (Feb)";"South Korea";"KRW";"2015-03-02T23:00:00";"GMT";"0.5%";"0.3%";"0.0%";"Low"
"CPI (YoY) (Feb)";"South Korea";"KRW";"2015-03-02T23:00:00";"GMT";"0.8%";"0.8%";"0.5%";"Moderate"
