"Average Earnings Index +Bonus (Sep)";"United Kingdom";"GBP";"2004-10-01T09:00:00";"GMT";"4.70%";"";"4.80%";"High"
"Average Earnings ex Bonus (Sep)";"United Kingdom";"GBP";"2004-10-01T09:00:00";"GMT";"3.80%";"";"3.80%";"Low"
"BRC Retail Sales Monitor (YoY) (Sep)";"United Kingdom";"GBP";"2004-10-01T09:00:00";"GMT";"0.60%";"";"2.00%";"Moderate"
"BoE Consumer Credit (Sep)";"United Kingdom";"GBP";"2004-10-01T09:00:00";"GMT";"1.97B";"";"2.03B";"Low"
"BoE Interest Rate Decision (Sep)";"United Kingdom";"GBP";"2004-10-01T09:00:00";"GMT";"4.75%";"";"4.75%";"High"
"CBI Distributive Trades Survey (Sep)";"United Kingdom";"GBP";"2004-10-01T09:00:00";"GMT";"2.00";"";"-9.00";"Low"
"CBI Industrial Trends Orders (Sep)";"United Kingdom";"GBP";"2004-10-01T09:00:00";"GMT";"2.00";"";"-6.00";"Moderate"
"CPI (MoM) (Sep)";"United Kingdom";"GBP";"2004-10-01T09:00:00";"GMT";"0.30%";"";"0.10%";"Moderate"
"CPI (YoY) (Sep)";"United Kingdom";"GBP";"2004-10-01T09:00:00";"GMT";"1.30%";"";"1.10%";"High"
"Claimant Count Change (Sep)";"United Kingdom";"GBP";"2004-10-01T09:00:00";"GMT";"-1.90K";"";"-1.60K";"High"
"Core PPI Output (MoM) (Sep)";"United Kingdom";"GBP";"2004-10-01T09:00:00";"GMT";"0.10%";"";"0.20%";"Low"
"Core PPI Output (YoY) (Sep)";"United Kingdom";"GBP";"2004-10-01T09:00:00";"GMT";"-0.10%";"";"0.10%";"Low"
"Core RPI (MoM) (Sep)";"United Kingdom";"GBP";"2004-10-01T09:00:00";"GMT";"0.30%";"";"0.20%";"Low"
"Core RPI (YoY) (Sep)";"United Kingdom";"GBP";"2004-10-01T09:00:00";"GMT";"2.20%";"";"1.90%";"Low"
"Core Retail Sales (MoM) (Sep)";"United Kingdom";"GBP";"2004-10-01T09:00:00";"GMT";"0.30%";"";"0.80%";"Moderate"
"Core Retail Sales (YoY) (Sep)";"United Kingdom";"GBP";"2004-10-01T09:00:00";"GMT";"6.60%";"";"6.20%";"Moderate"
"GfK Consumer Confidence (Sep)";"United Kingdom";"GBP";"2004-10-01T09:00:00";"GMT";"-5.00";"";"-7.00";"Low"
"Halifax House Price Index (MoM) (Sep)";"United Kingdom";"GBP";"2004-10-01T09:00:00";"GMT";"-0.60%";"";"1.60%";"Moderate"
"Halifax House Price Index (YoY) (Sep)";"United Kingdom";"GBP";"2004-10-01T09:00:00";"GMT";"21.30%";"";"20.50%";"Moderate"
"Industrial Production (MoM) (Sep)";"United Kingdom";"GBP";"2004-10-01T09:00:00";"GMT";"-0.30%";"";"0.20%";"Moderate"
"Industrial Production (YoY) (Sep)";"United Kingdom";"GBP";"2004-10-01T09:00:00";"GMT";"-0.50%";"";"-0.20%";"Low"
"M4 Money Supply (MoM) (Sep)";"United Kingdom";"GBP";"2004-10-01T09:00:00";"GMT";"1.20%";"";"0.20%";"Low"
"Manufacturing Production (MoM) (Sep)";"United Kingdom";"GBP";"2004-10-01T09:00:00";"GMT";"0.20%";"";"1.60%";"High"
"Manufacturing Production (YoY) (Sep)";"United Kingdom";"GBP";"2004-10-01T09:00:00";"GMT";"0.40%";"";"2.20%";"Low"
"Mortgage Approvals (Sep)";"United Kingdom";"GBP";"2004-10-01T09:00:00";"GMT";"93.03K";"";"86.44K";"Low"
"Mortgage Lending (Sep)";"United Kingdom";"GBP";"2004-10-01T09:00:00";"GMT";"7.96B";"";"7.55B";"Low"
"Nationwide HPI (MoM) (Sep)";"United Kingdom";"GBP";"2004-10-01T09:00:00";"GMT";"0.10%";"";"0.40%";"Moderate"
"Nationwide HPI (YoY) (Sep)";"United Kingdom";"GBP";"2004-10-01T09:00:00";"GMT";"18.90%";"";"17.80%";"Moderate"
"PPI Input (MoM) (Sep)";"United Kingdom";"GBP";"2004-10-01T09:00:00";"GMT";"2.40%";"";"1.20%";"Moderate"
"PPI Input (YoY) (Sep)";"United Kingdom";"GBP";"2004-10-01T09:00:00";"GMT";"4.00%";"";"6.80%";"Low"
"PPI Output (MoM) (Sep)";"United Kingdom";"GBP";"2004-10-01T09:00:00";"GMT";"0.00%";"";"0.40%";"Low"
"PPI Output (YoY) (Sep)";"United Kingdom";"GBP";"2004-10-01T09:00:00";"GMT";"1.20%";"";"1.70%";"Low"
"Public Sector Net Borrowing (Sep)";"United Kingdom";"GBP";"2004-10-01T09:00:00";"GMT";"7.15B";"";"5.34B";"Low"
"Public Sector Net Cash Requirement (Sep)";"United Kingdom";"GBP";"2004-10-01T09:00:00";"GMT";"3.49B";"";"10.85B";"Low"
"RICS House Price Balance (Sep)";"United Kingdom";"GBP";"2004-10-01T09:00:00";"GMT";"-9.00%";"";"-28.00%";"Moderate"
"RPI (MoM) (Sep)";"United Kingdom";"GBP";"2004-10-01T09:00:00";"GMT";"0.30%";"";"0.40%";"Low"
"RPI (YoY) (Sep)";"United Kingdom";"GBP";"2004-10-01T09:00:00";"GMT";"3.20%";"";"3.10%";"Low"
"Retail Sales (MoM) (Sep)";"United Kingdom";"GBP";"2004-10-01T09:00:00";"GMT";"0.50%";"";"0.50%";"High"
"Retail Sales (YoY) (Sep)";"United Kingdom";"GBP";"2004-10-01T09:00:00";"GMT";"6.10%";"";"5.50%";"Moderate"
"Trade Balance (Sep)";"United Kingdom";"GBP";"2004-10-01T09:00:00";"GMT";"-5.47B";"";"-4.71B";"Moderate"
"Trade Balance Non-EU (Sep)";"United Kingdom";"GBP";"2004-10-01T09:00:00";"GMT";"-2.82B";"";"-2.17B";"Moderate"
"Unemployment Rate (Sep)";"United Kingdom";"GBP";"2004-10-01T09:00:00";"GMT";"4.70%";"";"4.70%";"Moderate"
