"30-Year JGB Auction";"Japan";"JPY";"2012-07-10T03:30:00";"GMT";"1.864%";"";"1.848%";"Low"
"Household Confidence";"Japan";"JPY";"2012-07-10T05:00:00";"GMT";"40.7";"40.9";"40.4";"Low"
"PPI (YoY)";"Japan";"JPY";"2012-07-10T23:50:00";"GMT";"-0.5%";"-0.9%";"-1.3%";"Low"
"Tertiary Industry Activity Index (MoM)";"Japan";"JPY";"2012-07-10T23:50:00";"GMT";"-0.2%";"0.2%";"0.7%";"Moderate"
