"Budget Balance % of GDP (Oct)";"Russia";"RUB";"2011-11-01T09:00:00";"GMT";"3.00%";"";"3.20%";"Low"
"CPI (YoY) (Oct)";"Russia";"RUB";"2011-11-01T09:00:00";"GMT";"7.20%";"";"7.20%";"Moderate"
"Central Bank reserves (USD) (Oct)";"Russia";"RUB";"2011-11-01T09:00:00";"GMT";"516.80B";"";"517.80B";"Moderate"
"PPI (MoM) (Oct)";"Russia";"RUB";"2011-11-01T09:00:00";"GMT";"0.50%";"";"0.90%";"Low"
"PPI (YoY) (Oct)";"Russia";"RUB";"2011-11-01T09:00:00";"GMT";"17.00%";"";"15.50%";"Low"
