{"events": {"event": [
    {
      "eventDateTime": "2009-05-11T06:45:00",
      "eventActual": "-1.4%",
      "eventCountry": "France",
      "eventExpectedVolatility": "Low",
      "eventName": "French Industrial Production (MoM)",
      "eventTimeZone": "GMT",
      "eventPrevious": "-0.9%",
      "eventCurrency": "EUR",
      "eventForecast": "-0.4%"
    },
    {
      "eventDateTime": "2009-05-11T08:00:00",
      "eventActual": "-4.6%",
      "eventCountry": "Italy",
      "eventExpectedVolatility": "Low",
      "eventName": "Italian Industrial Production (MoM)",
      "eventTimeZone": "GMT",
      "eventPrevious": "-4.6%",
      "eventCurrency": "EUR",
      "eventForecast": "-1.7%"
    }
  ]}}
