"Average Hourly Earnings (MoM) (Jan)";"United States";"USD";"2018-02-02T13:30:00";"GMT";"0.4%";"0.3%";"0.3%";"Moderate"
"Average Weekly Hours (Jan)";"United States";"USD";"2018-02-02T13:30:00";"GMT";"34.5";"34.5";"34.3";"Low"
"Government Payrolls (Jan)";"United States";"USD";"2018-02-02T13:30:00";"GMT";"-6.0K";"";"4.0K";"Low"
"Manufacturing Payrolls (Jan)";"United States";"USD";"2018-02-02T13:30:00";"GMT";"21.0K";"20.0K";"15.0K";"Low"
"Nonfarm Payrolls (Jan)";"United States";"USD";"2018-02-02T13:30:00";"GMT";"160K";"184K";"200K";"High"
"Participation Rate (Jan)";"United States";"USD";"2018-02-02T13:30:00";"GMT";"62.7%";"";"62.7%";"Moderate"
"Payrolls Benchmark";"United States";"USD";"2018-02-02T13:30:00";"GMT";"-60.00";"";"146.00";"Low"
"Payrolls Benchmark, n.s.a.";"United States";"USD";"2018-02-02T13:30:00";"GMT";"-81.00K";"";"138.00K";"Low"
"Private Nonfarm Payrolls (Jan)";"United States";"USD";"2018-02-02T13:30:00";"GMT";"166K";"180K";"196K";"Moderate"
"U6 Unemployment Rate (Jan)";"United States";"USD";"2018-02-02T13:30:00";"GMT";"8.1%";"";"8.2%";"Low"
"Unemployment Rate (Jan)";"United States";"USD";"2018-02-02T13:30:00";"GMT";"4.1%";"4.1%";"4.1%";"High"
"ISM-New York Index (Jan)";"United States";"USD";"2018-02-02T14:45:00";"GMT";"756.7";"";"767.9";"Low"
"Cap Goods Ship Non Defense Ex Air (MoM)";"United States";"USD";"2018-02-02T15:00:00";"GMT";"0.6%";"";"0.4%";"Moderate"
"Factory Orders (MoM) (Dec)";"United States";"USD";"2018-02-02T15:00:00";"GMT";"1.7%";"1.5%";"1.7%";"Moderate"
"Factory orders ex transportation (MoM) (Dec)";"United States";"USD";"2018-02-02T15:00:00";"GMT";"1.1%";"";"0.7%";"Low"
"Michigan 5-Year Inflation Expectations (Jan)";"United States";"USD";"2018-02-02T15:00:00";"GMT";"2.50%";"";"2.50%";"Low"
"Michigan Consumer Expectations (Jan)";"United States";"USD";"2018-02-02T15:00:00";"GMT";"84.8";"85.0";"86.3";"Moderate"
"Michigan Consumer Sentiment (Jan)";"United States";"USD";"2018-02-02T15:00:00";"GMT";"94.4";"95.0";"95.7";"Moderate"
"Michigan Current Conditions (Jan)";"United States";"USD";"2018-02-02T15:00:00";"GMT";"109.2";"";"110.5";"Low"
"Michigan Inflation Expectations (Jan)";"United States";"USD";"2018-02-02T15:00:00";"GMT";"2.8%";"";"2.7%";"Low"
"U.S. Baker Hughes Oil Rig Count";"United States";"USD";"2018-02-02T18:00:00";"GMT";"759";"758";"765";"Moderate"
"U.S. Baker Hughes Total Rig Count";"United States";"USD";"2018-02-02T18:00:00";"GMT";"947.0";"944.0";"946.0";"Moderate"
"CFTC Copper speculative net positions";"United States";"USD";"2018-02-02T20:30:00";"GMT";"52.0K";"";"53.8K";"Low"
"CFTC Crude Oil speculative net positions";"United States";"USD";"2018-02-02T20:30:00";"GMT";"716.7K";"";"734.6K";"Moderate"
"CFTC Gold speculative net positions";"United States";"USD";"2018-02-02T20:30:00";"GMT";"214.7K";"";"207.3K";"Moderate"
"CFTC Sandamp:P 500 speculative net positions";"United States";"USD";"2018-02-02T20:30:00";"GMT";"166.5K";"";"172.8K";"Moderate"
"CFTC Silver speculative net positions";"United States";"USD";"2018-02-02T20:30:00";"GMT";"29.1K";"";"32.4K";"Low"
"FOMC Member Williams Speaks";"United States";"USD";"2018-02-02T20:30:00";"GMT";" ";"";"";"Moderate"
