"Building Capital Expenditure (MoM) (Q4)";"Australia";"AUD";"2017-02-23T00:30:00";"GMT";"-3.6%";"";"-4.1%";"Low"
"Plant/Machinery Capital Expenditure (QoQ) (Q4)";"Australia";"AUD";"2017-02-23T00:30:00";"GMT";"-3.0%";"";"0.4%";"Low"
"Private New Capital Expenditure (QoQ) (Q4)";"Australia";"AUD";"2017-02-23T00:30:00";"GMT";"-3.3%";"-0.5%";"-2.1%";"Moderate"
"RBA Governor Lowe Speaks";"Australia";"AUD";"2017-02-23T22:30:00";"GMT";" ";"";"";"Moderate"
