"Core PCE Price Index (MoM) (Apr)";"United States";"USD";"2017-05-30T12:30:00";"GMT";"-0.1%";"0.1%";"0.2%";"Moderate"
"Core PCE Price Index (YoY) (Apr)";"United States";"USD";"2017-05-30T12:30:00";"GMT";"1.6%";"1.5%";"1.5%";"Moderate"
"Personal Income (MoM) (Apr)";"United States";"USD";"2017-05-30T12:30:00";"GMT";"0.2%";"0.4%";"0.4%";"Low"
"Personal Spending (MoM) (Apr)";"United States";"USD";"2017-05-30T12:30:00";"GMT";"0.3%";"0.4%";"0.4%";"Moderate"
"Real Personal Consumption (MoM) (Apr)";"United States";"USD";"2017-05-30T12:30:00";"GMT";"0.5%";"0.2%";"0.2%";"Low"
"Dallas Fed PCE (Apr)";"United States";"USD";"2017-05-30T13:00:00";"GMT";"0.70%";"";"1.90%";"Low"
"Sandamp:P/CS HPI Composite - 20 n.s.a. (MoM) (Mar)";"United States";"USD";"2017-05-30T13:00:00";"GMT";"0.4%";"";"1.0%";"Low"
"Sandamp:P/CS HPI Composite - 20 n.s.a. (YoY) (Mar)";"United States";"USD";"2017-05-30T13:00:00";"GMT";"5.9%";"5.7%";"5.9%";"Moderate"
"Sandamp:P/CS HPI Composite - 20 s.a. (MoM) (Mar)";"United States";"USD";"2017-05-30T13:00:00";"GMT";"0.7%";"0.9%";"0.9%";"Low"
"CB Consumer Confidence (May)";"United States";"USD";"2017-05-30T14:00:00";"GMT";"119.4";"119.8";"117.9";"High"
"Dallas Fed Mfg Business Index (May)";"United States";"USD";"2017-05-30T14:30:00";"GMT";"16.8";"15.4";"17.2";"Low"
"3-Month Bill Auction";"United States";"USD";"2017-05-30T15:30:00";"GMT";"0.920%";"";"0.960%";"Low"
"4-Week Bill Auction";"United States";"USD";"2017-05-30T15:30:00";"GMT";"0.735%";"";"0.840%";"Low"
"6-Month Bill Auction";"United States";"USD";"2017-05-30T15:30:00";"GMT";"1.050%";"";"1.060%";"Low"
"FOMC Member Brainard Speaks";"United States";"USD";"2017-05-30T17:00:00";"GMT";" ";"";"";"Moderate"
