"Spanish Trade Balance";"Spain";"EUR";"2015-06-18T07:05:00";"GMT";"-0.89B";"-1.50B";"-2.25B";"Low"
"ECB Economic Bulletin";"Euro Zone";"EUR";"2015-06-18T08:00:00";"GMT";" ";"";"";"Moderate"
"Spanish 10-Year Obligacion Auction";"Spain";"EUR";"2015-06-18T08:50:00";"GMT";"1.882%";"";"2.349%";"Moderate"
"Spanish 3-Year Bonos Auction";"Spain";"EUR";"2015-06-18T08:50:00";"GMT";"0.490%";"";"0.655%";"Low"
"Spanish 5-Year Bonos Auction";"Spain";"EUR";"2015-06-18T08:50:00";"GMT";"1.243%";"";"1.282%";"Low"
"French 3-Year BTAN Auction";"France";"EUR";"2015-06-18T09:00:00";"GMT";"-0.07%";"";"-0.04%";"Low"
"French 4-Year BTAN Auction";"France";"EUR";"2015-06-18T09:00:00";"GMT";"-0.07%";"";"0.21%";"Low"
"French 5-Year BTAN Auction";"France";"EUR";"2015-06-18T09:00:00";"GMT";"0.21%";"";"0.35%";"Low"
"Labor Cost Index (YoY) (Q1)";"Euro Zone";"EUR";"2015-06-18T09:00:00";"GMT";"1.20%";"";"2.20%";"Low"
"Wages in euro zone (YoY) (Q1)";"Euro Zone";"EUR";"2015-06-18T09:00:00";"GMT";"1.10%";"";"2.20%";"Moderate"
"Eurogroup Meetings";"Euro Zone";"EUR";"2015-06-18T13:00:00";"GMT";" ";"";"";"Moderate"
