"Average Hourly Earnings (MoM)";"United States";"USD";"2010-10-08T12:30:00";"GMT";"0.3%";"0.1%";"0.0%";"Moderate"
"Average Weekly Hours";"United States";"USD";"2010-10-08T12:30:00";"GMT";"34.2";"34.2";"34.2";"Low"
"Nonfarm Payrolls";"United States";"USD";"2010-10-08T12:30:00";"GMT";"-57K";"3K";"-95K";"High"
"U6 Unemployment Rate (Sep)";"United States";"USD";"2010-10-08T12:30:00";"GMT";"16.50%";"";"16.80%";"Low"
"Unemployment Rate";"United States";"USD";"2010-10-08T12:30:00";"GMT";"9.6%";"9.7%";"9.6%";"High"
"Wholesale Inventories (MoM)";"United States";"USD";"2010-10-08T14:00:00";"GMT";"1.5%";"0.4%";"0.8%";"Low"
"U.S. Baker Hughes Oil Rig Count";"United States";"USD";"2010-10-08T17:00:00";"GMT";"687";"";"690";"Moderate"
"CFTC Gold speculative net positions";"United States";"USD";"2010-10-08T19:30:00";"GMT";"257.6K";"";"259.6K";"Moderate"
"CFTC Silver speculative net positions";"United States";"USD";"2010-10-08T19:30:00";"GMT";"51.5K";"";"48.5K";"Low"
"CFTC Crude Oil speculative net positions";"United States";"USD";"2010-10-08T20:30:00";"GMT";"61.5k";"";"116.0k";"Moderate"
