{"events": {"event": [
    {
      "eventDateTime": "2017-05-10T01:30:00",
      "eventActual": "0.1%",
      "eventCountry": "China",
      "eventExpectedVolatility": "Moderate",
      "eventName": "CPI (MoM) (Apr)",
      "eventTimeZone": "GMT",
      "eventPrevious": "-0.3%",
      "eventCurrency": "CNY",
      "eventForecast": ""
    },
    {
      "eventDateTime": "2017-05-10T01:30:00",
      "eventActual": "1.2%",
      "eventCountry": "China",
      "eventExpectedVolatility": "Moderate",
      "eventName": "CPI (YoY) (Apr)",
      "eventTimeZone": "GMT",
      "eventPrevious": "0.9%",
      "eventCurrency": "CNY",
      "eventForecast": "1.1%"
    },
    {
      "eventDateTime": "2017-05-10T01:30:00",
      "eventActual": "6.4%",
      "eventCountry": "China",
      "eventExpectedVolatility": "Moderate",
      "eventName": "PPI (YoY) (Apr)",
      "eventTimeZone": "GMT",
      "eventPrevious": "7.6%",
      "eventCurrency": "CNY",
      "eventForecast": "6.9%"
    }
  ]}}
