"Household Spending (YoY)";"Japan";"JPY";"2011-01-27T23:30:00";"GMT";"-0.4%";"-0.5%";"-3.3%";"Moderate"
"National Core CPI (YoY)";"Japan";"JPY";"2011-01-27T23:30:00";"GMT";"-0.5%";"-0.4%";"-0.4%";"Moderate"
"Tokyo Core CPI (YoY)";"Japan";"JPY";"2011-01-27T23:30:00";"GMT";"-0.4%";"-0.3%";"-0.2%";"Moderate"
"Unemployment Rate";"Japan";"JPY";"2011-01-27T23:30:00";"GMT";"5.1%";"5.1%";"4.9%";"Low"
"Monetary Policy Meeting Minutes";"Japan";"JPY";"2011-01-27T23:50:00";"GMT";" ";"";"";"Moderate"
"Retail Sales (YoY)";"Japan";"JPY";"2011-01-27T23:50:00";"GMT";"1.5%";"0.6%";"-2.0%";"Moderate"
