"Spanish Manufacturing PMI (Aug)";"Spain";"EUR";"2015-09-01T07:15:00";"GMT";"53.6";"53.2";"53.2";"Moderate"
"Italian Manufacturing PMI (Aug)";"Italy";"EUR";"2015-09-01T07:45:00";"GMT";"55.3";"54.8";"53.8";"Moderate"
"French Manufacturing PMI (Aug)";"France";"EUR";"2015-09-01T07:50:00";"GMT";"48.6";"48.6";"48.3";"Moderate"
"German Manufacturing PMI (Aug)";"Germany";"EUR";"2015-09-01T07:55:00";"GMT";"53.2";"53.2";"53.3";"High"
"German Unemployment (Aug)";"Germany";"EUR";"2015-09-01T07:55:00";"GMT";"2.799M";"";"2.800M";"Low"
"German Unemployment Change (Aug)";"Germany";"EUR";"2015-09-01T07:55:00";"GMT";"8K";"-2K";"-7K";"High"
"German Unemployment Rate (Aug)";"Germany";"EUR";"2015-09-01T07:55:00";"GMT";"6.4%";"6.4%";"6.4%";"Moderate"
"German Unemployment n.s.a. (Aug)";"Germany";"EUR";"2015-09-01T07:55:00";"GMT";"2.773M";"2.800M";"2.800M";"Low"
"Italian Monthly Unemployment Rate (Jul)";"Italy";"EUR";"2015-09-01T08:00:00";"GMT";"12.5%";"12.6%";"12.0%";"Low"
"Italian Quarterly Unemployment Rate";"Italy";"EUR";"2015-09-01T08:00:00";"GMT";"12.3%";"12.5%";"12.4%";"Low"
"Manufacturing PMI (Aug)";"Euro Zone";"EUR";"2015-09-01T08:00:00";"GMT";"52.4";"52.4";"52.3";"Moderate"
"Italian GDP (QoQ) (Q2)";"Italy";"EUR";"2015-09-01T09:00:00";"GMT";"0.3%";"0.2%";"0.3%";"Low"
"Italian GDP (YoY) (Q2)";"Italy";"EUR";"2015-09-01T09:00:00";"GMT";"0.7%";"0.5%";"0.7%";"Low"
"Unemployment Rate (Jul)";"Euro Zone";"EUR";"2015-09-01T09:00:00";"GMT";"11.1%";"11.1%";"10.9%";"Moderate"
