{"events": {"event": [
    {
      "eventDateTime": "2007-10-05T12:30:00",
      "eventActual": "86K",
      "eventCountry": "United States",
      "eventExpectedVolatility": "High",
      "eventName": "Nonfarm Payrolls (Sep)",
      "eventTimeZone": "GMT",
      "eventPrevious": "-17K",
      "eventCurrency": "USD",
      "eventForecast": ""
    },
    {
      "eventDateTime": "2007-10-05T17:00:00",
      "eventActual": "318",
      "eventCountry": "United States",
      "eventExpectedVolatility": "Moderate",
      "eventName": "U.S. Baker Hughes Oil Rig Count",
      "eventTimeZone": "GMT",
      "eventPrevious": "311",
      "eventCurrency": "USD",
      "eventForecast": ""
    },
    {
      "eventDateTime": "2007-10-05T20:30:00",
      "eventActual": "41.5k",
      "eventCountry": "United States",
      "eventExpectedVolatility": "Moderate",
      "eventName": "CFTC Crude Oil speculative net positions",
      "eventTimeZone": "GMT",
      "eventPrevious": "28.1k",
      "eventCurrency": "USD",
      "eventForecast": ""
    }
  ]}}
