{"events": {"event": {
    "eventDateTime": "2013-08-30T12:00:00",
    "eventActual": "-14.21B",
    "eventCountry": "South Africa",
    "eventExpectedVolatility": "Low",
    "eventName": "Trade Balance",
    "eventTimeZone": "GMT",
    "eventPrevious": "-7.71B",
    "eventCurrency": "ZAR",
    "eventForecast": "-8.90B"
  }}}
