{"events": {"event": [
    {
      "eventDateTime": "2009-11-25T12:00:00",
      "eventActual": "-4.5%",
      "eventCountry": "United States",
      "eventExpectedVolatility": "Low",
      "eventName": "MBA Mortgage Applications (WoW)",
      "eventTimeZone": "GMT",
      "eventPrevious": "-2.5%",
      "eventCurrency": "USD",
      "eventForecast": ""
    },
    {
      "eventDateTime": "2009-11-25T13:30:00",
      "eventActual": "-1.3%",
      "eventCountry": "United States",
      "eventExpectedVolatility": "High",
      "eventName": "Core Durable Goods Orders (MoM)",
      "eventTimeZone": "GMT",
      "eventPrevious": "1.8%",
      "eventCurrency": "USD",
      "eventForecast": "0.8%"
    },
    {
      "eventDateTime": "2009-11-25T13:30:00",
      "eventActual": "0.2%",
      "eventCountry": "United States",
      "eventExpectedVolatility": "Moderate",
      "eventName": "Core PCE Price Index (MoM)",
      "eventTimeZone": "GMT",
      "eventPrevious": "0.1%",
      "eventCurrency": "USD",
      "eventForecast": "0.1%"
    },
    {
      "eventDateTime": "2009-11-25T13:30:00",
      "eventActual": "-0.6%",
      "eventCountry": "United States",
      "eventExpectedVolatility": "Moderate",
      "eventName": "Durable Goods Orders (MoM)",
      "eventTimeZone": "GMT",
      "eventPrevious": "2.0%",
      "eventCurrency": "USD",
      "eventForecast": "0.5%"
    },
    {
      "eventDateTime": "2009-11-25T13:30:00",
      "eventActual": "466K",
      "eventCountry": "United States",
      "eventExpectedVolatility": "Moderate",
      "eventName": "Initial Jobless Claims",
      "eventTimeZone": "GMT",
      "eventPrevious": "501K",
      "eventCurrency": "USD",
      "eventForecast": "500K"
    },
    {
      "eventDateTime": "2009-11-25T13:30:00",
      "eventActual": "0.2%",
      "eventCountry": "United States",
      "eventExpectedVolatility": "Low",
      "eventName": "Personal Income (MoM)",
      "eventTimeZone": "GMT",
      "eventPrevious": "0.2%",
      "eventCurrency": "USD",
      "eventForecast": "0.2%"
    },
    {
      "eventDateTime": "2009-11-25T13:30:00",
      "eventActual": "0.7%",
      "eventCountry": "United States",
      "eventExpectedVolatility": "Moderate",
      "eventName": "Personal Spending (MoM)",
      "eventTimeZone": "GMT",
      "eventPrevious": "-0.6%",
      "eventCurrency": "USD",
      "eventForecast": "0.6%"
    },
    {
      "eventDateTime": "2009-11-25T14:55:00",
      "eventActual": "67.4",
      "eventCountry": "United States",
      "eventExpectedVolatility": "Moderate",
      "eventName": "Michigan Consumer Sentiment",
      "eventTimeZone": "GMT",
      "eventPrevious": "66.0",
      "eventCurrency": "USD",
      "eventForecast": "67.2"
    },
    {
      "eventDateTime": "2009-11-25T14:55:00",
      "eventActual": "2.7%",
      "eventCountry": "United States",
      "eventExpectedVolatility": "Low",
      "eventName": "Michigan Inflation Expectations",
      "eventTimeZone": "GMT",
      "eventPrevious": "2.8%",
      "eventCurrency": "USD",
      "eventForecast": ""
    },
    {
      "eventDateTime": "2009-11-25T15:00:00",
      "eventActual": "430K",
      "eventCountry": "United States",
      "eventExpectedVolatility": "High",
      "eventName": "New Home Sales",
      "eventTimeZone": "GMT",
      "eventPrevious": "405K",
      "eventCurrency": "USD",
      "eventForecast": "408K"
    },
    {
      "eventDateTime": "2009-11-25T15:30:00",
      "eventActual": "1.000M",
      "eventCountry": "United States",
      "eventExpectedVolatility": "High",
      "eventName": "Crude Oil Inventories",
      "eventTimeZone": "GMT",
      "eventPrevious": "-0.900M",
      "eventCurrency": "USD",
      "eventForecast": ""
    },
    {
      "eventDateTime": "2009-11-25T17:00:00",
      "eventActual": "2B",
      "eventCountry": "United States",
      "eventExpectedVolatility": "Low",
      "eventName": "Natural Gas Storage",
      "eventTimeZone": "GMT",
      "eventPrevious": "20B",
      "eventCurrency": "USD",
      "eventForecast": ""
    },
    {
      "eventDateTime": "2009-11-25T17:00:00",
      "eventActual": "379",
      "eventCountry": "United States",
      "eventExpectedVolatility": "Moderate",
      "eventName": "U.S. Baker Hughes Oil Rig Count",
      "eventTimeZone": "GMT",
      "eventPrevious": "375",
      "eventCurrency": "USD",
      "eventForecast": ""
    }
  ]}}
