{"events": {"event": {
    "eventDateTime": "2012-04-18T22:45:00",
    "eventActual": "0.5%",
    "eventCountry": "New Zealand",
    "eventExpectedVolatility": "High",
    "eventName": "CPI (QoQ)",
    "eventTimeZone": "GMT",
    "eventPrevious": "-0.3%",
    "eventCurrency": "NZD",
    "eventForecast": "0.6%"
  }}}
