{"events": {"event": [
    {
      "eventDateTime": "2016-06-14T12:00:00",
      "eventActual": "0.5%",
      "eventCountry": "Brazil",
      "eventExpectedVolatility": "Moderate",
      "eventName": "Retail Sales (MoM) (Apr)",
      "eventTimeZone": "GMT",
      "eventPrevious": "-0.9%",
      "eventCurrency": "BRL",
      "eventForecast": "0.7%"
    },
    {
      "eventDateTime": "2016-06-14T12:00:00",
      "eventActual": "-6.7%",
      "eventCountry": "Brazil",
      "eventExpectedVolatility": "Moderate",
      "eventName": "Retail Sales (YoY) (Apr)",
      "eventTimeZone": "GMT",
      "eventPrevious": "-5.7%",
      "eventCurrency": "BRL",
      "eventForecast": "-6.7%"
    }
  ]}}
