{"events": {"event": {
    "eventDateTime": "2013-05-16T02:00:00",
    "eventActual": "1.21%",
    "eventCountry": "China",
    "eventExpectedVolatility": "Low",
    "eventName": "FDI",
    "eventTimeZone": "GMT",
    "eventPrevious": "1.44%",
    "eventCurrency": "CNY",
    "eventForecast": ""
  }}}
