{"events": {"event": [
    {
      "eventDateTime": "2016-08-08T06:30:00",
      "eventActual": "37.1%",
      "eventCountry": "New Zealand",
      "eventExpectedVolatility": "Moderate",
      "eventName": "Investing.com NZD/USD Index",
      "eventTimeZone": "GMT",
      "eventPrevious": "36.4%",
      "eventCurrency": "NZD",
      "eventForecast": ""
    },
    {
      "eventDateTime": "2016-08-08T22:45:00",
      "eventActual": "0.3%",
      "eventCountry": "New Zealand",
      "eventExpectedVolatility": "Moderate",
      "eventName": "Electronic Card Retail Sales (MoM) (Jul)",
      "eventTimeZone": "GMT",
      "eventPrevious": "1.2%",
      "eventCurrency": "NZD",
      "eventForecast": ""
    },
    {
      "eventDateTime": "2016-08-08T22:45:00",
      "eventActual": "5.8%",
      "eventCountry": "New Zealand",
      "eventExpectedVolatility": "Low",
      "eventName": "Electronic Card Retail Sales (YoY) (Jul)",
      "eventTimeZone": "GMT",
      "eventPrevious": "6.8%",
      "eventCurrency": "NZD",
      "eventForecast": ""
    }
  ]}}
