{"events": {"event": {
    "eventDateTime": "2008-01-18T20:30:00",
    "eventActual": "45.0K",
    "eventCountry": "Euro Zone",
    "eventExpectedVolatility": "Moderate",
    "eventName": "CFTC EUR speculative net positions",
    "eventTimeZone": "GMT",
    "eventPrevious": "51.9K",
    "eventCurrency": "EUR",
    "eventForecast": ""
  }}}
