"Average Cash Earnings (YoY)";"Japan";"JPY";"2015-02-04T01:30:00";"GMT";"0.1%";"1.6%";"1.6%";"Low"
"Overtime Pay (YoY) (Dec)";"Japan";"JPY";"2015-02-04T01:30:00";"GMT";"-0.90%";"";"0.50%";"Low"
"Foreign Bonds Buying";"Japan";"JPY";"2015-02-04T23:50:00";"GMT";"44.2B";"";"675.2B";"Low"
"Foreign Investments in Japanese Stocks";"Japan";"JPY";"2015-02-04T23:50:00";"GMT";"464.8B";"";"-104.8B";"Low"
