{"events": {"event": [
    {
      "eventDateTime": "2009-03-19T07:15:00",
      "eventActual": "0.730B",
      "eventCountry": "Switzerland",
      "eventExpectedVolatility": "Low",
      "eventName": "Trade Balance",
      "eventTimeZone": "GMT",
      "eventPrevious": "2.030B",
      "eventCurrency": "CHF",
      "eventForecast": "1.010B"
    },
    {
      "eventDateTime": "2009-03-19T10:00:00",
      "eventActual": "-57.1",
      "eventCountry": "Switzerland",
      "eventExpectedVolatility": "Low",
      "eventName": "ZEW Expectations",
      "eventTimeZone": "GMT",
      "eventPrevious": "",
      "eventCurrency": "CHF",
      "eventForecast": "-57.7"
    }
  ]}}
