{"events": {"event": [
    {
      "eventDateTime": "2017-10-18T08:10:00",
      "eventActual": "",
      "eventCountry": "Euro Zone",
      "eventExpectedVolatility": "High",
      "eventName": "ECB President Draghi Speaks",
      "eventTimeZone": "GMT",
      "eventPrevious": "",
      "eventCurrency": "EUR",
      "eventForecast": ""
    },
    {
      "eventDateTime": "2017-10-18T09:35:00",
      "eventActual": "1.220%",
      "eventCountry": "Germany",
      "eventExpectedVolatility": "Low",
      "eventName": "German 30-Year Bund Auction",
      "eventTimeZone": "GMT",
      "eventPrevious": "1.270%",
      "eventCurrency": "EUR",
      "eventForecast": ""
    },
    {
      "eventDateTime": "2017-10-18T11:45:00",
      "eventActual": "",
      "eventCountry": "Euro Zone",
      "eventExpectedVolatility": "Moderate",
      "eventName": "ECB's Praet Speaks",
      "eventTimeZone": "GMT",
      "eventPrevious": "",
      "eventCurrency": "EUR",
      "eventForecast": ""
    },
    {
      "eventDateTime": "2017-10-18T14:15:00",
      "eventActual": "",
      "eventCountry": "Euro Zone",
      "eventExpectedVolatility": "Moderate",
      "eventName": "ECB's Coeure Speaks",
      "eventTimeZone": "GMT",
      "eventPrevious": "",
      "eventCurrency": "EUR",
      "eventForecast": ""
    }
  ]}}
