{"events": {"event": [
    {
      "eventDateTime": "2016-04-29T01:00:00",
      "eventActual": "6.2",
      "eventCountry": "New Zealand",
      "eventExpectedVolatility": "Moderate",
      "eventName": "ANZ Business Confidence (Apr)",
      "eventTimeZone": "GMT",
      "eventPrevious": "3.2",
      "eventCurrency": "NZD",
      "eventForecast": ""
    },
    {
      "eventDateTime": "2016-04-29T01:00:00",
      "eventActual": "32.1%",
      "eventCountry": "New Zealand",
      "eventExpectedVolatility": "Low",
      "eventName": "NBNZ Own Activity (Apr)",
      "eventTimeZone": "GMT",
      "eventPrevious": "29.4%",
      "eventCurrency": "NZD",
      "eventForecast": ""
    },
    {
      "eventDateTime": "2016-04-29T19:30:00",
      "eventActual": "7.4K",
      "eventCountry": "New Zealand",
      "eventExpectedVolatility": "Low",
      "eventName": "CFTC NZD speculative net positions",
      "eventTimeZone": "GMT",
      "eventPrevious": "5.4K",
      "eventCurrency": "NZD",
      "eventForecast": ""
    }
  ]}}
