{"events": {"event": [
    {
      "eventDateTime": "2000-07-01T09:00:00",
      "eventActual": "2.80%",
      "eventCountry": "United Kingdom",
      "eventExpectedVolatility": "Moderate",
      "eventName": "BRC Retail Sales Monitor (YoY) (Jun)",
      "eventTimeZone": "GMT",
      "eventPrevious": "3.20%",
      "eventCurrency": "GBP",
      "eventForecast": ""
    },
    {
      "eventDateTime": "2000-07-01T09:00:00",
      "eventActual": "1.01B",
      "eventCountry": "United Kingdom",
      "eventExpectedVolatility": "Low",
      "eventName": "BoE Consumer Credit (Jun)",
      "eventTimeZone": "GMT",
      "eventPrevious": "1.59B",
      "eventCurrency": "GBP",
      "eventForecast": ""
    },
    {
      "eventDateTime": "2000-07-01T09:00:00",
      "eventActual": "6.00%",
      "eventCountry": "United Kingdom",
      "eventExpectedVolatility": "High",
      "eventName": "BoE Interest Rate Decision (Jun)",
      "eventTimeZone": "GMT",
      "eventPrevious": "6.00%",
      "eventCurrency": "GBP",
      "eventForecast": ""
    },
    {
      "eventDateTime": "2000-07-01T09:00:00",
      "eventActual": "15.00",
      "eventCountry": "United Kingdom",
      "eventExpectedVolatility": "Low",
      "eventName": "CBI Distributive Trades Survey (Jun)",
      "eventTimeZone": "GMT",
      "eventPrevious": "45.00",
      "eventCurrency": "GBP",
      "eventForecast": ""
    },
    {
      "eventDateTime": "2000-07-01T09:00:00",
      "eventActual": "-18.00",
      "eventCountry": "United Kingdom",
      "eventExpectedVolatility": "Moderate",
      "eventName": "CBI Industrial Trends Orders (Jun)",
      "eventTimeZone": "GMT",
      "eventPrevious": "-10.00",
      "eventCurrency": "GBP",
      "eventForecast": ""
    },
    {
      "eventDateTime": "2000-07-01T09:00:00",
      "eventActual": "0.10%",
      "eventCountry": "United Kingdom",
      "eventExpectedVolatility": "Moderate",
      "eventName": "CPI (MoM) (Jun)",
      "eventTimeZone": "GMT",
      "eventPrevious": "0.30%",
      "eventCurrency": "GBP",
      "eventForecast": ""
    },
    {
      "eventDateTime": "2000-07-01T09:00:00",
      "eventActual": "0.80%",
      "eventCountry": "United Kingdom",
      "eventExpectedVolatility": "High",
      "eventName": "CPI (YoY) (Jun)",
      "eventTimeZone": "GMT",
      "eventPrevious": "0.50%",
      "eventCurrency": "GBP",
      "eventForecast": ""
    },
    {
      "eventDateTime": "2000-07-01T09:00:00",
      "eventActual": "-11.10K",
      "eventCountry": "United Kingdom",
      "eventExpectedVolatility": "High",
      "eventName": "Claimant Count Change (Jun)",
      "eventTimeZone": "GMT",
      "eventPrevious": "-8.60K",
      "eventCurrency": "GBP",
      "eventForecast": ""
    },
    {
      "eventDateTime": "2000-07-01T09:00:00",
      "eventActual": "0.00%",
      "eventCountry": "United Kingdom",
      "eventExpectedVolatility": "Low",
      "eventName": "Core PPI Output (MoM) (Jun)",
      "eventTimeZone": "GMT",
      "eventPrevious": "-0.20%",
      "eventCurrency": "GBP",
      "eventForecast": ""
    },
    {
      "eventDateTime": "2000-07-01T09:00:00",
      "eventActual": "-0.50%",
      "eventCountry": "United Kingdom",
      "eventExpectedVolatility": "Low",
      "eventName": "Core PPI Output (YoY) (Jun)",
      "eventTimeZone": "GMT",
      "eventPrevious": "-0.50%",
      "eventCurrency": "GBP",
      "eventForecast": ""
    },
    {
      "eventDateTime": "2000-07-01T09:00:00",
      "eventActual": "0.20%",
      "eventCountry": "United Kingdom",
      "eventExpectedVolatility": "Low",
      "eventName": "Core RPI (MoM) (Jun)",
      "eventTimeZone": "GMT",
      "eventPrevious": "0.30%",
      "eventCurrency": "GBP",
      "eventForecast": ""
    },
    {
      "eventDateTime": "2000-07-01T09:00:00",
      "eventActual": "2.20%",
      "eventCountry": "United Kingdom",
      "eventExpectedVolatility": "Low",
      "eventName": "Core RPI (YoY) (Jun)",
      "eventTimeZone": "GMT",
      "eventPrevious": "2.00%",
      "eventCurrency": "GBP",
      "eventForecast": ""
    },
    {
      "eventDateTime": "2000-07-01T09:00:00",
      "eventActual": "0.20%",
      "eventCountry": "United Kingdom",
      "eventExpectedVolatility": "Moderate",
      "eventName": "Core Retail Sales (MoM) (Jun)",
      "eventTimeZone": "GMT",
      "eventPrevious": "0.30%",
      "eventCurrency": "GBP",
      "eventForecast": ""
    },
    {
      "eventDateTime": "2000-07-01T09:00:00",
      "eventActual": "2.80%",
      "eventCountry": "United Kingdom",
      "eventExpectedVolatility": "Moderate",
      "eventName": "Core Retail Sales (YoY) (Jun)",
      "eventTimeZone": "GMT",
      "eventPrevious": "2.50%",
      "eventCurrency": "GBP",
      "eventForecast": ""
    },
    {
      "eventDateTime": "2000-07-01T09:00:00",
      "eventActual": "0.00",
      "eventCountry": "United Kingdom",
      "eventExpectedVolatility": "Low",
      "eventName": "GfK Consumer Confidence (Jun)",
      "eventTimeZone": "GMT",
      "eventPrevious": "2.00",
      "eventCurrency": "GBP",
      "eventForecast": ""
    },
    {
      "eventDateTime": "2000-07-01T09:00:00",
      "eventActual": "-0.60%",
      "eventCountry": "United Kingdom",
      "eventExpectedVolatility": "Moderate",
      "eventName": "Halifax House Price Index (MoM) (Jun)",
      "eventTimeZone": "GMT",
      "eventPrevious": "0.00%",
      "eventCurrency": "GBP",
      "eventForecast": ""
    },
    {
      "eventDateTime": "2000-07-01T09:00:00",
      "eventActual": "11.30%",
      "eventCountry": "United Kingdom",
      "eventExpectedVolatility": "Moderate",
      "eventName": "Halifax House Price Index (YoY) (Jun)",
      "eventTimeZone": "GMT",
      "eventPrevious": "13.00%",
      "eventCurrency": "GBP",
      "eventForecast": ""
    },
    {
      "eventDateTime": "2000-07-01T09:00:00",
      "eventActual": "0.60%",
      "eventCountry": "United Kingdom",
      "eventExpectedVolatility": "Moderate",
      "eventName": "Industrial Production (MoM) (Jun)",
      "eventTimeZone": "GMT",
      "eventPrevious": "0.30%",
      "eventCurrency": "GBP",
      "eventForecast": ""
    },
    {
      "eventDateTime": "2000-07-01T09:00:00",
      "eventActual": "2.90%",
      "eventCountry": "United Kingdom",
      "eventExpectedVolatility": "Low",
      "eventName": "Industrial Production (YoY) (Jun)",
      "eventTimeZone": "GMT",
      "eventPrevious": "3.00%",
      "eventCurrency": "GBP",
      "eventForecast": ""
    },
    {
      "eventDateTime": "2000-07-01T09:00:00",
      "eventActual": "0.70%",
      "eventCountry": "United Kingdom",
      "eventExpectedVolatility": "Low",
      "eventName": "M4 Money Supply (MoM) (Jun)",
      "eventTimeZone": "GMT",
      "eventPrevious": "0.70%",
      "eventCurrency": "GBP",
      "eventForecast": ""
    },
    {
      "eventDateTime": "2000-07-01T09:00:00",
      "eventActual": "0.30%",
      "eventCountry": "United Kingdom",
      "eventExpectedVolatility": "High",
      "eventName": "Manufacturing Production (MoM) (Jun)",
      "eventTimeZone": "GMT",
      "eventPrevious": "0.50%",
      "eventCurrency": "GBP",
      "eventForecast": ""
    },
    {
      "eventDateTime": "2000-07-01T09:00:00",
      "eventActual": "2.80%",
      "eventCountry": "United Kingdom",
      "eventExpectedVolatility": "Low",
      "eventName": "Manufacturing Production (YoY) (Jun)",
      "eventTimeZone": "GMT",
      "eventPrevious": "3.50%",
      "eventCurrency": "GBP",
      "eventForecast": ""
    },
    {
      "eventDateTime": "2000-07-01T09:00:00",
      "eventActual": "92.08K",
      "eventCountry": "United Kingdom",
      "eventExpectedVolatility": "Low",
      "eventName": "Mortgage Approvals (Jun)",
      "eventTimeZone": "GMT",
      "eventPrevious": "94.03K",
      "eventCurrency": "GBP",
      "eventForecast": ""
    },
    {
      "eventDateTime": "2000-07-01T09:00:00",
      "eventActual": "3.70B",
      "eventCountry": "United Kingdom",
      "eventExpectedVolatility": "Low",
      "eventName": "Mortgage Lending (Jun)",
      "eventTimeZone": "GMT",
      "eventPrevious": "3.23B",
      "eventCurrency": "GBP",
      "eventForecast": ""
    },
    {
      "eventDateTime": "2000-07-01T09:00:00",
      "eventActual": "-0.10%",
      "eventCountry": "United Kingdom",
      "eventExpectedVolatility": "Moderate",
      "eventName": "Nationwide HPI (MoM) (Jun)",
      "eventTimeZone": "GMT",
      "eventPrevious": "-0.30%",
      "eventCurrency": "GBP",
      "eventForecast": ""
    },
    {
      "eventDateTime": "2000-07-01T09:00:00",
      "eventActual": "15.10%",
      "eventCountry": "United Kingdom",
      "eventExpectedVolatility": "Moderate",
      "eventName": "Nationwide HPI (YoY) (Jun)",
      "eventTimeZone": "GMT",
      "eventPrevious": "15.80%",
      "eventCurrency": "GBP",
      "eventForecast": ""
    },
    {
      "eventDateTime": "2000-07-01T09:00:00",
      "eventActual": "1.90%",
      "eventCountry": "United Kingdom",
      "eventExpectedVolatility": "Moderate",
      "eventName": "PPI Input (MoM) (Jun)",
      "eventTimeZone": "GMT",
      "eventPrevious": "3.40%",
      "eventCurrency": "GBP",
      "eventForecast": ""
    },
    {
      "eventDateTime": "2000-07-01T09:00:00",
      "eventActual": "9.00%",
      "eventCountry": "United Kingdom",
      "eventExpectedVolatility": "Low",
      "eventName": "PPI Input (YoY) (Jun)",
      "eventTimeZone": "GMT",
      "eventPrevious": "7.60%",
      "eventCurrency": "GBP",
      "eventForecast": ""
    },
    {
      "eventDateTime": "2000-07-01T09:00:00",
      "eventActual": "0.40%",
      "eventCountry": "United Kingdom",
      "eventExpectedVolatility": "Low",
      "eventName": "PPI Output (MoM) (Jun)",
      "eventTimeZone": "GMT",
      "eventPrevious": "0.00%",
      "eventCurrency": "GBP",
      "eventForecast": ""
    },
    {
      "eventDateTime": "2000-07-01T09:00:00",
      "eventActual": "1.60%",
      "eventCountry": "United Kingdom",
      "eventExpectedVolatility": "Low",
      "eventName": "PPI Output (YoY) (Jun)",
      "eventTimeZone": "GMT",
      "eventPrevious": "1.20%",
      "eventCurrency": "GBP",
      "eventForecast": ""
    },
    {
      "eventDateTime": "2000-07-01T09:00:00",
      "eventActual": "5.59B",
      "eventCountry": "United Kingdom",
      "eventExpectedVolatility": "Low",
      "eventName": "Public Sector Net Borrowing (Jun)",
      "eventTimeZone": "GMT",
      "eventPrevious": "-6.03B",
      "eventCurrency": "GBP",
      "eventForecast": ""
    },
    {
      "eventDateTime": "2000-07-01T09:00:00",
      "eventActual": "7.02B",
      "eventCountry": "United Kingdom",
      "eventExpectedVolatility": "Low",
      "eventName": "Public Sector Net Cash Requirement (Jun)",
      "eventTimeZone": "GMT",
      "eventPrevious": "-12.32B",
      "eventCurrency": "GBP",
      "eventForecast": ""
    },
    {
      "eventDateTime": "2000-07-01T09:00:00",
      "eventActual": "5.00%",
      "eventCountry": "United Kingdom",
      "eventExpectedVolatility": "Moderate",
      "eventName": "RICS House Price Balance (Jun)",
      "eventTimeZone": "GMT",
      "eventPrevious": "22.00%",
      "eventCurrency": "GBP",
      "eventForecast": ""
    },
    {
      "eventDateTime": "2000-07-01T09:00:00",
      "eventActual": "0.20%",
      "eventCountry": "United Kingdom",
      "eventExpectedVolatility": "Low",
      "eventName": "RPI (MoM) (Jun)",
      "eventTimeZone": "GMT",
      "eventPrevious": "0.40%",
      "eventCurrency": "GBP",
      "eventForecast": ""
    },
    {
      "eventDateTime": "2000-07-01T09:00:00",
      "eventActual": "3.30%",
      "eventCountry": "United Kingdom",
      "eventExpectedVolatility": "Low",
      "eventName": "RPI (YoY) (Jun)",
      "eventTimeZone": "GMT",
      "eventPrevious": "3.10%",
      "eventCurrency": "GBP",
      "eventForecast": ""
    },
    {
      "eventDateTime": "2000-07-01T09:00:00",
      "eventActual": "-0.40%",
      "eventCountry": "United Kingdom",
      "eventExpectedVolatility": "High",
      "eventName": "Retail Sales (MoM) (Jun)",
      "eventTimeZone": "GMT",
      "eventPrevious": "-1.10%",
      "eventCurrency": "GBP",
      "eventForecast": ""
    },
    {
      "eventDateTime": "2000-07-01T09:00:00",
      "eventActual": "2.90%",
      "eventCountry": "United Kingdom",
      "eventExpectedVolatility": "Moderate",
      "eventName": "Retail Sales (YoY) (Jun)",
      "eventTimeZone": "GMT",
      "eventPrevious": "3.40%",
      "eventCurrency": "GBP",
      "eventForecast": ""
    },
    {
      "eventDateTime": "2000-07-01T09:00:00",
      "eventActual": "-2.43B",
      "eventCountry": "United Kingdom",
      "eventExpectedVolatility": "Moderate",
      "eventName": "Trade Balance (Jun)",
      "eventTimeZone": "GMT",
      "eventPrevious": "-2.79B",
      "eventCurrency": "GBP",
      "eventForecast": ""
    },
    {
      "eventDateTime": "2000-07-01T09:00:00",
      "eventActual": "-2.25B",
      "eventCountry": "United Kingdom",
      "eventExpectedVolatility": "Moderate",
      "eventName": "Trade Balance Non-EU (Jun)",
      "eventTimeZone": "GMT",
      "eventPrevious": "-2.19B",
      "eventCurrency": "GBP",
      "eventForecast": ""
    },
    {
      "eventDateTime": "2000-07-01T09:00:00",
      "eventActual": "5.50%",
      "eventCountry": "United Kingdom",
      "eventExpectedVolatility": "Moderate",
      "eventName": "Unemployment Rate (Jun)",
      "eventTimeZone": "GMT",
      "eventPrevious": "5.60%",
      "eventCurrency": "GBP",
      "eventForecast": ""
    }
  ]}}
