{"events": {"event": {
    "eventDateTime": "2016-03-31T12:30:00",
    "eventActual": "0.6%",
    "eventCountry": "Canada",
    "eventExpectedVolatility": "High",
    "eventName": "GDP (MoM) (Jan)",
    "eventTimeZone": "GMT",
    "eventPrevious": "0.2%",
    "eventCurrency": "CAD",
    "eventForecast": "0.3%"
  }}}
