"Trade Balance";"South Korea";"KRW";"2013-03-01T00:00:00";"GMT";"0.48B";"";"2.06B";"Low"
"Export Price Index (YoY) (Feb)";"South Korea";"KRW";"2013-03-01T09:00:00";"GMT";"-8.10%";"";"-5.60%";"Low"
"Exports (YoY) (Feb)";"South Korea";"KRW";"2013-03-01T09:00:00";"GMT";"10.90%";"";"-8.60%";"Low"
"Import Price Index (YoY) (Feb)";"South Korea";"KRW";"2013-03-01T09:00:00";"GMT";"-10.60%";"";"-8.60%";"Low"
"Imports (YoY) (Feb)";"South Korea";"KRW";"2013-03-01T09:00:00";"GMT";"4.10%";"";"-10.30%";"Low"
