{"events": {"event": [
    {
      "eventDateTime": "2013-02-26T02:00:00",
      "eventActual": "2.2%",
      "eventCountry": "New Zealand",
      "eventExpectedVolatility": "Moderate",
      "eventName": "Inflation Expectations (QoQ)",
      "eventTimeZone": "GMT",
      "eventPrevious": "2.3%",
      "eventCurrency": "NZD",
      "eventForecast": ""
    },
    {
      "eventDateTime": "2013-02-26T21:45:00",
      "eventActual": "-305M",
      "eventCountry": "New Zealand",
      "eventExpectedVolatility": "Moderate",
      "eventName": "Trade Balance (MoM)",
      "eventTimeZone": "GMT",
      "eventPrevious": "534M",
      "eventCurrency": "NZD",
      "eventForecast": "100M"
    },
    {
      "eventDateTime": "2013-02-26T21:45:00",
      "eventActual": "-2.5%",
      "eventCountry": "New Zealand",
      "eventExpectedVolatility": "Low",
      "eventName": "Visitor Arrivals (MoM)",
      "eventTimeZone": "GMT",
      "eventPrevious": "1.7%",
      "eventCurrency": "NZD",
      "eventForecast": ""
    }
  ]}}
