"Inflation Expectations (QoQ)";"New Zealand";"NZD";"2013-02-26T02:00:00";"GMT";"2.3%";"";"2.2%";"Moderate"
"Trade Balance (MoM)";"New Zealand";"NZD";"2013-02-26T21:45:00";"GMT";"534M";"100M";"-305M";"Moderate"
"Visitor Arrivals (MoM)";"New Zealand";"NZD";"2013-02-26T21:45:00";"GMT";"1.7%";"";"-2.5%";"Low"
