"Business Confidence (Jul)";"South Africa";"ZAR";"2007-08-01T09:00:00";"GMT";"116.90";"";"117.50";"Low"
"CPI (MoM) (Jul)";"South Africa";"ZAR";"2007-08-01T09:00:00";"GMT";"0.85%";"";"0.99%";"Moderate"
"CPI (YoY) (Jul)";"South Africa";"ZAR";"2007-08-01T09:00:00";"GMT";"7.10%";"";"7.03%";"Low"
"Foreign Reserves (USD) (Jul)";"South Africa";"ZAR";"2007-08-01T09:00:00";"GMT";"28.28B";"";"29.33B";"Low"
"Gold Production (YoY) (Jul)";"South Africa";"ZAR";"2007-08-01T09:00:00";"GMT";"-5.96%";"";"-5.23%";"Low"
"Interest Rate Decision (Jul)";"South Africa";"ZAR";"2007-08-01T09:00:00";"GMT";"9.50%";"";"9.50%";"Moderate"
"M3 Money Supply (YoY) (Jul)";"South Africa";"ZAR";"2007-08-01T09:00:00";"GMT";"23.41%";"";"24.46%";"Low"
"Mining Production (Jul)";"South Africa";"ZAR";"2007-08-01T09:00:00";"GMT";"-2.79%";"";"-3.40%";"Low"
"Net FX Reserves (USD) (Jul)";"South Africa";"ZAR";"2007-08-01T09:00:00";"GMT";"25.94B";"";"26.97B";"Low"
"Prime Rate (Jul)";"South Africa";"ZAR";"2007-08-01T09:00:00";"GMT";"13.00%";"";"13.00%";"Low"
"Private Sector Credit (Jul)";"South Africa";"ZAR";"2007-08-01T09:00:00";"GMT";"24.81%";"";"23.20%";"Low"
"Retail Sales (YoY) (Jul)";"South Africa";"ZAR";"2007-08-01T09:00:00";"GMT";"8.70%";"";"6.20%";"Low"
"Total Vehicle Sales (Jul)";"South Africa";"ZAR";"2007-08-01T09:00:00";"GMT";"54.93K";"";"58.16K";"Low"
"Total Vehicle Sales (YoY) (Jul)";"South Africa";"ZAR";"2007-08-01T09:00:00";"GMT";"-10.30%";"";"-6.00%";"Low"
