{"events": {"event": [
    {
      "eventDateTime": "2018-11-01T06:00:00",
      "eventActual": "51.3",
      "eventCountry": "Russia",
      "eventExpectedVolatility": "Moderate",
      "eventName": "Markit Manufacturing PMI (Oct)",
      "eventTimeZone": "GMT",
      "eventPrevious": "50.0",
      "eventCurrency": "RUB",
      "eventForecast": ""
    },
    {
      "eventDateTime": "2018-11-01T13:00:00",
      "eventActual": "460.7B",
      "eventCountry": "Russia",
      "eventExpectedVolatility": "Moderate",
      "eventName": "Central Bank reserves (USD)",
      "eventTimeZone": "GMT",
      "eventPrevious": "461.4B",
      "eventCurrency": "RUB",
      "eventForecast": ""
    }
  ]}}
