{"events": {"event": [
    {
      "eventDateTime": "2014-11-21T13:30:00",
      "eventActual": "0.1%",
      "eventCountry": "Canada",
      "eventExpectedVolatility": "Moderate",
      "eventName": "CPI (MoM) (Oct)",
      "eventTimeZone": "GMT",
      "eventPrevious": "0.1%",
      "eventCurrency": "CAD",
      "eventForecast": "-0.3%"
    },
    {
      "eventDateTime": "2014-11-21T13:30:00",
      "eventActual": "2.4%",
      "eventCountry": "Canada",
      "eventExpectedVolatility": "Low",
      "eventName": "CPI (YoY) (Oct)",
      "eventTimeZone": "GMT",
      "eventPrevious": "2.0%",
      "eventCurrency": "CAD",
      "eventForecast": "2.0%"
    },
    {
      "eventDateTime": "2014-11-21T13:30:00",
      "eventActual": "0.3%",
      "eventCountry": "Canada",
      "eventExpectedVolatility": "High",
      "eventName": "Core CPI (MoM) (Oct)",
      "eventTimeZone": "GMT",
      "eventPrevious": "0.2%",
      "eventCurrency": "CAD",
      "eventForecast": "0.2%"
    },
    {
      "eventDateTime": "2014-11-21T13:30:00",
      "eventActual": "2.3%",
      "eventCountry": "Canada",
      "eventExpectedVolatility": "Moderate",
      "eventName": "Core CPI (YoY) (Oct)",
      "eventTimeZone": "GMT",
      "eventPrevious": "2.1%",
      "eventCurrency": "CAD",
      "eventForecast": "2.2%"
    },
    {
      "eventDateTime": "2014-11-21T20:30:00",
      "eventActual": "-19.5K",
      "eventCountry": "Canada",
      "eventExpectedVolatility": "Low",
      "eventName": "CFTC CAD speculative net positions",
      "eventTimeZone": "GMT",
      "eventPrevious": "-21.8K",
      "eventCurrency": "CAD",
      "eventForecast": ""
    }
  ]}}
