"Adjusted Current Account";"Japan";"JPY";"2010-07-07T23:50:00";"GMT";"1.38T";"1.12T";"0.90T";"Moderate"
"Bank Lending (YoY)";"Japan";"JPY";"2010-07-07T23:50:00";"GMT";"-2.0%";"";"-2.0%";"Low"
"Core Machinery Orders (MoM)";"Japan";"JPY";"2010-07-07T23:50:00";"GMT";"4.0%";"-2.9%";"-9.1%";"Low"
"M2 Money Stock (YoY)";"Japan";"JPY";"2010-07-07T23:50:00";"GMT";"3.1%";"3.1%";"2.9%";"Low"
