{"events": {"event": {
    "eventDateTime": "2016-03-25T19:30:00",
    "eventActual": "-37.7K",
    "eventCountry": "United Kingdom",
    "eventExpectedVolatility": "Moderate",
    "eventName": "CFTC GBP speculative net positions",
    "eventTimeZone": "GMT",
    "eventPrevious": "-13.6K",
    "eventCurrency": "GBP",
    "eventForecast": ""
  }}}
