"GDP (QoQ) (Q2)";"United Kingdom";"GBP";"2015-07-28T08:30:00";"GMT";"0.4%";"0.7%";"0.7%";"High"
"GDP (YoY) (Q2)";"United Kingdom";"GBP";"2015-07-28T08:30:00";"GMT";"2.9%";"2.6%";"2.6%";"High"
"Index of Services";"United Kingdom";"GBP";"2015-07-28T08:30:00";"GMT";"0.5%";"0.5%";"0.4%";"Low"
"BoE MPC Member Cunliffe Speaks";"United Kingdom";"GBP";"2015-07-28T18:00:00";"GMT";" ";"";"";"Moderate"
