"IEA Monthly Report";"United States";"USD";"2018-05-16T08:00:00";"GMT";" ";"";"";"Moderate"
"MBA 30-Year Mortgage Rate";"United States";"USD";"2018-05-16T11:00:00";"GMT";"4.78%";"";"4.77%";"Low"
"MBA Mortgage Applications (WoW)";"United States";"USD";"2018-05-16T11:00:00";"GMT";"-0.4%";"";"-2.7%";"Low"
"MBA Purchase Index";"United States";"USD";"2018-05-16T11:00:00";"GMT";"257.7";"";"252.4";"Low"
"Mortgage Market Index";"United States";"USD";"2018-05-16T11:00:00";"GMT";"387.1";"";"376.5";"Low"
"Mortgage Refinance Index";"United States";"USD";"2018-05-16T11:00:00";"GMT";"1,098.4";"";"1,057.1";"Low"
"Building Permits (Apr)";"United States";"USD";"2018-05-16T12:30:00";"GMT";"1.377M";"1.347M";"1.352M";"High"
"Building Permits (MoM) (Apr)";"United States";"USD";"2018-05-16T12:30:00";"GMT";"4.1%";"-2.3%";"-1.8%";"Moderate"
"FOMC Member Bostic Speaks";"United States";"USD";"2018-05-16T12:30:00";"GMT";" ";"";"";"Moderate"
"Housing Starts (Apr)";"United States";"USD";"2018-05-16T12:30:00";"GMT";"1.336M";"1.310M";"1.287M";"Moderate"
"Housing Starts (MoM) (Apr)";"United States";"USD";"2018-05-16T12:30:00";"GMT";"3.6%";"-0.7%";"-3.7%";"Moderate"
"Capacity Utilization Rate (Apr)";"United States";"USD";"2018-05-16T13:15:00";"GMT";"77.6%";"78.4%";"78.0%";"Low"
"Industrial Production (MoM) (Apr)";"United States";"USD";"2018-05-16T13:15:00";"GMT";"0.7%";"0.5%";"0.7%";"Moderate"
"Industrial Production (YoY)";"United States";"USD";"2018-05-16T13:15:00";"GMT";"3.7%";"";"3.5%";"Moderate"
"Manufacturing Production (MoM) (Apr)";"United States";"USD";"2018-05-16T13:15:00";"GMT";"0.1%";"0.5%";"0.5%";"Low"
"MBA Delinquency Rates (QoQ)";"United States";"USD";"2018-05-16T14:00:00";"GMT";"5.17%";"";"4.63%";"Low"
"Crude Oil Imports";"United States";"USD";"2018-05-16T14:30:00";"GMT";"-0.955M";"";"-0.411M";"Low"
"Crude Oil Inventories";"United States";"USD";"2018-05-16T14:30:00";"GMT";"-2.197M";"-0.763M";"-1.404M";"High"
"Cushing Crude Oil Inventories";"United States";"USD";"2018-05-16T14:30:00";"GMT";"1.388M";"";"0.053M";"Moderate"
"Distillate Fuel Production";"United States";"USD";"2018-05-16T14:30:00";"GMT";"-0.002M";"";"0.038M";"Low"
"EIA Weekly Distillates Stocks";"United States";"USD";"2018-05-16T14:30:00";"GMT";"-3.791M";"-2.155M";"-0.092M";"Low"
"Gasoline Inventories";"United States";"USD";"2018-05-16T14:30:00";"GMT";"-2.174M";"-1.421M";"-3.790M";"Low"
"Gasoline Production";"United States";"USD";"2018-05-16T14:30:00";"GMT";"-0.071M";"";"0.488M";"Low"
"Heating Oil Stockpiles";"United States";"USD";"2018-05-16T14:30:00";"GMT";"-0.208M";"";"-0.310M";"Low"
"FOMC Member Bullard Speaks";"United States";"USD";"2018-05-16T22:30:00";"GMT";" ";"";"";"Moderate"
