{"events": {"event": [
    {
      "eventDateTime": "2018-11-21T09:00:00",
      "eventActual": "-3.30B",
      "eventCountry": "Spain",
      "eventExpectedVolatility": "Low",
      "eventName": "Spanish Trade Balance",
      "eventTimeZone": "GMT",
      "eventPrevious": "-3.06B",
      "eventCurrency": "EUR",
      "eventForecast": ""
    },
    {
      "eventDateTime": "2018-11-21T10:40:00",
      "eventActual": "-0.220%",
      "eventCountry": "Germany",
      "eventExpectedVolatility": "Low",
      "eventName": "German 5-Year Bobl Auction",
      "eventTimeZone": "GMT",
      "eventPrevious": "-0.180%",
      "eventCurrency": "EUR",
      "eventForecast": ""
    }
  ]}}
