{"events": {"event": {
    "eventDateTime": "2011-06-12T23:50:00",
    "eventActual": "-3.3%",
    "eventCountry": "Japan",
    "eventExpectedVolatility": "Low",
    "eventName": "Core Machinery Orders (MoM)",
    "eventTimeZone": "GMT",
    "eventPrevious": "2.9%",
    "eventCurrency": "JPY",
    "eventForecast": "2.0%"
  }}}
