{"events": {"event": {
    "eventDateTime": "2018-04-23T05:00:00",
    "eventActual": "0.2%",
    "eventCountry": "Singapore",
    "eventExpectedVolatility": "Moderate",
    "eventName": "CPI (YoY) (Mar)",
    "eventTimeZone": "GMT",
    "eventPrevious": "0.5%",
    "eventCurrency": "SGD",
    "eventForecast": "0.5%"
  }}}
