"Interest Rate Decision (Jun)";"Russia";"RUB";"2019-06-14T10:30:00";"GMT";"7.75%";"7.50%";"7.50%";"High"
"CBR Press Conference";"Russia";"RUB";"2019-06-14T12:00:00";"GMT";" ";"";"";"Moderate"
"CFTC RUB speculative positions";"Russia";"RUB";"2019-06-14T19:30:00";"GMT";"34.4K";"";"33.2K";"Moderate"
