"IPPI (MoM) (Sep)";"Canada";"CAD";"2015-10-29T12:30:00";"GMT";"-0.3%";"-0.1%";"-0.3%";"Low"
"IPPI (YoY) (Sep)";"Canada";"CAD";"2015-10-29T12:30:00";"GMT";"-0.4%";"";"-0.4%";"Low"
"RMPI (MoM) (Sep)";"Canada";"CAD";"2015-10-29T12:30:00";"GMT";"-6.8%";"1.5%";"3.0%";"Moderate"
"RMPI (YoY) (Sep)";"Canada";"CAD";"2015-10-29T12:30:00";"GMT";"-24.8%";"";"-20.9%";"Low"
