{"events": {"event": [
    {
      "eventDateTime": "2019-03-14T11:00:00",
      "eventActual": "",
      "eventCountry": "United States",
      "eventExpectedVolatility": "Moderate",
      "eventName": "OPEC Monthly Report",
      "eventTimeZone": "GMT",
      "eventPrevious": "",
      "eventCurrency": "USD",
      "eventForecast": ""
    },
    {
      "eventDateTime": "2019-03-14T12:30:00",
      "eventActual": "1,776K",
      "eventCountry": "United States",
      "eventExpectedVolatility": "Low",
      "eventName": "Continuing Jobless Claims",
      "eventTimeZone": "GMT",
      "eventPrevious": "1,758K",
      "eventCurrency": "USD",
      "eventForecast": "1,775K"
    },
    {
      "eventDateTime": "2019-03-14T12:30:00",
      "eventActual": "0.6%",
      "eventCountry": "United States",
      "eventExpectedVolatility": "Moderate",
      "eventName": "Export Price Index (MoM) (Feb)",
      "eventTimeZone": "GMT",
      "eventPrevious": "-0.5%",
      "eventCurrency": "USD",
      "eventForecast": "0.1%"
    },
    {
      "eventDateTime": "2019-03-14T12:30:00",
      "eventActual": "0.3%",
      "eventCountry": "United States",
      "eventExpectedVolatility": "Low",
      "eventName": "Export Price Index (YoY)",
      "eventTimeZone": "GMT",
      "eventPrevious": "-0.2%",
      "eventCurrency": "USD",
      "eventForecast": ""
    },
    {
      "eventDateTime": "2019-03-14T12:30:00",
      "eventActual": "0.6%",
      "eventCountry": "United States",
      "eventExpectedVolatility": "Moderate",
      "eventName": "Import Price Index (MoM) (Feb)",
      "eventTimeZone": "GMT",
      "eventPrevious": "0.1%",
      "eventCurrency": "USD",
      "eventForecast": "0.3%"
    },
    {
      "eventDateTime": "2019-03-14T12:30:00",
      "eventActual": "-1.3%",
      "eventCountry": "United States",
      "eventExpectedVolatility": "Low",
      "eventName": "Import Price Index (YoY)",
      "eventTimeZone": "GMT",
      "eventPrevious": "-1.7%",
      "eventCurrency": "USD",
      "eventForecast": "-1.6%"
    },
    {
      "eventDateTime": "2019-03-14T12:30:00",
      "eventActual": "229K",
      "eventCountry": "United States",
      "eventExpectedVolatility": "Moderate",
      "eventName": "Initial Jobless Claims",
      "eventTimeZone": "GMT",
      "eventPrevious": "223K",
      "eventCurrency": "USD",
      "eventForecast": "225K"
    },
    {
      "eventDateTime": "2019-03-14T12:30:00",
      "eventActual": "223.75K",
      "eventCountry": "United States",
      "eventExpectedVolatility": "Low",
      "eventName": "Jobless Claims 4-Week Avg.",
      "eventTimeZone": "GMT",
      "eventPrevious": "226.25K",
      "eventCurrency": "USD",
      "eventForecast": ""
    },
    {
      "eventDateTime": "2019-03-14T14:00:00",
      "eventActual": "607K",
      "eventCountry": "United States",
      "eventExpectedVolatility": "High",
      "eventName": "New Home Sales (Jan)",
      "eventTimeZone": "GMT",
      "eventPrevious": "652K",
      "eventCurrency": "USD",
      "eventForecast": "622K"
    },
    {
      "eventDateTime": "2019-03-14T14:00:00",
      "eventActual": "-6.9%",
      "eventCountry": "United States",
      "eventExpectedVolatility": "Moderate",
      "eventName": "New Home Sales (MoM) (Jan)",
      "eventTimeZone": "GMT",
      "eventPrevious": "3.8%",
      "eventCurrency": "USD",
      "eventForecast": "-0.6%"
    },
    {
      "eventDateTime": "2019-03-14T14:30:00",
      "eventActual": "-204B",
      "eventCountry": "United States",
      "eventExpectedVolatility": "Low",
      "eventName": "Natural Gas Storage",
      "eventTimeZone": "GMT",
      "eventPrevious": "-149B",
      "eventCurrency": "USD",
      "eventForecast": "-208B"
    },
    {
      "eventDateTime": "2019-03-14T15:30:00",
      "eventActual": "2.420%",
      "eventCountry": "United States",
      "eventExpectedVolatility": "Low",
      "eventName": "4-Week Bill Auction",
      "eventTimeZone": "GMT",
      "eventPrevious": "2.405%",
      "eventCurrency": "USD",
      "eventForecast": ""
    },
    {
      "eventDateTime": "2019-03-14T15:30:00",
      "eventActual": "2.400%",
      "eventCountry": "United States",
      "eventExpectedVolatility": "Low",
      "eventName": "8-Week Bill Auction",
      "eventTimeZone": "GMT",
      "eventPrevious": "2.400%",
      "eventCurrency": "USD",
      "eventForecast": ""
    }
  ]}}
