"Electronic Card Retail Sales (MoM) (May)";"New Zealand";"NZD";"2010-06-01T09:00:00";"GMT";"-1.90%";"";"0.80%";"Moderate"
"Electronic Card Retail Sales (YoY) (May)";"New Zealand";"NZD";"2010-06-01T09:00:00";"GMT";"3.40%";"";"2.40%";"Low"
"Exports (May)";"New Zealand";"NZD";"2010-06-01T09:00:00";"GMT";"3.96B";"";"4.20B";"Low"
"External Migration andamp; Visitors (May)";"New Zealand";"NZD";"2010-06-01T09:00:00";"GMT";"-4.04%";"";"-0.41%";"Low"
"Government Monthly Debt (May)";"New Zealand";"NZD";"2010-06-01T09:00:00";"GMT";"15.00%";"";"13.60%";"Low"
"Imports (May)";"New Zealand";"NZD";"2010-06-01T09:00:00";"GMT";"3.30B";"";"3.43B";"Low"
"NBNZ Own Activity (May)";"New Zealand";"NZD";"2010-06-01T09:00:00";"GMT";"43.00%";"";"45.30%";"Low"
"Permanent/Long-Term Migration (May)";"New Zealand";"NZD";"2010-06-01T09:00:00";"GMT";"820.00";"";"410.00";"Low"
"RBNZ Offshore Holdings (May)";"New Zealand";"NZD";"2010-06-01T09:00:00";"GMT";"51.70%";"";"52.40%";"Low"
"REINZ House Price Index (MoM) (May)";"New Zealand";"NZD";"2010-06-01T09:00:00";"GMT";"-0.40%";"";"-1.40%";"Low"
"REINZ House Price Index (YoY) (May)";"New Zealand";"NZD";"2010-06-01T09:00:00";"GMT";"6.20%";"";"2.30%";"Low"
"Trade Balance (YoY) (May)";"New Zealand";"NZD";"2010-06-01T09:00:00";"GMT";"170.00M";"";"40.00M";"Moderate"
"GlobalDairyTrade Price Index";"New Zealand";"NZD";"2010-06-01T20:00:00";"GMT";"-0.70%";"";"-2.70%";"Moderate"
