"French Consumer Spending (MoM)";"France";"EUR";"2008-03-21T07:45:00";"GMT";"-1.2%";"0.4%";"1.2%";"Moderate"
"Italian Retail Sales (MoM)";"Italy";"EUR";"2008-03-21T09:00:00";"GMT";"0.1%";"0.1%";"0.2%";"Low"
"CFTC EUR speculative net positions";"Euro Zone";"EUR";"2008-03-21T19:30:00";"GMT";"29.1K";"";"26.5K";"Moderate"
