{"events": {"event": {
    "eventDateTime": "2020-01-09T07:30:00",
    "eventActual": "0.0%",
    "eventCountry": "Switzerland",
    "eventExpectedVolatility": "Moderate",
    "eventName": "Retail Sales (YoY) (Nov)",
    "eventTimeZone": "GMT",
    "eventPrevious": "0.4%",
    "eventCurrency": "CHF",
    "eventForecast": ""
  }}}
