{"events": {"event": {
    "eventDateTime": "2011-04-07T12:30:00",
    "eventActual": "9.9%",
    "eventCountry": "Canada",
    "eventExpectedVolatility": "Moderate",
    "eventName": "Building Permits (MoM)",
    "eventTimeZone": "GMT",
    "eventPrevious": "-6.6%",
    "eventCurrency": "CAD",
    "eventForecast": "2.1%"
  }}}
