{"events": {"event": [
    {
      "eventDateTime": "2018-04-17T00:30:00",
      "eventActual": "-1.80%",
      "eventCountry": "Singapore",
      "eventExpectedVolatility": "Low",
      "eventName": "Non-Oil Exports (MoM) (Mar)",
      "eventTimeZone": "GMT",
      "eventPrevious": "-2.70%",
      "eventCurrency": "SGD",
      "eventForecast": "4.70%"
    },
    {
      "eventDateTime": "2018-04-17T00:30:00",
      "eventActual": "-2.70%",
      "eventCountry": "Singapore",
      "eventExpectedVolatility": "Low",
      "eventName": "Non-Oil Exports (YoY) (Mar)",
      "eventTimeZone": "GMT",
      "eventPrevious": "-6.00%",
      "eventCurrency": "SGD",
      "eventForecast": "0.20%"
    },
    {
      "eventDateTime": "2018-04-17T00:30:00",
      "eventActual": "5.490B",
      "eventCountry": "Singapore",
      "eventExpectedVolatility": "Low",
      "eventName": "Trade Balance",
      "eventTimeZone": "GMT",
      "eventPrevious": "5.950B",
      "eventCurrency": "SGD",
      "eventForecast": ""
    }
  ]}}
