"Manufacturing PMI (Dec)";"Japan";"JPY";"2014-12-16T01:35:00";"GMT";"52.0";"52.3";"52.1";"Low"
"Adjusted Trade Balance";"Japan";"JPY";"2014-12-16T23:50:00";"GMT";"-0.99T";"-0.99T";"-0.93T";"Moderate"
"Exports (YoY) (Nov)";"Japan";"JPY";"2014-12-16T23:50:00";"GMT";"9.6%";"6.3%";"4.9%";"Moderate"
"Imports (YoY) (Nov)";"Japan";"JPY";"2014-12-16T23:50:00";"GMT";"2.7%";"1.1%";"-1.7%";"Low"
"Trade Balance (Nov)";"Japan";"JPY";"2014-12-16T23:50:00";"GMT";"-710B";"-1,001B";"-892B";"Moderate"
