{"events": {"event": [
    {
      "eventDateTime": "2012-11-01T00:00:00",
      "eventActual": "47.37",
      "eventCountry": "South Korea",
      "eventExpectedVolatility": "Low",
      "eventName": "Nikkei Manufacturing PMI",
      "eventTimeZone": "GMT",
      "eventPrevious": "45.71",
      "eventCurrency": "KRW",
      "eventForecast": ""
    },
    {
      "eventDateTime": "2012-11-01T00:00:00",
      "eventActual": "3.80B",
      "eventCountry": "South Korea",
      "eventExpectedVolatility": "Low",
      "eventName": "Trade Balance",
      "eventTimeZone": "GMT",
      "eventPrevious": "3.10B",
      "eventCurrency": "KRW",
      "eventForecast": "3.43B"
    },
    {
      "eventDateTime": "2012-11-01T09:00:00",
      "eventActual": "-6.50%",
      "eventCountry": "South Korea",
      "eventExpectedVolatility": "Low",
      "eventName": "Export Price Index (YoY) (Oct)",
      "eventTimeZone": "GMT",
      "eventPrevious": "-3.40%",
      "eventCurrency": "KRW",
      "eventForecast": ""
    },
    {
      "eventDateTime": "2012-11-01T09:00:00",
      "eventActual": "1.00%",
      "eventCountry": "South Korea",
      "eventExpectedVolatility": "Low",
      "eventName": "Exports (YoY) (Oct)",
      "eventTimeZone": "GMT",
      "eventPrevious": "-2.40%",
      "eventCurrency": "KRW",
      "eventForecast": ""
    },
    {
      "eventDateTime": "2012-11-01T09:00:00",
      "eventActual": "-6.40%",
      "eventCountry": "South Korea",
      "eventExpectedVolatility": "Low",
      "eventName": "Import Price Index (YoY) (Oct)",
      "eventTimeZone": "GMT",
      "eventPrevious": "-2.20%",
      "eventCurrency": "KRW",
      "eventForecast": ""
    },
    {
      "eventDateTime": "2012-11-01T09:00:00",
      "eventActual": "1.60%",
      "eventCountry": "South Korea",
      "eventExpectedVolatility": "Low",
      "eventName": "Imports (YoY) (Oct)",
      "eventTimeZone": "GMT",
      "eventPrevious": "-6.00%",
      "eventCurrency": "KRW",
      "eventForecast": ""
    }
  ]}}
