{"events": {"event": [
    {
      "eventDateTime": "2014-10-22T00:30:00",
      "eventActual": "0.5%",
      "eventCountry": "Australia",
      "eventExpectedVolatility": "High",
      "eventName": "CPI (QoQ) (Q3)",
      "eventTimeZone": "GMT",
      "eventPrevious": "0.5%",
      "eventCurrency": "AUD",
      "eventForecast": "0.4%"
    },
    {
      "eventDateTime": "2014-10-22T00:30:00",
      "eventActual": "2.3%",
      "eventCountry": "Australia",
      "eventExpectedVolatility": "Moderate",
      "eventName": "CPI (YoY) (Q3)",
      "eventTimeZone": "GMT",
      "eventPrevious": "3.0%",
      "eventCurrency": "AUD",
      "eventForecast": "2.3%"
    },
    {
      "eventDateTime": "2014-10-22T00:30:00",
      "eventActual": "106.40",
      "eventCountry": "Australia",
      "eventExpectedVolatility": "Low",
      "eventName": "CPI Index Number (Q3)",
      "eventTimeZone": "GMT",
      "eventPrevious": "105.90",
      "eventCurrency": "AUD",
      "eventForecast": ""
    },
    {
      "eventDateTime": "2014-10-22T00:30:00",
      "eventActual": "0.4%",
      "eventCountry": "Australia",
      "eventExpectedVolatility": "Moderate",
      "eventName": "Trimmed Mean CPI (QoQ) (Q3)",
      "eventTimeZone": "GMT",
      "eventPrevious": "0.8%",
      "eventCurrency": "AUD",
      "eventForecast": "0.5%"
    },
    {
      "eventDateTime": "2014-10-22T00:30:00",
      "eventActual": "2.5%",
      "eventCountry": "Australia",
      "eventExpectedVolatility": "Low",
      "eventName": "Trimmed Mean CPI (YoY) (Q3)",
      "eventTimeZone": "GMT",
      "eventPrevious": "2.8%",
      "eventCurrency": "AUD",
      "eventForecast": "2.7%"
    },
    {
      "eventDateTime": "2014-10-22T00:30:00",
      "eventActual": "0.6%",
      "eventCountry": "Australia",
      "eventExpectedVolatility": "Low",
      "eventName": "Weighted mean CPI (QoQ) (Q3)",
      "eventTimeZone": "GMT",
      "eventPrevious": "0.6%",
      "eventCurrency": "AUD",
      "eventForecast": "0.6%"
    },
    {
      "eventDateTime": "2014-10-22T00:30:00",
      "eventActual": "2.6%",
      "eventCountry": "Australia",
      "eventExpectedVolatility": "Low",
      "eventName": "Weighted mean CPI (YoY) (Q3)",
      "eventTimeZone": "GMT",
      "eventPrevious": "2.6%",
      "eventCurrency": "AUD",
      "eventForecast": "2.6%"
    },
    {
      "eventDateTime": "2014-10-22T21:00:00",
      "eventActual": "",
      "eventCountry": "Australia",
      "eventExpectedVolatility": "Moderate",
      "eventName": "RBA Governor Stevens Speaks",
      "eventTimeZone": "GMT",
      "eventPrevious": "",
      "eventCurrency": "AUD",
      "eventForecast": ""
    }
  ]}}
