{"events": {"event": {
    "eventDateTime": "2012-05-29T09:30:00",
    "eventActual": "2.70%",
    "eventCountry": "South Africa",
    "eventExpectedVolatility": "Moderate",
    "eventName": "GDP Annualized (QoQ)",
    "eventTimeZone": "GMT",
    "eventPrevious": "3.20%",
    "eventCurrency": "ZAR",
    "eventForecast": "2.40%"
  }}}
