{"events": {"event": [
    {
      "eventDateTime": "2016-04-29T01:30:00",
      "eventActual": "0.5%",
      "eventCountry": "Australia",
      "eventExpectedVolatility": "Low",
      "eventName": "Housing Credit (Mar)",
      "eventTimeZone": "GMT",
      "eventPrevious": "0.5%",
      "eventCurrency": "AUD",
      "eventForecast": ""
    },
    {
      "eventDateTime": "2016-04-29T01:30:00",
      "eventActual": "-0.2%",
      "eventCountry": "Australia",
      "eventExpectedVolatility": "Moderate",
      "eventName": "PPI (QoQ) (Q1)",
      "eventTimeZone": "GMT",
      "eventPrevious": "0.3%",
      "eventCurrency": "AUD",
      "eventForecast": "0.2%"
    },
    {
      "eventDateTime": "2016-04-29T01:30:00",
      "eventActual": "1.2%",
      "eventCountry": "Australia",
      "eventExpectedVolatility": "Moderate",
      "eventName": "PPI (YoY) (Q1)",
      "eventTimeZone": "GMT",
      "eventPrevious": "1.9%",
      "eventCurrency": "AUD",
      "eventForecast": ""
    },
    {
      "eventDateTime": "2016-04-29T01:30:00",
      "eventActual": "0.4%",
      "eventCountry": "Australia",
      "eventExpectedVolatility": "Moderate",
      "eventName": "Private Sector Credit (MoM) (Mar)",
      "eventTimeZone": "GMT",
      "eventPrevious": "0.6%",
      "eventCurrency": "AUD",
      "eventForecast": "0.6%"
    },
    {
      "eventDateTime": "2016-04-29T03:45:00",
      "eventActual": "",
      "eventCountry": "Australia",
      "eventExpectedVolatility": "Moderate",
      "eventName": "RBA Assist Gov Debelle Speaks",
      "eventTimeZone": "GMT",
      "eventPrevious": "",
      "eventCurrency": "AUD",
      "eventForecast": ""
    },
    {
      "eventDateTime": "2016-04-29T19:30:00",
      "eventActual": "59.5K",
      "eventCountry": "Australia",
      "eventExpectedVolatility": "Moderate",
      "eventName": "CFTC AUD speculative net positions",
      "eventTimeZone": "GMT",
      "eventPrevious": "44.1K",
      "eventCurrency": "AUD",
      "eventForecast": ""
    }
  ]}}
