{"events": {"event": [
    {
      "eventDateTime": "2012-03-20T13:00:00",
      "eventActual": "7.7%",
      "eventCountry": "Russia",
      "eventExpectedVolatility": "Moderate",
      "eventName": "Retail Sales (YoY)",
      "eventTimeZone": "GMT",
      "eventPrevious": "6.8%",
      "eventCurrency": "RUB",
      "eventForecast": "7.3%"
    },
    {
      "eventDateTime": "2012-03-20T13:00:00",
      "eventActual": "6.5%",
      "eventCountry": "Russia",
      "eventExpectedVolatility": "Moderate",
      "eventName": "Unemployment Rate",
      "eventTimeZone": "GMT",
      "eventPrevious": "6.6%",
      "eventCurrency": "RUB",
      "eventForecast": "6.7%"
    }
  ]}}
