{"events": {"event": {
    "eventDateTime": "2019-06-13T07:00:00",
    "eventActual": "6.80%",
    "eventCountry": "China",
    "eventExpectedVolatility": "Low",
    "eventName": "FDI (May)",
    "eventTimeZone": "GMT",
    "eventPrevious": "6.40%",
    "eventCurrency": "CNY",
    "eventForecast": ""
  }}}
