{"events": {"event": [
    {
      "eventDateTime": "2007-02-01T09:00:00",
      "eventActual": "10.90%",
      "eventCountry": "Russia",
      "eventExpectedVolatility": "Low",
      "eventName": "Budget Balance % of GDP (Jan)",
      "eventTimeZone": "GMT",
      "eventPrevious": "7.50%",
      "eventCurrency": "RUB",
      "eventForecast": ""
    },
    {
      "eventDateTime": "2007-02-01T09:00:00",
      "eventActual": "1.70%",
      "eventCountry": "Russia",
      "eventExpectedVolatility": "Moderate",
      "eventName": "CPI (MoM) (Jan)",
      "eventTimeZone": "GMT",
      "eventPrevious": "0.80%",
      "eventCurrency": "RUB",
      "eventForecast": ""
    },
    {
      "eventDateTime": "2007-02-01T09:00:00",
      "eventActual": "8.20%",
      "eventCountry": "Russia",
      "eventExpectedVolatility": "Moderate",
      "eventName": "CPI (YoY) (Jan)",
      "eventTimeZone": "GMT",
      "eventPrevious": "9.00%",
      "eventCurrency": "RUB",
      "eventForecast": ""
    },
    {
      "eventDateTime": "2007-02-01T09:00:00",
      "eventActual": "304.60B",
      "eventCountry": "Russia",
      "eventExpectedVolatility": "Moderate",
      "eventName": "Central Bank reserves (USD) (Jan)",
      "eventTimeZone": "GMT",
      "eventPrevious": "303.00B",
      "eventCurrency": "RUB",
      "eventForecast": ""
    },
    {
      "eventDateTime": "2007-02-01T09:00:00",
      "eventActual": "8.60%",
      "eventCountry": "Russia",
      "eventExpectedVolatility": "Moderate",
      "eventName": "GDP Monthly (YoY) (Jan)",
      "eventTimeZone": "GMT",
      "eventPrevious": "7.40%",
      "eventCurrency": "RUB",
      "eventForecast": ""
    },
    {
      "eventDateTime": "2007-02-01T09:00:00",
      "eventActual": "9.70%",
      "eventCountry": "Russia",
      "eventExpectedVolatility": "Low",
      "eventName": "Industrial Production (YoY) (Jan)",
      "eventTimeZone": "GMT",
      "eventPrevious": "5.60%",
      "eventCurrency": "RUB",
      "eventForecast": ""
    },
    {
      "eventDateTime": "2007-02-01T09:00:00",
      "eventActual": "6.50%",
      "eventCountry": "Russia",
      "eventExpectedVolatility": "High",
      "eventName": "Interest Rate Decision (Jan)",
      "eventTimeZone": "GMT",
      "eventPrevious": "6.50%",
      "eventCurrency": "RUB",
      "eventForecast": ""
    },
    {
      "eventDateTime": "2007-02-01T09:00:00",
      "eventActual": "1.90%",
      "eventCountry": "Russia",
      "eventExpectedVolatility": "Low",
      "eventName": "PPI (MoM) (Jan)",
      "eventTimeZone": "GMT",
      "eventPrevious": "1.00%",
      "eventCurrency": "RUB",
      "eventForecast": ""
    },
    {
      "eventDateTime": "2007-02-01T09:00:00",
      "eventActual": "11.90%",
      "eventCountry": "Russia",
      "eventExpectedVolatility": "Low",
      "eventName": "PPI (YoY) (Jan)",
      "eventTimeZone": "GMT",
      "eventPrevious": "12.40%",
      "eventCurrency": "RUB",
      "eventForecast": ""
    },
    {
      "eventDateTime": "2007-02-01T09:00:00",
      "eventActual": "9.63B",
      "eventCountry": "Russia",
      "eventExpectedVolatility": "Low",
      "eventName": "Trade Balance (Jan)",
      "eventTimeZone": "GMT",
      "eventPrevious": "8.73B",
      "eventCurrency": "RUB",
      "eventForecast": ""
    },
    {
      "eventDateTime": "2007-02-01T09:00:00",
      "eventActual": "7.10%",
      "eventCountry": "Russia",
      "eventExpectedVolatility": "Moderate",
      "eventName": "Unemployment Rate (Jan)",
      "eventTimeZone": "GMT",
      "eventPrevious": "6.90%",
      "eventCurrency": "RUB",
      "eventForecast": ""
    }
  ]}}
