{"events": {"event": {
    "eventDateTime": "2011-08-12T19:30:00",
    "eventActual": "20.4K",
    "eventCountry": "New Zealand",
    "eventExpectedVolatility": "Low",
    "eventName": "CFTC NZD speculative net positions",
    "eventTimeZone": "GMT",
    "eventPrevious": "24.1K",
    "eventCurrency": "NZD",
    "eventForecast": ""
  }}}
