"Nonfarm Payrolls (Oct)";"United States";"USD";"2001-11-02T12:30:00";"GMT";"-241K";"";"-325K";"High"
"U.S. Baker Hughes Oil Rig Count";"United States";"USD";"2001-11-02T17:00:00";"GMT";"187";"";"184";"Moderate"
"CFTC Crude Oil speculative net positions";"United States";"USD";"2001-11-02T20:30:00";"GMT";"-37.4k";"";"-44.7k";"Moderate"
