{"events": {"event": [
    {
      "eventDateTime": "2019-04-11T09:30:00",
      "eventActual": "-20.6%",
      "eventCountry": "South Africa",
      "eventExpectedVolatility": "Low",
      "eventName": "Gold Production (YoY) (Feb)",
      "eventTimeZone": "GMT",
      "eventPrevious": "-22.8%",
      "eventCurrency": "ZAR",
      "eventForecast": ""
    },
    {
      "eventDateTime": "2019-04-11T09:30:00",
      "eventActual": "-7.5%",
      "eventCountry": "South Africa",
      "eventExpectedVolatility": "Low",
      "eventName": "Mining Production (Feb)",
      "eventTimeZone": "GMT",
      "eventPrevious": "-3.3%",
      "eventCurrency": "ZAR",
      "eventForecast": "-3.2%"
    },
    {
      "eventDateTime": "2019-04-11T11:00:00",
      "eventActual": "-1.8%",
      "eventCountry": "South Africa",
      "eventExpectedVolatility": "Low",
      "eventName": "Manufacturing Production (MoM) (Feb)",
      "eventTimeZone": "GMT",
      "eventPrevious": "-2.0%",
      "eventCurrency": "ZAR",
      "eventForecast": "-1.4%"
    }
  ]}}
