{"events": {"event": [
    {
      "eventDateTime": "2017-09-21T05:45:00",
      "eventActual": "",
      "eventCountry": "Switzerland",
      "eventExpectedVolatility": "Low",
      "eventName": "SECO Economic Forecasts",
      "eventTimeZone": "GMT",
      "eventPrevious": "",
      "eventCurrency": "CHF",
      "eventForecast": ""
    },
    {
      "eventDateTime": "2017-09-21T06:00:00",
      "eventActual": "2.173B",
      "eventCountry": "Switzerland",
      "eventExpectedVolatility": "Low",
      "eventName": "Trade Balance (Aug)",
      "eventTimeZone": "GMT",
      "eventPrevious": "3.494B",
      "eventCurrency": "CHF",
      "eventForecast": "2.410B"
    }
  ]}}
