"German Import Price Index (MoM)";"Germany";"EUR";"2011-03-25T07:00:00";"GMT";"1.5%";"1.0%";"1.1%";"Low"
"French Consumer Confidence";"France";"EUR";"2011-03-25T07:45:00";"GMT";"85";"84";"83";"Low"
"Spanish PPI (YoY)";"Spain";"EUR";"2011-03-25T08:00:00";"GMT";"6.8%";"7.2%";"7.6%";"Low"
"German Business Expectations";"Germany";"EUR";"2011-03-25T09:00:00";"GMT";"107.9";"107.0";"106.5";"Moderate"
"German Current Assessment";"Germany";"EUR";"2011-03-25T09:00:00";"GMT";"114.8";"114.8";"115.8";"Moderate"
"German Ifo Business Climate Index";"Germany";"EUR";"2011-03-25T09:00:00";"GMT";"102.4";"";"102.0";"High"
"Italian Retail Sales (MoM)";"Italy";"EUR";"2011-03-25T09:00:00";"GMT";"0.2%";"0.4%";"-0.3%";"Low"
"M3 Money Supply (YoY)";"Euro Zone";"EUR";"2011-03-25T09:00:00";"GMT";"1.5%";"1.7%";"2.0%";"Low"
"Private Sector Loans (YoY)";"Euro Zone";"EUR";"2011-03-25T09:00:00";"GMT";"2.4%";"2.6%";"2.6%";"Low"
"CFTC EUR speculative net positions";"Euro Zone";"EUR";"2011-03-25T19:30:00";"GMT";"46.3K";"";"48.4K";"Moderate"
