"OPEC Monthly Report";"United States";"USD";"2017-01-18T11:55:00";"GMT";" ";"";"";"Moderate"
"MBA 30-Year Mortgage Rate";"United States";"USD";"2017-01-18T12:00:00";"GMT";"4.32%";"";"4.27%";"Low"
"MBA Mortgage Applications (WoW)";"United States";"USD";"2017-01-18T12:00:00";"GMT";"5.8%";"";"0.8%";"Low"
"MBA Purchase Index";"United States";"USD";"2017-01-18T12:00:00";"GMT";"241.9";"";"229.4";"Low"
"Mortgage Market Index";"United States";"USD";"2017-01-18T12:00:00";"GMT";"379.2";"";"382.2";"Low"
"Mortgage Refinance Index";"United States";"USD";"2017-01-18T12:00:00";"GMT";"1,182.3";"";"1,263.2";"Low"
"CPI (MoM) (Dec)";"United States";"USD";"2017-01-18T13:30:00";"GMT";"0.2%";"0.3%";"0.3%";"Moderate"
"CPI (YoY) (Dec)";"United States";"USD";"2017-01-18T13:30:00";"GMT";"1.7%";"2.1%";"2.1%";"Low"
"CPI Index, n.s.a. (Dec)";"United States";"USD";"2017-01-18T13:30:00";"GMT";"241.35";"241.71";"241.43";"Low"
"Core CPI (MoM) (Dec)";"United States";"USD";"2017-01-18T13:30:00";"GMT";"0.2%";"0.2%";"0.2%";"High"
"Core CPI (YoY) (Dec)";"United States";"USD";"2017-01-18T13:30:00";"GMT";"2.1%";"2.2%";"2.2%";"Moderate"
"Core CPI Index (Dec)";"United States";"USD";"2017-01-18T13:30:00";"GMT";"249.36";"249.70";"249.93";"Low"
"Real Earnings (MoM) (Dec)";"United States";"USD";"2017-01-18T13:30:00";"GMT";"-0.6%";"";"0.1%";"Low"
"Redbook (MoM)";"United States";"USD";"2017-01-18T13:55:00";"GMT";"-3.1%";"";"-3.4%";"Low"
"Redbook (YoY)";"United States";"USD";"2017-01-18T13:55:00";"GMT";"0.9%";"";"0.3%";"Low"
"FOMC Member Kaplan Speaks";"United States";"USD";"2017-01-18T14:00:00";"GMT";" ";"";"";"Moderate"
"Capacity Utilization Rate (Dec)";"United States";"USD";"2017-01-18T14:15:00";"GMT";"74.9%";"75.4%";"75.5%";"Low"
"Industrial Production (MoM) (Dec)";"United States";"USD";"2017-01-18T14:15:00";"GMT";"-0.7%";"0.6%";"0.8%";"Moderate"
"Manufacturing Production (MoM) (Dec)";"United States";"USD";"2017-01-18T14:15:00";"GMT";"-0.1%";"0.4%";"0.2%";"Low"
"NAHB Housing Market Index (Jan)";"United States";"USD";"2017-01-18T15:00:00";"GMT";"69";"69";"67";"Low"
"Cleveland CPI (MoM) (Dec)";"United States";"USD";"2017-01-18T16:00:00";"GMT";"0.2%";"";"0.2%";"Low"
"FOMC Member Kashkari Speaks";"United States";"USD";"2017-01-18T16:00:00";"GMT";" ";"";"";"Moderate"
"Beige Book";"United States";"USD";"2017-01-18T19:00:00";"GMT";" ";"";"";"Moderate"
"Fed Chair Yellen Speaks";"United States";"USD";"2017-01-18T20:00:00";"GMT";" ";"";"";"High"
"Overall Net Capital Flow (Nov)";"United States";"USD";"2017-01-18T21:00:00";"GMT";"20.60B";"";"23.70B";"Low"
"TIC Net Long-Term Transactions (Nov)";"United States";"USD";"2017-01-18T21:00:00";"GMT";"9.3B";"21.3B";"30.8B";"Moderate"
"TIC Net Long-Term Transactions including Swaps (Nov)";"United States";"USD";"2017-01-18T21:00:00";"GMT";"-12.60B";"";"12.10B";"Low"
"US Foreign Buying, T-bonds (Nov)";"United States";"USD";"2017-01-18T21:00:00";"GMT";"-63.50B";"";"-0.21B";"Low"
"API Weekly Crude Oil Stock";"United States";"USD";"2017-01-18T21:35:00";"GMT";"1.500M";"0.300M";"-5.040M";"Moderate"
