{"events": {"event": {
    "eventDateTime": "2018-09-27T21:45:00",
    "eventActual": "",
    "eventCountry": "Canada",
    "eventExpectedVolatility": "High",
    "eventName": "BoC Gov Poloz Speaks",
    "eventTimeZone": "GMT",
    "eventPrevious": "",
    "eventCurrency": "CAD",
    "eventForecast": ""
  }}}
