{"events": {"event": {
    "eventDateTime": "2013-06-03T09:00:00",
    "eventActual": "50.4",
    "eventCountry": "South Africa",
    "eventExpectedVolatility": "Low",
    "eventName": "Manufacturing PMI",
    "eventTimeZone": "GMT",
    "eventPrevious": "50.5",
    "eventCurrency": "ZAR",
    "eventForecast": ""
  }}}
