"French Business Survey (Mar)";"France";"EUR";"2018-03-22T07:45:00";"GMT";"112";"111";"111";"Low"
"French Manufacturing PMI (Mar)";"France";"EUR";"2018-03-22T08:00:00";"GMT";"55.9";"55.6";"53.6";"Moderate"
"French Markit Composite PMI (Mar)";"France";"EUR";"2018-03-22T08:00:00";"GMT";"57.3";"57.0";"56.2";"Low"
"French Services PMI (Mar)";"France";"EUR";"2018-03-22T08:00:00";"GMT";"57.4";"57.0";"56.8";"Moderate"
"ECB's Lautenschlaeger Speaks";"Euro Zone";"EUR";"2018-03-22T08:30:00";"GMT";" ";"";"";"Moderate"
"German Composite PMI (Mar)";"Germany";"EUR";"2018-03-22T08:30:00";"GMT";"57.6";"57.0";"55.4";"Low"
"German Manufacturing PMI (Mar)";"Germany";"EUR";"2018-03-22T08:30:00";"GMT";"60.6";"59.8";"58.4";"High"
"German Services PMI (Mar)";"Germany";"EUR";"2018-03-22T08:30:00";"GMT";"55.3";"55.0";"54.2";"Moderate"
"Current Account (Jan)";"Euro Zone";"EUR";"2018-03-22T09:00:00";"GMT";"31.0B";"30.2B";"37.6B";"Low"
"Current Account n.s.a. (Jan)";"Euro Zone";"EUR";"2018-03-22T09:00:00";"GMT";"46.8B";"";"12.8B";"Low"
"ECB Economic Bulletin";"Euro Zone";"EUR";"2018-03-22T09:00:00";"GMT";" ";"";"";"Moderate"
"German Business Expectations (Mar)";"Germany";"EUR";"2018-03-22T09:00:00";"GMT";"105.4";"104.4";"104.4";"Moderate"
"German Current Assessment (Mar)";"Germany";"EUR";"2018-03-22T09:00:00";"GMT";"126.4";"125.7";"125.9";"Moderate"
"German Ifo Business Climate Index (Mar)";"Germany";"EUR";"2018-03-22T09:00:00";"GMT";"104.3";"";"103.5";"High"
"Manufacturing PMI (Mar)";"Euro Zone";"EUR";"2018-03-22T09:00:00";"GMT";"58.6";"58.1";"56.6";"Moderate"
"Markit Composite PMI (Mar)";"Euro Zone";"EUR";"2018-03-22T09:00:00";"GMT";"57.1";"56.7";"55.3";"Moderate"
"Services PMI (Mar)";"Euro Zone";"EUR";"2018-03-22T09:00:00";"GMT";"56.2";"56.0";"55.0";"Moderate"
