"GlobalDairyTrade Price Index";"New Zealand";"NZD";"2019-02-06T14:30:00";"GMT";"4.2%";"";"6.7%";"Moderate"
"Employment Change (QoQ) (Q4)";"New Zealand";"NZD";"2019-02-06T21:45:00";"GMT";"1.1%";"0.3%";"0.1%";"High"
"Labor Cost Index (QoQ) (Q4)";"New Zealand";"NZD";"2019-02-06T21:45:00";"GMT";"0.5%";"0.6%";"0.5%";"Low"
"Labor Cost Index (YoY) (Q4)";"New Zealand";"NZD";"2019-02-06T21:45:00";"GMT";"1.9%";"2.0%";"2.0%";"Low"
"Participation Rate (Q4)";"New Zealand";"NZD";"2019-02-06T21:45:00";"GMT";"71.10%";"71.00%";"70.90%";"Low"
"Unemployment Rate (Q4)";"New Zealand";"NZD";"2019-02-06T21:45:00";"GMT";"3.9%";"4.1%";"4.3%";"Moderate"
