{"events": {"event": {
    "eventDateTime": "2015-07-03T01:30:00",
    "eventActual": "0.3%",
    "eventCountry": "Australia",
    "eventExpectedVolatility": "High",
    "eventName": "Retail Sales (MoM) (May)",
    "eventTimeZone": "GMT",
    "eventPrevious": "-0.1%",
    "eventCurrency": "AUD",
    "eventForecast": "0.5%"
  }}}
