{"events": {"event": {
    "eventDateTime": "2013-09-25T10:00:00",
    "eventActual": "34",
    "eventCountry": "United Kingdom",
    "eventExpectedVolatility": "Low",
    "eventName": "CBI Distributive Trades Survey",
    "eventTimeZone": "GMT",
    "eventPrevious": "27",
    "eventCurrency": "GBP",
    "eventForecast": "24"
  }}}
