{"events": {"event": [
    {
      "eventDateTime": "2008-02-08T17:00:00",
      "eventActual": "324",
      "eventCountry": "United States",
      "eventExpectedVolatility": "Moderate",
      "eventName": "U.S. Baker Hughes Oil Rig Count",
      "eventTimeZone": "GMT",
      "eventPrevious": "324",
      "eventCurrency": "USD",
      "eventForecast": ""
    },
    {
      "eventDateTime": "2008-02-08T20:30:00",
      "eventActual": "20.8k",
      "eventCountry": "United States",
      "eventExpectedVolatility": "Moderate",
      "eventName": "CFTC Crude Oil speculative net positions",
      "eventTimeZone": "GMT",
      "eventPrevious": "21.3k",
      "eventCurrency": "USD",
      "eventForecast": ""
    },
    {
      "eventDateTime": "2008-02-08T20:30:00",
      "eventActual": "203.7K",
      "eventCountry": "United States",
      "eventExpectedVolatility": "Moderate",
      "eventName": "CFTC Gold speculative net positions",
      "eventTimeZone": "GMT",
      "eventPrevious": "205.8K",
      "eventCurrency": "USD",
      "eventForecast": ""
    },
    {
      "eventDateTime": "2008-02-08T20:30:00",
      "eventActual": "49.8K",
      "eventCountry": "United States",
      "eventExpectedVolatility": "Low",
      "eventName": "CFTC Silver speculative net positions",
      "eventTimeZone": "GMT",
      "eventPrevious": "46.1K",
      "eventCurrency": "USD",
      "eventForecast": ""
    }
  ]}}
