{"events": {"event": [
    {
      "eventDateTime": "2018-03-07T13:30:00",
      "eventActual": "45.84B",
      "eventCountry": "Canada",
      "eventExpectedVolatility": "Low",
      "eventName": "Exports (Jan)",
      "eventTimeZone": "GMT",
      "eventPrevious": "46.82B",
      "eventCurrency": "CAD",
      "eventForecast": ""
    },
    {
      "eventDateTime": "2018-03-07T13:30:00",
      "eventActual": "47.75B",
      "eventCountry": "Canada",
      "eventExpectedVolatility": "Low",
      "eventName": "Imports (Jan)",
      "eventTimeZone": "GMT",
      "eventPrevious": "49.87B",
      "eventCurrency": "CAD",
      "eventForecast": ""
    },
    {
      "eventDateTime": "2018-03-07T13:30:00",
      "eventActual": "0.2%",
      "eventCountry": "Canada",
      "eventExpectedVolatility": "Moderate",
      "eventName": "Labor Productivity (QoQ) (Q4)",
      "eventTimeZone": "GMT",
      "eventPrevious": "-0.5%",
      "eventCurrency": "CAD",
      "eventForecast": "0.1%"
    },
    {
      "eventDateTime": "2018-03-07T13:30:00",
      "eventActual": "-1.91B",
      "eventCountry": "Canada",
      "eventExpectedVolatility": "Moderate",
      "eventName": "Trade Balance (Jan)",
      "eventTimeZone": "GMT",
      "eventPrevious": "-3.05B",
      "eventCurrency": "CAD",
      "eventForecast": "-2.50B"
    },
    {
      "eventDateTime": "2018-03-07T15:00:00",
      "eventActual": "1.25%",
      "eventCountry": "Canada",
      "eventExpectedVolatility": "High",
      "eventName": "BoC Interest Rate Decision",
      "eventTimeZone": "GMT",
      "eventPrevious": "1.25%",
      "eventCurrency": "CAD",
      "eventForecast": "1.25%"
    },
    {
      "eventDateTime": "2018-03-07T15:00:00",
      "eventActual": "",
      "eventCountry": "Canada",
      "eventExpectedVolatility": "Moderate",
      "eventName": "BoC Rate Statement",
      "eventTimeZone": "GMT",
      "eventPrevious": "",
      "eventCurrency": "CAD",
      "eventForecast": ""
    }
  ]}}
