{"events": {"event": {
    "eventDateTime": "2015-11-04T01:45:00",
    "eventActual": "52.0",
    "eventCountry": "China",
    "eventExpectedVolatility": "Moderate",
    "eventName": "Caixin Services PMI (Oct)",
    "eventTimeZone": "GMT",
    "eventPrevious": "50.5",
    "eventCurrency": "CNY",
    "eventForecast": "50.8"
  }}}
