{"events": {"event": {
    "eventDateTime": "2015-04-21T09:35:00",
    "eventActual": "2.340%",
    "eventCountry": "United Kingdom",
    "eventExpectedVolatility": "Low",
    "eventName": "30-Year Treasury Gilt Auction",
    "eventTimeZone": "GMT",
    "eventPrevious": "2.360%",
    "eventCurrency": "GBP",
    "eventForecast": ""
  }}}
