{"events": {"event": [
    {
      "eventDateTime": "2013-01-22T13:30:00",
      "eventActual": "-0.3%",
      "eventCountry": "Canada",
      "eventExpectedVolatility": "High",
      "eventName": "Core Retail Sales (MoM)",
      "eventTimeZone": "GMT",
      "eventPrevious": "0.2%",
      "eventCurrency": "CAD",
      "eventForecast": "0.0%"
    },
    {
      "eventDateTime": "2013-01-22T13:30:00",
      "eventActual": "0.2%",
      "eventCountry": "Canada",
      "eventExpectedVolatility": "Moderate",
      "eventName": "Retail Sales (MoM)",
      "eventTimeZone": "GMT",
      "eventPrevious": "0.5%",
      "eventCurrency": "CAD",
      "eventForecast": "-0.2%"
    }
  ]}}
