{"events": {"event": [
    {
      "eventDateTime": "2013-01-07T09:30:00",
      "eventActual": "-7.0",
      "eventCountry": "Euro Zone",
      "eventExpectedVolatility": "Low",
      "eventName": "Sentix Investor Confidence",
      "eventTimeZone": "GMT",
      "eventPrevious": "-16.8",
      "eventCurrency": "EUR",
      "eventForecast": "-15.0"
    },
    {
      "eventDateTime": "2013-01-07T10:00:00",
      "eventActual": "-0.2%",
      "eventCountry": "Euro Zone",
      "eventExpectedVolatility": "Low",
      "eventName": "PPI (MoM)",
      "eventTimeZone": "GMT",
      "eventPrevious": "0.1%",
      "eventCurrency": "EUR",
      "eventForecast": "0.1%"
    },
    {
      "eventDateTime": "2013-01-07T10:30:00",
      "eventActual": "-0.009%",
      "eventCountry": "Germany",
      "eventExpectedVolatility": "Low",
      "eventName": "German 6-Month Bubill Auction",
      "eventTimeZone": "GMT",
      "eventPrevious": "-0.017%",
      "eventCurrency": "EUR",
      "eventForecast": ""
    },
    {
      "eventDateTime": "2013-01-07T14:00:00",
      "eventActual": "0.035%",
      "eventCountry": "France",
      "eventExpectedVolatility": "Low",
      "eventName": "French 12-Month BTF Auction",
      "eventTimeZone": "GMT",
      "eventPrevious": "0.022%",
      "eventCurrency": "EUR",
      "eventForecast": ""
    },
    {
      "eventDateTime": "2013-01-07T14:00:00",
      "eventActual": "-0.010%",
      "eventCountry": "France",
      "eventExpectedVolatility": "Low",
      "eventName": "French 3-Month BTF Auction",
      "eventTimeZone": "GMT",
      "eventPrevious": "-0.015%",
      "eventCurrency": "EUR",
      "eventForecast": ""
    },
    {
      "eventDateTime": "2013-01-07T14:00:00",
      "eventActual": "0.000%",
      "eventCountry": "France",
      "eventExpectedVolatility": "Low",
      "eventName": "French 6-Month BTF Auction",
      "eventTimeZone": "GMT",
      "eventPrevious": "-0.003%",
      "eventCurrency": "EUR",
      "eventForecast": ""
    }
  ]}}
