{"events": {"event": {
    "eventDateTime": "2013-08-15T14:30:00",
    "eventActual": "",
    "eventCountry": "Canada",
    "eventExpectedVolatility": "Low",
    "eventName": "BoC Review",
    "eventTimeZone": "GMT",
    "eventPrevious": "",
    "eventCurrency": "CAD",
    "eventForecast": ""
  }}}
