{"events": {"event": [
    {
      "eventDateTime": "2017-11-09T07:00:00",
      "eventActual": "-0.4%",
      "eventCountry": "Germany",
      "eventExpectedVolatility": "Low",
      "eventName": "German Exports (MoM) (Sep)",
      "eventTimeZone": "GMT",
      "eventPrevious": "2.0%",
      "eventCurrency": "EUR",
      "eventForecast": "-1.1%"
    },
    {
      "eventDateTime": "2017-11-09T07:00:00",
      "eventActual": "-1.0%",
      "eventCountry": "Germany",
      "eventExpectedVolatility": "Low",
      "eventName": "German Imports (MoM) (Sep)",
      "eventTimeZone": "GMT",
      "eventPrevious": "0.8%",
      "eventCurrency": "EUR",
      "eventForecast": "0.3%"
    },
    {
      "eventDateTime": "2017-11-09T07:00:00",
      "eventActual": "21.8B",
      "eventCountry": "Germany",
      "eventExpectedVolatility": "Moderate",
      "eventName": "German Trade Balance (Sep)",
      "eventTimeZone": "GMT",
      "eventPrevious": "21.3B",
      "eventCurrency": "EUR",
      "eventForecast": "21.1B"
    },
    {
      "eventDateTime": "2017-11-09T09:00:00",
      "eventActual": "",
      "eventCountry": "Euro Zone",
      "eventExpectedVolatility": "Moderate",
      "eventName": "ECB Economic Bulletin",
      "eventTimeZone": "GMT",
      "eventPrevious": "",
      "eventCurrency": "EUR",
      "eventForecast": ""
    },
    {
      "eventDateTime": "2017-11-09T10:00:00",
      "eventActual": "",
      "eventCountry": "Euro Zone",
      "eventExpectedVolatility": "Moderate",
      "eventName": "ECB's Coeure Speaks",
      "eventTimeZone": "GMT",
      "eventPrevious": "",
      "eventCurrency": "EUR",
      "eventForecast": ""
    },
    {
      "eventDateTime": "2017-11-09T10:00:00",
      "eventActual": "",
      "eventCountry": "Euro Zone",
      "eventExpectedVolatility": "Moderate",
      "eventName": "EU Economic Forecasts",
      "eventTimeZone": "GMT",
      "eventPrevious": "",
      "eventCurrency": "EUR",
      "eventForecast": ""
    },
    {
      "eventDateTime": "2017-11-09T13:45:00",
      "eventActual": "",
      "eventCountry": "Euro Zone",
      "eventExpectedVolatility": "Moderate",
      "eventName": "ECB's Constancio Speaks",
      "eventTimeZone": "GMT",
      "eventPrevious": "",
      "eventCurrency": "EUR",
      "eventForecast": ""
    },
    {
      "eventDateTime": "2017-11-09T18:00:00",
      "eventActual": "",
      "eventCountry": "Germany",
      "eventExpectedVolatility": "Moderate",
      "eventName": "German Buba President Weidmann Speaks",
      "eventTimeZone": "GMT",
      "eventPrevious": "",
      "eventCurrency": "EUR",
      "eventForecast": ""
    },
    {
      "eventDateTime": "2017-11-09T18:20:00",
      "eventActual": "",
      "eventCountry": "Euro Zone",
      "eventExpectedVolatility": "Moderate",
      "eventName": "ECB's Lautenschlaeger Speaks",
      "eventTimeZone": "GMT",
      "eventPrevious": "",
      "eventCurrency": "EUR",
      "eventForecast": ""
    }
  ]}}
