"Electronic Card Retail Sales (MoM) (Feb)";"New Zealand";"NZD";"2013-03-01T09:00:00";"GMT";"0.90%";"";"0.40%";"Moderate"
"Electronic Card Retail Sales (YoY) (Feb)";"New Zealand";"NZD";"2013-03-01T09:00:00";"GMT";"6.20%";"";"2.70%";"Low"
"Exports (Feb)";"New Zealand";"NZD";"2013-03-01T09:00:00";"GMT";"3.35B";"";"3.89B";"Low"
"External Migration andamp; Visitors (Feb)";"New Zealand";"NZD";"2013-03-01T09:00:00";"GMT";"-2.32%";"";"8.55%";"Low"
"Government Monthly Debt (Feb)";"New Zealand";"NZD";"2013-03-01T09:00:00";"GMT";"27.50%";"";"27.60%";"Low"
"Imports (Feb)";"New Zealand";"NZD";"2013-03-01T09:00:00";"GMT";"3.64B";"";"3.46B";"Low"
"NBNZ Own Activity (Feb)";"New Zealand";"NZD";"2013-03-01T09:00:00";"GMT";"31.40%";"";"37.60%";"Low"
"Permanent/Long-Term Migration (Feb)";"New Zealand";"NZD";"2013-03-01T09:00:00";"GMT";"510.00";"";"690.00";"Low"
"RBNZ Offshore Holdings (Feb)";"New Zealand";"NZD";"2013-03-01T09:00:00";"GMT";"64.80%";"";"64.40%";"Low"
"REINZ House Price Index (MoM) (Feb)";"New Zealand";"NZD";"2013-03-01T09:00:00";"GMT";"-1.00%";"";"1.60%";"Low"
"REINZ House Price Index (YoY) (Feb)";"New Zealand";"NZD";"2013-03-01T09:00:00";"GMT";"7.20%";"";"8.10%";"Low"
"Trade Balance (YoY) (Feb)";"New Zealand";"NZD";"2013-03-01T09:00:00";"GMT";"-1,290.00M";"";"-1,070.00M";"Moderate"
"CFTC NZD speculative net positions";"New Zealand";"NZD";"2013-03-01T20:30:00";"GMT";"24.7K";"";"20.3K";"Low"
