{"events": {"event": [
    {
      "eventDateTime": "2014-08-13T02:35:00",
      "eventActual": "13.5%",
      "eventCountry": "China",
      "eventExpectedVolatility": "Low",
      "eventName": "M2 Money Stock (YoY)",
      "eventTimeZone": "GMT",
      "eventPrevious": "14.7%",
      "eventCurrency": "CNY",
      "eventForecast": "14.5%"
    },
    {
      "eventDateTime": "2014-08-13T02:35:00",
      "eventActual": "385B",
      "eventCountry": "China",
      "eventExpectedVolatility": "Moderate",
      "eventName": "New Loans",
      "eventTimeZone": "GMT",
      "eventPrevious": "1,080B",
      "eventCurrency": "CNY",
      "eventForecast": "780B"
    },
    {
      "eventDateTime": "2014-08-13T05:30:00",
      "eventActual": "17.0%",
      "eventCountry": "China",
      "eventExpectedVolatility": "Moderate",
      "eventName": "Fixed Asset Investment (YoY)",
      "eventTimeZone": "GMT",
      "eventPrevious": "17.3%",
      "eventCurrency": "CNY",
      "eventForecast": "17.4%"
    },
    {
      "eventDateTime": "2014-08-13T05:30:00",
      "eventActual": "9.0%",
      "eventCountry": "China",
      "eventExpectedVolatility": "High",
      "eventName": "Industrial Production (YoY)",
      "eventTimeZone": "GMT",
      "eventPrevious": "9.2%",
      "eventCurrency": "CNY",
      "eventForecast": "9.0%"
    },
    {
      "eventDateTime": "2014-08-13T05:30:00",
      "eventActual": "12.2%",
      "eventCountry": "China",
      "eventExpectedVolatility": "Low",
      "eventName": "Retail Sales (YoY)",
      "eventTimeZone": "GMT",
      "eventPrevious": "12.4%",
      "eventCurrency": "CNY",
      "eventForecast": "12.4%"
    }
  ]}}
