{"events": {"event": {
    "eventDateTime": "2014-12-19T20:30:00",
    "eventActual": "-34.3K",
    "eventCountry": "Australia",
    "eventExpectedVolatility": "Moderate",
    "eventName": "CFTC AUD speculative net positions",
    "eventTimeZone": "GMT",
    "eventPrevious": "-45.0K",
    "eventCurrency": "AUD",
    "eventForecast": ""
  }}}
