{"events": {"event": {
    "eventDateTime": "2018-09-07T19:30:00",
    "eventActual": "-24.9K",
    "eventCountry": "New Zealand",
    "eventExpectedVolatility": "Low",
    "eventName": "CFTC NZD speculative net positions",
    "eventTimeZone": "GMT",
    "eventPrevious": "-23.9K",
    "eventCurrency": "NZD",
    "eventForecast": ""
  }}}
