{"events": {"event": [
    {
      "eventDateTime": "2014-10-10T06:45:00",
      "eventActual": "0.0%",
      "eventCountry": "France",
      "eventExpectedVolatility": "Low",
      "eventName": "French Industrial Production (MoM) (Aug)",
      "eventTimeZone": "GMT",
      "eventPrevious": "0.3%",
      "eventCurrency": "EUR",
      "eventForecast": "-0.2%"
    },
    {
      "eventDateTime": "2014-10-10T08:00:00",
      "eventActual": "0.3%",
      "eventCountry": "Italy",
      "eventExpectedVolatility": "Low",
      "eventName": "Italian Industrial Production (MoM) (Aug)",
      "eventTimeZone": "GMT",
      "eventPrevious": "-1.0%",
      "eventCurrency": "EUR",
      "eventForecast": "0.5%"
    },
    {
      "eventDateTime": "2014-10-10T08:00:00",
      "eventActual": "-0.7%",
      "eventCountry": "Italy",
      "eventExpectedVolatility": "Low",
      "eventName": "Italian Industrial Production (YoY) (Aug)",
      "eventTimeZone": "GMT",
      "eventPrevious": "-1.6%",
      "eventCurrency": "EUR",
      "eventForecast": "-0.2%"
    },
    {
      "eventDateTime": "2014-10-10T09:10:00",
      "eventActual": "0.301%",
      "eventCountry": "Italy",
      "eventExpectedVolatility": "Low",
      "eventName": "Italian 12-Month BOT Auction",
      "eventTimeZone": "GMT",
      "eventPrevious": "0.279%",
      "eventCurrency": "EUR",
      "eventForecast": ""
    },
    {
      "eventDateTime": "2014-10-10T19:30:00",
      "eventActual": "-146.2K",
      "eventCountry": "Euro Zone",
      "eventExpectedVolatility": "Moderate",
      "eventName": "CFTC EUR speculative net positions",
      "eventTimeZone": "GMT",
      "eventPrevious": "-137.5K",
      "eventCurrency": "EUR",
      "eventForecast": ""
    }
  ]}}
