{"events": {"event": [
    {
      "eventDateTime": "2012-03-28T11:00:00",
      "eventActual": "-2.7%",
      "eventCountry": "United States",
      "eventExpectedVolatility": "Low",
      "eventName": "MBA Mortgage Applications (WoW)",
      "eventTimeZone": "GMT",
      "eventPrevious": "-7.4%",
      "eventCurrency": "USD",
      "eventForecast": ""
    },
    {
      "eventDateTime": "2012-03-28T12:30:00",
      "eventActual": "1.6%",
      "eventCountry": "United States",
      "eventExpectedVolatility": "High",
      "eventName": "Core Durable Goods Orders (MoM)",
      "eventTimeZone": "GMT",
      "eventPrevious": "-3.0%",
      "eventCurrency": "USD",
      "eventForecast": "1.5%"
    },
    {
      "eventDateTime": "2012-03-28T12:30:00",
      "eventActual": "2.2%",
      "eventCountry": "United States",
      "eventExpectedVolatility": "Moderate",
      "eventName": "Durable Goods Orders (MoM)",
      "eventTimeZone": "GMT",
      "eventPrevious": "-3.6%",
      "eventCurrency": "USD",
      "eventForecast": "3.0%"
    },
    {
      "eventDateTime": "2012-03-28T14:30:00",
      "eventActual": "7.100M",
      "eventCountry": "United States",
      "eventExpectedVolatility": "High",
      "eventName": "Crude Oil Inventories",
      "eventTimeZone": "GMT",
      "eventPrevious": "-1.200M",
      "eventCurrency": "USD",
      "eventForecast": "2.500M"
    },
    {
      "eventDateTime": "2012-03-28T14:30:00",
      "eventActual": "-3.537M",
      "eventCountry": "United States",
      "eventExpectedVolatility": "Low",
      "eventName": "Gasoline Inventories",
      "eventTimeZone": "GMT",
      "eventPrevious": "-1.200M",
      "eventCurrency": "USD",
      "eventForecast": "-1.700M"
    },
    {
      "eventDateTime": "2012-03-28T17:00:00",
      "eventActual": "1.040%",
      "eventCountry": "United States",
      "eventExpectedVolatility": "Low",
      "eventName": "5-Year Note Auction",
      "eventTimeZone": "GMT",
      "eventPrevious": "0.900%",
      "eventCurrency": "USD",
      "eventForecast": ""
    }
  ]}}
