{"events": {"event": {
    "eventDateTime": "2013-09-23T08:30:00",
    "eventActual": "4.50%",
    "eventCountry": "Hong Kong",
    "eventExpectedVolatility": "Low",
    "eventName": "CPI (YoY)",
    "eventTimeZone": "GMT",
    "eventPrevious": "6.90%",
    "eventCurrency": "HKD",
    "eventForecast": "4.40%"
  }}}
