{"events": {"event": [
    {
      "eventDateTime": "2009-05-08T05:45:00",
      "eventActual": "3.4%",
      "eventCountry": "Switzerland",
      "eventExpectedVolatility": "Moderate",
      "eventName": "Unemployment Rate s.a.",
      "eventTimeZone": "GMT",
      "eventPrevious": "3.3%",
      "eventCurrency": "CHF",
      "eventForecast": "3.4%"
    },
    {
      "eventDateTime": "2009-05-08T19:30:00",
      "eventActual": "-0.7K",
      "eventCountry": "Switzerland",
      "eventExpectedVolatility": "Low",
      "eventName": "CFTC CHF speculative net positions",
      "eventTimeZone": "GMT",
      "eventPrevious": "-4.9K",
      "eventCurrency": "CHF",
      "eventForecast": ""
    }
  ]}}
