"Credit Card Spending (YoY)";"New Zealand";"NZD";"2017-11-21T02:00:00";"GMT";"4.9%";"";"2.9%";"Low"
"GlobalDairyTrade Price Index";"New Zealand";"NZD";"2017-11-21T14:15:00";"GMT";"-3.5%";"";"-3.4%";"Moderate"
"External Migration andamp: Visitors (Oct)";"New Zealand";"NZD";"2017-11-21T21:45:00";"GMT";"3.10%";"";"3.90%";"Low"
"Permanent/Long-Term Migration (Oct)";"New Zealand";"NZD";"2017-11-21T21:45:00";"GMT";"5,220";"";"5,580";"Low"
"Visitor Arrivals (MoM)";"New Zealand";"NZD";"2017-11-21T21:45:00";"GMT";"0.4%";"";"1.9%";"Low"
