{"events": {"event": [
    {
      "eventDateTime": "2013-01-09T00:00:00",
      "eventActual": "4.7%",
      "eventCountry": "Australia",
      "eventExpectedVolatility": "Moderate",
      "eventName": "HIA New Home Sales (MoM)",
      "eventTimeZone": "GMT",
      "eventPrevious": "3.4%",
      "eventCurrency": "AUD",
      "eventForecast": ""
    },
    {
      "eventDateTime": "2013-01-09T00:30:00",
      "eventActual": "-0.1%",
      "eventCountry": "Australia",
      "eventExpectedVolatility": "High",
      "eventName": "Retail Sales (MoM)",
      "eventTimeZone": "GMT",
      "eventPrevious": "0.0%",
      "eventCurrency": "AUD",
      "eventForecast": "0.3%"
    }
  ]}}
