{"events": {"event": {
    "eventDateTime": "2017-03-28T23:50:00",
    "eventActual": "0.1%",
    "eventCountry": "Japan",
    "eventExpectedVolatility": "Moderate",
    "eventName": "Retail Sales (YoY) (Feb)",
    "eventTimeZone": "GMT",
    "eventPrevious": "1.0%",
    "eventCurrency": "JPY",
    "eventForecast": "0.5%"
  }}}
