"Building Consents (MoM) (Mar)";"New Zealand";"NZD";"2017-04-27T22:45:00";"GMT";"17.2%";"";"-1.8%";"Moderate"
"Exports (Mar)";"New Zealand";"NZD";"2017-04-27T22:45:00";"GMT";"4.01B";"4.66B";"4.65B";"Low"
"Imports (Mar)";"New Zealand";"NZD";"2017-04-27T22:45:00";"GMT";"4.06B";"4.30B";"4.31B";"Low"
"Trade Balance (MoM) (Mar)";"New Zealand";"NZD";"2017-04-27T22:45:00";"GMT";"-50M";"370M";"332M";"Moderate"
"Trade Balance (YoY) (Mar)";"New Zealand";"NZD";"2017-04-27T22:45:00";"GMT";"-3,810M";"-3,607M";"-3,670M";"Moderate"
