"GfK German Consumer Climate (Mar)";"Germany";"EUR";"2018-02-28T07:00:00";"GMT";"11.0";"10.8";"10.8";"Moderate"
"French CPI (MoM)";"France";"EUR";"2018-02-28T07:45:00";"GMT";"-0.1%";"0.3%";"-0.1%";"Moderate"
"French Consumer Spending (MoM) (Jan)";"France";"EUR";"2018-02-28T07:45:00";"GMT";"-1.2%";"0.5%";"-1.9%";"Moderate"
"French GDP (QoQ) (Q4)";"France";"EUR";"2018-02-28T07:45:00";"GMT";"0.6%";"0.6%";"0.6%";"Moderate"
"French HICP (MoM)";"France";"EUR";"2018-02-28T07:45:00";"GMT";"-0.1%";"";"0.0%";"Moderate"
"French HICP (YoY)";"France";"EUR";"2018-02-28T07:45:00";"GMT";"1.5%";"1.5%";"1.4%";"Low"
"French PPI (MoM) (Jan)";"France";"EUR";"2018-02-28T07:45:00";"GMT";"0.0%";"";"0.1%";"Low"
"German Unemployment (Feb)";"Germany";"EUR";"2018-02-28T08:55:00";"GMT";"2.415M";"";"2.393M";"Low"
"German Unemployment Change (Feb)";"Germany";"EUR";"2018-02-28T08:55:00";"GMT";"-25K";"-15K";"-22K";"High"
"German Unemployment Rate (Feb)";"Germany";"EUR";"2018-02-28T08:55:00";"GMT";"5.4%";"5.4%";"5.4%";"Moderate"
"German Unemployment n.s.a. (Feb)";"Germany";"EUR";"2018-02-28T08:55:00";"GMT";"2.570M";"";"2.546M";"Low"
"Spanish Current account (Dec)";"Spain";"EUR";"2018-02-28T09:00:00";"GMT";"3.04B";"";"2.64B";"Low"
"CPI (YoY) (Feb)";"Euro Zone";"EUR";"2018-02-28T10:00:00";"GMT";"1.3%";"1.2%";"1.2%";"High"
"Core CPI (YoY)";"Euro Zone";"EUR";"2018-02-28T10:00:00";"GMT";"1.0%";"1.0%";"1.0%";"Moderate"
"Italian CPI (MoM) (Feb)";"Italy";"EUR";"2018-02-28T10:00:00";"GMT";"0.3%";"0.3%";"0.1%";"Moderate"
"Italian CPI (YoY) (Feb)";"Italy";"EUR";"2018-02-28T10:00:00";"GMT";"0.8%";"0.7%";"0.6%";"Low"
"Italian HICP (MoM) (Feb)";"Italy";"EUR";"2018-02-28T10:00:00";"GMT";"0.3%";"-0.1%";"-0.3%";"Low"
"Italian HICP (YoY) (Feb)";"Italy";"EUR";"2018-02-28T10:00:00";"GMT";"1.1%";"1.0%";"0.7%";"Low"
"German 10-Year Bund Auction";"Germany";"EUR";"2018-02-28T10:35:00";"GMT";"0.690%";"";"0.670%";"Moderate"
