{"events": {"event": {
    "eventDateTime": "2018-02-16T20:30:00",
    "eventActual": "-115.5K",
    "eventCountry": "Japan",
    "eventExpectedVolatility": "Moderate",
    "eventName": "CFTC JPY speculative net positions",
    "eventTimeZone": "GMT",
    "eventPrevious": "-112.9K",
    "eventCurrency": "JPY",
    "eventForecast": ""
  }}}
