"CPI (MoM) (May)";"South Korea";"KRW";"2007-06-01T09:00:00";"GMT";"0.40%";"";"0.10%";"Low"
"CPI (YoY) (May)";"South Korea";"KRW";"2007-06-01T09:00:00";"GMT";"2.50%";"";"2.30%";"Moderate"
"Current Account (May)";"South Korea";"KRW";"2007-06-01T09:00:00";"GMT";"0.09B";"";"-1.58B";"Low"
"Export Price Index (YoY) (May)";"South Korea";"KRW";"2007-06-01T09:00:00";"GMT";"-1.90%";"";"-1.40%";"Low"
"Exports (YoY) (May)";"South Korea";"KRW";"2007-06-01T09:00:00";"GMT";"17.00%";"";"11.10%";"Low"
"FX Reserves - USD (May)";"South Korea";"KRW";"2007-06-01T09:00:00";"GMT";"247.26B";"";"250.74B";"Low"
"Import Price Index (YoY) (May)";"South Korea";"KRW";"2007-06-01T09:00:00";"GMT";"4.20%";"";"2.80%";"Low"
"Imports (YoY) (May)";"South Korea";"KRW";"2007-06-01T09:00:00";"GMT";"20.90%";"";"13.90%";"Low"
"Industrial Production (MoM) (May)";"South Korea";"KRW";"2007-06-01T09:00:00";"GMT";"1.90%";"";"1.20%";"Low"
"Industrial Production (YoY) (May)";"South Korea";"KRW";"2007-06-01T09:00:00";"GMT";"6.40%";"";"5.80%";"Low"
"Interest Rate Decision (May)";"South Korea";"KRW";"2007-06-01T09:00:00";"GMT";"4.50%";"";"4.50%";"Low"
"M2 Money supply (May)";"South Korea";"KRW";"2007-06-01T09:00:00";"GMT";"10.90%";"";"11.20%";"Low"
"Manufacturing BSI Index (May)";"South Korea";"KRW";"2007-06-01T09:00:00";"GMT";"88.00";"";"87.00";"Low"
"PPI (MoM) (May)";"South Korea";"KRW";"2007-06-01T09:00:00";"GMT";"0.70%";"";"0.60%";"Low"
"PPI (YoY) (May)";"South Korea";"KRW";"2007-06-01T09:00:00";"GMT";"1.10%";"";"1.40%";"Low"
"Service Sector Output (MoM) (May)";"South Korea";"KRW";"2007-06-01T09:00:00";"GMT";"0.20%";"";"1.00%";"Low"
"Trade Balance (May)";"South Korea";"KRW";"2007-06-01T09:00:00";"GMT";"0.35B";"";"0.00B";"Low"
"Unemployment Rate (May)";"South Korea";"KRW";"2007-06-01T09:00:00";"GMT";"3.30%";"";"3.30%";"Low"
