"Italian CPI (MoM) (Oct)";"Italy";"EUR";"2016-11-14T09:00:00";"GMT";"0.0%";"0.0%";"-0.1%";"Moderate"
"Italian CPI (YoY) (Oct)";"Italy";"EUR";"2016-11-14T09:00:00";"GMT";"-0.1%";"-0.1%";"-0.2%";"Low"
"Italian HICP (MoM) (Oct)";"Italy";"EUR";"2016-11-14T09:00:00";"GMT";"0.2%";"0.2%";"0.2%";"Low"
"Italian HICP (YoY) (Oct)";"Italy";"EUR";"2016-11-14T09:00:00";"GMT";"-0.1%";"-0.1%";"-0.1%";"Low"
"Industrial Production (MoM) (Sep)";"Euro Zone";"EUR";"2016-11-14T10:00:00";"GMT";"1.8%";"-1.0%";"-0.8%";"Moderate"
"Industrial Production (YoY) (Sep)";"Euro Zone";"EUR";"2016-11-14T10:00:00";"GMT";"2.2%";"1.0%";"1.2%";"Low"
"French 12-Month BTF Auction";"France";"EUR";"2016-11-14T14:00:00";"GMT";"-0.677%";"";"-0.651%";"Low"
"French 3-Month BTF Auction";"France";"EUR";"2016-11-14T14:00:00";"GMT";"-0.734%";"";"-0.693%";"Low"
"French 6-Month BTF Auction";"France";"EUR";"2016-11-14T14:00:00";"GMT";"-0.703%";"";"-0.676%";"Low"
"ECB President Draghi Speaks";"Euro Zone";"EUR";"2016-11-14T15:00:00";"GMT";" ";"";"";"High"
"CFTC EUR speculative net positions";"Euro Zone";"EUR";"2016-11-14T20:30:00";"GMT";"-137.4K";"";"-129.3K";"Moderate"
