{"events": {"event": [
    {
      "eventDateTime": "2014-07-01T09:00:00",
      "eventActual": "89.70",
      "eventCountry": "South Africa",
      "eventExpectedVolatility": "Low",
      "eventName": "Business Confidence (Jun)",
      "eventTimeZone": "GMT",
      "eventPrevious": "88.90",
      "eventCurrency": "ZAR",
      "eventForecast": ""
    },
    {
      "eventDateTime": "2014-07-01T09:00:00",
      "eventActual": "6.61%",
      "eventCountry": "South Africa",
      "eventExpectedVolatility": "Low",
      "eventName": "CPI (YoY) (Jun)",
      "eventTimeZone": "GMT",
      "eventPrevious": "6.63%",
      "eventCurrency": "ZAR",
      "eventForecast": ""
    },
    {
      "eventDateTime": "2014-07-01T09:00:00",
      "eventActual": "0.60%",
      "eventCountry": "South Africa",
      "eventExpectedVolatility": "Moderate",
      "eventName": "Core CPI (MoM) (Jun)",
      "eventTimeZone": "GMT",
      "eventPrevious": "0.10%",
      "eventCurrency": "ZAR",
      "eventForecast": ""
    },
    {
      "eventDateTime": "2014-07-01T09:00:00",
      "eventActual": "5.60%",
      "eventCountry": "South Africa",
      "eventExpectedVolatility": "Low",
      "eventName": "Core CPI (YoY) (Jun)",
      "eventTimeZone": "GMT",
      "eventPrevious": "5.50%",
      "eventCurrency": "ZAR",
      "eventForecast": ""
    },
    {
      "eventDateTime": "2014-07-01T09:00:00",
      "eventActual": "48.65B",
      "eventCountry": "South Africa",
      "eventExpectedVolatility": "Low",
      "eventName": "Foreign Reserves (USD) (Jun)",
      "eventTimeZone": "GMT",
      "eventPrevious": "49.21B",
      "eventCurrency": "ZAR",
      "eventForecast": ""
    },
    {
      "eventDateTime": "2014-07-01T09:00:00",
      "eventActual": "-0.35%",
      "eventCountry": "South Africa",
      "eventExpectedVolatility": "Low",
      "eventName": "Gold Production (YoY) (Jun)",
      "eventTimeZone": "GMT",
      "eventPrevious": "-2.10%",
      "eventCurrency": "ZAR",
      "eventForecast": ""
    },
    {
      "eventDateTime": "2014-07-01T09:00:00",
      "eventActual": "7.16%",
      "eventCountry": "South Africa",
      "eventExpectedVolatility": "Low",
      "eventName": "M3 Money Supply (YoY) (Jun)",
      "eventTimeZone": "GMT",
      "eventPrevious": "7.50%",
      "eventCurrency": "ZAR",
      "eventForecast": ""
    },
    {
      "eventDateTime": "2014-07-01T09:00:00",
      "eventActual": "-3.91%",
      "eventCountry": "South Africa",
      "eventExpectedVolatility": "Low",
      "eventName": "Mining Production (Jun)",
      "eventTimeZone": "GMT",
      "eventPrevious": "-4.47%",
      "eventCurrency": "ZAR",
      "eventForecast": ""
    },
    {
      "eventDateTime": "2014-07-01T09:00:00",
      "eventActual": "44.83B",
      "eventCountry": "South Africa",
      "eventExpectedVolatility": "Low",
      "eventName": "Net FX Reserves (USD) (Jun)",
      "eventTimeZone": "GMT",
      "eventPrevious": "44.51B",
      "eventCurrency": "ZAR",
      "eventForecast": ""
    },
    {
      "eventDateTime": "2014-07-01T09:00:00",
      "eventActual": "8.14%",
      "eventCountry": "South Africa",
      "eventExpectedVolatility": "Low",
      "eventName": "PPI (YoY) (Jun)",
      "eventTimeZone": "GMT",
      "eventPrevious": "8.67%",
      "eventCurrency": "ZAR",
      "eventForecast": ""
    },
    {
      "eventDateTime": "2014-07-01T09:00:00",
      "eventActual": "9.00%",
      "eventCountry": "South Africa",
      "eventExpectedVolatility": "Low",
      "eventName": "Prime Rate (Jun)",
      "eventTimeZone": "GMT",
      "eventPrevious": "9.00%",
      "eventCurrency": "ZAR",
      "eventForecast": ""
    },
    {
      "eventDateTime": "2014-07-01T09:00:00",
      "eventActual": "8.57%",
      "eventCountry": "South Africa",
      "eventExpectedVolatility": "Low",
      "eventName": "Private Sector Credit (Jun)",
      "eventTimeZone": "GMT",
      "eventPrevious": "8.34%",
      "eventCurrency": "ZAR",
      "eventForecast": ""
    },
    {
      "eventDateTime": "2014-07-01T09:00:00",
      "eventActual": "49.50",
      "eventCountry": "South Africa",
      "eventExpectedVolatility": "Low",
      "eventName": "South Africa Standard Bank PMI (Jun)",
      "eventTimeZone": "GMT",
      "eventPrevious": "49.70",
      "eventCurrency": "ZAR",
      "eventForecast": ""
    },
    {
      "eventDateTime": "2014-07-01T09:00:00",
      "eventActual": "52.47K",
      "eventCountry": "South Africa",
      "eventExpectedVolatility": "Low",
      "eventName": "Total Vehicle Sales (Jun)",
      "eventTimeZone": "GMT",
      "eventPrevious": "49.11K",
      "eventCurrency": "ZAR",
      "eventForecast": ""
    },
    {
      "eventDateTime": "2014-07-01T09:00:00",
      "eventActual": "-2.20%",
      "eventCountry": "South Africa",
      "eventExpectedVolatility": "Low",
      "eventName": "Total Vehicle Sales (YoY) (Jun)",
      "eventTimeZone": "GMT",
      "eventPrevious": "-9.00%",
      "eventCurrency": "ZAR",
      "eventForecast": ""
    }
  ]}}
