{"events": {"event": [
    {
      "eventDateTime": "2019-02-04T06:30:00",
      "eventActual": "39.7%",
      "eventCountry": "United Kingdom",
      "eventExpectedVolatility": "Moderate",
      "eventName": "Investing.com GBP/USD Index",
      "eventTimeZone": "GMT",
      "eventPrevious": "25.7%",
      "eventCurrency": "GBP",
      "eventForecast": ""
    },
    {
      "eventDateTime": "2019-02-04T09:30:00",
      "eventActual": "50.6",
      "eventCountry": "United Kingdom",
      "eventExpectedVolatility": "High",
      "eventName": "Construction PMI (Jan)",
      "eventTimeZone": "GMT",
      "eventPrevious": "52.8",
      "eventCurrency": "GBP",
      "eventForecast": "52.6"
    }
  ]}}
