{"events": {"event": [
    {
      "eventDateTime": "2004-03-12T17:00:00",
      "eventActual": "169",
      "eventCountry": "United States",
      "eventExpectedVolatility": "Moderate",
      "eventName": "U.S. Baker Hughes Oil Rig Count",
      "eventTimeZone": "GMT",
      "eventPrevious": "161",
      "eventCurrency": "USD",
      "eventForecast": ""
    },
    {
      "eventDateTime": "2004-03-12T20:30:00",
      "eventActual": "75.7k",
      "eventCountry": "United States",
      "eventExpectedVolatility": "Moderate",
      "eventName": "CFTC Crude Oil speculative net positions",
      "eventTimeZone": "GMT",
      "eventPrevious": "82.5k",
      "eventCurrency": "USD",
      "eventForecast": ""
    }
  ]}}
