{"events": {"event": [
    {
      "eventDateTime": "2008-06-04T08:30:00",
      "eventActual": "",
      "eventCountry": "Euro Zone",
      "eventExpectedVolatility": "High",
      "eventName": "ECB President Trichet Speaks",
      "eventTimeZone": "GMT",
      "eventPrevious": "",
      "eventCurrency": "EUR",
      "eventForecast": ""
    },
    {
      "eventDateTime": "2008-06-04T09:00:00",
      "eventActual": "50.6",
      "eventCountry": "Euro Zone",
      "eventExpectedVolatility": "Moderate",
      "eventName": "Services PMI",
      "eventTimeZone": "GMT",
      "eventPrevious": "50.6",
      "eventCurrency": "EUR",
      "eventForecast": "50.6"
    },
    {
      "eventDateTime": "2008-06-04T10:00:00",
      "eventActual": "-0.6%",
      "eventCountry": "Euro Zone",
      "eventExpectedVolatility": "Moderate",
      "eventName": "Retail Sales (MoM)",
      "eventTimeZone": "GMT",
      "eventPrevious": "-0.4%",
      "eventCurrency": "EUR",
      "eventForecast": "0.2%"
    }
  ]}}
