{"events": {"event": {
    "eventDateTime": "2016-05-06T11:30:00",
    "eventActual": "363.12B",
    "eventCountry": "India",
    "eventExpectedVolatility": "Low",
    "eventName": "FX Reserves, USD",
    "eventTimeZone": "GMT",
    "eventPrevious": "361.60B",
    "eventCurrency": "INR",
    "eventForecast": ""
  }}}
