"Bank Lending (Dec)";"Singapore";"SGD";"2010-01-01T09:00:00";"GMT";"278.20B";"";"281.30B";"Low"
"CPI (YoY) (Dec)";"Singapore";"SGD";"2010-01-01T09:00:00";"GMT";"-0.79%";"";"-0.53%";"Moderate"
"Foreign Reserves USD (MoM) (Dec)";"Singapore";"SGD";"2010-01-01T09:00:00";"GMT";"188.90B";"";"187.80B";"Low"
"Industrial Production (MoM) (Dec)";"Singapore";"SGD";"2010-01-01T09:00:00";"GMT";"-5.80%";"";"11.60%";"Low"
"Industrial Production (YoY) (Dec)";"Singapore";"SGD";"2010-01-01T09:00:00";"GMT";"-9.60%";"";"15.30%";"Low"
"Manufacturing PMI (Dec)";"Singapore";"SGD";"2010-01-01T09:00:00";"GMT";"52.00";"";"53.30";"Low"
"Non-Oil Exports (MoM) (Dec)";"Singapore";"SGD";"2010-01-01T09:00:00";"GMT";"15.80%";"";"4.20%";"Low"
"Non-Oil Exports (YoY) (Dec)";"Singapore";"SGD";"2010-01-01T09:00:00";"GMT";"8.70%";"";"26.10%";"Low"
"Retail Sales (MoM) (Dec)";"Singapore";"SGD";"2010-01-01T09:00:00";"GMT";"0.20%";"";"-0.60%";"Low"
"Retail Sales (YoY) (Dec)";"Singapore";"SGD";"2010-01-01T09:00:00";"GMT";"-1.50%";"";"-4.80%";"Low"
