"Building Permits (MoM) (May)";"Canada";"CAD";"2017-07-06T12:30:00";"GMT";"0.5%";"2.6%";"8.9%";"Moderate"
"Exports (May)";"Canada";"CAD";"2017-07-06T12:30:00";"GMT";"48.05B";"";"48.69B";"Low"
"Imports (May)";"Canada";"CAD";"2017-07-06T12:30:00";"GMT";"48.60B";"";"49.77B";"Low"
"Trade Balance (May)";"Canada";"CAD";"2017-07-06T12:30:00";"GMT";"-0.55B";"-0.53B";"-1.09B";"Moderate"
