"10-Year Note Auction (May)";"United States";"USD";"2008-06-01T09:00:00";"GMT";"3.50%";"";"3.88%";"Moderate"
"5-Year Note Auction (May)";"United States";"USD";"2008-06-01T09:00:00";"GMT";"3.13%";"";"3.50%";"Low"
"All Car Sales (May)";"United States";"USD";"2008-06-01T09:00:00";"GMT";"7.33M";"";"7.96M";"Low"
"All Truck Sales (May)";"United States";"USD";"2008-06-01T09:00:00";"GMT";"6.94M";"";"6.41M";"Low"
"Average Weekly Hours (May)";"United States";"USD";"2008-06-01T09:00:00";"GMT";"34.50";"";"34.50";"Low"
"CB Employment Trends Index (May)";"United States";"USD";"2008-06-01T09:00:00";"GMT";"119.80";"";"118.10";"Low"
"CPI (YoY) (May)";"United States";"USD";"2008-06-01T09:00:00";"GMT";"3.90%";"";"4.20%";"Low"
"CPI Index, n.s.a. (May)";"United States";"USD";"2008-06-01T09:00:00";"GMT";"214.82";"";"216.63";"Low"
"Chain Store Sales (MoM) (May)";"United States";"USD";"2008-06-01T09:00:00";"GMT";"3.50%";"";"2.90%";"Low"
"Chain Store Sales (WoW) (May)";"United States";"USD";"2008-06-01T09:00:00";"GMT";"0.35%";"";"-0.52%";"Low"
"Chain Store Sales (YoY) (May)";"United States";"USD";"2008-06-01T09:00:00";"GMT";"1.53%";"";"1.28%";"Low"
"Challenger Job Cuts (May)";"United States";"USD";"2008-06-01T09:00:00";"GMT";"90.02K";"";"103.52K";"Low"
"Chicago Fed National Activity (May)";"United States";"USD";"2008-06-01T09:00:00";"GMT";"-1.11";"";"-1.28";"Low"
"Cleveland CPI (MoM) (May)";"United States";"USD";"2008-06-01T09:00:00";"GMT";"0.20%";"";"0.20%";"Low"
"Continuing Jobless Claims (May)";"United States";"USD";"2008-06-01T09:00:00";"GMT";"2,967.73K";"";"3,016.41K";"Low"
"Core CPI (YoY) (May)";"United States";"USD";"2008-06-01T09:00:00";"GMT";"2.30%";"";"2.30%";"Moderate"
"Core CPI Index (May)";"United States";"USD";"2008-06-01T09:00:00";"GMT";"214.56";"";"214.94";"Low"
"Core PCE Price Index (YoY) (May)";"United States";"USD";"2008-06-01T09:00:00";"GMT";"2.20%";"";"2.30%";"Moderate"
"Dallas Fed Mfg Business Index (May)";"United States";"USD";"2008-06-01T09:00:00";"GMT";"-31.10";"";"-18.60";"Low"
"Dallas Fed PCE (May)";"United States";"USD";"2008-06-01T09:00:00";"GMT";"2.30%";"";"2.50%";"Low"
"Dallas Fed Services Revenues (May)";"United States";"USD";"2008-06-01T09:00:00";"GMT";"9.80";"";"11.30";"Low"
"Domestic Truck Sales (May)";"United States";"USD";"2008-06-01T09:00:00";"GMT";"5.70M";"";"5.23M";"Low"
"Durables Excluding Defense (MoM) (May)";"United States";"USD";"2008-06-01T09:00:00";"GMT";"0.20%";"";"-0.50%";"Low"
"EIA Weekly Distillates Stocks (May)";"United States";"USD";"2008-06-01T09:00:00";"GMT";"-0.73M";"";"1.35M";"Low"
"Existing Home Sales (MoM) (May)";"United States";"USD";"2008-06-01T09:00:00";"GMT";"-1.20%";"";"0.70%";"Moderate"
"Export Price Index (MoM) (May)";"United States";"USD";"2008-06-01T09:00:00";"GMT";"0.50%";"";"0.30%";"Moderate"
"Factory orders ex transportation (MoM) (May)";"United States";"USD";"2008-06-01T09:00:00";"GMT";"3.10%";"";"0.50%";"Low"
"Federal Budget Balance (May)";"United States";"USD";"2008-06-01T09:00:00";"GMT";"159.30B";"";"-165.90B";"Moderate"
"Gasoline Inventories (May)";"United States";"USD";"2008-06-01T09:00:00";"GMT";"-2.83M";"";"-0.56M";"Low"
"Government Payrolls (May)";"United States";"USD";"2008-06-01T09:00:00";"GMT";"7.00K";"";"33.00K";"Low"
"House Price Index (May)";"United States";"USD";"2008-06-01T09:00:00";"GMT";"210.70";"";"208.40";"Low"
"House Price Index (MoM) (May)";"United States";"USD";"2008-06-01T09:00:00";"GMT";"-1.10%";"";"-1.10%";"Low"
"House Price Index (YoY) (May)";"United States";"USD";"2008-06-01T09:00:00";"GMT";"-7.20%";"";"-7.70%";"Low"
"Housing Starts (MoM) (May)";"United States";"USD";"2008-06-01T09:00:00";"GMT";"0.80%";"";"-3.90%";"Moderate"
"ISM Manufacturing Employment (May)";"United States";"USD";"2008-06-01T09:00:00";"GMT";"46.60";"";"46.10";"Moderate"
"ISM Manufacturing New Orders Index (May)";"United States";"USD";"2008-06-01T09:00:00";"GMT";"46.50";"";"48.50";"Low"
"ISM Non-Manufacturing Business Activity (May)";"United States";"USD";"2008-06-01T09:00:00";"GMT";"51.10";"";"53.30";"Low"
"ISM Non-Manufacturing Employment (May)";"United States";"USD";"2008-06-01T09:00:00";"GMT";"49.70";"";"47.20";"Moderate"
"ISM Non-Manufacturing New Orders (May)";"United States";"USD";"2008-06-01T09:00:00";"GMT";"50.30";"";"54.20";"Low"
"ISM Non-Manufacturing Prices (May)";"United States";"USD";"2008-06-01T09:00:00";"GMT";"70.80";"";"75.00";"Low"
"ISM-New York Index (May)";"United States";"USD";"2008-06-01T09:00:00";"GMT";"420.70";"";"414.90";"Low"
"JOLTs Job Openings (May)";"United States";"USD";"2008-06-01T09:00:00";"GMT";"3.85M";"";"4.00M";"High"
"Jobless Claims 4-Week Avg. (May)";"United States";"USD";"2008-06-01T09:00:00";"GMT";"364.88K";"";"366.23K";"Low"
"KC Fed Composite Index (May)";"United States";"USD";"2008-06-01T09:00:00";"GMT";"1.00";"";"0.00";"Low"
"KC Fed Manufacturing Index (May)";"United States";"USD";"2008-06-01T09:00:00";"GMT";"-2.00";"";"-3.00";"Low"
"MBA 30-Year Mortgage Rate (May)";"United States";"USD";"2008-06-01T09:00:00";"GMT";"5.90%";"";"5.96%";"Low"
"MBA Purchase Index (May)";"United States";"USD";"2008-06-01T09:00:00";"GMT";"367.17";"";"356.78";"Low"
"Manufacturing Payrolls (May)";"United States";"USD";"2008-06-01T09:00:00";"GMT";"-60.00K";"";"-35.00K";"Low"
"Manufacturing Production (MoM) (May)";"United States";"USD";"2008-06-01T09:00:00";"GMT";"-1.10%";"";"-0.50%";"Low"
"Michigan 5-Year Inflation Expectations (May)";"United States";"USD";"2008-06-01T09:00:00";"GMT";"3.20%";"";"3.40%";"Low"
"Michigan Consumer Expectations (May)";"United States";"USD";"2008-06-01T09:00:00";"GMT";"53.30";"";"51.70";"Moderate"
"Michigan Current Conditions (May)";"United States";"USD";"2008-06-01T09:00:00";"GMT";"78.40";"";"73.30";"Low"
"Michigan Inflation Expectations (May)";"United States";"USD";"2008-06-01T09:00:00";"GMT";"4.80%";"";"5.20%";"Low"
"Midwest Manufacturing (May)";"United States";"USD";"2008-06-01T09:00:00";"GMT";"97.90";"";"96.40";"Low"
"Mortgage Market Index (May)";"United States";"USD";"2008-06-01T09:00:00";"GMT";"664.03";"";"603.13";"Low"
"Mortgage Refinance Index (May)";"United States";"USD";"2008-06-01T09:00:00";"GMT";"2,409.44";"";"2,057.21";"Low"
"NFIB Small Business Optimism (May)";"United States";"USD";"2008-06-01T09:00:00";"GMT";"91.50";"";"89.30";"Low"
"Natural Gas Storage (May)";"United States";"USD";"2008-06-01T09:00:00";"GMT";"37.45B";"";"90.00B";"Low"
"New Home Sales (MoM) (May)";"United States";"USD";"2008-06-01T09:00:00";"GMT";"0.20%";"";"-6.00%";"Moderate"
"Overall Net Capital Flow (May)";"United States";"USD";"2008-06-01T09:00:00";"GMT";"70.60B";"";"-45.40B";"Low"
"Pending Home Sales Index (May)";"United States";"USD";"2008-06-01T09:00:00";"GMT";"88.40";"";"85.10";"Low"
"Philly Fed Business Conditions (May)";"United States";"USD";"2008-06-01T09:00:00";"GMT";"10.50";"";"19.90";"Low"
"Philly Fed CAPEX Index (May)";"United States";"USD";"2008-06-01T09:00:00";"GMT";"14.50";"";"16.60";"Low"
"Philly Fed Employment (May)";"United States";"USD";"2008-06-01T09:00:00";"GMT";"-4.50";"";"-2.50";"Moderate"
"Philly Fed New Orders (May)";"United States";"USD";"2008-06-01T09:00:00";"GMT";"-15.50";"";"-2.50";"Low"
"Philly Fed Prices Paid (May)";"United States";"USD";"2008-06-01T09:00:00";"GMT";"50.10";"";"50.20";"Low"
"Private Nonfarm Payrolls (May)";"United States";"USD";"2008-06-01T09:00:00";"GMT";"-220.00K";"";"-216.00K";"Moderate"
"Real Earnings (MoM) (May)";"United States";"USD";"2008-06-01T09:00:00";"GMT";"-0.50%";"";"-0.20%";"Low"
"Real Personal Consumption (MoM) (May)";"United States";"USD";"2008-06-01T09:00:00";"GMT";"0.20%";"";"0.00%";"Low"
"Redbook (MoM) (May)";"United States";"USD";"2008-06-01T09:00:00";"GMT";"-0.84%";"";"1.63%";"Low"
"Redbook (YoY) (May)";"United States";"USD";"2008-06-01T09:00:00";"GMT";"1.47%";"";"1.79%";"Low"
"Retail Control (MoM) (May)";"United States";"USD";"2008-06-01T09:00:00";"GMT";"1.20%";"";"0.70%";"Low"
"Retail Sales Ex Gas/Autos (MoM) (May)";"United States";"USD";"2008-06-01T09:00:00";"GMT";"1.10%";"";"0.70%";"Low"
"Richmond Manufacturing Shipments (May)";"United States";"USD";"2008-06-01T09:00:00";"GMT";"-12.00";"";"-10.00";"Low"
"Richmond Services Index (May)";"United States";"USD";"2008-06-01T09:00:00";"GMT";"-6.00";"";"-7.00";"Low"
"Sandamp;P/CS HPI Composite - 20 n.s.a. (MoM) (May)";"United States";"USD";"2008-06-01T09:00:00";"GMT";"-1.30%";"";"-0.80%";"Low"
"Sandamp;P/CS HPI Composite - 20 s.a. (MoM) (May)";"United States";"USD";"2008-06-01T09:00:00";"GMT";"-1.80%";"";"-1.70%";"Low"
"TIC Net Long-Term Transactions including Swaps (May)";"United States";"USD";"2008-06-01T09:00:00";"GMT";"88.40B";"";"51.30B";"Low"
"Texas Services Sector Outlook (May)";"United States";"USD";"2008-06-01T09:00:00";"GMT";"-21.80";"";"-13.70";"Low"
"US Foreign Buying, T-bonds (May)";"United States";"USD";"2008-06-01T09:00:00";"GMT";"76.60B";"";"1.80B";"Low"
"U6 Unemployment Rate (May)";"United States";"USD";"2008-06-01T12:30:00";"GMT";"9.20%";"";"9.70%";"Low"
"Unemployment Rate (May)";"United States";"USD";"2008-06-01T12:30:00";"GMT";"5%";"";"5.4%";"High"
