{"events": {"event": {
    "eventDateTime": "2018-07-27T11:30:00",
    "eventActual": "405.14B",
    "eventCountry": "India",
    "eventExpectedVolatility": "Low",
    "eventName": "FX Reserves, USD",
    "eventTimeZone": "GMT",
    "eventPrevious": "405.08B",
    "eventCurrency": "INR",
    "eventForecast": ""
  }}}
