"Investing.com USD/CAD Index";"Canada";"CAD";"2019-03-18T06:30:00";"GMT";"53.7%";"";"60.9%";"Moderate"
"Foreign Securities Purchases (Jan)";"Canada";"CAD";"2019-03-18T12:30:00";"GMT";"-20.49B";"";"28.40B";"Moderate"
"Foreign Securities Purchases by Canadians (Jan)";"Canada";"CAD";"2019-03-18T12:30:00";"GMT";"-0.43B";"";"-8.80B";"Low"
