{"events": {"event": [
    {
      "eventDateTime": "2011-09-16T13:00:00",
      "eventActual": "9.5B",
      "eventCountry": "United States",
      "eventExpectedVolatility": "Moderate",
      "eventName": "TIC Net Long-Term Transactions",
      "eventTimeZone": "GMT",
      "eventPrevious": "3.4B",
      "eventCurrency": "USD",
      "eventForecast": "27.3B"
    },
    {
      "eventDateTime": "2011-09-16T13:55:00",
      "eventActual": "57.8",
      "eventCountry": "United States",
      "eventExpectedVolatility": "Moderate",
      "eventName": "Michigan Consumer Sentiment",
      "eventTimeZone": "GMT",
      "eventPrevious": "55.7",
      "eventCurrency": "USD",
      "eventForecast": "56.0"
    },
    {
      "eventDateTime": "2011-09-16T13:55:00",
      "eventActual": "3.7%",
      "eventCountry": "United States",
      "eventExpectedVolatility": "Low",
      "eventName": "Michigan Inflation Expectations",
      "eventTimeZone": "GMT",
      "eventPrevious": "3.5%",
      "eventCurrency": "USD",
      "eventForecast": ""
    },
    {
      "eventDateTime": "2011-09-16T17:00:00",
      "eventActual": "1062",
      "eventCountry": "United States",
      "eventExpectedVolatility": "Moderate",
      "eventName": "U.S. Baker Hughes Oil Rig Count",
      "eventTimeZone": "GMT",
      "eventPrevious": "1057",
      "eventCurrency": "USD",
      "eventForecast": ""
    },
    {
      "eventDateTime": "2011-09-16T19:30:00",
      "eventActual": "168.8K",
      "eventCountry": "United States",
      "eventExpectedVolatility": "Moderate",
      "eventName": "CFTC Gold speculative net positions",
      "eventTimeZone": "GMT",
      "eventPrevious": "184.4K",
      "eventCurrency": "USD",
      "eventForecast": ""
    },
    {
      "eventDateTime": "2011-09-16T19:30:00",
      "eventActual": "26.3K",
      "eventCountry": "United States",
      "eventExpectedVolatility": "Low",
      "eventName": "CFTC Silver speculative net positions",
      "eventTimeZone": "GMT",
      "eventPrevious": "27.2K",
      "eventCurrency": "USD",
      "eventForecast": ""
    },
    {
      "eventDateTime": "2011-09-16T20:30:00",
      "eventActual": "165.4k",
      "eventCountry": "United States",
      "eventExpectedVolatility": "Moderate",
      "eventName": "CFTC Crude Oil speculative net positions",
      "eventTimeZone": "GMT",
      "eventPrevious": "165.1k",
      "eventCurrency": "USD",
      "eventForecast": ""
    }
  ]}}
