{"events": {"event": [
    {
      "eventDateTime": "2018-08-27T11:30:00",
      "eventActual": "",
      "eventCountry": "Brazil",
      "eventExpectedVolatility": "Moderate",
      "eventName": "BCB Focus Market Readout",
      "eventTimeZone": "GMT",
      "eventPrevious": "",
      "eventCurrency": "BRL",
      "eventForecast": ""
    },
    {
      "eventDateTime": "2018-08-27T13:30:00",
      "eventActual": "-4.40B",
      "eventCountry": "Brazil",
      "eventExpectedVolatility": "Low",
      "eventName": "Current Account (USD) (Jul)",
      "eventTimeZone": "GMT",
      "eventPrevious": "0.44B",
      "eventCurrency": "BRL",
      "eventForecast": "-3.80B"
    },
    {
      "eventDateTime": "2018-08-27T13:30:00",
      "eventActual": "3.90B",
      "eventCountry": "Brazil",
      "eventExpectedVolatility": "Low",
      "eventName": "Foreign direct investment (USD) (Jul)",
      "eventTimeZone": "GMT",
      "eventPrevious": "6.53B",
      "eventCurrency": "BRL",
      "eventForecast": "4.00B"
    }
  ]}}
