"German PPI (MoM) (Sep)";"Germany";"EUR";"2016-10-20T06:00:00";"GMT";"-0.1%";"0.2%";"-0.2%";"Moderate"
"German PPI (YoY) (Sep)";"Germany";"EUR";"2016-10-20T06:00:00";"GMT";"-1.6%";"-1.2%";"-1.4%";"Low"
"Current Account (Aug)";"Euro Zone";"EUR";"2016-10-20T08:00:00";"GMT";"27.7B";"24.3B";"29.7B";"Low"
"Current Account n.s.a. (Aug)";"Euro Zone";"EUR";"2016-10-20T08:00:00";"GMT";"33.8B";"";"23.6B";"Low"
"Net Investment Flow (Aug)";"Euro Zone";"EUR";"2016-10-20T08:00:00";"GMT";"80.9B";"";"79.8B";"Low"
"Spanish Trade Balance";"Spain";"EUR";"2016-10-20T08:00:00";"GMT";"-0.56B";"";"-2.56B";"Low"
"Spanish 10-Year Obligacion Auction";"Spain";"EUR";"2016-10-20T08:50:00";"GMT";"1.072%";"";"1.043%";"Moderate"
"Spanish 3-Year Bonos Auction";"Spain";"EUR";"2016-10-20T08:50:00";"GMT";"-0.098%";"";"-0.122%";"Low"
"Spanish 50-Year Obligacion Auction";"Spain";"EUR";"2016-10-20T08:50:00";"GMT";" ";"";"2.688%";"Moderate"
"French 5-Year BTAN Auction";"France";"EUR";"2016-10-20T09:00:00";"GMT";"-0.37%";"";"-0.38%";"Low"
"Deposit Facility Rate";"Euro Zone";"EUR";"2016-10-20T11:45:00";"GMT";"-0.40%";"-0.40%";"-0.40%";"High"
"ECB Interest Rate Decision (Oct)";"Euro Zone";"EUR";"2016-10-20T11:45:00";"GMT";"0.00%";"0.00%";"0.00%";"High"
"ECB Press Conference";"Euro Zone";"EUR";"2016-10-20T12:30:00";"GMT";" ";"";"";"High"
"EU Leaders Summit";"Euro Zone";"EUR";"2016-10-20T16:00:00";"GMT";" ";"";"";"High"
