{"events": {"event": [
    {
      "eventDateTime": "2019-07-08T11:00:00",
      "eventActual": "0.63%",
      "eventCountry": "Brazil",
      "eventExpectedVolatility": "Low",
      "eventName": "IGP-DI Inflation Index (MoM) (Jun)",
      "eventTimeZone": "GMT",
      "eventPrevious": "0.40%",
      "eventCurrency": "BRL",
      "eventForecast": "0.82%"
    },
    {
      "eventDateTime": "2019-07-08T11:30:00",
      "eventActual": "",
      "eventCountry": "Brazil",
      "eventExpectedVolatility": "Moderate",
      "eventName": "BCB Focus Market Readout",
      "eventTimeZone": "GMT",
      "eventPrevious": "",
      "eventCurrency": "BRL",
      "eventForecast": ""
    },
    {
      "eventDateTime": "2019-07-08T19:30:00",
      "eventActual": "-4.3K",
      "eventCountry": "Brazil",
      "eventExpectedVolatility": "Moderate",
      "eventName": "CFTC BRL speculative net positions",
      "eventTimeZone": "GMT",
      "eventPrevious": "-22.7K",
      "eventCurrency": "BRL",
      "eventForecast": ""
    }
  ]}}
