{"events": {"event": [
    {
      "eventDateTime": "2017-09-28T06:00:00",
      "eventActual": "10.8",
      "eventCountry": "Germany",
      "eventExpectedVolatility": "Moderate",
      "eventName": "GfK German Consumer Climate (Oct)",
      "eventTimeZone": "GMT",
      "eventPrevious": "10.9",
      "eventCurrency": "EUR",
      "eventForecast": "11.0"
    },
    {
      "eventDateTime": "2017-09-28T07:00:00",
      "eventActual": "0.2%",
      "eventCountry": "Spain",
      "eventExpectedVolatility": "Low",
      "eventName": "Spanish CPI (MoM) (Sep)",
      "eventTimeZone": "GMT",
      "eventPrevious": "0.2%",
      "eventCurrency": "EUR",
      "eventForecast": "0.1%"
    },
    {
      "eventDateTime": "2017-09-28T07:00:00",
      "eventActual": "1.8%",
      "eventCountry": "Spain",
      "eventExpectedVolatility": "Moderate",
      "eventName": "Spanish CPI (YoY) (Sep)",
      "eventTimeZone": "GMT",
      "eventPrevious": "1.6%",
      "eventCurrency": "EUR",
      "eventForecast": "1.8%"
    },
    {
      "eventDateTime": "2017-09-28T07:00:00",
      "eventActual": "0.6%",
      "eventCountry": "Spain",
      "eventExpectedVolatility": "Low",
      "eventName": "Spanish HICP (MoM) (Sep)",
      "eventTimeZone": "GMT",
      "eventPrevious": "0.2%",
      "eventCurrency": "EUR",
      "eventForecast": "0.8%"
    },
    {
      "eventDateTime": "2017-09-28T07:00:00",
      "eventActual": "1.9%",
      "eventCountry": "Spain",
      "eventExpectedVolatility": "Moderate",
      "eventName": "Spanish HICP (YoY) (Sep)",
      "eventTimeZone": "GMT",
      "eventPrevious": "2.0%",
      "eventCurrency": "EUR",
      "eventForecast": "2.0%"
    },
    {
      "eventDateTime": "2017-09-28T07:00:00",
      "eventActual": "1.6%",
      "eventCountry": "Spain",
      "eventExpectedVolatility": "Low",
      "eventName": "Spanish Retail Sales (YoY) (Aug)",
      "eventTimeZone": "GMT",
      "eventPrevious": "1.2%",
      "eventCurrency": "EUR",
      "eventForecast": "2.4%"
    },
    {
      "eventDateTime": "2017-09-28T08:00:00",
      "eventActual": "",
      "eventCountry": "Euro Zone",
      "eventExpectedVolatility": "Moderate",
      "eventName": "ECB's Praet Speaks",
      "eventTimeZone": "GMT",
      "eventPrevious": "",
      "eventCurrency": "EUR",
      "eventForecast": ""
    },
    {
      "eventDateTime": "2017-09-28T09:00:00",
      "eventActual": "1.34",
      "eventCountry": "Euro Zone",
      "eventExpectedVolatility": "Low",
      "eventName": "Business Climate (Sep)",
      "eventTimeZone": "GMT",
      "eventPrevious": "1.09",
      "eventCurrency": "EUR",
      "eventForecast": "1.11"
    },
    {
      "eventDateTime": "2017-09-28T09:00:00",
      "eventActual": "113.0",
      "eventCountry": "Euro Zone",
      "eventExpectedVolatility": "Low",
      "eventName": "Business and Consumer Survey (Sep)",
      "eventTimeZone": "GMT",
      "eventPrevious": "111.9",
      "eventCurrency": "EUR",
      "eventForecast": "112.0"
    },
    {
      "eventDateTime": "2017-09-28T09:00:00",
      "eventActual": "-1.2",
      "eventCountry": "Euro Zone",
      "eventExpectedVolatility": "Low",
      "eventName": "Consumer Confidence (Sep)",
      "eventTimeZone": "GMT",
      "eventPrevious": "-1.5",
      "eventCurrency": "EUR",
      "eventForecast": "-1.2"
    },
    {
      "eventDateTime": "2017-09-28T09:00:00",
      "eventActual": "14.2",
      "eventCountry": "Euro Zone",
      "eventExpectedVolatility": "Low",
      "eventName": "Consumer Inflation Expectation (Sep)",
      "eventTimeZone": "GMT",
      "eventPrevious": "11.6",
      "eventCurrency": "EUR",
      "eventForecast": ""
    },
    {
      "eventDateTime": "2017-09-28T09:00:00",
      "eventActual": "6.6",
      "eventCountry": "Euro Zone",
      "eventExpectedVolatility": "Low",
      "eventName": "Industrial Sentiment (Sep)",
      "eventTimeZone": "GMT",
      "eventPrevious": "5.0",
      "eventCurrency": "EUR",
      "eventForecast": "5.1"
    },
    {
      "eventDateTime": "2017-09-28T09:00:00",
      "eventActual": "10.5",
      "eventCountry": "Euro Zone",
      "eventExpectedVolatility": "Low",
      "eventName": "Selling Price Expectations (Sep)",
      "eventTimeZone": "GMT",
      "eventPrevious": "8.1",
      "eventCurrency": "EUR",
      "eventForecast": ""
    },
    {
      "eventDateTime": "2017-09-28T09:00:00",
      "eventActual": "15.3",
      "eventCountry": "Euro Zone",
      "eventExpectedVolatility": "Low",
      "eventName": "Services Sentiment (Sep)",
      "eventTimeZone": "GMT",
      "eventPrevious": "15.1",
      "eventCurrency": "EUR",
      "eventForecast": "14.9"
    },
    {
      "eventDateTime": "2017-09-28T09:30:00",
      "eventActual": "2.19%",
      "eventCountry": "Italy",
      "eventExpectedVolatility": "Moderate",
      "eventName": "Italian 10-Year BTP Auction",
      "eventTimeZone": "GMT",
      "eventPrevious": "2.09%",
      "eventCurrency": "EUR",
      "eventForecast": ""
    },
    {
      "eventDateTime": "2017-09-28T09:30:00",
      "eventActual": "0.83%",
      "eventCountry": "Italy",
      "eventExpectedVolatility": "Low",
      "eventName": "Italian 5-Year BTP Auction",
      "eventTimeZone": "GMT",
      "eventPrevious": "0.84%",
      "eventCurrency": "EUR",
      "eventForecast": ""
    },
    {
      "eventDateTime": "2017-09-28T11:10:00",
      "eventActual": "",
      "eventCountry": "Euro Zone",
      "eventExpectedVolatility": "Moderate",
      "eventName": "ECB's Lautenschlaeger Speaks",
      "eventTimeZone": "GMT",
      "eventPrevious": "",
      "eventCurrency": "EUR",
      "eventForecast": ""
    },
    {
      "eventDateTime": "2017-09-28T12:00:00",
      "eventActual": "0.1%",
      "eventCountry": "Germany",
      "eventExpectedVolatility": "Moderate",
      "eventName": "German CPI (MoM) (Sep)",
      "eventTimeZone": "GMT",
      "eventPrevious": "0.1%",
      "eventCurrency": "EUR",
      "eventForecast": "0.1%"
    },
    {
      "eventDateTime": "2017-09-28T12:00:00",
      "eventActual": "1.8%",
      "eventCountry": "Germany",
      "eventExpectedVolatility": "Low",
      "eventName": "German CPI (YoY) (Sep)",
      "eventTimeZone": "GMT",
      "eventPrevious": "1.8%",
      "eventCurrency": "EUR",
      "eventForecast": "1.8%"
    },
    {
      "eventDateTime": "2017-09-28T12:00:00",
      "eventActual": "0.0%",
      "eventCountry": "Germany",
      "eventExpectedVolatility": "Low",
      "eventName": "German HICP (MoM) (Sep)",
      "eventTimeZone": "GMT",
      "eventPrevious": "0.2%",
      "eventCurrency": "EUR",
      "eventForecast": "0.1%"
    },
    {
      "eventDateTime": "2017-09-28T12:00:00",
      "eventActual": "1.8%",
      "eventCountry": "Germany",
      "eventExpectedVolatility": "Low",
      "eventName": "German HICP (YoY) (Sep)",
      "eventTimeZone": "GMT",
      "eventPrevious": "1.8%",
      "eventCurrency": "EUR",
      "eventForecast": "1.9%"
    }
  ]}}
