{"events": {"event": {
    "eventDateTime": "2017-05-17T15:30:00",
    "eventActual": "0.50B",
    "eventCountry": "Brazil",
    "eventExpectedVolatility": "Low",
    "eventName": "Foreign Exchange Flows",
    "eventTimeZone": "GMT",
    "eventPrevious": "0.64B",
    "eventCurrency": "BRL",
    "eventForecast": ""
  }}}
