{"events": {"event": {
    "eventDateTime": "2018-08-23T12:30:00",
    "eventActual": "1.0%",
    "eventCountry": "Canada",
    "eventExpectedVolatility": "Low",
    "eventName": "Corporate Profits (QoQ)",
    "eventTimeZone": "GMT",
    "eventPrevious": "2.7%",
    "eventCurrency": "CAD",
    "eventForecast": ""
  }}}
