{"events": {"event": [
    {
      "eventDateTime": "2018-09-07T05:45:00",
      "eventActual": "2.4%",
      "eventCountry": "Switzerland",
      "eventExpectedVolatility": "Moderate",
      "eventName": "Unemployment Rate n.s.a. (Aug)",
      "eventTimeZone": "GMT",
      "eventPrevious": "2.4%",
      "eventCurrency": "CHF",
      "eventForecast": "2.4%"
    },
    {
      "eventDateTime": "2018-09-07T05:45:00",
      "eventActual": "2.6%",
      "eventCountry": "Switzerland",
      "eventExpectedVolatility": "Moderate",
      "eventName": "Unemployment Rate s.a. (Aug)",
      "eventTimeZone": "GMT",
      "eventPrevious": "2.6%",
      "eventCurrency": "CHF",
      "eventForecast": "2.6%"
    },
    {
      "eventDateTime": "2018-09-07T19:30:00",
      "eventActual": "-40.4K",
      "eventCountry": "Switzerland",
      "eventExpectedVolatility": "Low",
      "eventName": "CFTC CHF speculative net positions",
      "eventTimeZone": "GMT",
      "eventPrevious": "-44.7K",
      "eventCurrency": "CHF",
      "eventForecast": ""
    }
  ]}}
