{"events": {"event": {
    "eventDateTime": "2019-01-31T08:30:00",
    "eventActual": "3.7%",
    "eventCountry": "Hong Kong",
    "eventExpectedVolatility": "Low",
    "eventName": "M3 Money Supply (Dec)",
    "eventTimeZone": "GMT",
    "eventPrevious": "3.5%",
    "eventCurrency": "HKD",
    "eventForecast": ""
  }}}
