"Building Approvals (MoM) (Feb)";"Australia";"AUD";"2015-04-01T00:30:00";"GMT";"5.9%";"-4.0%";"-3.2%";"Moderate"
"Private House Approvals (Feb)";"Australia";"AUD";"2015-04-01T00:30:00";"GMT";"0.4%";"";"-0.1%";"Low"
"Commodity Prices (YoY)";"Australia";"AUD";"2015-04-01T05:30:00";"GMT";"-21.6%";"";"-19.7%";"Low"
"MI Inflation Gauge (MoM) (Mar)";"Australia";"AUD";"2015-04-01T23:30:00";"GMT";"0.0%";"";"0.4%";"Low"
