"Investing.com EUR/USD Index";"Euro Zone";"EUR";"2018-04-23T05:30:00";"GMT";"65.2%";"";"64.8%";"Moderate"
"French Manufacturing PMI (Apr)";"France";"EUR";"2018-04-23T07:00:00";"GMT";"53.7";"53.4";"53.4";"Moderate"
"French Markit Composite PMI (Apr)";"France";"EUR";"2018-04-23T07:00:00";"GMT";"56.3";"55.9";"56.9";"Low"
"French Services PMI (Apr)";"France";"EUR";"2018-04-23T07:00:00";"GMT";"56.9";"56.6";"57.4";"Moderate"
"German Composite PMI (Apr)";"Germany";"EUR";"2018-04-23T07:30:00";"GMT";"55.1";"54.8";"55.3";"Low"
"German Manufacturing PMI (Apr)";"Germany";"EUR";"2018-04-23T07:30:00";"GMT";"58.2";"57.6";"58.1";"High"
"German Services PMI (Apr)";"Germany";"EUR";"2018-04-23T07:30:00";"GMT";"53.9";"53.9";"54.1";"Moderate"
"Manufacturing PMI (Apr)";"Euro Zone";"EUR";"2018-04-23T08:00:00";"GMT";"56.6";"56.6";"56.0";"Moderate"
"Markit Composite PMI (Apr)";"Euro Zone";"EUR";"2018-04-23T08:00:00";"GMT";"55.2";"54.9";"55.2";"Moderate"
"Services PMI (Apr)";"Euro Zone";"EUR";"2018-04-23T08:00:00";"GMT";"54.9";"54.8";"55.0";"Moderate"
"German Buba Monthly Report";"Germany";"EUR";"2018-04-23T10:00:00";"GMT";" ";"";"";"Low"
"French 12-Month BTF Auction";"France";"EUR";"2018-04-23T13:00:00";"GMT";"-0.550%";"";"-0.550%";"Low"
"French 3-Month BTF Auction";"France";"EUR";"2018-04-23T13:00:00";"GMT";"-0.573%";"";"-0.572%";"Low"
"French 6-Month BTF Auction";"France";"EUR";"2018-04-23T13:00:00";"GMT";"-0.566%";"";"-0.566%";"Low"
"ECB's Coeure Speaks";"Euro Zone";"EUR";"2018-04-23T14:00:00";"GMT";" ";"";"";"Moderate"
