{"events": {"event": {
    "eventDateTime": "2013-11-28T09:30:00",
    "eventActual": "0.50%",
    "eventCountry": "South Africa",
    "eventExpectedVolatility": "Low",
    "eventName": "PPI (MoM)",
    "eventTimeZone": "GMT",
    "eventPrevious": "0.40%",
    "eventCurrency": "ZAR",
    "eventForecast": "0.60%"
  }}}
