"Foreign Bonds Buying";"Japan";"JPY";"2015-01-15T23:50:00";"GMT";"20.1B";"";"455.1B";"Low"
"Foreign Investments in Japanese Stocks";"Japan";"JPY";"2015-01-15T23:50:00";"GMT";"-40.7B";"";"-684.4B";"Low"
"Tertiary Industry Activity Index (MoM)";"Japan";"JPY";"2015-01-15T23:50:00";"GMT";"-0.1%";"0.3%";"0.2%";"Moderate"
