{"events": {"event": [
    {
      "eventDateTime": "2012-04-23T06:45:00",
      "eventActual": "95",
      "eventCountry": "France",
      "eventExpectedVolatility": "Low",
      "eventName": "French Business Survey",
      "eventTimeZone": "GMT",
      "eventPrevious": "98",
      "eventCurrency": "EUR",
      "eventForecast": "96"
    },
    {
      "eventDateTime": "2012-04-23T06:58:00",
      "eventActual": "47.3",
      "eventCountry": "France",
      "eventExpectedVolatility": "Moderate",
      "eventName": "French Manufacturing PMI",
      "eventTimeZone": "GMT",
      "eventPrevious": "46.7",
      "eventCurrency": "EUR",
      "eventForecast": "47.2"
    },
    {
      "eventDateTime": "2012-04-23T06:58:00",
      "eventActual": "46.4",
      "eventCountry": "France",
      "eventExpectedVolatility": "Moderate",
      "eventName": "French Services PMI",
      "eventTimeZone": "GMT",
      "eventPrevious": "50.1",
      "eventCurrency": "EUR",
      "eventForecast": "50.2"
    },
    {
      "eventDateTime": "2012-04-23T07:28:00",
      "eventActual": "46.3",
      "eventCountry": "Germany",
      "eventExpectedVolatility": "High",
      "eventName": "German Manufacturing PMI",
      "eventTimeZone": "GMT",
      "eventPrevious": "48.4",
      "eventCurrency": "EUR",
      "eventForecast": "49.0"
    },
    {
      "eventDateTime": "2012-04-23T07:28:00",
      "eventActual": "52.6",
      "eventCountry": "Germany",
      "eventExpectedVolatility": "Moderate",
      "eventName": "German Services PMI",
      "eventTimeZone": "GMT",
      "eventPrevious": "52.1",
      "eventCurrency": "EUR",
      "eventForecast": "52.3"
    },
    {
      "eventDateTime": "2012-04-23T08:00:00",
      "eventActual": "89.0",
      "eventCountry": "Italy",
      "eventExpectedVolatility": "Low",
      "eventName": "Italian Consumer Confidence",
      "eventTimeZone": "GMT",
      "eventPrevious": "96.3",
      "eventCurrency": "EUR",
      "eventForecast": "96.5"
    },
    {
      "eventDateTime": "2012-04-23T08:00:00",
      "eventActual": "46.0",
      "eventCountry": "Euro Zone",
      "eventExpectedVolatility": "Moderate",
      "eventName": "Manufacturing PMI",
      "eventTimeZone": "GMT",
      "eventPrevious": "47.7",
      "eventCurrency": "EUR",
      "eventForecast": "48.2"
    },
    {
      "eventDateTime": "2012-04-23T08:00:00",
      "eventActual": "47.9",
      "eventCountry": "Euro Zone",
      "eventExpectedVolatility": "Moderate",
      "eventName": "Services PMI",
      "eventTimeZone": "GMT",
      "eventPrevious": "49.2",
      "eventCurrency": "EUR",
      "eventForecast": "49.4"
    },
    {
      "eventDateTime": "2012-04-23T09:30:00",
      "eventActual": "0.074%",
      "eventCountry": "Germany",
      "eventExpectedVolatility": "Low",
      "eventName": "German 12-Month Bubill Auction",
      "eventTimeZone": "GMT",
      "eventPrevious": "0.077%",
      "eventCurrency": "EUR",
      "eventForecast": ""
    },
    {
      "eventDateTime": "2012-04-23T12:30:00",
      "eventActual": "0.250%",
      "eventCountry": "France",
      "eventExpectedVolatility": "Low",
      "eventName": "French 12-Month BTF Auction",
      "eventTimeZone": "GMT",
      "eventPrevious": "0.249%",
      "eventCurrency": "EUR",
      "eventForecast": ""
    },
    {
      "eventDateTime": "2012-04-23T12:30:00",
      "eventActual": "0.090%",
      "eventCountry": "France",
      "eventExpectedVolatility": "Low",
      "eventName": "French 3-Month BTF Auction",
      "eventTimeZone": "GMT",
      "eventPrevious": "0.084%",
      "eventCurrency": "EUR",
      "eventForecast": ""
    },
    {
      "eventDateTime": "2012-04-23T12:30:00",
      "eventActual": "0.121%",
      "eventCountry": "France",
      "eventExpectedVolatility": "Low",
      "eventName": "French 6-Month BTF Auction",
      "eventTimeZone": "GMT",
      "eventPrevious": "0.119%",
      "eventCurrency": "EUR",
      "eventForecast": ""
    }
  ]}}
