"Bank Lending";"Singapore";"SGD";"2014-07-31T02:00:00";"GMT";"597.5B";"";"597.7B";"Low"
"Unemployment Rate (Q2)";"Singapore";"SGD";"2014-07-31T02:00:00";"GMT";"2.0%";"2.0%";"2.0%";"Low"
"Business Expectations (Q3)";"Singapore";"SGD";"2014-07-31T05:00:00";"GMT";"7.00";"";"6.00";"Low"
