{"events": {"event": {
    "eventDateTime": "2012-06-25T23:50:00",
    "eventActual": "0.1%",
    "eventCountry": "Japan",
    "eventExpectedVolatility": "Low",
    "eventName": "Corporate Services Price Index (CSPI) (YoY)",
    "eventTimeZone": "GMT",
    "eventPrevious": "0.2%",
    "eventCurrency": "JPY",
    "eventForecast": "0.3%"
  }}}
