{"events": {"event": [
    {
      "eventDateTime": "2016-01-29T07:00:00",
      "eventActual": "4,881.90B",
      "eventCountry": "India",
      "eventExpectedVolatility": "Low",
      "eventName": "Federal Fiscal Deficit (Dec)",
      "eventTimeZone": "GMT",
      "eventPrevious": "4,835.23B",
      "eventCurrency": "INR",
      "eventForecast": ""
    },
    {
      "eventDateTime": "2016-01-29T11:30:00",
      "eventActual": "347.56B",
      "eventCountry": "India",
      "eventExpectedVolatility": "Low",
      "eventName": "FX Reserves, USD",
      "eventTimeZone": "GMT",
      "eventPrevious": "347.21B",
      "eventCurrency": "INR",
      "eventForecast": ""
    },
    {
      "eventDateTime": "2016-01-29T11:31:00",
      "eventActual": "",
      "eventCountry": "India",
      "eventExpectedVolatility": "Low",
      "eventName": "Infrastructure Output (YoY) (Dec)",
      "eventTimeZone": "GMT",
      "eventPrevious": "-1.3%",
      "eventCurrency": "INR",
      "eventForecast": ""
    }
  ]}}
