{"events": {"event": {
    "eventDateTime": "2016-02-15T13:00:00",
    "eventActual": "-2.7%",
    "eventCountry": "Russia",
    "eventExpectedVolatility": "Low",
    "eventName": "Industrial Production (YoY) (Jan)",
    "eventTimeZone": "GMT",
    "eventPrevious": "-4.5%",
    "eventCurrency": "RUB",
    "eventForecast": "-3.1%"
  }}}
