"BoJ Interest Rate Decision";"Japan";"JPY";"2011-05-20T03:15:00";"GMT";"0.10%";"0.10%";"0.10%";"Moderate"
"All Industries Activity Index (MoM)";"Japan";"JPY";"2011-05-20T04:30:00";"GMT";"0.7%";"-6.1%";"-6.3%";"Low"
"BoJ Press Conference";"Japan";"JPY";"2011-05-20T07:15:00";"GMT";" ";"";"";"High"
"CFTC JPY speculative net positions";"Japan";"JPY";"2011-05-20T19:30:00";"GMT";"13.1K";"";"15.4K";"Moderate"
