"CPI (MoM) (Feb)";"Russia";"RUB";"2003-03-01T09:00:00";"GMT";"2.40%";"";"1.60%";"Moderate"
"CPI (YoY) (Feb)";"Russia";"RUB";"2003-03-01T09:00:00";"GMT";"14.30%";"";"14.80%";"Moderate"
"Central Bank reserves (USD) (Feb)";"Russia";"RUB";"2003-03-01T09:00:00";"GMT";"49.30B";"";"53.10B";"Moderate"
"Industrial Production (YoY) (Feb)";"Russia";"RUB";"2003-03-01T09:00:00";"GMT";"5.40%";"";"8.30%";"Low"
"PPI (MoM) (Feb)";"Russia";"RUB";"2003-03-01T09:00:00";"GMT";"0.50%";"";"1.60%";"Low"
"Trade Balance (Feb)";"Russia";"RUB";"2003-03-01T09:00:00";"GMT";"4.90B";"";"4.65B";"Low"
"Unemployment Rate (Feb)";"Russia";"RUB";"2003-03-01T09:00:00";"GMT";"9.30%";"";"9.60%";"Moderate"
