{"events": {"event": {
    "eventDateTime": "2009-04-30T06:00:00",
    "eventActual": "-0.4%",
    "eventCountry": "United Kingdom",
    "eventExpectedVolatility": "Moderate",
    "eventName": "Nationwide HPI (MoM)",
    "eventTimeZone": "GMT",
    "eventPrevious": "0.9%",
    "eventCurrency": "GBP",
    "eventForecast": "-1.2%"
  }}}
