"CPI (MoM) (Mar)";"Switzerland";"CHF";"2003-04-01T09:00:00";"GMT";"0.10%";"";"0.40%";"Moderate"
"CPI (YoY) (Mar)";"Switzerland";"CHF";"2003-04-01T09:00:00";"GMT";"0.90%";"";"1.30%";"Low"
"Consumption Indicator (Mar)";"Switzerland";"CHF";"2003-04-01T09:00:00";"GMT";"0.68";"";"0.61";"Low"
"KOF Leading Indicators (Mar)";"Switzerland";"CHF";"2003-04-01T09:00:00";"GMT";"95.20";"";"94.90";"Moderate"
"PPI (MoM) (Mar)";"Switzerland";"CHF";"2003-04-01T09:00:00";"GMT";"-0.10%";"";"0.50%";"Moderate"
"PPI (YoY) (Mar)";"Switzerland";"CHF";"2003-04-01T09:00:00";"GMT";"0.00%";"";"0.30%";"Low"
"Retail Sales (YoY) (Mar)";"Switzerland";"CHF";"2003-04-01T09:00:00";"GMT";"-1.40%";"";"-1.30%";"Moderate"
"Trade Balance (Mar)";"Switzerland";"CHF";"2003-04-01T09:00:00";"GMT";"0.65B";"";"0.21B";"Low"
"Unemployment Rate n.s.a. (Mar)";"Switzerland";"CHF";"2003-04-01T09:00:00";"GMT";"3.60%";"";"3.60%";"Moderate"
"Unemployment Rate s.a. (Mar)";"Switzerland";"CHF";"2003-04-01T09:00:00";"GMT";"3.30%";"";"3.40%";"Moderate"
"procure.ch PMI (Mar)";"Switzerland";"CHF";"2003-04-01T09:00:00";"GMT";"49.40";"";"46.10";"Moderate"
