{"events": {"event": [
    {
      "eventDateTime": "2016-03-11T13:00:00",
      "eventActual": "7.89B",
      "eventCountry": "Russia",
      "eventExpectedVolatility": "Low",
      "eventName": "Trade Balance (Jan)",
      "eventTimeZone": "GMT",
      "eventPrevious": "10.98B",
      "eventCurrency": "RUB",
      "eventForecast": "9.75B"
    },
    {
      "eventDateTime": "2016-03-11T20:30:00",
      "eventActual": "2.6K",
      "eventCountry": "Russia",
      "eventExpectedVolatility": "Moderate",
      "eventName": "CFTC RUB speculative positions",
      "eventTimeZone": "GMT",
      "eventPrevious": "1.8K",
      "eventCurrency": "RUB",
      "eventForecast": ""
    }
  ]}}
