"Manufacturing PMI";"Japan";"JPY";"2013-04-29T23:13:00";"GMT";"50.4";"";"51.1";"Low"
"Household Spending (YoY)";"Japan";"JPY";"2013-04-29T23:30:00";"GMT";"0.8%";"1.8%";"5.2%";"Moderate"
"Unemployment Rate";"Japan";"JPY";"2013-04-29T23:30:00";"GMT";"4.3%";"4.3%";"4.1%";"Low"
"Industrial Production (MoM)";"Japan";"JPY";"2013-04-29T23:50:00";"GMT";"0.6%";"0.4%";"0.2%";"Moderate"
"Retail Sales (YoY)";"Japan";"JPY";"2013-04-29T23:50:00";"GMT";"-2.3%";"0.6%";"-0.3%";"Moderate"
