{"events": {"event": [
    {
      "eventDateTime": "2016-10-04T00:30:00",
      "eventActual": "0.0%",
      "eventCountry": "Australia",
      "eventExpectedVolatility": "Low",
      "eventName": "ANZ Internet Job Ads (MoM) (Sep)",
      "eventTimeZone": "GMT",
      "eventPrevious": "1.8%",
      "eventCurrency": "AUD",
      "eventForecast": ""
    },
    {
      "eventDateTime": "2016-10-04T00:30:00",
      "eventActual": "-0.3%",
      "eventCountry": "Australia",
      "eventExpectedVolatility": "Low",
      "eventName": "ANZ Job Advertisements (MoM)",
      "eventTimeZone": "GMT",
      "eventPrevious": "1.7%",
      "eventCurrency": "AUD",
      "eventForecast": ""
    },
    {
      "eventDateTime": "2016-10-04T00:30:00",
      "eventActual": "0.0%",
      "eventCountry": "Australia",
      "eventExpectedVolatility": "Low",
      "eventName": "ANZ Newspaper Job Ads (MoM) (Sep)",
      "eventTimeZone": "GMT",
      "eventPrevious": "-5.0%",
      "eventCurrency": "AUD",
      "eventForecast": ""
    },
    {
      "eventDateTime": "2016-10-04T00:30:00",
      "eventActual": "-1.8%",
      "eventCountry": "Australia",
      "eventExpectedVolatility": "Moderate",
      "eventName": "Building Approvals (MoM) (Aug)",
      "eventTimeZone": "GMT",
      "eventPrevious": "12.0%",
      "eventCurrency": "AUD",
      "eventForecast": "-7.0%"
    },
    {
      "eventDateTime": "2016-10-04T00:30:00",
      "eventActual": "-1.3%",
      "eventCountry": "Australia",
      "eventExpectedVolatility": "Low",
      "eventName": "Private House Approvals (Aug)",
      "eventTimeZone": "GMT",
      "eventPrevious": "-0.1%",
      "eventCurrency": "AUD",
      "eventForecast": ""
    },
    {
      "eventDateTime": "2016-10-04T03:30:00",
      "eventActual": "1.50%",
      "eventCountry": "Australia",
      "eventExpectedVolatility": "High",
      "eventName": "RBA Interest Rate Decision (Oct)",
      "eventTimeZone": "GMT",
      "eventPrevious": "1.50%",
      "eventCurrency": "AUD",
      "eventForecast": "1.50%"
    },
    {
      "eventDateTime": "2016-10-04T03:30:00",
      "eventActual": "",
      "eventCountry": "Australia",
      "eventExpectedVolatility": "High",
      "eventName": "RBA Rate Statement",
      "eventTimeZone": "GMT",
      "eventPrevious": "",
      "eventCurrency": "AUD",
      "eventForecast": ""
    },
    {
      "eventDateTime": "2016-10-04T05:30:00",
      "eventActual": "3.1%",
      "eventCountry": "Australia",
      "eventExpectedVolatility": "Low",
      "eventName": "Commodity Prices (YoY)",
      "eventTimeZone": "GMT",
      "eventPrevious": "0.3%",
      "eventCurrency": "AUD",
      "eventForecast": ""
    },
    {
      "eventDateTime": "2016-10-04T22:30:00",
      "eventActual": "48.9",
      "eventCountry": "Australia",
      "eventExpectedVolatility": "Low",
      "eventName": "AIG Services Index (Sep)",
      "eventTimeZone": "GMT",
      "eventPrevious": "45.0",
      "eventCurrency": "AUD",
      "eventForecast": ""
    }
  ]}}
