{"events": {"event": {
    "eventDateTime": "2016-04-11T14:18:00",
    "eventActual": "7.35B",
    "eventCountry": "Russia",
    "eventExpectedVolatility": "Low",
    "eventName": "Trade Balance (Feb)",
    "eventTimeZone": "GMT",
    "eventPrevious": "7.89B",
    "eventCurrency": "RUB",
    "eventForecast": "7.20B"
  }}}
