{"events": {"event": {
    "eventDateTime": "2012-05-15T05:00:00",
    "eventActual": "9.1%",
    "eventCountry": "Singapore",
    "eventExpectedVolatility": "Low",
    "eventName": "Retail Sales (YoY)",
    "eventTimeZone": "GMT",
    "eventPrevious": "19.0%",
    "eventCurrency": "SGD",
    "eventForecast": "7.2%"
  }}}
