"Core Retail Sales (MoM) (Jul)";"United Kingdom";"GBP";"2017-08-17T08:30:00";"GMT";"0.6%";"0.2%";"0.5%";"Moderate"
"Core Retail Sales (YoY) (Jul)";"United Kingdom";"GBP";"2017-08-17T08:30:00";"GMT";"2.8%";"1.3%";"1.5%";"Moderate"
"Retail Sales (MoM) (Jul)";"United Kingdom";"GBP";"2017-08-17T08:30:00";"GMT";"0.3%";"0.2%";"0.3%";"High"
"Retail Sales (YoY) (Jul)";"United Kingdom";"GBP";"2017-08-17T08:30:00";"GMT";"2.8%";"1.4%";"1.3%";"Moderate"
