"Markit Services PMI (Jun)";"Russia";"RUB";"2016-07-05T06:00:00";"GMT";"51.8";"52.2";"53.8";"Moderate"
"CPI (MoM)";"Russia";"RUB";"2016-07-05T13:00:00";"GMT";"0.4%";"0.3%";"0.4%";"Moderate"
"CPI (YoY)";"Russia";"RUB";"2016-07-05T13:00:00";"GMT";"7.3%";"7.4%";"7.5%";"Moderate"
