{"events": {"event": {
    "eventDateTime": "2013-07-09T12:15:00",
    "eventActual": "199.6K",
    "eventCountry": "Canada",
    "eventExpectedVolatility": "Moderate",
    "eventName": "Housing Starts",
    "eventTimeZone": "GMT",
    "eventPrevious": "204.6K",
    "eventCurrency": "CAD",
    "eventForecast": "187.0K"
  }}}
