{"events": {"event": {
    "eventDateTime": "2018-06-28T13:00:00",
    "eventActual": "456.3B",
    "eventCountry": "Russia",
    "eventExpectedVolatility": "Moderate",
    "eventName": "Central Bank reserves (USD)",
    "eventTimeZone": "GMT",
    "eventPrevious": "462.4B",
    "eventCurrency": "RUB",
    "eventForecast": ""
  }}}
