{"events": {"event": [
    {
      "eventDateTime": "2017-02-09T09:30:00",
      "eventActual": "-7.1%",
      "eventCountry": "South Africa",
      "eventExpectedVolatility": "Low",
      "eventName": "Gold Production (YoY) (Dec)",
      "eventTimeZone": "GMT",
      "eventPrevious": "-10.0%",
      "eventCurrency": "ZAR",
      "eventForecast": ""
    },
    {
      "eventDateTime": "2017-02-09T09:30:00",
      "eventActual": "-1.9%",
      "eventCountry": "South Africa",
      "eventExpectedVolatility": "Low",
      "eventName": "Mining Production (Dec)",
      "eventTimeZone": "GMT",
      "eventPrevious": "-4.5%",
      "eventCurrency": "ZAR",
      "eventForecast": "-3.8%"
    },
    {
      "eventDateTime": "2017-02-09T11:00:00",
      "eventActual": "0.3%",
      "eventCountry": "South Africa",
      "eventExpectedVolatility": "Low",
      "eventName": "Manufacturing Production (MoM) (Dec)",
      "eventTimeZone": "GMT",
      "eventPrevious": "0.3%",
      "eventCurrency": "ZAR",
      "eventForecast": "0.1%"
    }
  ]}}
