{"events": {"event": [
    {
      "eventDateTime": "2018-01-11T13:30:00",
      "eventActual": "1,867K",
      "eventCountry": "United States",
      "eventExpectedVolatility": "Low",
      "eventName": "Continuing Jobless Claims",
      "eventTimeZone": "GMT",
      "eventPrevious": "1,902K",
      "eventCurrency": "USD",
      "eventForecast": "1,915K"
    },
    {
      "eventDateTime": "2018-01-11T13:30:00",
      "eventActual": "-0.1%",
      "eventCountry": "United States",
      "eventExpectedVolatility": "Moderate",
      "eventName": "Core PPI (MoM) (Dec)",
      "eventTimeZone": "GMT",
      "eventPrevious": "0.3%",
      "eventCurrency": "USD",
      "eventForecast": "0.2%"
    },
    {
      "eventDateTime": "2018-01-11T13:30:00",
      "eventActual": "2.3%",
      "eventCountry": "United States",
      "eventExpectedVolatility": "Low",
      "eventName": "Core PPI (YoY) (Dec)",
      "eventTimeZone": "GMT",
      "eventPrevious": "2.4%",
      "eventCurrency": "USD",
      "eventForecast": "2.5%"
    },
    {
      "eventDateTime": "2018-01-11T13:30:00",
      "eventActual": "261K",
      "eventCountry": "United States",
      "eventExpectedVolatility": "Moderate",
      "eventName": "Initial Jobless Claims",
      "eventTimeZone": "GMT",
      "eventPrevious": "250K",
      "eventCurrency": "USD",
      "eventForecast": "246K"
    },
    {
      "eventDateTime": "2018-01-11T13:30:00",
      "eventActual": "250.75K",
      "eventCountry": "United States",
      "eventExpectedVolatility": "Low",
      "eventName": "Jobless Claims 4-Week Avg.",
      "eventTimeZone": "GMT",
      "eventPrevious": "241.75K",
      "eventCurrency": "USD",
      "eventForecast": ""
    },
    {
      "eventDateTime": "2018-01-11T13:30:00",
      "eventActual": "-0.1%",
      "eventCountry": "United States",
      "eventExpectedVolatility": "High",
      "eventName": "PPI (MoM) (Dec)",
      "eventTimeZone": "GMT",
      "eventPrevious": "0.4%",
      "eventCurrency": "USD",
      "eventForecast": "0.2%"
    },
    {
      "eventDateTime": "2018-01-11T13:30:00",
      "eventActual": "2.6%",
      "eventCountry": "United States",
      "eventExpectedVolatility": "Low",
      "eventName": "PPI (YoY) (Dec)",
      "eventTimeZone": "GMT",
      "eventPrevious": "3.1%",
      "eventCurrency": "USD",
      "eventForecast": "3.0%"
    },
    {
      "eventDateTime": "2018-01-11T14:45:00",
      "eventActual": "53.5",
      "eventCountry": "United States",
      "eventExpectedVolatility": "Low",
      "eventName": "Bloomberg Consumer Confidence",
      "eventTimeZone": "GMT",
      "eventPrevious": "51.8",
      "eventCurrency": "USD",
      "eventForecast": ""
    },
    {
      "eventDateTime": "2018-01-11T15:30:00",
      "eventActual": "-359B",
      "eventCountry": "United States",
      "eventExpectedVolatility": "Low",
      "eventName": "Natural Gas Storage",
      "eventTimeZone": "GMT",
      "eventPrevious": "-206B",
      "eventCurrency": "USD",
      "eventForecast": "-318B"
    },
    {
      "eventDateTime": "2018-01-11T18:00:00",
      "eventActual": "2.867%",
      "eventCountry": "United States",
      "eventExpectedVolatility": "Low",
      "eventName": "30-Year Bond Auction",
      "eventTimeZone": "GMT",
      "eventPrevious": "2.804%",
      "eventCurrency": "USD",
      "eventForecast": ""
    },
    {
      "eventDateTime": "2018-01-11T19:00:00",
      "eventActual": "-23.0B",
      "eventCountry": "United States",
      "eventExpectedVolatility": "Moderate",
      "eventName": "Federal Budget Balance (Dec)",
      "eventTimeZone": "GMT",
      "eventPrevious": "-139.0B",
      "eventCurrency": "USD",
      "eventForecast": "-34.5B"
    },
    {
      "eventDateTime": "2018-01-11T20:30:00",
      "eventActual": "",
      "eventCountry": "United States",
      "eventExpectedVolatility": "Moderate",
      "eventName": "FOMC Member Dudley Speaks",
      "eventTimeZone": "GMT",
      "eventPrevious": "",
      "eventCurrency": "USD",
      "eventForecast": ""
    }
  ]}}
