{"events": {"event": {
    "eventDateTime": "2018-06-25T21:00:00",
    "eventActual": "106",
    "eventCountry": "South Korea",
    "eventExpectedVolatility": "Low",
    "eventName": "Consumer Confidence (Jun)",
    "eventTimeZone": "GMT",
    "eventPrevious": "108",
    "eventCurrency": "KRW",
    "eventForecast": ""
  }}}
