{"events": {"event": {
    "eventDateTime": "2018-12-13T00:01:00",
    "eventActual": "-11%",
    "eventCountry": "United Kingdom",
    "eventExpectedVolatility": "Moderate",
    "eventName": "RICS House Price Balance (Nov)",
    "eventTimeZone": "GMT",
    "eventPrevious": "-10%",
    "eventCurrency": "GBP",
    "eventForecast": "-10%"
  }}}
