{"events": {"event": [
    {
      "eventDateTime": "2009-08-26T11:00:00",
      "eventActual": "7.5%",
      "eventCountry": "United States",
      "eventExpectedVolatility": "Low",
      "eventName": "MBA Mortgage Applications (WoW)",
      "eventTimeZone": "GMT",
      "eventPrevious": "5.6%",
      "eventCurrency": "USD",
      "eventForecast": ""
    },
    {
      "eventDateTime": "2009-08-26T12:30:00",
      "eventActual": "0.8%",
      "eventCountry": "United States",
      "eventExpectedVolatility": "High",
      "eventName": "Core Durable Goods Orders (MoM)",
      "eventTimeZone": "GMT",
      "eventPrevious": "2.5%",
      "eventCurrency": "USD",
      "eventForecast": "1.1%"
    },
    {
      "eventDateTime": "2009-08-26T12:30:00",
      "eventActual": "4.9%",
      "eventCountry": "United States",
      "eventExpectedVolatility": "Moderate",
      "eventName": "Durable Goods Orders (MoM)",
      "eventTimeZone": "GMT",
      "eventPrevious": "-1.3%",
      "eventCurrency": "USD",
      "eventForecast": "3.3%"
    },
    {
      "eventDateTime": "2009-08-26T14:00:00",
      "eventActual": "433K",
      "eventCountry": "United States",
      "eventExpectedVolatility": "High",
      "eventName": "New Home Sales",
      "eventTimeZone": "GMT",
      "eventPrevious": "395K",
      "eventCurrency": "USD",
      "eventForecast": "393K"
    },
    {
      "eventDateTime": "2009-08-26T14:30:00",
      "eventActual": "0.200M",
      "eventCountry": "United States",
      "eventExpectedVolatility": "High",
      "eventName": "Crude Oil Inventories",
      "eventTimeZone": "GMT",
      "eventPrevious": "-8.400M",
      "eventCurrency": "USD",
      "eventForecast": ""
    }
  ]}}
