{"events": {"event": [
    {
      "eventDateTime": "2018-12-12T08:00:00",
      "eventActual": "0.2%",
      "eventCountry": "South Africa",
      "eventExpectedVolatility": "Moderate",
      "eventName": "CPI (MoM) (Nov)",
      "eventTimeZone": "GMT",
      "eventPrevious": "0.5%",
      "eventCurrency": "ZAR",
      "eventForecast": "0.1%"
    },
    {
      "eventDateTime": "2018-12-12T08:00:00",
      "eventActual": "5.2%",
      "eventCountry": "South Africa",
      "eventExpectedVolatility": "Low",
      "eventName": "CPI (YoY) (Nov)",
      "eventTimeZone": "GMT",
      "eventPrevious": "5.1%",
      "eventCurrency": "ZAR",
      "eventForecast": "5.1%"
    },
    {
      "eventDateTime": "2018-12-12T08:00:00",
      "eventActual": "0.2%",
      "eventCountry": "South Africa",
      "eventExpectedVolatility": "Moderate",
      "eventName": "Core CPI (MoM) (Nov)",
      "eventTimeZone": "GMT",
      "eventPrevious": "0.1%",
      "eventCurrency": "ZAR",
      "eventForecast": "0.1%"
    },
    {
      "eventDateTime": "2018-12-12T08:00:00",
      "eventActual": "4.4%",
      "eventCountry": "South Africa",
      "eventExpectedVolatility": "Low",
      "eventName": "Core CPI (YoY) (Nov)",
      "eventTimeZone": "GMT",
      "eventPrevious": "4.2%",
      "eventCurrency": "ZAR",
      "eventForecast": "4.3%"
    },
    {
      "eventDateTime": "2018-12-12T11:00:00",
      "eventActual": "2.2%",
      "eventCountry": "South Africa",
      "eventExpectedVolatility": "Low",
      "eventName": "Retail Sales (YoY) (Oct)",
      "eventTimeZone": "GMT",
      "eventPrevious": "0.6%",
      "eventCurrency": "ZAR",
      "eventForecast": "1.8%"
    }
  ]}}
