{"events": {"event": [
    {
      "eventDateTime": "2014-02-27T21:00:00",
      "eventActual": "82.00",
      "eventCountry": "South Korea",
      "eventExpectedVolatility": "Low",
      "eventName": "Manufacturing BSI Index",
      "eventTimeZone": "GMT",
      "eventPrevious": "84.00",
      "eventCurrency": "KRW",
      "eventForecast": ""
    },
    {
      "eventDateTime": "2014-02-27T23:00:00",
      "eventActual": "0.1%",
      "eventCountry": "South Korea",
      "eventExpectedVolatility": "Low",
      "eventName": "Industrial Production (MoM)",
      "eventTimeZone": "GMT",
      "eventPrevious": "2.4%",
      "eventCurrency": "KRW",
      "eventForecast": "-0.8%"
    },
    {
      "eventDateTime": "2014-02-27T23:00:00",
      "eventActual": "-3.8%",
      "eventCountry": "South Korea",
      "eventExpectedVolatility": "Low",
      "eventName": "Industrial Production (YoY)",
      "eventTimeZone": "GMT",
      "eventPrevious": "2.9%",
      "eventCurrency": "KRW",
      "eventForecast": "-1.4%"
    },
    {
      "eventDateTime": "2014-02-27T23:00:00",
      "eventActual": "2.4%",
      "eventCountry": "South Korea",
      "eventExpectedVolatility": "Low",
      "eventName": "Retail Sales (MoM)",
      "eventTimeZone": "GMT",
      "eventPrevious": "-1.1%",
      "eventCurrency": "KRW",
      "eventForecast": "0.4%"
    },
    {
      "eventDateTime": "2014-02-27T23:00:00",
      "eventActual": "0.9%",
      "eventCountry": "South Korea",
      "eventExpectedVolatility": "Low",
      "eventName": "Service Sector Output (MoM)",
      "eventTimeZone": "GMT",
      "eventPrevious": "-0.7%",
      "eventCurrency": "KRW",
      "eventForecast": ""
    }
  ]}}
