{"events": {"event": [
    {
      "eventDateTime": "2016-11-01T12:55:00",
      "eventActual": "-0.1%",
      "eventCountry": "United States",
      "eventExpectedVolatility": "Low",
      "eventName": "Redbook (MoM)",
      "eventTimeZone": "GMT",
      "eventPrevious": "-0.1%",
      "eventCurrency": "USD",
      "eventForecast": ""
    },
    {
      "eventDateTime": "2016-11-01T12:55:00",
      "eventActual": "0.6%",
      "eventCountry": "United States",
      "eventExpectedVolatility": "Low",
      "eventName": "Redbook (YoY)",
      "eventTimeZone": "GMT",
      "eventPrevious": "0.3%",
      "eventCurrency": "USD",
      "eventForecast": ""
    },
    {
      "eventDateTime": "2016-11-01T13:45:00",
      "eventActual": "53.4",
      "eventCountry": "United States",
      "eventExpectedVolatility": "Moderate",
      "eventName": "Manufacturing PMI (Oct)",
      "eventTimeZone": "GMT",
      "eventPrevious": "53.2",
      "eventCurrency": "USD",
      "eventForecast": "53.3"
    },
    {
      "eventDateTime": "2016-11-01T14:00:00",
      "eventActual": "-0.4%",
      "eventCountry": "United States",
      "eventExpectedVolatility": "Low",
      "eventName": "Construction Spending (MoM) (Sep)",
      "eventTimeZone": "GMT",
      "eventPrevious": "-0.5%",
      "eventCurrency": "USD",
      "eventForecast": "0.5%"
    },
    {
      "eventDateTime": "2016-11-01T14:00:00",
      "eventActual": "51.4",
      "eventCountry": "United States",
      "eventExpectedVolatility": "Low",
      "eventName": "IBD/TIPP Economic Optimism",
      "eventTimeZone": "GMT",
      "eventPrevious": "51.3",
      "eventCurrency": "USD",
      "eventForecast": "50.5"
    },
    {
      "eventDateTime": "2016-11-01T14:00:00",
      "eventActual": "52.9",
      "eventCountry": "United States",
      "eventExpectedVolatility": "Moderate",
      "eventName": "ISM Manufacturing Employment (Oct)",
      "eventTimeZone": "GMT",
      "eventPrevious": "49.7",
      "eventCurrency": "USD",
      "eventForecast": "50.0"
    },
    {
      "eventDateTime": "2016-11-01T14:00:00",
      "eventActual": "52.1",
      "eventCountry": "United States",
      "eventExpectedVolatility": "Low",
      "eventName": "ISM Manufacturing New Orders Index (Oct)",
      "eventTimeZone": "GMT",
      "eventPrevious": "55.1",
      "eventCurrency": "USD",
      "eventForecast": ""
    },
    {
      "eventDateTime": "2016-11-01T14:00:00",
      "eventActual": "51.9",
      "eventCountry": "United States",
      "eventExpectedVolatility": "High",
      "eventName": "ISM Manufacturing PMI (Oct)",
      "eventTimeZone": "GMT",
      "eventPrevious": "51.5",
      "eventCurrency": "USD",
      "eventForecast": "51.7"
    },
    {
      "eventDateTime": "2016-11-01T14:00:00",
      "eventActual": "54.5",
      "eventCountry": "United States",
      "eventExpectedVolatility": "Low",
      "eventName": "ISM Manufacturing Prices (Oct)",
      "eventTimeZone": "GMT",
      "eventPrevious": "53.0",
      "eventCurrency": "USD",
      "eventForecast": "54.0"
    },
    {
      "eventDateTime": "2016-11-01T14:30:00",
      "eventActual": "9.9",
      "eventCountry": "United States",
      "eventExpectedVolatility": "Low",
      "eventName": "Dallas Fed Services Revenues (Oct)",
      "eventTimeZone": "GMT",
      "eventPrevious": "13.0",
      "eventCurrency": "USD",
      "eventForecast": ""
    },
    {
      "eventDateTime": "2016-11-01T14:30:00",
      "eventActual": "3.0",
      "eventCountry": "United States",
      "eventExpectedVolatility": "Low",
      "eventName": "Texas Services Sector Outlook (Oct)",
      "eventTimeZone": "GMT",
      "eventPrevious": "4.7",
      "eventCurrency": "USD",
      "eventForecast": ""
    },
    {
      "eventDateTime": "2016-11-01T15:30:00",
      "eventActual": "0.240%",
      "eventCountry": "United States",
      "eventExpectedVolatility": "Low",
      "eventName": "4-Week Bill Auction",
      "eventTimeZone": "GMT",
      "eventPrevious": "0.240%",
      "eventCurrency": "USD",
      "eventForecast": ""
    },
    {
      "eventDateTime": "2016-11-01T17:30:00",
      "eventActual": "11.02M",
      "eventCountry": "United States",
      "eventExpectedVolatility": "Low",
      "eventName": "All Truck Sales (Oct)",
      "eventTimeZone": "GMT",
      "eventPrevious": "10.51M",
      "eventCurrency": "USD",
      "eventForecast": ""
    },
    {
      "eventDateTime": "2016-11-01T17:30:00",
      "eventActual": "9.27M",
      "eventCountry": "United States",
      "eventExpectedVolatility": "Low",
      "eventName": "Domestic Truck Sales (Oct)",
      "eventTimeZone": "GMT",
      "eventPrevious": "8.85M",
      "eventCurrency": "USD",
      "eventForecast": "8.60M"
    },
    {
      "eventDateTime": "2016-11-01T20:00:00",
      "eventActual": "7.27M",
      "eventCountry": "United States",
      "eventExpectedVolatility": "Low",
      "eventName": "All Car Sales",
      "eventTimeZone": "GMT",
      "eventPrevious": "7.24M",
      "eventCurrency": "USD",
      "eventForecast": ""
    },
    {
      "eventDateTime": "2016-11-01T20:00:00",
      "eventActual": "5.31M",
      "eventCountry": "United States",
      "eventExpectedVolatility": "Low",
      "eventName": "Domestic Car Sales",
      "eventTimeZone": "GMT",
      "eventPrevious": "5.30M",
      "eventCurrency": "USD",
      "eventForecast": ""
    },
    {
      "eventDateTime": "2016-11-01T20:00:00",
      "eventActual": "18.29M",
      "eventCountry": "United States",
      "eventExpectedVolatility": "Low",
      "eventName": "Total Vehicle Sales",
      "eventTimeZone": "GMT",
      "eventPrevious": "17.76M",
      "eventCurrency": "USD",
      "eventForecast": "17.50M"
    },
    {
      "eventDateTime": "2016-11-01T20:35:00",
      "eventActual": "9.300M",
      "eventCountry": "United States",
      "eventExpectedVolatility": "Moderate",
      "eventName": "API Weekly Crude Oil Stock",
      "eventTimeZone": "GMT",
      "eventPrevious": "4.800M",
      "eventCurrency": "USD",
      "eventForecast": "1.600M"
    }
  ]}}
