{"events": {"event": {
    "eventDateTime": "2011-07-15T19:30:00",
    "eventActual": "19.6K",
    "eventCountry": "New Zealand",
    "eventExpectedVolatility": "Low",
    "eventName": "CFTC NZD speculative net positions",
    "eventTimeZone": "GMT",
    "eventPrevious": "19.0K",
    "eventCurrency": "NZD",
    "eventForecast": ""
  }}}
